%!PS-Adobe-2.0 EPSF-2.0
%%BoundingBox:  0 0 567 421
%%Title: dataset_class_comb2_BDT4/plots/mvaeffs_BDT.eps: Cut efficiencies for BDT classifier
%%Creator: ROOT Version 6.18/00
%%CreationDate: Sat Sep 14 15:21:10 2019
%%DocumentNeededResources: ProcSet (FontSetInit)
%%EndComments
%%BeginProlog
80 dict begin
/s {stroke} def /l {lineto} def /m {moveto} def /t {translate} def
/r {rotate} def /rl {roll}  def /R {repeat} def
/d {rlineto} def /rm {rmoveto} def /gr {grestore} def /f {eofill} def
/c {setrgbcolor} def /black {0 setgray} def /sd {setdash} def
/cl {closepath} def /sf {scalefont setfont} def /lw {setlinewidth} def
/box {m dup 0 exch d exch 0 d 0 exch neg d cl} def
/NC{systemdict begin initclip end}def/C{NC box clip newpath}def
/bl {box s} def /bf {gsave box gsave f grestore 1 lw [] 0 sd s grestore} def /Y { 0 exch d} def /X { 0 d} def 
/K {{pop pop 0 moveto} exch kshow} bind def
/ita {/ang 15 def gsave [1 0 ang dup sin exch cos div 1 0 0] concat} def 
/mp {newpath /y exch def /x exch def} def
/side {[w .77 mul w .23 mul] .385 w mul sd w 0 l currentpoint t -144 r} def
/mr {mp x y w2 0 360 arc} def /m24 {mr s} def /m20 {mr f} def
/mb {mp x y w2 add m w2 neg 0 d 0 w neg d w 0 d 0 w d cl} def
/mt {mp x y w2 add m w2 neg w neg d w 0 d cl} def
/w4 {w 4 div} def
/w6 {w 6 div} def
/w8 {w 8 div} def
/m21 {mb f} def /m25 {mb s} def /m22 {mt f} def /m26{mt s} def
/m23 {mp x y w2 sub m w2 w d w neg 0 d cl f} def
/m27 {mp x y w2 add m w3 neg w2 neg d w3 w2 neg d w3 w2 d cl s} def
/m28 {mp x w2 sub y w2 sub w3 add m w3 0 d  0 w3 neg d w3 0 d 0 w3 d w3 0 d  0 w3 d w3 neg 0 d 0 w3 d w3 neg 0 d 0 w3 neg d w3 neg 0 d cl s } def
/m29 {mp gsave x w2 sub y w2 add w3 sub m currentpoint t 4 {side} repeat cl fill gr} def
/m30 {mp gsave x w2 sub y w2 add w3 sub m currentpoint t 4 {side} repeat cl s gr} def
/m31 {mp x y w2 sub m 0 w d x w2 sub y m w 0 d x w2 sub y w2 add m w w neg d x w2 sub y w2 sub m w w d s} def
/m32 {mp x y w2 sub m w2 w d w neg 0 d cl s} def
/m33 {mp x y w2 add m w3 neg w2 neg d w3 w2 neg d w3 w2 d cl f} def
/m34 {mp x w2 sub y w2 sub w3 add m w3 0 d  0 w3 neg d w3 0 d 0 w3 d w3 0 d  0 w3 d w3 neg 0 d 0 w3 d w3 neg 0 d 0 w3 neg d w3 neg 0 d cl f } def
/m35 {mp x y w2 add m w2 neg w2 neg d w2 w2 neg d w2 w2 d w2 neg w2 d x y w2 sub m 0 w d x w2 sub y m w 0 d s} def
/m36 {mb x w2 sub y w2 add m w w neg d x w2 sub y w2 sub m w w d s} def
/m37 {mp x y m w4 neg w2 d w4 neg w2 neg d w2 0 d  w4 neg w2 neg d w2 0 d w4 neg w2 d w2 0 d w4 neg w2 d w4 neg w2 neg d cl s} def
/m38 {mp x w4 sub y w2 add m w4 neg w4 neg d 0 w2 neg d w4 w4 neg d w2 0 d w4 w4 d 0 w2 d w4 neg w4 d w2 neg 0 d x y w2 sub m 0 w d x w2 sub y m w 0 d cl s} def
/m39 {mp x y m w4 neg w2 d w4 neg w2 neg d w2 0 d  w4 neg w2 neg d w2 0 d w4 neg w2 d w2 0 d w4 neg w2 d w4 neg w2 neg d cl f} def
/m40 {mp x y m w4 w2 d w4 w4 neg d w2 neg w4 neg d w2 w4 neg d w4 neg w4 neg d w4 neg w2 d w4 neg w2 neg d w4 neg w4 d w2 w4 d w2 neg w4 d w4 w4 d w4 w2 neg d cl s} def
/m41 {mp x y m w4 w2 d w4 w4 neg d w2 neg w4 neg d w2 w4 neg d w4 neg w4 neg d w4 neg w2 d w4 neg w2 neg d w4 neg w4 d w2 w4 d w2 neg w4 d w4 w4 d w4 w2 neg d cl f} def
/m42 {mp x y w2 add m w8 neg w2 -3 4 div mul d w2 -3 4 div mul w8 neg d w2 3 4 div mul w8 neg d w8 w2 -3 4 div mul d w8 w2 3 4 div mul d w2 3 4 div mul w8 d w2 -3 4 div mul w8 d w8 neg w2 3 4 div mul d cl s} def
/m43 {mp x y w2 add m w8 neg w2 -3 4 div mul d w2 -3 4 div mul w8 neg d w2 3 4 div mul w8 neg d w8 w2 -3 4 div mul d w8 w2 3 4 div mul d w2 3 4 div mul w8 d w2 -3 4 div mul w8 d w8 neg w2 3 4 div mul d cl f} def
/m44 {mp x y m w6 neg w2 d w2 2 3 div mul 0 d w6 neg w2 neg d w2 w6 d 0 w2 -2 3 div mul d w2 neg w6 d w6 w2 neg d w2 -2 3 div mul 0 d w6 w2 d w2 neg w6 neg d 0 w2 2 3 div mul d w2 w6 neg d cl s} def
/m45 {mp x y m w6 neg w2 d w2 2 3 div mul 0 d w6 neg w2 neg d w2 w6 d 0 w2 -2 3 div mul d w2 neg w6 d w6 w2 neg d w2 -2 3 div mul 0 d w6 w2 d w2 neg w6 neg d 0 w2 2 3 div mul d w2 w6 neg d cl f} def
/m46 {mp x y w4 add m w4 neg w4 d w4 neg w4 neg d  w4 w4 neg d w4 neg w4 neg d w4 w4 neg d w4 w4 d w4 w4 neg d w4 w4 d w4 neg w4 d w4 w4 d w4 neg w4 d w4 neg w4 neg d cl s} def
/m47 {mp x y w4 add m w4 neg w4 d w4 neg w4 neg d w4 w4 neg d w4 neg w4 neg d  w4 w4 neg d w4 w4 d w4 w4 neg d w4 w4 d w4 neg w4 d w4 w4 d w4 neg w4 d w4 neg w4 neg d cl f} def
/m48 {mp x y w4 add m w4 neg w4 d w4 neg w4 neg d w4 w4 neg d  w4 neg w4 neg d w4 w4 neg d w4 w4 d w4 w4 neg d w4 w4 d w4 neg w4 d w4 w4 d w4 neg w4 d w4 neg w4 neg d  w4 w4 neg d w4 neg w4 neg d w4 neg w4 d w4 w4 d cl f} def
/m49 {mp x w2 sub w3 add y w2 sub w3 add m  0 w3 neg d w3 0 d 0 w3 d w3 0 d 0 w3 d w3 neg 0 d 0 w3 d w3 neg 0 d 0 w3 neg d w3 neg 0 d 0 w3 neg d w3 0 d 0 w3 d w3 0 d 0 w3 neg d w3 neg 0 d cl f } def
/m2 {mp x y w2 sub m 0 w d x w2 sub y m w 0 d s} def
/m5 {mp x w2 sub y w2 sub m w w d x w2 sub y w2 add m w w neg d s} def
%%IncludeResource: ProcSet (FontSetInit)
%%IncludeResource: font Times-Roman
%%IncludeResource: font Times-Italic
%%IncludeResource: font Times-Bold
%%IncludeResource: font Times-BoldItalic
%%IncludeResource: font Helvetica
%%IncludeResource: font Helvetica-Oblique
%%IncludeResource: font Helvetica-Bold
%%IncludeResource: font Helvetica-BoldOblique
%%IncludeResource: font Courier
%%IncludeResource: font Courier-Oblique
%%IncludeResource: font Courier-Bold
%%IncludeResource: font Courier-BoldOblique
%%IncludeResource: font Symbol
%%IncludeResource: font ZapfDingbats
/reEncode {exch findfont dup length dict begin {1 index /FID eq  {pop pop} {def} ifelse } forall /Encoding exch def currentdict end dup /FontName get exch definefont pop } def [/Times-Bold /Times-Italic /Times-BoldItalic /Helvetica /Helvetica-Oblique
 /Helvetica-Bold /Helvetica-BoldOblique /Courier /Courier-Oblique /Courier-Bold /Courier-BoldOblique /Times-Roman /AvantGarde-Book /AvantGarde-BookOblique /AvantGarde-Demi /AvantGarde-DemiOblique /Bookman-Demi /Bookman-DemiItalic /Bookman-Light
 /Bookman-LightItalic /Helvetica-Narrow /Helvetica-Narrow-Bold /Helvetica-Narrow-BoldOblique /Helvetica-Narrow-Oblique /NewCenturySchlbk-Roman /NewCenturySchlbk-Bold /NewCenturySchlbk-BoldItalic /NewCenturySchlbk-Italic /Palatino-Bold
 /Palatino-BoldItalic /Palatino-Italic /Palatino-Roman ] {ISOLatin1Encoding reEncode } forall
%%EndProlog
%%BeginSetup
%%EndSetup
newpath  gsave  .25 .25 scale  gsave  0 0 t 0.490196 0.545098 0.615686 c[  ] 0 sd 3 lw 0.941176 0.941176 0.941176 c 2268 1684 0 0 bf black 1 1 0.992157 c 1796 1145 245 202 bf black 1796 1145 245 202 bl 1 1 0.992157 c 1796 1145 245 202 bf black 1796
 1145 245 202 bl 245 202 m 1796 X s[ 4 8] 0 sd 405 1347 m -1145 Y s 735 1347 m -1145 Y s 1065 1347 m -1145 Y s 1396 1347 m -1145 Y s 1726 1347 m -1145 Y s 405 1347 m -1145 Y s 1726 1347 m -1145 Y s[  ] 0 sd 245 202 m 1145 Y s[ 4 8] 0 sd 2041 202 m
 -1796 X s 2041 410 m -1796 X s 2041 618 m -1796 X s 2041 827 m -1796 X s 2041 1035 m -1796 X s 2041 1243 m -1796 X s 2041 1243 m -1796 X s 0 0 0.933333 c[  22 12 ] 0 sd 6 lw 0.49 0.6 0.82 c black 0 0 0.933333 c 245 202 m 1 Y 9 X s 254 203 m 9 X s
 263 203 m 8 X s 271 203 m 9 X s 280 203 m 9 X s 289 203 m 9 X s 298 203 m 9 X s 307 203 m 8 X s 315 203 m 9 X s 324 203 m 9 X s 333 203 m 9 X s 342 203 m 9 X s 351 203 m 8 X s 359 203 m 9 X s 368 203 m 9 X s 377 203 m 9 X s 386 203 m 9 X s 395 203 m
 8 X s 403 203 m 4 X 1 Y 5 X s 412 204 m 9 X s 421 204 m 9 X s 430 204 m 9 X s 439 204 m 8 X 1 Y s 447 205 m 9 X s 456 205 m 9 X 1 Y s 465 206 m 4 X 1 -1 d 1 X 1 Y 3 X s 474 206 m 9 X s 483 206 m 8 X s 491 206 m 3 X 1 Y 5 X 1 Y 1 X s 500 208 m 9 X s
 509 208 m 9 X s 518 208 m 3 X 1 Y 6 X s 527 209 m 1 Y 6 X 1 Y 2 X s 535 211 m 4 X 1 Y 5 X s 544 212 m 3 X 1 Y 6 X s 553 213 m 8 X 1 Y 1 X s 562 214 m 4 X 1 Y 3 X 1 Y 2 X s 571 216 m 8 X 1 Y s 579 217 m 9 X s 588 217 m 2 X 1 Y 7 X s 597 218 m 5 X 1 Y
 4 X s 606 219 m 4 X 1 Y 5 X s 615 220 m 5 X 1 1 d 2 X s 623 221 m 3 X 1 Y -4 Y 6 X s 632 218 m 3 X 1 Y 4 X 1 Y 2 X 1 Y s 641 221 m 9 X s 650 221 m 1 X 1 Y 5 X 1 Y 3 X s 659 223 m 3 X 1 Y 1 X -1 Y 1 X 2 Y 1 X 1 Y 2 X 1 Y s 667 227 m 1 X 1 Y 5 X 1 1 d
 -1 Y 1 Y 1 X -1 Y 1 X s 676 228 m 1 X 1 Y 4 X 1 Y 2 X 1 Y 1 X 1 Y 1 X s 685 232 m 3 X 1 Y 3 X 1 1 d 1 1 d 1 Y 1 X s 694 236 m 2 X 1 Y 1 X -1 Y 1 Y 1 X 1 Y 5 X s 703 238 m 1 X 2 Y 4 X 1 1 d 2 X s 711 241 m 2 X 1 Y 5 X 1 Y 1 X 1 Y 1 X s 720 244 m 4 X
 1 1 d 4 X s 729 245 m 1 1 d 5 X 1 1 d -1 Y 2 X 1 Y s 738 247 m 1 X 1 Y 4 X 1 Y 2 X 1 Y 2 X s 747 250 m 1 X 1 1 d 2 X 1 Y 2 X 1 Y 2 X s 755 253 m 1 X 1 1 d 1 X 1 Y 5 X 1 1 d s 764 256 m 2 X 3 Y 1 X 1 Y 4 X 1 Y 1 X 1 Y 1 X s 773 262 m 1 X 1 Y 1 -1 d 1
 Y 1 X 1 Y 1 X -1 Y 1 X 1 Y 1 X 1 Y 2 X 1 Y -1 Y 1 Y 1 X s 782 266 m 1 Y 1 X 1 Y 1 X 1 Y 2 X 1 Y 2 X 1 1 d 1 Y 1 X 1 Y 1 X s 791 273 m 1 Y 1 X 1 Y 2 X 1 Y 3 X 1 1 d 1 X 1 Y s 799 278 m 2 X 1 Y 4 X 1 Y 1 X 1 Y -1 Y 1 X 1 Y 1 X s 808 281 m 1 X -1 Y 1 X
 1 Y 7 X s 817 281 m 1 X 1 Y 2 X 1 Y -1 Y 1 Y 2 X 1 1 d 2 X 1 Y 1 1 d s 826 286 m 1 X 1 Y 1 X 1 Y 1 X 1 Y -1 Y 1 X 1 Y 3 X 1 Y 1 X 1 Y 1 X s 835 291 m 3 X 1 Y 2 X 1 Y 1 X -1 Y 1 1 d 1 Y 1 X s 843 294 m 1 X 1 Y 2 X 2 Y 1 X 1 Y 1 X 1 Y 2 X 1 Y 1 X 1 Y
 1 1 d s 852 302 m 1 X 3 Y 2 X 1 Y 1 X 1 1 d 1 Y 1 X 1 Y 1 X 1 Y 1 X 1 Y 1 X 3 Y s 861 314 m 1 Y 1 1 d 1 Y 2 X 1 Y 2 X 2 Y 3 X 1 Y 1 2 d s 870 323 m 1 X -9 Y 1 Y 1 1 d 1 X 1 Y 2 X 1 Y 1 X 1 Y -1 Y 1 Y 2 X 1 1 d s 879 320 m -1 Y 1 Y 1 X -1 Y 2 X 1 Y 2
 X 1 Y 1 X 1 Y 1 X 1 Y 1 X s 887 323 m 1 X 1 Y 1 X 1 Y -1 Y 1 1 d 1 Y 2 X 1 Y 2 X 2 Y 2 X s 896 329 m 1 Y 1 X 1 1 d -1 Y 1 X 1 Y 1 X 1 Y 3 X 1 Y 1 X 1 1 d s 905 334 m 1 Y 1 X 1 Y 1 X 1 1 d 1 X 1 Y 1 1 d 1 X 1 Y -1 Y 1 X 1 Y 1 X 1 Y 1 X s 914 341 m 1
 -1 d 2 Y 1 X -1 Y 1 X 1 Y 2 X 1 Y 1 X 2 Y 1 X 1 Y 1 1 d -1 Y 1 1 d s 923 347 m 1 X 1 Y 1 X 1 Y 1 X 1 Y 1 X 1 Y 1 X 1 Y 1 X 2 Y 1 1 d 1 X 1 Y s 931 356 m 1 X 1 Y 1 X 2 Y 1 X 1 1 d 1 1 d 1 Y 2 X 2 Y 1 X 1 Y 1 X s 940 365 m 2 X 1 Y 1 X 1 Y 1 1 d 1 Y 1
 -5 d 1 Y 1 X 2 Y 1 X 2 Y 1 X 1 1 d s 949 370 m 1 X 2 Y 1 1 d 1 1 d 1 Y 2 X -1 Y 1 Y 1 1 d 1 X 1 Y 1 1 d 1 X s 958 378 m 1 X 1 Y 2 X 1 1 d 1 X 1 Y 2 X 2 Y 1 X 1 Y 1 X s 967 384 m 1 Y 1 X 1 Y 1 -6 d 2 Y 2 X 1 Y 1 X 2 Y 1 X 1 Y 1 1 d 1 X 1 Y s 975 388
 m 1 X 1 Y 2 X 1 Y 1 1 d 1 X 2 Y 2 X 2 Y 1 X 1 Y 1 X 1 Y s 984 397 m 1 X 1 Y 1 X 1 Y 1 X 1 Y 1 X 1 Y 1 X 1 Y 1 1 d 1 Y 1 X 1 Y 1 X 1 Y 1 1 d 3 Y s 993 410 m 1 X 1 Y 1 X 1 Y 1 1 d -1 Y 1 1 d 1 1 d 1 Y 1 X 2 Y 1 X 1 Y 1 1 d 1 X s 1002 419 m 2 Y 1 1 d 1
 X 1 Y 2 X 2 Y 1 X 1 Y 1 1 d 1 Y 1 X 1 Y 1 X 1 Y 1 X s 1011 430 m 2 Y 1 1 d 2 Y 1 X 2 Y 1 3 d 1 1 d 1 Y 1 1 d 1 X 1 Y 2 X 2 Y s 1019 446 m 1 X 1 Y 1 X 2 Y 2 X 1 Y 1 X 1 Y 1 X 2 Y 1 X 1 Y 1 1 d 3 Y 1 X 1 Y s 1028 459 m 1 1 d 1 1 d 2 Y 1 2 d 1 X 2 Y 1
 X 3 Y 2 X 2 Y 1 1 d 1 Y 1 X s 1037 474 m 1 X 1 Y 1 X 1 Y -1 Y 1 X 2 Y 1 X -5 Y 1 1 d 3 Y 1 X 1 Y 1 X 1 Y -1 Y 2 Y 1 X -1 Y 1 1 d s 1046 479 m 1 X 1 Y 1 1 d 1 X 1 Y -1 Y 1 Y 1 2 d 1 Y 1 1 d 1 X 2 Y 1 X 3 Y 1 X 2 Y 1 X s 1055 493 m 1 Y 1 X 3 Y 1 X 1 Y
 1 X 1 Y 1 1 d 1 Y 1 1 d 1 Y 1 1 d 2 Y 1 1 d 2 Y 1 X s 1063 509 m 1 1 d 1 X 1 Y 1 1 d -1 Y 1 Y 1 1 d 3 Y 1 1 d 1 Y 1 X 1 Y 1 1 d 2 Y 1 X 2 Y 1 X 1 Y s 1072 525 m 1 Y 1 1 d 1 Y 2 X 1 Y 1 X 4 Y 1 X 2 Y 1 X 2 Y 1 X 3 Y 1 X 2 Y 1 1 d 1 Y s 1081 544 m 1 X
 2 Y 1 X -1 Y 1 Y 1 X 2 Y 1 1 d 1 Y 1 X 1 Y 1 1 d 1 Y 1 1 d 1 Y 1 X 1 Y 1 1 d 1 Y s 1090 558 m 1 X 2 Y 1 X 1 Y -1 Y 1 X 1 Y 1 1 d 2 Y 1 X 3 Y 1 X 1 Y 1 X 2 Y 1 X 3 Y 1 1 d s 1099 574 m 2 Y 1 X 2 Y 2 X 1 Y 2 X 1 Y 1 X 1 1 d 2 Y 1 X 1 Y s 1107 584 m 1
 X 1 Y 1 X 2 Y 1 X 1 1 d 2 Y 1 X 1 Y 1 X 3 Y 1 X 2 Y 1 X 1 Y 1 X 2 Y s 1116 599 m 1 Y 1 X 1 Y -1 Y 1 1 d 1 Y 1 1 d 2 Y 1 X 1 Y 1 1 d 3 Y 1 X 1 Y 2 X 1 Y 1 X 1 Y s 1125 613 m 2 Y 1 X 2 Y 1 X 1 Y 1 1 d 2 Y 1 X 2 Y 1 X 2 Y 1 X 2 Y 1 X 1 Y 1 X 2 Y 1 X s
 1134 630 m 1 X 1 Y 1 X 2 Y 1 X 1 Y 1 1 d 1 Y 1 X 2 Y 1 X 1 Y 1 X 1 Y 1 1 d 1 Y 1 X s 1143 642 m 2 Y 1 X 1 Y 1 X 1 Y 1 1 d 1 Y -5 Y 1 1 d 1 Y 1 1 d 1 Y 1 X 2 Y 1 X 1 Y 1 X 2 Y s 1151 652 m 1 X 1 Y 1 X 3 Y 1 1 d 1 Y 1 X 2 Y 1 X 5 Y 1 X 1 1 d 2 Y 1 X 2
 Y 1 X 2 Y s 1160 672 m 1 1 d -7 Y 1 Y 1 1 d 2 Y 1 X 3 Y 1 X 2 Y 1 X 3 Y 1 X 2 Y 1 X 1 Y -1 Y 1 Y 1 1 d 2 Y 1 X 1 Y s 1169 685 m 1 Y 1 X 1 Y 1 1 d -285 Y 1 Y 1 X 1 Y 1 X 1 Y 1 X 1 Y 1 X 1 Y 1 X 1 Y -1 Y 1 Y 1 X 1 1 d s 1178 410 m 1 Y 1 X 1 Y 1 1 d 1
 X 3 Y 1 X 2 Y 1 1 d 1 Y 1 X 1 Y 1 X 1 Y 1 X 2 Y 1 X s 1187 424 m 1 X 1 Y 1 X 1 Y 1 X 2 Y 1 X 2 Y 1 X 2 Y 1 X 1 Y 1 1 d 1 Y 1 X s 1195 435 m 1 X 1 Y 1 X 1 Y 1 X 1 Y 1 X 1 Y 1 X 1 Y 2 X 1 Y 2 X 1 Y s 1204 442 m 1 Y 1 X 1 Y 1 X 2 Y 1 X 1 Y 1 1 d 1 Y 1
 X 1 Y -1 Y 1 Y 1 X 1 Y 1 1 d 1 Y 1 X 1 Y 1 X 1 Y s 1213 455 m 1 Y 1 X -17 Y 1 1 d 1 Y 1 X 1 Y 1 X 2 Y 1 X 2 Y 1 X 1 Y 1 X 2 Y 1 1 d 1 Y 1 X s 1222 451 m 1 Y 1 1 d 3 Y 1 X 1 Y 1 1 d 1 1 d 1 Y 1 X 2 Y 1 X 1 Y 1 X 1 Y 1 X 1 Y 1 X s 1231 465 m 2 Y 1 X 1
 Y 1 1 d 1 X 1 Y 1 1 d 1 X 1 Y 1 X 2 Y 1 X 1 Y 1 X 1 Y s 1239 476 m 1 1 d 1 Y 1 X 1 1 d 1 X 2 Y 2 X 1 Y 1 X 1 Y 1 X 1 Y 1 X 1 Y s 1248 485 m 1 X 1 Y 1 1 d 1 Y 1 X 1 Y 1 X 1 Y 1 X 2 Y 1 X 2 Y 1 X 1 Y 1 X 1 Y 1 X 1 Y s 1257 497 m 1 Y 1 X 1 1 d 1 Y 1 X
 2 Y 1 X 1 Y 1 X 1 Y 1 X 1 Y 1 X 2 Y 1 X 1 Y 1 X 1 Y s 1266 509 m 1 X 1 Y 1 X 2 Y 1 X 2 Y 1 X 1 Y 1 X 1 Y 1 X 1 Y 2 X 2 Y 1 1 d s 1275 520 m 1 X 1 Y 1 X 2 Y 1 X -1 Y 1 Y 1 X 1 Y 1 X 1 Y 1 X 1 Y 1 X -1 Y 1 1 d 1 Y s 1283 527 m 1 X 1 1 d 1 Y 1 X 1 Y 1
 X 2 Y 1 X 1 Y 1 1 d 1 Y 1 X 1 1 d 1 X 2 Y s 1292 538 m 1 X 1 Y 1 X 1 1 d 1 Y 1 1 d 1 1 d 1 Y 1 X 1 1 d 1 Y 1 X 1 Y 1 X s 1301 547 m 1 1 d 1 X 2 Y 1 X 1 Y 1 1 d 1 X 1 Y 1 X 1 Y 1 X 1 Y 1 X 1 Y 1 X s 1310 556 m 1 Y 1 X 2 Y 1 X 1 Y 1 X 1 Y 2 X 1 Y -1 Y
 1 1 d 1 Y 1 X 1 Y 1 X 1 Y 1 X s 1319 565 m 1 Y 1 X 2 Y 1 X 1 Y 1 X 1 Y 1 X 1 Y 1 X 1 Y 1 X 1 Y 1 1 d 1 X 2 Y s 1327 576 m 1 X 1 Y 1 X 1 Y 1 X 1 Y 1 X 1 Y 1 X 1 Y 1 X 1 Y 1 X 1 Y 2 X 1 Y s 1336 584 m -1 Y 1 1 d 1 Y 1 X 1 Y 1 1 d 1 Y 1 1 d 1 X 1 Y 1 X
 1 Y 2 X 1 Y 1 X s 1345 592 m 1 Y 2 X 1 Y 1 X 1 Y 2 X 1 Y 1 X 1 1 d 1 Y 1 X 1 Y 1 X 1 Y s 1354 600 m 2 Y 1 X 1 Y 1 X 1 Y 1 X 1 Y 1 X 1 Y 1 X -1 Y 1 Y 1 X 1 Y 1 X 1 Y 1 X 1 Y 1 X s 1363 609 m 1 1 d 1 Y 1 X 1 1 d 1 X 1 Y 1 X 1 Y 1 X 1 Y 1 X 1 1 d s
 1371 616 m 1 X 1 Y 1 X 1 Y 1 1 d 2 X 1 Y 1 X 1 Y 1 1 d 1 1 d 1 X 1 Y s 1380 624 m 1 X 1 Y 2 X 1 Y 2 X 1 Y 2 X 2 Y 1 X 1 Y 1 X s 1389 630 m 1 Y 1 X 1 Y 1 X 1 Y 1 X 1 Y 1 X 1 Y -1 Y 1 X 1 Y 1 X 1 Y 2 X 1 Y 1 X s 1398 637 m 1 X 1 Y 1 X 1 Y 1 X -2 Y 1 Y
 2 X 1 Y 1 X 1 Y 1 X 1 Y 2 X s 1407 641 m 1 Y 1 X 1 Y 2 X -1 Y 1 X 1 Y 1 X 1 Y 1 X 1 Y 2 X 1 Y s 1415 646 m 1 X 1 1 d 1 X 1 Y -1 Y 1 X 1 Y 1 X 1 Y 2 X 1 Y 1 X 1 1 d s 1424 651 m 2 X 1 Y 2 X 1 Y 1 X 1 Y 1 X 1 Y 1 -2 d 1 Y 1 -1 d 1 Y 1 X s 1433 654 m 1
 X 1 Y 2 X 1 1 d 1 1 d 1 X 1 Y 1 X 1 Y 2 X s 1442 659 m 1 Y 2 X 1 Y 3 X 1 Y 3 X 1 Y 1 X s 1451 663 m 1 X 2 Y 2 X -1 Y 2 X 1 Y 1 X 1 Y 2 X 1 Y s 1459 667 m 1 X 1 Y 3 X 1 Y 1 X 1 Y 1 X -1 Y 1 X 1 Y 1 -1 d 1 X s 1468 669 m 1 X 1 Y 2 X 1 Y 2 X 1 Y -1 Y 1
 X 1 Y 2 X 1 1 d s 1477 673 m 1 X 1 1 d 2 X 1 Y 3 X 1 Y 2 X s 1486 676 m 1 1 d 2 X 1 Y 1 X 1 1 d 2 X 1 Y 2 X s 1495 680 m 2 X 1 Y 2 X 1 Y 2 X -1 Y 2 X 1 Y s 1503 682 m 3 X 1 Y 2 X 1 Y 4 X 1 Y s 1512 685 m 2 X 1 Y 3 X 1 Y 3 X 1 Y 1 X s 1521 688 m 3 X
 1 Y 1 X 1 Y 2 X 1 Y 2 X 1 Y 1 X s 1530 692 m 1 X 1 Y 5 X 1 Y 3 X s 1539 694 m 1 X 1 Y 2 X 1 Y 3 X 1 Y 1 X 1 1 d s 1547 698 m 4 X 1 Y 1 X 1 Y 4 X 1 Y s 1556 701 m 6 X 1 Y 3 X s 1565 702 m 1 X 1 Y 5 X 1 Y 3 X s 1574 704 m 2 X 1 Y 6 X 1 Y 1 X s 1583
 706 m 2 X 1 Y 5 X 1 Y 1 X s 1591 708 m 5 X 1 1 d 3 X s 1600 709 m 1 1 d 6 X 1 Y 2 X s 1609 711 m 5 X 1 Y 1 X 1 Y 3 X s 1618 713 m 6 X 1 Y 3 X s 1627 714 m 6 X 1 1 d 1 X s 1635 715 m 7 X 1 Y 2 X s 1644 716 m 9 X s 1653 716 m 7 X 1 Y 2 X s 1662 717 m
 9 X s 1671 717 m 7 X 1 1 d s 1679 718 m 9 X s 1688 718 m 3 X 1 Y 6 X s 1697 719 m 9 X s 1706 719 m 2 X 1 Y 7 X s 1715 720 m 8 X s 1723 720 m 6 X 1 Y 3 X s 1732 721 m 9 X s 1741 721 m 9 X s 1750 721 m 9 X s 1759 721 m 8 X s 1767 721 m 9 X s 1776 721
 m 9 X s 1785 721 m 9 X s 1794 721 m 9 X s 1803 721 m 2 X 1 Y 7 X s 1812 722 m 8 X s 1820 722 m 9 X s 1829 722 m 9 X s 1838 722 m 9 X s 1847 722 m 9 X s 1856 722 m 8 X s 1864 722 m 9 X s 1873 722 m 9 X s 1882 722 m 9 X s 1891 722 m 9 X s 1900 722 m 8
 X s 1908 722 m 9 X s 1917 722 m 9 X s 1926 722 m 9 X s 1935 722 m 9 X s 1944 722 m 8 X s 1952 722 m 9 X s 1961 722 m 9 X s 1970 722 m 9 X s 1979 722 m 9 X s 1988 722 m 8 X s 1996 722 m 9 X s 2005 722 m 9 X s 2014 722 m 9 X s 2023 722 m 9 X s 2032
 722 m 8 X s 2040 722 m 1 X s black[  ] 0 sd 3 lw 245 202 m 1796 X s 405 242 m -40 Y s 471 222 m -20 Y s 537 222 m -20 Y s 603 222 m -20 Y s 669 222 m -20 Y s 735 242 m -40 Y s 801 222 m -20 Y s 867 222 m -20 Y s 933 222 m -20 Y s 999 222 m -20 Y s
 1065 242 m -40 Y s 1131 222 m -20 Y s 1197 222 m -20 Y s 1263 222 m -20 Y s 1329 222 m -20 Y s 1396 242 m -40 Y s 1462 222 m -20 Y s 1528 222 m -20 Y s 1594 222 m -20 Y s 1660 222 m -20 Y s 1726 242 m -40 Y s 405 242 m -40 Y s 339 222 m -20 Y s 273
 222 m -20 Y s 1726 242 m -40 Y s 1792 222 m -20 Y s 1858 222 m -20 Y s 1924 222 m -20 Y s 1990 222 m -20 Y s
 gsave  2268 1684 0 0 C 356.464 128.934 t 0 r /Helvetica-Bold findfont 64.4669 sf 0 0 m (0.05) show NC gr 
 gsave  2268 1684 0 0 C 322.334 128.934 t 0 r /Symbol findfont 64.4669 sf 0 0 m (-) show NC gr 
 gsave  2268 1684 0 0 C 712.928 128.934 t 0 r /Helvetica-Bold findfont 64.4669 sf 0 0 m (0) show NC gr 
 gsave  2268 1684 0 0 C 1001.13 128.934 t 0 r /Helvetica-Bold findfont 64.4669 sf 0 0 m (0.05) show NC gr 
 gsave  2268 1684 0 0 C 1353.8 128.934 t 0 r /Helvetica-Bold findfont 64.4669 sf 0 0 m (0.1) show NC gr 
 gsave  2268 1684 0 0 C 1664.76 128.934 t 0 r /Helvetica-Bold findfont 64.4669 sf 0 0 m (0.15) show NC gr 
 gsave  2268 1684 0 0 C 913.913 30.3373 t 0 r /Helvetica-Bold findfont 72.0512 sf 0 0 m (Cut value applied on BDT output) show NC gr  245 202 m 1145 Y s 291 202 m -46 X s 268 254 m -23 X s 268 306 m -23 X s 268 358 m -23 X s 291 410 m -46 X s 268 462
 m -23 X s 268 514 m -23 X s 268 566 m -23 X s 291 618 m -46 X s 268 670 m -23 X s 268 722 m -23 X s 268 775 m -23 X s 291 827 m -46 X s 268 879 m -23 X s 268 931 m -23 X s 268 983 m -23 X s 291 1035 m -46 X s 268 1087 m -23 X s 268 1139 m -23 X s
 268 1191 m -23 X s 291 1243 m -46 X s 291 1243 m -46 X s 268 1295 m -23 X s 268 1347 m -23 X s
 gsave  2268 1684 0 0 C 182.024 178.232 t 0 r /Helvetica-Bold findfont 64.4669 sf 0 0 m (0) show NC gr 
 gsave  2268 1684 0 0 C 128.934 386.801 t 0 r /Helvetica-Bold findfont 64.4669 sf 0 0 m (0.2) show NC gr 
 gsave  2268 1684 0 0 C 128.934 595.37 t 0 r /Helvetica-Bold findfont 64.4669 sf 0 0 m (0.4) show NC gr 
 gsave  2268 1684 0 0 C 128.934 800.148 t 0 r /Helvetica-Bold findfont 64.4669 sf 0 0 m (0.6) show NC gr 
 gsave  2268 1684 0 0 C 128.934 1008.72 t 0 r /Helvetica-Bold findfont 64.4669 sf 0 0 m (0.8) show NC gr 
 gsave  2268 1684 0 0 C 189.608 1217.29 t 0 r /Helvetica-Bold findfont 64.4669 sf 0 0 m (1) show NC gr 
 gsave  2268 1684 0 0 C 64.4669 735.681 t 90 r /Helvetica-Bold findfont 72.0512 sf 0 0 m (Efficiency \(Purity\)) show NC gr  0 0 0.933333 c[  52 12 ] 0 sd 6 lw 0.49 0.6 0.82 c black 0 0 0.933333 c 245 202 m 1041 Y 9 X s 254 1243 m 9 X s 263 1243 m 8
 X s 271 1243 m 9 X s 280 1243 m 9 X s 289 1243 m 9 X s 298 1243 m 9 X s 307 1243 m 8 X s 315 1243 m 9 X s 324 1243 m 9 X s 333 1243 m 9 X s 342 1243 m 9 X s 351 1243 m 8 X s 359 1243 m 9 X s 368 1243 m 9 X s 377 1243 m 9 X s 386 1243 m 9 X s 395
 1243 m 8 X s 403 1243 m 9 X s 412 1243 m 3 X -12 Y 6 X s 421 1231 m 9 X s 430 1231 m 2 X 1 -13 d 5 X 2 Y 1 X s 439 1220 m 2 X 1 Y 6 X 3 Y s 447 1224 m 5 X 1 Y 3 X 1 Y 1 X s 456 1226 m 1 X 1 Y 2 X -1 Y 1 Y 2 X -1 Y 4 X 2 Y s 465 1228 m 2 Y 4 X 1 -3 d
 1 X 1 Y 3 X s 474 1228 m 8 X 1 Y 1 X s 483 1229 m 8 X 2 Y s 491 1231 m 3 X 1 Y 4 X 1 Y 1 X 1 Y 1 X s 500 1234 m 9 X s 509 1234 m 1 -5 d 8 X s 518 1229 m 3 X 1 Y 5 X 1 Y 1 X s 527 1231 m 1 X 1 Y 5 X 1 Y 1 1 d 1 X s 535 1234 m 1 X -1 Y 3 X 1 Y 1 X -4
 Y 3 X -2 Y 1 X -2 Y s 544 1226 m 1 X 1 Y 3 X 1 Y 5 X s 553 1228 m 7 X -4 Y 1 X 1 Y 1 1 d s 562 1226 m 7 X 1 Y 2 X s 571 1227 m 1 Y 8 X s 579 1228 m 3 X 1 Y 1 X -1 Y 2 X 1 Y 3 X s 588 1229 m 2 X 1 Y 7 X s 597 1230 m 9 X s 606 1230 m 3 X 1 Y 1 X -1 Y
 5 X s 615 1230 m 7 X 1 Y 1 X s 623 1231 m 2 X -1 Y 1 Y 1 X -3 Y 5 X 1 Y 1 X s 632 1229 m 7 X 1 Y 2 X 1 Y s 641 1231 m 7 X -2 Y 2 X s 650 1229 m 6 X -1 Y 3 X s 659 1228 m 2 X 1 Y 3 X 1 Y 1 X -1 Y 2 X s 667 1229 m 1 X 1 Y 6 X -1 Y 1 X -1 Y 1 1 d s 676
 1229 m 6 X 1 Y 3 X s 685 1230 m 2 X -1 Y 1 X -1 Y 2 X -1 Y 1 X 1 1 d 1 X 1 Y 1 X s 694 1229 m 9 X s 703 1229 m 1 X 1 Y 4 X -1 Y 3 X s 711 1229 m 1 -1 d 2 X 1 Y 6 X s 720 1229 m 2 X -1 Y 1 X 1 Y 4 X -1 Y 2 X s 729 1228 m 9 X s 738 1228 m 1 X 1 Y 1 X
 1 -1 d 4 X 1 Y 2 X s 747 1229 m 8 X s 755 1229 m 8 X -1 Y 1 X s 764 1228 m 2 X 1 Y 6 X 1 Y 1 X s 773 1230 m 5 X -1 Y 1 Y 4 X s 782 1230 m 3 X -1 Y 3 X 1 1 d 2 X s 791 1230 m 1 X -1 Y 1 Y 1 -1 d 1 Y 3 X -1 Y 3 X 1 Y s 799 1230 m 9 X s 808 1230 m 9 X
 s 817 1230 m 6 X 1 Y 2 X 1 -1 d s 826 1230 m 1 X 1 Y 2 X -1 Y 6 X s 835 1230 m 8 X s 843 1230 m 2 X -1 Y 2 X 1 Y 1 X 1 -1 d 2 X 1 Y 1 X s 852 1230 m 6 X 1 Y 3 X s 861 1231 m 4 X 1 Y 1 X -1 Y 2 X 1 Y 1 X -1 Y 1 X s 870 1231 m 1 Y 1 X -69 Y 1 1 d 2 X
 1 Y 5 X s 879 1165 m 2 X -1 Y 1 Y 3 X 1 Y 3 X 1 Y s 887 1167 m 2 X 1 1 d 2 X 1 Y 3 X 1 Y 1 X s 896 1170 m 3 X 1 Y -1 Y 1 X 1 Y 4 X 1 1 d s 905 1172 m 2 X 1 Y 2 X 1 Y 4 X 1 Y 1 X s 914 1175 m -1 Y 1 Y -1 Y 5 X 1 Y 1 X 1 Y 3 X s 923 1176 m 1 X 1 Y 3 X
 1 Y 2 X 1 Y 2 X 1 Y s 931 1180 m 2 X 1 Y 3 X 1 Y 2 X -1 Y 1 Y 2 X s 940 1182 m 2 X 1 Y 2 X 1 -30 d 1 Y 1 -1 d 1 Y 1 1 d 1 X 1 1 d s 949 1156 m 1 X 1 Y 2 X 1 Y 2 X -1 Y 1 Y 2 X 1 Y 2 X s 958 1159 m 3 X 1 1 d 3 X 1 Y 2 X s 967 1161 m 1 X 1 Y 1 -34 d 1
 Y 3 X 1 Y 1 X 1 Y 2 X 1 Y s 975 1132 m 3 X 1 Y 2 X 1 Y 2 X 1 Y 2 X s 984 1135 m 1 1 d 2 X 1 Y 2 X 1 Y 2 X 1 Y 2 X 2 Y s 993 1141 m 2 X 1 1 d -1 Y 1 X 1 Y 2 X 1 Y 2 X 1 Y 1 X s 1002 1144 m 1 1 d 3 X 1 Y 2 X 1 Y 3 X s 1011 1147 m 1 Y 1 X 1 Y 1 X 1 Y 1
 X 1 Y 5 X 1 Y s 1019 1152 m 2 X 1 Y 4 X 1 Y 2 X 1 Y 1 X s 1028 1155 m 1 1 d 1 X 1 1 d 1 X 1 Y 2 X 1 1 d 2 X s 1037 1159 m 1 X 1 Y 1 X -1 Y 1 Y 2 X -17 Y 1 X 1 Y 2 X 1 Y 1 X -1 Y 1 1 d s 1046 1145 m 3 X 1 Y 1 X 1 1 d 2 X 1 Y 2 X s 1055 1148 m 1 Y 2 X
 1 Y 1 X -1 Y 1 Y 2 X 1 Y 1 X 1 Y 2 X s 1063 1152 m 2 X 1 Y 2 X 1 Y 2 X 1 1 d 1 X 1 Y 1 X s 1072 1156 m 2 X 1 Y -1 Y 1 Y 2 X 1 Y 3 X 1 Y 1 X 1 1 d s 1081 1160 m 3 X 1 1 d 2 X 1 1 d 2 X s 1090 1162 m 1 X 1 Y 4 X 1 Y 2 X 1 1 d -1 Y 1 Y 1 X s 1099 1165
 m 1 1 d 6 X 1 Y 1 X s 1107 1167 m 4 X 1 Y 3 X 1 Y 2 X s 1116 1169 m 1 X 1 Y -1 Y 1 1 d 3 X 1 Y 4 X s 1125 1171 m 1 Y 4 X 1 Y 5 X s 1134 1173 m 1 X 1 Y 5 X 1 Y 3 X s 1143 1175 m 2 X 1 Y -1 Y 1 1 d -10 Y 4 X 1 Y 1 X s 1151 1167 m 2 X 1 1 d 2 X 1 Y 4 X
 1 Y s 1160 1170 m 1 X -15 Y 2 X 4 Y 1 X 1 Y 3 X 1 1 d 1 X s 1169 1161 m 2 X -562 Y 1 1 d 1 1 d 1 X 1 Y 1 X 1 1 d -1 Y 1 X 1 Y 1 X s 1178 603 m 1 Y 1 X 1 Y 1 X 1 Y 1 X 2 Y 1 X 1 Y 1 X 2 Y 2 X 1 Y 1 X 1 Y 1 X s 1187 613 m 1 -1 d 1 Y 1 X 1 Y 1 X 1 Y 1
 X 2 Y 1 X 1 Y 1 X 1 Y 1 X 1 Y 1 X s 1195 620 m 2 X 1 Y 1 X 1 Y 1 X 1 1 d 1 X 1 Y -2 Y 2 X 1 Y 1 X s 1204 623 m 1 Y 1 X 1 Y 1 X 1 Y 1 X 1 Y 1 X 1 Y 1 X 1 1 d 1 1 d 1 X 1 Y 1 X 1 Y s 1213 632 m 1 X -29 Y 1 X 1 Y 1 1 d -1 Y 1 1 d 1 X 2 Y 2 X 2 Y 1 X 1
 Y 1 X s 1222 610 m 1 Y 1 X 2 Y 1 X 1 Y 1 X 1 1 d 1 Y 1 X 1 1 d 1 X 1 Y 1 X 1 Y 1 X s 1231 619 m 1 X 1 Y 1 X 1 Y 1 X 1 1 d 1 X 1 Y 1 X 1 Y 2 X 1 Y s 1239 625 m 1 X 1 Y 2 X 1 Y 1 X 1 Y 3 X 1 Y 2 X 1 Y s 1248 630 m 1 X 1 1 d 1 X 1 Y 1 X 1 1 d 1 Y 1 X 1
 Y 2 X 1 Y 1 X s 1257 636 m 1 Y 2 X 1 Y 1 X 1 Y 1 X 1 1 d 1 X 1 Y 1 X 1 Y 2 X 1 Y s 1266 643 m 1 -1 d 1 1 d 1 1 d 1 Y 2 X 1 Y 3 X 1 Y 1 X s 1275 647 m 1 Y 2 X 1 Y 1 X -1 Y 2 X 1 Y 2 X -2 Y 1 Y 1 X s 1283 648 m 1 X 1 Y 2 X 1 Y 1 X 1 Y 1 X 1 Y 2 X 1 Y
 2 X 1 Y s 1292 654 m 2 X 1 Y 1 X 1 Y 2 X 1 Y 2 X 1 Y 2 X s 1301 658 m 1 1 d -1 Y 1 Y 1 X 1 1 d 1 X 1 Y 2 X 1 Y 2 X 1 Y 1 X s 1310 663 m 1 X 1 Y 2 X 1 Y 3 X 1 Y 2 X 1 Y 1 X s 1319 667 m 1 X 1 Y 1 X 1 1 d 2 X 1 Y 2 X 1 Y 1 X s 1327 671 m 1 1 d 1 X 1 1
 d 2 X 1 Y 3 X 1 Y 1 X s 1336 675 m 1 X 1 1 d 1 X 1 Y 2 X 1 Y 4 X 1 Y s 1345 679 m 3 X 1 Y 4 X 1 Y 1 X 1 Y 1 X s 1354 682 m 1 Y 2 X 1 Y 4 X 1 Y 2 X 1 Y 1 X s 1363 686 m 2 X 1 1 d 2 X 1 Y 3 X 1 Y s 1371 689 m 2 X 1 Y 4 X 1 Y 3 X 1 Y s 1380 692 m 4 X 1
 Y 3 X 1 Y 2 X s 1389 694 m 1 Y 3 X 1 Y 1 X -1 Y 2 X 1 Y 3 X s 1398 696 m 1 X 1 1 d 1 X -2 Y 2 X 1 1 d 3 X s 1407 696 m 1 Y 3 X -2 Y 1 1 d 3 X 1 Y 1 X s 1415 697 m 3 X 1 Y -1 Y 1 X 1 Y 4 X 1 Y 1 X s 1424 699 m 4 X 1 Y 5 X s 1433 700 m 3 X 1 1 d 2 X 1
 Y 3 X s 1442 702 m 3 X 1 Y 6 X s 1451 703 m 1 X 1 Y 6 X 1 1 d s 1459 705 m 5 X 1 Y 1 X -1 Y 1 X 1 -1 d 1 X s 1468 704 m 1 X 1 Y 7 X 1 Y 1 X s 1477 706 m 6 X 1 Y 3 X s 1486 707 m 3 X 1 Y 6 X s 1495 708 m 2 X 1 Y 4 X -1 Y 2 X s 1503 708 m 2 X 1 Y 7 X
 1 Y s 1512 710 m 8 X 1 Y 1 X s 1521 711 m 6 X 1 Y 3 X s 1530 712 m 3 X 1 Y 2 X -1 Y 1 Y 4 X s 1539 713 m 5 X 1 Y 3 X s 1547 714 m 5 X 1 Y 4 X s 1556 715 m 8 X 1 Y 1 X s 1565 716 m 9 X s 1574 716 m 4 X 1 1 d 4 X s 1583 717 m 8 X 1 Y s 1591 718 m 9 X
 s 1600 718 m 8 X 1 1 d s 1609 719 m 9 X s 1618 719 m 7 X 1 Y 2 X s 1627 720 m 8 X s 1635 720 m 9 X s 1644 720 m 9 X s 1653 720 m 7 X 1 Y 2 X s 1662 721 m 9 X s 1671 721 m 8 X s 1679 721 m 9 X s 1688 721 m 9 X s 1697 721 m 9 X s 1706 721 m 2 X 1 Y 7
 X s 1715 722 m 8 X s 1723 722 m 9 X s 1732 722 m 9 X s 1741 722 m 9 X s 1750 722 m 9 X s 1759 722 m 8 X s 1767 722 m 9 X s 1776 722 m 9 X s 1785 722 m 9 X s 1794 722 m 9 X s 1803 722 m 9 X s 1812 722 m 8 X s 1820 722 m 9 X s 1829 722 m 9 X s 1838
 722 m 9 X s 1847 722 m 9 X s 1856 722 m 8 X s 1864 722 m 9 X s 1873 722 m 9 X s 1882 722 m 9 X s 1891 722 m 9 X s 1900 722 m 8 X s 1908 722 m 9 X s 1917 722 m 9 X s 1926 722 m 9 X s 1935 722 m 9 X s 1944 722 m 8 X s 1952 722 m 9 X s 1961 722 m 9 X s
 1970 722 m 9 X s 1979 722 m 9 X s 1988 722 m 8 X s 1996 722 m 9 X s 2005 722 m 9 X s 2014 722 m 9 X s 2023 722 m 9 X s 2032 722 m 8 X s 2040 722 m 1 X s[  ] 0 sd 9 lw 0.49 0.6 0.82 c black 0 0 0.933333 c 245 202 m 1 Y 9 X s 254 203 m 9 X s 263 203 m
 8 X s 271 203 m 9 X s 280 203 m 9 X s 289 203 m 9 X s 298 203 m 9 X s 307 203 m 8 X s 315 203 m 9 X s 324 203 m 9 X s 333 203 m 9 X s 342 203 m 9 X s 351 203 m 8 X s 359 203 m 9 X s 368 203 m 9 X s 377 203 m 9 X s 386 203 m 9 X s 395 203 m 8 X s 403
 203 m 4 X 1 Y 5 X s 412 204 m 9 X s 421 204 m 9 X s 430 204 m 9 X s 439 204 m 4 X 1 Y 4 X s 447 205 m 9 X s 456 205 m 9 X 1 Y s 465 206 m 4 X 1 -1 d 1 Y 4 X s 474 206 m 9 X s 483 206 m 8 X s 491 206 m 3 X 1 Y 5 X 1 Y 1 X s 500 208 m 9 X s 509 208 m
 9 X s 518 208 m 3 X 1 Y 6 X s 527 209 m 1 Y 6 X 1 Y 1 1 d 1 X s 535 212 m 1 X -1 Y 3 X 1 Y 5 X s 544 212 m 2 X 1 1 d 6 X s 553 213 m 8 X 1 Y 1 X s 562 214 m 3 X 1 Y 4 X 1 Y 2 X s 571 216 m 5 X 1 Y 3 X s 579 217 m 9 X s 588 217 m 2 X 1 Y 3 X 1 Y 2 X
 1 -1 d 1 X s 597 218 m 5 X 1 Y 4 X s 606 219 m 3 X 1 Y 3 X 1 Y 1 -1 d 2 X s 615 220 m 4 X 1 1 d 3 X s 623 221 m 3 X 1 Y -4 Y 6 X 1 Y s 632 219 m 7 X 1 Y 1 X 1 Y 1 X s 641 221 m 4 X 1 1 d -1 Y 4 X s 650 221 m 1 Y 5 X 1 Y 4 X s 659 223 m 2 X 1 Y 3 X 2
 Y 3 X 1 Y s 667 227 m 1 X 1 Y 2 X 1 Y 5 X -1 Y 1 X s 676 228 m 1 1 d 1 X 1 1 d 4 X 1 Y 1 1 d 1 X s 685 232 m 1 1 d 5 X 1 1 d 1 Y 1 1 d 1 X s 694 236 m 1 Y 4 X 1 Y 4 X 1 Y 1 X s 703 239 m 1 X 1 Y 1 X 1 Y 6 X 1 Y s 711 242 m 4 X 1 Y 3 X 1 Y 2 X s 720
 244 m 1 Y 1 X 1 -1 d 1 Y 2 X 1 1 d 4 X s 729 246 m 2 X 1 Y 4 X -1 Y 1 Y 3 X s 738 247 m 1 Y 1 -1 d 1 Y 2 X 1 Y 2 X 1 Y 3 X 1 Y 1 X s 747 251 m 3 X 1 Y 3 X 2 Y 2 X s 755 254 m 1 X 1 1 d 3 X 1 Y 4 X 1 Y s 764 257 m 2 X 3 Y 2 X 1 Y 3 X 1 Y 1 X 1 Y 1 X
 s 773 263 m 2 X 1 Y 3 X 1 Y 1 X 1 1 d 2 X 1 Y s 782 267 m 1 Y 1 X 1 Y 2 X 1 Y 1 X 1 Y 3 X 2 Y 1 X 1 Y 1 X s 791 274 m 1 1 d 1 Y 1 -1 d 1 Y 1 X 1 Y 3 X 1 1 d 1 X 1 Y s 799 279 m 2 X 1 Y 4 X 1 Y 1 X 1 Y -1 Y 1 X 1 Y 1 X s 808 282 m 1 X -1 Y 1 X 1 Y 7
 X s 817 282 m 1 X 1 Y 2 X 1 Y -1 Y 1 Y 2 X 1 1 d 2 X 1 Y 1 1 d s 826 287 m 1 X 1 Y 1 X 1 Y 1 X 1 Y -1 Y 1 X 1 Y 3 X 1 Y 1 X 1 Y 1 X s 835 292 m 3 X 1 Y 2 X 1 Y 2 X 1 Y 1 X s 843 295 m 1 X 1 Y 2 X 3 Y 2 X 1 Y 1 X 1 Y 2 X 1 Y 1 1 d s 852 303 m 1 X 3 Y
 2 X 1 Y 1 X 1 Y 1 X 2 Y 2 X 1 Y 1 X 1 Y 1 X 3 Y s 861 315 m 2 Y 1 1 d 1 1 d 2 X 1 Y 1 X 1 Y 2 X 1 Y 1 X 1 Y 1 1 d s 870 324 m 1 X 1 Y 1 X 1 Y 2 X 1 Y 2 X 1 Y 1 X 1 Y 2 X s 879 329 m 2 X -1 Y 1 X 1 Y 1 X 1 Y 2 X 1 Y 1 X 1 Y 1 X 1 Y s 887 333 m 1 X 1
 1 d 1 1 d 1 X 1 Y 1 X 1 Y 2 X 1 Y 1 X 1 Y 1 X s 896 339 m 1 X 1 Y 1 X -1 Y 1 Y 1 X 1 Y -1 Y 1 X 1 Y 1 1 d -1 Y 1 Y 3 X 1 Y 1 X 1 Y s 905 344 m 1 Y 2 X 1 Y 1 X 1 Y 1 X 1 Y 1 X 1 Y 3 X 1 Y 1 1 d s 914 351 m 1 -1 d 2 Y 1 X -1 Y 1 X 1 Y 2 X 1 Y 1 X 2 Y
 1 X 1 Y 1 X 1 1 d s 923 357 m 1 X 1 Y 1 X 1 Y 1 X 1 Y 1 X 1 Y 1 X 1 Y 1 X 2 Y 1 X 1 Y 1 X 1 Y s 931 366 m 1 X 1 Y 1 X 2 Y 1 X 1 1 d 1 1 d 1 Y 2 X 2 Y 1 X 1 Y 1 X s 940 375 m 2 X 1 Y 1 1 d 1 Y 1 X 1 Y 1 X 1 Y 1 X 2 Y 1 X 2 Y 1 X 1 1 d 1 Y -1 Y s 949
 385 m 1 X 3 Y 1 X 1 Y 1 X 1 Y 1 X 1 Y 1 X -1 Y 1 Y 2 X 2 Y 1 X 1 Y 1 X s 958 394 m 1 X 1 Y 1 X -1 Y 1 X 1 Y 1 X 1 Y 2 X 1 Y 1 X 1 Y 1 X 1 Y 1 X s 967 399 m 1 Y 1 X 1 Y 1 1 d 2 Y 1 X 1 1 d 1 X 2 Y 1 X 1 Y 1 1 d 1 X 1 Y s 975 410 m 1 X 1 Y 2 X 2 Y 2 X
 2 Y 1 X 1 Y 1 X 1 Y 1 1 d 1 1 d s 984 419 m 1 1 d 1 Y 1 X 1 1 d 1 X 2 Y 1 X 1 Y 1 X 1 Y 1 X 2 Y 1 X 1 Y 1 X 3 Y s 993 432 m 1 Y 1 X 1 Y 1 X 1 Y 1 X 1 Y -2 Y 1 Y 1 X 1 Y 1 1 d 1 Y 1 X 1 Y 1 1 d 1 Y 1 X 1 Y 1 X s 1002 442 m 2 Y 1 1 d 1 X 1 Y 2 X 2 Y 1
 X 1 Y 1 1 d 1 Y 1 X 1 Y 1 X 1 Y 1 X s 1011 453 m 2 Y 1 1 d 2 Y 1 X 2 Y 1 3 d 1 Y 1 X 2 Y 2 X 1 Y -1 Y 1 Y 1 X 1 1 d 1 Y s 1019 469 m 1 X 1 Y 1 X 2 Y 1 X 1 Y 1 X 1 Y 1 X 1 Y 1 X 1 Y 1 X 2 Y 1 X 4 Y -1 Y 1 1 d 1 Y s 1028 483 m 1 X 1 Y 1 1 d 1 Y 1 2 d
 1 Y 1 X 1 Y 1 1 d 2 Y 1 X 1 Y 1 X 2 Y 1 X 1 Y 1 1 d s 1037 498 m 1 X 1 Y 1 X 1 Y -2 Y 1 Y 1 X 1 Y 1 X 1 Y 1 X 3 Y 1 1 d 1 Y 1 X 1 Y 1 X 1 Y -1 Y 1 X 1 Y s 1046 508 m 1 X 1 Y 1 1 d 1 X 1 Y -1 Y 1 Y 1 2 d 1 Y 1 1 d 1 X 2 Y 1 X 3 Y 1 X 2 Y 1 X s 1055
 522 m 1 Y 1 X 3 Y 1 X 1 Y 1 X 2 Y 1 X 2 Y 1 X 2 Y -1 Y 1 1 d 3 Y 1 X 2 Y 1 X s 1063 538 m 1 1 d 1 Y 1 X 1 Y 1 X 1 Y 1 X 4 Y 1 X 2 Y 1 X 1 Y 1 1 d 2 Y 1 X 1 Y 1 1 d 1 Y s 1072 555 m 1 Y 1 X 1 Y 1 X 1 Y -1 Y 1 Y 1 X -1 Y 1 Y 1 1 d 3 Y 1 X 3 Y 1 X 2 Y
 1 X 3 Y 1 X 1 Y 1 2 d s 1081 573 m 1 Y 1 X 1 Y 1 X 1 Y 1 X 2 Y 1 1 d 1 Y 1 X 1 Y 1 1 d 1 Y 1 1 d 1 Y 1 X 1 Y 1 1 d 1 Y s 1090 588 m 1 X 2 Y 1 X 1 Y -1 Y 1 X 1 Y 1 X 3 Y 1 X 3 Y 1 X 1 Y 1 X 2 Y 1 X 3 Y 1 1 d s 1099 604 m 2 Y 1 X 2 Y 2 X 1 Y 2 X 1 Y 1
 X 1 1 d 2 Y 1 X 1 Y s 1107 614 m 1 X 1 Y 1 1 d 1 Y 1 X 1 Y 1 X 2 Y 1 1 d 1 1 d 2 Y 1 1 d 1 Y 1 1 d -1 Y 1 Y 1 1 d 1 Y s 1116 629 m 1 Y 1 X 1 Y 1 1 d 1 Y 1 X 2 Y 1 1 d 1 1 d 3 Y 1 X 1 Y 1 X 1 Y 1 X 1 1 d s 1125 643 m 2 Y 1 1 d 1 Y 1 X 2 Y 1 1 d 1 Y 1
 1 d 1 Y 1 X 2 Y 1 1 d 1 Y 1 X 2 Y 1 -1 d 2 Y 1 X s 1134 660 m 1 Y 1 X 1 Y 1 X 1 Y 1 1 d 1 2 d 1 Y 1 X 1 Y 1 X 2 Y 1 X 1 Y 1 1 d 1 Y 1 X s 1143 673 m 1 Y 1 X 2 Y 1 X 1 Y 1 X 2 Y 1 X 1 Y 1 1 d 1 Y 1 1 d 1 Y 1 X 1 Y 1 X 2 Y s 1151 687 m 1 X 1 Y 1 X 4 Y
 1 X 1 Y 1 X 3 Y -1 Y 1 1 d 4 Y 1 1 d -1 Y 1 Y 1 X 2 Y 1 X 2 Y 1 1 d 2 Y s 1160 708 m 1 1 d 1 Y 1 1 d 2 Y 1 X 1 Y 1 X 2 Y 1 X 3 Y 1 X 2 Y 1 X 1 Y -1 Y 1 Y 1 1 d 2 Y 1 X 1 Y s 1169 726 m 1 Y 1 X 2 Y 1 X 1 Y 1 1 d 1 Y 1 1 d 1 Y 1 X 1 Y 1 1 d 1 1 d 3 Y
 1 -1 d 2 Y 1 X s 1178 741 m 2 Y 1 X 2 Y 1 1 d 1 Y 1 X 4 Y 1 X 3 Y 1 1 d 3 Y 1 X 1 1 d 1 Y 1 1 d 3 Y 1 X s 1187 764 m 1 1 d 1 Y 1 1 d 1 Y 1 1 d 3 Y 1 X 3 Y 1 X 2 Y 1 X 2 Y 1 1 d 2 Y 1 X 1 Y s 1195 783 m 1 X 1 Y 1 X 2 Y 1 X 1 Y 1 1 d 1 X 1 Y 1 1 d 1 Y
 1 X 2 Y 1 X 1 1 d 1 Y s 1204 795 m 1 Y 1 X 2 Y 1 1 d 2 Y 1 X 2 Y 1 1 d 1 Y 1 X 2 Y -1 Y 1 Y 1 X 2 Y 1 1 d 2 Y -1 Y 1 X 2 Y 1 1 d 1 Y s 1213 815 m 1 Y 1 X 2 Y 1 X 3 Y 1 X 3 Y 1 X 2 Y 1 X 3 Y 1 X 2 Y 1 X 3 Y 1 1 d 2 Y 1 X 1 Y s 1222 838 m 2 Y 1 1 d 5
 Y 1 X 1 Y 1 1 d 1 Y 1 2 d 1 Y 1 X 2 Y 1 1 d 1 Y 1 X 2 Y 1 X 2 Y 1 X s 1231 860 m 2 Y 1 X 3 Y 1 X 1 Y 1 X 2 Y 1 X 1 Y 1 X 2 Y 1 X 2 Y 1 X 2 Y 1 X 2 Y s 1239 877 m 1 1 d 1 Y 1 X 1 Y 1 1 d 1 X 3 Y 2 X 1 Y 1 X 3 Y 1 X 1 Y 1 X 1 Y s 1248 890 m 1 X 2 Y 1
 1 d 1 Y 1 1 d 1 Y 1 X 2 Y 1 X 3 Y 1 1 d 2 Y 1 X 1 Y 1 1 d 2 Y 1 X 1 Y s 1257 909 m 1 Y 1 X 1 Y 1 X 3 Y 1 X 2 Y 1 1 d 1 X 3 Y 1 X 1 Y 1 X 2 Y 1 1 d 2 Y 1 X s 1266 926 m 1 Y 1 1 d 1 Y 1 1 d 2 Y 1 1 d 3 Y 1 X 1 Y 1 X 2 Y 1 X 1 Y 1 X 1 Y 1 X 2 Y 1 1 d s
 1275 944 m 1 Y -1 Y 1 Y 1 X 1 Y 1 X 2 Y 1 1 d 2 Y 1 X 1 Y 1 X 2 Y 1 X 1 Y 1 1 d 1 Y 1 X 2 Y s 1283 959 m 1 X 1 Y 1 X 2 Y 1 X 3 Y 1 X 2 Y 1 X 2 Y 1 X 2 Y 1 X 1 Y 1 X 1 Y 1 1 d 1 Y s 1292 975 m 1 X 2 Y 1 X 1 Y 1 X 3 Y 1 X 1 Y 1 1 d 2 Y 1 X 1 1 d 1 Y 1
 X 1 Y 1 1 d s 1301 989 m 1 Y 1 X 1 Y 1 X 2 Y 1 1 d 2 Y 1 X 1 Y 1 X 1 Y 1 X 1 Y 1 1 d 1 Y 1 X 1 Y 1 X 1 Y s 1310 1003 m 1 Y 1 X 2 Y 1 1 d 1 Y 1 1 d 1 Y 2 X -1 Y 1 Y 1 1 d 1 Y 1 X 1 Y 1 X 2 Y 1 X s 1319 1015 m 1 Y 1 1 d 3 Y 1 X 1 Y 1 X 2 Y 1 X 1 Y 1 X
 1 Y 1 1 d 1 Y 1 1 d 1 1 d 2 Y s 1327 1031 m 1 X 2 Y 1 X 1 Y 1 X 1 Y 1 1 d 1 Y 1 X 1 Y 1 X 1 Y 1 X 1 Y 1 X 1 Y 1 X 1 Y s 1336 1042 m 1 1 d 1 Y 1 X 2 Y 1 X 2 Y 1 1 d 1 Y -1 Y 1 Y 1 X 1 Y 1 1 d 1 1 d -1 Y 1 1 d 1 1 d s 1345 1054 m 1 Y 1 X 1 Y 1 X 1 Y 1
 X 1 Y 1 X 1 Y 1 X 1 1 d 1 X 3 Y 1 X 1 Y 1 X 1 Y s 1354 1065 m 2 Y 1 1 d 1 Y 1 1 d 1 Y 1 X 1 Y 1 X 1 Y 1 1 d -2 Y 1 Y 1 X 3 Y 1 X 1 Y 1 X 1 1 d s 1363 1078 m 1 1 d 1 Y 1 X 1 1 d 1 Y 1 1 d 1 Y 1 X 1 Y 1 X 1 Y 1 X 1 Y 1 X 1 Y s 1371 1088 m 1 X 2 Y 1 X
 1 Y 1 X 1 Y 1 X -1 Y 1 Y 1 X 1 Y 1 X 2 Y 1 X 1 Y 1 1 d 1 1 d s 1380 1098 m 1 X 2 Y 1 X 1 Y 2 X 1 Y 1 X 1 Y 1 X 1 Y 1 X 2 Y 1 X 1 Y 1 X 1 Y s 1389 1108 m 1 Y 1 X 1 Y 1 X 1 Y 1 X 2 Y 1 X 1 Y -1 Y 1 Y 1 X 1 Y 1 X 1 Y 1 1 d 1 X 1 Y 1 X s 1398 1118 m 1 X
 1 Y 1 1 d 1 Y 1 X 1 Y 2 X 1 Y 1 X 1 Y 1 1 d 1 Y 1 X 1 1 d s 1407 1127 m 1 X 2 Y 1 X 1 Y 1 X 1 Y 1 X 1 Y 1 X 1 Y 1 X 1 Y 1 X 1 Y 1 X 1 Y s 1415 1136 m 1 X 1 1 d 1 1 d 1 X 1 Y 1 X 1 Y 1 X 1 Y -1 Y 1 X 1 Y 1 X 1 Y 1 X 1 Y s 1424 1143 m 2 X 1 Y 2 X 2 Y
 1 X 1 Y 1 X 1 Y 1 -2 d 1 X 1 Y 1 X s 1433 1147 m 1 X 1 Y 2 X 1 Y 1 X 1 Y 1 X 1 Y 1 X 2 Y 1 X 1 1 d 1 X s 1442 1154 m 1 Y 1 X 1 1 d 1 X 1 Y 1 X -1 Y 1 Y 2 X 1 Y 2 X 1 Y 1 1 d s 1451 1160 m 1 X 2 Y 2 X 1 Y -3 Y 1 Y -1 Y 1 Y 2 X 1 Y 1 X 1 Y 1 X 1 1 d s
 1459 1164 m 1 X 2 Y 3 X 1 Y 1 X 1 Y 1 X 1 Y 2 X 1 1 d s 1468 1170 m 1 X 1 1 d 1 X 1 Y 1 X 1 Y 2 X 1 Y 3 X 1 Y s 1477 1175 m 1 X 1 Y 1 X 1 Y 3 X 1 Y 2 X 1 Y 1 X 1 1 d s 1486 1180 m 2 X 1 Y 1 X 1 Y 1 X 1 1 d 1 X 1 Y 2 X 1 Y 1 X s 1495 1185 m 2 X 1 Y 2
 X 1 Y 3 X 1 Y 1 X s 1503 1188 m 2 X 1 Y 1 X 1 Y 2 X 1 Y 3 X 1 Y 1 X s 1512 1192 m 1 X 1 Y 2 X 1 Y 2 X 1 Y 2 X 1 Y 2 X s 1521 1196 m 1 1 d 2 X 1 Y 1 X 1 Y 2 X 1 Y 1 X 1 Y 2 X 1 Y s 1530 1202 m 1 X 1 Y 2 X 1 Y 6 X 1 Y s 1539 1205 m 1 X 1 Y 1 X 1 Y 3 X
 1 Y 1 X 1 1 d 1 X 1 Y s 1547 1210 m 3 X 1 Y 2 X 1 Y 2 X 1 Y 2 X s 1556 1213 m 1 Y 1 -1 d 1 Y 3 X 1 Y 5 X s 1565 1215 m 1 Y 2 X 1 Y 4 X 1 1 d 2 X s 1574 1218 m 1 X 1 Y 5 X 1 Y 2 X 1 1 d s 1583 1221 m 2 X 1 Y 4 X 1 Y 2 X s 1591 1223 m 1 X 1 Y 7 X 1 Y
 1 X s 1600 1225 m 1 1 d 4 X 1 Y 4 X s 1609 1227 m 2 X 1 Y 3 X 1 Y 1 X 1 Y 3 X s 1618 1230 m 3 X 1 Y 6 X s 1627 1231 m 2 X 1 Y 6 X 1 Y s 1635 1233 m 5 X 1 Y 1 X -1 Y 1 X 1 Y 2 X s 1644 1234 m 4 X 1 Y 3 X -1 Y 2 X 1 Y s 1653 1235 m 9 X s 1662 1235 m 3
 X 1 1 d 5 X s 1671 1236 m 8 X s 1679 1236 m 3 X 1 Y 6 X s 1688 1237 m 3 X 1 Y 6 X s 1697 1238 m 6 X 1 Y 1 -1 d 1 Y 2 X s 1706 1239 m 5 X 1 Y 4 X s 1715 1240 m 8 X s 1723 1240 m 9 X s 1732 1240 m 3 X 1 Y 6 X s 1741 1241 m 9 X s 1750 1241 m 9 X s 1759
 1241 m 8 X s 1767 1241 m 9 X s 1776 1241 m 9 X s 1785 1241 m 9 X s 1794 1241 m 4 X 1 Y 5 X s 1803 1242 m 9 X s 1812 1242 m 8 X s 1820 1242 m 9 X s 1829 1242 m 9 X s 1838 1242 m 9 X s 1847 1242 m 9 X s 1856 1242 m 8 X s 1864 1242 m 9 X s 1873 1242 m
 8 X 1 Y 1 X s 1882 1243 m 9 X s 1891 1243 m 9 X s 1900 1243 m 8 X s 1908 1243 m 9 X s 1917 1243 m 9 X s 1926 1243 m 9 X s 1935 1243 m 9 X s 1944 1243 m 8 X s 1952 1243 m 9 X s 1961 1243 m 9 X s 1970 1243 m 9 X s 1979 1243 m 9 X s 1988 1243 m 8 X s
 1996 1243 m 9 X s 2005 1243 m 9 X s 2014 1243 m 9 X s 2023 1243 m 9 X s 2032 1243 m 8 X s 2040 1243 m 1 X s 1 0 0 c black 1 0 0 c 245 202 m 9 X s 254 202 m 9 X s 263 202 m 8 X s 271 202 m 9 X s 280 202 m 9 X s 289 202 m 9 X s 298 202 m 9 X s 307 202
 m 8 X s 315 202 m 9 X s 324 202 m 9 X s 333 202 m 9 X s 342 202 m 9 X s 351 202 m 8 X s 359 202 m 9 X s 368 202 m 9 X s 377 202 m 9 X s 386 202 m 9 X s 395 202 m 8 X s 403 202 m 9 X s 412 202 m 9 X s 421 202 m 9 X s 430 202 m 9 X s 439 202 m 8 X s
 447 202 m 9 X s 456 202 m 9 X s 465 202 m 9 X s 474 202 m 9 X s 483 202 m 8 X s 491 202 m 9 X s 500 202 m 9 X s 509 202 m 9 X s 518 202 m 9 X s 527 202 m 8 X s 535 202 m 9 X s 544 202 m 9 X s 553 202 m 9 X s 562 202 m 9 X s 571 202 m 8 X s 579 202 m
 9 X s 588 202 m 9 X s 597 202 m 9 X s 606 202 m 9 X s 615 202 m 8 X s 623 202 m 9 X s 632 202 m 9 X s 641 202 m 9 X s 650 202 m 9 X s 659 202 m 8 X s 667 202 m 9 X s 676 202 m 9 X s 685 202 m 5 X 1 Y 4 X s 694 203 m 9 X s 703 203 m 8 X s 711 203 m 9
 X s 720 203 m 9 X s 729 203 m 9 X s 738 203 m 9 X s 747 203 m 8 X s 755 203 m 9 X s 764 203 m 9 X s 773 203 m 9 X s 782 203 m 9 X s 791 203 m 8 X s 799 203 m 9 X s 808 203 m 9 X s 817 203 m 9 X s 826 203 m 9 X s 835 203 m 8 X s 843 203 m 9 X s 852
 203 m 9 X s 861 203 m 9 X s 870 203 m 1 X 9 Y 8 X s 879 212 m 8 X s 887 212 m 9 X s 896 212 m 9 X s 905 212 m 9 X s 914 212 m 1 Y 9 X s 923 213 m 8 X s 931 213 m 9 X s 940 213 m 4 X 1 6 d 4 X s 949 219 m 9 X s 958 219 m 9 X s 967 219 m 1 X 1 8 d 6 X
 s 975 227 m 9 X s 984 227 m 9 X s 993 227 m 9 X s 1002 227 m 9 X s 1011 227 m 5 X 1 Y 3 X s 1019 228 m 9 X s 1028 228 m 9 X s 1037 228 m 4 X 6 Y 5 X s 1046 234 m 9 X s 1055 234 m 8 X s 1063 234 m 9 X s 1072 234 m 9 X s 1081 234 m 9 X s 1090 234 m 8
 X 1 Y 1 X s 1099 235 m 8 X s 1107 235 m 9 X s 1116 235 m 9 X s 1125 235 m 9 X s 1134 235 m 9 X s 1143 235 m 3 X 5 Y 5 X s 1151 240 m 9 X s 1160 240 m 1 X 9 Y 2 X -2 Y 6 X s 1169 247 m 2 X 810 Y 5 X 5 Y 2 X s 1178 1062 m 9 X s 1187 1062 m 1 5 d 7 X s
 1195 1067 m 6 X 7 Y 3 X s 1204 1074 m 9 X s 1213 1074 m 1 X 110 Y 2 X 4 Y 6 X s 1222 1188 m 9 X s 1231 1188 m 8 X s 1239 1188 m 9 X s 1248 1188 m 6 X 1 Y 3 X s 1257 1189 m 9 X s 1266 1189 m 1 5 d 8 X s 1275 1194 m 3 X 8 Y 4 X 9 Y 1 X s 1283 1211 m 9
 X s 1292 1211 m 9 X s 1301 1211 m 9 X s 1310 1211 m 9 X s 1319 1211 m 8 X s 1327 1211 m 9 X s 1336 1211 m 9 X s 1345 1211 m 9 X s 1354 1211 m 9 X s 1363 1211 m 8 X s 1371 1211 m 9 X s 1380 1211 m 9 X s 1389 1211 m 4 X 4 Y 5 X s 1398 1215 m 3 X 9 Y 6
 X s 1407 1224 m 3 X 8 Y 5 X s 1415 1232 m 9 X s 1424 1232 m 9 X s 1433 1232 m 9 X s 1442 1232 m 9 X s 1451 1232 m 8 X s 1459 1232 m 6 X 3 Y 1 X 1 4 d 1 X s 1468 1239 m 5 X 1 Y 4 X s 1477 1240 m 9 X s 1486 1240 m 9 X s 1495 1240 m 6 X 3 Y 2 X s 1503
 1243 m 9 X s 1512 1243 m 9 X s 1521 1243 m 9 X s 1530 1243 m 9 X s 1539 1243 m 8 X s 1547 1243 m 9 X s 1556 1243 m 9 X s 1565 1243 m 9 X s 1574 1243 m 9 X s 1583 1243 m 8 X s 1591 1243 m 9 X s 1600 1243 m 9 X s 1609 1243 m 9 X s 1618 1243 m 9 X s
 1627 1243 m 8 X s 1635 1243 m 9 X s 1644 1243 m 9 X s 1653 1243 m 9 X s 1662 1243 m 9 X s 1671 1243 m 8 X s 1679 1243 m 9 X s 1688 1243 m 9 X s 1697 1243 m 9 X s 1706 1243 m 9 X s 1715 1243 m 8 X s 1723 1243 m 9 X s 1732 1243 m 9 X s 1741 1243 m 9 X
 s 1750 1243 m 9 X s 1759 1243 m 8 X s 1767 1243 m 9 X s 1776 1243 m 9 X s 1785 1243 m 9 X s 1794 1243 m 9 X s 1803 1243 m 9 X s 1812 1243 m 8 X s 1820 1243 m 9 X s 1829 1243 m 9 X s 1838 1243 m 9 X s 1847 1243 m 9 X s 1856 1243 m 8 X s 1864 1243 m 9
 X s 1873 1243 m 9 X s 1882 1243 m 9 X s 1891 1243 m 9 X s 1900 1243 m 8 X s 1908 1243 m 9 X s 1917 1243 m 9 X s 1926 1243 m 9 X s 1935 1243 m 9 X s 1944 1243 m 8 X s 1952 1243 m 9 X s 1961 1243 m 9 X s 1970 1243 m 9 X s 1979 1243 m 9 X s 1988 1243 m
 8 X s 1996 1243 m 9 X s 2005 1243 m 9 X s 2014 1243 m 9 X s 2023 1243 m 9 X s 2032 1243 m 8 X s 2040 1243 m 1 X s 0 0.666667 0 c 1 1 1 c black 0 0.666667 0 c 245 202 m 9 X s 254 202 m 9 X s 263 202 m 8 X s 271 202 m 9 X s 280 202 m 9 X s 289 202 m 9
 X s 298 202 m 9 X s 307 202 m 8 X s 315 202 m 9 X s 324 202 m 9 X s 333 202 m 9 X s 342 202 m 9 X s 351 202 m 8 X s 359 202 m 9 X s 368 202 m 9 X s 377 202 m 9 X s 386 202 m 9 X s 395 202 m 8 X s 403 202 m 9 X s 412 202 m 9 X s 421 202 m 9 X s 430
 202 m 9 X s 439 202 m 8 X s 447 202 m 9 X s 456 202 m 9 X s 465 202 m 9 X s 474 202 m 9 X s 483 202 m 8 X s 491 202 m 9 X s 500 202 m 9 X s 509 202 m 9 X s 518 202 m 9 X s 527 202 m 8 X s 535 202 m 9 X s 544 202 m 9 X s 553 202 m 9 X s 562 202 m 9 X
 s 571 202 m 8 X s 579 202 m 9 X s 588 202 m 9 X s 597 202 m 9 X s 606 202 m 9 X s 615 202 m 8 X s 623 202 m 9 X s 632 202 m 9 X s 641 202 m 9 X s 650 202 m 9 X s 659 202 m 8 X s 667 202 m 9 X s 676 202 m 9 X s 685 202 m 9 X s 694 202 m 9 X s 703 202
 m 8 X s 711 202 m 9 X s 720 202 m 9 X s 729 202 m 9 X s 738 202 m 9 X s 747 202 m 8 X s 755 202 m 9 X s 764 202 m 9 X s 773 202 m 9 X s 782 202 m 9 X s 791 202 m 8 X s 799 202 m 9 X s 808 202 m 9 X s 817 202 m 9 X s 826 202 m 9 X s 835 202 m 8 X s
 843 202 m 9 X s 852 202 m 9 X s 861 202 m 9 X s 870 202 m 9 X s 879 202 m 8 X s 887 202 m 9 X s 896 202 m 9 X s 905 202 m 9 X s 914 202 m 9 X s 923 202 m 8 X s 931 202 m 9 X s 940 202 m 9 X s 949 202 m 9 X s 958 202 m 9 X s 967 202 m 8 X s 975 202 m
 9 X s 984 202 m 9 X s 993 202 m 9 X s 1002 202 m 9 X s 1011 202 m 8 X s 1019 202 m 9 X s 1028 202 m 9 X s 1037 202 m 9 X s 1046 202 m 9 X s 1055 202 m 8 X s 1063 202 m 9 X s 1072 202 m 9 X s 1081 202 m 9 X s 1090 202 m 9 X s 1099 202 m 8 X s 1107
 202 m 9 X s 1116 202 m 9 X s 1125 202 m 9 X s 1134 202 m 9 X s 1143 202 m 8 X s 1151 202 m 9 X s 1160 202 m 9 X s 1169 202 m 9 X s 1178 202 m 9 X s 1187 202 m 8 X s 1195 202 m 9 X s 1204 202 m 9 X s 1213 202 m 9 X s 1222 202 m 9 X s 1231 202 m 8 X s
 1239 202 m 9 X s 1248 202 m 9 X s 1257 202 m 9 X s 1266 202 m 9 X s 1275 202 m 8 X s 1283 202 m 9 X s 1292 202 m 9 X s 1301 202 m 9 X s 1310 202 m 9 X s 1319 202 m 8 X s 1327 202 m 9 X s 1336 202 m 9 X s 1345 202 m 9 X s 1354 202 m 9 X s 1363 202 m
 8 X s 1371 202 m 9 X s 1380 202 m 9 X s 1389 202 m 9 X s 1398 202 m 9 X s 1407 202 m 8 X s 1415 202 m 9 X s 1424 202 m 9 X s 1433 202 m 9 X s 1442 202 m 9 X s 1451 202 m 8 X s 1459 202 m 9 X s 1468 202 m 9 X s 1477 202 m 9 X s 1486 202 m 9 X s 1495
 202 m 8 X s 1503 202 m 9 X s 1512 202 m 9 X s 1521 202 m 9 X s 1530 202 m 9 X s 1539 202 m 8 X s 1547 202 m 9 X s 1556 202 m 9 X s 1565 202 m 9 X s 1574 202 m 9 X s 1583 202 m 8 X s 1591 202 m 9 X s 1600 202 m 9 X s 1609 202 m 9 X s 1618 202 m 9 X s
 1627 202 m 8 X s 1635 202 m 9 X s 1644 202 m 9 X s 1653 202 m 9 X s 1662 202 m 9 X s 1671 202 m 8 X s 1679 202 m 9 X s 1688 202 m 9 X s 1697 202 m 9 X s 1706 202 m 9 X s 1715 202 m 8 X s 1723 202 m 9 X s 1732 202 m 9 X s 1741 202 m 9 X s 1750 202 m
 9 X s 1759 202 m 8 X s 1767 202 m 9 X s 1776 202 m 9 X s 1785 202 m 9 X s 1794 202 m 9 X s 1803 202 m 9 X s 1812 202 m 8 X s 1820 202 m 9 X s 1829 202 m 9 X s 1838 202 m 9 X s 1847 202 m 9 X s 1856 202 m 8 X s 1864 202 m 9 X s 1873 202 m 9 X s 1882
 202 m 9 X s 1891 202 m 9 X s 1900 202 m 8 X s 1908 202 m 9 X s 1917 202 m 9 X s 1926 202 m 9 X s 1935 202 m 9 X s 1944 202 m 8 X s 1952 202 m 9 X s 1961 202 m 9 X s 1970 202 m 9 X s 1979 202 m 9 X s 1988 202 m 8 X s 1996 202 m 9 X s 2005 202 m 9 X s
 2014 202 m 9 X s 2023 202 m 9 X s 2032 202 m 8 X s 2040 202 m 1 X s black 3 lw 245 202 m 1796 X s 405 242 m -40 Y s 471 222 m -20 Y s 537 222 m -20 Y s 603 222 m -20 Y s 669 222 m -20 Y s 735 242 m -40 Y s 801 222 m -20 Y s 867 222 m -20 Y s 933 222
 m -20 Y s 999 222 m -20 Y s 1065 242 m -40 Y s 1131 222 m -20 Y s 1197 222 m -20 Y s 1263 222 m -20 Y s 1329 222 m -20 Y s 1396 242 m -40 Y s 1462 222 m -20 Y s 1528 222 m -20 Y s 1594 222 m -20 Y s 1660 222 m -20 Y s 1726 242 m -40 Y s 405 242 m
 -40 Y s 339 222 m -20 Y s 273 222 m -20 Y s 1726 242 m -40 Y s 1792 222 m -20 Y s 1858 222 m -20 Y s 1924 222 m -20 Y s 1990 222 m -20 Y s 245 202 m 1145 Y s 291 202 m -46 X s 268 254 m -23 X s 268 306 m -23 X s 268 358 m -23 X s 291 410 m -46 X s
 268 462 m -23 X s 268 514 m -23 X s 268 566 m -23 X s 291 618 m -46 X s 268 670 m -23 X s 268 722 m -23 X s 268 775 m -23 X s 291 827 m -46 X s 268 879 m -23 X s 268 931 m -23 X s 268 983 m -23 X s 291 1035 m -46 X s 268 1087 m -23 X s 268 1139 m
 -23 X s 268 1191 m -23 X s 291 1243 m -46 X s 291 1243 m -46 X s 268 1295 m -23 X s 268 1347 m -23 X s 0.490196 0.545098 0.615686 c 1 1 1 c 0.490196 0.545098 0.615686 c 907 202 245 1347 bl 245 1347 m 907 X s 1152 1347 m 202 Y s 1152 1549 m -907 X s
 245 1549 m -202 Y s black
 gsave  2268 1684 0 0 C 515.735 1478.95 t 0 r /Helvetica-Bold findfont 53.0904 sf 0 0 m (Signal efficiency) show NC gr  0 0 0.933333 c 9 lw 286 1499 m 190 X s black
 gsave  2268 1684 0 0 C 515.735 1376.56 t 0 r /Helvetica-Bold findfont 53.0904 sf 0 0 m (Background efficiency) show NC gr  1 0 0 c 286 1397 m 190 X s 0.490196 0.545098 0.615686 c 3 lw 1 1 1 c 0.490196 0.545098 0.615686 c 889 202 1152 1347 bl 1152
 1347 m 889 X s 2041 1347 m 202 Y s 2041 1549 m -889 X s 1152 1549 m -202 Y s black
 gsave  2268 1684 0 0 C 1418.27 1501.7 t 0 r /Helvetica-Bold findfont 56.8825 sf 0 0 m (Signal purity) show NC gr  0 0 0.933333 c[  52 12 ] 0 sd 6 lw 1192 1515 m 187 X s black
 gsave  2268 1684 0 0 C 1418.27 1433.44 t 0 r /Helvetica-Bold findfont 56.8825 sf 0 0 m (Signal efficiency*purity) show NC gr  0 0 0.933333 c[  22 12 ] 0 sd 1192 1448 m 187 X s black
 gsave  2268 1684 0 0 C 1501.7 1368.97 t 0 r /Helvetica-Bold findfont 56.8825 sf 0 0 m (S+B) show NC gr [  ] 0 sd 1483 1414 m 7 -49 d s 3 lw 1490 1365 m 8 65 d s 1498 1430 m 114 X s
 gsave  2268 1684 0 0 C 1418.27 1368.97 t 0 r /Helvetica-Bold findfont 56.8825 sf 0 0 m (S/) show NC gr  0 0.666667 0 c 9 lw 1192 1381 m 187 X s black 3 lw 245 1243 m 1796 X s
 gsave  2268 1684 0 0 C 337.503 390.593 t 0 r /Helvetica-Bold findfont 53.0904 sf 0 0 m (For 1000 signal and 1000 background) show NC gr 
 gsave  2268 1684 0 0 C 1065.6 322.334 t 0 r /Helvetica-Bold findfont 53.0904 sf 0 0 m ( is) show NC gr 
 gsave  2268 1684 0 0 C 963.211 322.334 t 0 r /Helvetica-Bold findfont 53.0904 sf 0 0 m (S+B) show NC gr  6 lw 940 364 m 8 -45 d s 3 lw 948 319 m 8 60 d s 956 379 m 110 X s
 gsave  2268 1684 0 0 C 337.503 322.334 t 0 r /Helvetica-Bold findfont 53.0904 sf 0 0 m (events the maximum S/) show NC gr 
 gsave  2268 1684 0 0 C 337.503 254.075 t 0 r /Helvetica-Bold findfont 53.0904 sf 0 0 m (22.36 when cutting at  0.19) show NC gr  0.490196 0.545098 0.615686 c 0.364706 0.419608 0.490196 c 1554 100 23 1575 bf 0.490196 0.545098 0.615686 c 23 1575 m
 1554 X s 1577 1575 m 100 Y s 1577 1675 m -1554 X s 23 1675 m -100 Y s 1 1 1 c black 1 1 1 c
 gsave  2268 1684 0 0 C 75.8434 1604.09 t 0 r /Helvetica-Bold findfont 79.6355 sf 0 0 m (Cut efficiencies and optimal cut value) show NC gr  0 0.666667 0 c 2041 202 m 1145 Y s 1995 202 m 46 X s 2018 225 m 23 X s 2018 249 m 23 X s 2018 272 m 23 X s
 1995 295 m 46 X s 2018 318 m 23 X s 2018 342 m 23 X s 2018 365 m 23 X s 1995 388 m 46 X s 2018 412 m 23 X s 2018 435 m 23 X s 2018 458 m 23 X s 1995 481 m 46 X s 2018 505 m 23 X s 2018 528 m 23 X s 2018 551 m 23 X s 1995 574 m 46 X s 2018 598 m 23 X
 s 2018 621 m 23 X s 2018 644 m 23 X s 1995 668 m 46 X s 2018 691 m 23 X s 2018 714 m 23 X s 2018 737 m 23 X s 1995 761 m 46 X s 2018 784 m 23 X s 2018 807 m 23 X s 2018 830 m 23 X s 1995 854 m 46 X s 2018 877 m 23 X s 2018 900 m 23 X s 2018 924 m 23
 X s 1995 947 m 46 X s 2018 970 m 23 X s 2018 993 m 23 X s 2018 1017 m 23 X s 1995 1040 m 46 X s 2018 1063 m 23 X s 2018 1086 m 23 X s 2018 1110 m 23 X s 1995 1133 m 46 X s 2018 1156 m 23 X s 2018 1180 m 23 X s 2018 1203 m 23 X s 1995 1226 m 46 X s
 2018 1249 m 23 X s 2018 1273 m 23 X s 2018 1296 m 23 X s 1995 1319 m 46 X s 1995 1319 m 46 X s 2018 1342 m 23 X s black 0 0.666667 0 c
 gsave  2268 1684 0 0 C 2051.56 178.232 t 0 r /Helvetica-Bold findfont 64.4669 sf 0 0 m (0) show NC gr  black 0 0.666667 0 c
 gsave  2268 1684 0 0 C 2051.56 269.244 t 0 r /Helvetica-Bold findfont 64.4669 sf 0 0 m (2) show NC gr  black 0 0.666667 0 c
 gsave  2268 1684 0 0 C 2051.56 364.048 t 0 r /Helvetica-Bold findfont 64.4669 sf 0 0 m (4) show NC gr  black 0 0.666667 0 c
 gsave  2268 1684 0 0 C 2051.56 455.06 t 0 r /Helvetica-Bold findfont 64.4669 sf 0 0 m (6) show NC gr  black 0 0.666667 0 c
 gsave  2268 1684 0 0 C 2051.56 549.864 t 0 r /Helvetica-Bold findfont 64.4669 sf 0 0 m (8) show NC gr  black 0 0.666667 0 c
 gsave  2268 1684 0 0 C 2051.56 644.669 t 0 r /Helvetica-Bold findfont 64.4669 sf 0 0 m (10) show NC gr  black 0 0.666667 0 c
 gsave  2268 1684 0 0 C 2051.56 735.681 t 0 r /Helvetica-Bold findfont 64.4669 sf 0 0 m (12) show NC gr  black 0 0.666667 0 c
 gsave  2268 1684 0 0 C 2051.56 830.485 t 0 r /Helvetica-Bold findfont 64.4669 sf 0 0 m (14) show NC gr  black 0 0.666667 0 c
 gsave  2268 1684 0 0 C 2051.56 921.497 t 0 r /Helvetica-Bold findfont 64.4669 sf 0 0 m (16) show NC gr  black 0 0.666667 0 c
 gsave  2268 1684 0 0 C 2051.56 1016.3 t 0 r /Helvetica-Bold findfont 64.4669 sf 0 0 m (18) show NC gr  black 0 0.666667 0 c
 gsave  2268 1684 0 0 C 2051.56 1107.31 t 0 r /Helvetica-Bold findfont 64.4669 sf 0 0 m (20) show NC gr  black 0 0.666667 0 c
 gsave  2268 1684 0 0 C 2051.56 1202.12 t 0 r /Helvetica-Bold findfont 64.4669 sf 0 0 m (22) show NC gr  black 0 0.666667 0 c
 gsave  2268 1684 0 0 C 2051.56 1293.13 t 0 r /Helvetica-Bold findfont 64.4669 sf 0 0 m (24) show NC gr  black 0 0.666667 0 c
 gsave  2268 1684 0 0 C 2203.25 967.003 t 90 r /Helvetica-Bold findfont 64.4669 sf 0 0 m (Significance) show NC gr 
 gr  gr showpage
end
%%EOF
