%!PS-Adobe-2.0 EPSF-2.0
%%BoundingBox:  0 0 567 416
%%Title: dataset_class_comb2_BDT4/plots/rejBvsS.eps: the canvas
%%Creator: ROOT Version 6.18/00
%%CreationDate: Sat Sep 14 15:19:08 2019
%%DocumentNeededResources: ProcSet (FontSetInit)
%%EndComments
%%BeginProlog
80 dict begin
/s {stroke} def /l {lineto} def /m {moveto} def /t {translate} def
/r {rotate} def /rl {roll}  def /R {repeat} def
/d {rlineto} def /rm {rmoveto} def /gr {grestore} def /f {eofill} def
/c {setrgbcolor} def /black {0 setgray} def /sd {setdash} def
/cl {closepath} def /sf {scalefont setfont} def /lw {setlinewidth} def
/box {m dup 0 exch d exch 0 d 0 exch neg d cl} def
/NC{systemdict begin initclip end}def/C{NC box clip newpath}def
/bl {box s} def /bf {gsave box gsave f grestore 1 lw [] 0 sd s grestore} def /Y { 0 exch d} def /X { 0 d} def 
/K {{pop pop 0 moveto} exch kshow} bind def
/ita {/ang 15 def gsave [1 0 ang dup sin exch cos div 1 0 0] concat} def 
/mp {newpath /y exch def /x exch def} def
/side {[w .77 mul w .23 mul] .385 w mul sd w 0 l currentpoint t -144 r} def
/mr {mp x y w2 0 360 arc} def /m24 {mr s} def /m20 {mr f} def
/mb {mp x y w2 add m w2 neg 0 d 0 w neg d w 0 d 0 w d cl} def
/mt {mp x y w2 add m w2 neg w neg d w 0 d cl} def
/w4 {w 4 div} def
/w6 {w 6 div} def
/w8 {w 8 div} def
/m21 {mb f} def /m25 {mb s} def /m22 {mt f} def /m26{mt s} def
/m23 {mp x y w2 sub m w2 w d w neg 0 d cl f} def
/m27 {mp x y w2 add m w3 neg w2 neg d w3 w2 neg d w3 w2 d cl s} def
/m28 {mp x w2 sub y w2 sub w3 add m w3 0 d  0 w3 neg d w3 0 d 0 w3 d w3 0 d  0 w3 d w3 neg 0 d 0 w3 d w3 neg 0 d 0 w3 neg d w3 neg 0 d cl s } def
/m29 {mp gsave x w2 sub y w2 add w3 sub m currentpoint t 4 {side} repeat cl fill gr} def
/m30 {mp gsave x w2 sub y w2 add w3 sub m currentpoint t 4 {side} repeat cl s gr} def
/m31 {mp x y w2 sub m 0 w d x w2 sub y m w 0 d x w2 sub y w2 add m w w neg d x w2 sub y w2 sub m w w d s} def
/m32 {mp x y w2 sub m w2 w d w neg 0 d cl s} def
/m33 {mp x y w2 add m w3 neg w2 neg d w3 w2 neg d w3 w2 d cl f} def
/m34 {mp x w2 sub y w2 sub w3 add m w3 0 d  0 w3 neg d w3 0 d 0 w3 d w3 0 d  0 w3 d w3 neg 0 d 0 w3 d w3 neg 0 d 0 w3 neg d w3 neg 0 d cl f } def
/m35 {mp x y w2 add m w2 neg w2 neg d w2 w2 neg d w2 w2 d w2 neg w2 d x y w2 sub m 0 w d x w2 sub y m w 0 d s} def
/m36 {mb x w2 sub y w2 add m w w neg d x w2 sub y w2 sub m w w d s} def
/m37 {mp x y m w4 neg w2 d w4 neg w2 neg d w2 0 d  w4 neg w2 neg d w2 0 d w4 neg w2 d w2 0 d w4 neg w2 d w4 neg w2 neg d cl s} def
/m38 {mp x w4 sub y w2 add m w4 neg w4 neg d 0 w2 neg d w4 w4 neg d w2 0 d w4 w4 d 0 w2 d w4 neg w4 d w2 neg 0 d x y w2 sub m 0 w d x w2 sub y m w 0 d cl s} def
/m39 {mp x y m w4 neg w2 d w4 neg w2 neg d w2 0 d  w4 neg w2 neg d w2 0 d w4 neg w2 d w2 0 d w4 neg w2 d w4 neg w2 neg d cl f} def
/m40 {mp x y m w4 w2 d w4 w4 neg d w2 neg w4 neg d w2 w4 neg d w4 neg w4 neg d w4 neg w2 d w4 neg w2 neg d w4 neg w4 d w2 w4 d w2 neg w4 d w4 w4 d w4 w2 neg d cl s} def
/m41 {mp x y m w4 w2 d w4 w4 neg d w2 neg w4 neg d w2 w4 neg d w4 neg w4 neg d w4 neg w2 d w4 neg w2 neg d w4 neg w4 d w2 w4 d w2 neg w4 d w4 w4 d w4 w2 neg d cl f} def
/m42 {mp x y w2 add m w8 neg w2 -3 4 div mul d w2 -3 4 div mul w8 neg d w2 3 4 div mul w8 neg d w8 w2 -3 4 div mul d w8 w2 3 4 div mul d w2 3 4 div mul w8 d w2 -3 4 div mul w8 d w8 neg w2 3 4 div mul d cl s} def
/m43 {mp x y w2 add m w8 neg w2 -3 4 div mul d w2 -3 4 div mul w8 neg d w2 3 4 div mul w8 neg d w8 w2 -3 4 div mul d w8 w2 3 4 div mul d w2 3 4 div mul w8 d w2 -3 4 div mul w8 d w8 neg w2 3 4 div mul d cl f} def
/m44 {mp x y m w6 neg w2 d w2 2 3 div mul 0 d w6 neg w2 neg d w2 w6 d 0 w2 -2 3 div mul d w2 neg w6 d w6 w2 neg d w2 -2 3 div mul 0 d w6 w2 d w2 neg w6 neg d 0 w2 2 3 div mul d w2 w6 neg d cl s} def
/m45 {mp x y m w6 neg w2 d w2 2 3 div mul 0 d w6 neg w2 neg d w2 w6 d 0 w2 -2 3 div mul d w2 neg w6 d w6 w2 neg d w2 -2 3 div mul 0 d w6 w2 d w2 neg w6 neg d 0 w2 2 3 div mul d w2 w6 neg d cl f} def
/m46 {mp x y w4 add m w4 neg w4 d w4 neg w4 neg d  w4 w4 neg d w4 neg w4 neg d w4 w4 neg d w4 w4 d w4 w4 neg d w4 w4 d w4 neg w4 d w4 w4 d w4 neg w4 d w4 neg w4 neg d cl s} def
/m47 {mp x y w4 add m w4 neg w4 d w4 neg w4 neg d w4 w4 neg d w4 neg w4 neg d  w4 w4 neg d w4 w4 d w4 w4 neg d w4 w4 d w4 neg w4 d w4 w4 d w4 neg w4 d w4 neg w4 neg d cl f} def
/m48 {mp x y w4 add m w4 neg w4 d w4 neg w4 neg d w4 w4 neg d  w4 neg w4 neg d w4 w4 neg d w4 w4 d w4 w4 neg d w4 w4 d w4 neg w4 d w4 w4 d w4 neg w4 d w4 neg w4 neg d  w4 w4 neg d w4 neg w4 neg d w4 neg w4 d w4 w4 d cl f} def
/m49 {mp x w2 sub w3 add y w2 sub w3 add m  0 w3 neg d w3 0 d 0 w3 d w3 0 d 0 w3 d w3 neg 0 d 0 w3 d w3 neg 0 d 0 w3 neg d w3 neg 0 d 0 w3 neg d w3 0 d 0 w3 d w3 0 d 0 w3 neg d w3 neg 0 d cl f } def
/m2 {mp x y w2 sub m 0 w d x w2 sub y m w 0 d s} def
/m5 {mp x w2 sub y w2 sub m w w d x w2 sub y w2 add m w w neg d s} def
%%IncludeResource: ProcSet (FontSetInit)
%%IncludeResource: font Times-Roman
%%IncludeResource: font Times-Italic
%%IncludeResource: font Times-Bold
%%IncludeResource: font Times-BoldItalic
%%IncludeResource: font Helvetica
%%IncludeResource: font Helvetica-Oblique
%%IncludeResource: font Helvetica-Bold
%%IncludeResource: font Helvetica-BoldOblique
%%IncludeResource: font Courier
%%IncludeResource: font Courier-Oblique
%%IncludeResource: font Courier-Bold
%%IncludeResource: font Courier-BoldOblique
%%IncludeResource: font Symbol
%%IncludeResource: font ZapfDingbats
/reEncode {exch findfont dup length dict begin {1 index /FID eq  {pop pop} {def} ifelse } forall /Encoding exch def currentdict end dup /FontName get exch definefont pop } def [/Times-Bold /Times-Italic /Times-BoldItalic /Helvetica /Helvetica-Oblique
 /Helvetica-Bold /Helvetica-BoldOblique /Courier /Courier-Oblique /Courier-Bold /Courier-BoldOblique /Times-Roman /AvantGarde-Book /AvantGarde-BookOblique /AvantGarde-Demi /AvantGarde-DemiOblique /Bookman-Demi /Bookman-DemiItalic /Bookman-Light
 /Bookman-LightItalic /Helvetica-Narrow /Helvetica-Narrow-Bold /Helvetica-Narrow-BoldOblique /Helvetica-Narrow-Oblique /NewCenturySchlbk-Roman /NewCenturySchlbk-Bold /NewCenturySchlbk-BoldItalic /NewCenturySchlbk-Italic /Palatino-Bold
 /Palatino-BoldItalic /Palatino-Italic /Palatino-Roman ] {ISOLatin1Encoding reEncode } forall
%%EndProlog
%%BeginSetup
%%EndSetup
newpath  gsave  .25 .25 scale  gsave  0 0 t 0.490196 0.545098 0.615686 c[  ] 0 sd 3 lw 0.941176 0.941176 0.941176 c 2268 1666 0 0 bf black 1 1 0.992157 c 1909 1299 245 200 bf black 1909 1299 245 200 bl 1 1 0.992157 c 1909 1299 245 200 bf black 1909
 1299 245 200 bl 245 200 m 1909 X s 245 242 m -42 Y s[ 4 8] 0 sd 245 1499 m -1299 Y s[  ] 0 sd 283 221 m -21 Y s 321 221 m -21 Y s 359 221 m -21 Y s 398 221 m -21 Y s 436 242 m -42 Y s[ 4 8] 0 sd 436 1499 m -1299 Y s[  ] 0 sd 474 221 m -21 Y s 512
 221 m -21 Y s 550 221 m -21 Y s 589 221 m -21 Y s 627 242 m -42 Y s[ 4 8] 0 sd 627 1499 m -1299 Y s[  ] 0 sd 665 221 m -21 Y s 703 221 m -21 Y s 741 221 m -21 Y s 780 221 m -21 Y s 818 242 m -42 Y s[ 4 8] 0 sd 818 1499 m -1299 Y s[  ] 0 sd 856 221 m
 -21 Y s 894 221 m -21 Y s 932 221 m -21 Y s 970 221 m -21 Y s 1009 242 m -42 Y s[ 4 8] 0 sd 1009 1499 m -1299 Y s[  ] 0 sd 1047 221 m -21 Y s 1085 221 m -21 Y s 1123 221 m -21 Y s 1161 221 m -21 Y s 1200 242 m -42 Y s[ 4 8] 0 sd 1200 1499 m -1299 Y
 s[  ] 0 sd 1238 221 m -21 Y s 1276 221 m -21 Y s 1314 221 m -21 Y s 1352 221 m -21 Y s 1391 242 m -42 Y s[ 4 8] 0 sd 1391 1499 m -1299 Y s[  ] 0 sd 1429 221 m -21 Y s 1467 221 m -21 Y s 1505 221 m -21 Y s 1543 221 m -21 Y s 1582 242 m -42 Y s[ 4 8]
 0 sd 1582 1499 m -1299 Y s[  ] 0 sd 1620 221 m -21 Y s 1658 221 m -21 Y s 1696 221 m -21 Y s 1734 221 m -21 Y s 1772 242 m -42 Y s[ 4 8] 0 sd 1772 1499 m -1299 Y s[  ] 0 sd 1811 221 m -21 Y s 1849 221 m -21 Y s 1887 221 m -21 Y s 1925 221 m -21 Y s
 1963 242 m -42 Y s[ 4 8] 0 sd 1963 1499 m -1299 Y s[  ] 0 sd 2002 221 m -21 Y s 2040 221 m -21 Y s 2078 221 m -21 Y s 2116 221 m -21 Y s 2154 242 m -42 Y s[ 4 8] 0 sd 2154 1499 m -1299 Y s
 gsave  2268 1666 0 0 C 223.972 129.484 t 0 r /Helvetica-Bold findfont 62.9921 sf 0 0 m (0) show NC gr 
 gsave  2268 1666 0 0 C 395.451 129.484 t 0 r /Helvetica-Bold findfont 62.9921 sf 0 0 m (0.1) show NC gr 
 gsave  2268 1666 0 0 C 584.427 129.484 t 0 r /Helvetica-Bold findfont 62.9921 sf 0 0 m (0.2) show NC gr 
 gsave  2268 1666 0 0 C 773.403 129.484 t 0 r /Helvetica-Bold findfont 62.9921 sf 0 0 m (0.3) show NC gr 
 gsave  2268 1666 0 0 C 965.879 129.484 t 0 r /Helvetica-Bold findfont 62.9921 sf 0 0 m (0.4) show NC gr 
 gsave  2268 1666 0 0 C 1154.86 129.484 t 0 r /Helvetica-Bold findfont 62.9921 sf 0 0 m (0.5) show NC gr 
 gsave  2268 1666 0 0 C 1347.33 129.484 t 0 r /Helvetica-Bold findfont 62.9921 sf 0 0 m (0.6) show NC gr 
 gsave  2268 1666 0 0 C 1532.81 129.484 t 0 r /Helvetica-Bold findfont 62.9921 sf 0 0 m (0.7) show NC gr 
 gsave  2268 1666 0 0 C 1728.78 129.484 t 0 r /Helvetica-Bold findfont 62.9921 sf 0 0 m (0.8) show NC gr 
 gsave  2268 1666 0 0 C 1921.26 129.484 t 0 r /Helvetica-Bold findfont 62.9921 sf 0 0 m (0.9) show NC gr 
 gsave  2268 1666 0 0 C 2138.23 129.484 t 0 r /Helvetica-Bold findfont 62.9921 sf 0 0 m (1) show NC gr 
 gsave  2268 1666 0 0 C 1592.3 31.4961 t 0 r /Helvetica-Bold findfont 69.9912 sf 0 0 m (Signal efficiency) show NC gr [  ] 0 sd 245 1499 m 1909 X s 245 1457 m 42 Y s 283 1478 m 21 Y s 321 1478 m 21 Y s 359 1478 m 21 Y s 398 1478 m 21 Y s 436 1457 m
 42 Y s 474 1478 m 21 Y s 512 1478 m 21 Y s 550 1478 m 21 Y s 589 1478 m 21 Y s 627 1457 m 42 Y s 665 1478 m 21 Y s 703 1478 m 21 Y s 741 1478 m 21 Y s 780 1478 m 21 Y s 818 1457 m 42 Y s 856 1478 m 21 Y s 894 1478 m 21 Y s 932 1478 m 21 Y s 970 1478
 m 21 Y s 1009 1457 m 42 Y s 1047 1478 m 21 Y s 1085 1478 m 21 Y s 1123 1478 m 21 Y s 1161 1478 m 21 Y s 1200 1457 m 42 Y s 1238 1478 m 21 Y s 1276 1478 m 21 Y s 1314 1478 m 21 Y s 1352 1478 m 21 Y s 1391 1457 m 42 Y s 1429 1478 m 21 Y s 1467 1478 m
 21 Y s 1505 1478 m 21 Y s 1543 1478 m 21 Y s 1582 1457 m 42 Y s 1620 1478 m 21 Y s 1658 1478 m 21 Y s 1696 1478 m 21 Y s 1734 1478 m 21 Y s 1772 1457 m 42 Y s 1811 1478 m 21 Y s 1849 1478 m 21 Y s 1887 1478 m 21 Y s 1925 1478 m 21 Y s 1963 1457 m 42
 Y s 2002 1478 m 21 Y s 2040 1478 m 21 Y s 2078 1478 m 21 Y s 2116 1478 m 21 Y s 2154 1457 m 42 Y s 245 200 m 1299 Y s 298 200 m -53 X s[ 4 8] 0 sd 2154 200 m -1909 X s[  ] 0 sd 271 232 m -26 X s 271 265 m -26 X s 271 297 m -26 X s 271 330 m -26 X s
 298 362 m -53 X s[ 4 8] 0 sd 2154 362 m -1909 X s[  ] 0 sd 271 395 m -26 X s 271 427 m -26 X s 271 460 m -26 X s 271 492 m -26 X s 298 525 m -53 X s[ 4 8] 0 sd 2154 525 m -1909 X s[  ] 0 sd 271 557 m -26 X s 271 590 m -26 X s 271 622 m -26 X s 271
 655 m -26 X s 298 687 m -53 X s[ 4 8] 0 sd 2154 687 m -1909 X s[  ] 0 sd 271 720 m -26 X s 271 752 m -26 X s 271 785 m -26 X s 271 817 m -26 X s 298 850 m -53 X s[ 4 8] 0 sd 2154 850 m -1909 X s[  ] 0 sd 271 882 m -26 X s 271 915 m -26 X s 271 947 m
 -26 X s 271 979 m -26 X s 298 1012 m -53 X s[ 4 8] 0 sd 2154 1012 m -1909 X s[  ] 0 sd 271 1044 m -26 X s 271 1077 m -26 X s 271 1109 m -26 X s 271 1142 m -26 X s 298 1174 m -53 X s[ 4 8] 0 sd 2154 1174 m -1909 X s[  ] 0 sd 271 1207 m -26 X s 271
 1239 m -26 X s 271 1272 m -26 X s 271 1304 m -26 X s 298 1337 m -53 X s[ 4 8] 0 sd 2154 1337 m -1909 X s[  ] 0 sd 271 1369 m -26 X s 271 1402 m -26 X s 271 1434 m -26 X s 271 1467 m -26 X s 298 1499 m -53 X s[ 4 8] 0 sd 2154 1499 m -1909 X s[  ] 0
 sd 298 200 m -53 X s[ 4 8] 0 sd 2154 200 m -1909 X s
 gsave  2268 1666 0 0 C 132.983 178.478 t 0 r /Helvetica-Bold findfont 62.9921 sf 0 0 m (0.2) show NC gr 
 gsave  2268 1666 0 0 C 132.983 339.458 t 0 r /Helvetica-Bold findfont 62.9921 sf 0 0 m (0.3) show NC gr 
 gsave  2268 1666 0 0 C 132.983 500.437 t 0 r /Helvetica-Bold findfont 62.9921 sf 0 0 m (0.4) show NC gr 
 gsave  2268 1666 0 0 C 132.983 664.917 t 0 r /Helvetica-Bold findfont 62.9921 sf 0 0 m (0.5) show NC gr 
 gsave  2268 1666 0 0 C 132.983 825.897 t 0 r /Helvetica-Bold findfont 62.9921 sf 0 0 m (0.6) show NC gr 
 gsave  2268 1666 0 0 C 129.484 990.376 t 0 r /Helvetica-Bold findfont 62.9921 sf 0 0 m (0.7) show NC gr 
 gsave  2268 1666 0 0 C 132.983 1151.36 t 0 r /Helvetica-Bold findfont 62.9921 sf 0 0 m (0.8) show NC gr 
 gsave  2268 1666 0 0 C 132.983 1312.34 t 0 r /Helvetica-Bold findfont 62.9921 sf 0 0 m (0.9) show NC gr 
 gsave  2268 1666 0 0 C 192.476 1476.82 t 0 r /Helvetica-Bold findfont 62.9921 sf 0 0 m (1) show NC gr 
 gsave  2268 1666 0 0 C 62.9921 776.903 t 90 r /Helvetica-Bold findfont 69.9912 sf 0 0 m (Background rejection) show NC gr [  ] 0 sd 2154 200 m 1299 Y s 2101 200 m 53 X s 2128 232 m 26 X s 2128 265 m 26 X s 2128 297 m 26 X s 2128 330 m 26 X s 2101
 362 m 53 X s 2128 395 m 26 X s 2128 427 m 26 X s 2128 460 m 26 X s 2128 492 m 26 X s 2101 525 m 53 X s 2128 557 m 26 X s 2128 590 m 26 X s 2128 622 m 26 X s 2128 655 m 26 X s 2101 687 m 53 X s 2128 720 m 26 X s 2128 752 m 26 X s 2128 785 m 26 X s
 2128 817 m 26 X s 2101 850 m 53 X s 2128 882 m 26 X s 2128 915 m 26 X s 2128 947 m 26 X s 2128 979 m 26 X s 2101 1012 m 53 X s 2128 1044 m 26 X s 2128 1077 m 26 X s 2128 1109 m 26 X s 2128 1142 m 26 X s 2101 1174 m 53 X s 2128 1207 m 26 X s 2128
 1239 m 26 X s 2128 1272 m 26 X s 2128 1304 m 26 X s 2101 1337 m 53 X s 2128 1369 m 26 X s 2128 1402 m 26 X s 2128 1434 m 26 X s 2128 1467 m 26 X s 2101 1499 m 53 X s 2101 200 m 53 X s 9 lw 1 1 1 c black 254 1499 m 39 X 19 -1 d 76 X 19 -1 d 41 X 8 1
 d 7 X 1 -1 d 2 X 1 -1 d 2 -2 d 2 -1 d 7 -7 d 2 -1 d 1 -1 d 2 -1 d 2 X 2 -1 d 6 X 7 1 d 60 X 2 -1 d 2 -1 d 2 -1 d 4 -3 d 4 -2 d 2 -1 d 1 X 2 -1 d 10 X 3 1 d 2 X 2 -1 d 2 X 2 -1 d 1 X 2 -2 d 2 -1 d 7 -6 d 2 -1 d 1 -1 d 2 X -1 Y 96 X 19 -1 d 42 X 7 1 d
 3 X 2 -1 d 3 X 2 -1 d 2 -1 d 2 -1 d 4 -2 d 4 -2 d 2 -1 d 1 -1 d 2 -1 d 191 X 19 -1 d 96 X 2 -1 d 2 X 3 -2 d 7 -4 d 2 -1 d 3 X 2 -1 d 17 X 3 1 d 15 X 1 -1 d 3 X 3 -1 d 2 -2 d 3 -1 d 3 -2 d 2 -1 d 3 -3 d s 1190 1429 m 1 33 d 1 29 d 1 8 d s 1207 1499 m
 -2 Y s 1207 1497 m 1 -27 d 1 -32 d -9 Y 1 -36 d 1 -40 d 1 -43 d 1 -45 d 1 -49 d 1 -52 d 1 -56 d 1 -60 d s 1217 1048 m 1 -65 d 1 -70 d 1 -73 d 1 -77 d 1 -82 d 2 -85 d 1 -88 d 1 -93 d 1 -93 d 1 -98 d -24 Y s 3 lw 245 200 m 1909 X s 245 242 m -42 Y s[
 4 8] 0 sd 245 1499 m -1299 Y s[  ] 0 sd 283 221 m -21 Y s 321 221 m -21 Y s 359 221 m -21 Y s 398 221 m -21 Y s 436 242 m -42 Y s[ 4 8] 0 sd 436 1499 m -1299 Y s[  ] 0 sd 474 221 m -21 Y s 512 221 m -21 Y s 550 221 m -21 Y s 589 221 m -21 Y s 627
 242 m -42 Y s[ 4 8] 0 sd 627 1499 m -1299 Y s[  ] 0 sd 665 221 m -21 Y s 703 221 m -21 Y s 741 221 m -21 Y s 780 221 m -21 Y s 818 242 m -42 Y s[ 4 8] 0 sd 818 1499 m -1299 Y s[  ] 0 sd 856 221 m -21 Y s 894 221 m -21 Y s 932 221 m -21 Y s 970 221 m
 -21 Y s 1009 242 m -42 Y s[ 4 8] 0 sd 1009 1499 m -1299 Y s[  ] 0 sd 1047 221 m -21 Y s 1085 221 m -21 Y s 1123 221 m -21 Y s 1161 221 m -21 Y s 1200 242 m -42 Y s[ 4 8] 0 sd 1200 1499 m -1299 Y s[  ] 0 sd 1238 221 m -21 Y s 1276 221 m -21 Y s 1314
 221 m -21 Y s 1352 221 m -21 Y s 1391 242 m -42 Y s[ 4 8] 0 sd 1391 1499 m -1299 Y s[  ] 0 sd 1429 221 m -21 Y s 1467 221 m -21 Y s 1505 221 m -21 Y s 1543 221 m -21 Y s 1582 242 m -42 Y s[ 4 8] 0 sd 1582 1499 m -1299 Y s[  ] 0 sd 1620 221 m -21 Y s
 1658 221 m -21 Y s 1696 221 m -21 Y s 1734 221 m -21 Y s 1772 242 m -42 Y s[ 4 8] 0 sd 1772 1499 m -1299 Y s[  ] 0 sd 1811 221 m -21 Y s 1849 221 m -21 Y s 1887 221 m -21 Y s 1925 221 m -21 Y s 1963 242 m -42 Y s[ 4 8] 0 sd 1963 1499 m -1299 Y s[  ]
 0 sd 2002 221 m -21 Y s 2040 221 m -21 Y s 2078 221 m -21 Y s 2116 221 m -21 Y s 2154 242 m -42 Y s[ 4 8] 0 sd 2154 1499 m -1299 Y s[  ] 0 sd 245 1499 m 1909 X s 245 1457 m 42 Y s 283 1478 m 21 Y s 321 1478 m 21 Y s 359 1478 m 21 Y s 398 1478 m 21 Y
 s 436 1457 m 42 Y s 474 1478 m 21 Y s 512 1478 m 21 Y s 550 1478 m 21 Y s 589 1478 m 21 Y s 627 1457 m 42 Y s 665 1478 m 21 Y s 703 1478 m 21 Y s 741 1478 m 21 Y s 780 1478 m 21 Y s 818 1457 m 42 Y s 856 1478 m 21 Y s 894 1478 m 21 Y s 932 1478 m 21
 Y s 970 1478 m 21 Y s 1009 1457 m 42 Y s 1047 1478 m 21 Y s 1085 1478 m 21 Y s 1123 1478 m 21 Y s 1161 1478 m 21 Y s 1200 1457 m 42 Y s 1238 1478 m 21 Y s 1276 1478 m 21 Y s 1314 1478 m 21 Y s 1352 1478 m 21 Y s 1391 1457 m 42 Y s 1429 1478 m 21 Y s
 1467 1478 m 21 Y s 1505 1478 m 21 Y s 1543 1478 m 21 Y s 1582 1457 m 42 Y s 1620 1478 m 21 Y s 1658 1478 m 21 Y s 1696 1478 m 21 Y s 1734 1478 m 21 Y s 1772 1457 m 42 Y s 1811 1478 m 21 Y s 1849 1478 m 21 Y s 1887 1478 m 21 Y s 1925 1478 m 21 Y s
 1963 1457 m 42 Y s 2002 1478 m 21 Y s 2040 1478 m 21 Y s 2078 1478 m 21 Y s 2116 1478 m 21 Y s 2154 1457 m 42 Y s 245 200 m 1299 Y s 298 200 m -53 X s[ 4 8] 0 sd 2154 200 m -1909 X s[  ] 0 sd 271 232 m -26 X s 271 265 m -26 X s 271 297 m -26 X s 271
 330 m -26 X s 298 362 m -53 X s[ 4 8] 0 sd 2154 362 m -1909 X s[  ] 0 sd 271 395 m -26 X s 271 427 m -26 X s 271 460 m -26 X s 271 492 m -26 X s 298 525 m -53 X s[ 4 8] 0 sd 2154 525 m -1909 X s[  ] 0 sd 271 557 m -26 X s 271 590 m -26 X s 271 622 m
 -26 X s 271 655 m -26 X s 298 687 m -53 X s[ 4 8] 0 sd 2154 687 m -1909 X s[  ] 0 sd 271 720 m -26 X s 271 752 m -26 X s 271 785 m -26 X s 271 817 m -26 X s 298 850 m -53 X s[ 4 8] 0 sd 2154 850 m -1909 X s[  ] 0 sd 271 882 m -26 X s 271 915 m -26 X
 s 271 947 m -26 X s 271 979 m -26 X s 298 1012 m -53 X s[ 4 8] 0 sd 2154 1012 m -1909 X s[  ] 0 sd 271 1044 m -26 X s 271 1077 m -26 X s 271 1109 m -26 X s 271 1142 m -26 X s 298 1174 m -53 X s[ 4 8] 0 sd 2154 1174 m -1909 X s[  ] 0 sd 271 1207 m
 -26 X s 271 1239 m -26 X s 271 1272 m -26 X s 271 1304 m -26 X s 298 1337 m -53 X s[ 4 8] 0 sd 2154 1337 m -1909 X s[  ] 0 sd 271 1369 m -26 X s 271 1402 m -26 X s 271 1434 m -26 X s 271 1467 m -26 X s 298 1499 m -53 X s[ 4 8] 0 sd 2154 1499 m -1909
 X s[  ] 0 sd 298 200 m -53 X s[ 4 8] 0 sd 2154 200 m -1909 X s[  ] 0 sd 2154 200 m 1299 Y s 2101 200 m 53 X s 2128 232 m 26 X s 2128 265 m 26 X s 2128 297 m 26 X s 2128 330 m 26 X s 2101 362 m 53 X s 2128 395 m 26 X s 2128 427 m 26 X s 2128 460 m 26
 X s 2128 492 m 26 X s 2101 525 m 53 X s 2128 557 m 26 X s 2128 590 m 26 X s 2128 622 m 26 X s 2128 655 m 26 X s 2101 687 m 53 X s 2128 720 m 26 X s 2128 752 m 26 X s 2128 785 m 26 X s 2128 817 m 26 X s 2101 850 m 53 X s 2128 882 m 26 X s 2128 915 m
 26 X s 2128 947 m 26 X s 2128 979 m 26 X s 2101 1012 m 53 X s 2128 1044 m 26 X s 2128 1077 m 26 X s 2128 1109 m 26 X s 2128 1142 m 26 X s 2101 1174 m 53 X s 2128 1207 m 26 X s 2128 1239 m 26 X s 2128 1272 m 26 X s 2128 1304 m 26 X s 2101 1337 m 53 X
 s 2128 1369 m 26 X s 2128 1402 m 26 X s 2128 1434 m 26 X s 2128 1467 m 26 X s 2101 1499 m 53 X s 2101 200 m 53 X s
 gsave  2268 1666 0 0 C 370.954 402.45 t 0 r /Helvetica-Bold findfont 55.993 sf 0 0 m (MVA Method:) show NC gr 
 gsave  2268 1666 0 0 C 654.418 311.461 t 0 r /Helvetica-Bold findfont 55.993 sf 0 0 m (BDT) show NC gr  9 lw 388 331 m 222 X s 0.490196 0.545098 0.615686 c 3 lw 0.364706 0.419608 0.490196 c 1587 100 23 1557 bf 0.490196 0.545098 0.615686 c 23 1557 m
 1587 X s 1610 1557 m 100 Y s 1610 1657 m -1587 X s 23 1657 m -100 Y s 1 1 1 c black 1 1 1 c
 gsave  2268 1666 0 0 C 76.9904 1588.8 t 0 r /Helvetica-Bold findfont 66.4917 sf 0 0 m (Background rejection versus Signal efficiency) show NC gr 
 gr  gr showpage
end
%%EOF
