%!PS-Adobe-2.0 EPSF-2.0
%%BoundingBox:  0 0 567 421
%%Title: dataset_class_comb2_all/plots/mvaeffs_Fisher.eps: Cut efficiencies for Fisher classifier
%%Creator: ROOT Version 6.18/00
%%CreationDate: Sat Sep 14 15:10:27 2019
%%DocumentNeededResources: ProcSet (FontSetInit)
%%EndComments
%%BeginProlog
80 dict begin
/s {stroke} def /l {lineto} def /m {moveto} def /t {translate} def
/r {rotate} def /rl {roll}  def /R {repeat} def
/d {rlineto} def /rm {rmoveto} def /gr {grestore} def /f {eofill} def
/c {setrgbcolor} def /black {0 setgray} def /sd {setdash} def
/cl {closepath} def /sf {scalefont setfont} def /lw {setlinewidth} def
/box {m dup 0 exch d exch 0 d 0 exch neg d cl} def
/NC{systemdict begin initclip end}def/C{NC box clip newpath}def
/bl {box s} def /bf {gsave box gsave f grestore 1 lw [] 0 sd s grestore} def /Y { 0 exch d} def /X { 0 d} def 
/K {{pop pop 0 moveto} exch kshow} bind def
/ita {/ang 15 def gsave [1 0 ang dup sin exch cos div 1 0 0] concat} def 
/mp {newpath /y exch def /x exch def} def
/side {[w .77 mul w .23 mul] .385 w mul sd w 0 l currentpoint t -144 r} def
/mr {mp x y w2 0 360 arc} def /m24 {mr s} def /m20 {mr f} def
/mb {mp x y w2 add m w2 neg 0 d 0 w neg d w 0 d 0 w d cl} def
/mt {mp x y w2 add m w2 neg w neg d w 0 d cl} def
/w4 {w 4 div} def
/w6 {w 6 div} def
/w8 {w 8 div} def
/m21 {mb f} def /m25 {mb s} def /m22 {mt f} def /m26{mt s} def
/m23 {mp x y w2 sub m w2 w d w neg 0 d cl f} def
/m27 {mp x y w2 add m w3 neg w2 neg d w3 w2 neg d w3 w2 d cl s} def
/m28 {mp x w2 sub y w2 sub w3 add m w3 0 d  0 w3 neg d w3 0 d 0 w3 d w3 0 d  0 w3 d w3 neg 0 d 0 w3 d w3 neg 0 d 0 w3 neg d w3 neg 0 d cl s } def
/m29 {mp gsave x w2 sub y w2 add w3 sub m currentpoint t 4 {side} repeat cl fill gr} def
/m30 {mp gsave x w2 sub y w2 add w3 sub m currentpoint t 4 {side} repeat cl s gr} def
/m31 {mp x y w2 sub m 0 w d x w2 sub y m w 0 d x w2 sub y w2 add m w w neg d x w2 sub y w2 sub m w w d s} def
/m32 {mp x y w2 sub m w2 w d w neg 0 d cl s} def
/m33 {mp x y w2 add m w3 neg w2 neg d w3 w2 neg d w3 w2 d cl f} def
/m34 {mp x w2 sub y w2 sub w3 add m w3 0 d  0 w3 neg d w3 0 d 0 w3 d w3 0 d  0 w3 d w3 neg 0 d 0 w3 d w3 neg 0 d 0 w3 neg d w3 neg 0 d cl f } def
/m35 {mp x y w2 add m w2 neg w2 neg d w2 w2 neg d w2 w2 d w2 neg w2 d x y w2 sub m 0 w d x w2 sub y m w 0 d s} def
/m36 {mb x w2 sub y w2 add m w w neg d x w2 sub y w2 sub m w w d s} def
/m37 {mp x y m w4 neg w2 d w4 neg w2 neg d w2 0 d  w4 neg w2 neg d w2 0 d w4 neg w2 d w2 0 d w4 neg w2 d w4 neg w2 neg d cl s} def
/m38 {mp x w4 sub y w2 add m w4 neg w4 neg d 0 w2 neg d w4 w4 neg d w2 0 d w4 w4 d 0 w2 d w4 neg w4 d w2 neg 0 d x y w2 sub m 0 w d x w2 sub y m w 0 d cl s} def
/m39 {mp x y m w4 neg w2 d w4 neg w2 neg d w2 0 d  w4 neg w2 neg d w2 0 d w4 neg w2 d w2 0 d w4 neg w2 d w4 neg w2 neg d cl f} def
/m40 {mp x y m w4 w2 d w4 w4 neg d w2 neg w4 neg d w2 w4 neg d w4 neg w4 neg d w4 neg w2 d w4 neg w2 neg d w4 neg w4 d w2 w4 d w2 neg w4 d w4 w4 d w4 w2 neg d cl s} def
/m41 {mp x y m w4 w2 d w4 w4 neg d w2 neg w4 neg d w2 w4 neg d w4 neg w4 neg d w4 neg w2 d w4 neg w2 neg d w4 neg w4 d w2 w4 d w2 neg w4 d w4 w4 d w4 w2 neg d cl f} def
/m42 {mp x y w2 add m w8 neg w2 -3 4 div mul d w2 -3 4 div mul w8 neg d w2 3 4 div mul w8 neg d w8 w2 -3 4 div mul d w8 w2 3 4 div mul d w2 3 4 div mul w8 d w2 -3 4 div mul w8 d w8 neg w2 3 4 div mul d cl s} def
/m43 {mp x y w2 add m w8 neg w2 -3 4 div mul d w2 -3 4 div mul w8 neg d w2 3 4 div mul w8 neg d w8 w2 -3 4 div mul d w8 w2 3 4 div mul d w2 3 4 div mul w8 d w2 -3 4 div mul w8 d w8 neg w2 3 4 div mul d cl f} def
/m44 {mp x y m w6 neg w2 d w2 2 3 div mul 0 d w6 neg w2 neg d w2 w6 d 0 w2 -2 3 div mul d w2 neg w6 d w6 w2 neg d w2 -2 3 div mul 0 d w6 w2 d w2 neg w6 neg d 0 w2 2 3 div mul d w2 w6 neg d cl s} def
/m45 {mp x y m w6 neg w2 d w2 2 3 div mul 0 d w6 neg w2 neg d w2 w6 d 0 w2 -2 3 div mul d w2 neg w6 d w6 w2 neg d w2 -2 3 div mul 0 d w6 w2 d w2 neg w6 neg d 0 w2 2 3 div mul d w2 w6 neg d cl f} def
/m46 {mp x y w4 add m w4 neg w4 d w4 neg w4 neg d  w4 w4 neg d w4 neg w4 neg d w4 w4 neg d w4 w4 d w4 w4 neg d w4 w4 d w4 neg w4 d w4 w4 d w4 neg w4 d w4 neg w4 neg d cl s} def
/m47 {mp x y w4 add m w4 neg w4 d w4 neg w4 neg d w4 w4 neg d w4 neg w4 neg d  w4 w4 neg d w4 w4 d w4 w4 neg d w4 w4 d w4 neg w4 d w4 w4 d w4 neg w4 d w4 neg w4 neg d cl f} def
/m48 {mp x y w4 add m w4 neg w4 d w4 neg w4 neg d w4 w4 neg d  w4 neg w4 neg d w4 w4 neg d w4 w4 d w4 w4 neg d w4 w4 d w4 neg w4 d w4 w4 d w4 neg w4 d w4 neg w4 neg d  w4 w4 neg d w4 neg w4 neg d w4 neg w4 d w4 w4 d cl f} def
/m49 {mp x w2 sub w3 add y w2 sub w3 add m  0 w3 neg d w3 0 d 0 w3 d w3 0 d 0 w3 d w3 neg 0 d 0 w3 d w3 neg 0 d 0 w3 neg d w3 neg 0 d 0 w3 neg d w3 0 d 0 w3 d w3 0 d 0 w3 neg d w3 neg 0 d cl f } def
/m2 {mp x y w2 sub m 0 w d x w2 sub y m w 0 d s} def
/m5 {mp x w2 sub y w2 sub m w w d x w2 sub y w2 add m w w neg d s} def
%%IncludeResource: ProcSet (FontSetInit)
%%IncludeResource: font Times-Roman
%%IncludeResource: font Times-Italic
%%IncludeResource: font Times-Bold
%%IncludeResource: font Times-BoldItalic
%%IncludeResource: font Helvetica
%%IncludeResource: font Helvetica-Oblique
%%IncludeResource: font Helvetica-Bold
%%IncludeResource: font Helvetica-BoldOblique
%%IncludeResource: font Courier
%%IncludeResource: font Courier-Oblique
%%IncludeResource: font Courier-Bold
%%IncludeResource: font Courier-BoldOblique
%%IncludeResource: font Symbol
%%IncludeResource: font ZapfDingbats
/reEncode {exch findfont dup length dict begin {1 index /FID eq  {pop pop} {def} ifelse } forall /Encoding exch def currentdict end dup /FontName get exch definefont pop } def [/Times-Bold /Times-Italic /Times-BoldItalic /Helvetica /Helvetica-Oblique
 /Helvetica-Bold /Helvetica-BoldOblique /Courier /Courier-Oblique /Courier-Bold /Courier-BoldOblique /Times-Roman /AvantGarde-Book /AvantGarde-BookOblique /AvantGarde-Demi /AvantGarde-DemiOblique /Bookman-Demi /Bookman-DemiItalic /Bookman-Light
 /Bookman-LightItalic /Helvetica-Narrow /Helvetica-Narrow-Bold /Helvetica-Narrow-BoldOblique /Helvetica-Narrow-Oblique /NewCenturySchlbk-Roman /NewCenturySchlbk-Bold /NewCenturySchlbk-BoldItalic /NewCenturySchlbk-Italic /Palatino-Bold
 /Palatino-BoldItalic /Palatino-Italic /Palatino-Roman ] {ISOLatin1Encoding reEncode } forall
%%EndProlog
%%BeginSetup
%%EndSetup
newpath  gsave  .25 .25 scale  gsave  0 0 t 0.490196 0.545098 0.615686 c[  ] 0 sd 3 lw 0.941176 0.941176 0.941176 c 2268 1684 0 0 bf black 1 1 0.992157 c 1796 1145 245 202 bf black 1796 1145 245 202 bl 1 1 0.992157 c 1796 1145 245 202 bf black 1796
 1145 245 202 bl 245 202 m 1796 X s[ 4 8] 0 sd 347 1347 m -1145 Y s 705 1347 m -1145 Y s 1063 1347 m -1145 Y s 1421 1347 m -1145 Y s 1779 1347 m -1145 Y s 347 1347 m -1145 Y s 1779 1347 m -1145 Y s[  ] 0 sd 245 202 m 1145 Y s[ 4 8] 0 sd 2041 202 m
 -1796 X s 2041 410 m -1796 X s 2041 618 m -1796 X s 2041 827 m -1796 X s 2041 1035 m -1796 X s 2041 1243 m -1796 X s 2041 1243 m -1796 X s 0 0 0.933333 c[  22 12 ] 0 sd 6 lw 0.49 0.6 0.82 c black 0 0 0.933333 c 245 722 m 9 X s 254 722 m 9 X s 263
 722 m 8 X s 271 722 m 9 X s 280 722 m 9 X s 289 722 m 9 X s 298 722 m 9 X s 307 722 m 8 X s 315 722 m 9 X s 324 722 m 9 X s 333 722 m 9 X s 342 722 m 9 X s 351 722 m 8 X s 359 722 m 9 X s 368 722 m 9 X s 377 722 m 9 X s 386 722 m 9 X s 395 722 m 8 X
 s 403 722 m 9 X s 412 722 m 9 X s 421 722 m 9 X s 430 722 m 9 X s 439 722 m 4 X 1 Y 4 X s 447 723 m 9 X s 456 723 m 9 X s 465 723 m 9 X s 474 723 m 9 X s 483 723 m 8 X s 491 723 m 9 X s 500 723 m 5 X 1 Y 4 X s 509 724 m 9 X s 518 724 m 9 X s 527 724
 m 8 X s 535 724 m 9 X s 544 724 m 9 X 1 Y s 553 725 m 9 X s 562 725 m 9 X s 571 725 m 8 X s 579 725 m 9 X s 588 725 m 9 X s 597 725 m 3 X 1 Y 6 X s 606 726 m 9 X s 615 726 m 8 X s 623 726 m 9 X s 632 726 m 5 X 1 Y 4 X s 641 727 m 9 X s 650 727 m 9 X
 s 659 727 m 8 X 1 Y s 667 728 m 9 X s 676 728 m 8 X 1 1 d s 685 729 m 9 X s 694 729 m 9 X s 703 729 m 4 X 1 Y 4 X s 711 730 m 9 X s 720 730 m 3 X 1 Y 6 X s 729 731 m 6 X 1 Y 3 X s 738 732 m 9 X s 747 732 m 1 Y 8 X s 755 733 m 2 X 1 Y 7 X s 764 734 m
 8 X 1 Y 1 X s 773 735 m 9 X s 782 735 m 1 X 1 Y 8 X s 791 736 m 5 X 1 Y 3 X s 799 737 m 7 X 1 Y 2 X s 808 738 m 6 X 1 Y 3 X s 817 739 m 4 X 1 Y 5 X s 826 740 m 2 X 1 Y 5 X 1 Y 2 X s 835 742 m 5 X 1 Y 3 X s 843 743 m 2 X 1 Y 5 X 1 Y 1 X -1 Y 1 X 1 Y
 s 852 745 m 6 X 1 1 d 2 X s 861 746 m 4 X 1 1 d 3 X 1 Y 1 X s 870 748 m 4 X 1 Y 5 X s 879 749 m 1 1 d 3 X 1 Y 3 X 1 Y 1 X s 887 752 m 3 X 1 Y 5 X 1 Y 1 X s 896 754 m 1 X 1 Y 1 X 1 Y 5 X 1 Y 2 X s 905 757 m 1 Y 3 X 1 Y 3 X 1 Y 3 X 1 Y s 914 761 m 4 X
 1 Y 3 X 1 Y 2 X s 923 763 m 1 Y 4 X 1 Y 3 X 1 Y 1 X s 931 766 m 2 X 1 Y 4 X 1 Y 3 X 1 Y s 940 769 m 2 X 1 Y 2 X 1 Y 4 X 1 Y 1 X s 949 772 m 3 X 1 Y 3 X 1 1 d 1 X 1 1 d s 958 775 m 2 X 1 1 d 2 X 1 Y 3 X 1 Y 1 X s 967 778 m 1 -2 d 1 Y 2 X 1 Y 3 X 1 Y
 2 X s 975 779 m 1 X 1 Y 2 X 1 Y 2 X 1 Y 2 X 1 Y 2 X s 984 783 m 1 X 1 1 d 1 X 1 1 d 2 X 1 Y 2 X 1 1 d s 993 787 m 2 X 1 Y 2 X 1 Y 2 X 1 Y 2 X 1 Y 1 X s 1002 791 m 2 X 1 1 d 2 X 1 Y 2 X 1 Y 2 X s 1011 794 m 1 Y 3 X 1 1 d 1 X -1 Y 1 1 d -1 Y 1 Y 1 1 d
 1 X 1 Y s 1019 798 m 3 X 1 Y 2 X 1 Y 2 X 1 Y 2 X s 1028 801 m 1 X 1 Y 2 X 1 Y 2 X 1 Y 1 X 1 Y 2 X 1 Y 1 X s 1037 806 m 1 X 1 Y 3 X 1 Y 4 X 1 Y 1 X s 1046 809 m 1 X 1 Y 2 X 1 Y 2 X 1 Y 1 X 1 1 d 2 X s 1055 813 m 1 X 1 Y 2 X 1 Y -1 Y 1 X 1 Y 2 X 1 Y 2
 X s 1063 816 m 1 1 d 1 X 1 Y 1 X 1 Y 2 X 1 Y 2 X 1 Y 1 X 1 1 d s 1072 822 m 1 Y 2 X 1 Y 1 X 1 Y 1 X 1 Y 2 X 1 Y 1 X -1 Y 1 1 d -1 Y 1 X s 1081 826 m 1 1 d 1 X 1 Y 1 X 1 -1 d 1 X 1 Y 2 X 1 Y 1 X 1 Y 1 X s 1090 830 m 1 X 1 Y 1 X -1 Y 2 X 1 Y 1 X 1 1 d
 1 X 1 Y 1 X 1 1 d s 1099 834 m 1 X 1 Y 1 X 1 Y 2 X 1 Y 2 X 1 Y 1 X 1 Y 1 X 1 Y s 1107 840 m 1 X -1 Y 1 X 1 Y 1 X 1 Y 2 X 1 Y 1 X 1 Y 1 X 1 Y 2 X 1 Y s 1116 845 m 2 X 1 Y 2 X 1 Y 1 X 1 Y 1 X 1 Y 2 X 1 1 d s 1125 850 m 1 X 1 1 d 1 X 1 Y 1 X 1 1 d 1 X
 1 Y 1 X 1 Y 2 X 1 Y s 1134 856 m 1 1 d -1 Y 1 1 d 2 X 1 Y 2 X 1 Y 1 X 1 Y 1 X 1 1 d s 1143 861 m 1 X 1 1 d -1 Y 1 X 1 Y 2 X 1 Y 1 X 1 Y 1 X 1 1 d s 1151 865 m 1 X 1 Y 1 X -1 Y 1 X 1 Y 1 X 1 Y 1 X 1 Y 2 X 1 Y 1 X 1 Y 1 X 1 Y s 1160 871 m 1 X 1 Y 1 X
 1 Y 1 X 1 Y 2 X 1 Y 1 -1 d 1 Y 1 X 1 Y 1 X 1 Y 1 X s 1169 877 m 1 1 d -1 Y 1 Y 2 X 1 Y 1 X 1 Y 2 X 1 Y 1 X 1 Y 1 X 1 Y 1 X -1 Y s 1178 882 m 1 Y 1 X 1 1 d 1 X 1 Y -1 Y 1 1 d 1 Y 1 X 1 Y 1 X 1 1 d 1 1 d 1 X s 1187 889 m 1 Y 1 X 1 Y 2 X 1 Y 1 X 1 Y 1
 X 1 Y 1 X 1 Y 1 -1 d 1 Y 1 X 1 Y s 1195 896 m 1 X 1 1 d 1 1 d 1 X 1 Y 1 X 1 Y 1 X 1 Y 2 X 1 Y 1 X 1 Y s 1204 903 m 1 X 1 Y 2 X 1 Y 1 X 1 Y 1 X 1 Y 1 X 1 1 d 1 X -1 Y 1 Y 1 X 1 Y s 1213 909 m 1 X 1 Y 1 X 1 Y 1 X 1 Y 1 X 1 Y 1 X 1 Y -1 Y 1 X 1 Y 1 X 1
 Y 1 X 1 Y 1 X 1 Y s 1222 917 m 1 X 1 Y 2 X 1 Y 1 X 1 Y 2 X 1 Y 1 X 1 Y 1 X 1 Y 1 X s 1231 923 m 1 Y 2 X 1 Y 1 X 1 Y -1 Y 1 X 1 Y 1 X 1 Y 1 X 1 1 d 1 Y 1 X -1 Y 1 Y s 1239 929 m 2 X 1 Y 1 -1 d 1 1 d 1 Y 1 X 1 Y 2 X 1 Y 1 X -1 Y 1 X s 1248 932 m 1 Y 2
 X -1 Y 2 Y -1 Y 1 Y 1 X 1 Y 2 X 1 Y 1 X -1 Y 1 X 1 Y 1 X 1 1 d s 1257 937 m 1 Y 1 X 1 Y 1 -1 d 1 X 2 Y 1 X 1 1 d 2 Y 2 X 1 Y 1 1 d -1 Y 1 X s 1266 944 m 1 Y 1 X 1 Y 2 X 1 Y -1 Y 2 X 1 Y 1 X 1 Y 1 X 1 Y 1 X 1 Y 1 X s 1275 950 m 1 Y 1 X 1 Y 1 X -2 Y 1
 X 1 Y 1 X 1 Y 1 X 1 Y 1 X 1 Y 1 X 2 Y 1 -1 d 1 Y s 1283 956 m 1 X 1 1 d 1 X 1 Y 1 X 1 Y 3 X 1 Y 1 X 1 Y 1 X -1 Y s 1292 960 m 1 1 d 1 Y 1 X 1 Y 1 1 d 1 X 2 Y 1 X 1 Y 1 X 1 Y 1 X 1 Y -1 Y 1 Y 1 X 1 Y 1 X 2 Y s 1301 972 m 1 Y 1 1 d 1 X 1 1 d 1 X 1 Y 1
 X 1 Y 1 X 1 Y 2 X 2 Y 1 X s 1310 980 m 1 Y 2 X 1 Y 1 X 1 Y 1 X 1 Y 1 X 1 1 d 1 X 1 Y 1 1 d 1 X s 1319 987 m 1 Y 1 X 1 Y 1 X 1 Y 1 1 d 1 1 d 1 X 1 Y 1 X 1 Y 1 X -1 Y 1 Y 1 -1 d s 1327 993 m 1 1 d 1 Y 1 -1 d 1 Y 1 X 1 Y 1 X 1 Y 1 X 1 Y 3 X 1 Y 1 X 1 Y
 s 1336 1000 m 1 X 1 Y 1 X -1 Y 1 Y 1 X -1 Y 1 Y -1 Y 1 X 1 Y 1 1 d 1 Y 1 X 1 Y 1 X 1 Y 1 1 d -1 Y 1 X -1 Y s 1345 1004 m 1 X 1 Y 1 X 1 Y 1 -2 d -1 Y 1 Y 1 X 1 Y 1 X 1 Y 1 X -1 Y 1 Y 1 X 1 Y 2 X 1 Y s 1354 1008 m 1 1 d 1 X -1 Y 1 Y 1 -1 d -1 Y 1 Y 1
 X 1 Y 1 X 1 Y 1 X 1 Y 1 X -2 Y 1 Y 1 X 1 Y 1 X s 1363 1011 m 1 Y 1 X -2 Y 1 X 1 Y 1 1 d 1 1 d 1 -1 d 2 Y 1 X 1 Y 1 X 1 Y 1 X -1 Y s 1371 1015 m 1 X 1 1 d 1 Y 1 X -1 Y 2 X -4 Y 1 X 1 Y 1 X 1 Y -1 Y 2 X 1 Y s 1380 1014 m 1 X 1 Y 1 X 1 Y 2 X 2 Y -1 Y 1
 X 1 1 d -1 Y 1 1 d 1 X 1 Y 1 X s 1389 1019 m 1 Y 1 X 1 -1 d -3 Y 1 X 1 Y 1 -4 d 1 Y -1 Y 1 X 1 Y 2 X 1 Y 1 X 1 Y 1 X -1 Y 1 Y s 1398 1016 m 1 X -1 Y 1 Y 1 -2 d 1 1 d -1 Y 1 Y 1 -2 d 1 Y 1 -1 d 1 Y 1 X 1 Y 1 -1 d 1 X 1 Y -1 Y 1 X s 1407 1014 m -3 Y 1
 X -1 Y 1 1 d 2 X -1 Y 1 X 1 -1 d 2 X 1 Y s 1415 1010 m 1 X 1 1 d 1 1 d 1 X 1 Y -1 Y 1 X 1 Y -1 Y 1 X 1 Y 1 X -1 Y 1 Y 1 X -1 Y 1 1 d -1 Y 1 Y s 1424 1013 m 1 X 2 Y -1 Y 1 X 1 Y -3 Y 1 X 1 -1 d 1 Y 1 X 1 -1 d 1 Y -1 Y 2 X -2 Y 1 1 d -1 Y 1 Y s 1433
 1010 m 1 X -1 Y 1 X -2 Y 1 Y 2 X -1 Y 1 Y 1 X -1 Y 1 X 1 Y 2 X -1 Y 1 -1 d s 1442 1006 m -1 Y 1 X -1 Y 1 X 1 Y -1 Y 2 X 1 Y 1 -1 d 1 Y 2 X -1 Y 1 Y 1 X -3 Y 1 Y -1 Y 1 1 d s 1451 1003 m -1 Y 1 X -2 Y 1 X -3 Y 1 1 d -1 Y 2 X 2 Y -2 Y 2 X 1 Y -1 Y 1 X
 s 1459 997 m 2 X -1 Y 1 -2 d 1 X -1 Y 2 X 1 Y 1 X -1 Y 1 X -2 Y 1 X 1 Y s 1468 992 m 1 X 1 -1 d -1 Y 1 X -1 Y 1 X 1 -2 d -1 Y 1 -1 d -2 Y 1 X 1 -1 d -1 Y 1 Y -1 Y 1 X 1 Y s 1477 982 m 1 X 1 Y 1 X -3 Y 2 X -2 Y 2 Y 1 X -1 Y 1 X -1 Y 2 Y 1 X -1 Y 1 Y
 -1 Y 1 X -2 Y 1 X s 1486 977 m 1 X -1 Y 1 -1 d -1 Y 1 X -2 Y 1 X 1 Y 1 X -2 Y 1 X -1 Y 3 X s 1495 970 m -1 Y 1 X -2 Y 2 X 3 Y 2 X 1 Y -2 Y 2 X 1 -1 d 1 Y -1 Y s 1503 968 m 1 X -1 Y 1 1 d -2 Y 1 X 1 Y -1 Y 1 -1 d 1 Y -2 Y 2 Y 1 X 1 Y 4 X -1 Y s 1512
 966 m 2 X -2 Y 2 X 1 Y 1 X -2 Y 1 X 1 Y 1 X 1 Y 1 X -1 Y 1 Y 1 1 d -2 Y s 1521 964 m -1 Y 1 X 1 Y 1 X 1 Y -1 Y 1 X -4 Y 1 X -1 Y 1 X 1 1 d 3 X 1 Y s 1530 961 m -4 Y 1 X 1 -1 d 1 X -2 Y 1 X -1 Y 1 1 d 1 X 1 Y -7 Y 1 X -1 Y 1 Y -1 Y 1 Y 1 -1 d 1 -1 d
 s 1539 946 m 1 X -1 Y 1 Y -1 Y 1 1 d 1 Y 1 X -1 Y 10 Y 1 -1 d 1 X -2 Y 2 X -1 Y 1 X 1 Y -1 Y s 1547 952 m 1 -2 d 1 X 1 Y -2 Y 1 X -1 Y 1 X -2 Y 1 X -1 Y 1 X 1 Y -2 Y 1 Y 1 X 1 Y -1 Y 2 X -4 Y s 1556 941 m 1 X 1 -1 d -1 Y 1 X -1 Y 1 X -1 Y 1 X -2 Y 1
 -3 d -2 Y 1 X -1 Y 2 X s 1565 929 m -1 Y 1 X -1 Y 1 -1 d -2 Y 1 Y -3 Y 1 1 d -1 Y 1 X -3 Y 1 Y 1 -2 d -4 Y 1 X 1 Y 1 X -4 Y 1 X -1 Y 1 Y 1 -1 d s 1574 910 m -1 Y 1 X 2 Y -1 Y 1 -1 d -5 Y 1 X -1 Y 1 Y -1 Y 1 X -1 Y 1 -1 d 1 -1 d 1 X -3 Y 1 X -1 Y 1
 -1 d s 1583 895 m -5 Y 1 X -1 Y 1 X -1 Y 1 X -1 Y 1 X 1 Y -1 Y 1 X 1 Y -1 Y 1 X -1 Y 1 X -1 Y 1 X 1 Y -1 Y s 1591 885 m 1 X -2 Y 1 Y 1 X -2 Y 1 X -1 Y 1 X -2 Y 1 X -3 Y 1 -1 d 1 -1 d 1 Y 1 -1 d -4 Y 1 X -2 Y s 1600 868 m 1 X -3 Y 1 X -1 Y 1 -2 d 1 X
 -2 Y 1 X -2 Y 1 Y 1 X -4 Y 1 X 1 -2 d -1 Y 1 -1 d 1 Y s 1609 852 m -1 Y 1 1 d -3 Y 3 X -1 Y 1 1 d 1 -1 d -2 Y 1 X -2 Y 1 Y 1 X -1 Y 1 -1 d s 1618 843 m 1 X -1 Y 1 X -1 Y 1 -2 d -2 Y 1 -1 d -2 Y 1 Y 1 X -1 Y 1 X -3 Y 1 X -2 Y 1 X -1 Y 1 1 d -2 Y s
 1627 827 m -1 Y 1 X -3 Y 2 X -1 Y 2 Y -2 Y 1 X 1 -1 d -2 Y 1 -1 d -1 Y 1 Y -1 Y 1 -1 d 1 -2 d s 1635 814 m 1 X -4 Y 1 X 1 -1 d -2 Y 1 X -2 Y 1 X -3 Y 1 X -2 Y 1 X -1 Y 1 -1 d -1 Y 1 -1 d -2 Y s 1644 794 m 1 X -1 Y 1 X -2 Y 1 X -1 Y 1 X -1 Y 2 Y -1 Y
 1 Y 1 -1 d 3 Y -1 Y 1 -1 d -1 Y 1 X -1 Y 1 X -2 Y 1 X -1 Y s 1653 786 m 1 Y 1 X -3 Y 1 X -5 Y 1 X -1 Y 1 -1 d -2 Y 1 X -3 Y 2 X -5 Y 1 X -1 Y 1 Y -1 Y 1 X -1 Y s 1662 765 m -1 Y 1 Y -1 Y 1 -1 d -6 Y 1 -1 d -4 Y 1 -1 d 1 Y 1 X -3 Y 1 -1 d -3 Y 1 X -2
 Y 1 X -1 Y 1 X -1 Y 1 X s 1671 741 m -2 Y 1 -1 d -3 Y 1 -1 d 1 X -3 Y 1 -1 d -1 Y 1 X -2 Y 1 X -2 Y 1 X -2 Y 1 X -1 Y s 1679 722 m 1 X -3 Y 1 X -2 Y 1 X -2 Y 1 X -4 Y 1 X -2 Y 1 X -5 Y 1 1 d -2 Y 1 X -3 Y 1 X -1 Y s 1688 699 m 1 -1 d -1 Y 1 X 1 Y -1
 Y 1 X -1 Y 1 -1 d -3 Y 1 -1 d -3 Y 1 X -1 Y 1 -2 d -1 Y 1 X -2 Y 1 X s 1697 682 m -1 Y 1 -1 d -1 Y 1 X -5 Y 1 X -1 Y 1 X -1 Y 1 -1 d 1 X -2 Y 1 X -1 Y 1 -1 d 1 Y 1 -1 d -1 Y s 1706 666 m 1 -2 d -4 Y 1 -1 d -2 Y 1 X -1 Y 1 Y -1 Y 1 -1 d -1 Y 1 1 d -2
 Y 1 -1 d -1 Y 1 X -2 Y 1 X -1 Y 1 X -1 Y s 1715 647 m -3 Y 1 X -1 Y 1 -2 d -2 Y 1 -1 d -2 Y 1 X -1 Y 1 Y -1 Y 1 X -3 Y 1 -2 d -3 Y 1 -1 d -3 Y 1 X -1 Y s 1723 622 m 1 X -3 Y 1 X -1 Y 1 Y -2 Y 1 -1 d -1 Y 1 X -4 Y 1 X -1 Y 1 Y -1 Y 1 X -2 Y 1 X -1 Y
 1 X -3 Y 1 -1 d -3 Y s 1732 600 m -1 Y 1 -1 d -2 Y 1 X -3 Y 1 -1 d -3 Y 1 -1 d 1 -1 d -1 Y 1 -1 d -1 Y 4 Y 1 X -3 Y 1 X -2 Y 1 Y 1 -1 d -4 Y s 1741 579 m -1 Y 1 -1 d -2 Y 1 X -3 Y 1 X -2 Y 1 X -1 Y 1 X 1 Y -1 Y 1 1 d -1 Y 1 -1 d 1 Y -1 Y 1 X -2 Y 2
 Y -1 Y 1 X s 1750 567 m -1 Y 1 X -1 Y 1 -1 d 1 -1 d -2 Y 1 -1 d -2 Y 1 X -2 Y 1 -1 d 1 Y -3 Y 1 -1 d -5 Y 1 X -1 Y 1 X -2 Y s 1759 544 m 1 Y 1 -1 d -1 Y 1 X -3 Y 1 -1 d -1 Y 1 -1 d -2 Y 1 X -5 Y 1 X -2 Y 1 X -1 Y 1 -1 d -2 Y s 1767 524 m 1 X -2 Y 1
 -4 d -1 Y 1 -1 d -1 Y 1 X -3 Y 1 -1 d -1 Y 1 X -1 Y 1 -1 d -2 Y 1 X -2 Y 1 X s 1776 504 m -1 Y 1 X -2 Y 1 -2 d -1 Y 1 -1 d -5 Y 1 X -1 Y 1 -1 d 1 X -2 Y 1 -1 d -1 Y 1 Y 1 -1 d -1 Y 1 -1 d -3 Y s 1785 481 m -2 Y 1 -1 d -2 Y 1 X -4 Y 1 X -1 Y 1 X -2 Y
 1 X -5 Y 1 X -2 Y 1 -1 d -3 Y 1 -1 d -1 Y 1 X -1 Y s 1794 455 m 1 -1 d -2 Y 1 X -2 Y 1 X -1 Y 1 -1 d -2 Y 1 X -2 Y 1 -1 d -2 Y 1 X -3 Y 1 X -1 Y 1 -2 d s 1803 435 m -1 Y 1 X -2 Y 1 X -1 Y 1 -1 d -1 Y 1 1 d -1 Y 1 -1 d -1 Y 1 X -1 Y 1 X -2 Y 1 -1 d
 -1 Y 1 X s 1812 422 m -3 Y 1 X -1 Y 1 -1 d -2 Y 1 X -2 Y 1 X -1 Y 1 Y -3 Y 1 X -1 Y 1 X -1 Y 1 X -2 Y 1 X -2 Y s 1820 404 m -2 Y 1 -1 d 1 Y -1 Y 1 X -3 Y 1 -1 d -2 Y 1 X -2 Y 1 -1 d 1 Y -1 Y 1 X -3 Y 1 X -1 Y 1 X -2 Y 1 -1 d 1 Y s 1829 386 m -2 Y 1
 X -2 Y 1 -1 d -2 Y 1 -1 d -1 Y 1 X -3 Y 1 -1 d 1 Y -2 Y 1 -1 d -2 Y 1 X -1 Y 1 -1 d 1 X -1 Y s 1838 366 m 1 X 1 Y -1 Y 1 -1 d -2 Y 1 -1 d -3 Y 2 X -2 Y 1 X -1 Y 1 -1 d -3 Y 1 X -3 Y 1 X s 1847 349 m -1 Y 1 X -1 Y 1 -1 d -3 Y 1 -1 d -2 Y 1 X -1 Y 1 X
 -1 Y 1 X -1 Y 1 -1 d -1 Y 1 -1 d 1 Y -1 Y 1 -1 d s 1856 333 m -3 Y 1 X -2 Y 1 -1 d -2 Y 1 X -3 Y 1 X -3 Y 1 X -2 Y 1 X -2 Y 1 X -1 Y 1 X -2 Y s 1864 312 m 1 -1 d -1 Y 1 -1 d -1 Y 2 X -1 Y 1 X -1 Y 1 X -2 Y 1 -1 d -1 Y 1 -1 d 1 X -1 Y s 1873 300 m -1
 Y 1 X 1 -1 d -1 Y 1 X -1 Y 1 X -1 Y 1 X -3 Y 1 X -1 Y 1 X -1 Y 1 X -1 Y 1 X -3 Y s 1882 286 m -1 Y 1 1 d -1 Y 1 X -2 Y 1 X -2 Y 1 -1 d -1 Y 1 X -1 Y 1 X -1 Y 1 -1 d -1 Y 1 X 1 -1 d s 1891 274 m 1 X -1 Y 1 X -1 Y 1 X -1 Y 1 X -1 Y 1 X -2 Y 1 X -1 Y 1
 X -2 Y 1 X -1 Y 1 -1 d s 1900 263 m -1 Y 1 X -2 Y 1 X -1 Y 1 X -1 Y 1 -1 d 1 X -2 Y 1 X -1 Y 1 -1 d -1 Y 1 X s 1908 252 m 1 -1 d -1 Y 1 X -3 Y 1 X -1 Y 1 X -1 Y 1 X -1 Y 1 X -1 Y 1 X -2 Y 1 X -1 Y 1 X -1 Y s 1917 239 m 1 -1 d -1 Y 1 X 1 -1 d -1 Y 1
 X -1 Y 1 X -1 Y 1 X -1 Y 1 X -1 Y 1 X -1 Y 1 X s 1926 230 m 1 X -1 Y 1 X 1 Y -1 Y 2 X -1 Y 1 X -1 Y 1 -1 d -1 Y 2 X -1 Y 1 X s 1935 224 m -1 Y 1 X -1 Y 1 X -1 Y 2 X -1 Y 1 X -1 Y 1 X -1 Y 2 X -1 Y 1 X s 1944 217 m 1 X -1 Y 2 X -1 Y 3 X -1 Y 1 X -1 Y
 1 X s 1952 213 m 2 X -1 Y 2 X -1 Y 3 X -1 Y 2 X -1 Y s 1961 209 m 2 X -1 Y 2 X -1 Y 1 1 d -1 Y 3 X -1 Y 1 X s 1970 206 m 1 X 1 -1 d 5 X -1 Y 2 X s 1979 204 m 2 X -1 Y 1 X 1 Y -1 Y 6 X s 1988 203 m 8 X s 1996 203 m 1 -1 d 8 X s 2005 202 m 9 X s 2014
 202 m 9 X s 2023 202 m 9 X s 2032 202 m 8 X s 2040 202 m 1 X s black[  ] 0 sd 3 lw 245 202 m 1796 X s 347 242 m -40 Y s 419 222 m -20 Y s 490 222 m -20 Y s 562 222 m -20 Y s 633 222 m -20 Y s 705 242 m -40 Y s 777 222 m -20 Y s 848 222 m -20 Y s 920
 222 m -20 Y s 991 222 m -20 Y s 1063 242 m -40 Y s 1135 222 m -20 Y s 1206 222 m -20 Y s 1278 222 m -20 Y s 1349 222 m -20 Y s 1421 242 m -40 Y s 1493 222 m -20 Y s 1564 222 m -20 Y s 1636 222 m -20 Y s 1707 222 m -20 Y s 1779 242 m -40 Y s 347 242
 m -40 Y s 275 222 m -20 Y s 1779 242 m -40 Y s 1851 222 m -20 Y s 1922 222 m -20 Y s 1994 222 m -20 Y s
 gsave  2268 1684 0 0 C 341.295 128.934 t 0 r /Helvetica-Bold findfont 64.4669 sf 0 0 m (3) show NC gr 
 gsave  2268 1684 0 0 C 310.958 128.934 t 0 r /Symbol findfont 64.4669 sf 0 0 m (-) show NC gr 
 gsave  2268 1684 0 0 C 697.759 128.934 t 0 r /Helvetica-Bold findfont 64.4669 sf 0 0 m (2) show NC gr 
 gsave  2268 1684 0 0 C 667.422 128.934 t 0 r /Symbol findfont 64.4669 sf 0 0 m (-) show NC gr 
 gsave  2268 1684 0 0 C 1061.81 128.934 t 0 r /Helvetica-Bold findfont 64.4669 sf 0 0 m (1) show NC gr 
 gsave  2268 1684 0 0 C 1031.47 128.934 t 0 r /Symbol findfont 64.4669 sf 0 0 m (-) show NC gr 
 gsave  2268 1684 0 0 C 1399.31 128.934 t 0 r /Helvetica-Bold findfont 64.4669 sf 0 0 m (0) show NC gr 
 gsave  2268 1684 0 0 C 1763.36 128.934 t 0 r /Helvetica-Bold findfont 64.4669 sf 0 0 m (1) show NC gr 
 gsave  2268 1684 0 0 C 845.654 30.3373 t 0 r /Helvetica-Bold findfont 72.0512 sf 0 0 m (Cut value applied on Fisher output) show NC gr  245 202 m 1145 Y s 291 202 m -46 X s 268 254 m -23 X s 268 306 m -23 X s 268 358 m -23 X s 291 410 m -46 X s 268
 462 m -23 X s 268 514 m -23 X s 268 566 m -23 X s 291 618 m -46 X s 268 670 m -23 X s 268 722 m -23 X s 268 775 m -23 X s 291 827 m -46 X s 268 879 m -23 X s 268 931 m -23 X s 268 983 m -23 X s 291 1035 m -46 X s 268 1087 m -23 X s 268 1139 m -23 X
 s 268 1191 m -23 X s 291 1243 m -46 X s 291 1243 m -46 X s 268 1295 m -23 X s 268 1347 m -23 X s
 gsave  2268 1684 0 0 C 182.024 178.232 t 0 r /Helvetica-Bold findfont 64.4669 sf 0 0 m (0) show NC gr 
 gsave  2268 1684 0 0 C 128.934 386.801 t 0 r /Helvetica-Bold findfont 64.4669 sf 0 0 m (0.2) show NC gr 
 gsave  2268 1684 0 0 C 128.934 595.37 t 0 r /Helvetica-Bold findfont 64.4669 sf 0 0 m (0.4) show NC gr 
 gsave  2268 1684 0 0 C 128.934 800.148 t 0 r /Helvetica-Bold findfont 64.4669 sf 0 0 m (0.6) show NC gr 
 gsave  2268 1684 0 0 C 128.934 1008.72 t 0 r /Helvetica-Bold findfont 64.4669 sf 0 0 m (0.8) show NC gr 
 gsave  2268 1684 0 0 C 189.608 1217.29 t 0 r /Helvetica-Bold findfont 64.4669 sf 0 0 m (1) show NC gr 
 gsave  2268 1684 0 0 C 64.4669 735.681 t 90 r /Helvetica-Bold findfont 72.0512 sf 0 0 m (Efficiency \(Purity\)) show NC gr  0 0 0.933333 c[  52 12 ] 0 sd 6 lw 0.49 0.6 0.82 c black 0 0 0.933333 c 245 722 m 9 X s 254 722 m 9 X s 263 722 m 8 X s 271
 722 m 9 X s 280 722 m 9 X s 289 722 m 9 X s 298 722 m 9 X s 307 722 m 8 X s 315 722 m 9 X s 324 722 m 9 X s 333 722 m 9 X s 342 722 m 9 X s 351 722 m 8 X s 359 722 m 9 X s 368 722 m 9 X s 377 722 m 9 X s 386 722 m 9 X s 395 722 m 1 X 1 Y 7 X s 403
 723 m 9 X s 412 723 m 9 X s 421 723 m 9 X s 430 723 m 9 X s 439 723 m 8 X s 447 723 m 9 X s 456 723 m 9 X s 465 723 m 9 X s 474 723 m 9 X s 483 723 m 8 X s 491 723 m 4 X 1 1 d 4 X s 500 724 m 9 X s 509 724 m 9 X s 518 724 m 9 X s 527 724 m 8 X s 535
 724 m 5 X 1 Y 4 X s 544 725 m 9 X s 553 725 m 9 X s 562 725 m 9 X s 571 725 m 8 X s 579 725 m 4 X 1 Y 5 X s 588 726 m 9 X s 597 726 m 9 X s 606 726 m 9 X s 615 726 m 8 X s 623 726 m 3 X 1 Y 6 X s 632 727 m 9 X s 641 727 m 9 X s 650 727 m 9 X s 659
 727 m 1 X 1 Y 7 X s 667 728 m 9 X s 676 728 m 3 X 1 1 d 5 X s 685 729 m 9 X s 694 729 m 8 X 1 Y 1 X s 703 730 m 8 X s 711 730 m 6 X 1 Y 3 X s 720 731 m 9 X s 729 731 m 3 X 1 Y 6 X s 738 732 m 4 X 1 Y 5 X s 747 733 m 8 X s 755 733 m 1 1 d 8 X s 764
 734 m 4 X 1 Y 5 X s 773 735 m 7 X 1 Y 2 X s 782 736 m 8 X 1 1 d s 791 737 m 8 X s 799 737 m 5 X 1 Y 4 X s 808 738 m 3 X 1 1 d 5 X s 817 739 m 2 X 1 Y 6 X 1 1 d s 826 741 m 5 X 1 Y 4 X s 835 742 m 3 X 1 Y 5 X 1 Y s 843 744 m 5 X 1 1 d 3 X s 852 745 m
 3 X 1 Y 6 X s 861 746 m 1 X 1 Y 6 X 1 Y 2 X s 870 748 m 1 X 1 Y 6 X 1 Y 2 X s 879 750 m 2 X 1 Y 4 X 1 Y 2 X s 887 752 m 1 X 1 Y 4 X 1 Y 3 X 1 1 d s 896 755 m 2 X 1 Y 5 X 1 Y 2 X s 905 757 m 1 Y 3 X 1 Y 3 X 1 Y 3 X 1 Y s 914 761 m 4 X 1 Y 3 X 1 Y 2 X
 s 923 763 m 1 Y 4 X 1 Y 3 X 1 Y 1 X s 931 766 m 2 X 1 Y 4 X 1 Y 3 X 1 Y s 940 769 m 2 X 1 Y 2 X 1 Y 4 X 1 Y 1 X s 949 772 m 3 X 1 Y 3 X 1 Y 2 X 1 1 d s 958 775 m 2 X 1 Y 3 X 1 Y 3 X 1 Y 1 X s 967 778 m 3 X 1 Y 2 X 1 1 d 2 X 1 Y s 975 781 m 3 X 1 Y 2
 X 1 Y 2 X 1 Y 2 X s 984 784 m 1 X 1 Y 2 X 1 Y 2 X 1 Y 3 X 1 Y 1 X s 993 788 m 2 X 1 Y 2 X 1 Y 2 X 1 Y 1 X 1 1 d 1 X s 1002 792 m 1 X 1 1 d 1 X 1 Y 3 X 1 Y 2 X 1 Y 1 X s 1011 796 m 1 X 1 1 d 4 X 1 Y -1 Y 1 Y 1 1 d 1 X 1 Y s 1019 800 m 3 X 1 Y 2 X 1 Y
 2 X 1 Y 2 X s 1028 803 m 1 1 d 2 X 1 Y 2 X 1 Y 1 1 d 2 X 1 Y 1 X s 1037 808 m 1 X 1 Y 2 X 1 Y 4 X 1 Y 2 X s 1046 811 m 1 Y 2 X 1 1 d 2 X 1 Y 1 X 1 Y 2 X 1 Y 1 X s 1055 816 m 1 X 1 Y 2 X 1 Y -1 Y 1 1 d 1 X 1 1 d 2 X 1 Y s 1063 820 m 1 X 1 Y 1 X 1 1 d
 2 X 1 Y 1 X 1 Y 2 X 1 Y 1 X 1 Y s 1072 826 m 1 X 1 Y 2 X 1 Y 1 X 1 Y 1 X 1 Y 1 X 1 Y 3 X s 1081 831 m 1 X 1 Y 1 X 1 Y 4 X 1 Y 1 X 1 Y 2 X 1 Y s 1090 836 m 2 X 1 Y 2 X 1 1 d 1 X 1 Y 2 X 1 Y 1 X s 1099 840 m 1 Y 1 X 1 Y 1 X 1 1 d 1 X 1 Y 2 X 1 Y 1 X 1
 Y 1 X s 1107 846 m 1 1 d -1 Y 1 Y 2 X 1 Y 1 X 1 Y 1 X 1 Y 2 X 1 Y 1 X 1 Y 1 X s 1116 852 m 1 1 d 2 X 1 Y 1 X 1 Y 1 X 1 1 d 1 X 1 Y 2 X 1 Y s 1125 858 m 2 X 1 Y 2 X 1 Y 1 X 1 Y 2 X 2 Y 2 X s 1134 863 m 1 Y 1 X 1 Y -1 Y 1 Y 2 X 1 Y 1 X 1 Y 2 X 1 Y 1 X
 1 Y 1 X 1 1 d s 1143 870 m 1 X 1 Y 1 X 1 1 d 1 1 d -1 Y 1 Y 1 X 1 1 d 1 X 1 Y 1 X 1 Y s 1151 876 m 2 X 1 Y 2 X 1 Y 1 X 1 Y 1 X 1 Y 1 X 1 Y 2 X 1 Y s 1160 882 m 1 X 1 Y 1 X 1 Y 1 1 d 1 X 1 Y 1 X 1 Y 2 X 1 Y 1 X 1 Y 1 X s 1169 889 m 1 1 d 1 X 1 Y 1 X
 1 1 d 1 X 1 Y 1 X 1 Y 1 X 1 1 d 1 1 d -1 Y 1 Y s 1178 896 m 1 X 1 Y 1 X 1 Y 2 X 2 Y 1 X 1 Y 1 X 1 1 d 1 X 1 Y 1 X s 1187 903 m 1 Y 1 X 1 Y 2 X 1 Y 1 X 1 Y 1 X 1 Y 1 1 d 1 Y 1 -1 d 1 Y 1 X 1 Y s 1195 911 m 1 X 1 Y 1 X 1 Y 1 X 1 Y 1 X 1 Y 1 X 1 Y 2 X
 1 Y 1 X 1 Y 1 X 1 Y s 1204 919 m 1 X 1 1 d 1 Y 1 X 1 Y 1 X 1 Y 1 X 1 Y 2 X 1 Y 1 X 1 Y 1 X s 1213 926 m 1 Y 1 X 1 1 d 1 Y 1 X 1 Y 1 X 1 Y 1 X 1 Y 1 X 1 Y 1 X 1 Y 1 X 1 Y 1 X s 1222 935 m 1 Y 1 X 1 Y 2 X 1 Y 1 X 1 Y 2 X 1 Y 1 X 1 Y 1 X 1 Y 1 1 d s
 1231 943 m 1 X 1 Y 1 X 1 Y 1 X 1 Y 2 X 1 Y 1 X 1 Y 1 X 1 Y 1 X 1 Y s 1239 950 m 1 X 1 Y 1 X 1 Y 1 -1 d 1 Y 1 1 d 1 1 d 1 1 d 1 X 1 Y 1 X 1 Y 1 X 1 Y s 1248 958 m 2 X 2 Y 1 1 d 1 1 d 1 X 1 Y 1 X 1 Y -1 Y 1 X 1 Y 1 X 1 Y 1 X 1 Y s 1257 966 m 1 1 d 1 Y
 1 -1 d 1 Y 1 X 2 Y 1 X 1 1 d 1 Y 1 X 1 Y 1 X 1 Y 2 X s 1266 974 m 1 Y 1 X 1 Y 1 X 1 Y 2 X 1 Y 1 X 1 Y 1 X 1 Y 1 X 1 Y 1 X 1 Y 1 X s 1275 982 m 1 Y 1 X 1 Y 2 X 1 Y 1 1 d 1 Y 2 X 1 Y 1 1 d 1 Y 1 X 1 Y s 1283 991 m 2 X 1 Y 1 X 1 Y 1 X 2 Y 2 X 1 1 d 1 Y
 1 X 1 Y 1 X s 1292 998 m 1 Y 1 X 1 Y 1 X 1 Y 1 X 1 Y 1 X 1 Y 1 1 d 1 Y 1 X 1 Y 1 X 1 Y 1 X 2 Y 1 X 2 Y s 1301 1011 m 1 Y 1 X 1 Y 1 X 1 Y 1 X 1 Y 2 X 1 Y 1 X 1 Y 1 X 1 Y 1 X 1 Y 1 1 d s 1310 1020 m 1 1 d 1 X 1 Y 1 X 1 Y 1 1 d 1 1 d 1 1 d 1 X 1 Y 1 1
 d 1 X s 1319 1028 m 1 Y 1 X 1 Y 1 1 d 1 Y 1 X 1 Y 1 1 d 1 X 1 Y 1 X 1 1 d 1 X 1 Y s 1327 1037 m 1 1 d 1 Y 1 X 1 Y 1 X 1 Y 1 X 1 Y 1 X 1 Y 1 X 1 1 d 1 X 1 Y 1 1 d 1 Y s 1336 1047 m 1 X 1 Y 1 X 1 Y 2 X 1 Y 1 1 d 1 1 d 1 Y 1 X 1 Y 1 1 d 1 X s 1345 1055
 m 1 Y 1 X 1 1 d 1 X 1 Y 2 X 1 Y 1 X 1 Y 1 X 1 Y 2 X 1 Y s 1354 1062 m 1 Y 1 X 1 1 d 1 X 1 Y 1 X 1 Y 1 X 1 Y 1 X 1 Y 1 X 1 Y 1 X 1 Y 1 X s 1363 1070 m 1 Y 2 X 1 Y 1 X 1 Y 1 X 1 Y 1 X 2 Y 1 X 1 Y 1 X 1 Y 1 X s 1371 1078 m 1 X 1 1 d 1 1 d -1 Y 1 Y 1 X
 1 1 d -1 Y 1 X 1 Y 1 1 d 1 X 1 1 d s 1380 1083 m 1 Y 2 X 2 Y 2 X 1 Y 2 X 1 Y 1 X 1 Y 1 X 1 Y 1 X s 1389 1090 m 1 1 d 2 X 1 Y 1 -1 d 1 Y 1 X 1 Y 1 X 1 Y 1 X 1 Y 1 X 1 Y 1 X 1 Y s 1398 1097 m 1 X 1 Y 2 X 1 Y 1 X 1 Y 1 X 1 1 d 1 1 d 1 X 1 Y 1 X s 1407
 1103 m 1 X 1 1 d 1 X 1 Y 1 X 1 1 d -1 Y 1 Y 3 X 1 Y s 1415 1107 m 1 X 1 Y 1 X 1 Y 1 X 1 Y 1 X 1 1 d 1 X 1 Y 3 X s 1424 1112 m 1 Y 2 X 1 Y -1 Y 1 Y 1 X 1 Y 2 X 1 1 d 2 X 1 Y 1 X s 1433 1117 m 1 X 1 Y 2 X 1 Y 1 X 1 Y 2 X 1 1 d 2 X s 1442 1121 m 1 Y 3
 X 1 Y 2 X 1 Y 2 X 1 Y 1 X -1 Y 1 Y 1 X s 1451 1125 m 1 X 1 Y 1 X -1 Y 1 X 1 Y 2 X 1 Y -1 Y 1 1 d 1 X 1 Y 1 X s 1459 1128 m 2 X 1 Y 4 X 1 Y 1 X 1 Y 2 X 1 Y s 1468 1132 m 3 X 1 Y 2 X 1 Y 1 -1 d 1 X 1 Y 1 -1 d 1 Y 1 X s 1477 1134 m 1 X 1 Y 3 X 2 Y 1 X
 1 1 d 1 X 1 Y 2 X s 1486 1139 m 4 X 1 Y 1 X 1 Y -1 Y 1 1 d -1 Y 1 X 1 Y 2 X s 1495 1141 m 1 X 1 Y -1 Y 1 Y 2 X 2 Y 2 X 1 Y 2 X 1 Y 1 X s 1503 1146 m 2 X 1 1 d 2 X 1 Y 1 X 1 Y 2 X 1 Y 1 X s 1512 1150 m 3 X 1 1 d 2 X 1 Y 1 X 1 Y 1 X 1 1 d -1 Y 1 Y s
 1521 1154 m 1 X 1 Y 6 X 1 Y 2 X 1 Y s 1530 1157 m 1 Y -1 Y 1 X 1 Y -1 Y 1 Y 1 -1 d 1 Y -1 Y 1 Y 1 X -1 Y 1 X 1 Y 1 1 d 2 X 1 Y 2 X s 1539 1160 m 1 X 1 1 d 1 Y 1 X 1 Y 3 X 1 Y 1 X 1 Y 1 X s 1547 1165 m 4 X 1 Y 2 X 1 Y 1 X 1 Y 2 X s 1556 1168 m 2 X 1
 1 d -1 Y 1 Y 2 X -1 Y 4 X s 1565 1168 m 2 X 1 1 d 2 X 1 Y -1 Y 1 Y 4 X s 1574 1170 m 3 X 1 Y 6 X s 1583 1171 m 4 X 1 Y 1 X 1 Y 3 X 1 Y -1 Y s 1591 1173 m 2 X 1 Y -1 Y 1 Y 3 X -1 Y 1 X 1 Y 3 X s 1600 1174 m 2 X 1 Y 1 -1 d 1 Y 2 X -1 Y 1 Y 4 X s 1609
 1175 m 1 X 1 Y -1 Y 1 X 1 Y 3 X 1 Y -1 Y 2 X 1 Y 2 X s 1618 1177 m 2 X 1 Y 5 X 1 Y 2 X s 1627 1179 m 3 X 1 Y 3 X 1 1 d 1 X s 1635 1181 m 1 X -1 Y 1 1 d 3 X 1 Y 4 X s 1644 1182 m 4 X -1 Y 1 Y 1 X 1 Y 1 X 1 Y -1 Y 1 X 1 Y 2 X s 1653 1184 m 1 Y 6 X 1 Y
 1 X -1 Y 1 X 1 Y 1 X s 1662 1186 m 1 Y 1 -1 d 1 Y -1 Y 2 X 1 Y 1 X 1 Y -1 Y 1 X 1 Y -1 Y 1 X 1 Y -1 Y 1 X 1 Y 2 X s 1671 1188 m -1 Y 2 X 1 Y 4 X -1 Y 1 1 d 1 X s 1679 1188 m 3 X 1 Y 1 X -1 Y 1 X 1 Y 1 X -1 Y 1 Y -1 Y 1 Y 3 X s 1688 1189 m 5 X -1 Y 1
 X 1 Y 1 X -1 Y 1 X 1 Y 1 X s 1697 1189 m 4 X 1 Y 4 X 1 Y 1 -1 d s 1706 1190 m 1 X 1 Y -1 Y 2 X 1 Y 4 X 1 Y -1 Y 2 X s 1715 1191 m 5 X -1 Y 1 Y 1 X -1 Y 1 X 1 1 d s 1723 1191 m 8 X 2 Y 1 X s 1732 1193 m 1 -1 d 1 1 d 4 X -1 Y 1 Y 1 X 1 Y 2 X s 1741
 1194 m 1 X -1 Y 1 Y 1 X -1 Y 1 Y 7 X 1 Y s 1750 1195 m 4 X 1 Y 1 X -1 Y 1 Y 2 X -1 Y 2 X s 1759 1195 m 2 X 1 Y 2 X -1 Y 1 Y 1 X -1 Y 1 X 1 1 d 1 X s 1767 1196 m 3 X 1 Y 6 X s 1776 1197 m 4 X -1 Y 1 Y 5 X 1 Y -1 Y s 1785 1197 m 1 X -1 Y 1 Y 1 X -1 Y
 2 X 1 Y -1 Y 1 1 d -1 Y 3 X -1 Y 1 X 1 Y s 1794 1196 m 1 Y 1 X -1 Y 1 X 1 Y 1 -1 d 1 Y 1 X -1 Y 1 1 d 2 X 1 Y 1 -1 d 1 Y -1 Y 1 X s 1803 1197 m 1 Y -1 Y 1 1 d -1 Y 3 X 1 Y 1 X 1 Y 4 X s 1812 1199 m -1 Y 1 X 1 Y 1 X -1 Y 1 Y -1 Y 2 X 2 Y -1 Y 2 X 1 1
 d -1 Y 1 X 1 Y -1 Y s 1820 1199 m 4 X -1 Y 1 X 2 Y 3 X -1 Y 1 X 1 Y s 1829 1200 m -1 Y 2 X -1 Y 2 X -1 Y 1 X 1 Y -1 Y 1 Y 1 -1 d 1 X 1 Y -1 Y 2 X s 1838 1197 m 1 1 d 3 Y 1 X -1 Y 2 X -1 Y 1 Y 1 X -1 Y 1 Y 2 X -1 Y 1 Y 2 X s 1847 1200 m -1 Y 1 X 1 Y
 1 -1 d -1 Y 2 X -1 Y 1 1 d -1 Y 2 X -1 Y 1 X 1 Y 1 X s 1856 1197 m -1 Y 1 X 1 -1 d 1 Y -1 Y 2 X -1 Y 1 X 1 -1 d 2 Y 1 X -1 Y 1 X s 1864 1194 m 1 -1 d 1 X -1 Y 1 5 d -1 Y 2 Y 3 X -1 Y 1 X -1 Y 1 X 1 Y 1 X -1 Y s 1873 1196 m 2 X -1 Y 1 Y 1 X -1 Y 2 X
 1 Y -1 Y 1 1 d 2 X -1 Y 3 Y 1 X -2 Y s 1882 1196 m 1 10 d -1 Y 1 Y 1 X -1 Y 1 Y 1 X -1 Y 1 X -1 Y 1 X 2 Y 2 X -1 Y 1 X 3 Y 1 X s 1891 1208 m 3 Y 3 X -1 Y 1 Y 2 X 2 Y 1 X -1 Y 2 X -1 Y 1 X s 1900 1211 m -1 Y 1 X -1 Y 1 X 2 Y 1 -1 d 1 X -1 Y 1 1 d 1 Y
 1 X -1 Y 1 -1 d 1 Y 1 X 1 Y -1 Y 1 Y s 1908 1211 m 1 -1 d -1 Y 1 X -1 Y 1 X -1 Y 1 1 d -1 Y 1 7 d 1 X -1 Y 1 X 1 -1 d 4 Y 1 X -1 Y s 1917 1215 m 1 Y 1 -1 d 1 X -1 Y 2 Y 1 -1 d 1 X -1 Y 1 X -1 Y 1 X -1 Y 2 X 1 Y -1 Y 1 X 12 Y s 1926 1224 m -1 Y 2 X 1
 Y -1 Y 3 X 3 Y -1 Y 1 X -1 Y 3 X s 1935 1224 m -1 Y 1 X -1 Y 1 X -1 Y 2 X 1 -1 d 1 -1 d 1 X -1 Y 2 X s 1944 1218 m -1 Y 1 X -2 Y 1 X 1 Y 1 X -1 Y 1 2 d 2 X -2 Y 1 X 1 Y -1 Y 1 X -1 Y s 1952 1214 m 1 X -1 Y 1 X -1 Y 1 X 1 -1 d -1 Y 1 1 d -1 Y 1 X -2
 Y 1 X -1 Y 1 -1 d -1 Y 1 X -2 Y s 1961 1203 m 1 -1 d 1 -1 d -4 Y 1 -1 d -3 Y 1 -1 d -1 Y 1 1 d -2 Y 1 5 d 1 X -3 Y 1 Y 1 -2 d -3 Y 1 -1 d s 1970 1187 m -2 Y 1 -2 d -6 Y 1 X -2 Y 1 Y 1 -2 d 1 -1 d -4 Y 1 -1 d -6 Y 1 -1 d -1 Y 2 Y 1 -2 d -6 Y 1 X -4 Y
 1 -1 d s 1979 1149 m -23 Y 1 -1 d -7 Y 1 -1 d -10 Y 1 2 d -4 Y 5 Y -8 Y 1 -8 d -7 Y 1 X -7 Y 1 -1 d -8 Y 1 X -3 Y 5 Y -2 Y 1 -5 d -14 Y 1 -2 d s 1988 1050 m -3 Y 1 2 d 1 Y -2 Y 1 Y 1 3 d -22 Y 1 -5 d 10 Y -18 Y 1 -2 d -9 Y 1 X -11 Y 1 -2 d 9 Y -8 Y
 2 Y -7 Y 1 X -14 Y 1 X -12 Y s 1996 963 m 1 Y 1 -5 d -20 Y 1 X -21 Y 1 X -29 Y 1 X -19 Y 1 -4 d -8 Y 9 Y -7 Y 1 -13 d -9 Y 1 1 d -14 Y 399 Y -1 Y 1 X -2 Y 1 X -2 Y s 2005 1219 m -2 Y 1 -1 d 6 Y 1 -4 d 6 Y 1 X 1 -1 d -1 Y 1 -2 d 23 Y 4 X s 2014 1243
 m 3 X 1 -1 d 5 X s 2023 1242 m 8 X -1 Y 1 X s 2032 1241 m -1 Y 2 X -22 Y 1 25 d 5 X s 2040 1243 m 1 X s[  ] 0 sd 9 lw 0.49 0.6 0.82 c black 0 0 0.933333 c 245 1242 m 9 X s 254 1242 m 9 X s 263 1242 m 8 X s 271 1242 m 9 X s 280 1242 m 9 X s 289 1242
 m 9 X s 298 1242 m 9 X s 307 1242 m 8 X s 315 1242 m 9 X s 324 1242 m 9 X s 333 1242 m 9 X s 342 1242 m 9 X s 351 1242 m 8 X s 359 1242 m 9 X s 368 1242 m 9 X s 377 1242 m 9 X s 386 1242 m 9 X s 395 1242 m 8 X s 403 1242 m 9 X s 412 1242 m 9 X s 421
 1242 m 9 X s 430 1242 m 9 X s 439 1242 m 8 X s 447 1242 m 9 X s 456 1242 m 9 X s 465 1242 m 9 X s 474 1242 m 9 X s 483 1242 m 8 X s 491 1242 m 9 X s 500 1242 m 9 X s 509 1242 m 9 X s 518 1242 m 9 X s 527 1242 m 8 X s 535 1242 m 9 X s 544 1242 m 9 X
 s 553 1242 m 9 X s 562 1242 m 9 X s 571 1242 m 8 X s 579 1242 m 9 X s 588 1242 m 9 X s 597 1242 m 9 X s 606 1242 m 9 X s 615 1242 m 8 X s 623 1242 m 9 X s 632 1242 m 9 X s 641 1242 m 9 X s 650 1242 m 9 X s 659 1242 m 8 X s 667 1242 m 9 X s 676 1242
 m 9 X s 685 1242 m 9 X s 694 1242 m 9 X s 703 1242 m 8 X s 711 1242 m 9 X s 720 1242 m 9 X s 729 1242 m 9 X s 738 1242 m 9 X s 747 1242 m 8 X s 755 1242 m 9 X s 764 1242 m 9 X s 773 1242 m 9 X s 782 1242 m 9 X s 791 1242 m 8 X s 799 1242 m 9 X s 808
 1242 m 9 X s 817 1242 m 9 X s 826 1242 m 9 X s 835 1242 m 8 X s 843 1242 m 9 X s 852 1242 m 9 X s 861 1242 m 9 X s 870 1242 m 9 X s 879 1242 m 8 X s 887 1242 m 9 X s 896 1242 m 1 X 1 1 d 7 X s 905 1243 m 9 X s 914 1243 m 9 X s 923 1243 m 8 X s 931
 1243 m 9 X s 940 1243 m 9 X s 949 1243 m 9 X s 958 1243 m 9 X s 967 1243 m 1 -2 d 7 X s 975 1241 m 9 X s 984 1241 m 9 X s 993 1241 m 9 X s 1002 1241 m 1 -1 d 8 X s 1011 1240 m 6 X -1 Y 2 X s 1019 1239 m 9 X s 1028 1239 m 9 X s 1037 1239 m 9 X s 1046
 1239 m 9 X s 1055 1239 m -1 Y 3 X -1 Y 5 X s 1063 1237 m 9 X s 1072 1237 m 7 X -1 Y 1 X -1 Y 1 X s 1081 1235 m 3 X 1 -2 d 5 X s 1090 1233 m 2 X -1 Y 7 X s 1099 1232 m 8 X s 1107 1232 m 1 X -1 Y 8 X s 1116 1231 m 9 X s 1125 1231 m 9 X s 1134 1231 m 1
 X -1 Y 2 X 1 -1 d 5 X s 1143 1229 m 1 -1 d 1 X -1 Y 2 X -1 Y 4 X s 1151 1226 m 2 X -1 Y 7 X s 1160 1225 m 5 X 1 -1 d 1 Y 3 X s 1169 1225 m 1 X -1 Y 8 X -1 Y s 1178 1223 m 3 X -1 Y 6 X s 1187 1222 m 6 X -1 Y 1 X -1 Y 1 X s 1195 1220 m 9 X s 1204 1220
 m 2 X -1 Y 6 X -1 Y 1 X s 1213 1218 m 2 X 1 -1 d 2 X -1 Y 4 X s 1222 1216 m 9 X s 1231 1216 m 2 X -1 Y 1 X -1 Y 5 X -1 Y s 1239 1213 m 2 X 1 -1 d -1 Y 4 X 1 -1 d -1 Y 1 X -1 Y s 1248 1208 m 2 X -1 Y 1 X -1 Y 1 X -1 Y 2 X -1 Y 3 X s 1257 1204 m 1 X
 -1 Y 1 X -1 Y 3 X 1 Y 3 X -1 Y 1 X s 1266 1202 m 3 X -1 Y 4 X 1 -1 d 1 X s 1275 1200 m 2 X -3 Y 4 X 1 Y 1 X 1 -1 d s 1283 1197 m 2 X -1 Y 3 X -1 Y 3 X -1 Y 1 X -1 Y s 1292 1193 m 1 X 1 Y 6 X -1 Y 2 X s 1301 1193 m 5 X -1 Y 4 X s 1310 1192 m 3 X -1 Y
 6 X s 1319 1191 m 1 Y -1 Y 7 X -1 Y 1 -1 d -1 Y s 1327 1188 m 3 X -1 Y 3 X -1 Y 3 X s 1336 1186 m -1 Y 2 X -1 Y 1 X -1 Y 5 X -1 Y 1 X -1 Y s 1345 1181 m -1 Y 2 X 1 -1 d -2 Y 1 Y 3 X -1 Y 3 X s 1354 1177 m 2 X -1 Y 1 -1 d -1 Y 4 X -3 Y 1 X 1 Y 1 X s
 1363 1172 m 1 X -2 Y 3 X 1 -1 d 3 X -1 Y s 1371 1168 m 2 X 1 Y 1 X -2 Y 2 X -5 Y 2 X -1 Y 2 X s 1380 1161 m 4 X 1 Y -1 Y 2 X -1 Y 3 X s 1389 1160 m 1 X 1 -1 d -4 Y 1 X 1 -3 d -1 Y 1 X 1 -1 d 3 X -1 Y s 1398 1149 m 1 -1 d 1 -2 d -1 Y 1 X 1 -2 d 2 X 1
 -1 d 1 X -2 Y 1 X s 1407 1140 m -4 Y 1 X -1 Y 2 X -1 Y 1 X -1 Y 1 X 1 -1 d 1 X -1 Y 1 X s 1415 1131 m 5 X -1 Y 2 X -1 Y 1 X -1 Y 1 1 d s 1424 1129 m 1 X 1 Y 1 X -4 Y 1 X 1 -1 d 1 X 1 -1 d 1 -1 d 1 X -2 Y 1 X s 1433 1121 m 1 X -2 Y 1 X -2 Y 2 X -1 Y
 1 X -1 Y 3 X -1 Y 1 -1 d s 1442 1113 m -2 Y 1 X -1 Y 1 X -1 Y 4 X 1 -1 d 1 -1 d -2 Y 1 X s 1451 1105 m -1 Y 1 X -2 Y 1 X -3 Y 1 X -1 Y 1 X -1 Y 1 X 2 Y -2 Y 2 X -1 Y 1 X s 1459 1096 m 1 X -1 Y 1 X -2 Y 1 -1 d 1 X -2 Y 3 X -2 Y 1 X -1 Y 1 -1 d s 1468
 1086 m 1 X 1 -1 d -1 Y 1 X -2 Y 1 X -1 Y 1 -2 d -1 Y 1 -1 d -2 Y 1 X 1 -1 d -2 Y 1 X s 1477 1072 m 1 X 1 Y 1 X -3 Y 2 X -2 Y 1 X -1 Y 1 X -1 Y 1 Y 1 X -1 Y 1 X -3 Y 1 X s 1486 1063 m 1 X -1 Y 1 -1 d -2 Y 1 X -2 Y 2 X -2 Y 1 X -1 Y 1 X -1 Y 2 X s
 1495 1053 m -1 Y 1 X -2 Y 2 X 1 Y 1 X 1 -1 d -1 Y 2 X -1 Y 1 -1 d 1 Y -1 Y s 1503 1047 m 1 -1 d 1 X -2 Y 1 X 1 -1 d -1 Y 2 Y 1 X -1 Y 3 X -1 Y 1 X -1 Y s 1512 1041 m 1 X 1 -1 d -1 Y 3 X -2 Y 2 X 1 Y 1 -1 d 1 X -2 Y s 1521 1035 m 2 X -1 Y 1 Y -1 Y 1
 X -4 Y 1 X -1 Y 4 X 1 Y 1 X -1 Y s 1530 1029 m -5 Y 2 X -1 Y 1 X -2 Y 1 X -1 Y 2 X -7 Y 1 X -1 Y 1 X 1 -1 d s 1539 1011 m -1 Y 3 X -1 Y 10 Y 1 -1 d 1 X -3 Y 1 X -1 Y 1 X -1 Y 1 X s 1547 1013 m 1 -2 d -1 Y 1 X 1 Y -2 Y 1 X -1 Y 1 X -2 Y 1 X -1 Y 1 -1
 d 1 Y -2 Y 1 1 d -1 Y 1 X -1 Y 1 X -4 Y s 1556 998 m 1 X 1 -1 d -1 Y 1 X -1 Y 1 X -2 Y 1 X -2 Y 1 -2 d -3 Y 1 X -1 Y 2 X s 1565 985 m -1 Y 1 X -1 Y 1 -1 d -2 Y 1 Y -3 Y 1 X -1 Y 1 X -3 Y 1 -1 d -5 Y 1 X 1 Y 1 -1 d -3 Y 1 X -1 Y 1 X -1 Y s 1574 963 m
 -1 Y 1 X 2 Y -1 Y 1 -1 d -5 Y 1 X -2 Y 1 X -1 Y 1 -1 d 1 -1 d 1 -1 d -2 Y 1 X -2 Y 1 -1 d s 1583 946 m -5 Y 1 X -1 Y 1 X -2 Y 2 X -1 Y 1 X 1 Y -1 Y 1 -1 d -1 Y 1 X -1 Y 1 X 1 Y -1 Y s 1591 934 m 1 X -2 Y 1 X -2 Y 1 X -1 Y 1 X -2 Y 1 X -3 Y 1 X -1 Y
 1 -1 d -1 Y 2 Y 1 -1 d -5 Y 1 1 d -3 Y s 1600 915 m 1 X -4 Y 1 1 d -2 Y 1 -2 d 1 X -1 Y 1 -1 d -1 Y 1 X -4 Y 1 X -1 Y 1 -1 d -1 Y 1 -1 d -1 Y 1 Y s 1609 897 m 1 X -3 Y 2 X -1 Y 2 X 1 -1 d -2 Y 1 X -2 Y 1 X -1 Y 1 X -1 Y s 1618 886 m 1 X -1 Y 1 X -1
 Y 1 -2 d -2 Y 1 -1 d -2 Y 1 X -1 Y 1 X -3 Y 1 X -2 Y 1 X -2 Y 1 X -1 Y s 1627 868 m -1 Y 1 X -4 Y 1 1 d -1 Y 1 X -1 Y 2 Y -2 Y 1 X -1 Y 1 -1 d -1 Y 1 -2 d 1 -2 d 1 -2 d s 1635 853 m 1 X -4 Y 1 X 1 -2 d -2 Y 1 X -2 Y 1 X -3 Y 1 -1 d -2 Y 1 1 d -2 Y 1
 -1 d -1 Y 1 -1 d -2 Y s 1644 831 m 1 X -1 Y 1 X -2 Y 1 -1 d 1 X -1 Y 2 Y -1 Y 1 X 2 Y -1 Y 1 -1 d -1 Y 1 X -1 Y 1 -1 d -2 Y 1 X -1 Y s 1653 821 m 1 X -3 Y 1 X -5 Y 1 X -1 Y 1 -1 d -2 Y 1 X -3 Y 2 X -6 Y 1 X -1 Y 1 X -2 Y s 1662 797 m 1 -2 d -6 Y 1
 -1 d -4 Y 1 -1 d 1 X -4 Y 1 -1 d -2 Y 1 -1 d -2 Y 1 X -1 Y 1 X -1 Y 1 X s 1671 771 m -2 Y 1 X -4 Y 1 -1 d 1 X -3 Y 1 -1 d -1 Y 1 X -3 Y 1 X -2 Y 1 X -2 Y 1 X -1 Y s 1679 751 m 1 -1 d -2 Y 1 -1 d -1 Y 1 X -1 Y 1 Y -2 Y 1 X -5 Y 1 X -2 Y 1 X -5 Y 1 X
 -1 Y 1 -1 d -2 Y 1 X -1 Y s 1688 727 m -1 Y 1 -1 d -1 Y 1 X 1 Y -1 Y 1 X -1 Y 1 -1 d -3 Y 1 -1 d -3 Y 1 X -1 Y 1 -3 d 1 Y -1 Y 1 -1 d -2 Y 1 X s 1697 708 m -1 Y 1 -1 d -2 Y 1 1 d -5 Y 1 X -1 Y 1 X -2 Y 1 -1 d 1 X -2 Y 1 X -2 Y 2 X -1 Y s 1706 691 m
 1 -3 d -4 Y 1 -1 d -2 Y 1 X -1 Y 1 -1 d -1 Y 1 X -1 Y 1 -1 d -2 Y 1 X -2 Y 1 X -1 Y 1 X s 1715 671 m -4 Y 1 X -1 Y 1 -2 d -2 Y 1 -1 d -2 Y 1 X -1 Y 1 Y -1 Y 1 X -4 Y 1 -1 d -2 Y 1 Y -3 Y 1 X -3 Y 1 X -2 Y s 1723 644 m 1 X -3 Y 1 X -1 Y 1 Y -3 Y 1 X
 -1 Y 1 X -5 Y 2 X -3 Y 1 X -1 Y 1 X -4 Y 1 -1 d -3 Y s 1732 620 m -1 Y 1 -1 d -2 Y 1 X -4 Y 1 X -4 Y 1 X -1 Y 1 -1 d -1 Y 1 -1 d -1 Y 4 Y 1 X -3 Y 1 X -2 Y 1 X -4 Y s 1741 598 m -2 Y 1 X -2 Y 1 -1 d -2 Y 1 -1 d -1 Y 1 X -2 Y 1 X 1 Y -1 Y 1 1 d -1 Y
 1 -1 d 1 Y -1 Y 1 X -2 Y 2 Y -1 Y 1 X -1 Y s 1750 584 m 1 X -2 Y 1 X 1 -2 d -2 Y 1 -1 d -2 Y 1 X -2 Y 1 -1 d -3 Y 1 -1 d -4 Y 1 -1 d -1 Y 1 X -2 Y s 1759 560 m 1 Y 1 X -2 Y 1 X -3 Y 1 -1 d -1 Y 1 -1 d -2 Y 1 X -6 Y 1 X -1 Y 1 X -2 Y 1 X -3 Y s 1767
 539 m 1 X -2 Y 1 -4 d -1 Y 1 -1 d -1 Y 1 X -3 Y 1 -1 d -2 Y 1 Y 1 -1 d -1 Y 1 -1 d -2 Y 1 X -2 Y 1 X s 1776 518 m -1 Y 1 X -2 Y 1 -2 d -1 Y 1 -2 d -4 Y 1 X -2 Y 1 X -1 Y 1 Y 1 X -3 Y 1 X -1 Y 1 -1 d -2 Y 1 X -3 Y s 1785 494 m -2 Y 1 -1 d -2 Y 1 X -4
 Y 1 X -1 Y 1 -1 d -1 Y 1 -1 d -4 Y 1 -1 d -2 Y 1 -1 d 1 Y -3 Y 1 -2 d -1 Y 1 X -1 Y s 1794 467 m -1 Y 1 X -2 Y 1 X -2 Y 1 -1 d -1 Y 1 -1 d -2 Y 1 X -2 Y 1 -1 d -2 Y 1 X -3 Y 1 X -1 Y 1 -2 d s 1803 446 m -2 Y 1 Y 1 X -2 Y 1 X -2 Y 1 X -1 Y 1 X -1 Y 1
 -1 d -1 Y 1 -1 d -1 Y 1 X -1 Y 1 -1 d -1 Y 1 X s 1812 432 m -3 Y 1 X -1 Y 1 -1 d -2 Y 1 X -3 Y 1 X -3 Y 1 X -1 Y 1 X -1 Y 1 X -2 Y 1 X -2 Y s 1820 413 m -2 Y 1 -1 d 1 -1 d -3 Y 1 -1 d -2 Y 1 X -1 Y 1 -1 d 1 -1 d -3 Y 1 X -1 Y 1 X -2 Y 1 -1 d 1 Y s
 1829 394 m -2 Y 1 -1 d -1 Y 1 -1 d -2 Y 1 -1 d -1 Y 1 -1 d -2 Y 1 -1 d 1 Y -2 Y 1 -1 d -2 Y 1 X -1 Y 1 -1 d -1 Y 1 X -1 Y s 1838 373 m 1 Y 1 -1 d 1 Y -1 Y 1 -1 d -2 Y 1 -1 d -3 Y 1 X 1 -1 d -1 Y 1 X -2 Y 1 X -4 Y 1 X -2 Y 1 X -1 Y s 1847 355 m -1 Y
 1 X -1 Y 1 X -4 Y 1 -1 d -2 Y 1 X -1 Y 1 1 d -2 Y 1 X -1 Y 1 X -2 Y 1 -1 d 1 Y -1 Y 1 -1 d s 1856 339 m -3 Y 1 X -2 Y 1 -1 d -2 Y 1 X -3 Y 1 X -3 Y 1 X -2 Y 1 X -2 Y 1 X -2 Y 1 X -1 Y s 1864 318 m -1 Y 1 X -2 Y 1 X -2 Y 1 X 1 -1 d 1 Y -1 Y 1 -1 d 1
 Y -1 Y 1 X -3 Y 1 X -2 Y 2 X -2 Y s 1873 304 m 1 X -1 Y 1 X -2 Y 1 X -1 Y 1 X -1 Y 1 X -3 Y 1 X -1 Y 1 X -1 Y 1 X -1 Y 1 X -3 Y s 1882 290 m -1 Y 1 X -1 Y 1 X -2 Y 1 X -2 Y 1 -1 d -1 Y 1 X -1 Y 1 X -1 Y 1 -1 d -1 Y 1 X -1 Y 1 X s 1891 277 m -1 Y 1 X
 -1 Y 1 X -1 Y 1 X -1 Y 1 X -1 Y 1 X -2 Y 1 X -1 Y 1 X -2 Y 1 X -1 Y 1 -1 d s 1900 265 m -1 Y 1 X -2 Y 1 X -1 Y 1 X -1 Y 1 -1 d -1 Y 1 1 d -2 Y 1 X -2 Y 1 X -2 Y 1 1 d -1 Y s 1908 253 m 1 X -2 Y 1 Y 1 -1 d -2 Y 1 X -1 Y 1 -1 d -1 Y 1 X -1 Y 1 X -1 Y
 1 X -2 Y 1 X -1 Y 1 X -1 Y s 1917 240 m 1 -1 d -1 Y 1 X -1 Y 1 X -1 Y 1 X -1 Y 1 X -1 Y 1 X -1 Y 1 X -1 Y 1 X -1 Y 1 X s 1926 231 m -1 Y 2 X 1 Y -1 Y 1 X 1 -1 d 1 X -2 Y 1 X -1 Y 1 X -1 Y 1 X 1 -1 d s 1935 224 m 1 -1 d 1 X -1 Y 1 X -1 Y 1 X -1 Y 1 X
 -1 Y 1 X 1 -1 d 1 Y -1 Y 2 X s 1944 218 m -1 Y 1 X -1 Y 1 X 1 Y 1 -1 d 1 -1 d 2 X -1 Y 2 X -1 Y s 1952 213 m 2 X -1 Y 3 X -1 Y 2 X 1 -1 d 1 X s 1961 210 m 1 X -1 Y 1 X 1 -1 d 2 X 1 -1 d 3 X s 1970 207 m -1 Y 3 X -1 Y 6 X s 1979 205 m -1 Y 4 X -1 Y 5
 X s 1988 203 m 8 X s 1996 203 m 3 X -1 Y 6 X s 2005 202 m 9 X s 2014 202 m 9 X s 2023 202 m 9 X s 2032 202 m 8 X s 2040 202 m 1 X s 1 0 0 c black 1 0 0 c 245 1243 m 9 X s 254 1243 m 9 X s 263 1243 m 8 X s 271 1243 m 9 X s 280 1243 m 9 X s 289 1243 m
 9 X s 298 1243 m 9 X s 307 1243 m 8 X s 315 1243 m 9 X s 324 1243 m 9 X s 333 1243 m 9 X s 342 1243 m 9 X s 351 1243 m 8 X s 359 1243 m 2 X -1 Y 7 X s 368 1242 m 9 X s 377 1242 m 9 X s 386 1242 m 9 X s 395 1242 m 8 X s 403 1242 m 9 X s 412 1242 m 9
 X s 421 1242 m 6 X 1 -1 d 2 X s 430 1241 m 9 X s 439 1241 m 7 X -1 Y 1 X s 447 1240 m 9 X s 456 1240 m 9 X s 465 1240 m 9 X s 474 1240 m 3 X -1 Y 6 X s 483 1239 m 8 X s 491 1239 m 3 X -1 Y 6 X s 500 1238 m 1 X -1 Y 8 X s 509 1237 m 6 X -1 Y 3 X s
 518 1236 m 9 X s 527 1236 m 3 X -1 Y 5 X s 535 1235 m 1 X -1 Y 8 X s 544 1234 m 1 X 1 -1 d 7 X s 553 1233 m 4 X -1 Y 5 X s 562 1232 m 8 X -1 Y 1 X s 571 1231 m 8 X -1 Y s 579 1230 m 9 X s 588 1230 m 5 X 1 -1 d 3 X s 597 1229 m 9 X s 606 1229 m 1 X
 -1 Y 5 X -1 Y 3 X s 615 1227 m 8 X s 623 1227 m 2 X -1 Y 7 X s 632 1226 m 4 X -1 Y 5 X s 641 1225 m 1 X -1 Y 8 X s 650 1224 m 3 X 1 -1 d 5 X s 659 1223 m -1 Y 7 X -1 Y 1 X s 667 1221 m 1 -1 d 5 X -1 Y 3 X s 676 1219 m 3 X 1 -1 d 4 X -1 Y 1 X s 685
 1217 m 5 X -1 Y 4 X s 694 1216 m 3 X -1 Y 5 X -1 Y 1 X s 703 1214 m 3 X -1 Y 3 X -1 Y 2 X -1 Y s 711 1211 m 7 X 1 -1 d 1 X s 720 1210 m 3 X -1 Y 2 X -1 Y 4 X s 729 1208 m 1 -1 d 2 X -1 Y 3 X -1 Y 2 X -1 Y 1 X s 738 1204 m 3 X -1 Y 3 X -1 Y 3 X s 747
 1202 m 1 X -1 Y 2 X -1 Y 4 X 1 -1 d s 755 1199 m 1 X -1 Y 3 X -1 Y 3 X 1 -1 d 1 X s 764 1196 m 3 X -1 Y 5 X -1 Y 1 X s 773 1194 m 1 X -1 Y 2 X -1 Y 4 X -1 Y 2 X s 782 1191 m 1 X -1 Y 2 X -1 Y 3 X -1 Y 3 X s 791 1188 m -1 Y 4 X 1 -1 d 2 X 1 -1 d s
 799 1185 m 3 X 1 -1 d 1 X -1 Y 2 X -1 Y 2 X -1 Y s 808 1181 m 2 X -1 Y 3 X -1 Y 1 Y -1 Y 2 X -1 Y 2 X -1 Y s 817 1177 m 2 X -1 Y 1 X -1 Y 2 X -1 Y 2 X -1 Y 2 X -1 Y s 826 1172 m 2 X -1 Y 2 X -1 Y 1 X -1 Y 1 X -1 Y 1 X -1 Y 2 X s 835 1167 m -1 Y 2 X
 1 -1 d 1 X -1 Y 2 X -1 Y 2 X -2 Y s 843 1161 m 1 X -1 Y 2 X -1 Y 1 X -1 Y 2 X -1 Y 1 X -1 Y 2 X -1 Y s 852 1155 m 2 X -1 Y 1 X -1 Y 2 X -1 Y 3 X -1 Y 1 X s 861 1151 m 1 X -1 Y 1 X -1 Y 2 X -1 Y 1 X -1 Y 2 X -1 Y 1 X -1 Y 1 X -1 Y s 870 1144 m 1 X -1
 Y 1 X -1 Y 1 X -1 Y 2 X -1 Y 1 X -1 Y 1 X 1 -1 d 1 X s 879 1138 m -1 Y 1 X -1 Y 1 X -1 Y 1 X 1 -1 d -1 Y 1 X -1 Y 1 X -1 Y 1 X -1 Y 1 X s 887 1130 m 1 -1 d -1 Y 1 X -1 Y 1 X -1 Y 2 X -1 Y 1 -1 d 1 X -1 Y 1 X 1 -2 d s 896 1121 m -1 Y 1 X -1 Y 1 X -1
 Y 2 X -1 Y 1 X -1 Y 1 X -1 Y 1 X 1 -1 d -1 Y 1 X -1 Y s 905 1112 m -1 Y 1 X -1 Y 1 X -2 Y 1 X -1 Y 1 X -1 Y 1 X -1 Y 1 X -1 Y 1 X -1 Y 1 X -1 Y 1 X -1 Y s 914 1101 m -1 Y 2 X 1 -1 d 1 X -2 Y 1 X -2 Y 1 X 1 -1 d 1 X -2 Y 1 X s 923 1092 m -2 Y 2 X -1
 Y 1 X -2 Y 1 X -1 Y 1 X -1 Y 1 X -1 Y 1 X -1 Y 1 X -1 Y s 931 1082 m 1 X 1 -1 d -1 Y 1 X -1 Y 2 X -2 Y 1 X -1 Y 1 X -1 Y 1 X -1 Y 1 X -1 Y s 940 1073 m 1 X -1 Y 1 X -2 Y 1 X -2 Y 1 X -1 Y 1 X -1 Y 1 X -1 Y 1 X -1 Y 1 X -1 Y 1 X s 949 1063 m -1 Y 1 X
 1 -1 d 1 X -1 Y 1 -1 d -1 Y 1 X -1 Y 1 X -1 Y 1 X -1 Y 1 -1 d 1 -1 d s 958 1053 m -1 Y 1 X -1 Y 1 -1 d 1 -1 d 1 X -1 Y 1 X -2 Y 1 X -1 Y 1 X -1 Y 1 X -1 Y 1 -1 d s 967 1042 m 1 X -1 Y 1 X -1 Y 1 -1 d -1 Y 1 X -1 Y 1 -1 d 1 -1 d 1 X -1 Y 1 X -2 Y s
 975 1032 m 1 X -1 Y 1 X -1 Y 1 -1 d -1 Y 1 -1 d -1 Y 1 X -2 Y 1 X -1 Y 1 X -1 Y 1 X -1 Y 1 X s 984 1021 m -1 Y 1 X -1 Y 1 X -2 Y 1 X -1 Y 1 -1 d -1 Y 1 X -1 Y 1 X -1 Y 1 X -2 Y 1 X -1 Y 1 X s 993 1009 m 1 -1 d -1 Y 1 X -1 Y 1 X -1 Y 1 -1 d -1 Y 1 -1
 d -1 Y 1 X -1 Y 1 -1 d -1 Y 1 -1 d 1 -1 d s 1002 996 m -1 Y 1 X -1 Y 1 X -2 Y 1 X -1 Y 1 X -1 Y 1 X -1 Y 1 X -2 Y 1 X -1 Y 1 X -2 Y 1 -1 d s 1011 983 m 1 X -1 Y 1 -1 d 1 X -1 Y 1 X -1 Y 1 X 1 -1 d -1 Y 1 -3 d -1 Y 1 X -2 Y s 1019 971 m 1 X -1 Y 1 X
 -1 Y 1 X -1 Y 1 X -2 Y 1 X -1 Y 1 X -1 Y 1 X -2 Y 1 X -1 Y 1 X -1 Y s 1028 960 m 1 X -1 Y 1 X -2 Y 1 X -1 Y 1 X -1 Y 1 -1 d -3 Y 1 X -1 Y 1 -1 d 1 -1 d -1 Y 1 X -1 Y s 1037 946 m 1 X -2 Y 1 X -1 Y 1 X -1 Y 1 X -1 Y 1 X -1 Y 1 X -1 Y 1 X -1 Y 1 X -1
 Y 1 X s 1046 937 m -1 Y 1 X -1 Y 1 -1 d 1 -1 d -2 Y 1 X 1 -1 d -2 Y 1 X -1 Y 1 -1 d 1 -1 d -1 Y 1 X s 1055 924 m -2 Y 1 X -1 Y 1 -1 d 1 X -2 Y 1 -1 d -1 Y 1 X -1 Y 1 -1 d -1 Y 1 X -1 Y 1 X -1 Y s 1063 911 m 1 -1 d -1 Y 1 X -3 Y 1 X -1 Y 1 X -1 Y 1 X
 -2 Y 1 -1 d -1 Y 1 Y 1 -1 d -1 Y 1 X -2 Y 1 -1 d -2 Y s 1072 894 m 1 -1 d -1 Y 1 X -2 Y 1 X -3 Y 1 X -1 Y 1 -1 d -2 Y 1 X -2 Y 1 X -1 Y 1 X -1 Y 1 X s 1081 879 m -1 Y 1 X -2 Y 1 -1 d -1 Y 1 X -1 Y 1 X -1 Y 1 X -1 Y 1 X -1 Y 1 -1 d -2 Y 1 X -1 Y 1 X
 -1 Y s 1090 865 m -1 Y 1 X -1 Y 1 X -1 Y 1 X -1 Y 1 -1 d -1 Y 1 X -2 Y 1 X -1 Y 1 X -2 Y 1 X -2 Y 1 -1 d s 1099 851 m -1 Y 1 X -2 Y 1 -1 d -1 Y 1 -1 d 1 X -2 Y 1 X -1 Y 1 -1 d -1 Y 1 X -2 Y 1 -1 d -2 Y s 1107 835 m 1 X 1 -1 d -1 Y 1 X -2 Y 1 X -2 Y
 1 X -3 Y 1 X -1 Y 1 X -2 Y 1 X -1 Y 1 -1 d s 1116 821 m -1 Y 1 -1 d 1 X -2 Y 1 X -1 Y 1 X -2 Y 1 X -2 Y 1 -1 d -1 Y 1 X -1 Y 1 X -1 Y 1 X -1 Y s 1125 807 m 1 -1 d -1 Y 1 X -1 Y 1 X -2 Y 1 X -1 Y 1 -1 d -1 Y 1 X -2 Y 1 X -3 Y 1 X -1 Y 1 X -1 Y s 1134
 792 m -2 Y 1 X -2 Y 1 X 1 -1 d -1 Y 1 X -2 Y 1 X -2 Y 1 X -2 Y 1 X -1 Y 1 -1 d -1 Y 1 -1 d s 1143 776 m -1 Y 1 X -2 Y 1 -1 d -1 Y 1 X -3 Y 1 X -1 Y 1 X -1 Y 1 -1 d -1 Y 1 -1 d -1 Y 1 -1 d s 1151 761 m 1 -1 d -1 Y 1 X -1 Y 1 X -2 Y 1 X -2 Y 1 X -2 Y
 1 X -1 Y 1 -1 d -1 Y 1 X -2 Y 1 X -2 Y s 1160 745 m -1 Y 1 X -1 Y 1 X -2 Y 1 -2 d -1 Y 1 X -1 Y 1 -1 d -1 Y 1 -1 d -1 Y 1 X -2 Y 1 X -2 Y 1 X -1 Y s 1169 728 m 1 -1 d -1 Y 1 X -1 Y 1 X -2 Y 1 X -1 Y 1 -1 d -1 Y 1 X -2 Y 1 X -2 Y 1 X -2 Y 1 X -1 Y s
 1178 713 m 1 -1 d -1 Y 1 -1 d -2 Y 1 X -1 Y 1 X -3 Y 1 X -2 Y 1 X -2 Y 1 X -2 Y 1 X -1 Y 1 X s 1187 697 m -1 Y 1 -1 d -2 Y 1 -1 d 1 -1 d -1 Y 1 -1 d -1 Y 1 -1 d -2 Y 1 -1 d -2 Y 1 X -1 Y 1 -1 d -1 Y s 1195 679 m 1 -1 d -1 Y 1 X -2 Y 1 -1 d -1 Y 1 -1
 d -1 Y 1 -1 d -1 Y 1 -1 d 1 -1 d -1 Y 1 X -2 Y 1 X -1 Y s 1204 663 m -1 Y 1 X -1 Y 1 -2 d -1 Y 1 X -2 Y 1 -1 d -1 Y 1 -1 d -1 Y 1 -1 d 1 -1 d -1 Y 1 X -2 Y 1 X -1 Y s 1213 646 m 1 -1 d -1 Y 1 -1 d -2 Y 1 X -3 Y 1 X -2 Y 1 X -2 Y 1 -1 d -1 Y 1 X -2 Y
 1 -1 d -1 Y 1 X -1 Y s 1222 627 m 1 -1 d -1 Y 1 X -1 Y 1 X -2 Y 1 X -1 Y 1 X -1 Y 1 X -2 Y 1 X -2 Y 1 -1 d -1 Y 1 -1 d s 1231 613 m -1 Y 1 X -1 Y 1 X -2 Y 1 X -2 Y 1 X -1 Y 1 X -2 Y 1 X -2 Y 1 -1 d -2 Y 1 X -2 Y s 1239 597 m 1 X -1 Y 1 X -1 Y 1 X -2
 Y 1 -1 d -1 Y 1 X -2 Y 1 X -2 Y 1 X -1 Y 1 -1 d -1 Y 1 -1 d -1 Y s 1248 582 m 1 X -1 Y 1 -1 d -4 Y 1 X -2 Y 1 X -1 Y 1 -1 d -1 Y 1 -1 d 1 X -2 Y 1 X -1 Y 1 X -2 Y s 1257 565 m -1 Y 1 X -2 Y 1 X -1 Y 1 -1 d -2 Y 1 -1 d 1 -1 d -1 Y 1 -1 d -1 Y 1 X -2
 Y 1 X -1 Y 1 X s 1266 550 m -2 Y 1 X -1 Y 1 -1 d 1 X -1 Y 1 -1 d 1 -1 d -1 Y 1 X -2 Y 1 -1 d -1 Y 1 -1 d -1 Y 1 X s 1275 536 m -2 Y 1 X -1 Y 1 -1 d -1 Y 1 X -2 Y 1 X -2 Y 1 X -1 Y 1 X -2 Y 1 X -3 Y 1 X -1 Y s 1283 520 m 1 X -1 Y 1 X -2 Y 1 X -1 Y 1
 X -3 Y 1 X -1 Y 2 X -2 Y 1 -1 d -1 Y 1 X -2 Y s 1292 506 m 1 -1 d -1 Y 1 X -2 Y 1 X -1 Y 1 X -3 Y 1 X -2 Y 1 X -2 Y 1 X -2 Y 1 X -2 Y 1 -1 d -2 Y s 1301 487 m -2 Y 1 -1 d -1 Y 1 X -1 Y 1 -1 d -1 Y 1 X -1 Y 1 X -1 Y 1 X -2 Y 1 X -1 Y 1 -1 d -1 Y 1 -1
 d s 1310 472 m -1 Y 1 X -1 Y 1 X -1 Y 1 -1 d -2 Y 1 X -1 Y 1 -1 d -1 Y 1 X -1 Y 1 X -2 Y 1 X -1 Y 1 X s 1319 459 m -1 Y 1 -1 d -1 Y 1 -1 d -2 Y 1 X -2 Y 1 X -1 Y 1 X -1 Y 1 X -1 Y 1 X -1 Y 1 X -1 Y s 1327 446 m 1 -2 d -1 Y 1 X -2 Y 1 X -2 Y 1 X -1 Y
 1 -1 d 1 -1 d -1 Y 1 X -1 Y 1 X -1 Y 1 -1 d -2 Y s 1336 430 m 1 X -1 Y 1 -1 d -1 Y 1 X -1 Y 1 X -1 Y 1 -1 d -1 Y 1 X -2 Y 1 X -1 Y 1 -1 d -1 Y 1 X -1 Y s 1345 417 m -1 Y 1 X 1 -1 d -1 Y 1 X 1 -1 d 1 X -2 Y 1 X -1 Y 1 X -1 Y 1 X -1 Y 1 X -1 Y s 1354
 407 m 1 -1 d -1 Y 1 X -1 Y 1 X -1 Y 1 X -2 Y 1 X -1 Y 1 -1 d -1 Y 1 X -2 Y 1 X 1 -1 d s 1363 395 m 1 -1 d -1 Y 1 X -1 Y 1 X -1 Y 1 -1 d -1 Y 1 X -2 Y 1 -1 d -1 Y 1 X -1 Y 1 X s 1371 384 m 1 X -1 Y 1 X 1 -1 d 1 X -2 Y 2 X -1 Y 1 -1 d -1 Y 1 X 1 -1 d
 s 1380 376 m -1 Y 1 X -1 Y 1 X -1 Y 1 X -1 Y 1 X -1 Y 2 X -2 Y 1 X -1 Y 1 X -1 Y 1 X s 1389 367 m 1 -1 d -1 Y 2 X -1 Y 1 X -1 Y 1 X -1 Y 1 X -1 Y 1 X -3 Y 2 X -1 Y s 1398 357 m -1 Y 1 X -1 Y 1 X 1 -1 d -1 Y 1 X -1 Y 1 X -1 Y 1 X -1 Y 1 X -1 Y 1 X -1
 Y 1 X s 1407 348 m -1 Y 1 X 1 -1 d 1 -1 d 1 X -1 Y 1 X -1 Y 2 X -1 Y 1 X -1 Y s 1415 341 m 1 X 1 -1 d -1 Y 1 X -1 Y 1 X -1 Y 2 X -1 Y 1 X -1 Y 2 X s 1424 335 m 1 X -1 Y 1 X -2 Y 2 X -1 Y 2 X -1 Y 1 X -1 Y 2 X -1 Y s 1433 328 m 1 X -1 Y 1 X -1 Y 2 X
 -1 Y 1 X -1 Y 2 X -1 Y 2 X -1 Y s 1442 322 m 1 X -1 Y 3 X -1 Y 1 X -1 Y 1 X 1 -1 d 2 X s 1451 318 m -1 Y 1 X -1 Y 3 X -1 Y 2 X -1 Y 1 X -1 Y 1 X s 1459 313 m 2 X -1 Y 2 X -1 Y 2 X -1 Y 1 X -1 Y 1 X 1 -1 d s 1468 308 m 1 X -1 Y 2 X -1 Y 1 X -1 Y 3 X
 1 -1 d 1 X -1 Y s 1477 303 m 3 X -1 Y 1 X -2 Y 1 X -1 Y 2 X -1 Y 2 X s 1486 298 m -1 Y 3 X -1 Y 2 X -1 Y 2 X -1 Y 2 X s 1495 294 m 1 X -1 Y 2 X -1 Y 1 X -1 Y 1 X -1 Y 2 X -1 Y 1 X s 1503 289 m 2 X -1 Y 2 X -1 Y 1 X -1 Y 1 X 1 -1 d 2 X -1 Y s 1512
 284 m 4 X -1 Y 2 X -1 Y 1 X -1 Y 1 X 1 -1 d s 1521 280 m 1 X -1 Y 2 X -1 Y 1 X 1 Y -1 Y 4 X -1 Y 1 X -1 Y s 1530 276 m 2 X -1 Y 2 X 1 -1 d 1 X -1 Y 1 X -1 Y 2 X s 1539 272 m 1 X 1 -1 d 1 -1 d 2 X -1 Y 2 X -1 Y 1 X s 1547 268 m 1 X 1 -1 d 2 X -1 Y 2
 X -1 Y 1 X -1 Y 2 X s 1556 264 m 2 X 1 -1 d 5 X 1 -1 d s 1565 262 m 3 X -1 Y 2 X -1 Y 3 X 1 -1 d s 1574 259 m 3 X -1 Y 4 X 1 -1 d 1 X s 1583 257 m 3 X -1 Y 2 X -1 Y 3 X -1 Y s 1591 254 m 6 X -1 Y 3 X -1 Y s 1600 252 m 5 X -1 Y 4 X -1 Y s 1609 250 m
 4 X -1 Y 3 X 1 -1 d 1 X s 1618 248 m 3 X -1 Y 3 X -1 Y 3 X s 1627 246 m -1 Y 4 X -1 Y 3 X -1 Y 1 X s 1635 243 m 4 X -1 Y 5 X -1 Y s 1644 241 m 5 X -1 Y 2 X -1 Y 2 X s 1653 239 m -1 Y 6 X -1 Y 2 X -1 Y 1 X s 1662 236 m 3 X -1 Y 2 X -1 Y 4 X s 1671
 234 m 3 X -1 Y 5 X -1 Y s 1679 232 m 6 X -1 Y 3 X s 1688 231 m 4 X -1 Y 5 X -1 Y s 1697 229 m 5 X -1 Y 4 X s 1706 228 m 2 X 1 -1 d 5 X -1 Y 1 X s 1715 226 m 8 X -1 Y s 1723 225 m 6 X -1 Y 2 X -1 Y 1 X s 1732 223 m 6 X -1 Y 3 X s 1741 222 m 1 X -1 Y
 8 X s 1750 221 m -1 Y 5 X 1 -1 d 3 X s 1759 219 m 6 X 1 -1 d 1 X s 1767 218 m 3 X -1 Y 6 X -1 Y s 1776 216 m 9 X -1 Y s 1785 215 m 9 X s 1794 215 m -1 Y 7 X -1 Y 2 X s 1803 213 m 5 X -1 Y 4 X s 1812 212 m 5 X -1 Y 3 X s 1820 211 m 6 X 1 -1 d 2 X s
 1829 210 m 9 X s 1838 210 m 1 X -1 Y 8 X s 1847 209 m 8 X -1 Y 1 X s 1856 208 m 8 X s 1864 208 m 2 X 1 -1 d 6 X s 1873 207 m 5 X 1 -1 d 3 X s 1882 206 m 1 -1 d 8 X s 1891 205 m -1 Y 9 X s 1900 204 m 8 X s 1908 204 m 4 X 1 -1 d 4 X s 1917 203 m 9 X s
 1926 203 m 5 X -1 Y 4 X s 1935 202 m 9 X s 1944 202 m 8 X s 1952 202 m 9 X s 1961 202 m 9 X s 1970 202 m 9 X s 1979 202 m 9 X s 1988 202 m 8 X s 1996 202 m 9 X s 2005 202 m 9 X s 2014 202 m 9 X s 2023 202 m 9 X s 2032 202 m 8 X s 2040 202 m 1 X s 0
 0.666667 0 c 1 1 1 c black 0 0.666667 0 c 245 1032 m 9 X s 254 1032 m 9 X s 263 1032 m 8 X s 271 1032 m 9 X s 280 1032 m 9 X s 289 1032 m 9 X s 298 1032 m 9 X s 307 1032 m 8 X s 315 1032 m 9 X s 324 1032 m 9 X s 333 1032 m 9 X s 342 1032 m 9 X s 351
 1032 m 8 X s 359 1032 m 9 X s 368 1032 m 9 X s 377 1032 m 9 X s 386 1032 m 9 X s 395 1032 m 8 X s 403 1032 m 9 X s 412 1032 m 9 X s 421 1032 m 9 X s 430 1032 m 9 X s 439 1032 m 8 X s 447 1032 m 9 X s 456 1032 m 9 X s 465 1032 m 9 X s 474 1032 m 9 X
 s 483 1032 m 4 X 1 1 d 3 X s 491 1033 m 9 X s 500 1033 m 9 X s 509 1033 m 9 X s 518 1033 m 9 X s 527 1033 m 8 X s 535 1033 m 9 X 1 Y s 544 1034 m 9 X s 553 1034 m 9 X s 562 1034 m 9 X s 571 1034 m 8 X s 579 1034 m 9 X s 588 1034 m 9 X s 597 1034 m 5
 X 1 Y 4 X s 606 1035 m 9 X s 615 1035 m 8 X s 623 1035 m 9 X s 632 1035 m 9 X s 641 1035 m 9 X s 650 1035 m 1 X 1 Y 8 X s 659 1036 m 8 X s 667 1036 m 9 X s 676 1036 m 1 X 1 Y 8 X s 685 1037 m 9 X s 694 1037 m 9 X s 703 1037 m 1 X 1 Y 7 X s 711 1038
 m 9 X s 720 1038 m 4 X 1 Y 5 X s 729 1039 m 9 X 1 Y s 738 1040 m 9 X s 747 1040 m 8 X 1 Y s 755 1041 m 9 X s 764 1041 m 8 X 1 Y 1 X s 773 1042 m 9 X s 782 1042 m 3 X 1 Y 6 X s 791 1043 m 8 X s 799 1043 m 3 X 1 Y 6 X s 808 1044 m 4 X 1 Y 5 X s 817
 1045 m 4 X 1 Y 5 X s 826 1046 m 4 X 1 Y 5 X s 835 1047 m 2 X 1 Y 6 X 1 Y s 843 1049 m 7 X 1 Y 1 X -1 Y 1 X s 852 1049 m 1 1 d 8 X s 861 1050 m 1 1 d 7 X 1 Y 1 X s 870 1052 m 4 X 1 Y 5 X s 879 1053 m 1 X 1 Y 5 X 1 Y 2 X s 887 1055 m 3 X 1 Y 5 X 1 Y 1
 X s 896 1057 m 1 X 1 1 d 3 X 1 Y 4 X 1 Y s 905 1060 m 3 X 1 1 d 4 X 1 Y 1 X s 914 1062 m 4 X 1 Y 4 X 1 Y 1 X s 923 1064 m 2 X 1 Y 3 X 1 1 d 2 X s 931 1066 m 2 X 1 1 d 4 X 1 Y 2 X s 940 1068 m 2 X 1 Y 2 X 1 Y 5 X s 949 1070 m 1 Y 5 X 1 Y 3 X 1 1 d s
 958 1073 m 3 X 1 Y 4 X 1 Y 2 X s 967 1075 m 1 -1 d 1 X 1 Y 4 X 1 Y 2 X s 975 1076 m 1 X 1 Y 3 X 1 Y 3 X 1 Y 2 X s 984 1079 m 2 X 1 Y 2 X 1 1 d 3 X 1 Y 1 X s 993 1082 m 3 X 1 Y 2 X 1 Y 3 X 1 Y 1 X s 1002 1085 m 3 X 1 Y 3 X 1 Y 2 X 1 1 d s 1011 1088 m
 4 X 1 Y 1 X -1 Y 1 X 1 1 d 1 Y 1 X s 1019 1090 m 3 X 1 Y 2 X 1 Y 4 X 1 Y s 1028 1093 m 3 X 1 Y 2 X 1 Y 2 X 1 Y 2 X s 1037 1096 m 1 X 1 Y 4 X 1 Y -1 Y 1 X 1 Y 3 X s 1046 1098 m 1 Y 3 X 1 Y 2 X 1 1 d 2 X 1 Y 1 X s 1055 1102 m 3 X 1 Y -1 Y 1 X 1 Y 3 X
 1 1 d s 1063 1104 m 2 X 1 Y 2 X 1 Y 2 X 1 Y 2 X 1 Y 1 X s 1072 1108 m 1 X 1 Y 2 X 1 Y 1 X 1 Y 2 X 1 Y 1 X -1 Y 2 X s 1081 1111 m 1 X 1 Y 6 X 1 Y 2 X 1 Y s 1090 1114 m 5 X 1 Y 2 X 1 Y 2 X s 1099 1116 m 1 Y 1 X 1 1 d 2 X 1 Y 2 X 1 1 d 1 X 1 Y s 1107
 1121 m 1 X -1 Y 1 1 d 2 X 1 Y 1 X 1 Y 2 X 1 Y 2 X s 1116 1124 m 1 1 d 3 X 1 Y 1 X 1 Y 3 X 1 Y 1 X s 1125 1128 m 1 X 1 1 d 2 X 1 Y 2 X 1 Y 1 X 1 Y 2 X s 1134 1132 m 1 Y 1 X -1 Y 1 Y 3 X 1 Y 2 X 1 Y 2 X 1 1 d s 1143 1136 m 3 X 1 Y 3 X 1 Y 1 X 1 1 d s
 1151 1139 m 3 X 1 1 d 1 X 1 Y 2 X 1 Y 2 X 1 Y s 1160 1143 m 1 X 1 Y 1 X 1 1 d 2 X 1 Y 1 -1 d 1 Y 1 X 1 1 d 1 X s 1169 1147 m 1 Y 1 X -1 Y 1 Y 2 X 1 Y 3 X 1 Y 1 X 1 Y 2 X s 1178 1151 m 1 X 1 Y 2 X 1 Y -1 Y 1 1 d 1 1 d 1 X 1 Y 2 X 1 Y 1 X s 1187 1156
 m 1 X 1 Y 2 X 1 Y 2 X 1 Y 1 X 1 Y 1 -1 d 1 Y 1 X s 1195 1160 m 1 X 1 Y 1 X 1 1 d 1 X 1 Y 2 X 1 Y 2 X 1 Y 1 X s 1204 1165 m 1 X 1 Y 2 X 1 Y 1 X 1 1 d 2 X 1 Y 1 X -1 Y 1 Y 1 X s 1213 1169 m 1 1 d 1 X 1 Y 1 -1 d 1 Y 1 1 d 1 X 1 Y -1 Y 1 X 1 Y 1 X 1 Y 2
 X 1 Y s 1222 1175 m 1 X 1 1 d 2 X 1 Y 2 X 1 1 d 1 X 1 Y 1 X s 1231 1179 m 1 X 1 Y 1 X 1 Y -1 Y 1 X 1 Y 2 X 1 1 d 1 X 1 Y 1 X s 1239 1183 m 3 X 1 1 d 1 X 1 Y 2 X 1 Y 1 -1 d 1 Y -1 Y 1 X s 1248 1185 m 1 X 1 Y 1 X -1 Y 1 Y 1 X 1 Y -1 Y 1 Y 2 X 1 1 d -1
 Y 2 X 1 Y 1 X 1 Y s 1257 1189 m 3 X 1 Y 1 1 d -1 Y 1 Y 1 X 1 Y 1 X 1 Y 2 X 1 Y -1 Y 1 X s 1266 1193 m 1 Y 2 X 1 Y 1 X -1 Y 1 X 1 1 d 1 X 1 Y 1 X 1 Y 2 X s 1275 1197 m 1 Y 2 X 1 Y -2 Y 1 X 1 Y 2 X 1 Y 1 X 1 Y 1 X 1 Y 1 X s 1283 1201 m 2 X 1 Y -1 Y 1
 Y 2 X 1 Y 3 X 1 Y 2 X s 1292 1204 m 1 X 1 Y 1 X 1 Y 1 X 1 Y 1 X 1 Y 2 X 1 Y 1 X 1 1 d 1 1 d 1 Y s 1301 1212 m 1 1 d 2 X 1 Y 2 X 1 Y 2 X 1 Y 1 X 1 1 d s 1310 1217 m 1 X 1 Y -1 Y 1 1 d 1 X 1 Y 2 X 1 Y 2 X 1 Y 1 X 1 Y 1 X s 1319 1222 m 1 X 1 Y 1 X 1 Y
 2 X 1 Y 2 X 1 Y 1 X 1 -1 d s 1327 1225 m 1 1 d 1 X 1 Y 2 X 1 Y 3 X 1 Y 2 X 1 Y s 1336 1230 m 4 X 1 Y 1 X 1 1 d 1 Y 2 X 1 Y -1 Y 1 X s 1345 1233 m -1 Y 1 Y 2 X 1 Y 1 -1 d -1 Y 1 Y 2 X 1 Y 1 X -1 Y 1 Y 2 X 1 1 d s 1354 1235 m 1 X 1 Y 1 X -1 Y 2 X 1 1
 d 1 X 1 Y 1 X -1 Y 1 X 1 Y 1 X s 1363 1237 m 1 X -1 Y 1 X 1 Y 1 X 1 Y 2 X 1 Y 2 X 1 Y 1 X -1 Y s 1371 1239 m 1 X 1 1 d 1 Y 1 X -1 Y 2 X -2 Y 2 X 1 Y -1 Y 2 X 1 Y s 1380 1239 m 2 X 1 Y 2 X 1 Y 3 X 1 1 d 1 X s 1389 1242 m 1 1 d 1 -1 d -2 Y 1 X 1 -2 d
 1 Y -1 Y 1 X 1 Y 1 -1 d 1 Y -1 Y 1 Y 1 X 1 Y 2 X -1 Y 1 Y s 1398 1240 m 1 X 1 -1 d 1 X 1 -1 d 1 X 1 Y 3 X 1 Y -2 Y 1 1 d s 1407 1239 m -2 Y 1 X -1 Y 1 1 d 2 X -1 Y 4 X s 1415 1236 m 1 X 1 Y 2 X 1 Y 5 X -1 Y 1 Y 1 X s 1424 1238 m 1 X 1 Y 1 X -2 Y 6 X
 -1 Y 1 X s 1433 1236 m 1 X -1 Y 1 Y 1 X -2 Y 1 Y 2 X -1 Y 1 Y 1 X -1 Y 1 Y -1 Y 1 1 d 2 X 1 -1 d s 1442 1234 m -1 Y 2 X -1 Y 2 X 1 Y 4 X -2 Y 1 X s 1451 1231 m 1 Y -1 Y 1 X -1 Y 1 X -2 Y 3 X 1 Y -1 Y 3 X s 1459 1228 m 2 X -1 Y 1 -1 d 1 X -1 Y 2 X 1
 Y 1 X -1 Y 1 X -1 Y 1 X s 1468 1224 m 1 X 1 Y -1 Y 1 X -1 Y 1 Y 1 -1 d 1 X -1 Y 1 Y -1 Y 1 -1 d 1 -1 d -1 Y 1 X 1 -1 d 1 X s 1477 1218 m 1 X 1 Y 1 -1 d -1 Y 2 X -1 Y 1 Y 1 X -1 Y 1 X 1 Y 1 X -1 Y 1 Y -1 Y 1 X -1 Y 1 X s 1486 1215 m 1 X -1 Y 1 X -1 Y
 1 X -1 Y 2 X -1 Y 1 X -1 Y 3 X s 1495 1210 m -1 Y 1 X -1 Y 1 Y 2 X 1 Y 2 X 1 Y -1 Y 2 X 1 -1 d 1 Y -1 Y s 1503 1209 m 2 X -2 Y 1 1 d 1 -1 d 1 Y 2 X 1 1 d -1 Y 1 Y -1 Y 2 X s 1512 1208 m 1 X 1 -1 d 3 X -1 Y 2 X 1 Y 2 X -1 Y s 1521 1206 m 1 X 1 1 d -1
 Y 1 Y -1 Y 1 X -2 Y 1 X -1 Y 3 X 1 Y 2 X s 1530 1204 m 1 Y -3 Y 1 X -1 Y 2 X -1 Y 1 X -1 Y 1 1 d 1 X -4 Y 1 X -1 Y 1 X 1 -1 d s 1539 1194 m 1 Y -1 Y 2 X 1 Y 1 X 6 Y 1 -1 d 1 1 d -2 Y 3 X -1 Y 1 Y s 1547 1199 m 1 -2 d 1 X -1 Y 2 X -2 Y 1 Y 1 X -1 Y 1
 X -1 Y 1 Y 3 X -3 Y s 1556 1191 m 1 X 1 -1 d 1 X -1 Y 1 X -1 Y 1 X -1 Y 1 -2 d -1 Y 1 X -1 Y 2 X s 1565 1183 m -1 Y 1 X -1 Y 1 Y 1 -1 d -2 Y 1 X 1 -1 d -1 Y 1 -1 d -3 Y 2 X -2 Y 1 X -1 Y 1 Y 1 -1 d s 1574 1170 m -1 Y 1 X 2 Y -1 Y 1 X -4 Y 1 X -1 Y 1
 X 1 -1 d 1 X -1 Y 1 Y 1 -1 d -2 Y 1 X -1 Y 1 X s 1583 1160 m -3 Y 1 X -1 Y 1 -1 d 2 X -1 Y 1 X 1 Y -1 Y 1 X -1 Y 1 Y -1 Y 2 X 1 Y -1 Y s 1591 1153 m 1 X -1 Y 1 X -2 Y 2 X -1 Y 1 X -3 Y 1 X 1 -1 d 1 Y 1 -1 d -3 Y 1 1 d -2 Y s 1600 1141 m 1 X -2 Y 1 X
 -1 Y 1 -1 d 1 X -1 Y 1 -1 d -1 Y 1 X -2 Y 1 X -1 Y 1 X -1 Y 1 -1 d 1 Y s 1609 1130 m -1 Y 1 X -1 Y 2 X -1 Y 2 X 1 -1 d -1 Y 1 X -1 Y 1 X 1 -1 d s 1618 1123 m 2 X -1 Y 1 -2 d -1 Y 1 -1 d -1 Y 2 X -2 Y 1 -1 d -1 Y 1 X -1 Y 1 1 d -2 Y s 1627 1111 m 1 X
 -2 Y 1 X -1 Y 1 Y 1 X -1 Y 1 Y -1 Y 1 X 1 -1 d -1 Y 1 -1 d 1 -2 d 1 Y -1 Y 1 -1 d s 1635 1102 m 1 X -3 Y 1 X 1 -1 d -1 Y 1 X -2 Y 1 X -2 Y 1 X -1 Y 1 X -1 Y 1 -1 d -1 Y 1 Y 1 -1 d -2 Y s 1644 1087 m 2 X -2 Y 1 X -1 Y 1 X 1 Y 1 X 1 Y -1 Y 2 X -1 Y 1
 X -2 Y 1 X -1 Y s 1653 1081 m 1 Y 1 X -2 Y 1 X -4 Y 1 X -1 Y 1 X -2 Y 1 X -2 Y 2 X -4 Y 1 X -1 Y 1 Y -1 Y 1 X -1 Y s 1662 1065 m 1 -1 d -5 Y 1 X -4 Y 1 X 1 Y 1 -1 d -2 Y 1 -1 d -2 Y 1 X -2 Y 1 X 1 -1 d 1 -1 d s 1671 1046 m -1 Y 1 X -3 Y 1 -1 d 1 Y
 -1 Y 1 X -2 Y 1 -1 d -1 Y 1 X -1 Y 1 X -2 Y 1 X -1 Y 1 -1 d -1 Y 1 Y s 1679 1032 m 1 -1 d -2 Y 1 X -1 Y 1 X -2 Y 1 X -3 Y 1 X -2 Y 1 X -3 Y 1 X -2 Y 1 X -2 Y 1 X -1 Y s 1688 1013 m 1 -1 d 1 X -1 Y 1 X -1 Y 1 X -3 Y 1 -1 d -2 Y 1 X -1 Y 1 -2 d 1 Y -1
 Y 1 X -2 Y 1 X s 1697 999 m -1 Y 1 X -2 Y 1 X 1 Y -4 Y 1 X -1 Y 1 X -2 Y 2 X -1 Y 1 -1 d -1 Y 2 X -1 Y s 1706 986 m 1 -2 d -3 Y 1 -1 d -2 Y 1 X -1 Y 1 -1 d 1 X -1 Y 1 -1 d -1 Y 1 X -2 Y 1 X 1 -1 d s 1715 970 m -3 Y 1 X -1 Y 1 -2 d -2 Y 1 X -2 Y 1 X
 -1 Y 1 Y -1 Y 1 X -3 Y 1 -1 d -3 Y 1 -1 d -2 Y 1 X -1 Y s 1723 948 m 1 X -3 Y 1 X -1 Y 1 Y -2 Y 1 X -2 Y 1 X -3 Y 1 X -1 Y 1 Y -1 Y 1 X -2 Y 1 X -1 Y 1 X -3 Y 1 X -3 Y s 1732 928 m -1 Y 1 -1 d -2 Y 1 X -3 Y 1 X -4 Y 1 X 1 -1 d -1 Y 1 -1 d -1 Y 4 Y 1
 -1 d -2 Y 1 X -2 Y 1 Y 1 -1 d -4 Y s 1741 908 m -1 Y 1 X -2 Y 1 -1 d -2 Y 1 X -2 Y 1 X -1 Y 1 X 1 Y -1 Y 1 X 1 Y -1 Y 1 -1 d 1 Y -1 Y 1 X -2 Y 2 Y -1 Y 1 X s 1750 897 m -1 Y 1 X -1 Y 1 X -1 Y 1 Y -1 Y 1 -1 d -2 Y 1 -1 d -2 Y 1 X -1 Y 1 -1 d -3 Y 1
 -1 d -4 Y 1 X -1 Y 1 -1 d -1 Y s 1759 875 m -1 Y 2 Y 1 -1 d -1 Y 1 X -3 Y 1 -1 d -1 Y 1 -1 d -2 Y 1 X -5 Y 1 X -2 Y 1 X -2 Y 1 X -2 Y s 1767 855 m 1 X -2 Y 1 -4 d -2 Y 1 X -1 Y 1 Y -1 Y 1 X -3 Y 1 -1 d -1 Y 1 -1 d -1 Y 1 -1 d -2 Y 1 X -1 Y 1 X -1 Y
 s 1776 834 m -1 Y 1 X -2 Y 1 -2 d -1 Y 1 -2 d -4 Y 1 X -2 Y 1 X -1 Y 1 Y 1 X -3 Y 1 X -1 Y 1 X -2 Y 1 -1 d -3 Y s 1785 810 m -2 Y 1 -2 d -2 Y 1 X -4 Y 1 X -1 Y 1 -1 d 1 Y -2 Y 1 -1 d -5 Y 1 X -2 Y 1 -2 d 1 Y -3 Y 1 -2 d -2 Y 1 X -1 Y s 1794 780 m 1
 Y -1 Y 1 X -2 Y 1 -1 d -2 Y 1 X -2 Y 1 X -3 Y 1 X -2 Y 1 -2 d -1 Y 1 -1 d -3 Y 1 X -1 Y 1 -3 d s 1803 757 m -1 Y 1 X -2 Y 1 X -2 Y 1 X -2 Y 1 Y 1 X -1 Y 1 -1 d -2 Y 1 X -1 Y 1 X -2 Y 1 -1 d -1 Y 1 -1 d s 1812 741 m -3 Y 1 X -1 Y 1 -1 d -3 Y 1 X -3 Y
 1 X -3 Y 1 X -2 Y 1 Y 1 -1 d 1 -1 d -2 Y 1 X -3 Y s 1820 719 m -3 Y 1 X 1 -1 d -4 Y 1 -2 d -2 Y 1 X -2 Y 1 -1 d 1 Y -1 Y 1 X -4 Y 1 -1 d -1 Y 1 X -3 Y 1 X s 1829 695 m -3 Y 1 X -2 Y 1 -1 d -4 Y 1 X -2 Y 1 X -3 Y 1 Y -2 Y 1 -1 d 1 Y -2 Y 1 -2 d -2 Y
 1 -1 d -1 Y 1 -1 d -1 Y 1 X -1 Y s 1838 668 m 1 X 1 Y -2 Y 1 X -3 Y 1 -1 d -5 Y 1 X -1 Y 1 X -2 Y 1 X -2 Y 1 -1 d -4 Y 1 -1 d -3 Y 1 X -1 Y s 1847 643 m -1 Y 1 -1 d -1 Y 1 -1 d -6 Y 1 X -4 Y 1 X -1 Y 1 X -1 Y 1 X -2 Y 1 -1 d -2 Y 1 -2 d -1 Y 3 Y -2
 Y 1 -2 d s 1856 618 m -4 Y 1 -1 d -2 Y 1 -2 d -3 Y 1 -1 d -4 Y 1 X -5 Y 1 -1 d -2 Y 1 -1 d -2 Y 1 -1 d 1 Y -3 Y 1 -1 d -2 Y s 1864 584 m -1 Y 1 -1 d -2 Y 1 -1 d -3 Y 1 1 d -1 Y 1 X 1 Y -2 Y 1 -1 d 1 Y -2 Y 1 X -4 Y 1 -1 d -3 Y 1 X -1 Y 1 Y -1 Y 1 X
 -2 Y s 1873 562 m -1 Y 1 -1 d 1 -1 d -3 Y 1 X -2 Y 1 X -2 Y 1 X -5 Y 1 X -3 Y 1 X 1 Y -2 Y 1 -1 d -1 Y 1 X -5 Y s 1882 536 m -2 Y 1 1 d -2 Y 1 X -2 Y 1 Y -2 Y 1 -2 d -3 Y 1 Y -1 Y 1 -1 d -2 Y 1 -1 d -2 Y 1 Y 1 -1 d -2 Y 1 -1 d -2 Y 1 Y -1 Y 1 -1 d
 -1 Y 1 -1 d s 1891 511 m 1 X -3 Y 1 X -1 Y 1 -1 d -1 Y 1 -1 d -2 Y 1 X -4 Y 1 -1 d -2 Y 1 X -4 Y 1 X -3 Y 1 -2 d s 1900 486 m -3 Y 1 X -3 Y 1 -1 d -1 Y 1 -1 d -3 Y 1 -1 d -2 Y 1 X -3 Y 1 X -5 Y 1 -2 d -3 Y 1 1 d -1 Y 1 Y s 1908 459 m 1 -2 d -3 Y 1
 -1 d -6 Y 1 -1 d -2 Y 1 -1 d -4 Y 1 X -1 Y 1 -1 d -3 Y 1 X -5 Y 1 -1 d -1 Y 1 -1 d -3 Y s 1917 423 m 1 -2 d -3 Y 1 X -2 Y 1 -2 d -3 Y 1 X -2 Y 1 -2 d -2 Y 1 -2 d -2 Y 1 -1 d -2 Y 1 -1 d -2 Y 1 X -1 Y 1 Y s 1926 395 m -1 Y 1 X -2 Y 1 X 3 Y -3 Y 1 X
 -1 Y 1 Y -1 Y 1 -1 d -2 Y 1 -1 d -5 Y 1 X -4 Y 1 -1 d -1 Y 1 -1 d -2 Y 1 -1 d s 1935 372 m -3 Y 1 X -3 Y 1 -1 d -3 Y 1 X -3 Y 1 X -4 Y 1 X -4 Y 1 X -3 Y 1 X -1 Y 1 X -2 Y 1 X s 1944 345 m -3 Y 1 Y -1 Y 1 X -5 Y 1 X -1 Y 3 Y 1 X -5 Y 1 X -1 Y 1 X -1
 Y 1 X -4 Y 1 X -3 Y 1 X -3 Y s 1952 322 m 1 X -2 Y 1 X -2 Y 1 X -1 Y 1 -1 d -2 Y 1 -1 d -1 Y 1 X -3 Y 1 -1 d -1 Y 1 -1 d -2 Y 1 X -3 Y s 1961 301 m 1 -1 d -1 Y 1 -1 d -5 Y 1 -1 d -3 Y 1 -1 d -1 Y 1 X -2 Y 1 X -1 Y 1 X -2 Y 1 -2 d -2 Y 1 -1 d s 1970
 277 m -1 Y 1 -2 d -4 Y 1 X -1 Y 1 -1 d -1 Y 1 X -2 Y 1 X -3 Y 1 -1 d 1 Y 1 -1 d -2 Y 1 -1 d -1 Y 1 X -1 Y s 1979 256 m -6 Y 1 X -2 Y 1 X -2 Y 1 X -1 Y 1 Y -2 Y 1 -1 d -2 Y 1 X -1 Y 1 X -1 Y 1 X -1 Y 1 Y 1 -1 d -2 Y 1 X s 1988 236 m -1 Y 1 1 d -1 Y 1
 1 d -3 Y 1 X 1 Y -2 Y 1 X -1 Y 1 X -1 Y 1 -1 d 1 Y -1 Y 1 X -1 Y 1 X -1 Y s 1996 227 m 1 -1 d -1 Y 1 X -1 Y 1 X -2 Y 1 X -1 Y 1 X -1 Y 1 Y -1 Y 1 X -1 Y 1 X 4 Y 1 X -1 Y 1 -1 d -1 Y s 2005 220 m 1 -1 d 1 Y 1 -2 d 2 X -1 Y 1 -1 d 1 Y -1 Y 1 X -1 Y 2
 X -1 Y 1 X -1 Y s 2014 213 m 1 X 1 -1 d -1 Y 2 X -1 Y 2 X -1 Y 3 X s 2023 209 m 1 X -1 Y 1 X -1 Y 3 X 1 Y -1 Y 1 X -1 Y 2 X -1 Y 1 Y 1 -1 d s 2032 205 m 2 X -2 Y 6 X s 2040 203 m 1 X s black 3 lw 245 202 m 1796 X s 347 242 m -40 Y s 419 222 m -20 Y
 s 490 222 m -20 Y s 562 222 m -20 Y s 633 222 m -20 Y s 705 242 m -40 Y s 777 222 m -20 Y s 848 222 m -20 Y s 920 222 m -20 Y s 991 222 m -20 Y s 1063 242 m -40 Y s 1135 222 m -20 Y s 1206 222 m -20 Y s 1278 222 m -20 Y s 1349 222 m -20 Y s 1421 242
 m -40 Y s 1493 222 m -20 Y s 1564 222 m -20 Y s 1636 222 m -20 Y s 1707 222 m -20 Y s 1779 242 m -40 Y s 347 242 m -40 Y s 275 222 m -20 Y s 1779 242 m -40 Y s 1851 222 m -20 Y s 1922 222 m -20 Y s 1994 222 m -20 Y s 245 202 m 1145 Y s 291 202 m -46
 X s 268 254 m -23 X s 268 306 m -23 X s 268 358 m -23 X s 291 410 m -46 X s 268 462 m -23 X s 268 514 m -23 X s 268 566 m -23 X s 291 618 m -46 X s 268 670 m -23 X s 268 722 m -23 X s 268 775 m -23 X s 291 827 m -46 X s 268 879 m -23 X s 268 931 m
 -23 X s 268 983 m -23 X s 291 1035 m -46 X s 268 1087 m -23 X s 268 1139 m -23 X s 268 1191 m -23 X s 291 1243 m -46 X s 291 1243 m -46 X s 268 1295 m -23 X s 268 1347 m -23 X s 0.490196 0.545098 0.615686 c 1 1 1 c 0.490196 0.545098 0.615686 c 907
 202 245 1347 bl 245 1347 m 907 X s 1152 1347 m 202 Y s 1152 1549 m -907 X s 245 1549 m -202 Y s black
 gsave  2268 1684 0 0 C 515.735 1478.95 t 0 r /Helvetica-Bold findfont 53.0904 sf 0 0 m (Signal efficiency) show NC gr  0 0 0.933333 c 9 lw 286 1499 m 190 X s black
 gsave  2268 1684 0 0 C 515.735 1376.56 t 0 r /Helvetica-Bold findfont 53.0904 sf 0 0 m (Background efficiency) show NC gr  1 0 0 c 286 1397 m 190 X s 0.490196 0.545098 0.615686 c 3 lw 1 1 1 c 0.490196 0.545098 0.615686 c 889 202 1152 1347 bl 1152
 1347 m 889 X s 2041 1347 m 202 Y s 2041 1549 m -889 X s 1152 1549 m -202 Y s black
 gsave  2268 1684 0 0 C 1418.27 1501.7 t 0 r /Helvetica-Bold findfont 56.8825 sf 0 0 m (Signal purity) show NC gr  0 0 0.933333 c[  52 12 ] 0 sd 6 lw 1192 1515 m 187 X s black
 gsave  2268 1684 0 0 C 1418.27 1433.44 t 0 r /Helvetica-Bold findfont 56.8825 sf 0 0 m (Signal efficiency*purity) show NC gr  0 0 0.933333 c[  22 12 ] 0 sd 1192 1448 m 187 X s black
 gsave  2268 1684 0 0 C 1501.7 1368.97 t 0 r /Helvetica-Bold findfont 56.8825 sf 0 0 m (S+B) show NC gr [  ] 0 sd 1483 1414 m 7 -49 d s 3 lw 1490 1365 m 8 65 d s 1498 1430 m 114 X s
 gsave  2268 1684 0 0 C 1418.27 1368.97 t 0 r /Helvetica-Bold findfont 56.8825 sf 0 0 m (S/) show NC gr  0 0.666667 0 c 9 lw 1192 1381 m 187 X s black 3 lw 245 1243 m 1796 X s
 gsave  2268 1684 0 0 C 337.503 390.593 t 0 r /Helvetica-Bold findfont 53.0904 sf 0 0 m (For 1000 signal and 1000 background) show NC gr 
 gsave  2268 1684 0 0 C 1065.6 322.334 t 0 r /Helvetica-Bold findfont 53.0904 sf 0 0 m ( is) show NC gr 
 gsave  2268 1684 0 0 C 963.211 322.334 t 0 r /Helvetica-Bold findfont 53.0904 sf 0 0 m (S+B) show NC gr  6 lw 940 364 m 8 -45 d s 3 lw 948 319 m 8 60 d s 956 379 m 110 X s
 gsave  2268 1684 0 0 C 337.503 322.334 t 0 r /Helvetica-Bold findfont 53.0904 sf 0 0 m (events the maximum S/) show NC gr 
 gsave  2268 1684 0 0 C 337.503 254.075 t 0 r /Helvetica-Bold findfont 53.0904 sf 0 0 m (28.04 when cutting at \2550.09) show NC gr  0.490196 0.545098 0.615686 c 0.364706 0.419608 0.490196 c 1554 100 23 1575 bf 0.490196 0.545098 0.615686 c 23 1575 m
 1554 X s 1577 1575 m 100 Y s 1577 1675 m -1554 X s 23 1675 m -100 Y s 1 1 1 c black 1 1 1 c
 gsave  2268 1684 0 0 C 75.8434 1604.09 t 0 r /Helvetica-Bold findfont 79.6355 sf 0 0 m (Cut efficiencies and optimal cut value) show NC gr  0 0.666667 0 c 2041 202 m 1145 Y s 1995 202 m 46 X s 2018 239 m 23 X s 2018 276 m 23 X s 2018 313 m 23 X s
 2018 351 m 23 X s 1995 388 m 46 X s 2018 425 m 23 X s 2018 462 m 23 X s 2018 499 m 23 X s 2018 536 m 23 X s 1995 573 m 46 X s 2018 610 m 23 X s 2018 647 m 23 X s 2018 685 m 23 X s 2018 722 m 23 X s 1995 759 m 46 X s 2018 796 m 23 X s 2018 833 m 23 X
 s 2018 870 m 23 X s 2018 907 m 23 X s 1995 944 m 46 X s 2018 982 m 23 X s 2018 1019 m 23 X s 2018 1056 m 23 X s 2018 1093 m 23 X s 1995 1130 m 46 X s 2018 1167 m 23 X s 2018 1204 m 23 X s 2018 1241 m 23 X s 2018 1278 m 23 X s 1995 1316 m 46 X s 1995
 1316 m 46 X s black 0 0.666667 0 c
 gsave  2268 1684 0 0 C 2051.56 178.232 t 0 r /Helvetica-Bold findfont 64.4669 sf 0 0 m (0) show NC gr  black 0 0.666667 0 c
 gsave  2268 1684 0 0 C 2051.56 364.048 t 0 r /Helvetica-Bold findfont 64.4669 sf 0 0 m (5) show NC gr  black 0 0.666667 0 c
 gsave  2268 1684 0 0 C 2051.56 549.864 t 0 r /Helvetica-Bold findfont 64.4669 sf 0 0 m (10) show NC gr  black 0 0.666667 0 c
 gsave  2268 1684 0 0 C 2051.56 735.681 t 0 r /Helvetica-Bold findfont 64.4669 sf 0 0 m (15) show NC gr  black 0 0.666667 0 c
 gsave  2268 1684 0 0 C 2051.56 921.497 t 0 r /Helvetica-Bold findfont 64.4669 sf 0 0 m (20) show NC gr  black 0 0.666667 0 c
 gsave  2268 1684 0 0 C 2051.56 1103.52 t 0 r /Helvetica-Bold findfont 64.4669 sf 0 0 m (25) show NC gr  black 0 0.666667 0 c
 gsave  2268 1684 0 0 C 2051.56 1289.34 t 0 r /Helvetica-Bold findfont 64.4669 sf 0 0 m (30) show NC gr  black 0 0.666667 0 c
 gsave  2268 1684 0 0 C 2203.25 967.003 t 90 r /Helvetica-Bold findfont 64.4669 sf 0 0 m (Significance) show NC gr 
 gr  gr showpage
end
%%EOF
