%!PS-Adobe-2.0 EPSF-2.0
%%BoundingBox:  0 0 567 421
%%Title: dataset_class_comb2_all/plots/mvaeffs_Cuts.eps: Cut efficiencies for Cuts classifier
%%Creator: ROOT Version 6.18/00
%%CreationDate: Sat Sep 14 15:06:39 2019
%%DocumentNeededResources: ProcSet (FontSetInit)
%%EndComments
%%BeginProlog
80 dict begin
/s {stroke} def /l {lineto} def /m {moveto} def /t {translate} def
/r {rotate} def /rl {roll}  def /R {repeat} def
/d {rlineto} def /rm {rmoveto} def /gr {grestore} def /f {eofill} def
/c {setrgbcolor} def /black {0 setgray} def /sd {setdash} def
/cl {closepath} def /sf {scalefont setfont} def /lw {setlinewidth} def
/box {m dup 0 exch d exch 0 d 0 exch neg d cl} def
/NC{systemdict begin initclip end}def/C{NC box clip newpath}def
/bl {box s} def /bf {gsave box gsave f grestore 1 lw [] 0 sd s grestore} def /Y { 0 exch d} def /X { 0 d} def 
/K {{pop pop 0 moveto} exch kshow} bind def
/ita {/ang 15 def gsave [1 0 ang dup sin exch cos div 1 0 0] concat} def 
/mp {newpath /y exch def /x exch def} def
/side {[w .77 mul w .23 mul] .385 w mul sd w 0 l currentpoint t -144 r} def
/mr {mp x y w2 0 360 arc} def /m24 {mr s} def /m20 {mr f} def
/mb {mp x y w2 add m w2 neg 0 d 0 w neg d w 0 d 0 w d cl} def
/mt {mp x y w2 add m w2 neg w neg d w 0 d cl} def
/w4 {w 4 div} def
/w6 {w 6 div} def
/w8 {w 8 div} def
/m21 {mb f} def /m25 {mb s} def /m22 {mt f} def /m26{mt s} def
/m23 {mp x y w2 sub m w2 w d w neg 0 d cl f} def
/m27 {mp x y w2 add m w3 neg w2 neg d w3 w2 neg d w3 w2 d cl s} def
/m28 {mp x w2 sub y w2 sub w3 add m w3 0 d  0 w3 neg d w3 0 d 0 w3 d w3 0 d  0 w3 d w3 neg 0 d 0 w3 d w3 neg 0 d 0 w3 neg d w3 neg 0 d cl s } def
/m29 {mp gsave x w2 sub y w2 add w3 sub m currentpoint t 4 {side} repeat cl fill gr} def
/m30 {mp gsave x w2 sub y w2 add w3 sub m currentpoint t 4 {side} repeat cl s gr} def
/m31 {mp x y w2 sub m 0 w d x w2 sub y m w 0 d x w2 sub y w2 add m w w neg d x w2 sub y w2 sub m w w d s} def
/m32 {mp x y w2 sub m w2 w d w neg 0 d cl s} def
/m33 {mp x y w2 add m w3 neg w2 neg d w3 w2 neg d w3 w2 d cl f} def
/m34 {mp x w2 sub y w2 sub w3 add m w3 0 d  0 w3 neg d w3 0 d 0 w3 d w3 0 d  0 w3 d w3 neg 0 d 0 w3 d w3 neg 0 d 0 w3 neg d w3 neg 0 d cl f } def
/m35 {mp x y w2 add m w2 neg w2 neg d w2 w2 neg d w2 w2 d w2 neg w2 d x y w2 sub m 0 w d x w2 sub y m w 0 d s} def
/m36 {mb x w2 sub y w2 add m w w neg d x w2 sub y w2 sub m w w d s} def
/m37 {mp x y m w4 neg w2 d w4 neg w2 neg d w2 0 d  w4 neg w2 neg d w2 0 d w4 neg w2 d w2 0 d w4 neg w2 d w4 neg w2 neg d cl s} def
/m38 {mp x w4 sub y w2 add m w4 neg w4 neg d 0 w2 neg d w4 w4 neg d w2 0 d w4 w4 d 0 w2 d w4 neg w4 d w2 neg 0 d x y w2 sub m 0 w d x w2 sub y m w 0 d cl s} def
/m39 {mp x y m w4 neg w2 d w4 neg w2 neg d w2 0 d  w4 neg w2 neg d w2 0 d w4 neg w2 d w2 0 d w4 neg w2 d w4 neg w2 neg d cl f} def
/m40 {mp x y m w4 w2 d w4 w4 neg d w2 neg w4 neg d w2 w4 neg d w4 neg w4 neg d w4 neg w2 d w4 neg w2 neg d w4 neg w4 d w2 w4 d w2 neg w4 d w4 w4 d w4 w2 neg d cl s} def
/m41 {mp x y m w4 w2 d w4 w4 neg d w2 neg w4 neg d w2 w4 neg d w4 neg w4 neg d w4 neg w2 d w4 neg w2 neg d w4 neg w4 d w2 w4 d w2 neg w4 d w4 w4 d w4 w2 neg d cl f} def
/m42 {mp x y w2 add m w8 neg w2 -3 4 div mul d w2 -3 4 div mul w8 neg d w2 3 4 div mul w8 neg d w8 w2 -3 4 div mul d w8 w2 3 4 div mul d w2 3 4 div mul w8 d w2 -3 4 div mul w8 d w8 neg w2 3 4 div mul d cl s} def
/m43 {mp x y w2 add m w8 neg w2 -3 4 div mul d w2 -3 4 div mul w8 neg d w2 3 4 div mul w8 neg d w8 w2 -3 4 div mul d w8 w2 3 4 div mul d w2 3 4 div mul w8 d w2 -3 4 div mul w8 d w8 neg w2 3 4 div mul d cl f} def
/m44 {mp x y m w6 neg w2 d w2 2 3 div mul 0 d w6 neg w2 neg d w2 w6 d 0 w2 -2 3 div mul d w2 neg w6 d w6 w2 neg d w2 -2 3 div mul 0 d w6 w2 d w2 neg w6 neg d 0 w2 2 3 div mul d w2 w6 neg d cl s} def
/m45 {mp x y m w6 neg w2 d w2 2 3 div mul 0 d w6 neg w2 neg d w2 w6 d 0 w2 -2 3 div mul d w2 neg w6 d w6 w2 neg d w2 -2 3 div mul 0 d w6 w2 d w2 neg w6 neg d 0 w2 2 3 div mul d w2 w6 neg d cl f} def
/m46 {mp x y w4 add m w4 neg w4 d w4 neg w4 neg d  w4 w4 neg d w4 neg w4 neg d w4 w4 neg d w4 w4 d w4 w4 neg d w4 w4 d w4 neg w4 d w4 w4 d w4 neg w4 d w4 neg w4 neg d cl s} def
/m47 {mp x y w4 add m w4 neg w4 d w4 neg w4 neg d w4 w4 neg d w4 neg w4 neg d  w4 w4 neg d w4 w4 d w4 w4 neg d w4 w4 d w4 neg w4 d w4 w4 d w4 neg w4 d w4 neg w4 neg d cl f} def
/m48 {mp x y w4 add m w4 neg w4 d w4 neg w4 neg d w4 w4 neg d  w4 neg w4 neg d w4 w4 neg d w4 w4 d w4 w4 neg d w4 w4 d w4 neg w4 d w4 w4 d w4 neg w4 d w4 neg w4 neg d  w4 w4 neg d w4 neg w4 neg d w4 neg w4 d w4 w4 d cl f} def
/m49 {mp x w2 sub w3 add y w2 sub w3 add m  0 w3 neg d w3 0 d 0 w3 d w3 0 d 0 w3 d w3 neg 0 d 0 w3 d w3 neg 0 d 0 w3 neg d w3 neg 0 d 0 w3 neg d w3 0 d 0 w3 d w3 0 d 0 w3 neg d w3 neg 0 d cl f } def
/m2 {mp x y w2 sub m 0 w d x w2 sub y m w 0 d s} def
/m5 {mp x w2 sub y w2 sub m w w d x w2 sub y w2 add m w w neg d s} def
%%IncludeResource: ProcSet (FontSetInit)
%%IncludeResource: font Times-Roman
%%IncludeResource: font Times-Italic
%%IncludeResource: font Times-Bold
%%IncludeResource: font Times-BoldItalic
%%IncludeResource: font Helvetica
%%IncludeResource: font Helvetica-Oblique
%%IncludeResource: font Helvetica-Bold
%%IncludeResource: font Helvetica-BoldOblique
%%IncludeResource: font Courier
%%IncludeResource: font Courier-Oblique
%%IncludeResource: font Courier-Bold
%%IncludeResource: font Courier-BoldOblique
%%IncludeResource: font Symbol
%%IncludeResource: font ZapfDingbats
/reEncode {exch findfont dup length dict begin {1 index /FID eq  {pop pop} {def} ifelse } forall /Encoding exch def currentdict end dup /FontName get exch definefont pop } def [/Times-Bold /Times-Italic /Times-BoldItalic /Helvetica /Helvetica-Oblique
 /Helvetica-Bold /Helvetica-BoldOblique /Courier /Courier-Oblique /Courier-Bold /Courier-BoldOblique /Times-Roman /AvantGarde-Book /AvantGarde-BookOblique /AvantGarde-Demi /AvantGarde-DemiOblique /Bookman-Demi /Bookman-DemiItalic /Bookman-Light
 /Bookman-LightItalic /Helvetica-Narrow /Helvetica-Narrow-Bold /Helvetica-Narrow-BoldOblique /Helvetica-Narrow-Oblique /NewCenturySchlbk-Roman /NewCenturySchlbk-Bold /NewCenturySchlbk-BoldItalic /NewCenturySchlbk-Italic /Palatino-Bold
 /Palatino-BoldItalic /Palatino-Italic /Palatino-Roman ] {ISOLatin1Encoding reEncode } forall
%%EndProlog
%%BeginSetup
%%EndSetup
newpath  gsave  .25 .25 scale  gsave  0 0 t 0.490196 0.545098 0.615686 c[  ] 0 sd 3 lw 0.941176 0.941176 0.941176 c 2268 1684 0 0 bf black 1 1 0.992157 c 1796 1145 245 202 bf black 1796 1145 245 202 bl 1 1 0.992157 c 1796 1145 245 202 bf black 1796
 1145 245 202 bl 245 202 m 1796 X s[ 4 8] 0 sd 245 1347 m -1145 Y s 604 1347 m -1145 Y s 963 1347 m -1145 Y s 1323 1347 m -1145 Y s 1682 1347 m -1145 Y s 2041 1347 m -1145 Y s 2041 1347 m -1145 Y s[  ] 0 sd 245 202 m 1145 Y s[ 4 8] 0 sd 2041 202 m
 -1796 X s 2041 410 m -1796 X s 2041 618 m -1796 X s 2041 827 m -1796 X s 2041 1035 m -1796 X s 2041 1243 m -1796 X s 2041 1243 m -1796 X s 0 0 0.933333 c[  22 12 ] 0 sd 6 lw 0.49 0.6 0.82 c black 0 0 0.933333 c 254 202 m 18 8 d 18 11 d 18 14 d 18 3
 d 18 16 d 18 4 d 18 16 d 18 22 d 18 -10 d 17 22 d 18 -10 d 18 16 d 18 23 d 18 -14 d 18 39 d 18 -8 d 18 -2 d 18 14 d 18 X 18 38 d 18 16 d 18 -3 d 18 -2 d 18 38 d 18 8 d 18 -7 d 18 11 d 18 -12 d 18 24 d 18 27 d 18 -4 d 18 -6 d 18 15 d 18 29 d 18 1 d
 17 -11 d 18 16 d 18 12 d 18 17 d 18 8 d 18 -13 d 18 49 d 18 -26 d 18 25 d 18 -3 d 18 2 d 18 8 d 18 21 d 18 47 d s 1134 691 m 18 -25 d 18 X 18 15 d 18 4 d 18 25 d 18 -16 d 18 2 d 18 17 d 18 X 18 32 d 18 -5 d 17 -19 d 18 33 d 18 -9 d 18 18 d 18 -76 d
 18 100 d 18 -13 d 18 17 d 18 26 d 18 -71 d 18 89 d 18 -5 d 18 -11 d 18 13 d 18 7 d 18 22 d 18 -46 d 18 -88 d 18 88 d 18 -613 d 18 591 d 18 -591 d 18 582 d 18 -582 d 71 X 18 634 d 18 -634 d 144 X s 2014 202 m 18 X s black[  ] 0 sd 3 lw 245 202 m 1796
 X s 245 242 m -40 Y s 335 222 m -20 Y s 425 222 m -20 Y s 514 222 m -20 Y s 604 242 m -40 Y s 694 222 m -20 Y s 784 222 m -20 Y s 874 222 m -20 Y s 963 242 m -40 Y s 1053 222 m -20 Y s 1143 222 m -20 Y s 1233 222 m -20 Y s 1323 242 m -40 Y s 1412
 222 m -20 Y s 1502 222 m -20 Y s 1592 222 m -20 Y s 1682 242 m -40 Y s 1772 222 m -20 Y s 1861 222 m -20 Y s 1951 222 m -20 Y s 2041 242 m -40 Y s 2041 242 m -40 Y s
 gsave  2268 1684 0 0 C 223.738 128.934 t 0 r /Helvetica-Bold findfont 64.4669 sf 0 0 m (0) show NC gr 
 gsave  2268 1684 0 0 C 557.449 128.934 t 0 r /Helvetica-Bold findfont 64.4669 sf 0 0 m (0.2) show NC gr 
 gsave  2268 1684 0 0 C 917.705 128.934 t 0 r /Helvetica-Bold findfont 64.4669 sf 0 0 m (0.4) show NC gr 
 gsave  2268 1684 0 0 C 1274.17 128.934 t 0 r /Helvetica-Bold findfont 64.4669 sf 0 0 m (0.6) show NC gr 
 gsave  2268 1684 0 0 C 1634.42 128.934 t 0 r /Helvetica-Bold findfont 64.4669 sf 0 0 m (0.8) show NC gr 
 gsave  2268 1684 0 0 C 2025.02 128.934 t 0 r /Helvetica-Bold findfont 64.4669 sf 0 0 m (1) show NC gr 
 gsave  2268 1684 0 0 C 1456.19 30.3373 t 0 r /Helvetica-Bold findfont 72.0512 sf 0 0 m (Signal Efficiency) show NC gr  245 202 m 1145 Y s 291 202 m -46 X s 268 254 m -23 X s 268 306 m -23 X s 268 358 m -23 X s 291 410 m -46 X s 268 462 m -23 X s 268
 514 m -23 X s 268 566 m -23 X s 291 618 m -46 X s 268 670 m -23 X s 268 722 m -23 X s 268 775 m -23 X s 291 827 m -46 X s 268 879 m -23 X s 268 931 m -23 X s 268 983 m -23 X s 291 1035 m -46 X s 268 1087 m -23 X s 268 1139 m -23 X s 268 1191 m -23 X
 s 291 1243 m -46 X s 291 1243 m -46 X s 268 1295 m -23 X s 268 1347 m -23 X s
 gsave  2268 1684 0 0 C 182.024 178.232 t 0 r /Helvetica-Bold findfont 64.4669 sf 0 0 m (0) show NC gr 
 gsave  2268 1684 0 0 C 128.934 386.801 t 0 r /Helvetica-Bold findfont 64.4669 sf 0 0 m (0.2) show NC gr 
 gsave  2268 1684 0 0 C 128.934 595.37 t 0 r /Helvetica-Bold findfont 64.4669 sf 0 0 m (0.4) show NC gr 
 gsave  2268 1684 0 0 C 128.934 800.148 t 0 r /Helvetica-Bold findfont 64.4669 sf 0 0 m (0.6) show NC gr 
 gsave  2268 1684 0 0 C 128.934 1008.72 t 0 r /Helvetica-Bold findfont 64.4669 sf 0 0 m (0.8) show NC gr 
 gsave  2268 1684 0 0 C 189.608 1217.29 t 0 r /Helvetica-Bold findfont 64.4669 sf 0 0 m (1) show NC gr 
 gsave  2268 1684 0 0 C 64.4669 735.681 t 90 r /Helvetica-Bold findfont 72.0512 sf 0 0 m (Efficiency \(Purity\)) show NC gr  0 0 0.933333 c[  52 12 ] 0 sd 6 lw 0.49 0.6 0.82 c black 0 0 0.933333 c 254 202 m 18 1013 d 18 -14 d 18 3 d 18 7 d 18 -20 d
 18 10 d 18 -4 d 18 5 d 18 -15 d 17 X 18 -6 d 18 6 d 18 3 d 18 -7 d 18 9 d 18 X 18 -6 d 18 -1 d 18 -1 d 18 4 d 18 -3 d 18 -4 d 18 4 d 18 5 d 18 -3 d 18 -4 d 18 -8 d 18 9 d 18 X 18 7 d 18 -13 d 18 8 d 18 -3 d 18 -3 d 18 7 d 17 -11 d 18 10 d 18 -10 d
 18 -2 d 18 8 d 18 -28 d 18 13 d 18 9 d 18 -7 d 18 -15 d 18 -3 d 18 1 d 18 -10 d 18 26 d s 1134 1168 m 18 -7 d 18 -5 d 18 -13 d 18 -4 d 18 -10 d 18 -17 d 18 6 d 18 13 d 18 -11 d 18 16 d 18 -26 d 17 -62 d 18 74 d 18 -12 d 18 -30 d 18 -116 d 18 111 d
 18 -35 d 18 46 d 18 -3 d 18 -90 d 18 97 d 18 10 d 18 -64 d 18 24 d 18 -2 d 18 42 d 18 -104 d 18 -130 d 18 109 d 18 -773 d 18 738 d 18 -738 d 18 699 d 18 -699 d 71 X 18 705 d 18 -705 d 144 X s 2014 202 m 18 X s[  ] 0 sd 9 lw 0.49 0.6 0.82 c black 0 0
 0.933333 c 254 202 m 18 8 d 18 12 d 18 14 d 18 3 d 18 17 d 18 4 d 18 17 d 18 23 d 18 -9 d 17 23 d 18 -10 d 18 16 d 18 24 d 18 -14 d 18 40 d 18 -9 d 18 X 18 14 d 18 1 d 18 39 d 18 18 d 18 -3 d 18 -2 d 18 38 d 18 9 d 18 -5 d 18 14 d 18 -17 d 18 27 d
 18 26 d 18 X 18 -9 d 18 17 d 18 32 d 18 -2 d 17 -8 d 18 14 d 18 16 d 18 19 d 18 5 d 18 -2 d 18 48 d 18 -32 d 18 30 d 18 4 d 18 3 d 18 8 d 18 28 d 18 38 d s 1134 729 m 18 -24 d 18 3 d 18 24 d 18 7 d 18 33 d 18 -7 d 18 -2 d 18 12 d 18 6 d 18 26 d 18
 12 d 17 21 d 18 -13 d 18 -3 d 18 43 d 18 -3 d 18 36 d 18 13 d 18 -18 d 18 34 d 18 -11 d 18 25 d 18 -13 d 18 42 d 18 -6 d 18 11 d 18 -11 d 18 39 d 18 21 d 18 1 d 18 -825 d 18 833 d 18 -833 d 18 866 d 18 -866 d 71 X 18 936 d 18 -936 d 144 X s 2014 202
 m 18 X s 1 0 0 c black 1 0 0 c 254 202 m 18 X 18 1 d 36 X 18 2 d 18 -1 d 18 1 d 18 1 d 18 1 d 17 1 d 18 X 18 1 d 18 1 d 18 X 18 1 d 18 -1 d 18 1 d 18 1 d 18 X 18 2 d 18 2 d 18 X 18 -1 d 18 1 d 18 2 d 18 X 18 4 d 18 -4 d 18 1 d 18 X 18 4 d 18 -3 d 18
 2 d 18 3 d 18 -3 d 17 4 d 18 -3 d 18 5 d 18 2 d 18 -3 d 18 13 d 18 -3 d 18 -6 d 18 5 d 18 8 d 18 2 d 18 X 18 8 d 18 -11 d s 1134 243 m 18 2 d 18 3 d 18 10 d 18 3 d 18 11 d 18 11 d 18 -4 d 18 -8 d 18 9 d 18 -9 d 18 21 d 17 57 d 18 -65 d 18 9 d 18 33
 d 18 118 d 18 -107 d 18 37 d 18 -49 d 18 9 d 18 94 d 18 -99 d 18 -11 d 18 75 d 18 -28 d 18 4 d 18 -45 d 18 128 d 18 219 d 18 -183 d 18 -286 d 18 342 d 18 -342 d 18 424 d 18 -424 d 71 X 18 446 d 18 -446 d 144 X s 2014 202 m 18 X s 0 0.666667 0 c 1 1
 1 c black 0 0.666667 0 c 254 202 m 880 X s 1134 202 m 880 X s 2014 202 m 18 X s black 3 lw 245 202 m 1796 X s 245 242 m -40 Y s 335 222 m -20 Y s 425 222 m -20 Y s 514 222 m -20 Y s 604 242 m -40 Y s 694 222 m -20 Y s 784 222 m -20 Y s 874 222 m -20
 Y s 963 242 m -40 Y s 1053 222 m -20 Y s 1143 222 m -20 Y s 1233 222 m -20 Y s 1323 242 m -40 Y s 1412 222 m -20 Y s 1502 222 m -20 Y s 1592 222 m -20 Y s 1682 242 m -40 Y s 1772 222 m -20 Y s 1861 222 m -20 Y s 1951 222 m -20 Y s 2041 242 m -40 Y s
 2041 242 m -40 Y s 245 202 m 1145 Y s 291 202 m -46 X s 268 254 m -23 X s 268 306 m -23 X s 268 358 m -23 X s 291 410 m -46 X s 268 462 m -23 X s 268 514 m -23 X s 268 566 m -23 X s 291 618 m -46 X s 268 670 m -23 X s 268 722 m -23 X s 268 775 m -23
 X s 291 827 m -46 X s 268 879 m -23 X s 268 931 m -23 X s 268 983 m -23 X s 291 1035 m -46 X s 268 1087 m -23 X s 268 1139 m -23 X s 268 1191 m -23 X s 291 1243 m -46 X s 291 1243 m -46 X s 268 1295 m -23 X s 268 1347 m -23 X s 0.490196 0.545098
 0.615686 c 1 1 1 c 0.490196 0.545098 0.615686 c 907 202 245 1347 bl 245 1347 m 907 X s 1152 1347 m 202 Y s 1152 1549 m -907 X s 245 1549 m -202 Y s black
 gsave  2268 1684 0 0 C 515.735 1478.95 t 0 r /Helvetica-Bold findfont 53.0904 sf 0 0 m (Signal efficiency) show NC gr  0 0 0.933333 c 9 lw 286 1499 m 190 X s black
 gsave  2268 1684 0 0 C 515.735 1376.56 t 0 r /Helvetica-Bold findfont 53.0904 sf 0 0 m (Background efficiency) show NC gr  1 0 0 c 286 1397 m 190 X s 0.490196 0.545098 0.615686 c 3 lw 1 1 1 c 0.490196 0.545098 0.615686 c 889 202 1152 1347 bl 1152
 1347 m 889 X s 2041 1347 m 202 Y s 2041 1549 m -889 X s 1152 1549 m -202 Y s black
 gsave  2268 1684 0 0 C 1418.27 1501.7 t 0 r /Helvetica-Bold findfont 56.8825 sf 0 0 m (Signal purity) show NC gr  0 0 0.933333 c[  52 12 ] 0 sd 6 lw 1192 1515 m 187 X s black
 gsave  2268 1684 0 0 C 1418.27 1433.44 t 0 r /Helvetica-Bold findfont 56.8825 sf 0 0 m (Signal efficiency*purity) show NC gr  0 0 0.933333 c[  22 12 ] 0 sd 1192 1448 m 187 X s black
 gsave  2268 1684 0 0 C 1501.7 1368.97 t 0 r /Helvetica-Bold findfont 56.8825 sf 0 0 m (S+B) show NC gr [  ] 0 sd 1483 1414 m 7 -49 d s 3 lw 1490 1365 m 8 65 d s 1498 1430 m 114 X s
 gsave  2268 1684 0 0 C 1418.27 1368.97 t 0 r /Helvetica-Bold findfont 56.8825 sf 0 0 m (S/) show NC gr  0 0.666667 0 c 9 lw 1192 1381 m 187 X s black 3 lw 245 1243 m 1796 X s
 gsave  2268 1684 0 0 C 337.503 390.593 t 0 r /Helvetica-Bold findfont 53.0904 sf 0 0 m (For 1000 signal and 1000 background) show NC gr 
 gsave  2268 1684 0 0 C 1065.6 322.334 t 0 r /Helvetica-Bold findfont 53.0904 sf 0 0 m ( is) show NC gr 
 gsave  2268 1684 0 0 C 963.211 322.334 t 0 r /Helvetica-Bold findfont 53.0904 sf 0 0 m (S+B) show NC gr  6 lw 940 364 m 8 -45 d s 3 lw 948 319 m 8 60 d s 956 379 m 110 X s
 gsave  2268 1684 0 0 C 337.503 322.334 t 0 r /Helvetica-Bold findfont 53.0904 sf 0 0 m (events the maximum S/) show NC gr 
 gsave  2268 1684 0 0 C 337.503 254.075 t 0 r /Helvetica-Bold findfont 53.0904 sf 0 0 m (25.16 when cutting at  0.77) show NC gr 
 gsave  2268 1684 0 0 C 291.997 1296.92 t 0 r /Helvetica-Bold findfont 53.0904 sf 0 0 m (Method Cuts provides a bundle of cut selections, each tuned to a) show NC gr 
 gsave  2268 1684 0 0 C 291.997 1247.62 t 0 r /Helvetica-Bold findfont 53.0904 sf 0 0 m (different signal efficiency. Shown is the purity for each cut selection.) show NC gr  0.490196 0.545098 0.615686 c 0.364706 0.419608 0.490196 c 1554 100 23 1575
 bf 0.490196 0.545098 0.615686 c 23 1575 m 1554 X s 1577 1575 m 100 Y s 1577 1675 m -1554 X s 23 1675 m -100 Y s 1 1 1 c black 1 1 1 c
 gsave  2268 1684 0 0 C 75.8434 1604.09 t 0 r /Helvetica-Bold findfont 79.6355 sf 0 0 m (Cut efficiencies and optimal cut value) show NC gr  0 0.666667 0 c 2041 202 m 1145 Y s 1995 202 m 46 X s 2018 243 m 23 X s 2018 285 m 23 X s 2018 326 m 23 X s
 2018 368 m 23 X s 1995 409 m 46 X s 2018 450 m 23 X s 2018 492 m 23 X s 2018 533 m 23 X s 2018 574 m 23 X s 1995 616 m 46 X s 2018 657 m 23 X s 2018 699 m 23 X s 2018 740 m 23 X s 2018 781 m 23 X s 1995 823 m 46 X s 2018 864 m 23 X s 2018 905 m 23 X
 s 2018 947 m 23 X s 2018 988 m 23 X s 1995 1030 m 46 X s 2018 1071 m 23 X s 2018 1112 m 23 X s 2018 1154 m 23 X s 2018 1195 m 23 X s 1995 1236 m 46 X s 1995 1236 m 46 X s 2018 1278 m 23 X s 2018 1319 m 23 X s black 0 0.666667 0 c
 gsave  2268 1684 0 0 C 2051.56 178.232 t 0 r /Helvetica-Bold findfont 64.4669 sf 0 0 m (0) show NC gr  black 0 0.666667 0 c
 gsave  2268 1684 0 0 C 2051.56 383.009 t 0 r /Helvetica-Bold findfont 64.4669 sf 0 0 m (5) show NC gr  black 0 0.666667 0 c
 gsave  2268 1684 0 0 C 2051.56 591.578 t 0 r /Helvetica-Bold findfont 64.4669 sf 0 0 m (10) show NC gr  black 0 0.666667 0 c
 gsave  2268 1684 0 0 C 2051.56 796.355 t 0 r /Helvetica-Bold findfont 64.4669 sf 0 0 m (15) show NC gr  black 0 0.666667 0 c
 gsave  2268 1684 0 0 C 2051.56 1004.92 t 0 r /Helvetica-Bold findfont 64.4669 sf 0 0 m (20) show NC gr  black 0 0.666667 0 c
 gsave  2268 1684 0 0 C 2051.56 1213.49 t 0 r /Helvetica-Bold findfont 64.4669 sf 0 0 m (25) show NC gr  black 0 0.666667 0 c
 gsave  2268 1684 0 0 C 2203.25 967.003 t 90 r /Helvetica-Bold findfont 64.4669 sf 0 0 m (Significance) show NC gr 
 gr  gr showpage
end
%%EOF
