%!PS-Adobe-2.0 EPSF-2.0
%%BoundingBox:  0 0 567 421
%%Title: dataset_class_comb2_all/plots/mvaeffs_BDTG.eps: Cut efficiencies for BDTG classifier
%%Creator: ROOT Version 6.18/00
%%CreationDate: Sat Sep 14 15:11:23 2019
%%DocumentNeededResources: ProcSet (FontSetInit)
%%EndComments
%%BeginProlog
80 dict begin
/s {stroke} def /l {lineto} def /m {moveto} def /t {translate} def
/r {rotate} def /rl {roll}  def /R {repeat} def
/d {rlineto} def /rm {rmoveto} def /gr {grestore} def /f {eofill} def
/c {setrgbcolor} def /black {0 setgray} def /sd {setdash} def
/cl {closepath} def /sf {scalefont setfont} def /lw {setlinewidth} def
/box {m dup 0 exch d exch 0 d 0 exch neg d cl} def
/NC{systemdict begin initclip end}def/C{NC box clip newpath}def
/bl {box s} def /bf {gsave box gsave f grestore 1 lw [] 0 sd s grestore} def /Y { 0 exch d} def /X { 0 d} def 
/K {{pop pop 0 moveto} exch kshow} bind def
/ita {/ang 15 def gsave [1 0 ang dup sin exch cos div 1 0 0] concat} def 
/mp {newpath /y exch def /x exch def} def
/side {[w .77 mul w .23 mul] .385 w mul sd w 0 l currentpoint t -144 r} def
/mr {mp x y w2 0 360 arc} def /m24 {mr s} def /m20 {mr f} def
/mb {mp x y w2 add m w2 neg 0 d 0 w neg d w 0 d 0 w d cl} def
/mt {mp x y w2 add m w2 neg w neg d w 0 d cl} def
/w4 {w 4 div} def
/w6 {w 6 div} def
/w8 {w 8 div} def
/m21 {mb f} def /m25 {mb s} def /m22 {mt f} def /m26{mt s} def
/m23 {mp x y w2 sub m w2 w d w neg 0 d cl f} def
/m27 {mp x y w2 add m w3 neg w2 neg d w3 w2 neg d w3 w2 d cl s} def
/m28 {mp x w2 sub y w2 sub w3 add m w3 0 d  0 w3 neg d w3 0 d 0 w3 d w3 0 d  0 w3 d w3 neg 0 d 0 w3 d w3 neg 0 d 0 w3 neg d w3 neg 0 d cl s } def
/m29 {mp gsave x w2 sub y w2 add w3 sub m currentpoint t 4 {side} repeat cl fill gr} def
/m30 {mp gsave x w2 sub y w2 add w3 sub m currentpoint t 4 {side} repeat cl s gr} def
/m31 {mp x y w2 sub m 0 w d x w2 sub y m w 0 d x w2 sub y w2 add m w w neg d x w2 sub y w2 sub m w w d s} def
/m32 {mp x y w2 sub m w2 w d w neg 0 d cl s} def
/m33 {mp x y w2 add m w3 neg w2 neg d w3 w2 neg d w3 w2 d cl f} def
/m34 {mp x w2 sub y w2 sub w3 add m w3 0 d  0 w3 neg d w3 0 d 0 w3 d w3 0 d  0 w3 d w3 neg 0 d 0 w3 d w3 neg 0 d 0 w3 neg d w3 neg 0 d cl f } def
/m35 {mp x y w2 add m w2 neg w2 neg d w2 w2 neg d w2 w2 d w2 neg w2 d x y w2 sub m 0 w d x w2 sub y m w 0 d s} def
/m36 {mb x w2 sub y w2 add m w w neg d x w2 sub y w2 sub m w w d s} def
/m37 {mp x y m w4 neg w2 d w4 neg w2 neg d w2 0 d  w4 neg w2 neg d w2 0 d w4 neg w2 d w2 0 d w4 neg w2 d w4 neg w2 neg d cl s} def
/m38 {mp x w4 sub y w2 add m w4 neg w4 neg d 0 w2 neg d w4 w4 neg d w2 0 d w4 w4 d 0 w2 d w4 neg w4 d w2 neg 0 d x y w2 sub m 0 w d x w2 sub y m w 0 d cl s} def
/m39 {mp x y m w4 neg w2 d w4 neg w2 neg d w2 0 d  w4 neg w2 neg d w2 0 d w4 neg w2 d w2 0 d w4 neg w2 d w4 neg w2 neg d cl f} def
/m40 {mp x y m w4 w2 d w4 w4 neg d w2 neg w4 neg d w2 w4 neg d w4 neg w4 neg d w4 neg w2 d w4 neg w2 neg d w4 neg w4 d w2 w4 d w2 neg w4 d w4 w4 d w4 w2 neg d cl s} def
/m41 {mp x y m w4 w2 d w4 w4 neg d w2 neg w4 neg d w2 w4 neg d w4 neg w4 neg d w4 neg w2 d w4 neg w2 neg d w4 neg w4 d w2 w4 d w2 neg w4 d w4 w4 d w4 w2 neg d cl f} def
/m42 {mp x y w2 add m w8 neg w2 -3 4 div mul d w2 -3 4 div mul w8 neg d w2 3 4 div mul w8 neg d w8 w2 -3 4 div mul d w8 w2 3 4 div mul d w2 3 4 div mul w8 d w2 -3 4 div mul w8 d w8 neg w2 3 4 div mul d cl s} def
/m43 {mp x y w2 add m w8 neg w2 -3 4 div mul d w2 -3 4 div mul w8 neg d w2 3 4 div mul w8 neg d w8 w2 -3 4 div mul d w8 w2 3 4 div mul d w2 3 4 div mul w8 d w2 -3 4 div mul w8 d w8 neg w2 3 4 div mul d cl f} def
/m44 {mp x y m w6 neg w2 d w2 2 3 div mul 0 d w6 neg w2 neg d w2 w6 d 0 w2 -2 3 div mul d w2 neg w6 d w6 w2 neg d w2 -2 3 div mul 0 d w6 w2 d w2 neg w6 neg d 0 w2 2 3 div mul d w2 w6 neg d cl s} def
/m45 {mp x y m w6 neg w2 d w2 2 3 div mul 0 d w6 neg w2 neg d w2 w6 d 0 w2 -2 3 div mul d w2 neg w6 d w6 w2 neg d w2 -2 3 div mul 0 d w6 w2 d w2 neg w6 neg d 0 w2 2 3 div mul d w2 w6 neg d cl f} def
/m46 {mp x y w4 add m w4 neg w4 d w4 neg w4 neg d  w4 w4 neg d w4 neg w4 neg d w4 w4 neg d w4 w4 d w4 w4 neg d w4 w4 d w4 neg w4 d w4 w4 d w4 neg w4 d w4 neg w4 neg d cl s} def
/m47 {mp x y w4 add m w4 neg w4 d w4 neg w4 neg d w4 w4 neg d w4 neg w4 neg d  w4 w4 neg d w4 w4 d w4 w4 neg d w4 w4 d w4 neg w4 d w4 w4 d w4 neg w4 d w4 neg w4 neg d cl f} def
/m48 {mp x y w4 add m w4 neg w4 d w4 neg w4 neg d w4 w4 neg d  w4 neg w4 neg d w4 w4 neg d w4 w4 d w4 w4 neg d w4 w4 d w4 neg w4 d w4 w4 d w4 neg w4 d w4 neg w4 neg d  w4 w4 neg d w4 neg w4 neg d w4 neg w4 d w4 w4 d cl f} def
/m49 {mp x w2 sub w3 add y w2 sub w3 add m  0 w3 neg d w3 0 d 0 w3 d w3 0 d 0 w3 d w3 neg 0 d 0 w3 d w3 neg 0 d 0 w3 neg d w3 neg 0 d 0 w3 neg d w3 0 d 0 w3 d w3 0 d 0 w3 neg d w3 neg 0 d cl f } def
/m2 {mp x y w2 sub m 0 w d x w2 sub y m w 0 d s} def
/m5 {mp x w2 sub y w2 sub m w w d x w2 sub y w2 add m w w neg d s} def
%%IncludeResource: ProcSet (FontSetInit)
%%IncludeResource: font Times-Roman
%%IncludeResource: font Times-Italic
%%IncludeResource: font Times-Bold
%%IncludeResource: font Times-BoldItalic
%%IncludeResource: font Helvetica
%%IncludeResource: font Helvetica-Oblique
%%IncludeResource: font Helvetica-Bold
%%IncludeResource: font Helvetica-BoldOblique
%%IncludeResource: font Courier
%%IncludeResource: font Courier-Oblique
%%IncludeResource: font Courier-Bold
%%IncludeResource: font Courier-BoldOblique
%%IncludeResource: font Symbol
%%IncludeResource: font ZapfDingbats
/reEncode {exch findfont dup length dict begin {1 index /FID eq  {pop pop} {def} ifelse } forall /Encoding exch def currentdict end dup /FontName get exch definefont pop } def [/Times-Bold /Times-Italic /Times-BoldItalic /Helvetica /Helvetica-Oblique
 /Helvetica-Bold /Helvetica-BoldOblique /Courier /Courier-Oblique /Courier-Bold /Courier-BoldOblique /Times-Roman /AvantGarde-Book /AvantGarde-BookOblique /AvantGarde-Demi /AvantGarde-DemiOblique /Bookman-Demi /Bookman-DemiItalic /Bookman-Light
 /Bookman-LightItalic /Helvetica-Narrow /Helvetica-Narrow-Bold /Helvetica-Narrow-BoldOblique /Helvetica-Narrow-Oblique /NewCenturySchlbk-Roman /NewCenturySchlbk-Bold /NewCenturySchlbk-BoldItalic /NewCenturySchlbk-Italic /Palatino-Bold
 /Palatino-BoldItalic /Palatino-Italic /Palatino-Roman ] {ISOLatin1Encoding reEncode } forall
%%EndProlog
%%BeginSetup
%%EndSetup
newpath  gsave  .25 .25 scale  gsave  0 0 t 0.490196 0.545098 0.615686 c[  ] 0 sd 3 lw 0.941176 0.941176 0.941176 c 2268 1684 0 0 bf black 1 1 0.992157 c 1796 1145 245 202 bf black 1796 1145 245 202 bl 1 1 0.992157 c 1796 1145 245 202 bf black 1796
 1145 245 202 bl 245 202 m 1796 X s[ 4 8] 0 sd 425 1347 m -1145 Y s 604 1347 m -1145 Y s 784 1347 m -1145 Y s 964 1347 m -1145 Y s 1144 1347 m -1145 Y s 1324 1347 m -1145 Y s 1503 1347 m -1145 Y s 1683 1347 m -1145 Y s 1863 1347 m -1145 Y s 425 1347
 m -1145 Y s 1863 1347 m -1145 Y s[  ] 0 sd 245 202 m 1145 Y s[ 4 8] 0 sd 2041 202 m -1796 X s 2041 410 m -1796 X s 2041 618 m -1796 X s 2041 827 m -1796 X s 2041 1035 m -1796 X s 2041 1243 m -1796 X s 2041 1243 m -1796 X s 0 0 0.933333 c[  22 12 ] 0
 sd 6 lw 0.49 0.6 0.82 c black 0 0 0.933333 c 245 722 m 1 1 d 1 Y 1 X 2 Y 1 X 3 Y 1 X 3 Y 1 1 d 3 Y 1 1 d 4 Y 1 1 d 3 Y 1 1 d 4 Y 1 1 d 1 Y s 254 752 m 1 Y 1 1 d 4 Y 1 X 4 Y 1 X 3 Y 1 X 4 Y 1 X 3 Y 1 -1 d 4 Y 1 X 3 Y 1 1 d 2 Y 1 X s 263 781 m 2 Y 1 X
 3 Y 1 X 3 Y 1 X 2 Y 1 X 3 Y 1 X 2 Y 1 1 d 2 Y 1 -1 d 1 Y 1 1 d 2 Y s 271 802 m 1 X 2 Y 1 X 2 Y 1 1 d 2 Y 1 X 1 Y 1 1 d 2 Y 1 1 d 1 Y 1 1 d 2 Y 1 X 1 Y 1 1 d 1 Y s 280 821 m 1 Y 1 X 2 Y 1 X 1 Y 1 1 d 1 Y 1 1 d 1 Y 1 X 1 Y 1 X 2 Y 1 1 d 1 -1 d 1 Y 1 1
 d s 289 834 m 1 Y 1 X 1 Y 1 1 d 1 Y 1 X 1 Y -1 Y 1 Y 1 X 1 Y 1 X 1 Y 1 1 d 1 1 d 1 Y 1 X -1 Y 1 Y 1 1 d s 298 845 m 1 Y 1 X 2 Y 1 X 1 Y 1 X 2 Y 1 X 2 Y 1 X 1 Y 1 X 1 Y 1 1 d 1 X 1 Y 1 X s 307 857 m 1 Y 2 X 1 Y 1 1 d 1 1 d 1 X 1 Y 1 X 1 Y 1 X 1 Y 1
 -2 d 1 Y s 315 863 m 1 X 1 Y 1 X 1 Y 1 1 d 1 X 1 Y 1 1 d 1 X 1 Y 1 1 d 1 Y 1 X 1 Y 1 X s 324 872 m 1 Y 1 X 1 Y 1 X 1 Y 1 X 1 1 d 1 X 1 Y 1 1 d 1 X 1 Y 1 X 1 Y 1 X s 333 880 m 1 Y 1 X 1 Y 1 X 1 Y 1 X 1 Y 1 X 1 Y 1 X 1 Y 1 X -1 Y 1 Y 2 X 1 Y 1 X s 342
 887 m 1 X 1 Y 1 X 1 Y 1 X 1 Y 1 X 1 Y 1 X -1 Y 1 Y 1 X 1 Y -1 Y 1 Y 1 X 1 Y 1 X 1 Y 1 X s 351 894 m 1 Y 1 X 1 1 d 1 1 d 1 X 1 Y 1 X 1 Y 2 X 1 Y 1 X 1 Y s 359 901 m 2 X 1 Y 1 X 2 Y -1 Y 1 1 d 1 X 1 Y 1 X 1 Y 2 X 1 Y 1 X s 368 907 m 1 1 d -1 Y 1 Y 2 X
 -2 Y 1 1 d 1 X 1 Y 1 X 1 Y 2 X 1 Y 1 X s 377 910 m 1 Y 1 X 1 1 d 1 X 1 Y 1 X 1 Y 2 X 1 Y 2 X 1 Y 1 X s 386 916 m 1 Y 2 X 1 Y 2 X 1 Y 1 X 1 Y 2 X 1 Y 1 X 1 Y 1 X s 395 922 m 5 X -1 Y 1 1 d 2 X 1 Y s 403 923 m 2 X 1 Y 2 X 1 Y 1 X 1 1 d 1 X 1 Y 2 X 1 Y
 s 412 928 m 1 X 1 1 d 1 X 1 Y 1 X 1 Y 1 X 1 1 d 3 X s 421 932 m 1 1 d 5 X 1 Y 2 X 1 Y 1 X s 430 935 m 1 X 1 Y 3 X 1 Y 2 X 1 Y 1 X 1 Y 2 X s 439 939 m 1 Y 2 X 1 Y 1 X 1 Y 4 X 1 Y 1 X -1 Y s 447 942 m 1 X 1 Y -1 Y 1 Y 1 X 1 1 d 3 X 1 Y 2 X 1 Y 1 X s
 456 946 m 1 X 1 Y 2 X 1 Y 4 X 1 Y -1 Y 1 1 d 1 X s 465 949 m 1 Y 4 X 1 Y 1 X 1 1 d 2 X 1 Y 1 X s 474 953 m 1 Y 2 X 1 Y 1 X 1 1 d 1 Y 2 X 1 Y 2 X 1 Y 1 X s 483 959 m 1 X -1 Y 1 Y 2 X 1 Y 5 X 1 Y s 491 961 m 1 -1 d 1 Y 2 X 1 Y 2 X 1 Y 2 X 1 Y 2 X 1 Y
 s 500 965 m 1 X -1 Y 1 X -1 Y 1 X 1 Y 3 X 1 Y 3 X 1 Y s 509 966 m 1 X 1 1 d 3 X 1 Y 2 X 1 Y 2 X s 518 969 m 1 X 1 Y 3 X 1 Y 2 X 1 1 d 1 X 1 1 d s 527 973 m 2 X 1 Y 1 X -1 Y 1 X 1 Y 2 X 1 1 d 1 X s 535 975 m 1 X 1 1 d 1 X 1 Y 3 X 1 Y 1 X 1 Y 2 X s
 544 979 m 1 X 2 Y 6 X 1 Y 2 X s 553 982 m 1 Y 3 X 1 Y 2 X 1 Y 4 X s 562 985 m 2 X 1 Y 3 X -1 Y 2 X 1 Y 1 X 1 Y 1 X s 571 987 m 1 -1 d 1 Y 4 X 1 1 d 2 X s 579 988 m 1 1 d 2 X 1 Y 5 X 1 Y 1 X s 588 991 m 4 X 1 Y 1 X 1 Y 3 X 1 Y -1 Y 1 X s 597 993 m 1
 Y 3 X 1 Y 2 X -1 Y 2 X -1 Y 1 X 1 Y 1 X s 606 994 m 2 X 2 Y 1 X -1 Y 2 X 1 Y 3 X 1 Y 1 X s 615 997 m 1 X 1 Y 7 X s 623 998 m 1 X 1 Y 4 X 1 1 d 3 X -1 Y s 632 999 m 3 X 1 -1 d 3 X 1 Y 2 X s 641 999 m 5 X 1 Y 3 X 1 1 d s 650 1001 m 2 X 1 Y 3 X 1 Y 4 X
 s 659 1003 m 6 X 1 Y 1 X -1 Y 1 X s 667 1003 m 1 X 1 Y 4 X 1 1 d 3 X s 676 1005 m 1 X 1 Y -2 Y 2 X 1 1 d 5 X 1 Y s 685 1006 m 4 X 1 Y 2 X 1 Y 1 X 1 Y 2 X s 694 1009 m 6 X 1 1 d 1 X -1 Y 1 Y 1 X s 703 1010 m 1 X 1 1 d 6 X 1 Y s 711 1012 m 1 -1 d 1 Y
 1 X 1 1 d -2 Y 2 X 1 1 d 3 X s 720 1012 m 3 X 1 1 d 1 X -1 Y 3 X -1 Y 1 Y 1 X s 729 1012 m 6 X 1 Y 1 X -1 Y 1 X 2 Y 1 X s 738 1014 m 4 X 1 1 d 4 X s 747 1015 m 2 X 1 Y 6 X s 755 1016 m 4 X 1 Y 2 X 1 Y 1 X -2 Y 1 X 1 1 d s 764 1017 m 2 X 1 Y 6 X 1 Y
 -1 Y 1 X s 773 1018 m 1 Y 4 X 1 Y 5 X s 782 1020 m 3 X 1 1 d 5 X s 791 1021 m -1 Y 1 X 1 Y 5 X 1 Y -1 Y 1 1 d 1 X -1 Y s 799 1021 m 1 X 1 Y 4 X 1 Y 4 X s 808 1023 m 2 X 1 1 d 1 X -1 Y 1 X 1 Y 4 X s 817 1024 m 1 X 1 Y 8 X s 826 1025 m 6 X -2 Y 2 X 1
 Y 1 X s 835 1024 m 8 X s 843 1024 m 1 X 1 Y 1 -1 d 5 X 1 Y 1 X -1 Y 1 X 1 Y s 852 1025 m 5 X 1 Y 2 X -2 Y 1 Y -1 Y 2 X s 861 1024 m 6 X 1 1 d 2 X s 870 1025 m 7 X 1 Y 2 X s 879 1026 m 3 X 1 Y 3 X 1 Y 2 X s 887 1028 m 9 X s 896 1028 m 1 X 1 Y 3 X -1
 Y 3 X 1 Y 2 X s 905 1029 m 9 X s 914 1029 m 3 X -1 Y 6 X s 923 1028 m 8 X s 931 1028 m 2 X 1 1 d 6 X 1 Y s 940 1030 m 9 X s 949 1030 m 7 X 1 1 d -2 Y 1 X s 958 1029 m 2 X 1 1 d 1 X -1 Y 2 X 1 1 d 1 X -1 Y 1 X s 967 1029 m -1 Y 1 X 1 Y 1 X -1 Y 2 X 1
 1 d 3 X s 975 1029 m 9 X s 984 1029 m 1 Y 3 X 1 -1 d 5 X s 993 1029 m 1 -1 d 1 X -1 Y 1 X 1 Y 2 X 1 1 d 2 X -2 Y 1 X s 1002 1027 m 2 X 1 1 d 6 X s 1011 1028 m 2 X 1 Y 1 -1 d 3 X 1 Y 2 X s 1019 1029 m 5 X -1 Y 2 X 1 Y -1 Y 2 X s 1028 1028 m 1 X 1 Y 1
 X -1 Y 4 X -1 Y 1 1 d 2 X s 1037 1028 m 1 X -1 Y 1 X -1 Y 1 1 d 2 X -1 Y 4 X -1 Y s 1046 1025 m 4 X 1 Y 1 X 1 Y 2 X -1 Y 2 X s 1055 1026 m 1 Y 1 X -1 Y 1 X 1 Y 6 X s 1063 1027 m 1 X 1 Y 8 X 1 Y s 1072 1029 m 4 X -1 Y 1 X 1 Y 4 X s 1081 1029 m 1 Y 1
 X -4 Y 3 X -1 Y 3 X 1 1 d 1 X s 1090 1026 m 1 X -1 Y 1 X 1 Y 7 X s 1099 1026 m 1 X -1 Y 1 Y 7 X s 1107 1026 m 3 X -3 Y 1 1 d 5 X s 1116 1024 m 9 X s 1125 1024 m 3 X -1 Y 1 X 1 Y 5 X s 1134 1024 m 4 X 1 Y 5 X s 1143 1025 m 1 Y 1 X -1 Y 1 X -1 Y 6 X s
 1151 1024 m 9 X 1 Y s 1160 1025 m 9 X s 1169 1025 m 1 X -1 Y 3 X -1 Y 1 X -3 Y 4 X s 1178 1020 m 5 X 1 Y 4 X s 1187 1021 m 1 1 d 6 X -1 Y 1 -1 d s 1195 1020 m 9 X s 1204 1020 m 1 X 1 Y 6 X 1 Y 2 X s 1213 1022 m 3 X -1 Y 6 X s 1222 1021 m 1 X -2 Y 1
 X 1 Y 7 X s 1231 1020 m 5 X -1 Y 3 X s 1239 1019 m 4 X -1 Y 1 Y 3 X -1 Y 2 X s 1248 1018 m 2 X 1 Y -1 Y 2 X 1 Y 3 X -3 Y 2 X s 1257 1016 m 1 Y 2 X 1 -1 d 6 X s 1266 1016 m 7 X 2 Y 2 X s 1275 1018 m 2 X 1 1 d -1 Y 1 1 d 2 X -1 Y 2 X s 1283 1018 m 4 X
 -1 Y 2 X -1 Y 3 X -1 Y s 1292 1015 m 4 X -1 Y 1 Y 1 -1 d 1 X 1 1 d 2 X s 1301 1015 m -1 Y 3 X 1 Y 1 X 1 -1 d 1 Y -1 Y 4 X s 1310 1014 m 1 1 d 1 Y 7 X 1 Y 1 X s 1319 1017 m 8 X s 1327 1017 m 2 X -1 Y 2 X -2 Y 5 X s 1336 1014 m 2 X -2 Y 5 X 1 Y 2 X s
 1345 1013 m 1 X 1 -1 d 2 X -1 Y 3 X -1 Y 2 X s 1354 1010 m 1 X -2 Y 1 X 1 Y 6 X -1 Y 1 Y 1 X s 1363 1009 m 1 X -1 Y 2 X -1 Y 5 X -1 Y s 1371 1006 m 4 X 1 -1 d 1 X -1 Y 3 X s 1380 1004 m 1 X 1 Y 3 X 1 Y 1 X 1 -2 d 3 X s 1389 1004 m 1 -1 d 2 X 1 Y 6 X
 s 1398 1004 m 9 X s 1407 1004 m 6 X -1 Y 2 X s 1415 1003 m 2 X -3 Y 1 Y 2 X -1 Y 5 X s 1424 1000 m 1 X -1 Y 4 X -1 Y 4 X s 1433 998 m 8 X -1 Y 1 X s 1442 997 m 5 X -1 Y 2 X 1 -1 d 1 X s 1451 995 m -1 Y 4 X 1 -1 d 1 Y 3 X s 1459 994 m 9 X -1 Y s 1468
 993 m 6 X 1 Y 1 X -1 Y 2 X s 1477 993 m 7 X 1 Y 1 X 1 Y 1 X s 1486 995 m 2 X 1 Y 2 X -2 Y 5 X s 1495 994 m 1 X -2 Y 1 X -2 Y 1 X -2 Y 1 Y 1 -1 d -1 Y 1 X -1 Y 3 X -1 Y s 1503 985 m 3 X -1 Y 3 X -1 Y 2 X 1 1 d -1 Y s 1512 983 m 1 X -1 Y 6 X 2 Y 2 X s
 1521 984 m 1 X 1 Y 1 X -2 Y 2 X -1 Y 1 X 1 Y 1 1 d 3 X s 1530 984 m 1 X -1 Y 3 X -1 Y 1 X -1 Y 1 X -1 Y 1 X -1 Y 1 X -2 Y 1 X s 1539 977 m 1 Y 1 X -2 Y 1 X 1 Y 1 X -1 Y 2 X 1 -1 d 1 Y -1 Y 2 X s 1547 975 m 2 X 1 1 d 4 X 1 Y -2 Y 2 X s 1556 975 m -1
 Y 2 X -1 Y 1 X 1 Y 2 X -1 Y 1 X 2 Y 3 X -1 Y s 1565 974 m 2 X -1 Y 5 X -1 Y 2 X s 1574 972 m -1 Y 7 X 9 Y 1 X 2 Y 1 X s 1583 982 m 2 X -1 Y 2 X 1 Y 1 -1 d 3 X -2 Y s 1591 979 m 1 X 1 Y 2 X -1 Y 3 X -1 Y 1 X -1 Y 2 X s 1600 977 m 3 X -2 Y 2 X -2 Y 1
 X 1 Y 3 X s 1609 974 m 1 X -3 Y 7 X 1 Y 1 X s 1618 972 m -2 Y 9 X -1 Y s 1627 969 m 2 X 1 Y -1 Y 1 X 1 Y 5 X s 1635 970 m 1 X -1 Y 1 -1 d 1 X -2 Y 4 X -1 Y 1 X -1 Y 1 X -1 Y s 1644 963 m 1 X -1 Y 2 X 1 Y -1 Y 2 X 1 -1 d 1 Y 2 X 1 Y 1 X -1 Y 1 Y -1 Y
 s 1653 962 m 3 X -1 Y 1 X -1 Y 1 X 1 Y 1 X -2 Y 3 X -3 Y s 1662 956 m 2 X -1 Y 7 X s 1671 955 m 2 X -1 Y 2 X -2 Y 3 X -3 Y 1 X s 1679 949 m 2 X -1 Y 1 1 d 1 Y 1 -1 d 1 Y 1 X -1 Y 1 X -1 Y 1 X -1 Y 1 Y 1 X 1 Y 1 X s 1688 949 m 1 X -1 Y 1 -1 d -2 Y 2
 X -1 Y 1 X 1 Y 1 X -1 Y 3 X -1 Y s 1697 943 m -1 Y 3 X -1 Y 3 X -1 Y 1 -1 d 2 X s 1706 939 m 1 X -1 Y 1 X -1 Y 1 X -1 Y 1 Y 4 X -1 Y 2 X s 1715 936 m 2 X -1 Y 1 X -2 Y 1 X 1 Y 4 X s 1723 934 m 1 X -1 Y 2 X -1 Y 2 X -1 Y 4 X -1 Y s 1732 930 m -1 Y 2
 X -1 Y 2 X -3 Y 1 X -1 Y 4 X s 1741 924 m 4 X -2 Y 1 X -1 Y 2 X -2 Y 1 X -1 Y 1 X s 1750 918 m 1 -1 d -1 Y 1 X 1 Y 1 X -1 Y 1 X 1 -1 d -1 Y 4 X s 1759 914 m 1 X -1 Y 4 X -1 Y 1 1 d -1 Y 1 X 1 Y 1 -1 d s 1767 912 m 1 X -1 Y 2 X -2 Y 2 X -1 Y 1 X -2 Y
 2 X -1 Y 1 X s 1776 905 m 3 X -1 Y 1 -1 d -1 Y 2 X -1 Y 1 -1 d 1 Y -5 Y 2 X -1 Y s 1785 895 m 1 X 2 Y 1 X -2 Y 2 X -1 Y 1 X -1 Y 4 X -1 Y s 1794 892 m 3 X 1 Y 1 -1 d -2 Y 1 X -1 Y 2 X 1 -1 d -1 Y 1 X s 1803 887 m 1 -1 d 1 Y 1 X -1 Y 3 X -2 Y 1 X -1
 Y 1 X 1 -1 d 1 -1 d s 1812 881 m 1 Y -1 Y 1 -1 d 4 Y 1 X -1 Y 1 Y -1 Y 1 X 1 -1 d 1 X -2 Y 2 X -1 Y 1 -1 d s 1820 878 m 1 -1 d -1 Y 1 X -2 Y 1 Y 1 -1 d 1 -1 d -2 Y 2 X -1 Y 1 X -1 Y 1 X -1 Y 1 -1 d -1 Y s 1829 866 m 1 -1 d 1 Y -1 Y 1 X -1 Y 1 X 1 -1
 d -1 Y 1 X -1 Y 1 X 1 Y -2 Y 1 X -1 Y 1 X -1 Y 1 X s 1838 858 m -2 Y 1 -1 d 1 X 1 -1 d -3 Y 2 X -2 Y 1 X -1 Y 1 X 2 Y -1 Y 1 -1 d -4 Y 1 1 d s 1847 845 m -1 Y 1 X -3 Y 1 X -1 Y 1 Y -1 Y 1 X -1 Y 1 Y 1 X -3 Y 2 X -2 Y 1 X -1 Y 1 Y 2 X s 1856 835 m -1
 Y 1 X -2 Y 1 X -3 Y 1 -1 d -1 Y 1 -1 d -1 Y 1 X -1 Y 1 X -1 Y 1 X -3 Y 1 X -1 Y s 1864 819 m 1 -1 d 1 -1 d -1 Y 2 X -1 Y 1 X -1 Y 1 Y -1 Y 1 X -2 Y 1 Y -1 Y 1 1 d -2 Y 1 X -2 Y 1 -1 d -1 Y s 1873 807 m -1 Y 1 X -3 Y 1 X -3 Y 1 X -1 Y 1 X -1 Y 1 X -1
 Y 1 X -1 Y 1 1 d -1 Y 1 X -1 Y 1 X 2 Y -1 Y s 1882 796 m -1 Y 1 X -2 Y 1 X -2 Y 1 1 d -1 Y 2 X -3 Y 1 X -2 Y 1 X -1 Y 1 X -1 Y 1 X s 1891 784 m -3 Y 1 X 1 -1 d -2 Y 1 X -2 Y 1 X -2 Y 1 X 1 -1 d -2 Y 1 -1 d -2 Y 1 X -2 Y 1 X s 1900 766 m -2 Y 1 X -3
 Y 2 X -1 Y 1 -1 d 5 Y 1 X -2 Y 1 -1 d -1 Y 1 X -1 Y 1 X s 1908 759 m 1 -1 d -4 Y 1 Y 1 X -3 Y 1 X -2 Y 1 -1 d -3 Y 1 -1 d -2 Y 1 -1 d -1 Y 1 X -3 Y 1 X -2 Y 1 1 d -3 Y s 1917 734 m -2 Y 1 X 1 -2 d -1 Y 1 X -1 Y 1 Y -2 Y 1 X -1 Y 2 X -4 Y 1 X -2 Y 1
 -1 d -2 Y 1 X -1 Y s 1926 716 m 2 X -3 Y 1 X -6 Y 1 X 1 Y 1 X -3 Y 1 X -9 Y 1 X -3 Y 1 Y 1 -1 d -1 Y 1 -1 d -1 Y s 1935 690 m -3 Y 1 X -1 Y 1 X -2 Y 1 -1 d -2 Y 1 X -5 Y 1 -1 d -3 Y 1 -2 d -2 Y 1 -1 d -4 Y 1 X -1 Y 1 -1 d s 1944 661 m -2 Y 1 -1 d
 -10 Y 1 X -3 Y 1 -1 d -1 Y 1 X -4 Y 1 -5 d -3 Y 1 X 1 Y -1 Y 1 -1 d -4 Y 1 X -3 Y s 1952 623 m -1 Y 1 X -3 Y 1 -1 d -2 Y 1 X -2 Y 1 -2 d -4 Y 1 X -3 Y 1 -1 d -5 Y 1 -1 d -2 Y 1 X -2 Y 1 Y 1 -2 d -1 Y s 1961 592 m -2 Y 1 X -1 Y 1 X -4 Y 1 -1 d -4 Y 1
 X -5 Y 1 X -4 Y 1 -1 d -2 Y 1 -2 d -4 Y 1 X -4 Y 1 -1 d -3 Y s 1970 554 m -1 Y 2 Y -1 Y 1 -1 d -4 Y 1 X -5 Y 1 -1 d -2 Y 1 -1 d -3 Y 1 X -5 Y 1 -1 d -2 Y 1 X -5 Y 1 -1 d -4 Y 1 -1 d -4 Y s 1979 514 m -2 Y 1 -1 d -1 Y 1 -1 d -4 Y 1 X -6 Y 1 -1 d -4 Y
 1 X -5 Y 1 -3 d -4 Y 1 -1 d -5 Y 1 -1 d -3 Y 1 X s 1988 472 m -8 Y 1 -2 d -6 Y 1 -1 d -3 Y 1 -1 d -7 Y 1 -1 d -6 Y 1 X -6 Y 1 X -4 Y 1 Y 1 -1 d -4 Y 1 X -4 Y 1 Y s 1996 420 m -3 Y 1 -1 d -3 Y 1 -1 d -4 Y 1 Y -2 Y 1 X -5 Y 1 -4 d -8 Y 1 -1 d -5 Y 1 X
 -9 Y 1 1 d -3 Y 1 -3 d -7 Y 1 -3 d -2 Y s 2005 358 m -3 Y 1 -3 d 1 Y -4 Y 1 -2 d -6 Y 1 -1 d -4 Y 1 X -7 Y 1 -2 d -6 Y 1 -1 d -2 Y 1 -3 d -5 Y 1 -1 d -2 Y 1 Y -1 Y 1 -1 d -3 Y s 2014 303 m -4 Y 1 -2 d -7 Y 1 -1 d -6 Y 1 -2 d -5 Y 1 -1 d -3 Y 1 -1 d
 -5 Y 1 -1 d -3 Y 1 -1 d -6 Y 1 X -3 Y 1 X -1 Y s 2023 251 m -5 Y 1 -1 d -4 Y 1 X -4 Y 1 -1 d -4 Y 1 -1 d -3 Y 1 -1 d -4 Y 1 -1 d -3 Y 1 -1 d -3 Y 1 X -2 Y 1 -1 d s 2032 212 m -2 Y 2 X -1 Y 1 X -1 Y 1 Y -1 Y 1 X -2 Y 1 X -2 Y 1 X -1 Y 1 X -1 Y 1 X s
 2040 202 m 1 X s black[  ] 0 sd 3 lw 245 202 m 1796 X s 425 242 m -40 Y s 469 222 m -20 Y s 514 222 m -20 Y s 559 222 m -20 Y s 604 242 m -40 Y s 649 222 m -20 Y s 694 222 m -20 Y s 739 222 m -20 Y s 784 242 m -40 Y s 829 222 m -20 Y s 874 222 m -20
 Y s 919 222 m -20 Y s 964 242 m -40 Y s 1009 222 m -20 Y s 1054 222 m -20 Y s 1099 222 m -20 Y s 1144 242 m -40 Y s 1189 222 m -20 Y s 1234 222 m -20 Y s 1279 222 m -20 Y s 1324 242 m -40 Y s 1369 222 m -20 Y s 1413 222 m -20 Y s 1458 222 m -20 Y s
 1503 242 m -40 Y s 1548 222 m -20 Y s 1593 222 m -20 Y s 1638 222 m -20 Y s 1683 242 m -40 Y s 1728 222 m -20 Y s 1773 222 m -20 Y s 1818 222 m -20 Y s 1863 242 m -40 Y s 425 242 m -40 Y s 380 222 m -20 Y s 335 222 m -20 Y s 290 222 m -20 Y s 1863
 242 m -40 Y s 1908 222 m -20 Y s 1953 222 m -20 Y s 1998 222 m -20 Y s
 gsave  2268 1684 0 0 C 390.593 128.934 t 0 r /Helvetica-Bold findfont 64.4669 sf 0 0 m (0.8) show NC gr 
 gsave  2268 1684 0 0 C 360.256 128.934 t 0 r /Symbol findfont 64.4669 sf 0 0 m (-) show NC gr 
 gsave  2268 1684 0 0 C 572.617 128.934 t 0 r /Helvetica-Bold findfont 64.4669 sf 0 0 m (0.6) show NC gr 
 gsave  2268 1684 0 0 C 542.28 128.934 t 0 r /Symbol findfont 64.4669 sf 0 0 m (-) show NC gr 
 gsave  2268 1684 0 0 C 750.849 128.934 t 0 r /Helvetica-Bold findfont 64.4669 sf 0 0 m (0.4) show NC gr 
 gsave  2268 1684 0 0 C 720.512 128.934 t 0 r /Symbol findfont 64.4669 sf 0 0 m (-) show NC gr 
 gsave  2268 1684 0 0 C 932.873 128.934 t 0 r /Helvetica-Bold findfont 64.4669 sf 0 0 m (0.2) show NC gr 
 gsave  2268 1684 0 0 C 902.536 128.934 t 0 r /Symbol findfont 64.4669 sf 0 0 m (-) show NC gr 
 gsave  2268 1684 0 0 C 1122.48 128.934 t 0 r /Helvetica-Bold findfont 64.4669 sf 0 0 m (0) show NC gr 
 gsave  2268 1684 0 0 C 1277.96 128.934 t 0 r /Helvetica-Bold findfont 64.4669 sf 0 0 m (0.2) show NC gr 
 gsave  2268 1684 0 0 C 1456.19 128.934 t 0 r /Helvetica-Bold findfont 64.4669 sf 0 0 m (0.4) show NC gr 
 gsave  2268 1684 0 0 C 1634.42 128.934 t 0 r /Helvetica-Bold findfont 64.4669 sf 0 0 m (0.6) show NC gr 
 gsave  2268 1684 0 0 C 1816.45 128.934 t 0 r /Helvetica-Bold findfont 64.4669 sf 0 0 m (0.8) show NC gr 
 gsave  2268 1684 0 0 C 857.03 30.3373 t 0 r /Helvetica-Bold findfont 72.0512 sf 0 0 m (Cut value applied on BDTG output) show NC gr  245 202 m 1145 Y s 291 202 m -46 X s 268 254 m -23 X s 268 306 m -23 X s 268 358 m -23 X s 291 410 m -46 X s 268 462
 m -23 X s 268 514 m -23 X s 268 566 m -23 X s 291 618 m -46 X s 268 670 m -23 X s 268 722 m -23 X s 268 775 m -23 X s 291 827 m -46 X s 268 879 m -23 X s 268 931 m -23 X s 268 983 m -23 X s 291 1035 m -46 X s 268 1087 m -23 X s 268 1139 m -23 X s
 268 1191 m -23 X s 291 1243 m -46 X s 291 1243 m -46 X s 268 1295 m -23 X s 268 1347 m -23 X s
 gsave  2268 1684 0 0 C 182.024 178.232 t 0 r /Helvetica-Bold findfont 64.4669 sf 0 0 m (0) show NC gr 
 gsave  2268 1684 0 0 C 128.934 386.801 t 0 r /Helvetica-Bold findfont 64.4669 sf 0 0 m (0.2) show NC gr 
 gsave  2268 1684 0 0 C 128.934 595.37 t 0 r /Helvetica-Bold findfont 64.4669 sf 0 0 m (0.4) show NC gr 
 gsave  2268 1684 0 0 C 128.934 800.148 t 0 r /Helvetica-Bold findfont 64.4669 sf 0 0 m (0.6) show NC gr 
 gsave  2268 1684 0 0 C 128.934 1008.72 t 0 r /Helvetica-Bold findfont 64.4669 sf 0 0 m (0.8) show NC gr 
 gsave  2268 1684 0 0 C 189.608 1217.29 t 0 r /Helvetica-Bold findfont 64.4669 sf 0 0 m (1) show NC gr 
 gsave  2268 1684 0 0 C 64.4669 735.681 t 90 r /Helvetica-Bold findfont 72.0512 sf 0 0 m (Efficiency \(Purity\)) show NC gr  0 0 0.933333 c[  52 12 ] 0 sd 6 lw 0.49 0.6 0.82 c black 0 0 0.933333 c 245 722 m 1 Y 1 X 1 Y 1 X 2 Y 1 X 3 Y 1 1 d 3 Y 1 X 4
 Y 1 X 4 Y 1 1 d 3 Y 1 1 d 5 Y 1 X 1 Y s 254 752 m 2 Y 1 X 4 Y 1 X 4 Y 1 X 3 Y 1 1 d 3 Y 1 1 d 2 Y 1 1 d 3 Y 1 X 3 Y 1 1 d 2 Y 1 1 d s 263 783 m 2 Y 1 X 3 Y 1 X 3 Y 1 1 d 1 Y 1 1 d 2 Y 1 1 d 2 Y 1 1 d 2 Y 1 X 2 Y 1 X 2 Y s 271 806 m 1 1 d 1 Y 1 1 d 1
 Y 1 2 d 2 Y 1 X 1 Y 1 1 d 2 Y 1 1 d 1 Y 1 1 d 2 Y 1 X 1 Y 1 1 d 1 Y s 280 826 m 1 Y 1 X 2 Y 1 X 1 Y 1 1 d 2 Y 1 X 1 Y 1 1 d 1 Y 1 X 2 Y 1 1 d 1 X 1 Y 1 X 1 Y s 289 841 m 1 1 d 1 Y 1 1 d 1 Y 1 X 1 Y 1 X 2 Y 1 X 1 Y 1 1 d 1 Y 1 X 1 Y 1 X 2 Y 1 X 1 Y s
 298 855 m 1 1 d 1 Y 1 1 d 1 Y 1 X 2 Y 1 X 2 Y 1 X 1 Y 1 X 1 Y 1 X 1 Y 1 X 1 Y 1 1 d s 307 868 m 1 1 d 1 1 d 1 Y 1 X 1 Y 1 X 1 Y 1 X 1 Y 1 X 1 Y 1 X 1 Y 1 X s 315 876 m 1 X 1 Y 1 X 2 Y 1 X 1 Y 1 X 1 Y 1 1 d 1 X 1 Y 1 1 d 1 Y 1 X 1 Y 1 X 1 Y s 324 887
 m 1 X 1 Y 1 X 1 Y 1 X 1 Y 1 X 1 Y 1 X 1 Y 1 X 1 Y 1 X 1 Y 1 X 1 1 d s 333 895 m 1 1 d 1 X 1 Y 1 1 d 1 Y 1 X 1 Y 1 X 1 Y 2 X 1 Y 1 X 1 Y 1 X s 342 903 m 1 Y 1 X 1 1 d 1 1 d 1 1 d 1 Y 2 X 2 Y 1 X 1 1 d 1 1 d s 351 912 m 1 X 1 Y 1 X 1 Y 1 1 d 1 X 1 Y 1
 X 1 Y 1 X 1 Y 2 X 1 Y s 359 919 m 1 X 1 Y 1 X 1 1 d 1 Y 1 X 1 Y 1 X 1 Y 1 X 1 1 d 1 X 1 Y 1 X s 368 926 m 1 1 d 1 X 1 Y 2 X 1 Y 1 X 1 Y 2 X 1 Y 1 X 1 Y 1 X s 377 932 m 1 1 d 1 X 1 Y 1 X 1 Y 1 X 1 Y 1 X 1 1 d 1 X 1 Y 2 X s 386 938 m 1 Y 1 X 1 Y 2 X 1
 Y 1 X 1 Y 2 X 1 Y 1 X 1 Y 2 X s 395 944 m 1 Y 4 X 1 Y 2 X 1 Y 2 X 1 Y s 403 948 m 2 X 1 Y 1 X 1 1 d 1 X 1 Y 2 X 1 Y 1 X 1 Y 1 X s 412 953 m 1 X 1 Y 1 X 1 Y 1 X 1 1 d 1 X 1 Y 1 X 1 Y 3 X 1 Y s 421 959 m 1 X 1 Y 4 X 1 Y 2 X 1 Y 2 X s 430 962 m 1 Y 2 X
 1 Y 2 X 1 Y 2 X 1 Y 1 X 1 Y 2 X s 439 967 m 1 Y 2 X 1 Y 1 X 1 Y 2 X 1 1 d 2 X 1 Y s 447 972 m 2 X 1 Y 3 X 1 Y 2 X 1 Y 2 X s 456 975 m 1 X 1 Y 2 X 1 Y 3 X 1 Y 2 X 1 Y 1 X s 465 979 m 1 X 1 Y 3 X 1 Y 1 X 1 1 d 1 X 1 Y 2 X s 474 983 m 1 Y 2 X 1 Y 1 X 1
 1 d 1 1 d 1 X 1 Y 2 X 1 Y 1 X s 483 989 m 1 1 d 2 X 1 Y 2 X 1 Y 3 X 1 Y s 491 993 m 2 X 1 Y 3 X 1 Y 2 X 2 Y 2 X 1 Y s 500 998 m 3 X 1 Y 3 X 1 Y 2 X 1 Y 1 X s 509 1001 m 1 X 1 Y 2 X 1 Y 3 X 1 Y 1 X 1 1 d 1 X s 518 1005 m 1 X 1 1 d 2 X 1 1 d 2 X 1 Y 2
 X s 527 1008 m 1 Y 2 X 1 Y 2 X 1 Y 3 X 1 Y 1 X s 535 1012 m 1 X 1 1 d 1 X 1 Y 2 X 1 Y 2 X 1 Y 2 X s 544 1016 m 1 1 d 1 Y 1 X 1 Y 5 X 1 Y 2 X s 553 1020 m 1 Y 2 X 1 Y 3 X 1 Y 3 X 1 Y 1 X s 562 1024 m 2 X 1 Y 5 X 1 Y 1 X 1 Y 1 X s 571 1027 m 1 X 1 Y 3
 X 1 Y 4 X 1 Y s 579 1030 m 1 X 1 1 d 3 X 1 1 d 3 X s 588 1032 m 1 X 1 Y 3 X 1 Y 1 X 1 Y 2 X 1 Y 2 X s 597 1036 m 1 X 1 Y 1 -1 d 1 Y 4 X 1 Y 3 X s 606 1038 m 1 X 1 Y 4 X 1 Y 3 X 1 Y 1 X s 615 1041 m 3 X 1 Y 5 X 1 Y s 623 1043 m 4 X 1 Y 4 X 1 Y 1 X -1
 Y 1 Y s 632 1045 m 7 X 1 Y 2 X s 641 1046 m 3 X 1 Y 4 X 1 Y 2 X 1 Y s 650 1049 m 2 X 1 Y 3 X 1 Y 4 X s 659 1051 m 1 Y 5 X 1 Y 3 X s 667 1053 m 3 X 1 Y 3 X 1 Y 3 X s 676 1055 m 1 X 1 Y -1 Y 1 Y 6 X 1 1 d 1 X s 685 1057 m 3 X 1 1 d 1 X 1 Y 2 X 1 Y 2 X
 s 694 1060 m 4 X 1 Y 4 X 1 1 d s 703 1062 m 3 X 1 Y 3 X 1 Y 2 X s 711 1064 m 1 X 1 1 d 3 X 1 1 d 3 X s 720 1066 m 1 X 1 Y 5 X 1 Y 3 X s 729 1068 m 4 X 1 Y 4 X 2 Y 1 X s 738 1071 m 4 X 1 Y 5 X s 747 1072 m 1 X 1 Y 7 X s 755 1073 m 2 X 1 Y 2 X 1 Y 1 X
 1 Y 4 X s 764 1076 m 1 X 1 Y 6 X 1 Y 2 X s 773 1078 m 2 X 1 Y 7 X 1 Y s 782 1080 m 8 X 1 1 d s 791 1081 m -1 Y 1 1 d 3 X 1 Y 3 X 1 1 d s 799 1083 m 4 X 1 Y 5 X 1 Y s 808 1085 m 3 X 1 Y 4 X 1 1 d 1 X s 817 1087 m 6 X 1 Y 3 X s 826 1088 m 3 X 1 Y -1 Y
 1 1 d -1 Y 1 1 d 1 X -1 Y 2 X 1 Y 1 X s 835 1089 m 3 X 1 Y -1 Y 1 X 1 Y 4 X s 843 1090 m 5 X 1 Y 4 X s 852 1091 m 2 X 1 Y 5 X 1 Y 2 X s 861 1093 m 6 X 1 1 d 2 X s 870 1094 m 4 X 1 Y 5 X s 879 1095 m 1 1 d 5 X 1 Y 2 X s 887 1097 m 7 X 1 Y 2 X s 896
 1098 m 2 X 1 Y 7 X s 905 1099 m 1 1 d 8 X s 914 1100 m 6 X 1 Y 3 X s 923 1101 m 5 X 1 Y 3 X s 931 1102 m 2 X 1 Y 7 X 1 Y s 940 1104 m 7 X 1 Y 2 X s 949 1105 m 9 X s 958 1105 m 2 X 1 Y 7 X s 967 1106 m 5 X 1 Y 3 X s 975 1107 m 5 X 1 Y 4 X s 984 1108
 m 3 X 1 Y 1 -1 d 1 Y 5 X s 993 1109 m 4 X 1 1 d 4 X s 1002 1110 m 2 X 1 1 d 4 X 1 Y 2 X s 1011 1112 m 6 X 1 Y 2 X s 1019 1113 m 9 X s 1028 1113 m 3 X 1 Y 6 X s 1037 1114 m 9 X s 1046 1114 m 3 X 1 Y 1 X 1 Y 5 X s 1055 1116 m 3 X 1 Y 5 X s 1063 1117 m
 1 X 1 Y 6 X 1 Y 2 X s 1072 1119 m 9 X s 1081 1119 m 1 Y 1 X -1 Y 2 X 1 Y 1 X -1 Y 1 X 1 Y 4 X s 1090 1120 m 6 X 1 Y 3 X s 1099 1121 m 7 X 1 Y 1 X s 1107 1122 m 9 X s 1116 1122 m 1 Y 9 X s 1125 1123 m 2 X 1 Y 1 X -1 Y 1 X 1 Y 3 X 1 Y 2 X s 1134 1125
 m 8 X 1 Y 1 X s 1143 1126 m 8 X s 1151 1126 m 5 X 1 Y 4 X s 1160 1127 m 9 X s 1169 1127 m 9 X s 1178 1127 m 1 X 1 Y 6 X 1 Y 2 X s 1187 1129 m 8 X s 1195 1129 m 4 X 1 Y 5 X s 1204 1130 m 7 X 1 Y 2 X s 1213 1131 m 2 X 1 Y 7 X s 1222 1132 m 9 X s 1231
 1132 m 4 X 1 1 d -1 Y 1 Y 3 X s 1239 1133 m 9 X s 1248 1133 m 2 X 1 1 d 4 X -1 Y 1 1 d 1 X s 1257 1134 m 7 X 1 1 d 1 X s 1266 1135 m 9 X s 1275 1135 m 5 X 1 1 d 2 X s 1283 1136 m 9 X s 1292 1136 m 7 X 1 Y 2 X s 1301 1137 m 9 X s 1310 1137 m 1 1 d 3
 X 1 Y 4 X 1 1 d s 1319 1140 m 3 X 1 1 d 4 X s 1327 1141 m 9 X s 1336 1141 m 6 X 1 Y 3 X s 1345 1142 m 1 X 1 Y 3 X -1 Y 3 X 1 1 d 1 X s 1354 1143 m 7 X 1 Y 2 X s 1363 1144 m 4 X 1 Y 4 X -1 Y s 1371 1144 m 2 X 1 Y 7 X s 1380 1145 m 6 X 1 Y 3 X s 1389
 1146 m 5 X 1 1 d 3 X s 1398 1147 m 9 X s 1407 1147 m 1 Y 8 X s 1415 1148 m 9 X s 1424 1148 m 9 X s 1433 1148 m 2 X 1 Y 7 X s 1442 1149 m 9 X s 1451 1149 m 1 X 1 Y 7 X s 1459 1150 m 5 X 1 Y 4 X s 1468 1151 m 9 X s 1477 1151 m 7 X 1 Y 2 X 1 Y s 1486
 1153 m 9 X s 1495 1153 m 2 X -1 Y 1 X 1 Y 1 -1 d 1 Y 1 X -1 Y 1 Y 3 X s 1503 1153 m 9 X s 1512 1153 m 7 X 3 Y 2 X s 1521 1156 m 9 X s 1530 1156 m 9 X s 1539 1156 m 8 X s 1547 1156 m 2 X 1 1 d 6 X s 1556 1157 m 6 X 1 Y 3 X s 1565 1158 m 9 X s 1574
 1158 m 7 X 1 Y 2 X s 1583 1159 m 8 X s 1591 1159 m 3 X 1 Y -1 Y 2 X 1 Y 2 X -1 Y 1 1 d -1 Y 1 X 1 Y s 1600 1160 m 3 X -1 Y 1 Y 6 X 1 Y s 1609 1161 m 9 X s 1618 1161 m 2 X 1 Y 7 X s 1627 1162 m 7 X 1 1 d s 1635 1163 m 1 X 1 -1 d 1 Y -1 Y 3 X 1 Y 3 X
 -1 Y 1 Y 1 X -1 Y s 1644 1162 m 3 X 1 Y 5 X 1 Y 1 X s 1653 1164 m 9 X s 1662 1164 m 6 X 1 Y 3 X s 1671 1165 m 8 X s 1679 1165 m 4 X 1 Y 3 X 1 Y 2 X 1 Y s 1688 1168 m 1 X -1 Y 1 X 1 Y 7 X s 1697 1168 m 5 X 1 Y 4 X s 1706 1169 m 4 X 1 Y -1 Y 1 1 d 4 X
 s 1715 1170 m 1 Y 3 X -1 Y 2 X 1 Y 3 X s 1723 1171 m 9 X 1 Y s 1732 1172 m 2 X -1 Y 1 Y 2 X 1 Y -1 Y 5 X s 1741 1172 m 1 X 1 Y 8 X s 1750 1173 m 7 X 1 Y 2 X s 1759 1174 m 8 X s 1767 1174 m 9 X s 1776 1174 m 9 X s 1785 1174 m 1 X 1 Y 8 X s 1794 1175
 m 9 X s 1803 1175 m 4 X 1 Y 5 X s 1812 1176 m 1 X 1 Y 7 X s 1820 1177 m 5 X 1 Y 1 X -1 Y 1 1 d -1 Y 2 X s 1829 1177 m 3 X 1 1 d -1 Y 5 X s 1838 1177 m 9 X s 1847 1177 m 3 X 1 Y 6 X s 1856 1178 m 1 X 1 Y 1 X -1 Y 4 X 1 1 d -1 Y 1 X s 1864 1178 m 3 X
 1 Y 1 -1 d 1 X 1 Y 4 X s 1873 1179 m 8 X 1 Y 1 X s 1882 1180 m 9 X s 1891 1180 m 9 X s 1900 1180 m 1 X -1 Y 1 X 1 Y 2 X 1 Y 4 X s 1908 1181 m 1 X 1 Y -1 Y 1 X 1 Y -1 Y 1 1 d -1 Y 6 X s 1917 1181 m 5 X 1 Y 1 1 d -1 Y 1 Y 1 X 1 Y 1 X -1 Y 1 X s 1926
 1183 m 1 X 2 Y 1 X -1 Y 1 Y -1 Y 1 Y 1 X -1 Y 1 Y 1 X 1 Y 2 X -1 Y 1 X 1 Y 2 X s 1935 1186 m 3 X 1 Y -1 Y 1 Y 1 X -1 Y 3 X -1 Y 1 Y 2 X s 1944 1186 m 1 X -1 Y 2 X 1 Y 2 X -1 Y 1 Y 3 X s 1952 1186 m 1 -1 d 2 X 1 Y 1 -1 d 3 X -1 Y 1 X 1 Y 1 -1 d 1 Y s
 1961 1185 m -1 Y 1 1 d -1 Y 1 1 d -1 Y 3 X -1 Y 3 X 1 Y -1 Y 1 X s 1970 1183 m 4 X -1 Y 1 Y 1 X -1 Y 1 Y 3 X -1 Y 1 X -1 Y s 1979 1181 m 1 Y -1 Y 1 Y 3 X -1 Y 1 Y 1 X 2 Y 2 X -1 Y 1 X 1 Y 1 X 1 1 d s 1988 1185 m -1 Y 1 Y 1 X -1 Y 2 X -2 Y 2 X -1 Y 1
 Y 1 1 d -1 Y 1 Y 1 X 1 Y 1 1 d -1 Y 2 Y s 1996 1186 m 1 -1 d 1 Y 1 X -1 Y 1 Y 1 1 d -1 Y 1 Y 1 -1 d -1 Y 1 -1 d -1 Y 1 X -2 Y 1 1 d 1 Y -1 Y 1 X -2 Y 1 -1 d s 2005 1179 m -1 Y 1 -1 d 3 Y -1 Y 1 -1 d 1 Y -1 Y 1 Y 1 1 d 1 Y 1 X -1 Y 1 Y -1 Y 1 -1 d -1
 Y 1 X 1 Y -1 Y 1 -2 d -1 Y 1 X -1 Y 1 Y 1 X -1 Y 2 Y s 2014 1176 m -1 Y 1 Y -1 Y 1 -1 d -3 Y 1 -1 d 2 Y -3 Y 1 -1 d -1 Y 5 Y -1 Y 1 -1 d 1 Y -2 Y 1 X -3 Y 1 Y -2 Y 1 -1 d -1 Y 1 Y 1 -2 d -7 Y 1 Y 1 X 1 Y -2 Y 1 4 d 5 Y s 2023 1164 m -3 Y 9 Y 1 -2 d
 -3 Y 2 Y -1 Y 4 Y 1 2 d -3 Y 1 Y -4 Y 1 -2 d 21 Y -4 Y 4 Y 1 X 6 Y -1 Y 2 Y -1 Y 1 -1 d -7 Y 1 -2 d -6 Y 1 Y 1 -1 d -14 Y 1 11 d -13 Y 1 11 d s 2032 1170 m 3 Y -11 Y 1 Y 1 6 d 3 Y -4 Y 28 Y 1 4 d 6 Y -4 Y 1 2 d -3 Y 22 Y -1 Y 1 -1 d -6 Y 1 -1 d -9 Y
 33 Y 1 -1 d -1 Y 3 Y 1 2 d -7 Y 5 Y 1 X 4 Y -1041 Y s 2040 202 m 1 X s[  ] 0 sd 9 lw 0.49 0.6 0.82 c black 0 0 0.933333 c 245 1242 m 6 X 1 Y 3 X s 254 1243 m 5 X 1 -2 d 3 X s 263 1241 m -2 Y 2 X 1 -1 d 3 X 1 -1 d -2 Y 1 X s 271 1235 m 5 X -1 Y 4 X s
 280 1234 m 6 X -1 Y 1 X 1 -1 d 1 X s 289 1232 m 1 X -1 Y 3 X -1 Y 2 X -1 Y 2 X -2 Y 1 X s 298 1227 m 8 X -1 Y 1 X s 307 1226 m 2 X -1 Y 3 X 1 -1 d 1 X 1 -2 d s 315 1222 m 3 X -1 Y 2 X -1 Y 1 X 1 Y 3 X s 324 1221 m 9 X s 333 1221 m 6 X -1 Y 1 X -1 Y
 2 X s 342 1219 m 1 X -1 Y 4 X -1 Y 4 X s 351 1217 m 2 X -1 Y 6 X s 359 1216 m 9 X s 368 1216 m 1 X -1 Y 1 X -1 Y 1 X -2 Y 6 X s 377 1212 m 4 X -1 Y 5 X s 386 1211 m 9 X s 395 1211 m 3 X -1 Y 2 X -1 Y 2 X -1 Y 1 X s 403 1208 m 9 X s 412 1208 m 1 X -1
 Y 8 X s 421 1207 m 2 X -1 Y 2 X -1 Y 5 X s 430 1205 m 9 X s 439 1205 m 2 X -1 Y 6 X -1 Y s 447 1203 m 9 X 1 Y s 456 1204 m 7 X -1 Y 2 X s 465 1203 m 9 X s 474 1203 m 8 X -1 Y 1 X s 483 1202 m 2 X -1 Y 6 X s 491 1201 m 1 -1 d 8 X s 500 1200 m 1 X -1
 Y 1 X -2 Y 7 X s 509 1197 m 4 X 1 -1 d 4 X s 518 1196 m 9 X s 527 1196 m 3 X -1 Y 5 X s 535 1195 m 9 X s 544 1195 m 4 X -1 Y 5 X s 553 1194 m 9 X s 562 1194 m 3 X -1 Y 2 X -1 Y 4 X s 571 1192 m 2 X -1 Y 6 X s 579 1191 m 9 X -1 Y s 588 1190 m 9 X s
 597 1190 m 5 X -1 Y 2 X -1 Y 2 X s 606 1188 m 2 X 1 Y 1 X -1 Y 5 X 1 Y 1 X s 615 1189 m 3 X -1 Y 5 X s 623 1188 m 9 X -1 Y s 632 1187 m 2 X -1 Y 1 X 1 -1 d 5 X s 641 1185 m 1 X -1 Y 8 X s 650 1184 m 2 X 1 Y 2 X 1 -1 d 4 X s 659 1184 m 2 X -1 Y 5 X
 -1 Y 1 X s 667 1182 m 9 X s 676 1182 m 1 X -2 Y 8 X s 685 1180 m 7 X 1 Y 2 X s 694 1181 m 8 X -1 Y 1 X s 703 1180 m 8 X s 711 1180 m 1 -1 d 1 Y 2 X -2 Y 6 X -1 Y s 720 1177 m 5 X -1 Y 3 X -1 Y 1 X s 729 1175 m 9 X s 738 1175 m -1 Y 1 X 1 1 d 7 X s
 747 1175 m 7 X 1 -1 d s 755 1174 m 3 X -1 Y 4 X -1 Y 1 X 1 1 d s 764 1173 m 3 X 1 -1 d 5 X s 773 1172 m 9 X s 782 1172 m 9 X s 791 1172 m -1 Y 8 X s 799 1171 m 8 X 1 -1 d s 808 1170 m 4 X -1 Y 5 X s 817 1169 m 9 X s 826 1169 m 4 X -1 Y 2 X -1 Y 3 X
 s 835 1167 m 3 X -1 Y 5 X s 843 1166 m 1 X 1 -1 d 7 X s 852 1165 m 5 X 1 1 d -1 Y 1 X -2 Y 2 X s 861 1163 m 2 X -1 Y 7 X s 870 1162 m 9 X s 879 1162 m 8 X s 887 1162 m 9 X s 896 1162 m 4 X -1 Y 5 X s 905 1161 m 9 X s 914 1161 m 2 X -1 Y 1 X -1 Y 6 X
 s 923 1159 m 1 X -1 Y 3 X -1 Y 4 X s 931 1157 m 2 X 1 1 d 3 X -1 Y 3 X s 940 1157 m 9 X s 949 1157 m 8 X -2 Y 1 X s 958 1155 m 8 X -1 Y 1 X s 967 1154 m -1 Y 8 X s 975 1153 m 8 X -1 Y 1 X s 984 1152 m 9 X s 993 1152 m 1 -1 d 1 X -1 Y 6 X -2 Y 1 X s
 1002 1148 m 6 X -1 Y 3 X s 1011 1147 m 8 X s 1019 1147 m 5 X -1 Y 4 X s 1028 1146 m 3 X -1 Y 3 X -1 Y 3 X s 1037 1144 m 1 X -1 Y 4 X -1 Y 4 X -1 Y s 1046 1141 m 9 X s 1055 1141 m 8 X s 1063 1141 m 9 X s 1072 1141 m 4 X -1 Y 1 X 1 Y 4 X s 1081 1141 m
 1 X -4 Y 3 X -1 Y 5 X s 1090 1136 m 6 X -1 Y 3 X s 1099 1135 m 8 X s 1107 1135 m 3 X -3 Y 3 X 1 -1 d 2 X s 1116 1131 m 9 X s 1125 1131 m 3 X -1 Y 4 X 1 -1 d 1 X s 1134 1129 m 9 X s 1143 1129 m 1 Y 2 X -2 Y 6 X s 1151 1128 m 9 X s 1160 1128 m 9 X s
 1169 1128 m 1 X -1 Y 2 X -1 Y 2 X -4 Y 4 X s 1178 1122 m 9 X s 1187 1122 m 7 X 1 -1 d -1 Y s 1195 1120 m 3 X 1 Y -1 Y 6 X s 1204 1120 m 7 X 1 Y 2 X s 1213 1121 m 3 X -1 Y 1 X -1 Y 5 X s 1222 1119 m 1 X -2 Y 8 X s 1231 1117 m 5 X -1 Y 3 X s 1239 1116
 m 4 X -1 Y 1 Y 3 X -2 Y 2 X s 1248 1114 m 2 X 1 Y -1 Y 2 X 1 Y 3 X -3 Y 2 X s 1257 1112 m 2 X 1 -1 d 6 X s 1266 1111 m -1 Y 7 X 2 Y 2 X s 1275 1112 m 2 X 1 Y 1 X -1 Y 5 X s 1283 1112 m 2 X 1 -1 d 1 X 1 -1 d 3 X -1 Y 1 X -1 Y s 1292 1108 m 4 X -1 Y 5
 X s 1301 1107 m -1 Y 9 X s 1310 1106 m 1 X 1 Y 8 X s 1319 1107 m 1 X -1 Y 7 X s 1327 1106 m 2 X -2 Y 2 X -1 Y 1 X -1 Y 4 X s 1336 1102 m 2 X -2 Y 2 X -1 Y 5 X s 1345 1099 m 1 X 1 -1 d 2 X -1 Y 5 X -1 Y s 1354 1096 m 1 X -2 Y 7 X -1 Y 1 X s 1363 1093
 m 2 X -1 Y 1 X -1 Y 5 X -1 Y s 1371 1090 m 4 X 1 -1 d 1 X -1 Y 3 X -1 Y s 1380 1087 m 1 X 2 Y 1 X -1 Y 2 X 1 Y 1 X 1 -2 d 3 X s 1389 1087 m 1 -1 d 8 X s 1398 1086 m 1 X -1 Y 8 X s 1407 1085 m 6 X -1 Y 2 X s 1415 1084 m 1 X -1 Y 1 X -2 Y 2 X -1 Y 5 X
 s 1424 1080 m 1 X -1 Y 4 X -2 Y 4 X s 1433 1077 m 8 X -1 Y 1 X s 1442 1076 m 2 X -1 Y 3 X -1 Y 2 X 1 -1 d 1 X s 1451 1073 m -1 Y 4 X 1 -1 d 3 X s 1459 1071 m 2 X 1 Y 1 X -1 Y 6 X -1 Y s 1468 1070 m 9 X -1 Y s 1477 1069 m 2 X 1 Y 7 X s 1486 1070 m 2
 X 1 Y 2 X -2 Y 5 X s 1495 1069 m 1 X -2 Y 1 X -2 Y 1 X -2 Y 1 X -1 Y 1 X -2 Y 3 X -1 Y s 1503 1059 m 3 X -1 Y 2 X -1 Y 4 X -1 Y s 1512 1056 m 9 X s 1521 1056 m 2 X -1 Y 1 X 1 -1 d 1 X 1 1 d 3 X 1 Y s 1530 1056 m 1 X -2 Y 3 X -1 Y 1 X -1 Y 1 X -1 Y 1
 X -2 Y 1 X -1 Y 1 X s 1539 1048 m 1 X -1 Y 2 X -1 Y 3 X -1 Y 2 X s 1547 1045 m 2 X 1 1 d 4 X -2 Y 2 X s 1556 1044 m -1 Y 5 X -1 Y 1 X 2 Y 2 X -1 Y 1 X s 1565 1043 m 2 X -1 Y 3 X -1 Y 2 X -1 Y 2 X s 1574 1040 m 3 X -1 Y 4 X 10 Y 1 X 1 Y 1 X s 1583
 1050 m 5 X -1 Y 3 X -2 Y s 1591 1047 m 3 X 1 -1 d 3 X -1 Y 2 X -1 Y s 1600 1044 m 3 X -2 Y 2 X -2 Y 4 X s 1609 1040 m 1 X -3 Y 8 X s 1618 1037 m -1 Y 2 X -1 Y 5 X -1 Y 2 X s 1627 1034 m 8 X s 1635 1034 m 1 X -1 Y 1 X -1 Y 1 X -2 Y 4 X -1 Y 1 X -1 Y
 1 X -1 Y s 1644 1027 m 1 X -1 Y 3 X 1 -1 d 1 -1 d 1 Y 3 X -1 Y s 1653 1024 m 1 X 1 Y 1 -1 d 1 X -1 Y 3 X -2 Y 3 X -3 Y s 1662 1018 m 2 X -1 Y 3 X -1 Y 1 X 1 1 d -1 Y 2 X s 1671 1016 m 2 X -1 Y 2 X -2 Y 3 X -3 Y 1 X -1 Y s 1679 1009 m 2 X 1 1 d -1 Y
 1 Y 2 X -1 Y 1 X -1 Y 1 X -1 Y 2 X s 1688 1007 m 1 X -1 Y 1 -1 d -2 Y 1 X -1 Y 5 X 1 -1 d s 1697 1001 m -1 Y 1 -1 d 2 X -1 Y 3 X -1 Y 1 -1 d 2 X s 1706 996 m 1 -1 d 1 X -2 Y 4 X -1 Y 1 X -1 Y 2 X s 1715 991 m 2 X -1 Y 1 X -2 Y 2 X 1 Y -1 Y 3 X s
 1723 988 m 2 X 1 -1 d -1 Y 2 X -1 Y 4 X -2 Y s 1732 983 m 1 X -1 Y 1 X -1 Y 2 X -4 Y 3 X -1 Y 2 X s 1741 976 m 4 X -2 Y 1 X -1 Y 2 X -2 Y 1 X -1 Y 1 X s 1750 970 m 1 -1 d -1 Y 3 X 1 -2 d -1 Y 2 X -1 Y 2 X s 1759 964 m 1 X -1 Y 2 X 1 Y -1 Y 1 Y 1 -1
 d 4 X -1 Y s 1767 962 m 1 X -1 Y 2 X -2 Y 2 X -1 Y 1 X -2 Y 2 X -1 Y 1 X s 1776 955 m 3 X -1 Y 1 -2 d 1 X 1 -1 d -1 Y 1 Y 1 -1 d -5 Y 2 X s 1785 945 m 1 X 1 Y 1 X -2 Y 2 X -2 Y 1 Y 1 -1 d 1 X -1 Y 2 X 1 Y -1 Y 1 X -1 Y s 1794 940 m 1 X 1 Y 1 X -1 Y
 1 X 1 Y 1 -1 d -2 Y 1 X -1 Y 2 X 1 -1 d -1 Y 1 X s 1803 935 m 1 -1 d 2 X -1 Y 2 X -2 Y 1 X -2 Y 2 X -1 Y 1 X s 1812 928 m -1 Y 1 -1 d 4 Y 1 X -1 Y 1 X 1 -1 d 1 X -2 Y 2 X -1 Y 1 -1 d s 1820 924 m 1 -1 d -1 Y 1 X -3 Y 1 Y 1 -1 d 1 X -3 Y 2 X -1 Y 1
 -1 d 1 X -1 Y 1 -1 d -1 Y s 1829 911 m 1 -1 d 1 -1 d 1 X -1 Y 1 -1 d -1 Y 1 X -1 Y 1 X 1 Y -1 Y 1 X -2 Y 1 X -1 Y 1 X s 1838 902 m -2 Y 1 -1 d 1 X -1 Y 1 -1 d -2 Y 1 X -1 Y 1 X -1 Y 1 -1 d -1 Y 1 X 2 Y -1 Y 1 X -4 Y 1 X s 1847 888 m 1 X -4 Y 1 X 1 Y
 -2 Y 1 X -1 Y 1 X -2 Y 1 -1 d 1 Y 1 -1 d -2 Y 3 X s 1856 877 m -1 Y 1 X -3 Y 1 X -3 Y 1 X -2 Y 1 X -2 Y 1 X -1 Y 1 X -1 Y 1 X -3 Y 1 X -1 Y s 1864 860 m -1 Y 1 X 1 -1 d -1 Y 1 X 1 -1 d -1 Y 1 X -1 Y 1 X -2 Y 1 Y 1 -1 d -2 Y 1 X -2 Y 1 X -1 Y s 1873
 847 m -2 Y 1 X -3 Y 1 X -3 Y 1 X -1 Y 1 X -1 Y 1 X -1 Y 1 -1 d 2 X -1 Y 1 -1 d 2 Y -1 Y s 1882 834 m -1 Y 1 X -2 Y 1 X -3 Y 1 2 d -1 Y 2 X -3 Y 1 X -2 Y 1 X -2 Y 2 X s 1891 822 m -3 Y 1 -1 d 1 -1 d -1 Y 1 -1 d -2 Y 1 X -2 Y 1 X -1 Y 1 Y 1 -1 d -3 Y
 1 X -3 Y 1 X -2 Y 1 X s 1900 802 m -1 Y 1 X -4 Y 2 X -1 Y 1 -1 d 5 Y 1 X -3 Y 1 X -1 Y 1 Y -1 Y 1 -1 d -1 Y 1 X s 1908 794 m -1 Y 1 X -4 Y 1 Y 1 X -3 Y 1 -1 d -1 Y 1 -1 d -4 Y 1 -1 d -2 Y 1 -1 d -1 Y 1 X -3 Y 1 X -2 Y 1 X -3 Y s 1917 767 m -1 Y 1 -1
 d 1 -2 d 1 -1 d -2 Y 1 X -1 Y 1 X -1 Y 1 Y -1 Y 1 X -4 Y 1 X -3 Y 1 X -2 Y 1 -1 d -1 Y s 1926 747 m 2 X -3 Y 1 X -7 Y 1 X 1 Y -1 Y 1 X -3 Y 1 X -9 Y 1 X -3 Y 1 -1 d -1 Y 1 -1 d -1 Y s 1935 718 m -3 Y 1 X -1 Y 1 X -2 Y 1 -2 d -1 Y 1 -1 d -5 Y 1 -1 d
 -3 Y 1 -2 d -2 Y 1 -1 d -4 Y 1 -1 d -1 Y 1 Y -1 Y 1 -1 d s 1944 687 m -1 Y 1 -1 d -11 Y 1 X -3 Y 1 -1 d -1 Y 1 X -5 Y 1 -5 d -3 Y 1 X 1 Y -1 Y 1 -1 d -4 Y 1 X -4 Y s 1952 647 m 1 -1 d -3 Y 1 -1 d -2 Y 1 X -2 Y 1 -2 d -4 Y 1 X -3 Y 1 -1 d -6 Y 1 X -3
 Y 1 X -1 Y 1 -1 d -2 Y s 1961 615 m -1 Y 1 -1 d -1 Y 1 X -5 Y 1 X -4 Y 1 -1 d -5 Y 1 X -4 Y 1 -1 d 1 Y -3 Y 1 -2 d -4 Y 1 X -5 Y 1 -1 d -2 Y s 1970 576 m -1 Y 1 Y -1 Y 1 -1 d -3 Y 1 -1 d -5 Y 1 -1 d -2 Y 1 -1 d -4 Y 1 X -5 Y 1 -1 d -2 Y 1 X -5 Y 1
 -1 d -4 Y 1 -1 d -4 Y s 1979 534 m -3 Y 1 X -2 Y 1 Y -1 Y 1 -1 d -4 Y 1 X -7 Y 1 -1 d -4 Y 1 X -6 Y 1 -2 d -5 Y 1 -2 d -5 Y 1 -1 d -3 Y 1 -1 d s 1988 487 m -8 Y 1 -2 d -6 Y 1 -1 d -3 Y 1 -1 d -8 Y 1 X -6 Y 1 X -7 Y 1 X -4 Y 1 -1 d -3 Y 1 -1 d -4 Y 1
 Y s 1996 433 m -3 Y 1 -1 d -4 Y 1 -1 d -4 Y 1 Y -2 Y 1 -1 d -4 Y 1 -4 d -8 Y 1 -1 d -6 Y 1 X -9 Y 1 1 d -1 Y 1 Y -3 Y 1 -3 d -7 Y 1 -3 d -3 Y s 2005 368 m -3 Y 1 -2 d -5 Y 1 -2 d -6 Y 1 -1 d -4 Y 1 -1 d -6 Y 1 -3 d -6 Y 1 -1 d -2 Y 1 -3 d -6 Y 1 X
 -3 Y 1 Y -1 Y 1 -1 d -3 Y s 2014 310 m -5 Y 1 -1 d -7 Y 1 -2 d -6 Y 1 -2 d -6 Y 1 X -4 Y 1 X -6 Y 1 -1 d -3 Y 1 -1 d -6 Y 1 X -3 Y 1 -1 d -1 Y s 2023 255 m -6 Y 1 -1 d -4 Y 1 X -4 Y 1 -1 d -5 Y 1 -1 d -4 Y 1 X -5 Y 1 X -4 Y 1 -1 d -3 Y 1 X -3 Y 1 X
 s 2032 213 m -2 Y 1 X -1 Y 1 X -1 Y 1 X -1 Y 1 X -2 Y 1 X -2 Y 1 X -1 Y 1 X -1 Y 1 X s 2040 202 m 1 X s 1 0 0 c black 1 0 0 c 245 1243 m -2 Y 1 -1 d -4 Y 1 -1 d -6 Y 1 -2 d -12 Y 1 -3 d -11 Y 1 -2 d -12 Y 1 -2 d -13 Y 1 -3 d -13 Y 1 -4 d -16 Y 1 -3
 d -2 Y s 254 1131 m -6 Y 1 -2 d -13 Y 1 -2 d -11 Y 1 -2 d -9 Y 1 -3 d -12 Y 1 -1 d -9 Y 1 -3 d -11 Y 1 -2 d -8 Y 1 -3 d -7 Y 1 -2 d s 263 1025 m -8 Y 1 -1 d -9 Y 1 -1 d -9 Y 1 -2 d -5 Y 1 -2 d -8 Y 1 -1 d -6 Y 1 -2 d -7 Y 1 -1 d -6 Y 1 -1 d -7 Y s
 271 949 m 1 -1 d -5 Y 1 -2 d -5 Y 1 -3 d -6 Y 1 -1 d -4 Y 1 -1 d -8 Y 1 -1 d -4 Y 1 -2 d -5 Y 1 -1 d -4 Y 1 X -5 Y s 280 891 m -2 Y 1 -1 d -3 Y 1 -1 d -4 Y 1 -1 d -6 Y 1 -1 d -3 Y 1 -1 d -3 Y 1 -1 d -6 Y 1 -1 d -1 Y 1 -1 d -3 Y 1 X -2 Y s 289 850 m
 -1 Y 1 -1 d -5 Y 1 -1 d -3 Y 1 -1 d -3 Y 1 X -4 Y 1 -1 d -3 Y 1 -1 d -4 Y 1 -1 d -2 Y 1 X -5 Y 1 -1 d -1 Y s 298 812 m -2 Y 1 -1 d -4 Y 1 -1 d -3 Y 1 -1 d -4 Y 1 X -4 Y 1 -1 d -2 Y 1 X -3 Y 1 -1 d -1 Y 1 X -4 Y 1 X s 307 780 m -2 Y 1 -1 d -2 Y 1 -1
 d -2 Y 1 -1 d -2 Y 1 X -2 Y 1 -1 d -2 Y 1 -1 d -2 Y 1 -1 d -1 Y 1 -1 d -1 Y s 315 757 m 1 -1 d -1 Y 1 -1 d -2 Y 1 -1 d -3 Y 1 X -4 Y 1 -1 d -1 Y 1 X -2 Y 1 -2 d -1 Y 1 -1 d -2 Y 1 X -2 Y s 324 732 m 1 X -2 Y 1 X -3 Y 1 X -2 Y 1 -1 d -1 Y 1 X -2 Y 1
 X -2 Y 1 X -2 Y 1 -1 d -1 Y 1 X -1 Y s 333 714 m -1 Y 1 -1 d -1 Y 1 X -2 Y 1 -1 d -2 Y 1 -1 d -1 Y 1 -1 d -2 Y 1 X -1 Y 1 -1 d -2 Y 1 X -2 Y 1 -1 d s 342 694 m 1 -1 d -1 Y 1 X -2 Y 1 -1 d -1 Y 1 -2 d -1 Y 1 -1 d -1 Y 1 X -3 Y 1 X -1 Y 1 -1 d -2 Y 1
 X s 351 676 m -2 Y 1 X -1 Y 1 -1 d -2 Y 1 -1 d -1 Y 1 X -1 Y 1 -1 d -1 Y 1 -1 d -1 Y 1 X -1 Y 1 X -1 Y s 359 661 m 1 -1 d -1 Y 1 X -2 Y 1 X -3 Y 1 X -1 Y 1 -1 d -2 Y 1 X -1 Y 1 -1 d 1 -1 d -1 Y 1 X -1 Y s 368 645 m 1 X -3 Y 1 X -1 Y 1 X -1 Y 1 X -1
 Y 1 X -2 Y 1 X -1 Y 1 X -1 Y 1 -1 d -1 Y 1 -1 d s 377 632 m 1 -1 d -1 Y 1 -1 d -1 Y 1 X -2 Y 1 X -1 Y 1 X -2 Y 1 X -1 Y 1 X -1 Y 1 X -1 Y 1 X -1 Y s 386 619 m -1 Y 1 X -1 Y 1 X -1 Y 1 X -1 Y 1 X -2 Y 1 X -1 Y 1 X -1 Y 1 -1 d -1 Y 1 X -1 Y 1 X s 395
 608 m -1 Y 2 X -1 Y 1 X -1 Y 2 X -1 Y 1 X -1 Y 1 X -1 Y 1 X -2 Y s 403 600 m 1 X -1 Y 1 X -1 Y 1 X -1 Y 1 X -1 Y 1 X -1 Y 1 -1 d 1 X -1 Y 1 -1 d -1 Y 1 X -1 Y s 412 590 m 1 X -2 Y 1 X -1 Y 1 X -1 Y 1 -1 d -1 Y 1 X -2 Y 1 X -1 Y 1 X -1 Y 2 X s 421
 580 m -1 Y 1 X -1 Y 1 X -1 Y 2 X -1 Y 1 X -1 Y 1 X -1 Y 1 X -1 Y 1 X -1 Y 1 X s 430 572 m -1 Y 1 X -1 Y 1 X 1 -1 d 1 X -1 Y 1 -1 d 1 X -2 Y 1 X -1 Y 2 X s 439 564 m -1 Y 1 -1 d -1 Y 1 X -1 Y 1 X -2 Y 2 X 1 -1 d 1 X -1 Y 1 X -1 Y s 447 555 m 1 X -1 Y
 1 X -1 Y 1 X -1 Y 2 X -1 Y 1 X 1 -1 d 1 X -1 Y 1 X -1 Y s 456 548 m 1 X 1 -1 d 1 X -1 Y 2 X -1 Y 2 X -1 Y 1 X -1 Y 1 X -1 Y s 465 542 m 1 X -1 Y 2 X -1 Y 1 X -1 Y 1 X -1 Y 1 -1 d -1 Y 2 X -1 Y 1 X -1 Y s 474 534 m 1 X -1 Y 1 X -1 Y 1 X 1 -2 d -1 Y 1
 X 1 -1 d -1 Y 2 X -2 Y 1 -1 d s 483 524 m 1 X -2 Y 2 X -1 Y 1 X -1 Y 2 X -1 Y 2 X -1 Y s 491 518 m 1 X -1 Y 1 X 1 -1 d 1 X 1 -1 d -1 Y 2 X -3 Y 2 X -2 Y s 500 509 m 1 X 1 -1 d 1 X -1 Y 1 X -1 Y 2 X -1 Y 1 X 1 -1 d 1 X s 509 504 m -1 Y 1 X -1 Y 1 X
 -1 Y 2 X -1 Y 1 X -1 Y 1 X -1 Y 1 X 1 -1 d 1 X s 518 497 m 1 X -1 Y 1 X 1 -1 d 1 X -1 Y 2 X -1 Y 1 X -1 Y 1 -1 d 1 X s 527 491 m 1 X -1 Y 1 X -1 Y 1 X -1 Y 1 X 1 -1 d 1 X -1 Y 2 X -1 Y s 535 485 m 1 X -1 Y 2 X -2 Y 2 X -1 Y 1 X 1 -1 d -1 Y 2 X s 544
 479 m -1 Y 1 X -3 Y 2 X 1 -1 d 2 X -1 Y 2 X -1 Y 1 X s 553 472 m -1 Y 2 X -1 Y 2 X -1 Y 1 X -1 Y 1 X -1 Y 3 X s 562 467 m -1 Y 2 X -1 Y 3 X -1 Y 2 X -2 Y 1 X -1 Y 1 X s 571 461 m 1 X -1 Y 1 X -1 Y 2 X -1 Y 3 X -1 Y 1 X s 579 457 m 1 -1 d 1 X -1 Y 2
 X -1 Y 3 X -1 Y 2 X s 588 453 m 1 -1 d 2 X 1 -1 d 1 X -2 Y 1 X -1 Y 2 X 1 -1 d s 597 447 m 1 X -1 Y 2 X 1 -1 d 2 X -1 Y 3 X s 606 444 m -1 Y 2 X -1 Y 3 X -1 Y 3 X -1 Y 1 X s 615 440 m 1 X -1 Y 2 X 1 -1 d 2 X 1 -1 d 1 X s 623 437 m 1 X -1 Y 3 X 1 -1
 d 1 X -1 Y 3 X s 632 434 m 1 X -1 Y 1 1 d -1 Y 3 X 1 -1 d 2 X -1 Y 1 X s 641 431 m 3 X -1 Y 2 X -1 Y 3 X -1 Y 1 X -1 Y s 650 427 m 1 X 1 -1 d 2 X -1 Y 1 X -1 Y 3 X -1 Y 1 X s 659 423 m 3 X 1 -1 d 1 X -1 Y 2 X -1 Y 1 X s 667 420 m 4 X -1 Y 2 X -1 Y 3
 X s 676 418 m 1 X -1 Y 3 X -1 Y 3 X 1 -1 d 1 X s 685 415 m 2 X -1 Y 2 X -1 Y 2 X -2 Y 3 X s 694 411 m 3 X -1 Y 3 X 1 -1 d 1 X 1 -1 d s 703 408 m 1 X -1 Y 2 X 1 -1 d 2 X 1 -1 d 1 X s 711 405 m 1 X -1 Y 2 X -1 Y 2 X 1 -1 d 3 X s 720 402 m -1 Y 2 X -1
 Y 4 X -1 Y 3 X s 729 399 m 2 X -1 Y 3 X 1 -1 d 2 X -2 Y 1 X s 738 395 m 1 X -1 Y 3 X 1 -1 d 4 X s 747 393 m 1 X -1 Y 6 X -1 Y 1 X s 755 391 m 3 X -1 Y 1 X -2 Y 4 X -1 Y 1 X s 764 387 m 2 X -1 Y 4 X -1 Y 3 X s 773 385 m 1 X 1 -1 d 2 X -1 Y 5 X s 782
 383 m -1 Y 6 X -1 Y 3 X s 791 381 m 1 X -1 Y 4 X -1 Y 3 X -1 Y s 799 378 m 4 X -1 Y 1 X -1 Y 4 X s 808 376 m 1 X -1 Y 2 X -1 Y 4 X -1 Y 2 X s 817 373 m 1 X -1 Y 8 X -1 Y s 826 371 m 3 X -1 Y 6 X s 835 370 m 1 X -1 Y 6 X -1 Y 1 X s 843 368 m 4 X -1 Y
 5 X -1 Y s 852 366 m 3 X -1 Y 4 X -1 Y 2 X s 861 364 m 5 X -1 Y 4 X s 870 363 m 1 X -1 Y 5 X -1 Y 3 X s 879 361 m 1 -1 d 3 X 1 -1 d 3 X s 887 359 m 1 -1 d 8 X -1 Y s 896 357 m 2 X -1 Y 7 X s 905 356 m -1 Y 9 X s 914 355 m 1 X -1 Y 6 X -1 Y 2 X s 923
 353 m 4 X -1 Y 4 X -1 Y s 931 351 m 5 X 1 -1 d 3 X s 940 350 m 1 X -1 Y 6 X -1 Y 2 X s 949 348 m 5 X -1 Y 4 X s 958 347 m 6 X -1 Y 3 X s 967 346 m 4 X 1 -1 d 3 X s 975 345 m 1 X -1 Y 8 X s 984 344 m -1 Y 9 X s 993 343 m 1 X -1 Y 2 X -1 Y 4 X -1 Y 2
 X s 1002 340 m 3 X 1 -1 d 5 X s 1011 339 m -1 Y 6 X -1 Y 2 X s 1019 337 m 9 X -1 Y s 1028 336 m 6 X -1 Y 3 X s 1037 335 m 6 X -1 Y 3 X s 1046 334 m 4 X -1 Y 2 X -1 Y 3 X s 1055 332 m 4 X 1 -1 d 3 X s 1063 331 m 1 X -1 Y 5 X 1 -1 d 2 X s 1072 329 m 7
 X -1 Y 2 X s 1081 328 m 7 X -1 Y 2 X s 1090 327 m 6 X -1 Y 3 X s 1099 326 m 3 X -1 Y 5 X s 1107 325 m 4 X -1 Y 5 X s 1116 324 m -1 Y 9 X s 1125 323 m 1 X -1 Y 6 X -1 Y 2 X s 1134 321 m 4 X -1 Y 5 X s 1143 320 m 4 X -1 Y 4 X s 1151 319 m 9 X -1 Y s
 1160 318 m 9 X s 1169 318 m 4 X -1 Y 5 X s 1178 317 m 3 X -1 Y 4 X -1 Y 2 X s 1187 315 m 8 X s 1195 315 m 1 X -1 Y 8 X s 1204 314 m 7 X -1 Y 2 X s 1213 313 m 2 X -1 Y 6 X 1 -1 d s 1222 311 m 9 X s 1231 311 m 5 X -1 Y 3 X s 1239 310 m 9 X -1 Y s 1248
 309 m 9 X s 1257 309 m -1 Y 9 X s 1266 308 m 2 X -1 Y 7 X s 1275 307 m 6 X 1 -1 d 1 X s 1283 306 m 9 X s 1292 306 m 5 X -1 Y 2 X -1 Y 2 X s 1301 304 m 9 X s 1310 304 m 1 -1 d 4 X -1 Y 4 X s 1319 302 m 1 X 1 -1 d 6 X -1 Y s 1327 300 m 9 X s 1336 300
 m 3 X -1 Y 3 X 1 -1 d 2 X s 1345 298 m 8 X -1 Y 1 X s 1354 297 m 6 X 1 -1 d 2 X s 1363 296 m 2 X -1 Y 6 X s 1371 295 m 3 X -1 Y 6 X s 1380 294 m 6 X -1 Y 3 X s 1389 293 m 5 X 1 -1 d 3 X s 1398 292 m 2 X -1 Y 7 X s 1407 291 m 8 X s 1415 291 m 1 X -1
 Y 8 X s 1424 290 m 9 X -1 Y s 1433 289 m 9 X s 1442 289 m 6 X -1 Y 3 X s 1451 288 m 8 X -1 Y s 1459 287 m 9 X -1 Y s 1468 286 m 9 X s 1477 286 m 7 X -1 Y 2 X -1 Y s 1486 284 m 9 X s 1495 284 m 6 X -1 Y 2 X s 1503 283 m 9 X s 1512 283 m 3 X -1 Y 4 X
 -2 Y 2 X s 1521 280 m 9 X s 1530 280 m 2 X 1 -1 d 6 X s 1539 279 m 8 X s 1547 279 m 1 X -1 Y 8 X -1 Y s 1556 277 m 9 X s 1565 277 m 9 X s 1574 277 m 7 X 1 -1 d 1 X s 1583 276 m 8 X s 1591 276 m 7 X -1 Y 2 X s 1600 275 m 6 X -1 Y 3 X s 1609 274 m 3 X
 -1 Y 6 X s 1618 273 m 5 X -1 Y 4 X s 1627 272 m 8 X s 1635 272 m 5 X -1 Y 4 X s 1644 271 m 5 X -1 Y 4 X s 1653 270 m 7 X -1 Y 2 X s 1662 269 m 5 X -1 Y 4 X s 1671 268 m 8 X -1 Y s 1679 267 m 7 X -1 Y 1 X -1 Y 1 X s 1688 265 m 2 X -1 Y 7 X s 1697 264
 m 2 X 1 -1 d 6 X s 1706 263 m 3 X -1 Y 3 X -1 Y 3 X s 1715 261 m 7 X 1 -1 d s 1723 260 m 9 X -1 Y s 1732 259 m 6 X -1 Y 3 X s 1741 258 m 9 X s 1750 258 m 2 X -1 Y 5 X -1 Y 2 X s 1759 256 m 8 X s 1767 256 m 8 X -1 Y 1 X s 1776 255 m 9 X s 1785 255 m
 1 X -1 Y 8 X s 1794 254 m 4 X 1 -1 d 4 X s 1803 253 m 4 X -1 Y 5 X s 1812 252 m 2 X 1 -1 d 5 X s 1820 251 m 2 X -1 Y 7 X s 1829 250 m 3 X 1 -1 d 5 X s 1838 249 m 5 X -1 Y 4 X s 1847 248 m 3 X -1 Y 6 X s 1856 247 m 1 X -1 Y 7 X s 1864 246 m 1 X -1 Y
 6 X -1 Y 2 X s 1873 244 m 4 X 1 -1 d 4 X s 1882 243 m 2 X -1 Y 7 X s 1891 242 m 2 X -1 Y 7 X s 1900 241 m 2 X -1 Y 4 X 1 -1 d 1 X s 1908 239 m 4 X -1 Y 5 X s 1917 238 m 2 X 1 -1 d 2 X 1 -1 d 1 X -1 Y 2 X s 1926 235 m 1 X -1 Y 2 X 1 -1 d 3 X -1 Y 2 X
 s 1935 232 m 2 X -1 Y 5 X -1 Y 2 X s 1944 230 m 3 X -1 Y 2 X -1 Y 3 X s 1952 228 m 3 X -1 Y 6 X s 1961 227 m 1 -1 d 6 X -1 Y 2 X s 1970 225 m 1 X 1 -1 d 3 X -1 Y 4 X s 1979 223 m 1 -1 d 3 X -1 Y 1 X -1 Y 2 X 1 -1 d 1 X s 1988 219 m -1 Y 5 X -1 Y 2 X
 -1 Y 1 X -1 Y s 1996 215 m 2 X 1 -1 d 4 X -1 Y 2 X s 2005 213 m 1 X -1 Y 1 X 1 -1 d 2 X -1 Y 4 X -1 Y s 2014 209 m 3 X -1 Y 3 X -1 Y 3 X -1 Y s 2023 206 m 1 X -1 Y 2 X -1 Y 1 X -1 Y 5 X s 2032 203 m 1 X -1 Y 7 X s 2040 202 m 1 X s 0 0.666667 0 c 1 1
 1 c black 0 0.666667 0 c 245 1027 m 1 X 1 Y 1 X 1 Y 1 1 d 2 Y 1 1 d 2 Y 1 X 3 Y 1 X 3 Y 1 1 d 3 Y 1 X 4 Y 1 X 1 Y s 254 1050 m 1 Y 1 1 d 2 Y 1 1 d 2 Y 1 1 d 2 Y 1 X 3 Y 1 X 2 Y 1 X 2 Y 1 1 d 2 Y 1 X 2 Y 1 X s 263 1072 m 2 Y 1 X 2 Y 1 X 2 Y 1 X 2 Y 1
 X 2 Y 1 X 1 Y 1 1 d 1 Y 1 X 1 Y 1 X 2 Y s 271 1088 m 1 X 1 Y 1 1 d 1 1 d 2 Y 1 X 1 Y 1 X 2 Y 1 X 2 Y 1 X 1 Y 1 1 d 1 Y 1 X 1 Y s 280 1102 m 1 1 d 1 Y 1 X 1 Y 1 X 1 Y 1 1 d 1 1 d 1 X 2 Y 2 X 1 Y 1 X s 289 1111 m 1 Y 1 X 1 Y 1 X 1 Y 1 X 1 1 d 1 X 1 Y
 1 1 d 1 X 1 Y 1 X -1 Y 1 Y 1 1 d s 298 1119 m 1 Y 1 X 1 Y 1 X 1 Y 1 X 1 Y 1 X 2 Y 2 X 1 Y 1 X 1 Y 2 X s 307 1127 m 1 Y 1 X 1 Y -1 Y 1 1 d 1 X 1 Y 2 X 1 Y 1 X 1 Y 1 X 1 -1 d 1 Y s 315 1132 m 2 X 1 Y 1 1 d 1 X 1 Y 2 X 1 Y 1 1 d 1 X 1 Y 1 X s 324 1138
 m 1 1 d 1 X 1 Y 1 X 1 1 d 1 X 1 Y 1 X 1 1 d 1 X 1 Y 1 X s 333 1144 m 1 X 1 Y 1 X 1 Y 1 X 1 1 d 1 X 1 Y 1 X -1 Y 1 Y 1 X -1 Y 1 Y 1 X 1 Y 1 X s 342 1149 m 2 X 1 Y 1 X 1 1 d 2 X 1 Y 1 X 1 Y 2 X s 351 1153 m 1 Y 2 X 1 Y 2 X 1 Y 1 X 1 1 d 2 X 1 Y s 359
 1158 m 2 X 1 Y 1 X 1 Y 2 X 1 Y 1 X 1 1 d -1 Y 1 Y 2 X s 368 1162 m 1 1 d -1 Y 1 Y 2 X -1 Y 2 X 1 Y 2 X 1 Y 2 X 1 Y s 377 1165 m 2 X 1 Y 2 X 1 Y 2 X 1 Y 3 X s 386 1168 m 1 Y 3 X 1 Y 2 X 1 Y 2 X 1 Y 2 X s 395 1172 m 3 X 1 Y -1 Y 5 X 1 Y s 403 1173 m 2
 X 1 1 d 2 X 1 Y 3 X 1 Y 1 X s 412 1176 m 1 X 1 Y 2 X 1 Y 2 X 1 Y 4 X s 421 1179 m 1 X 1 Y 6 X 1 Y -1 Y 1 1 d 1 X s 430 1181 m 2 X 1 Y 2 X 1 1 d 2 X 1 Y 2 X s 439 1184 m 1 1 d -1 Y 1 Y 2 X 1 1 d -1 Y 1 Y 4 X s 447 1186 m 2 X 1 Y 5 X 1 Y 2 X 1 Y s 456
 1189 m 4 X 1 Y 5 X 1 Y s 465 1191 m 4 X 1 Y 3 X 1 Y -1 Y 1 Y 2 X s 474 1193 m 1 Y 3 X 1 1 d 1 X 1 Y 3 X 1 Y -1 Y 1 Y 1 X s 483 1197 m 4 X 1 Y 1 -1 d 1 Y 3 X s 491 1198 m 3 X 1 Y 4 X 1 Y 2 X 1 Y s 500 1201 m 1 X -1 Y 1 1 d -1 Y 2 X 1 Y -1 Y 2 X 1 Y 3
 X s 509 1201 m 1 X 1 Y 4 X 1 Y 4 X s 518 1203 m 1 Y 4 X 1 Y 3 X 1 Y 2 X s 527 1206 m 2 X 1 1 d -1 Y 1 X 1 Y 4 X s 535 1207 m 1 1 d 2 X 1 Y 4 X 1 Y 2 X s 544 1210 m 1 X 1 Y 3 X 1 Y -1 Y 2 X 1 Y 3 X s 553 1212 m 1 Y 5 X 1 Y 4 X s 562 1214 m 5 X 1 Y -1
 Y 2 X 1 Y 2 X s 571 1215 m 5 X 1 1 d 2 X s 579 1216 m 1 X 1 Y 7 X 1 Y 1 X -1 Y 1 Y s 588 1218 m 5 X 1 Y 4 X s 597 1219 m 1 X 1 Y 4 X -1 Y 1 Y 2 X -1 Y 1 X 1 Y 1 X s 606 1220 m 2 X 1 Y 1 X -1 Y 1 X 1 Y 4 X 1 Y 1 X s 615 1222 m 8 X s 623 1222 m 1 X 1
 Y 7 X 1 Y 1 X -1 Y s 632 1223 m 3 X 1 -1 d 1 X 1 1 d 3 X s 641 1223 m 8 X 1 Y 1 X s 650 1224 m 2 X 1 Y 7 X s 659 1225 m 1 Y 2 X -1 Y 1 X 1 1 d 1 X -1 Y 1 Y 3 X s 667 1226 m 6 X 1 Y 3 X s 676 1227 m 1 X -1 Y 3 X 1 Y 5 X s 685 1227 m 3 X 1 1 d 2 X 1 Y
 3 X s 694 1229 m 5 X 1 Y 3 X -1 Y 1 Y 1 X s 703 1230 m 3 X 1 1 d -1 Y 1 X 1 1 d 2 X s 711 1231 m 2 X 1 1 d -1 Y 6 X s 720 1231 m 3 X 1 Y 2 X -1 Y 4 X s 729 1231 m 6 X 1 Y 1 X -1 Y 1 X 1 Y 1 X s 738 1232 m 1 X 1 1 d 7 X s 747 1233 m 4 X 1 Y 3 X 1 -1
 d s 755 1233 m 1 X 1 Y 4 X 1 Y 2 X -1 Y 2 X s 764 1234 m 1 X 1 Y 8 X s 773 1235 m 2 X 1 Y 7 X s 782 1236 m 3 X 1 1 d 5 X s 791 1237 m -1 Y 1 X 1 Y 7 X s 799 1237 m 4 X 1 Y 5 X s 808 1238 m 2 X 1 1 d 1 X -1 Y 1 X 1 Y 4 X s 817 1239 m 9 X s 826 1239 m
 1 X 1 Y 3 X -1 Y 2 X -1 Y 2 X 1 1 d s 835 1239 m 8 X s 843 1239 m 9 X s 852 1239 m 2 X 1 Y 5 X -1 Y 2 X s 861 1239 m 9 X s 870 1239 m 2 X 1 1 d 1 X -1 Y 1 Y 5 X s 879 1240 m 4 X 1 1 d 3 X s 887 1241 m 9 X s 896 1241 m 1 X 1 Y 8 X s 905 1242 m 9 X s
 914 1242 m 3 X -1 Y 6 X s 923 1241 m 8 X s 931 1241 m 2 X 1 1 d 6 X s 940 1242 m 2 X 1 1 d 1 X -1 Y 2 X 1 Y 3 X s 949 1243 m 1 X -1 Y 1 X 1 Y 6 X -1 Y 1 X s 958 1242 m 9 X s 967 1242 m 2 X -1 Y 1 X 1 Y 5 X s 975 1242 m 9 X s 984 1242 m 9 X s 993
 1242 m 1 -1 d 4 X 1 Y 3 X -1 Y 1 X s 1002 1241 m 6 X 1 Y -1 Y 3 X s 1011 1241 m 1 X 1 Y 1 X 1 -1 d 1 1 d 4 X s 1019 1242 m 7 X -1 Y 2 X s 1028 1241 m 1 1 d 1 X -1 Y 7 X s 1037 1241 m 2 X -1 Y 7 X s 1046 1240 m -1 Y 4 X 1 Y 5 X s 1055 1240 m 3 X 1 Y
 5 X s 1063 1241 m 6 X 1 Y 3 X s 1072 1242 m 9 X s 1081 1242 m 1 X -2 Y 6 X -1 Y 1 1 d 1 X s 1090 1240 m 9 X s 1099 1240 m 8 X s 1107 1240 m 3 X -2 Y 1 1 d 5 X s 1116 1239 m 9 X s 1125 1239 m 3 X -1 Y 1 X 1 Y 5 X s 1134 1239 m 9 X s 1143 1239 m 1 Y 2
 X -1 Y 6 X s 1151 1239 m 9 X s 1160 1239 m 9 X s 1169 1239 m 4 X -1 Y 1 X -2 Y 4 X s 1178 1236 m 5 X 1 Y 4 X s 1187 1237 m 7 X 1 -1 d s 1195 1236 m 3 X 1 Y -1 Y 6 X 1 Y s 1204 1237 m 9 X s 1213 1237 m 2 X 1 Y 1 X -1 Y 6 X s 1222 1237 m 1 X -1 Y 8 X
 s 1231 1236 m 8 X s 1239 1236 m 4 X -1 Y 1 Y 3 X -1 Y 2 X s 1248 1235 m 6 X 1 1 d -2 Y 2 X s 1257 1234 m 9 X s 1266 1234 m 1 X -1 Y 2 X 1 Y 4 X 1 Y 2 X s 1275 1235 m 8 X s 1283 1235 m 4 X 1 -1 d 4 X -1 Y s 1292 1233 m 9 X s 1301 1233 m 9 X s 1310
 1233 m 1 X 1 Y 8 X s 1319 1234 m 3 X 1 1 d 4 X -1 Y s 1327 1234 m 2 X -1 Y 2 X -1 Y 1 Y 1 X -1 Y 4 X s 1336 1232 m 2 X -1 Y 4 X 1 1 d 2 X s 1345 1232 m 1 X 1 -1 d 2 X -1 Y 5 X s 1354 1230 m 1 X -1 Y 6 X 1 Y 1 X -1 Y 1 X s 1363 1229 m 2 X -1 Y 6 X -1
 Y s 1371 1227 m 6 X -1 Y 3 X s 1380 1226 m 1 X 1 Y 4 X 1 -1 d 3 X s 1389 1226 m 9 X s 1398 1226 m 9 X s 1407 1226 m 8 X s 1415 1226 m 1 X -1 Y 1 X -1 Y 2 X -1 Y 2 X 1 Y 3 X s 1424 1224 m 1 X -1 Y 4 X -1 Y 4 X s 1433 1222 m 9 X s 1442 1222 m -1 Y 1 X
 1 Y 1 -1 d 5 X 1 -1 d 1 X s 1451 1220 m 3 X -1 Y 5 X 1 Y s 1459 1220 m 8 X -1 Y 1 X s 1468 1219 m 9 X s 1477 1219 m 7 X 1 Y 2 X s 1486 1220 m 2 X 1 Y 2 X -1 Y 5 X s 1495 1220 m -1 Y 2 X -2 Y 1 X -1 Y 1 X -1 Y 1 X -1 Y 2 X 1 Y 1 -1 d s 1503 1214 m 3
 X -1 Y 6 X -1 Y s 1512 1212 m 7 X 1 Y 2 X s 1521 1213 m 1 1 d 1 X -1 Y 1 X 1 -1 d 1 X 1 1 d 3 X s 1530 1213 m 1 Y 1 X -2 Y 1 X 1 Y 2 X -1 Y 1 X -1 Y 1 Y 1 -1 d 1 X -1 Y 1 X -1 Y 1 X s 1539 1209 m 1 X -1 Y 7 X s 1547 1208 m 1 X 1 -1 d 1 1 d 4 X -1 Y
 2 X s 1556 1207 m 2 X -1 Y 2 X 1 Y 1 X -1 Y 1 X 1 Y 3 X s 1565 1207 m 2 X -1 Y 5 X -1 Y 2 X s 1574 1205 m 7 X 6 Y 1 X 1 Y 1 X s 1583 1212 m 5 X -1 Y 2 X 1 Y -1 Y 1 X -1 Y s 1591 1210 m 7 X -1 Y 2 X s 1600 1209 m 3 X -2 Y 1 Y 1 X -1 Y 1 X -1 Y 1 X 1
 Y 3 X s 1609 1207 m 1 X -2 Y 8 X s 1618 1205 m -1 Y 9 X s 1627 1204 m 8 X s 1635 1204 m 1 X 1 -1 d 1 X -2 Y 2 X 1 Y 1 X -1 Y 2 X -1 Y 1 X s 1644 1200 m 1 X -1 Y 4 X 1 -1 d 1 Y 3 X s 1653 1199 m 3 X -1 Y 3 X -1 Y 3 X -2 Y s 1662 1195 m 2 X -1 Y 4 X 1
 1 d -1 Y 2 X s 1671 1194 m 4 X -2 Y 3 X -1 Y 1 X -1 Y s 1679 1190 m 3 X 1 Y 2 X -1 Y 2 X -1 Y 1 Y 2 X s 1688 1190 m 1 X 1 -1 d -1 Y 1 X 1 -1 d 5 X s 1697 1187 m -1 Y 3 X -1 Y 3 X 1 -1 d 2 X s 1706 1184 m 1 X -1 Y 1 X -1 Y 4 X 1 Y 1 X -1 Y 2 X s 1715
 1182 m 2 X -1 Y 1 X -1 Y 2 X 1 Y -1 Y 3 X s 1723 1180 m 3 X -1 Y 2 X -1 Y 1 Y -1 Y 1 Y 1 X -1 Y 2 X 1 1 d -2 Y 1 Y s 1732 1178 m -1 Y 2 X -1 Y 1 1 d -1 Y 1 X -2 Y 5 X -1 Y s 1741 1173 m 1 Y 4 X -2 Y 3 X -2 Y 2 X s 1750 1170 m 1 -1 d 2 X -1 Y 1 Y 1
 -1 d 1 Y 1 -2 d 1 Y -1 Y 4 X s 1759 1167 m 1 X -1 Y 7 X -1 Y s 1767 1165 m 3 X -1 Y 1 X -1 Y 2 X -2 Y 3 X s 1776 1161 m 3 X -1 Y 1 -1 d 2 X -1 Y 1 X -4 Y 1 X 1 1 d -1 Y s 1785 1154 m 1 X 1 Y 1 X -1 Y 2 X -1 Y 1 Y 1 -1 d 1 X -1 Y 2 X 1 Y -1 Y 1 X s
 1794 1152 m 4 X -1 Y 1 X -1 Y 2 X 1 -1 d 1 X s 1803 1149 m -1 Y 5 X -1 Y 1 Y -1 Y 1 X -2 Y 1 Y 1 X -1 Y 1 X 1 -1 d s 1812 1144 m 1 Y -1 Y 1 -1 d 3 Y 1 X -1 Y 3 X -1 Y 2 X -1 Y 1 -1 d s 1820 1142 m 1 X -1 Y 1 X -1 Y 1 -1 d 1 Y -1 Y 1 X -2 Y 1 X 1 Y
 -1 Y 1 X 1 -1 d 1 X -1 Y 1 X -1 Y s 1829 1134 m 1 -1 d 1 Y -1 Y 1 X -1 Y 2 X -1 Y 1 X -1 Y 1 X 1 Y -1 Y 1 X -1 Y 1 X -1 Y 1 X s 1838 1128 m -1 Y 1 -1 d 1 X 1 -1 d -2 Y 2 X -1 Y 1 X -1 Y 1 X 1 Y 1 -1 d -3 Y 1 1 d s 1847 1119 m 1 -1 d -2 Y 1 X -1 Y 2
 X -2 Y 1 X 1 Y -1 Y 1 X -1 Y 1 X -1 Y 1 X 1 Y 1 X s 1856 1112 m -1 Y 1 X -2 Y 1 X -2 Y 1 X -1 Y 1 -1 d -1 Y 2 X -1 Y 1 X -2 Y 1 X s 1864 1101 m -1 Y 1 X 1 -1 d -1 Y 2 X -1 Y 2 X -2 Y 1 Y -1 Y 1 1 d -2 Y 1 X -1 Y 1 X -1 Y s 1873 1092 m -1 Y 1 X -3 Y
 1 1 d -3 Y 1 X -1 Y 2 X -1 Y 2 X -1 Y 2 X 1 Y s 1882 1084 m -2 Y 1 X -1 Y 1 X -2 Y 1 2 d -1 Y 2 X -2 Y 1 X -2 Y 1 X -1 Y 2 X s 1891 1075 m -3 Y 1 X 1 -1 d -1 Y 1 X -2 Y 1 X -1 Y 1 X 1 -1 d -2 Y 1 X -2 Y 1 X -1 Y 1 X s 1900 1061 m -1 Y 1 -1 d -2 Y 2
 X -1 Y 1 X 3 Y 1 X -1 Y 1 -1 d 1 X -1 Y 1 X -1 Y s 1908 1055 m 1 X -3 Y 1 X -2 Y 1 X -1 Y 1 -1 d -3 Y 1 X -2 Y 1 -1 d -1 Y 1 X -2 Y 1 X -1 Y 1 X -2 Y s 1917 1036 m -1 Y 1 X -1 Y 1 -1 d -1 Y 1 X -2 Y 1 1 d -1 Y 1 X -1 Y 1 Y -1 Y 1 1 d -3 Y 1 X -2 Y 1
 -1 d -1 Y 1 -1 d s 1926 1022 m 2 X -2 Y 1 X -5 Y 1 X 1 Y -1 Y 1 X -1 Y 1 Y -2 Y 1 X -7 Y 1 X -3 Y 1 Y 1 -1 d 1 -1 d -1 Y s 1935 1001 m -2 Y 1 X -1 Y 1 X -2 Y 1 -1 d -1 Y 1 -1 d -4 Y 1 -1 d -2 Y 1 -2 d -1 Y 1 -1 d -3 Y 1 -1 d -1 Y 1 Y -1 Y 1 -1 d s
 1944 976 m -1 Y 1 X -9 Y 1 X -3 Y 1 X -2 Y 1 X -3 Y 1 -4 d -3 Y 1 X 1 Y -1 Y 1 -1 d -3 Y 1 X -3 Y s 1952 944 m -1 Y 1 X -3 Y 1 X -2 Y 1 X -2 Y 1 -1 d -4 Y 1 X -3 Y 1 -1 d -5 Y 1 X -3 Y 1 X -1 Y 1 Y -1 Y 1 -1 d -1 Y s 1961 916 m -1 Y 1 X -1 Y 1 -1 d
 -4 Y 1 X -4 Y 1 X -5 Y 1 X -4 Y 1 -1 d 1 Y -2 Y 1 -2 d -4 Y 1 Y 1 -1 d -4 Y 1 -1 d -3 Y s 1970 880 m 1 Y -1 Y 1 -1 d -3 Y 1 -1 d -4 Y 1 -1 d -2 Y 1 -1 d -4 Y 1 Y 1 -1 d -4 Y 1 -1 d -2 Y 1 X -5 Y 1 -1 d -4 Y 1 -1 d -4 Y s 1979 841 m -3 Y 1 X -1 Y 1
 -1 d -4 Y 1 -1 d -6 Y 1 -1 d -4 Y 1 X -5 Y 1 -3 d -5 Y 1 -1 d -6 Y 1 -1 d -3 Y 1 X s 1988 796 m -9 Y 1 -2 d -6 Y 1 -2 d -3 Y 1 -1 d -9 Y 1 -1 d -6 Y 1 -1 d -7 Y 1 1 d -5 Y 1 -1 d -4 Y 1 X -5 Y 1 Y s 1996 736 m -3 Y 1 -2 d -4 Y 1 -1 d -5 Y 1 Y -2 Y 1
 -1 d -5 Y 1 -5 d -11 Y 1 -1 d -7 Y 1 X -12 Y 1 1 d -1 Y 1 Y -4 Y 1 -4 d -9 Y 1 -5 d -3 Y s 2005 654 m -5 Y 1 -3 d -6 Y 1 -3 d -8 Y 1 -2 d -6 Y 1 -1 d -10 Y 1 -4 d -10 Y 1 -1 d -4 Y 1 -4 d -9 Y 1 -1 d -5 Y 2 Y -1 Y 1 -2 d -6 Y s 2014 565 m -7 Y 1 -4
 d -12 Y 1 -3 d -12 Y 1 -3 d -12 Y 1 -1 d -7 Y 1 -1 d -13 Y 1 -2 d -5 Y 1 -3 d -14 Y 1 X -7 Y 1 -2 d -1 Y s 2023 456 m -14 Y 1 -3 d -10 Y 1 -1 d -13 Y 1 -3 d 1 Y -13 Y 1 -2 d -12 Y 1 -2 d -16 Y 1 -3 d -14 Y 1 -4 d -14 Y 1 1 d -15 Y 1 -2 d s 2032 317
 m -2 Y 2 Y -13 Y 1 1 d -1 Y 3 Y -4 Y 1 X -8 Y 1 3 d -8 Y 1 -2 d -13 Y 1 -3 d -14 Y 1 -4 d -16 Y 1 -3 d -11 Y 1 -3 d -19 Y s 2040 202 m 1 X s black 3 lw 245 202 m 1796 X s 425 242 m -40 Y s 469 222 m -20 Y s 514 222 m -20 Y s 559 222 m -20 Y s 604
 242 m -40 Y s 649 222 m -20 Y s 694 222 m -20 Y s 739 222 m -20 Y s 784 242 m -40 Y s 829 222 m -20 Y s 874 222 m -20 Y s 919 222 m -20 Y s 964 242 m -40 Y s 1009 222 m -20 Y s 1054 222 m -20 Y s 1099 222 m -20 Y s 1144 242 m -40 Y s 1189 222 m -20
 Y s 1234 222 m -20 Y s 1279 222 m -20 Y s 1324 242 m -40 Y s 1369 222 m -20 Y s 1413 222 m -20 Y s 1458 222 m -20 Y s 1503 242 m -40 Y s 1548 222 m -20 Y s 1593 222 m -20 Y s 1638 222 m -20 Y s 1683 242 m -40 Y s 1728 222 m -20 Y s 1773 222 m -20 Y
 s 1818 222 m -20 Y s 1863 242 m -40 Y s 425 242 m -40 Y s 380 222 m -20 Y s 335 222 m -20 Y s 290 222 m -20 Y s 1863 242 m -40 Y s 1908 222 m -20 Y s 1953 222 m -20 Y s 1998 222 m -20 Y s 245 202 m 1145 Y s 291 202 m -46 X s 268 254 m -23 X s 268
 306 m -23 X s 268 358 m -23 X s 291 410 m -46 X s 268 462 m -23 X s 268 514 m -23 X s 268 566 m -23 X s 291 618 m -46 X s 268 670 m -23 X s 268 722 m -23 X s 268 775 m -23 X s 291 827 m -46 X s 268 879 m -23 X s 268 931 m -23 X s 268 983 m -23 X s
 291 1035 m -46 X s 268 1087 m -23 X s 268 1139 m -23 X s 268 1191 m -23 X s 291 1243 m -46 X s 291 1243 m -46 X s 268 1295 m -23 X s 268 1347 m -23 X s 0.490196 0.545098 0.615686 c 1 1 1 c 0.490196 0.545098 0.615686 c 907 202 245 1347 bl 245 1347 m
 907 X s 1152 1347 m 202 Y s 1152 1549 m -907 X s 245 1549 m -202 Y s black
 gsave  2268 1684 0 0 C 515.735 1478.95 t 0 r /Helvetica-Bold findfont 53.0904 sf 0 0 m (Signal efficiency) show NC gr  0 0 0.933333 c 9 lw 286 1499 m 190 X s black
 gsave  2268 1684 0 0 C 515.735 1376.56 t 0 r /Helvetica-Bold findfont 53.0904 sf 0 0 m (Background efficiency) show NC gr  1 0 0 c 286 1397 m 190 X s 0.490196 0.545098 0.615686 c 3 lw 1 1 1 c 0.490196 0.545098 0.615686 c 889 202 1152 1347 bl 1152
 1347 m 889 X s 2041 1347 m 202 Y s 2041 1549 m -889 X s 1152 1549 m -202 Y s black
 gsave  2268 1684 0 0 C 1418.27 1501.7 t 0 r /Helvetica-Bold findfont 56.8825 sf 0 0 m (Signal purity) show NC gr  0 0 0.933333 c[  52 12 ] 0 sd 6 lw 1192 1515 m 187 X s black
 gsave  2268 1684 0 0 C 1418.27 1433.44 t 0 r /Helvetica-Bold findfont 56.8825 sf 0 0 m (Signal efficiency*purity) show NC gr  0 0 0.933333 c[  22 12 ] 0 sd 1192 1448 m 187 X s black
 gsave  2268 1684 0 0 C 1501.7 1368.97 t 0 r /Helvetica-Bold findfont 56.8825 sf 0 0 m (S+B) show NC gr [  ] 0 sd 1483 1414 m 7 -49 d s 3 lw 1490 1365 m 8 65 d s 1498 1430 m 114 X s
 gsave  2268 1684 0 0 C 1418.27 1368.97 t 0 r /Helvetica-Bold findfont 56.8825 sf 0 0 m (S/) show NC gr  0 0.666667 0 c 9 lw 1192 1381 m 187 X s black 3 lw 245 1243 m 1796 X s
 gsave  2268 1684 0 0 C 337.503 390.593 t 0 r /Helvetica-Bold findfont 53.0904 sf 0 0 m (For 1000 signal and 1000 background) show NC gr 
 gsave  2268 1684 0 0 C 1065.6 322.334 t 0 r /Helvetica-Bold findfont 53.0904 sf 0 0 m ( is) show NC gr 
 gsave  2268 1684 0 0 C 963.211 322.334 t 0 r /Helvetica-Bold findfont 53.0904 sf 0 0 m (S+B) show NC gr  6 lw 940 364 m 8 -45 d s 3 lw 948 319 m 8 60 d s 956 379 m 110 X s
 gsave  2268 1684 0 0 C 337.503 322.334 t 0 r /Helvetica-Bold findfont 53.0904 sf 0 0 m (events the maximum S/) show NC gr 
 gsave  2268 1684 0 0 C 337.503 254.075 t 0 r /Helvetica-Bold findfont 53.0904 sf 0 0 m (28.21 when cutting at \2550.21) show NC gr  0.490196 0.545098 0.615686 c 0.364706 0.419608 0.490196 c 1554 100 23 1575 bf 0.490196 0.545098 0.615686 c 23 1575 m
 1554 X s 1577 1575 m 100 Y s 1577 1675 m -1554 X s 23 1675 m -100 Y s 1 1 1 c black 1 1 1 c
 gsave  2268 1684 0 0 C 75.8434 1604.09 t 0 r /Helvetica-Bold findfont 79.6355 sf 0 0 m (Cut efficiencies and optimal cut value) show NC gr  0 0.666667 0 c 2041 202 m 1145 Y s 1995 202 m 46 X s 2018 239 m 23 X s 2018 276 m 23 X s 2018 313 m 23 X s
 2018 350 m 23 X s 1995 387 m 46 X s 2018 423 m 23 X s 2018 460 m 23 X s 2018 497 m 23 X s 2018 534 m 23 X s 1995 571 m 46 X s 2018 608 m 23 X s 2018 645 m 23 X s 2018 682 m 23 X s 2018 719 m 23 X s 1995 755 m 46 X s 2018 792 m 23 X s 2018 829 m 23 X
 s 2018 866 m 23 X s 2018 903 m 23 X s 1995 940 m 46 X s 2018 977 m 23 X s 2018 1014 m 23 X s 2018 1051 m 23 X s 2018 1087 m 23 X s 1995 1124 m 46 X s 2018 1161 m 23 X s 2018 1198 m 23 X s 2018 1235 m 23 X s 2018 1272 m 23 X s 1995 1309 m 46 X s 1995
 1309 m 46 X s 2018 1346 m 23 X s black 0 0.666667 0 c
 gsave  2268 1684 0 0 C 2051.56 178.232 t 0 r /Helvetica-Bold findfont 64.4669 sf 0 0 m (0) show NC gr  black 0 0.666667 0 c
 gsave  2268 1684 0 0 C 2051.56 360.256 t 0 r /Helvetica-Bold findfont 64.4669 sf 0 0 m (5) show NC gr  black 0 0.666667 0 c
 gsave  2268 1684 0 0 C 2051.56 546.072 t 0 r /Helvetica-Bold findfont 64.4669 sf 0 0 m (10) show NC gr  black 0 0.666667 0 c
 gsave  2268 1684 0 0 C 2051.56 731.888 t 0 r /Helvetica-Bold findfont 64.4669 sf 0 0 m (15) show NC gr  black 0 0.666667 0 c
 gsave  2268 1684 0 0 C 2051.56 913.913 t 0 r /Helvetica-Bold findfont 64.4669 sf 0 0 m (20) show NC gr  black 0 0.666667 0 c
 gsave  2268 1684 0 0 C 2051.56 1099.73 t 0 r /Helvetica-Bold findfont 64.4669 sf 0 0 m (25) show NC gr  black 0 0.666667 0 c
 gsave  2268 1684 0 0 C 2051.56 1285.55 t 0 r /Helvetica-Bold findfont 64.4669 sf 0 0 m (30) show NC gr  black 0 0.666667 0 c
 gsave  2268 1684 0 0 C 2203.25 967.003 t 90 r /Helvetica-Bold findfont 64.4669 sf 0 0 m (Significance) show NC gr 
 gr  gr showpage
end
%%EOF
