%!PS-Adobe-2.0 EPSF-2.0
%%BoundingBox:  0 0 567 421
%%Title: dataset_class_comb2_all/plots/mvaeffs_LikelihoodD.eps: Cut efficiencies for LikelihoodD classifier
%%Creator: ROOT Version 6.18/00
%%CreationDate: Sat Sep 14 15:09:28 2019
%%DocumentNeededResources: ProcSet (FontSetInit)
%%EndComments
%%BeginProlog
80 dict begin
/s {stroke} def /l {lineto} def /m {moveto} def /t {translate} def
/r {rotate} def /rl {roll}  def /R {repeat} def
/d {rlineto} def /rm {rmoveto} def /gr {grestore} def /f {eofill} def
/c {setrgbcolor} def /black {0 setgray} def /sd {setdash} def
/cl {closepath} def /sf {scalefont setfont} def /lw {setlinewidth} def
/box {m dup 0 exch d exch 0 d 0 exch neg d cl} def
/NC{systemdict begin initclip end}def/C{NC box clip newpath}def
/bl {box s} def /bf {gsave box gsave f grestore 1 lw [] 0 sd s grestore} def /Y { 0 exch d} def /X { 0 d} def 
/K {{pop pop 0 moveto} exch kshow} bind def
/ita {/ang 15 def gsave [1 0 ang dup sin exch cos div 1 0 0] concat} def 
/mp {newpath /y exch def /x exch def} def
/side {[w .77 mul w .23 mul] .385 w mul sd w 0 l currentpoint t -144 r} def
/mr {mp x y w2 0 360 arc} def /m24 {mr s} def /m20 {mr f} def
/mb {mp x y w2 add m w2 neg 0 d 0 w neg d w 0 d 0 w d cl} def
/mt {mp x y w2 add m w2 neg w neg d w 0 d cl} def
/w4 {w 4 div} def
/w6 {w 6 div} def
/w8 {w 8 div} def
/m21 {mb f} def /m25 {mb s} def /m22 {mt f} def /m26{mt s} def
/m23 {mp x y w2 sub m w2 w d w neg 0 d cl f} def
/m27 {mp x y w2 add m w3 neg w2 neg d w3 w2 neg d w3 w2 d cl s} def
/m28 {mp x w2 sub y w2 sub w3 add m w3 0 d  0 w3 neg d w3 0 d 0 w3 d w3 0 d  0 w3 d w3 neg 0 d 0 w3 d w3 neg 0 d 0 w3 neg d w3 neg 0 d cl s } def
/m29 {mp gsave x w2 sub y w2 add w3 sub m currentpoint t 4 {side} repeat cl fill gr} def
/m30 {mp gsave x w2 sub y w2 add w3 sub m currentpoint t 4 {side} repeat cl s gr} def
/m31 {mp x y w2 sub m 0 w d x w2 sub y m w 0 d x w2 sub y w2 add m w w neg d x w2 sub y w2 sub m w w d s} def
/m32 {mp x y w2 sub m w2 w d w neg 0 d cl s} def
/m33 {mp x y w2 add m w3 neg w2 neg d w3 w2 neg d w3 w2 d cl f} def
/m34 {mp x w2 sub y w2 sub w3 add m w3 0 d  0 w3 neg d w3 0 d 0 w3 d w3 0 d  0 w3 d w3 neg 0 d 0 w3 d w3 neg 0 d 0 w3 neg d w3 neg 0 d cl f } def
/m35 {mp x y w2 add m w2 neg w2 neg d w2 w2 neg d w2 w2 d w2 neg w2 d x y w2 sub m 0 w d x w2 sub y m w 0 d s} def
/m36 {mb x w2 sub y w2 add m w w neg d x w2 sub y w2 sub m w w d s} def
/m37 {mp x y m w4 neg w2 d w4 neg w2 neg d w2 0 d  w4 neg w2 neg d w2 0 d w4 neg w2 d w2 0 d w4 neg w2 d w4 neg w2 neg d cl s} def
/m38 {mp x w4 sub y w2 add m w4 neg w4 neg d 0 w2 neg d w4 w4 neg d w2 0 d w4 w4 d 0 w2 d w4 neg w4 d w2 neg 0 d x y w2 sub m 0 w d x w2 sub y m w 0 d cl s} def
/m39 {mp x y m w4 neg w2 d w4 neg w2 neg d w2 0 d  w4 neg w2 neg d w2 0 d w4 neg w2 d w2 0 d w4 neg w2 d w4 neg w2 neg d cl f} def
/m40 {mp x y m w4 w2 d w4 w4 neg d w2 neg w4 neg d w2 w4 neg d w4 neg w4 neg d w4 neg w2 d w4 neg w2 neg d w4 neg w4 d w2 w4 d w2 neg w4 d w4 w4 d w4 w2 neg d cl s} def
/m41 {mp x y m w4 w2 d w4 w4 neg d w2 neg w4 neg d w2 w4 neg d w4 neg w4 neg d w4 neg w2 d w4 neg w2 neg d w4 neg w4 d w2 w4 d w2 neg w4 d w4 w4 d w4 w2 neg d cl f} def
/m42 {mp x y w2 add m w8 neg w2 -3 4 div mul d w2 -3 4 div mul w8 neg d w2 3 4 div mul w8 neg d w8 w2 -3 4 div mul d w8 w2 3 4 div mul d w2 3 4 div mul w8 d w2 -3 4 div mul w8 d w8 neg w2 3 4 div mul d cl s} def
/m43 {mp x y w2 add m w8 neg w2 -3 4 div mul d w2 -3 4 div mul w8 neg d w2 3 4 div mul w8 neg d w8 w2 -3 4 div mul d w8 w2 3 4 div mul d w2 3 4 div mul w8 d w2 -3 4 div mul w8 d w8 neg w2 3 4 div mul d cl f} def
/m44 {mp x y m w6 neg w2 d w2 2 3 div mul 0 d w6 neg w2 neg d w2 w6 d 0 w2 -2 3 div mul d w2 neg w6 d w6 w2 neg d w2 -2 3 div mul 0 d w6 w2 d w2 neg w6 neg d 0 w2 2 3 div mul d w2 w6 neg d cl s} def
/m45 {mp x y m w6 neg w2 d w2 2 3 div mul 0 d w6 neg w2 neg d w2 w6 d 0 w2 -2 3 div mul d w2 neg w6 d w6 w2 neg d w2 -2 3 div mul 0 d w6 w2 d w2 neg w6 neg d 0 w2 2 3 div mul d w2 w6 neg d cl f} def
/m46 {mp x y w4 add m w4 neg w4 d w4 neg w4 neg d  w4 w4 neg d w4 neg w4 neg d w4 w4 neg d w4 w4 d w4 w4 neg d w4 w4 d w4 neg w4 d w4 w4 d w4 neg w4 d w4 neg w4 neg d cl s} def
/m47 {mp x y w4 add m w4 neg w4 d w4 neg w4 neg d w4 w4 neg d w4 neg w4 neg d  w4 w4 neg d w4 w4 d w4 w4 neg d w4 w4 d w4 neg w4 d w4 w4 d w4 neg w4 d w4 neg w4 neg d cl f} def
/m48 {mp x y w4 add m w4 neg w4 d w4 neg w4 neg d w4 w4 neg d  w4 neg w4 neg d w4 w4 neg d w4 w4 d w4 w4 neg d w4 w4 d w4 neg w4 d w4 w4 d w4 neg w4 d w4 neg w4 neg d  w4 w4 neg d w4 neg w4 neg d w4 neg w4 d w4 w4 d cl f} def
/m49 {mp x w2 sub w3 add y w2 sub w3 add m  0 w3 neg d w3 0 d 0 w3 d w3 0 d 0 w3 d w3 neg 0 d 0 w3 d w3 neg 0 d 0 w3 neg d w3 neg 0 d 0 w3 neg d w3 0 d 0 w3 d w3 0 d 0 w3 neg d w3 neg 0 d cl f } def
/m2 {mp x y w2 sub m 0 w d x w2 sub y m w 0 d s} def
/m5 {mp x w2 sub y w2 sub m w w d x w2 sub y w2 add m w w neg d s} def
%%IncludeResource: ProcSet (FontSetInit)
%%IncludeResource: font Times-Roman
%%IncludeResource: font Times-Italic
%%IncludeResource: font Times-Bold
%%IncludeResource: font Times-BoldItalic
%%IncludeResource: font Helvetica
%%IncludeResource: font Helvetica-Oblique
%%IncludeResource: font Helvetica-Bold
%%IncludeResource: font Helvetica-BoldOblique
%%IncludeResource: font Courier
%%IncludeResource: font Courier-Oblique
%%IncludeResource: font Courier-Bold
%%IncludeResource: font Courier-BoldOblique
%%IncludeResource: font Symbol
%%IncludeResource: font ZapfDingbats
/reEncode {exch findfont dup length dict begin {1 index /FID eq  {pop pop} {def} ifelse } forall /Encoding exch def currentdict end dup /FontName get exch definefont pop } def [/Times-Bold /Times-Italic /Times-BoldItalic /Helvetica /Helvetica-Oblique
 /Helvetica-Bold /Helvetica-BoldOblique /Courier /Courier-Oblique /Courier-Bold /Courier-BoldOblique /Times-Roman /AvantGarde-Book /AvantGarde-BookOblique /AvantGarde-Demi /AvantGarde-DemiOblique /Bookman-Demi /Bookman-DemiItalic /Bookman-Light
 /Bookman-LightItalic /Helvetica-Narrow /Helvetica-Narrow-Bold /Helvetica-Narrow-BoldOblique /Helvetica-Narrow-Oblique /NewCenturySchlbk-Roman /NewCenturySchlbk-Bold /NewCenturySchlbk-BoldItalic /NewCenturySchlbk-Italic /Palatino-Bold
 /Palatino-BoldItalic /Palatino-Italic /Palatino-Roman ] {ISOLatin1Encoding reEncode } forall
%%EndProlog
%%BeginSetup
%%EndSetup
newpath  gsave  .25 .25 scale  gsave  0 0 t 0.490196 0.545098 0.615686 c[  ] 0 sd 3 lw 0.941176 0.941176 0.941176 c 2268 1684 0 0 bf black 1 1 0.992157 c 1796 1145 245 202 bf black 1796 1145 245 202 bl 1 1 0.992157 c 1796 1145 245 202 bf black 1796
 1145 245 202 bl 245 202 m 1796 X s[ 4 8] 0 sd 332 1347 m -1145 Y s 540 1347 m -1145 Y s 749 1347 m -1145 Y s 957 1347 m -1145 Y s 1165 1347 m -1145 Y s 1374 1347 m -1145 Y s 1582 1347 m -1145 Y s 1791 1347 m -1145 Y s 1999 1347 m -1145 Y s 332 1347
 m -1145 Y s 1999 1347 m -1145 Y s[  ] 0 sd 245 202 m 1145 Y s[ 4 8] 0 sd 2041 202 m -1796 X s 2041 410 m -1796 X s 2041 618 m -1796 X s 2041 827 m -1796 X s 2041 1035 m -1796 X s 2041 1243 m -1796 X s 2041 1243 m -1796 X s 0 0 0.933333 c[  22 12 ] 0
 sd 6 lw 0.49 0.6 0.82 c black 0 0 0.933333 c 245 722 m 9 X s 254 722 m 9 X s 263 722 m 8 X s 271 722 m 9 X s 280 722 m 9 X s 289 722 m 9 X s 298 722 m 9 X s 307 722 m 8 X s 315 722 m 9 X s 324 722 m 9 X s 333 722 m 9 X s 342 722 m 9 X s 351 722 m 8
 X s 359 722 m 9 X s 368 722 m 9 X s 377 722 m 9 X s 386 722 m 9 X s 395 722 m 8 X s 403 722 m 9 X s 412 722 m 9 X s 421 722 m 9 X s 430 722 m 9 X s 439 722 m 8 X s 447 722 m 9 X s 456 722 m 9 X s 465 722 m 9 X s 474 722 m 9 X s 483 722 m 8 X s 491
 722 m 9 X s 500 722 m 1 Y 9 X s 509 723 m 9 X s 518 723 m 9 X s 527 723 m 8 X s 535 723 m 9 X s 544 723 m 9 X s 553 723 m 9 X s 562 723 m 9 X s 571 723 m 8 X s 579 723 m 9 X s 588 723 m 9 X s 597 723 m 9 X s 606 723 m 9 X s 615 723 m 8 X s 623 723 m
 9 X s 632 723 m 9 X s 641 723 m 9 X s 650 723 m 9 X s 659 723 m 8 X s 667 723 m 9 X s 676 723 m 9 X s 685 723 m 9 X s 694 723 m 9 X s 703 723 m 1 X 1 Y 7 X s 711 724 m 9 X s 720 724 m 9 X s 729 724 m 9 X s 738 724 m 9 X s 747 724 m 8 X s 755 724 m 9
 X s 764 724 m 9 X s 773 724 m 9 X s 782 724 m 9 X s 791 724 m 8 X s 799 724 m 9 X s 808 724 m 9 X s 817 724 m 9 X s 826 724 m 9 X s 835 724 m 8 X s 843 724 m 9 X s 852 724 m 7 X 1 1 d 1 X s 861 725 m 9 X s 870 725 m 9 X s 879 725 m 8 X s 887 725 m 9
 X s 896 725 m 9 X s 905 725 m 9 X s 914 725 m 9 X s 923 725 m 8 X s 931 725 m 9 X s 940 725 m 9 X s 949 725 m 9 X s 958 725 m 9 X s 967 725 m 8 X s 975 725 m 9 X s 984 725 m 9 X s 993 725 m 9 X s 1002 725 m 9 X s 1011 725 m 8 X s 1019 725 m 2 X 1 Y
 7 X s 1028 726 m 9 X s 1037 726 m 9 X s 1046 726 m 4 X 1 Y -1 Y 4 X 1 Y 1 X s 1055 727 m 8 X s 1063 727 m 4 X 1 1 d 4 X s 1072 728 m 4 X 1 Y 5 X s 1081 729 m 2 X 1 1 d 3 X 1 Y 3 X s 1090 731 m 3 X 1 Y 5 X 1 Y 1 X s 1099 733 m 3 X 1 Y 3 X 1 Y 2 X s
 1107 735 m 3 X 1 Y 4 X 1 Y 2 X s 1116 737 m 7 X 1 Y 2 X s 1125 738 m 9 X s 1134 738 m 9 X s 1143 738 m 8 X s 1151 738 m 9 X s 1160 738 m 9 X s 1169 738 m 9 X s 1178 738 m 9 X s 1187 738 m 8 X s 1195 738 m 9 X s 1204 738 m 9 X s 1213 738 m 2 X 1 Y 7
 X s 1222 739 m 9 X s 1231 739 m 1 Y 8 X s 1239 740 m 5 X 1 1 d 3 X s 1248 741 m 5 X 1 Y 4 X s 1257 742 m 2 X 1 Y 3 X 1 Y 4 X s 1266 744 m 1 X 1 Y 5 X 1 Y 3 X s 1275 746 m 1 X 1 Y 4 X 1 Y 3 X 1 Y s 1283 749 m 1 X -1 Y 1 X 1 Y 3 X 1 Y 2 X 1 1 d 1 X 1
 Y s 1292 752 m 4 X 1 Y 3 X 1 Y 2 X s 1301 754 m 1 X 1 Y 3 X 1 Y 3 X 1 1 d 1 Y 1 X s 1310 758 m 2 X 1 Y 5 X 1 Y 2 X s 1319 760 m 3 X 1 Y 5 X s 1327 761 m 3 X 1 Y 6 X s 1336 762 m 5 X 1 Y 4 X s 1345 763 m 9 X s 1354 763 m 4 X 1 Y 2 X 1 -1 d 2 X s 1363
 763 m 8 X s 1371 763 m 9 X s 1380 763 m 3 X 1 Y 6 X s 1389 764 m 9 X s 1398 764 m 9 X s 1407 764 m 8 X s 1415 764 m 1 X 1 Y 8 X s 1424 765 m 8 X 1 1 d s 1433 766 m 6 X 1 Y 3 X s 1442 767 m 2 X 1 Y 5 X 1 1 d 1 X s 1451 769 m 4 X 1 Y 3 X 1 Y 1 X s
 1459 771 m 4 X 1 Y 1 -1 d 1 X 1 Y 2 X 1 Y 1 X s 1468 773 m 3 X 1 Y 3 X 1 Y 3 X 1 Y s 1477 776 m 2 X -1 Y 1 X 1 1 d 1 X 1 1 d 2 X 1 Y 1 X s 1486 778 m 1 X 1 Y 2 X 1 Y 3 X 1 Y 1 X 1 Y 2 X -1 Y s 1495 781 m 1 Y 2 X 1 Y 1 X 1 Y 1 X 1 Y 2 X 1 Y 1 X 1 Y 1
 X 1 Y s 1503 788 m 2 X 1 Y 2 X 1 Y 1 1 d 1 X 1 1 d 1 X 1 1 d s 1512 793 m 2 X 1 Y 2 X 1 Y 1 X 1 Y 1 X 1 -1 d 1 X 1 Y 1 X s 1521 796 m 1 X 1 1 d 1 X 1 Y 1 X 1 1 d 3 X 1 Y 1 X 1 Y s 1530 801 m 1 X 1 Y 3 X 1 Y 3 X 1 Y 2 X s 1539 804 m 1 X 1 Y 5 X 1 Y 2
 X -1 Y 1 Y s 1547 806 m 2 X -1 Y 4 X 1 Y 3 X s 1556 806 m 4 X 1 Y 3 X -1 Y 2 X s 1565 806 m 2 X 1 1 d 6 X s 1574 807 m 5 X 1 1 d 3 X s 1583 808 m 2 X 1 -1 d 5 X s 1591 807 m 9 X s 1600 807 m 8 X 1 Y 1 X s 1609 808 m 9 X s 1618 808 m 8 X 1 Y 1 X s
 1627 809 m 8 X s 1635 809 m 5 X 1 Y 4 X s 1644 810 m 2 X 1 Y 3 X 1 Y 4 X 1 Y s 1653 813 m 4 X 1 Y 2 X 1 Y 3 X s 1662 815 m 1 Y 3 X 1 Y 2 X 1 Y 2 X 1 Y 2 X 1 Y s 1671 820 m 1 X 1 Y 2 X 1 Y -1 Y 1 X 1 1 d 1 X 1 Y 1 X 1 1 d s 1679 824 m 1 X 1 Y 2 X 1 Y
 -1 Y 1 Y 1 X 1 1 d 1 X 1 Y 1 X 1 1 d 1 X s 1688 829 m 1 Y 1 X 2 Y 1 X 1 Y 2 X 1 Y 1 X 1 Y -1 Y 1 1 d 1 Y 1 X 1 Y 1 X 1 Y 1 X s 1697 838 m 1 1 d 1 Y 1 X -1 Y 1 Y 2 X 1 Y 1 1 d 2 Y 1 X 1 Y 1 X 2 Y 1 -1 d -1 Y 1 Y 1 X s 1706 846 m 1 Y 1 X 1 Y 1 1 d 1 Y
 1 1 d 1 1 d 1 Y 1 1 d 1 Y 1 1 d 1 Y 1 X -1 Y 1 Y 1 X 2 Y 1 1 d s 1715 860 m 2 Y 1 X 3 Y 1 X 2 Y 1 X 2 Y 1 1 d 1 Y 1 1 d 2 Y 1 X 4 Y 1 X 3 Y 1 X 1 Y -1 Y 1 Y s 1723 882 m 1 1 d 1 1 d 1 Y 1 1 d 2 Y 1 X 3 Y 1 X 2 Y 1 X 3 Y 1 X 3 Y 1 1 d 2 Y 1 1 d -2 Y
 1 Y s 1732 902 m 1 Y 1 X 1 Y 1 1 d 3 Y 1 1 d 3 Y 1 1 d 2 Y 1 X 2 Y 1 -1 d 3 Y -1 Y 1 1 d 3 Y 1 1 d 3 Y 1 1 d 1 Y s 1741 928 m 2 Y 1 1 d -2 Y 2 Y 1 1 d 5 Y 1 1 d 3 Y 1 1 d 5 Y 1 1 d -1 Y 3 Y 1 X 4 Y 1 1 d 2 Y -3 Y 1 Y 1 X 2 Y -1 Y 3 Y 1 1 d -1 Y s
 1750 959 m 1 Y 1 1 d 2 Y 1 1 d 3 Y -1 Y 1 Y 1 1 d 3 Y 1 X -3 Y 2 Y -1 Y 1 1 d 3 Y 1 1 d 1 Y -1 Y 1 Y 1 X 2 Y -1 Y 2 Y 1 1 d -1 Y 1 Y 1 1 d 1 Y s 1759 981 m 2 Y -1 Y 1 Y 1 1 d 3 Y 1 1 d -1 Y 3 Y 1 1 d 3 Y 1 X -1 Y 3 Y 1 X 2 Y 1 1 d 1 Y 1 1 d 1 Y -1 Y
 1 Y 1 1 d 2 Y -1 Y 1 Y -2 Y s 1767 1003 m 1 X 1 Y -3 Y 1 -1 d -1 Y 1 Y -2 Y 1 1 d 2 Y 1 X 1 Y 1 1 d -1 Y 1 Y -2 Y 1 2 d -1 Y 3 Y 1 X 1 Y -1 Y 1 1 d -1 Y 1 X 1 Y -1 Y s 1776 1005 m 1 -2 d -5 Y 1 X 2 Y -4 Y 1 -2 d -8 Y 1 -4 d 3 Y 1 X -5 Y 1 Y -1 Y 1 1
 d -2 Y 1 -2 d 1 Y -4 Y 1 -1 d -6 Y 1 2 d -1 Y s 1785 968 m 8 Y 1 -1 d -9 Y 1 -1 d 1 Y -6 Y 1 -3 d -10 Y 1 -3 d -6 Y 1 X -8 Y 1 X 2 Y -5 Y 1 -4 d -3 Y 1 -3 d -8 Y 5 Y -1 Y 1 -3 d -3 Y s 1794 907 m -4 Y 1 Y 1 -1 d -14 Y 1 -3 d -8 Y 1 -7 d -11 Y 1 -1 d
 -2 Y 1 Y -3 Y 1 -2 d -9 Y 1 -1 d -6 Y 1 -1 d -3 Y 1 Y -11 Y 1 -2 d 3 Y -6 Y 1 -6 d -5 Y s 1803 807 m -8 Y 1 -1 d -9 Y 1 -1 d -13 Y 1 -4 d -10 Y 1 -4 d -9 Y 1 -5 d -13 Y 1 -2 d -16 Y 1 -4 d -8 Y 1 -4 d -11 Y 1 -3 d s 1812 682 m -8 Y 1 -3 d -16 Y 1 -3
 d -9 Y 1 -2 d -8 Y 1 -5 d -11 Y 1 -3 d -13 Y 1 -4 d -12 Y 1 -3 d -16 Y 1 -1 d -11 Y s 1820 554 m -4 Y 1 -3 d -11 Y 1 -2 d -13 Y 1 -3 d -9 Y 1 -2 d -12 Y 1 -2 d -13 Y 1 -1 d -9 Y 1 X -13 Y 1 -2 d 1 Y -6 Y 1 -1 d -12 Y s 1829 437 m -4 Y 1 -4 d -8 Y 1
 -2 d -6 Y 1 -2 d -8 Y 1 X -7 Y 1 -2 d -4 Y 1 -2 d -7 Y 1 -1 d -8 Y 1 -2 d -7 Y 1 -2 d -1 Y s 1838 360 m -4 Y 1 -1 d -7 Y 1 -1 d -6 Y 1 -1 d -8 Y 1 -1 d -4 Y 1 X -4 Y 1 X -3 Y 1 -1 d -5 Y 1 -1 d -8 Y 1 X -2 Y s 1847 303 m -3 Y 1 -1 d -3 Y 1 -1 d -1 Y
 1 -1 d -3 Y 1 -1 d -2 Y 1 X -3 Y 1 X -2 Y 1 -1 d -1 Y 1 -1 d -2 Y 1 -1 d s 1856 276 m -2 Y 1 -1 d -2 Y 1 X -2 Y 1 X -2 Y 1 -2 d -1 Y 1 X -3 Y 1 -1 d -1 Y 1 X -1 Y 1 X -1 Y s 1864 257 m -1 Y 1 X -1 Y 1 X -1 Y 1 -1 d -1 Y 1 X -1 Y 1 -1 d -1 Y 1 X -2 Y
 1 X 1 -1 d 1 X s 1873 246 m -1 Y 1 X -1 Y 1 X -2 Y 1 X -1 Y 1 X -1 Y 1 X -1 Y 1 X -1 Y 1 X -1 Y 1 X -1 Y 1 1 d -1 Y s 1882 236 m 1 X -1 Y 2 X -1 Y 1 X -1 Y 1 X -1 Y 1 X -1 Y 1 X -1 Y 1 X 1 -1 d s 1891 229 m 1 -1 d 2 X -1 Y 1 X -1 Y 2 X -2 Y 1 X -1 Y
 2 X s 1900 223 m -1 Y 2 X -1 Y 1 X -1 Y 3 X -1 Y 2 X s 1908 219 m 2 X -1 Y 6 X -1 Y 1 X s 1917 217 m 1 Y 1 X -1 Y 8 X s 1926 217 m 1 X 1 -1 d 7 X s 1935 216 m 3 X -1 Y 6 X s 1944 215 m 3 X -1 Y 1 X 1 Y -1 Y 4 X s 1952 214 m 9 X s 1961 214 m 9 X s
 1970 214 m 7 X -1 Y 2 X s 1979 213 m 9 X s 1988 213 m 8 X s 1996 213 m 7 X -1 Y 2 X s 2005 212 m 9 X s 2014 212 m 9 X s 2023 212 m 5 X 1 -1 d 1 X -6 Y 2 X s 2032 205 m 4 X -1 Y 4 X s 2040 204 m 1 X s black[  ] 0 sd 3 lw 245 202 m 1796 X s 332 242 m
 -40 Y s 384 222 m -20 Y s 436 222 m -20 Y s 488 222 m -20 Y s 540 242 m -40 Y s 592 222 m -20 Y s 645 222 m -20 Y s 697 222 m -20 Y s 749 242 m -40 Y s 801 222 m -20 Y s 853 222 m -20 Y s 905 222 m -20 Y s 957 242 m -40 Y s 1009 222 m -20 Y s 1061
 222 m -20 Y s 1113 222 m -20 Y s 1165 242 m -40 Y s 1218 222 m -20 Y s 1270 222 m -20 Y s 1322 222 m -20 Y s 1374 242 m -40 Y s 1426 222 m -20 Y s 1478 222 m -20 Y s 1530 222 m -20 Y s 1582 242 m -40 Y s 1634 222 m -20 Y s 1686 222 m -20 Y s 1739
 222 m -20 Y s 1791 242 m -40 Y s 1843 222 m -20 Y s 1895 222 m -20 Y s 1947 222 m -20 Y s 1999 242 m -40 Y s 332 242 m -40 Y s 280 222 m -20 Y s 1999 242 m -40 Y s
 gsave  2268 1684 0 0 C 307.166 128.934 t 0 r /Helvetica-Bold findfont 64.4669 sf 0 0 m (14) show NC gr 
 gsave  2268 1684 0 0 C 276.828 128.934 t 0 r /Symbol findfont 64.4669 sf 0 0 m (-) show NC gr 
 gsave  2268 1684 0 0 C 515.735 128.934 t 0 r /Helvetica-Bold findfont 64.4669 sf 0 0 m (12) show NC gr 
 gsave  2268 1684 0 0 C 485.398 128.934 t 0 r /Symbol findfont 64.4669 sf 0 0 m (-) show NC gr 
 gsave  2268 1684 0 0 C 724.304 128.934 t 0 r /Helvetica-Bold findfont 64.4669 sf 0 0 m (10) show NC gr 
 gsave  2268 1684 0 0 C 693.967 128.934 t 0 r /Symbol findfont 64.4669 sf 0 0 m (-) show NC gr 
 gsave  2268 1684 0 0 C 951.834 128.934 t 0 r /Helvetica-Bold findfont 64.4669 sf 0 0 m (8) show NC gr 
 gsave  2268 1684 0 0 C 921.497 128.934 t 0 r /Symbol findfont 64.4669 sf 0 0 m (-) show NC gr 
 gsave  2268 1684 0 0 C 1160.4 128.934 t 0 r /Helvetica-Bold findfont 64.4669 sf 0 0 m (6) show NC gr 
 gsave  2268 1684 0 0 C 1130.07 128.934 t 0 r /Symbol findfont 64.4669 sf 0 0 m (-) show NC gr 
 gsave  2268 1684 0 0 C 1368.97 128.934 t 0 r /Helvetica-Bold findfont 64.4669 sf 0 0 m (4) show NC gr 
 gsave  2268 1684 0 0 C 1338.64 128.934 t 0 r /Symbol findfont 64.4669 sf 0 0 m (-) show NC gr 
 gsave  2268 1684 0 0 C 1577.54 128.934 t 0 r /Helvetica-Bold findfont 64.4669 sf 0 0 m (2) show NC gr 
 gsave  2268 1684 0 0 C 1547.2 128.934 t 0 r /Symbol findfont 64.4669 sf 0 0 m (-) show NC gr 
 gsave  2268 1684 0 0 C 1770.94 128.934 t 0 r /Helvetica-Bold findfont 64.4669 sf 0 0 m (0) show NC gr 
 gsave  2268 1684 0 0 C 1979.51 128.934 t 0 r /Helvetica-Bold findfont 64.4669 sf 0 0 m (2) show NC gr 
 gsave  2268 1684 0 0 C 648.461 30.3373 t 0 r /Helvetica-Bold findfont 72.0512 sf 0 0 m (Cut value applied on LikelihoodD output) show NC gr  245 202 m 1145 Y s 291 202 m -46 X s 268 254 m -23 X s 268 306 m -23 X s 268 358 m -23 X s 291 410 m -46 X s
 268 462 m -23 X s 268 514 m -23 X s 268 566 m -23 X s 291 618 m -46 X s 268 670 m -23 X s 268 722 m -23 X s 268 775 m -23 X s 291 827 m -46 X s 268 879 m -23 X s 268 931 m -23 X s 268 983 m -23 X s 291 1035 m -46 X s 268 1087 m -23 X s 268 1139 m
 -23 X s 268 1191 m -23 X s 291 1243 m -46 X s 291 1243 m -46 X s 268 1295 m -23 X s 268 1347 m -23 X s
 gsave  2268 1684 0 0 C 182.024 178.232 t 0 r /Helvetica-Bold findfont 64.4669 sf 0 0 m (0) show NC gr 
 gsave  2268 1684 0 0 C 128.934 386.801 t 0 r /Helvetica-Bold findfont 64.4669 sf 0 0 m (0.2) show NC gr 
 gsave  2268 1684 0 0 C 128.934 595.37 t 0 r /Helvetica-Bold findfont 64.4669 sf 0 0 m (0.4) show NC gr 
 gsave  2268 1684 0 0 C 128.934 800.148 t 0 r /Helvetica-Bold findfont 64.4669 sf 0 0 m (0.6) show NC gr 
 gsave  2268 1684 0 0 C 128.934 1008.72 t 0 r /Helvetica-Bold findfont 64.4669 sf 0 0 m (0.8) show NC gr 
 gsave  2268 1684 0 0 C 189.608 1217.29 t 0 r /Helvetica-Bold findfont 64.4669 sf 0 0 m (1) show NC gr 
 gsave  2268 1684 0 0 C 64.4669 735.681 t 90 r /Helvetica-Bold findfont 72.0512 sf 0 0 m (Efficiency \(Purity\)) show NC gr  0 0 0.933333 c[  52 12 ] 0 sd 6 lw 0.49 0.6 0.82 c black 0 0 0.933333 c 245 722 m 9 X s 254 722 m 9 X s 263 722 m 8 X s 271
 722 m 9 X s 280 722 m 9 X s 289 722 m 9 X s 298 722 m 9 X s 307 722 m 8 X s 315 722 m 9 X s 324 722 m 9 X s 333 722 m 9 X s 342 722 m 9 X s 351 722 m 8 X s 359 722 m 9 X s 368 722 m 9 X s 377 722 m 9 X s 386 722 m 9 X s 395 722 m 8 X s 403 722 m 9 X
 s 412 722 m 9 X s 421 722 m 9 X s 430 722 m 9 X s 439 722 m 8 X s 447 722 m 9 X s 456 722 m 4 X 1 1 d 4 X s 465 723 m 9 X s 474 723 m 9 X s 483 723 m 8 X s 491 723 m 9 X s 500 723 m 9 X s 509 723 m 9 X s 518 723 m 9 X s 527 723 m 8 X s 535 723 m 9 X
 s 544 723 m 9 X s 553 723 m 9 X s 562 723 m 9 X s 571 723 m 8 X s 579 723 m 9 X s 588 723 m 9 X s 597 723 m 9 X s 606 723 m 9 X s 615 723 m 8 X s 623 723 m 9 X s 632 723 m 9 X s 641 723 m 9 X s 650 723 m 9 X s 659 723 m 8 X s 667 723 m 9 X s 676 723
 m 1 1 d 8 X s 685 724 m 9 X s 694 724 m 9 X s 703 724 m 8 X s 711 724 m 9 X s 720 724 m 9 X s 729 724 m 9 X s 738 724 m 9 X s 747 724 m 8 X s 755 724 m 9 X s 764 724 m 9 X s 773 724 m 9 X s 782 724 m 9 X s 791 724 m 8 X s 799 724 m 9 X s 808 724 m 9
 X s 817 724 m 9 X s 826 724 m 9 X s 835 724 m 8 X s 843 724 m 3 X 1 Y 6 X s 852 725 m 9 X s 861 725 m 9 X s 870 725 m 9 X s 879 725 m 8 X s 887 725 m 9 X s 896 725 m 4 X 1 Y 5 X s 905 726 m 9 X s 914 726 m 9 X s 923 726 m 8 X s 931 726 m 9 X s 940
 726 m 9 X s 949 726 m 9 X s 958 726 m 9 X s 967 726 m 8 X s 975 726 m 9 X s 984 726 m 9 X s 993 726 m 9 X s 1002 726 m 9 X s 1011 726 m 8 X s 1019 726 m 9 X s 1028 726 m 9 X s 1037 726 m 6 X 1 Y 3 X s 1046 727 m 9 X s 1055 727 m 7 X 1 Y 1 X s 1063
 728 m 9 X 1 Y s 1072 729 m 8 X 1 Y 1 X s 1081 730 m 4 X 1 Y 5 X s 1090 731 m 1 Y 5 X 1 Y 4 X s 1099 733 m 1 1 d 4 X 1 Y 3 X 1 Y s 1107 736 m 5 X 1 Y 4 X s 1116 737 m 3 X 1 Y 6 X s 1125 738 m 9 X s 1134 738 m 4 X 1 1 d 4 X s 1143 739 m 8 X s 1151 739
 m 9 X s 1160 739 m 9 X s 1169 739 m 9 X s 1178 739 m 9 X s 1187 739 m 8 X s 1195 739 m 9 X s 1204 739 m 9 X s 1213 739 m 9 X s 1222 739 m 1 X 1 1 d 7 X s 1231 740 m 8 X 1 Y s 1239 741 m 9 X s 1248 741 m 3 X 1 Y 5 X 1 1 d s 1257 743 m 3 X 1 Y 5 X 1 Y
 1 X s 1266 745 m 4 X 1 Y 4 X 1 Y 1 X s 1275 747 m 4 X 1 Y 2 X 1 1 d 1 X s 1283 749 m 3 X 1 Y 3 X 1 Y 2 X 1 Y 1 X s 1292 752 m 1 X 1 1 d 2 X 1 1 d 3 X 1 Y 1 X s 1301 755 m 2 X 1 Y 4 X 1 Y 2 X 1 Y 1 X s 1310 758 m 2 X 1 Y 5 X 1 Y 2 X s 1319 760 m 3 X
 1 Y 5 X s 1327 761 m 3 X 1 Y 6 X s 1336 762 m 2 X 1 Y 7 X s 1345 763 m 7 X 1 1 d 1 X s 1354 764 m 9 X s 1363 764 m 8 X s 1371 764 m 9 X s 1380 764 m 9 X s 1389 764 m 9 X s 1398 764 m 8 X 1 Y 1 X s 1407 765 m 8 X s 1415 765 m 8 X 1 Y 1 X s 1424 766 m
 8 X 1 1 d s 1433 767 m 6 X 1 Y 3 X s 1442 768 m 2 X 1 Y 5 X 1 1 d 1 X s 1451 770 m 4 X 1 Y 3 X 1 Y 1 X s 1459 772 m 4 X 1 Y 3 X 1 Y 2 X s 1468 774 m 1 X 1 Y 4 X 1 Y 2 X 1 Y 2 X s 1477 777 m 1 1 d 3 X 1 Y 2 X 1 Y 2 X 1 1 d s 1486 781 m 2 X 1 Y 1 X 1
 Y 3 X 1 Y 1 X 1 1 d 1 X s 1495 785 m 1 1 d 1 X 1 Y 1 X 1 1 d 1 1 d 1 X 1 Y 2 X 1 Y s 1503 791 m 1 1 d 1 X 1 Y 2 X 1 Y 1 X 1 Y 2 X 1 Y 2 X 1 Y s 1512 797 m 2 X 1 Y 2 X 1 Y 2 X 1 Y 3 X 1 Y s 1521 801 m 2 X 1 Y 1 X 1 Y 3 X 1 Y 2 X 1 Y 1 X s 1530 805 m
 1 Y 2 X 1 Y 2 X 1 1 d 2 X 1 Y 2 X s 1539 809 m 1 X 1 Y 4 X 1 Y 3 X s 1547 811 m 1 1 d 1 X -1 Y 1 X 1 Y 6 X s 1556 812 m 1 X 1 Y 3 X 1 Y 5 X s 1565 814 m 4 X 1 1 d 4 X s 1574 815 m 7 X 1 Y 2 X s 1583 816 m 2 X 1 -1 d 1 Y 5 X s 1591 816 m 9 X s 1600
 816 m 9 X s 1609 816 m 2 X 1 Y 7 X s 1618 817 m 9 X s 1627 817 m 1 X 1 Y 7 X s 1635 818 m 4 X 1 1 d 3 X 1 1 d s 1644 820 m 3 X 1 1 d 2 X 1 1 d 2 X s 1653 822 m 2 X 1 Y 3 X 1 Y 2 X 1 Y 2 X s 1662 825 m 1 X 1 Y 2 X 1 Y 3 X 1 Y 1 X 1 1 d 1 X s 1671 829
 m 1 Y 1 X 1 Y 2 X 1 Y 2 X 1 Y 2 X 1 Y 1 X s 1679 834 m 1 1 d 1 X 1 Y 1 X 1 1 d 1 X 1 Y 1 X 1 Y 1 X 1 1 d 1 1 d s 1688 841 m 1 X 2 Y 1 X 1 Y 1 X 1 Y 1 X 1 Y 1 X 1 1 d 1 Y 1 X 1 Y 1 X 1 Y 1 X 1 Y s 1697 851 m 1 X 1 Y 1 X 1 Y 2 X 2 Y 1 X 2 Y 1 X 2 Y 1
 X 1 Y 1 X 1 Y 1 X 1 Y s 1706 862 m 1 Y 1 X 1 Y 1 X 2 Y 1 X 1 Y 1 1 d 1 Y 1 X 2 Y 1 X 1 Y 1 X 2 Y 1 X 2 Y 1 1 d 1 Y s 1715 878 m 1 Y 1 X 3 Y 1 X 2 Y 1 1 d 2 Y 1 1 d 1 Y 1 1 d 2 Y 1 X 4 Y 1 1 d 2 Y 1 1 d 1 Y s 1723 901 m 1 1 d 2 Y 1 X 2 Y 1 1 d 2 Y 1
 1 d 2 Y 1 1 d 3 Y 1 X 3 Y 1 X 3 Y 1 1 d 3 Y 1 1 d 1 Y s 1732 928 m 1 Y 1 1 d 3 Y 1 1 d 3 Y 1 1 d 4 Y 1 X 4 Y 1 X 2 Y 1 1 d 3 Y 1 1 d 4 Y 1 1 d 3 Y 1 1 d 2 Y s 1741 964 m 1 Y 1 1 d 3 Y 1 1 d 5 Y 1 X 4 Y 1 1 d 5 Y 1 1 d 4 Y 1 1 d 3 Y 1 1 d 4 Y 1 1 d 4
 Y 1 2 d 1 Y s 1750 1007 m 2 Y 1 1 d 4 Y 1 1 d 4 Y 1 1 d 4 Y 1 X 4 Y 1 1 d 4 Y 1 1 d 2 Y 1 1 d 5 Y 1 1 d 3 Y 1 1 d 1 Y s 1759 1048 m 5 Y 1 1 d 4 Y 1 X 5 Y 1 1 d 5 Y 1 X 3 Y 1 1 d 5 Y 1 X 3 Y 1 1 d 4 Y 1 2 d 3 Y s 1767 1091 m 1 1 d 2 Y 1 X 3 Y 1 1 d 3
 Y 1 1 d 3 Y 1 1 d 2 Y 1 2 d 4 Y 1 1 d 3 Y 1 X 3 Y 1 1 d 3 Y s 1776 1125 m 1 Y 1 X 2 Y 1 X 3 Y 1 1 d 1 X 4 Y 1 X 1 Y 1 3 d 1 Y 1 X 3 Y 1 1 d 1 Y 1 1 d 2 Y s 1785 1149 m 1 Y 1 1 d 1 Y -1 Y 1 1 d 3 Y 1 -1 d 2 Y 1 X 1 Y 1 X 2 Y 1 X 1 Y 1 X 2 Y 1 X -1 Y
 3 Y 1 X s 1794 1164 m 2 Y 1 X 1 Y 1 X 2 Y 1 -1 d 3 Y 1 1 d -1 Y 2 Y 1 X 1 Y 1 X 1 Y 1 X 2 Y -1 Y 1 Y 1 X 1 Y -1 Y 1 X s 1803 1177 m 1 Y -1 Y 2 Y 1 X 1 Y 1 X -1 Y 1 X 1 Y 1 X 1 Y -1 Y 1 X 1 Y 2 X 3 Y 1 X -1 Y 1 X s 1812 1183 m 1 Y 1 1 d 1 Y -1 Y 2 X
 4 Y 1 -1 d 2 Y 1 -1 d 1 Y 1 1 d -1 Y 1 Y -1 Y 1 X -1 Y 1 1 d -1 Y s 1820 1189 m 2 X -1 Y 1 Y 2 X -1 Y 1 1 d -1 Y 1 Y -1 Y 1 X -1 Y 1 1 d -2 Y 1 1 d 1 1 d -1 Y s 1829 1187 m 1 -1 d -2 Y 1 Y 1 -1 d 1 Y 1 X -2 Y 1 Y 1 X 2 Y -1 Y 1 X 3 Y 1 X -2 Y 1 Y 1
 X -1 Y 1 -1 d -2 Y 1 2 d 1 Y s 1838 1186 m -1 Y 1 X -1 Y 1 Y -1 Y 1 X 1 Y -1 Y 1 Y 1 -1 d -2 Y 1 X -1 Y 1 Y -1 Y 1 1 d -1 Y 1 Y -1 Y 1 1 d -1 Y 2 Y 1 -1 d -2 Y 1 X -2 Y 1 X -1 Y s 1847 1177 m 1 Y -2 Y 1 2 d -1 Y 1 4 d 4 Y 1 X -2 Y 1 -1 d 1 1 d -1 Y
 6 Y -1 Y 1 X -1 Y 1 X 1 Y 1 X -1 Y 1 X s 1856 1186 m -2 Y 1 X 1 Y -2 Y 1 1 d -1 Y 1 X -1 Y 2 Y -1 Y 1 X -1 Y 1 X -2 Y 1 X -2 Y 1 Y 1 X -1 Y 1 X s 1864 1178 m 2 Y 1 X -1 Y 1 Y 1 X -2 Y 1 X -2 Y 1 X -1 Y 1 Y 1 -1 d 1 Y -1 Y 1 X -1 Y 1 -1 d 5 Y -1 Y 1
 X -1 Y 1 Y 1 X -1 Y s 1873 1176 m -1 Y 1 -1 d 1 X -3 Y 1 X -2 Y 1 X 1 Y -1 Y 1 X -2 Y 1 X -1 Y 1 2 d -1 Y 1 -1 d 1 Y 1 1 d -1 Y s 1882 1167 m -1 Y 1 X -1 Y 1 X 3 Y 1 X -2 Y 1 X -2 Y 1 Y 1 -1 d -1 Y 1 -1 d -3 Y 1 X -1 Y 1 6 d -1 Y 1 X -1 Y s 1891
 1162 m -1 Y 1 -1 d -1 Y 1 X 1 Y -1 Y 1 Y -1 Y 1 -1 d -1 Y 1 -1 d -3 Y 1 X -1 Y 1 6 d -6 Y 1 1 d -3 Y 1 X -1 Y 1 X s 1900 1149 m -1 Y 1 X -3 Y 1 X -3 Y 1 X -2 Y 1 -1 d 2 X -4 Y 1 X -2 Y 1 X s 1908 1133 m 1 X -1 Y 1 X 2 Y -1 Y 1 X -1 Y 1 X -1 Y 2 X -1
 Y 1 X 1 -1 d -1 Y 1 X s 1917 1128 m 21 Y -1 Y 2 X -1 Y 1 Y -1 Y 1 X 9 Y -1 Y 1 X 1 11 d -1 Y 1 1 d -2 Y 1 X 1 Y 1 X -3 Y 1 -1 d s 1926 1161 m 1 X -1 Y 1 X -1 Y 1 X -1 Y 1 X 3 Y 1 X -1 Y 3 Y 2 X -1 Y 2 X s 1935 1162 m 1 X 1 -1 d 3 X -1 Y 1 X -1 Y 1 X
 6 Y 1 -1 d 1 X s 1944 1164 m -1 Y 1 1 d -1 Y 1 X -1 Y 3 X 2 Y 3 X -1 Y s 1952 1163 m 3 X 1 6 d 1 X 1 Y 1 X -1 Y 1 Y 2 X -1 Y 1 X s 1961 1169 m 9 X -1 Y s 1970 1168 m 7 X -3 Y 2 X s 1979 1165 m 1 X -2 Y 5 X -1 Y 3 X s 1988 1162 m 1 X 39 Y 2 X -2 Y 5
 Y 1 X -1 Y 1 Y 4 X s 1996 1204 m 6 X 4 Y 1 X -2 Y 2 X s 2005 1206 m 1 X -1 Y 2 X 1 1 d -1 Y 5 X s 2014 1205 m 4 X -1 Y 1 X 1 Y 2 X -1 Y 2 X s 2023 1204 m 7 X 18 Y 2 X s 2032 1222 m 1 X -1 Y 3 X 19 Y 4 X s 2040 1240 m 1 X s[  ] 0 sd 9 lw 0.49 0.6
 0.82 c black 0 0 0.933333 c 245 1242 m 9 X s 254 1242 m 9 X s 263 1242 m 8 X s 271 1242 m 9 X s 280 1242 m 9 X s 289 1242 m 9 X s 298 1242 m 9 X s 307 1242 m 8 X s 315 1242 m 9 X s 324 1242 m 9 X s 333 1242 m 9 X s 342 1242 m 9 X s 351 1242 m 8 X s
 359 1242 m 9 X s 368 1242 m 9 X s 377 1242 m 9 X s 386 1242 m 9 X s 395 1242 m 8 X s 403 1242 m 9 X s 412 1242 m 9 X s 421 1242 m 9 X s 430 1242 m 9 X s 439 1242 m 8 X s 447 1242 m 9 X s 456 1242 m 9 X s 465 1242 m 9 X s 474 1242 m 9 X s 483 1242 m
 8 X s 491 1242 m 9 X s 500 1242 m 9 X s 509 1242 m 9 X s 518 1242 m 9 X s 527 1242 m 8 X s 535 1242 m 9 X s 544 1242 m 9 X s 553 1242 m 9 X s 562 1242 m 9 X s 571 1242 m 8 X s 579 1242 m 9 X s 588 1242 m 9 X s 597 1242 m 9 X s 606 1242 m 9 X s 615
 1242 m 8 X s 623 1242 m 9 X s 632 1242 m 9 X s 641 1242 m 9 X s 650 1242 m 9 X s 659 1242 m 8 X s 667 1242 m 9 X s 676 1242 m 9 X s 685 1242 m 9 X s 694 1242 m 9 X s 703 1242 m 8 X s 711 1242 m 9 X s 720 1242 m 9 X s 729 1242 m 9 X s 738 1242 m 9 X
 s 747 1242 m 8 X s 755 1242 m 9 X s 764 1242 m 9 X s 773 1242 m 9 X s 782 1242 m 9 X s 791 1242 m 8 X s 799 1242 m 9 X s 808 1242 m 9 X s 817 1242 m 9 X s 826 1242 m 9 X s 835 1242 m 8 X s 843 1242 m 9 X s 852 1242 m 9 X s 861 1242 m 9 X s 870 1242
 m 9 X s 879 1242 m 8 X s 887 1242 m 9 X s 896 1242 m 9 X s 905 1242 m 9 X s 914 1242 m 9 X s 923 1242 m 8 X s 931 1242 m 9 X s 940 1242 m 9 X s 949 1242 m 9 X s 958 1242 m 9 X s 967 1242 m 8 X s 975 1242 m 9 X s 984 1242 m 9 X s 993 1242 m 9 X s
 1002 1242 m 9 X s 1011 1242 m 8 X s 1019 1242 m 9 X s 1028 1242 m 9 X s 1037 1242 m 9 X s 1046 1242 m 9 X s 1055 1242 m 8 X s 1063 1242 m 9 X s 1072 1242 m 9 X s 1081 1242 m 9 X s 1090 1242 m 9 X s 1099 1242 m 8 X s 1107 1242 m 9 X s 1116 1242 m 9 X
 s 1125 1242 m 9 X s 1134 1242 m 9 X s 1143 1242 m 8 X s 1151 1242 m 9 X s 1160 1242 m 9 X s 1169 1242 m 9 X s 1178 1242 m 9 X s 1187 1242 m 8 X s 1195 1242 m 9 X s 1204 1242 m 9 X s 1213 1242 m 9 X s 1222 1242 m 9 X s 1231 1242 m 8 X s 1239 1242 m 9
 X s 1248 1242 m 9 X s 1257 1242 m 9 X s 1266 1242 m 9 X s 1275 1242 m 8 X s 1283 1242 m 9 X s 1292 1242 m 9 X s 1301 1242 m 8 X 1 Y 1 X s 1310 1243 m 9 X s 1319 1243 m 8 X s 1327 1243 m 9 X s 1336 1243 m 9 X s 1345 1243 m 9 X s 1354 1243 m 6 X 1 -1
 d 2 X s 1363 1242 m 8 X s 1371 1242 m 9 X s 1380 1242 m 9 X s 1389 1242 m 9 X s 1398 1242 m 9 X s 1407 1242 m 8 X s 1415 1242 m 9 X s 1424 1242 m 3 X -1 Y 6 X s 1433 1241 m 9 X s 1442 1241 m 9 X s 1451 1241 m 8 X s 1459 1241 m 4 X 1 -1 d 4 X s 1468
 1240 m 9 X s 1477 1240 m 2 X -2 Y 7 X s 1486 1238 m 9 X -1 Y s 1495 1237 m 8 X s 1503 1237 m 1 X -1 Y 8 X s 1512 1236 m 6 X 1 -1 d 2 X s 1521 1235 m 9 X s 1530 1235 m 3 X -1 Y 5 X 1 Y 1 X s 1539 1235 m 1 -1 d 7 X -1 Y s 1547 1233 m 2 X -1 Y 6 X -1 Y
 1 X s 1556 1231 m 7 X -1 Y 2 X s 1565 1230 m 9 X s 1574 1230 m 9 X s 1583 1230 m 2 X 1 -1 d 5 X s 1591 1229 m 2 X -1 Y 7 X s 1600 1228 m 9 X s 1609 1228 m 9 X s 1618 1228 m 9 X s 1627 1228 m 8 X s 1635 1228 m 3 X 1 -1 d 5 X s 1644 1227 m 9 X s 1653
 1227 m 9 X s 1662 1227 m 9 X s 1671 1227 m 3 X -1 Y 5 X s 1679 1226 m 3 X -1 Y 5 X -1 Y 1 X s 1688 1224 m 1 X 1 Y 4 X -2 Y 4 X s 1697 1223 m 2 X -1 Y 5 X 1 -2 d -1 Y 1 X -1 Y s 1706 1218 m 6 X 1 Y 1 X -2 Y 1 -1 d 1 X s 1715 1216 m 3 X 1 Y 1 -1 d 1 X
 -1 Y 1 X 1 Y 1 X 1 -1 d -1 Y s 1723 1214 m 1 X -1 Y 1 X -1 Y 2 X -1 Y 1 X -1 Y 2 X -1 Y 2 X -4 Y s 1732 1205 m -1 Y 1 X -2 Y 2 X 1 -1 d -2 Y 1 X 1 -1 d -2 Y 1 X -1 Y 2 X -1 Y s 1741 1194 m 1 X -2 Y 1 X -1 Y 2 Y -1 Y 1 X 1 Y 2 X -3 Y 1 -1 d 1 X 1 Y
 -4 Y 1 -1 d -1 Y 1 -1 d -2 Y s 1750 1181 m -1 Y 1 X -2 Y 1 X -2 Y 1 1 d -1 Y 1 -1 d -6 Y 1 X -1 Y 1 X -2 Y 1 -1 d -2 Y 1 X -2 Y 1 Y -1 Y 1 -1 d s 1759 1160 m -2 Y 1 X -2 Y 1 Y 1 X -2 Y 1 X -2 Y 1 X -1 Y 1 -1 d -2 Y 1 Y -1 Y 1 X -2 Y 1 Y -1 Y 1 X -4
 Y 1 X 2 Y -5 Y s 1767 1140 m 1 -1 d -4 Y 1 -2 d -5 Y 1 X -1 Y 1 X -3 Y 1 X -4 Y 1 X -2 Y 1 X -1 Y 1 Y -3 Y 1 1 d -5 Y 1 X -4 Y s 1776 1107 m -1 Y 1 -2 d -7 Y 1 X -5 Y 1 -4 d -9 Y 1 -4 d 1 Y -1 Y 1 X -7 Y 1 -1 d -4 Y 1 -2 d -7 Y 1 X -8 Y 1 1 d -3 Y s
 1785 1044 m 9 Y -1 Y 1 -2 d -10 Y 1 -2 d -8 Y 1 -3 d -12 Y 1 -3 d -7 Y 1 -1 d -10 Y 1 X 1 Y -6 Y 1 -3 d -5 Y 1 -3 d -9 Y 4 Y -2 Y 1 -3 d -3 Y s 1794 965 m -5 Y 1 -1 d -16 Y 1 -3 d -10 Y 1 -8 d -13 Y 1 -2 d -5 Y 1 -2 d -11 Y 1 -1 d -6 Y 1 -1 d -16 Y
 1 -2 d 2 Y -5 Y 1 -7 d -5 Y s 1803 848 m -10 Y 1 -1 d -10 Y 1 -1 d -14 Y 1 -4 d -11 Y 1 -5 d -9 Y 1 -5 d -15 Y 1 -1 d -18 Y 1 -5 d -9 Y 1 -4 d -11 Y 1 -4 d s 1812 711 m -9 Y 1 -4 d -16 Y 1 -4 d -9 Y 1 -2 d -11 Y 1 -4 d -13 Y 1 -3 d -14 Y 1 -4 d -13
 Y 1 -3 d -16 Y 1 -2 d -11 Y s 1820 573 m -4 Y 1 -3 d -12 Y 1 -1 d -14 Y 1 -4 d -10 Y 1 -1 d -13 Y 1 -2 d -13 Y 1 -2 d -8 Y 1 -1 d -13 Y 1 -3 d 1 Y -6 Y 1 -1 d -13 Y s 1829 450 m -4 Y 1 -4 d -8 Y 1 -2 d -6 Y 1 -3 d -8 Y 1 X -8 Y 1 -1 d -5 Y 1 -3 d -6
 Y 1 -2 d -8 Y 1 -2 d -7 Y 1 -3 d -1 Y s 1838 369 m -4 Y 1 -1 d -8 Y 1 X -6 Y 1 -2 d -7 Y 1 -2 d -4 Y 1 X -5 Y 1 Y 1 -1 d -3 Y 1 -1 d -5 Y 1 -1 d -8 Y 1 X -2 Y s 1847 310 m -4 Y 1 -1 d -3 Y 1 -1 d -2 Y 1 -1 d -3 Y 1 -1 d -2 Y 1 X -3 Y 1 -1 d -2 Y 1 X
 -2 Y 1 X -3 Y 1 -1 d s 1856 280 m -2 Y 1 -1 d -2 Y 1 X -2 Y 1 X -2 Y 1 -2 d -1 Y 1 -1 d -2 Y 1 -1 d -1 Y 1 X -1 Y 1 -1 d -1 Y s 1864 260 m 1 X -1 Y 1 X -2 Y 1 X -2 Y 1 X -1 Y 1 -1 d -1 Y 1 X -1 Y 1 -1 d 1 -1 d 1 X s 1873 249 m -1 Y 1 X -1 Y 1 X -2 Y
 1 X -1 Y 1 X -1 Y 1 X -1 Y 1 X -2 Y 2 X -1 Y 1 X s 1882 239 m -1 Y 2 X -1 Y 1 X 1 -1 d 1 -1 d 1 X -2 Y 2 X -1 Y 1 X -1 Y s 1891 231 m 1 X -1 Y 2 X -1 Y 1 X -1 Y 2 X -2 Y 1 X -1 Y 2 X s 1900 225 m 1 -1 d 1 X -1 Y 1 X -1 Y 3 X -1 Y 2 X s 1908 221 m 2
 X -1 Y 6 X -1 Y 1 X s 1917 219 m 4 X 1 -1 d 4 X s 1926 218 m 2 X -1 Y 7 X s 1935 217 m 5 X -1 Y 4 X s 1944 216 m 5 X 1 -1 d 2 X s 1952 215 m 9 X s 1961 215 m 9 X s 1970 215 m 7 X -1 Y 2 X s 1979 214 m 9 X s 1988 214 m 3 X -1 Y 5 X s 1996 213 m 9 X s
 2005 213 m 4 X -1 Y 5 X s 2014 212 m 9 X s 2023 212 m 7 X -6 Y 1 X 1 -1 d s 2032 205 m 4 X -1 Y 4 X s 2040 204 m 1 X s 1 0 0 c black 1 0 0 c 245 1243 m 9 X s 254 1243 m 9 X s 263 1243 m 8 X s 271 1243 m 9 X s 280 1243 m 9 X s 289 1243 m 9 X s 298
 1243 m 9 X s 307 1243 m 8 X s 315 1243 m 9 X s 324 1243 m 9 X s 333 1243 m 9 X s 342 1243 m 9 X s 351 1243 m 8 X s 359 1243 m 9 X s 368 1243 m 9 X s 377 1243 m 9 X s 386 1243 m 9 X s 395 1243 m 8 X s 403 1243 m 9 X s 412 1243 m 9 X s 421 1243 m 9 X
 s 430 1243 m 9 X s 439 1243 m 8 X s 447 1243 m 8 X -1 Y 1 X s 456 1242 m 9 X s 465 1242 m 7 X -1 Y 2 X s 474 1241 m 9 X s 483 1241 m 8 X s 491 1241 m 9 X s 500 1241 m 9 X s 509 1241 m 9 X s 518 1241 m 9 X s 527 1241 m 8 X s 535 1241 m 9 X s 544 1241
 m 9 X s 553 1241 m 9 X s 562 1241 m 9 X s 571 1241 m 8 X s 579 1241 m 9 X s 588 1241 m 9 X s 597 1241 m 8 X -1 Y 1 X s 606 1240 m 9 X s 615 1240 m 8 X s 623 1240 m 9 X s 632 1240 m 9 X s 641 1240 m 3 X 1 -1 d 5 X s 650 1239 m 9 X s 659 1239 m 6 X -1
 Y 2 X s 667 1238 m 9 X s 676 1238 m 9 X s 685 1238 m 5 X 1 -1 d 3 X s 694 1237 m 9 X s 703 1237 m 8 X s 711 1237 m 9 X s 720 1237 m 9 X s 729 1237 m 9 X s 738 1237 m 9 X s 747 1237 m 8 X s 755 1237 m 9 X s 764 1237 m 9 X s 773 1237 m 7 X 1 -1 d 1 X
 s 782 1236 m 9 X s 791 1236 m 8 X s 799 1236 m 9 X s 808 1236 m 7 X -1 Y 2 X s 817 1235 m 9 X s 826 1235 m 9 X s 835 1235 m 7 X -1 Y 1 X s 843 1234 m 9 X s 852 1234 m 2 X -1 Y 7 X s 861 1233 m 4 X -1 Y 5 X s 870 1232 m 5 X -1 Y 4 X s 879 1231 m 8 X
 s 887 1231 m 3 X -1 Y 6 X s 896 1230 m 9 X s 905 1230 m 9 X s 914 1230 m 9 X s 923 1230 m 8 X s 931 1230 m 9 X s 940 1230 m 9 X s 949 1230 m 9 X s 958 1230 m 9 X s 967 1230 m 8 X s 975 1230 m 9 X s 984 1230 m 6 X 1 -1 d 2 X s 993 1229 m 9 X s 1002
 1229 m 9 X s 1011 1229 m 8 X s 1019 1229 m 9 X s 1028 1229 m 2 X 1 -1 d 5 X 1 -1 d s 1037 1227 m 5 X -1 Y 4 X s 1046 1226 m 1 X -1 Y 5 X -1 Y 3 X s 1055 1224 m 3 X -1 Y 3 X -1 Y 2 X -1 Y s 1063 1221 m 4 X -1 Y 3 X -1 Y 1 X -1 Y 1 X s 1072 1218 m 1 X
 -1 Y 3 X -1 Y 1 X 1 -1 d 1 X -1 Y 2 X s 1081 1214 m 1 X -1 Y 1 X -1 Y 1 X 1 -1 d -1 Y 1 X -1 Y 1 X -1 Y 1 X 1 -1 d 1 X s 1090 1207 m -1 Y 2 X -1 Y 1 X -1 Y 1 X -1 Y 1 X -1 Y 2 X -1 Y 1 X 1 -1 d s 1099 1200 m -1 Y 1 X -1 Y 1 X -1 Y 1 X -1 Y 1 X 1 -1
 d 1 -1 d -1 Y 2 X -2 Y s 1107 1191 m 1 X 1 -1 d 1 -1 d 1 X -1 Y 1 X -1 Y 1 X -1 Y 2 X -1 Y 1 X s 1116 1185 m 2 X -1 Y 1 X -1 Y 3 X -1 Y 3 X s 1125 1182 m 2 X -1 Y 5 X -1 Y 2 X s 1134 1180 m 9 X s 1143 1180 m 8 X s 1151 1180 m 9 X -1 Y s 1160 1179 m
 9 X s 1169 1179 m 9 X s 1178 1179 m 9 X s 1187 1179 m 8 X s 1195 1179 m 9 X s 1204 1179 m 7 X -1 Y 2 X s 1213 1178 m 4 X 1 -1 d 4 X s 1222 1177 m 1 X -1 Y 5 X -1 Y 3 X s 1231 1175 m -1 Y 3 X -1 Y 4 X -1 Y 1 X s 1239 1172 m 3 X -1 Y 3 X -1 Y 3 X s
 1248 1170 m 1 X -1 Y 2 X -1 Y 2 X -1 Y 2 X -1 Y 1 -1 d 1 X -1 Y s 1257 1164 m 2 X -2 Y 1 X -1 Y 1 X -1 Y 1 X 1 -1 d 1 X -1 Y 1 X -1 Y 1 X s 1266 1157 m 1 X -1 Y 1 X -1 Y 2 X -1 Y 1 X -1 Y 1 X -1 Y 2 X -2 Y 1 X s 1275 1150 m -1 Y 1 X 1 -1 d 1 X -1 Y
 1 X -1 Y 1 X -1 Y 1 X -1 Y 1 -1 d 1 X -1 Y s 1283 1142 m 1 -1 d 1 X -1 Y 1 X -1 Y 1 X -2 Y 1 X -1 Y 1 X -1 Y 1 X -2 Y 1 X -2 Y 1 X -1 Y s 1292 1130 m 1 -1 d -1 Y 1 X -1 Y 1 X -1 Y 1 X -1 Y 1 -1 d 1 X -1 Y 1 X -1 Y 1 X -1 Y 1 X -1 Y s 1301 1120 m 1 X
 -2 Y 2 X -2 Y 1 X -1 Y 2 X -1 Y 1 X -1 Y 1 -1 d -1 Y 1 X s 1310 1111 m -1 Y 1 X -1 Y 1 X -1 Y 1 X -2 Y 2 X -1 Y 2 X 1 -1 d 1 -1 d s 1319 1103 m -1 Y 2 X -1 Y 3 X -2 Y 3 X s 1327 1099 m 1 -1 d 2 X -1 Y 2 X -1 Y 2 X -1 Y 2 X -1 Y s 1336 1094 m 4 X -1
 Y 5 X s 1345 1093 m 1 X -1 Y 1 X -1 Y 5 X 1 -1 d 1 X s 1354 1090 m 7 X -1 Y 2 X s 1363 1089 m 8 X s 1371 1089 m 9 X s 1380 1089 m 4 X -1 Y 5 X s 1389 1088 m 7 X -1 Y 2 X s 1398 1087 m 9 X s 1407 1087 m -1 Y 8 X -1 Y s 1415 1085 m 3 X -1 Y 5 X -1 Y 1
 X s 1424 1083 m 2 X -1 Y 1 X 1 -1 d 1 X -1 Y 3 X -1 Y 1 X s 1433 1079 m 1 X -1 Y 2 X -1 Y 1 X -1 Y 2 X -1 Y 1 X -1 Y 2 X s 1442 1074 m -1 Y 2 X -1 Y 2 X -1 Y 1 X -1 Y 1 X -1 Y 2 X -1 Y 1 X s 1451 1068 m 1 X -1 Y 1 X -1 Y 2 X -1 Y 1 X -1 Y 1 -1 d -1
 Y 1 X 1 -1 d -1 Y s 1459 1060 m 3 X -1 Y 1 X -1 Y 1 X -1 Y 1 X -2 Y 1 X -1 Y 1 X -1 Y 1 X -1 Y s 1468 1052 m 1 X -1 Y 1 X -1 Y 2 X -1 Y 1 -1 d -1 Y 1 X -1 Y 1 X -2 Y 1 X -1 Y 1 X -1 Y s 1477 1042 m 1 -1 d 1 -1 d -1 Y 1 -1 d -1 Y 1 X -1 Y 1 -1 d -1 Y
 1 X -1 Y 1 -1 d 1 -1 d -1 Y 1 X s 1486 1030 m -1 Y 1 X -2 Y 1 X -2 Y 1 -1 d -1 Y 1 X -1 Y 1 X -1 Y 1 X -2 Y 1 X -2 Y 1 -1 d -1 Y 1 X s 1495 1015 m -1 Y 1 -1 d -1 Y 1 -1 d -2 Y 1 X -2 Y 1 -1 d -2 Y 1 -1 d -1 Y 1 X -2 Y 1 X -2 Y 1 X -4 Y s 1503 994 m
 1 X -2 Y 1 X -2 Y 1 X -1 Y 1 X -3 Y 1 -1 d -1 Y 1 X -1 Y 1 X -2 Y 1 X -1 Y 1 X -2 Y s 1512 978 m 1 X -1 Y 1 X -1 Y 1 -1 d -1 Y 1 X -2 Y 1 X -2 Y 1 X -1 Y 1 X -1 Y 1 -1 d -1 Y 1 -1 d s 1521 965 m -1 Y 1 X -1 Y 1 -1 d -1 Y 1 X -1 Y 1 -1 d -1 Y 1 X -1
 Y 1 X -1 Y 1 -1 d -1 Y 1 X -1 Y 1 X -2 Y s 1530 951 m -1 Y 1 X -2 Y 1 X -2 Y 1 X -1 Y 1 X 1 -1 d -1 Y 1 X -1 Y 1 X -1 Y 1 X -1 Y 1 X s 1539 940 m -1 Y 1 X -1 Y 1 X 1 -1 d 1 -1 d 1 X -1 Y 1 X -1 Y 1 X 1 -1 d -1 Y s 1547 932 m 2 X -1 Y 2 X -1 Y 1 X 1
 -1 d 2 X -1 Y 1 X s 1556 928 m 2 X -1 Y 1 X -1 Y 1 X -1 Y 1 X -1 Y 2 X -1 Y 2 X -1 Y s 1565 922 m 2 X 1 -1 d 2 X -1 Y 3 X -1 Y 1 X s 1574 919 m 5 X -1 Y 3 X 1 -1 d s 1583 917 m 8 X -1 Y s 1591 916 m 9 X s 1600 916 m 2 X -1 Y 4 X 1 -1 d 2 X s 1609
 914 m 2 X 1 -1 d 6 X s 1618 913 m -1 Y 8 X -1 Y 1 X s 1627 911 m 3 X -1 Y 2 X -1 Y 3 X s 1635 909 m 2 X -1 Y 3 X -2 Y 2 X -1 Y 2 X -1 Y s 1644 904 m 1 X -1 Y 1 X -1 Y 2 X -1 Y 1 X -1 Y 1 X 1 -1 d -1 Y 2 X -1 Y s 1653 897 m 1 X 1 -1 d 1 X -1 Y 1 X -1
 Y 1 X -1 Y 1 X -1 Y 1 X -1 Y 1 X -1 Y 1 -1 d s 1662 889 m 1 -1 d 1 X -1 Y 1 X -2 Y 2 X -2 Y 1 X -2 Y 1 X -1 Y 1 X -2 Y 1 X -1 Y s 1671 877 m 1 X -3 Y 1 X -1 Y 1 -1 d -1 Y 1 X -1 Y 1 X -2 Y 1 X -1 Y 1 -1 d -1 Y 1 X -2 Y s 1679 863 m 1 X -1 Y 1 X -2 Y
 1 -1 d -1 Y 1 -1 d -1 Y 1 -1 d -2 Y 1 X -2 Y 1 X -2 Y 1 X -2 Y 1 -1 d -1 Y s 1688 845 m 1 -1 d -3 Y 1 -1 d -3 Y 1 X -1 Y 1 X -2 Y 1 X -3 Y 1 -1 d -3 Y 1 -1 d -3 Y 1 X -2 Y 1 X -1 Y s 1697 820 m -1 Y 1 -1 d -2 Y 1 -1 d -1 Y 1 -1 d -1 Y 1 X -4 Y 1 X
 -5 Y 1 -1 d -3 Y 1 -1 d -3 Y 1 -1 d -3 Y 1 -1 d -1 Y s 1706 789 m -2 Y 1 X -3 Y 1 -1 d -4 Y 1 -1 d -2 Y 1 -1 d -3 Y 1 -1 d -4 Y 1 -1 d -2 Y 1 X -5 Y 1 -1 d -4 Y 1 -3 d s 1715 751 m -4 Y 1 -1 d -6 Y 1 X -5 Y 1 -1 d -4 Y 1 -2 d -4 Y 1 -1 d -6 Y 1 X -8
 Y 1 -1 d -7 Y 1 X -5 Y s 1723 696 m 1 -1 d -4 Y 1 -2 d -5 Y 1 -1 d -5 Y 1 -1 d -6 Y 1 -1 d -6 Y 1 -1 d -6 Y 1 -1 d -4 Y 1 -2 d -7 Y 1 -1 d -6 Y s 1732 636 m -2 Y 1 -2 d -5 Y 1 -2 d -7 Y 1 -2 d -7 Y 1 -1 d -7 Y 1 -1 d -4 Y 1 -2 d -7 Y 1 -1 d -7 Y 1
 -2 d -6 Y 1 -1 d -4 Y s 1741 566 m -3 Y 1 -2 d -5 Y 1 -2 d -8 Y 1 -2 d -5 Y 1 -2 d -8 Y 1 -2 d -7 Y 1 -2 d -6 Y 1 -2 d -7 Y 1 -1 d -8 Y 1 -2 d -3 Y s 1750 489 m -4 Y 1 -1 d -6 Y 1 -2 d -7 Y 1 -2 d -5 Y 1 -1 d -7 Y 1 -2 d -6 Y 1 -1 d -4 Y 1 -2 d -7 Y
 1 -1 d -6 Y 1 -1 d -1 Y s 1759 423 m -8 Y 1 -1 d -5 Y 1 -1 d -7 Y 1 -1 d -7 Y 1 X -4 Y 1 -2 d -6 Y 1 -1 d -4 Y 1 -2 d -5 Y 1 -2 d -5 Y s 1767 362 m 1 -1 d -3 Y 1 -1 d -4 Y 1 -1 d -4 Y 1 -1 d -4 Y 1 -1 d -3 Y 1 -2 d -6 Y 1 X -4 Y 1 X -4 Y 1 -1 d -5 Y
 s 1776 317 m 1 -1 d -2 Y 1 -1 d -4 Y 1 -1 d -2 Y 1 X -4 Y 1 X -2 Y 1 -3 d -2 Y 1 X -4 Y 1 X -2 Y 1 -1 d -2 Y s 1785 286 m -1 Y 1 -1 d -1 Y 1 -1 d -3 Y 1 X -3 Y 1 X -2 Y 1 X -2 Y 1 -1 d -1 Y 1 X -2 Y 1 X -3 Y 1 X -1 Y s 1794 264 m -2 Y 1 X -1 Y 1 -1
 d -2 Y 1 X -4 Y 1 X -2 Y 1 X -1 Y 1 X -1 Y 1 X -3 Y 1 X -1 Y 1 X s 1803 246 m -2 Y 1 X -1 Y 1 -1 d 1 X -2 Y 1 X -1 Y 1 X -1 Y 1 -1 d -1 Y 1 X -2 Y 1 X -1 Y 1 X s 1812 233 m -1 Y 1 -1 d -1 Y 2 X -3 Y 1 X -1 Y 1 X -2 Y 1 X -1 Y 2 X -1 Y s 1820 222 m 1
 X -1 Y 1 X -1 Y 2 X -1 Y 1 X -1 Y 2 X 1 -1 d 1 X -1 Y s 1829 216 m 2 X -1 Y 2 X -1 Y 1 X -1 Y 2 X -1 Y 2 X s 1838 212 m 1 X -1 Y 3 X -1 Y 4 X -1 Y 1 X s 1847 209 m 1 X 1 -1 d 3 X -1 Y 4 X s 1856 207 m 1 X -1 Y 7 X s 1864 206 m 7 X -1 Y 2 X s 1873
 205 m 9 X s 1882 205 m 9 X s 1891 205 m 4 X -1 Y 1 X 1 Y 1 -1 d 3 X s 1900 204 m 8 X s 1908 204 m 9 X s 1917 204 m 4 X 1 -1 d 4 X s 1926 203 m 9 X s 1935 203 m 9 X s 1944 203 m 8 X s 1952 203 m 9 X s 1961 203 m 9 X s 1970 203 m 9 X s 1979 203 m 9 X
 s 1988 203 m 3 X -1 Y 5 X s 1996 202 m 9 X s 2005 202 m 9 X s 2014 202 m 9 X s 2023 202 m 9 X s 2032 202 m 8 X s 2040 202 m 1 X s 0 0.666667 0 c 1 1 1 c black 0 0.666667 0 c 245 1039 m 9 X s 254 1039 m 9 X s 263 1039 m 8 X s 271 1039 m 9 X s 280
 1039 m 9 X s 289 1039 m 9 X s 298 1039 m 9 X s 307 1039 m 8 X s 315 1039 m 9 X s 324 1039 m 9 X s 333 1039 m 9 X s 342 1039 m 9 X s 351 1039 m 8 X s 359 1039 m 9 X s 368 1039 m 9 X s 377 1039 m 9 X s 386 1039 m 9 X s 395 1039 m 8 X s 403 1039 m 9 X
 s 412 1039 m 9 X s 421 1039 m 9 X s 430 1039 m 9 X s 439 1039 m 8 X s 447 1039 m 9 X s 456 1039 m 9 X s 465 1039 m 9 X s 474 1039 m 9 X s 483 1039 m 8 X s 491 1039 m 9 X s 500 1039 m 9 X s 509 1039 m 9 X s 518 1039 m 9 X s 527 1039 m 8 X s 535 1039
 m 9 X s 544 1039 m 9 X s 553 1039 m 9 X s 562 1039 m 9 X s 571 1039 m 8 X s 579 1039 m 9 X s 588 1039 m 9 X s 597 1039 m 9 X s 606 1039 m 9 X s 615 1039 m 8 X s 623 1039 m 7 X 1 1 d 1 X s 632 1040 m 9 X s 641 1040 m 9 X s 650 1040 m 9 X s 659 1040 m
 8 X s 667 1040 m 9 X s 676 1040 m 9 X s 685 1040 m 9 X s 694 1040 m 9 X s 703 1040 m 8 X s 711 1040 m 9 X s 720 1040 m 9 X s 729 1040 m 9 X s 738 1040 m 9 X s 747 1040 m 8 X s 755 1040 m 9 X s 764 1040 m 9 X s 773 1040 m 9 X s 782 1040 m 9 X s 791
 1040 m 8 X s 799 1040 m 9 X s 808 1040 m 9 X s 817 1040 m 9 X s 826 1040 m 2 X 1 1 d 6 X s 835 1041 m 8 X s 843 1041 m 9 X s 852 1041 m 9 X s 861 1041 m 9 X s 870 1041 m 9 X s 879 1041 m 8 X s 887 1041 m 9 X s 896 1041 m 9 X s 905 1041 m 9 X s 914
 1041 m 9 X s 923 1041 m 1 X 1 Y 7 X s 931 1042 m 9 X s 940 1042 m 9 X s 949 1042 m 9 X s 958 1042 m 9 X s 967 1042 m 8 X s 975 1042 m 9 X s 984 1042 m 9 X s 993 1042 m 9 X s 1002 1042 m 9 X s 1011 1042 m 8 X s 1019 1042 m 9 X s 1028 1042 m 9 X s
 1037 1042 m 9 X s 1046 1042 m 3 X 1 Y 1 X -1 Y 4 X 1 Y 1 X s 1055 1043 m 8 X s 1063 1043 m 7 X 1 Y 2 X s 1072 1044 m 8 X 1 Y 1 X s 1081 1045 m 5 X 1 Y 4 X s 1090 1046 m 3 X 1 Y 6 X s 1099 1047 m 1 Y 5 X 1 Y 3 X s 1107 1049 m 2 X 1 Y 5 X 1 Y 2 X s
 1116 1051 m 9 X s 1125 1051 m 4 X 1 Y 5 X s 1134 1052 m 9 X s 1143 1052 m 8 X s 1151 1052 m 9 X s 1160 1052 m 9 X s 1169 1052 m 9 X s 1178 1052 m 9 X s 1187 1052 m 8 X s 1195 1052 m 9 X s 1204 1052 m 9 X s 1213 1052 m 9 X s 1222 1052 m 1 X 1 1 d 7 X
 s 1231 1053 m 8 X s 1239 1053 m 3 X 1 Y 6 X s 1248 1054 m 6 X 1 Y 3 X s 1257 1055 m 2 X 1 1 d 5 X 1 Y 1 X s 1266 1057 m 5 X 1 1 d 3 X s 1275 1058 m 1 X 1 1 d 4 X 1 Y 2 X s 1283 1060 m 4 X 1 Y 3 X 1 Y 2 X s 1292 1062 m 1 X 1 Y 4 X 1 Y 4 X 1 Y s 1301
 1065 m 4 X 1 Y 4 X 1 Y 1 X s 1310 1067 m 1 X 1 Y 6 X 1 Y 2 X s 1319 1069 m 5 X 1 Y 3 X s 1327 1070 m 7 X 1 Y 2 X s 1336 1071 m 9 X s 1345 1071 m 7 X 1 1 d 1 X s 1354 1072 m 6 X 1 -1 d 1 Y 2 X s 1363 1072 m 8 X s 1371 1072 m 9 X s 1380 1072 m 9 X s
 1389 1072 m 9 X s 1398 1072 m 9 X s 1407 1072 m 8 X s 1415 1072 m 2 X 1 Y 7 X s 1424 1073 m 9 X s 1433 1073 m 2 X 1 1 d 6 X s 1442 1074 m 1 Y 7 X 1 Y 2 X s 1451 1076 m 5 X 1 Y 3 X s 1459 1077 m 2 X 1 Y 2 X 1 -1 d 1 Y 3 X 1 Y 1 X s 1468 1079 m 4 X 1
 Y 3 X 1 Y 2 X s 1477 1081 m 2 X 1 Y -1 Y 3 X 1 Y 3 X 1 Y 1 X s 1486 1083 m 2 X 1 Y 3 X 1 Y 2 X 1 Y 2 X -1 Y s 1495 1085 m 1 Y 2 X 1 Y 2 X 1 Y 2 X 1 Y 1 X 1 1 d s 1503 1090 m 1 X 1 Y 3 X 1 Y 1 X 1 Y 2 X 1 1 d 1 X s 1512 1094 m 1 X 1 Y 3 X 1 Y 5 X s
 1521 1096 m 1 1 d 2 X 1 Y 2 X 1 Y -1 Y 1 X 1 Y 3 X 1 Y s 1530 1100 m 1 X 1 Y 4 X 1 Y 3 X 1 Y 1 X s 1539 1103 m 5 X 1 Y -1 Y 1 1 d 2 X s 1547 1104 m 2 X -1 Y 3 X 1 Y 4 X s 1556 1104 m 4 X 1 Y 2 X -1 Y 3 X s 1565 1104 m 4 X 1 Y 5 X s 1574 1105 m 9 X s
 1583 1105 m 8 X s 1591 1105 m 9 X s 1600 1105 m 9 X s 1609 1105 m 9 X 1 Y s 1618 1106 m 9 X s 1627 1106 m 8 X s 1635 1106 m 5 X 1 Y 4 X s 1644 1107 m 2 X 1 Y 5 X 1 Y 2 X s 1653 1109 m 4 X 1 Y 3 X 1 Y 2 X s 1662 1111 m 2 X 1 Y 3 X 1 Y 3 X 1 Y 1 X s
 1671 1114 m 1 X 1 Y 2 X 1 Y -1 Y 1 X 1 1 d 2 X 1 Y 1 X s 1679 1117 m 1 X 1 Y 2 X 1 1 d 1 X 1 Y 2 X 1 Y 2 X s 1688 1121 m 1 X 2 Y 1 X 1 Y 2 X 1 Y 2 X 1 Y 1 X 1 Y 1 X 1 1 d s 1697 1128 m 1 X 1 Y 3 X 1 Y 1 X 2 Y 1 X 1 Y 1 X 1 Y 1 -1 d -1 Y 1 Y 1 X 1 Y
 -1 Y s 1706 1133 m 1 Y 1 X 1 Y 1 X 1 Y 1 1 d 1 1 d 1 Y 1 X 1 Y 1 X 1 Y 1 X 1 Y -1 Y 1 X 2 Y 1 X 1 Y s 1715 1144 m 1 Y 1 X 2 Y 1 X 1 Y 1 1 d 1 Y 1 1 d 1 Y 1 X 1 Y 1 X 3 Y 1 X 2 Y 1 X 1 Y s 1723 1159 m 1 X 1 Y -1 Y 1 Y 1 X 1 Y 1 1 d 1 Y 1 1 d 1 Y 1 1
 d 1 Y 1 X 2 Y 1 X 2 Y 1 X 2 Y 1 1 d -1 Y s 1732 1173 m 1 1 d 1 Y 1 X 2 Y 1 1 d 2 Y 1 X 2 Y 1 X 1 Y 1 X 2 Y -1 Y 1 X 3 Y 1 1 d 2 Y 1 X 1 Y s 1741 1191 m 1 Y 1 1 d -1 Y 1 Y 1 1 d 3 Y 1 X 3 Y 1 1 d 3 Y 1 X 1 Y 1 1 d 2 Y 1 1 d 2 Y -2 Y 1 X 3 Y 1 X s
 1750 1212 m 1 Y 1 X 2 Y -1 Y 1 1 d 2 Y -1 Y 1 Y 1 1 d 2 Y 1 -1 d -1 Y 1 Y 1 X 2 Y -1 Y 1 Y 1 1 d 1 X 2 Y 1 1 d -1 Y 1 Y 1 1 d s 1759 1226 m 2 Y 1 X 2 Y 1 1 d -1 Y 2 Y 1 1 d 2 Y 1 X -1 Y 2 Y 1 X 2 Y 1 X 1 Y 1 1 d -1 Y 1 Y 1 1 d 1 Y -1 Y s 1767 1241 m
 1 X -1 Y 1 -1 d -1 Y 1 Y -2 Y 1 1 d 1 Y 1 1 d -1 Y 1 Y 1 1 d -1 Y 1 1 d -1 Y 2 Y 1 X 1 Y -1 Y 1 1 d -1 Y 1 X 1 Y -1 Y s 1776 1242 m 1 -2 d -1 Y 1 Y -3 Y 1 1 d 1 Y -3 Y 1 -1 d -5 Y 1 -3 d 2 Y 1 X -3 Y 1 1 d -2 Y 1 -1 d -2 Y 1 -1 d -4 Y 1 1 d s 1785
 1218 m 5 Y 1 X -7 Y 1 X -4 Y 1 -1 d -7 Y 1 -2 d -4 Y 1 X -6 Y 1 X 1 Y -3 Y 1 -2 d -3 Y 1 -2 d -5 Y 3 Y -1 Y 1 -2 d -1 Y s 1794 1177 m -3 Y 1 X -10 Y 1 -2 d -6 Y 1 -5 d -7 Y 1 -1 d -2 Y 1 Y -2 Y 1 -1 d -7 Y 1 -1 d -4 Y 1 -1 d -2 Y 1 Y -9 Y 1 -1 d 2 Y
 -4 Y 1 -5 d -3 Y s 1803 1105 m -6 Y 1 -1 d -7 Y 1 -1 d -10 Y 1 -3 d -7 Y 1 -3 d -8 Y 1 -3 d -11 Y 1 -1 d -14 Y 1 -3 d -6 Y 1 -3 d -9 Y 1 -3 d s 1812 1006 m -7 Y 1 -3 d -13 Y 1 -3 d -8 Y 1 Y 1 -2 d -5 Y 1 Y -3 Y 1 -4 d -10 Y 1 -3 d -12 Y 1 -4 d -11 Y
 1 -3 d -15 Y 1 -1 d -10 Y s 1820 891 m -4 Y 1 -3 d -12 Y 1 -1 d -13 Y 1 -3 d -10 Y 1 -2 d -13 Y 1 -2 d -14 Y 1 -1 d -10 Y 1 X -15 Y 1 -3 d 1 Y -7 Y 1 X -15 Y s 1829 764 m -4 Y 1 -5 d -10 Y 1 -2 d -8 Y 1 -3 d -10 Y 1 X -9 Y 1 -2 d -2 Y 1 Y -5 Y 1 -2
 d -9 Y 1 -3 d -11 Y 1 Y 1 -3 d -11 Y 1 -2 d -2 Y s 1838 663 m -5 Y 1 -3 d -10 Y 1 -1 d -9 Y 1 -3 d -11 Y 1 -2 d -7 Y 1 X -7 Y 1 Y 1 -1 d -5 Y 1 -2 d -8 Y 1 -2 d -13 Y 1 -1 d -3 Y s 1847 571 m -6 Y 1 -2 d -6 Y 1 X -4 Y 1 -1 d -7 Y 1 -2 d -3 Y 1 X -5
 Y 1 -1 d -4 Y 1 -1 d -3 Y 1 -2 d -5 Y 1 -1 d s 1856 518 m -5 Y 1 -1 d -5 Y 1 -1 d -3 Y 1 -1 d -5 Y 1 -3 d -3 Y 1 -1 d -6 Y 1 -2 d -3 Y 1 X -3 Y 1 -1 d -2 Y s 1864 473 m -1 Y 1 X -2 Y 1 X -4 Y 1 -1 d -5 Y 1 X -2 Y 1 -2 d -2 Y 1 -1 d -4 Y 1 X -2 Y 1 X
 -2 Y 1 Y 1 X -2 Y s 1873 444 m -1 Y 1 -2 d -1 Y 1 -1 d -4 Y 1 -1 d -3 Y 1 -1 d -2 Y 1 X -4 Y 1 X -3 Y 1 X -2 Y 1 -1 d -1 Y 1 1 d -2 Y s 1882 416 m -1 Y 1 X -1 Y 1 X -2 Y 1 X -2 Y 1 -1 d -3 Y 1 Y 1 -2 d -1 Y 1 -1 d -4 Y 1 -1 d -2 Y 1 Y 1 X -2 Y 1 -1
 d -1 Y s 1891 393 m -2 Y 1 X -2 Y 1 X 1 -1 d -3 Y 1 -1 d -3 Y 1 X -1 Y 1 X -6 Y 1 X -4 Y 1 X -2 Y 1 X s 1900 368 m 1 Y -1 Y 1 -1 d -3 Y 1 X -3 Y 1 X -2 Y 1 X 1 -1 d 1 X -4 Y 1 1 d -2 Y 1 X s 1908 353 m 1 -1 d 1 X -1 Y 1 X -1 Y 1 X -1 Y 1 X -1 Y 2 X
 1 -1 d -1 Y 1 X s 1917 346 m 1 Y -1 Y 2 X -1 Y 1 X 1 Y -1 Y 3 X -1 Y 2 X -1 Y 1 -1 d s 1926 342 m 1 X 1 -1 d -1 Y 2 X -1 Y 1 X -1 Y 1 Y 1 X -1 Y 2 X -1 Y 1 X s 1935 337 m 3 X -1 Y 3 X -1 Y 1 X 1 -1 d 1 X s 1944 334 m -1 Y 2 X -1 Y 3 X -1 Y 1 Y -1 Y
 3 X s 1952 331 m 2 X -1 Y 1 X 1 1 d 4 X 1 -1 d s 1961 330 m 9 X -1 Y s 1970 329 m 7 X -3 Y 2 X s 1979 326 m 1 X -2 Y 5 X -1 Y 3 X s 1988 323 m 1 X 3 Y 2 X -3 Y 5 X s 1996 323 m 7 X -4 Y 2 X s 2005 319 m 4 X -1 Y 5 X s 2014 318 m 3 X -1 Y 4 X -1 Y 2
 X s 2023 316 m 1 X 1 -1 d 1 Y 2 X 1 -1 d 2 X -45 Y 2 X s 2032 270 m 1 X -3 Y 3 X -10 Y 4 X s 2040 257 m 1 X s black 3 lw 245 202 m 1796 X s 332 242 m -40 Y s 384 222 m -20 Y s 436 222 m -20 Y s 488 222 m -20 Y s 540 242 m -40 Y s 592 222 m -20 Y s
 645 222 m -20 Y s 697 222 m -20 Y s 749 242 m -40 Y s 801 222 m -20 Y s 853 222 m -20 Y s 905 222 m -20 Y s 957 242 m -40 Y s 1009 222 m -20 Y s 1061 222 m -20 Y s 1113 222 m -20 Y s 1165 242 m -40 Y s 1218 222 m -20 Y s 1270 222 m -20 Y s 1322 222
 m -20 Y s 1374 242 m -40 Y s 1426 222 m -20 Y s 1478 222 m -20 Y s 1530 222 m -20 Y s 1582 242 m -40 Y s 1634 222 m -20 Y s 1686 222 m -20 Y s 1739 222 m -20 Y s 1791 242 m -40 Y s 1843 222 m -20 Y s 1895 222 m -20 Y s 1947 222 m -20 Y s 1999 242 m
 -40 Y s 332 242 m -40 Y s 280 222 m -20 Y s 1999 242 m -40 Y s 245 202 m 1145 Y s 291 202 m -46 X s 268 254 m -23 X s 268 306 m -23 X s 268 358 m -23 X s 291 410 m -46 X s 268 462 m -23 X s 268 514 m -23 X s 268 566 m -23 X s 291 618 m -46 X s 268
 670 m -23 X s 268 722 m -23 X s 268 775 m -23 X s 291 827 m -46 X s 268 879 m -23 X s 268 931 m -23 X s 268 983 m -23 X s 291 1035 m -46 X s 268 1087 m -23 X s 268 1139 m -23 X s 268 1191 m -23 X s 291 1243 m -46 X s 291 1243 m -46 X s 268 1295 m
 -23 X s 268 1347 m -23 X s 0.490196 0.545098 0.615686 c 1 1 1 c 0.490196 0.545098 0.615686 c 907 202 245 1347 bl 245 1347 m 907 X s 1152 1347 m 202 Y s 1152 1549 m -907 X s 245 1549 m -202 Y s black
 gsave  2268 1684 0 0 C 515.735 1478.95 t 0 r /Helvetica-Bold findfont 53.0904 sf 0 0 m (Signal efficiency) show NC gr  0 0 0.933333 c 9 lw 286 1499 m 190 X s black
 gsave  2268 1684 0 0 C 515.735 1376.56 t 0 r /Helvetica-Bold findfont 53.0904 sf 0 0 m (Background efficiency) show NC gr  1 0 0 c 286 1397 m 190 X s 0.490196 0.545098 0.615686 c 3 lw 1 1 1 c 0.490196 0.545098 0.615686 c 889 202 1152 1347 bl 1152
 1347 m 889 X s 2041 1347 m 202 Y s 2041 1549 m -889 X s 1152 1549 m -202 Y s black
 gsave  2268 1684 0 0 C 1418.27 1501.7 t 0 r /Helvetica-Bold findfont 56.8825 sf 0 0 m (Signal purity) show NC gr  0 0 0.933333 c[  52 12 ] 0 sd 6 lw 1192 1515 m 187 X s black
 gsave  2268 1684 0 0 C 1418.27 1433.44 t 0 r /Helvetica-Bold findfont 56.8825 sf 0 0 m (Signal efficiency*purity) show NC gr  0 0 0.933333 c[  22 12 ] 0 sd 1192 1448 m 187 X s black
 gsave  2268 1684 0 0 C 1501.7 1368.97 t 0 r /Helvetica-Bold findfont 56.8825 sf 0 0 m (S+B) show NC gr [  ] 0 sd 1483 1414 m 7 -49 d s 3 lw 1490 1365 m 8 65 d s 1498 1430 m 114 X s
 gsave  2268 1684 0 0 C 1418.27 1368.97 t 0 r /Helvetica-Bold findfont 56.8825 sf 0 0 m (S/) show NC gr  0 0.666667 0 c 9 lw 1192 1381 m 187 X s black 3 lw 245 1243 m 1796 X s
 gsave  2268 1684 0 0 C 337.503 390.593 t 0 r /Helvetica-Bold findfont 53.0904 sf 0 0 m (For 1000 signal and 1000 background) show NC gr 
 gsave  2268 1684 0 0 C 1065.6 322.334 t 0 r /Helvetica-Bold findfont 53.0904 sf 0 0 m ( is) show NC gr 
 gsave  2268 1684 0 0 C 963.211 322.334 t 0 r /Helvetica-Bold findfont 53.0904 sf 0 0 m (S+B) show NC gr  6 lw 940 364 m 8 -45 d s 3 lw 948 319 m 8 60 d s 956 379 m 110 X s
 gsave  2268 1684 0 0 C 337.503 322.334 t 0 r /Helvetica-Bold findfont 53.0904 sf 0 0 m (events the maximum S/) show NC gr 
 gsave  2268 1684 0 0 C 337.503 254.075 t 0 r /Helvetica-Bold findfont 53.0904 sf 0 0 m (27.80 when cutting at \2550.15) show NC gr  0.490196 0.545098 0.615686 c 0.364706 0.419608 0.490196 c 1554 100 23 1575 bf 0.490196 0.545098 0.615686 c 23 1575 m
 1554 X s 1577 1575 m 100 Y s 1577 1675 m -1554 X s 23 1675 m -100 Y s 1 1 1 c black 1 1 1 c
 gsave  2268 1684 0 0 C 75.8434 1604.09 t 0 r /Helvetica-Bold findfont 79.6355 sf 0 0 m (Cut efficiencies and optimal cut value) show NC gr  0 0.666667 0 c 2041 202 m 1145 Y s 1995 202 m 46 X s 2018 239 m 23 X s 2018 277 m 23 X s 2018 314 m 23 X s
 2018 352 m 23 X s 1995 389 m 46 X s 2018 427 m 23 X s 2018 464 m 23 X s 2018 502 m 23 X s 2018 539 m 23 X s 1995 576 m 46 X s 2018 614 m 23 X s 2018 651 m 23 X s 2018 689 m 23 X s 2018 726 m 23 X s 1995 764 m 46 X s 2018 801 m 23 X s 2018 839 m 23 X
 s 2018 876 m 23 X s 2018 913 m 23 X s 1995 951 m 46 X s 2018 988 m 23 X s 2018 1026 m 23 X s 2018 1063 m 23 X s 2018 1101 m 23 X s 1995 1138 m 46 X s 2018 1176 m 23 X s 2018 1213 m 23 X s 2018 1250 m 23 X s 2018 1288 m 23 X s 1995 1325 m 46 X s 1995
 1325 m 46 X s black 0 0.666667 0 c
 gsave  2268 1684 0 0 C 2051.56 178.232 t 0 r /Helvetica-Bold findfont 64.4669 sf 0 0 m (0) show NC gr  black 0 0.666667 0 c
 gsave  2268 1684 0 0 C 2051.56 364.048 t 0 r /Helvetica-Bold findfont 64.4669 sf 0 0 m (5) show NC gr  black 0 0.666667 0 c
 gsave  2268 1684 0 0 C 2051.56 553.657 t 0 r /Helvetica-Bold findfont 64.4669 sf 0 0 m (10) show NC gr  black 0 0.666667 0 c
 gsave  2268 1684 0 0 C 2051.56 739.473 t 0 r /Helvetica-Bold findfont 64.4669 sf 0 0 m (15) show NC gr  black 0 0.666667 0 c
 gsave  2268 1684 0 0 C 2051.56 925.289 t 0 r /Helvetica-Bold findfont 64.4669 sf 0 0 m (20) show NC gr  black 0 0.666667 0 c
 gsave  2268 1684 0 0 C 2051.56 1114.9 t 0 r /Helvetica-Bold findfont 64.4669 sf 0 0 m (25) show NC gr  black 0 0.666667 0 c
 gsave  2268 1684 0 0 C 2051.56 1300.71 t 0 r /Helvetica-Bold findfont 64.4669 sf 0 0 m (30) show NC gr  black 0 0.666667 0 c
 gsave  2268 1684 0 0 C 2203.25 967.003 t 90 r /Helvetica-Bold findfont 64.4669 sf 0 0 m (Significance) show NC gr 
 gr  gr showpage
end
%%EOF
