%!PS-Adobe-2.0 EPSF-2.0
%%BoundingBox:  0 0 567 421
%%Title: dataset_class_comb2_all/plots/mvaeffs_BDT.eps: Cut efficiencies for BDT classifier
%%Creator: ROOT Version 6.18/00
%%CreationDate: Sat Sep 14 15:12:24 2019
%%DocumentNeededResources: ProcSet (FontSetInit)
%%EndComments
%%BeginProlog
80 dict begin
/s {stroke} def /l {lineto} def /m {moveto} def /t {translate} def
/r {rotate} def /rl {roll}  def /R {repeat} def
/d {rlineto} def /rm {rmoveto} def /gr {grestore} def /f {eofill} def
/c {setrgbcolor} def /black {0 setgray} def /sd {setdash} def
/cl {closepath} def /sf {scalefont setfont} def /lw {setlinewidth} def
/box {m dup 0 exch d exch 0 d 0 exch neg d cl} def
/NC{systemdict begin initclip end}def/C{NC box clip newpath}def
/bl {box s} def /bf {gsave box gsave f grestore 1 lw [] 0 sd s grestore} def /Y { 0 exch d} def /X { 0 d} def 
/K {{pop pop 0 moveto} exch kshow} bind def
/ita {/ang 15 def gsave [1 0 ang dup sin exch cos div 1 0 0] concat} def 
/mp {newpath /y exch def /x exch def} def
/side {[w .77 mul w .23 mul] .385 w mul sd w 0 l currentpoint t -144 r} def
/mr {mp x y w2 0 360 arc} def /m24 {mr s} def /m20 {mr f} def
/mb {mp x y w2 add m w2 neg 0 d 0 w neg d w 0 d 0 w d cl} def
/mt {mp x y w2 add m w2 neg w neg d w 0 d cl} def
/w4 {w 4 div} def
/w6 {w 6 div} def
/w8 {w 8 div} def
/m21 {mb f} def /m25 {mb s} def /m22 {mt f} def /m26{mt s} def
/m23 {mp x y w2 sub m w2 w d w neg 0 d cl f} def
/m27 {mp x y w2 add m w3 neg w2 neg d w3 w2 neg d w3 w2 d cl s} def
/m28 {mp x w2 sub y w2 sub w3 add m w3 0 d  0 w3 neg d w3 0 d 0 w3 d w3 0 d  0 w3 d w3 neg 0 d 0 w3 d w3 neg 0 d 0 w3 neg d w3 neg 0 d cl s } def
/m29 {mp gsave x w2 sub y w2 add w3 sub m currentpoint t 4 {side} repeat cl fill gr} def
/m30 {mp gsave x w2 sub y w2 add w3 sub m currentpoint t 4 {side} repeat cl s gr} def
/m31 {mp x y w2 sub m 0 w d x w2 sub y m w 0 d x w2 sub y w2 add m w w neg d x w2 sub y w2 sub m w w d s} def
/m32 {mp x y w2 sub m w2 w d w neg 0 d cl s} def
/m33 {mp x y w2 add m w3 neg w2 neg d w3 w2 neg d w3 w2 d cl f} def
/m34 {mp x w2 sub y w2 sub w3 add m w3 0 d  0 w3 neg d w3 0 d 0 w3 d w3 0 d  0 w3 d w3 neg 0 d 0 w3 d w3 neg 0 d 0 w3 neg d w3 neg 0 d cl f } def
/m35 {mp x y w2 add m w2 neg w2 neg d w2 w2 neg d w2 w2 d w2 neg w2 d x y w2 sub m 0 w d x w2 sub y m w 0 d s} def
/m36 {mb x w2 sub y w2 add m w w neg d x w2 sub y w2 sub m w w d s} def
/m37 {mp x y m w4 neg w2 d w4 neg w2 neg d w2 0 d  w4 neg w2 neg d w2 0 d w4 neg w2 d w2 0 d w4 neg w2 d w4 neg w2 neg d cl s} def
/m38 {mp x w4 sub y w2 add m w4 neg w4 neg d 0 w2 neg d w4 w4 neg d w2 0 d w4 w4 d 0 w2 d w4 neg w4 d w2 neg 0 d x y w2 sub m 0 w d x w2 sub y m w 0 d cl s} def
/m39 {mp x y m w4 neg w2 d w4 neg w2 neg d w2 0 d  w4 neg w2 neg d w2 0 d w4 neg w2 d w2 0 d w4 neg w2 d w4 neg w2 neg d cl f} def
/m40 {mp x y m w4 w2 d w4 w4 neg d w2 neg w4 neg d w2 w4 neg d w4 neg w4 neg d w4 neg w2 d w4 neg w2 neg d w4 neg w4 d w2 w4 d w2 neg w4 d w4 w4 d w4 w2 neg d cl s} def
/m41 {mp x y m w4 w2 d w4 w4 neg d w2 neg w4 neg d w2 w4 neg d w4 neg w4 neg d w4 neg w2 d w4 neg w2 neg d w4 neg w4 d w2 w4 d w2 neg w4 d w4 w4 d w4 w2 neg d cl f} def
/m42 {mp x y w2 add m w8 neg w2 -3 4 div mul d w2 -3 4 div mul w8 neg d w2 3 4 div mul w8 neg d w8 w2 -3 4 div mul d w8 w2 3 4 div mul d w2 3 4 div mul w8 d w2 -3 4 div mul w8 d w8 neg w2 3 4 div mul d cl s} def
/m43 {mp x y w2 add m w8 neg w2 -3 4 div mul d w2 -3 4 div mul w8 neg d w2 3 4 div mul w8 neg d w8 w2 -3 4 div mul d w8 w2 3 4 div mul d w2 3 4 div mul w8 d w2 -3 4 div mul w8 d w8 neg w2 3 4 div mul d cl f} def
/m44 {mp x y m w6 neg w2 d w2 2 3 div mul 0 d w6 neg w2 neg d w2 w6 d 0 w2 -2 3 div mul d w2 neg w6 d w6 w2 neg d w2 -2 3 div mul 0 d w6 w2 d w2 neg w6 neg d 0 w2 2 3 div mul d w2 w6 neg d cl s} def
/m45 {mp x y m w6 neg w2 d w2 2 3 div mul 0 d w6 neg w2 neg d w2 w6 d 0 w2 -2 3 div mul d w2 neg w6 d w6 w2 neg d w2 -2 3 div mul 0 d w6 w2 d w2 neg w6 neg d 0 w2 2 3 div mul d w2 w6 neg d cl f} def
/m46 {mp x y w4 add m w4 neg w4 d w4 neg w4 neg d  w4 w4 neg d w4 neg w4 neg d w4 w4 neg d w4 w4 d w4 w4 neg d w4 w4 d w4 neg w4 d w4 w4 d w4 neg w4 d w4 neg w4 neg d cl s} def
/m47 {mp x y w4 add m w4 neg w4 d w4 neg w4 neg d w4 w4 neg d w4 neg w4 neg d  w4 w4 neg d w4 w4 d w4 w4 neg d w4 w4 d w4 neg w4 d w4 w4 d w4 neg w4 d w4 neg w4 neg d cl f} def
/m48 {mp x y w4 add m w4 neg w4 d w4 neg w4 neg d w4 w4 neg d  w4 neg w4 neg d w4 w4 neg d w4 w4 d w4 w4 neg d w4 w4 d w4 neg w4 d w4 w4 d w4 neg w4 d w4 neg w4 neg d  w4 w4 neg d w4 neg w4 neg d w4 neg w4 d w4 w4 d cl f} def
/m49 {mp x w2 sub w3 add y w2 sub w3 add m  0 w3 neg d w3 0 d 0 w3 d w3 0 d 0 w3 d w3 neg 0 d 0 w3 d w3 neg 0 d 0 w3 neg d w3 neg 0 d 0 w3 neg d w3 0 d 0 w3 d w3 0 d 0 w3 neg d w3 neg 0 d cl f } def
/m2 {mp x y w2 sub m 0 w d x w2 sub y m w 0 d s} def
/m5 {mp x w2 sub y w2 sub m w w d x w2 sub y w2 add m w w neg d s} def
%%IncludeResource: ProcSet (FontSetInit)
%%IncludeResource: font Times-Roman
%%IncludeResource: font Times-Italic
%%IncludeResource: font Times-Bold
%%IncludeResource: font Times-BoldItalic
%%IncludeResource: font Helvetica
%%IncludeResource: font Helvetica-Oblique
%%IncludeResource: font Helvetica-Bold
%%IncludeResource: font Helvetica-BoldOblique
%%IncludeResource: font Courier
%%IncludeResource: font Courier-Oblique
%%IncludeResource: font Courier-Bold
%%IncludeResource: font Courier-BoldOblique
%%IncludeResource: font Symbol
%%IncludeResource: font ZapfDingbats
/reEncode {exch findfont dup length dict begin {1 index /FID eq  {pop pop} {def} ifelse } forall /Encoding exch def currentdict end dup /FontName get exch definefont pop } def [/Times-Bold /Times-Italic /Times-BoldItalic /Helvetica /Helvetica-Oblique
 /Helvetica-Bold /Helvetica-BoldOblique /Courier /Courier-Oblique /Courier-Bold /Courier-BoldOblique /Times-Roman /AvantGarde-Book /AvantGarde-BookOblique /AvantGarde-Demi /AvantGarde-DemiOblique /Bookman-Demi /Bookman-DemiItalic /Bookman-Light
 /Bookman-LightItalic /Helvetica-Narrow /Helvetica-Narrow-Bold /Helvetica-Narrow-BoldOblique /Helvetica-Narrow-Oblique /NewCenturySchlbk-Roman /NewCenturySchlbk-Bold /NewCenturySchlbk-BoldItalic /NewCenturySchlbk-Italic /Palatino-Bold
 /Palatino-BoldItalic /Palatino-Italic /Palatino-Roman ] {ISOLatin1Encoding reEncode } forall
%%EndProlog
%%BeginSetup
%%EndSetup
newpath  gsave  .25 .25 scale  gsave  0 0 t 0.490196 0.545098 0.615686 c[  ] 0 sd 3 lw 0.941176 0.941176 0.941176 c 2268 1684 0 0 bf black 1 1 0.992157 c 1796 1145 245 202 bf black 1796 1145 245 202 bl 1 1 0.992157 c 1796 1145 245 202 bf black 1796
 1145 245 202 bl 245 202 m 1796 X s[ 4 8] 0 sd 481 1347 m -1145 Y s 764 1347 m -1145 Y s 1047 1347 m -1145 Y s 1330 1347 m -1145 Y s 1614 1347 m -1145 Y s 1897 1347 m -1145 Y s 481 1347 m -1145 Y s 1897 1347 m -1145 Y s[  ] 0 sd 245 202 m 1145 Y s[ 4
 8] 0 sd 2041 257 m -1796 X s 2041 455 m -1796 X s 2041 653 m -1796 X s 2041 851 m -1796 X s 2041 1050 m -1796 X s 2041 1248 m -1796 X s 2041 257 m -1796 X s 2041 1248 m -1796 X s 0 0 0.933333 c[  22 12 ] 0 sd 6 lw 0.49 0.6 0.82 c black 0 0 0.933333
 c 245 752 m 9 X s 254 752 m 9 X s 263 752 m 8 X s 271 752 m 9 X s 280 752 m 9 X s 289 752 m 9 X s 298 752 m 9 X s 307 752 m 8 X s 315 752 m 9 X s 324 752 m 9 X s 333 752 m 9 X s 342 752 m 9 X s 351 752 m 8 X s 359 752 m 9 X s 368 752 m 8 X 1 Y 1 X s
 377 753 m 9 X s 386 753 m 9 X s 395 753 m 8 X s 403 753 m 9 X s 412 753 m 9 X s 421 753 m 9 X s 430 753 m 6 X 1 Y 3 X s 439 754 m 8 X s 447 754 m 9 X s 456 754 m 9 X s 465 754 m 2 X 1 Y 7 X s 474 755 m 9 X s 483 755 m 1 X 1 1 d 6 X s 491 756 m 9 X s
 500 756 m 2 X 1 Y 7 X s 509 757 m 4 X 1 Y 5 X s 518 758 m 6 X 1 Y 3 X s 527 759 m 5 X 1 Y 3 X s 535 760 m 4 X 1 Y 5 X s 544 761 m 7 X 1 Y 2 X s 553 762 m 3 X 1 Y 6 X s 562 763 m 1 X 1 Y 8 X s 571 764 m 1 Y 8 X s 579 765 m 1 X 1 Y 7 X 1 Y 1 X s 588
 767 m 7 X 1 Y 2 X s 597 768 m 4 X 1 Y 5 X s 606 769 m 1 X 1 1 d 4 X 1 Y 3 X s 615 771 m 2 X 1 Y 4 X 1 Y 2 X s 623 773 m 2 X 1 Y 6 X 1 Y 1 X s 632 775 m 2 X 1 Y 5 X 1 1 d 1 X s 641 777 m 1 X 1 Y 4 X 1 1 d 3 X s 650 779 m 2 X 1 Y 3 X 1 Y 4 X s 659 781
 m 1 X 1 Y 1 -1 d 1 Y 3 X 1 1 d 2 X s 667 783 m 1 X 1 1 d 4 X 1 Y 3 X s 676 785 m 1 X 1 Y 3 X 1 1 d 3 X 1 Y 1 X s 685 788 m 2 X 1 1 d 2 X 1 Y 3 X 1 Y 1 X s 694 791 m 2 X 1 Y 4 X -1 Y 1 Y 3 X s 703 792 m 1 X 1 Y 3 X 1 Y 3 X 1 Y 1 X s 711 795 m 3 X 1 Y
 2 X 1 Y 3 X 1 Y 1 X s 720 798 m 1 X 1 Y 2 X 1 Y 2 X 1 Y 1 X 1 1 d 2 X s 729 802 m 1 Y 3 X 1 Y 3 X 1 Y 2 X 1 Y 1 X s 738 806 m 2 X 1 Y 4 X 1 Y 3 X s 747 808 m 1 1 d 2 X 1 Y 2 X 1 1 d 2 X 1 Y s 755 812 m 3 X 1 Y 3 X 1 1 d 2 X s 764 814 m 1 1 d 2 X 1 Y
 3 X 1 Y 3 X 1 Y s 773 818 m 2 X 1 Y 1 X 1 Y 2 X 1 Y 2 X 1 Y 2 X s 782 822 m -1 Y 1 1 d 2 X 1 Y 3 X 1 Y 2 X 1 Y 1 X s 791 825 m 2 X 1 Y 1 X 1 Y 1 X 1 1 d 2 X 1 1 d s 799 829 m 1 X 1 Y 2 X 1 Y 2 X 1 Y 1 X 1 Y 3 X 1 Y s 808 834 m 2 X 1 Y 3 X 1 Y 3 X 1
 Y 1 X s 817 837 m 1 X 1 1 d 2 X 1 1 d 1 X 1 1 d 2 X s 826 840 m 1 Y 3 X 1 Y 2 X 1 Y 1 X 1 Y 3 X s 835 844 m 1 Y 2 X 1 Y 2 X 1 Y 2 X 1 Y 2 X 1 Y s 843 849 m 3 X 1 Y 2 X 1 Y 1 X 1 Y 2 X 1 Y 1 X s 852 853 m 1 X 1 Y 2 X 1 1 d 1 X 1 1 d 1 X 1 Y 1 X 1 1 d
 s 861 858 m 1 X 1 Y 2 X 1 Y 2 X 1 Y 2 X 1 Y 1 X -2 Y 1 Y 1 X s 870 861 m 3 X 1 Y 2 X 1 1 d 1 X 1 Y 1 X 1 Y 1 X s 879 865 m 1 X 1 Y 3 X 1 Y 2 X 1 Y 1 X 1 Y 1 X s 887 869 m 1 X 1 Y 1 1 d 1 X 1 Y 2 X 1 1 d 1 X 1 Y 2 X 1 Y s 896 875 m 1 X 1 Y 2 X 1 Y 1
 X 1 Y 3 X 1 Y 2 X 1 Y s 905 880 m 2 X 1 Y 1 X 1 Y 2 X 1 Y 1 X 1 Y 3 X s 914 884 m 1 Y 2 X 1 Y 2 X -1 Y 1 X 1 Y 4 X s 923 886 m 1 X -1 Y 1 Y 2 X 1 Y 2 X 1 Y -1 Y 1 X 1 Y 1 X 1 1 d -1 Y s 931 888 m 1 1 d 2 X 1 Y 2 X 1 Y 2 X 1 Y 2 X -1 Y s 940 891 m 1
 X 1 1 d 1 X 1 Y 2 X 1 Y 1 X 1 Y 3 X 1 Y s 949 896 m 1 X 1 1 d 1 X -1 Y 1 X 1 Y 1 X 1 Y 2 X 1 Y 2 X s 958 899 m 1 Y 2 X 1 1 d 1 X 1 Y 1 X 1 1 d 1 X 1 Y 2 X s 967 904 m 1 X 1 1 d 3 X 1 Y 1 X 1 Y 1 X 1 Y 1 X 1 Y s 975 909 m 1 X 1 1 d 2 X 1 Y 1 X 1 Y 1
 X 1 Y 3 X s 984 913 m 1 X 1 Y 1 X 1 Y 3 X 1 Y 1 X 1 Y 1 X 1 Y 1 X 1 Y -1 Y 1 X s 993 918 m 1 Y 1 X 1 1 d 1 1 d -1 Y 1 X 1 Y 1 X 1 1 d 1 X 1 Y 1 X 1 1 d s 1002 924 m 1 X 1 Y 2 X 1 Y 1 X 1 Y 1 X 1 1 d -1 Y 2 X 1 1 d s 1011 928 m -1 Y 1 X 1 Y 1 X 1 Y 1
 X 1 Y 2 X 1 Y 1 X 1 Y 2 X 1 Y s 1019 933 m 2 X 1 Y 2 X 1 1 d 1 X 1 Y 2 X -1 Y 1 Y 1 X s 1028 936 m 1 X 1 Y 1 X 1 Y 2 X 1 Y 2 X 1 Y -1 Y 2 X 1 Y 1 X 1 Y s 1037 941 m 1 X 1 Y -1 Y 1 X 1 Y 1 X 1 Y 1 X 1 Y 1 X 1 1 d 1 X 1 Y 2 X s 1046 946 m 1 X 1 1 d 1
 X 1 1 d 1 X 1 Y 2 X 1 1 d 1 Y 1 X s 1055 951 m 1 X 1 Y 2 X 1 Y 1 X 1 -1 d -1 Y 1 Y 1 X 1 Y 2 X 1 Y -1 Y s 1063 953 m 1 X 1 Y 2 X 1 Y 2 X 1 Y 4 X s 1072 956 m 1 1 d 1 Y 4 X 1 Y 2 X 1 Y 2 X s 1081 960 m 1 Y 2 X 1 Y 3 X 1 Y 1 X 1 1 d 1 X 1 Y -2 Y 1 X s
 1090 963 m 1 Y 1 X -1 Y 1 X 1 Y 1 X 1 1 d 1 X 1 Y 1 1 d 1 X 1 Y 1 X 1 Y 1 X s 1099 969 m 1 X 1 Y 2 X 1 Y 1 X 1 Y 2 X 1 Y 1 X 1 Y 1 X 1 Y s 1107 975 m 2 X 1 1 d 1 Y 1 X 1 Y 2 X 1 Y 2 X 1 Y 1 X 1 Y s 1116 981 m 1 1 d 1 X 1 Y 1 X -1 Y 1 1 d 1 X 1 1 d 1
 X 1 Y 2 X s 1125 985 m 2 Y 2 X 1 Y -1 Y 1 1 d 2 X 1 Y 2 X 1 Y 1 X 1 Y 1 X s 1134 991 m 1 X 1 Y 2 X 1 Y 1 X 1 Y 1 X -1 Y 1 Y 2 X 2 Y 2 X s 1143 996 m 1 Y -1 Y 1 1 d 1 1 d 1 1 d 1 X 1 Y 1 X 1 -1 d 1 Y 2 X 1 Y s 1151 1001 m 2 X 1 Y 1 X -1 Y 1 Y 1 X 1 1
 d 1 X 1 Y 2 X 2 Y 1 X 1 Y s 1160 1007 m 1 X 1 Y 1 X 1 -1 d 1 X 1 1 d 2 X 1 Y 1 X 1 Y 1 X s 1169 1010 m 2 X 1 Y 1 X 1 -1 d 1 X 1 Y 1 X 1 Y 1 X 1 1 d 1 X -1 Y s 1178 1012 m 1 X 1 Y 2 X 1 Y 2 X 1 Y -2 Y 1 X 1 Y 1 X 1 Y 2 X s 1187 1015 m 1 X 1 Y 1 X -2
 Y 1 Y 2 X 1 Y -2 Y 1 X 1 Y -3 Y 1 X 1 Y 2 X 1 Y s 1195 1014 m 2 X -1 Y 1 Y 2 X 1 Y 3 X 2 Y 2 X s 1204 1017 m 1 Y 1 X 1 Y 2 X 1 Y 1 X 1 1 d 1 1 d 1 X 1 Y 1 X 1 Y 1 X s 1213 1024 m 1 X 1 Y 2 X 1 Y 1 X 1 Y 2 X 1 Y 1 -1 d -1 Y 1 1 d -1 Y 1 Y 1 X s 1222
 1027 m 1 X 1 Y 1 X 1 1 d -1 Y 2 X 1 Y 1 X 1 Y 2 X -1 Y 1 X s 1231 1029 m 1 Y 2 X 1 Y 1 -1 d 1 Y 1 X 1 Y 1 X 1 Y 1 X 1 1 d 1 X 1 Y s 1239 1035 m 3 X 1 Y 1 -1 d 1 X 1 Y 4 X -1 Y s 1248 1035 m 1 -1 d 1 Y 4 X 1 Y 1 X 1 Y 2 X -1 Y 1 Y 1 X -1 Y 1 Y s 1257
 1037 m -4 Y 1 X 1 Y 3 X 1 1 d -1 Y 2 X 1 1 d -1 Y 1 Y 1 X 1 Y s 1266 1036 m 2 X 1 Y 1 X -4 Y 4 X 1 Y -1 Y 1 X 1 Y -1 Y 1 X s 1275 1033 m 2 X -1 Y 1 X 1 Y 1 X 1 -1 d 1 1 d -1 Y 2 X 1 Y s 1283 1033 m 1 X -1 Y 1 1 d 3 X -1 Y 1 1 d 1 X 1 1 d -1 Y 1 X s
 1292 1033 m 1 X 1 Y 1 X -1 Y 1 X 1 Y -1 Y 1 X 1 Y 3 X 1 Y 1 X 1 1 d s 1301 1036 m 1 Y 3 X 1 Y 1 X -1 Y 2 X 1 Y -2 Y 2 X 1 Y 1 1 d s 1310 1038 m 1 X -1 Y 1 Y 5 X 1 Y 3 X s 1319 1039 m 1 Y -1 Y 1 X 1 Y 1 X -1 Y 1 X 1 Y 2 X -1 Y 1 Y 1 X -1 Y 1 X 1 1 d
 s 1327 1040 m 1 X 1 Y 1 X 1 Y 1 -1 d 1 Y 5 X -2 Y 1 Y 1 X -1 Y s 1336 1040 m 1 Y 1 -1 d -1 Y 8 X s 1345 1039 m 1 X 1 2 d 3 X 1 Y 2 X -1 Y 1 -1 d 1 X s 1354 1040 m 3 X 1 Y 3 X -1 Y 1 X 1 Y 1 -1 d 1 Y 1 X s 1363 1041 m 1 X -1 Y 1 X 1 Y 4 X 1 Y 1 -1 d
 1 X s 1371 1041 m 7 X 1 Y 2 X s 1380 1042 m 4 X 1 Y 1 X -2 Y 1 Y 1 X -1 Y 1 X -1 Y 1 Y 1 X 1 Y 1 X s 1389 1042 m -1 Y 1 X 1 Y 1 X -1 Y 1 -1 d 2 X 1 Y 1 -1 d 1 X 1 1 d 1 X s 1398 1041 m 2 Y -2 Y 1 X 1 Y 3 X -1 Y 1 Y 1 X -2 Y 4 X s 1407 1040 m 1 1 d
 -2 Y 1 1 d 1 X -1 Y 1 X -1 Y 1 1 d -2 Y 1 X 2 Y -1 Y 1 Y 1 X -1 Y 1 X s 1415 1038 m 8 X 1 -1 d s 1424 1037 m 2 X -2 Y 1 X 1 Y 1 X -1 Y 1 X -1 Y 1 Y 4 X s 1433 1035 m 1 X 1 -1 d 1 Y -1 Y 1 1 d -1 Y 2 X -2 Y 1 X 1 Y 1 X -2 Y 2 X s 1442 1031 m 1 X -1 Y
 4 X -1 Y 1 X -1 Y 1 -1 d 2 Y -1 Y 1 X -1 Y 1 X s 1451 1027 m 1 X -1 Y 4 X 1 Y 1 X -1 Y 1 X 2 Y 1 X s 1459 1028 m 1 X 1 -1 d -2 Y 2 X -1 Y 2 X -3 Y 1 X -1 Y 1 X 1 Y 1 X 1 Y s 1468 1022 m 1 -1 d 2 X -1 Y 2 X -2 Y 4 X s 1477 1018 m -2 Y 1 -1 d 2 X -1 Y
 1 Y 1 X -1 Y 1 1 d 5 Y 1 X -1 Y 1 X 1 Y -1 Y 1 X -1 Y 1 X s 1486 1018 m 2 X 1 Y 2 X 1 Y 1 1 d -2 Y 1 X -1 Y 1 X 1 Y -1 Y 2 X s 1495 1018 m 1 X -1 Y 1 X -1 Y 1 X -1 Y 1 Y -1 Y 2 X 1 Y 1 -1 d 1 X 1 1 d s 1503 1016 m 1 -2 d 1 X -1 Y 1 X -2 Y 1 X 1 Y 1
 -1 d -1 Y 1 Y 1 X -1 Y 3 X -1 Y s 1512 1009 m 1 X -2 Y 1 X 1 Y -1 Y 1 X -2 Y 1 -1 d 1 X -1 Y 1 X -1 Y 1 -1 d 1 Y 1 -2 d 1 X -1 Y s 1521 999 m 1 X -1 Y 1 X -4 Y 1 X -1 Y 1 X 1 -1 d 1 Y 1 -1 d 2 X -1 Y 1 X 1 Y s 1530 992 m 2 X 1 Y -1 Y 1 X -1 Y 1 X 1
 Y -2 Y 1 X -2 Y 1 X -1 Y 1 X -3 Y 1 X 1 Y 1 X -1 Y s 1539 984 m 2 X -1 Y 1 X -1 Y 2 X -2 Y 1 X 1 -1 d -1 Y 1 -1 d s 1547 977 m 1 -1 d -1 Y 2 X 1 -1 d 1 Y 1 X -3 Y 1 Y 1 X 1 1 d 1 X -2 Y 1 X -1 Y s 1556 971 m 1 X 1 Y -1 Y 1 Y 1 X -1 Y 1 Y -5 Y 4 X -1
 Y 2 X -2 Y 1 X -1 Y s 1565 963 m 1 X -1 Y 1 X -3 Y 1 -1 d -1 Y 1 X -2 Y 1 -1 d 1 1 d 1 -2 d 1 X -2 Y 1 -1 d s 1574 950 m -1 Y 1 Y 1 -1 d -2 Y 1 X -1 Y 1 Y 1 X -1 Y 1 X -2 Y 1 X -1 Y 1 X -1 Y 1 X -1 Y 1 X -1 Y 1 X -3 Y s 1583 937 m 1 -2 d 1 Y -1 Y 1
 -1 d -2 Y 1 Y 1 -1 d -3 Y 1 1 d -3 Y 1 X -1 Y 2 Y 1 X -1 Y 1 X -1 Y 1 X s 1591 926 m 1 X -1 Y 1 -1 d -1 Y 1 X -1 Y 1 X 1 Y 1 X -2 Y 1 X -2 Y 1 -1 d -3 Y 1 -1 d -2 Y 1 X s 1600 912 m 1 X -1 Y 1 X -1 Y 2 X -1 Y 2 Y 1 -1 d -2 Y 1 X -1 Y 1 X -1 Y 1 X -1
 Y 1 1 d -1 Y s 1609 905 m -1 Y 1 -3 d -1 Y 1 X -2 Y 1 X 1 Y 1 X -4 Y 1 -1 d -2 Y 1 X -1 Y 1 X -4 Y 1 X -1 Y 1 -1 d -1 Y s 1618 884 m -1 Y 1 X -1 Y 1 X -1 Y 1 Y -1 Y 1 X 1 Y -1 Y 2 X -2 Y 1 1 d 1 -1 d -2 Y 1 X -1 Y 1 X s 1627 876 m -3 Y 1 X -3 Y 1 X
 -2 Y 1 X 1 Y -2 Y 1 X -1 Y 1 -1 d -1 Y 1 X -1 Y 1 X -1 Y 1 -1 d -2 Y s 1635 859 m 1 X -1 Y 1 -1 d 1 Y -2 Y 1 Y -1 Y 1 X -2 Y 1 -1 d -1 Y 1 X -6 Y 1 X -1 Y 2 Y 1 -1 d -1 Y 1 -2 d -2 Y 1 X -1 Y s 1644 840 m 1 -2 d -2 Y 1 X -1 Y 1 Y -1 Y 1 X -2 Y 1 -1
 d -3 Y 1 -1 d -4 Y 1 X -2 Y 1 -1 d -4 Y 1 X -2 Y 1 -1 d -2 Y s 1653 812 m -1 Y 1 X -1 Y 1 X -3 Y 1 -1 d 1 X -2 Y 1 X -3 Y 1 X 1 -1 d 1 Y -5 Y 1 -1 d -1 Y 1 X -2 Y s 1662 792 m 1 -2 d -2 Y 1 X -1 Y 5 Y 1 X -3 Y 1 X 1 -3 d 1 Y -2 Y 1 X -1 Y 1 -1 d -1
 Y 1 -1 d -2 Y 1 X -2 Y s 1671 777 m -5 Y 1 Y 1 X -1 Y 1 Y 1 X -2 Y 1 X -4 Y 1 -3 d -2 Y 5 Y 1 X -3 Y 1 X -3 Y 1 -1 d -4 Y 1 X -3 Y s 1679 753 m 1 -3 d -3 Y 1 X -2 Y 1 -2 d -1 Y 1 X -4 Y 1 -1 d -2 Y 1 -1 d -3 Y 1 -1 d -3 Y 1 -1 d -3 Y 1 X 1 Y -3 Y s
 1688 721 m -1 Y 1 X -2 Y 1 -1 d -8 Y 1 X -4 Y 1 X -2 Y 1 Y 1 X -3 Y 1 -1 d -1 Y 1 -1 d -5 Y 1 X -3 Y 1 -1 d -1 Y 1 Y s 1697 689 m -1 Y 1 X -2 Y 1 X -4 Y 1 X -1 Y 1 -2 d -1 Y 1 X -2 Y 1 X -2 Y 1 -1 d -2 Y 1 X -3 Y 1 X -1 Y s 1706 667 m -2 Y 1 -2 d -1
 Y 1 X -3 Y 1 -1 d -3 Y 1 X -3 Y 1 X -3 Y 1 -1 d -4 Y 1 X -2 Y 1 X -2 Y 1 X s 1715 640 m -5 Y 1 -1 d -2 Y 1 X -2 Y 1 X -3 Y 1 X -2 Y 1 X -6 Y 1 X -3 Y 1 -3 d -3 Y 1 -2 d -3 Y s 1723 605 m 1 -1 d -2 Y 1 -2 d -2 Y 1 -1 d -3 Y 1 -1 d -1 Y 1 -2 d -1 Y 1
 -2 d -1 Y 1 -1 d -3 Y 1 -1 d -4 Y 1 X 1 Y -1 Y s 1732 577 m 1 X -2 Y 1 X -3 Y 1 -1 d -2 Y 1 X -5 Y 1 X -2 Y 1 X -5 Y 1 X -4 Y 1 -1 d -2 Y 1 1 d -1 Y s 1741 550 m -2 Y 1 -1 d -3 Y 1 -1 d 1 Y -1 Y 1 -1 d -3 Y 1 -1 d -1 Y 1 X -1 Y 1 Y -3 Y 1 X -4 Y 1 X
 -3 Y 1 -1 d -2 Y 1 X -1 Y s 1750 523 m -2 Y 1 X -3 Y 1 Y 1 -1 d -2 Y 1 X -3 Y 1 -1 d -1 Y 1 X -3 Y 1 X -2 Y 1 X -3 Y 1 -1 d -3 Y 1 X -2 Y s 1759 497 m -5 Y 1 X -1 Y 1 -1 d -1 Y 1 X -9 Y 1 X -2 Y 1 -1 d -2 Y 1 -1 d -3 Y 1 X -1 Y 1 -1 d -2 Y s 1767
 467 m 1 -1 d -1 Y 1 X -3 Y 1 X -1 Y 1 X -4 Y 1 X -3 Y 1 -1 d -4 Y 1 X -2 Y 1 -1 d -2 Y 1 X -3 Y s 1776 441 m -1 Y 1 X -2 Y 1 X -2 Y 1 X -1 Y 1 X -6 Y 1 -1 d -2 Y 1 X -2 Y 1 X -1 Y 1 -1 d -3 Y 1 X -1 Y s 1785 418 m -3 Y 1 X -2 Y 1 X -2 Y 1 -1 d -3 Y
 1 X -2 Y 1 1 d -4 Y 1 X -4 Y 1 -2 d -2 Y 1 -1 d 1 X -2 Y s 1794 391 m -2 Y 1 X 1 -1 d -5 Y 1 X -3 Y 1 -1 d -2 Y 1 X -4 Y 1 X -3 Y 1 X -3 Y 1 X -1 Y 1 X -2 Y s 1803 364 m -2 Y 1 X -2 Y 1 -1 d 1 -1 d -3 Y 1 X -2 Y 1 X -5 Y 1 -1 d -1 Y 1 -1 d -1 Y 1 X
 -2 Y 1 -1 d s 1812 341 m -2 Y 1 X -1 Y 1 X -1 Y 1 -1 d -1 Y 1 -1 d -1 Y 1 X -1 Y 1 X -1 Y 1 X -2 Y 1 X -1 Y s 1820 328 m 1 X -1 Y 1 X -1 Y 1 X -1 Y 1 X -1 Y 1 X -1 Y 1 X -1 Y 1 X -1 Y 1 -1 d -1 Y 1 Y 1 X -1 Y 1 Y s 1829 320 m -1 Y 1 X -2 Y 1 X -2 Y
 1 X -1 Y 1 X -4 Y 1 X -1 Y 1 X -1 Y 1 X 1 -1 d -1 Y 1 X -1 Y s 1838 305 m -1 Y 1 X -1 Y 2 X -1 Y 1 -1 d -4 Y 1 X 2 Y -1 Y 1 X 1 Y 1 -1 d 1 X -1 Y 1 X -1 Y s 1847 296 m 2 X -1 Y 1 Y -1 Y 1 X -1 Y 2 X -1 Y 1 -1 d -1 Y 1 -1 d -1 Y 2 X s 1856 289 m -1 Y
 3 X 1 -1 d 2 X -1 Y 1 X 1 -1 d -1 Y s 1864 284 m -1 Y 1 X -1 Y 1 Y 1 -1 d 1 X 1 Y -2 Y 1 X -1 Y 1 X -1 Y 2 X -1 Y 1 X -1 Y 1 X s 1873 277 m 2 X -1 Y 2 X 1 -1 d 1 X -1 Y 1 X -1 Y 2 X -1 Y s 1882 272 m 3 X -1 Y 2 X -1 Y 2 X -1 Y 2 X s 1891 269 m 1 X
 -1 Y 1 X -1 Y 1 X 1 Y -1 Y 6 X s 1900 267 m -1 Y 1 Y 1 X 1 -1 d 3 X 1 -1 d 2 X s 1908 265 m 1 X 1 -2 d 1 -1 d 4 X -1 Y 2 X s 1917 261 m 9 X s 1926 261 m 5 X -1 Y 4 X s 1935 260 m 1 X -1 Y 8 X s 1944 259 m 1 X 1 -1 d 6 X s 1952 258 m 2 X -1 Y 7 X s
 1961 257 m 9 X s 1970 257 m 9 X s 1979 257 m 9 X s 1988 257 m 8 X s 1996 257 m 9 X s 2005 257 m 9 X s 2014 257 m 9 X s 2023 257 m 9 X s 2032 257 m 8 X s 2040 257 m 1 X s black[  ] 0 sd 3 lw 245 202 m 1796 X s 481 242 m -40 Y s 538 222 m -20 Y s 594
 222 m -20 Y s 651 222 m -20 Y s 707 222 m -20 Y s 764 242 m -40 Y s 821 222 m -20 Y s 877 222 m -20 Y s 934 222 m -20 Y s 991 222 m -20 Y s 1047 242 m -40 Y s 1104 222 m -20 Y s 1160 222 m -20 Y s 1217 222 m -20 Y s 1274 222 m -20 Y s 1330 242 m -40
 Y s 1387 222 m -20 Y s 1444 222 m -20 Y s 1500 222 m -20 Y s 1557 222 m -20 Y s 1614 242 m -40 Y s 1670 222 m -20 Y s 1727 222 m -20 Y s 1783 222 m -20 Y s 1840 222 m -20 Y s 1897 242 m -40 Y s 481 242 m -40 Y s 424 222 m -20 Y s 368 222 m -20 Y s
 311 222 m -20 Y s 254 222 m -20 Y s 1897 242 m -40 Y s 1953 222 m -20 Y s 2010 222 m -20 Y s
 gsave  2268 1684 0 0 C 447.476 128.934 t 0 r /Helvetica-Bold findfont 64.4669 sf 0 0 m (0.3) show NC gr 
 gsave  2268 1684 0 0 C 417.138 128.934 t 0 r /Symbol findfont 64.4669 sf 0 0 m (-) show NC gr 
 gsave  2268 1684 0 0 C 731.888 128.934 t 0 r /Helvetica-Bold findfont 64.4669 sf 0 0 m (0.2) show NC gr 
 gsave  2268 1684 0 0 C 701.551 128.934 t 0 r /Symbol findfont 64.4669 sf 0 0 m (-) show NC gr 
 gsave  2268 1684 0 0 C 1020.09 128.934 t 0 r /Helvetica-Bold findfont 64.4669 sf 0 0 m (0.1) show NC gr 
 gsave  2268 1684 0 0 C 989.756 128.934 t 0 r /Symbol findfont 64.4669 sf 0 0 m (-) show NC gr 
 gsave  2268 1684 0 0 C 1308.3 128.934 t 0 r /Helvetica-Bold findfont 64.4669 sf 0 0 m (0) show NC gr 
 gsave  2268 1684 0 0 C 1569.96 128.934 t 0 r /Helvetica-Bold findfont 64.4669 sf 0 0 m (0.1) show NC gr 
 gsave  2268 1684 0 0 C 1850.58 128.934 t 0 r /Helvetica-Bold findfont 64.4669 sf 0 0 m (0.2) show NC gr 
 gsave  2268 1684 0 0 C 913.913 30.3373 t 0 r /Helvetica-Bold findfont 72.0512 sf 0 0 m (Cut value applied on BDT output) show NC gr  245 202 m 1145 Y s 291 257 m -46 X s 268 306 m -23 X s 268 356 m -23 X s 268 405 m -23 X s 291 455 m -46 X s 268 504
 m -23 X s 268 554 m -23 X s 268 604 m -23 X s 291 653 m -46 X s 268 703 m -23 X s 268 752 m -23 X s 268 802 m -23 X s 291 851 m -46 X s 268 901 m -23 X s 268 950 m -23 X s 268 1000 m -23 X s 291 1050 m -46 X s 268 1099 m -23 X s 268 1149 m -23 X s
 268 1198 m -23 X s 291 1248 m -46 X s 291 257 m -46 X s 268 207 m -23 X s 291 1248 m -46 X s 268 1297 m -23 X s
 gsave  2268 1684 0 0 C 182.024 231.322 t 0 r /Helvetica-Bold findfont 64.4669 sf 0 0 m (0) show NC gr 
 gsave  2268 1684 0 0 C 128.934 428.515 t 0 r /Helvetica-Bold findfont 64.4669 sf 0 0 m (0.2) show NC gr 
 gsave  2268 1684 0 0 C 128.934 629.5 t 0 r /Helvetica-Bold findfont 64.4669 sf 0 0 m (0.4) show NC gr 
 gsave  2268 1684 0 0 C 128.934 826.693 t 0 r /Helvetica-Bold findfont 64.4669 sf 0 0 m (0.6) show NC gr 
 gsave  2268 1684 0 0 C 128.934 1023.89 t 0 r /Helvetica-Bold findfont 64.4669 sf 0 0 m (0.8) show NC gr 
 gsave  2268 1684 0 0 C 189.608 1224.87 t 0 r /Helvetica-Bold findfont 64.4669 sf 0 0 m (1) show NC gr 
 gsave  2268 1684 0 0 C 64.4669 735.681 t 90 r /Helvetica-Bold findfont 72.0512 sf 0 0 m (Efficiency \(Purity\)) show NC gr  0 0 0.933333 c[  52 12 ] 0 sd 6 lw 0.49 0.6 0.82 c black 0 0 0.933333 c 245 752 m 9 X s 254 752 m 9 X s 263 752 m 8 X s 271
 752 m 9 X s 280 752 m 9 X s 289 752 m 9 X s 298 752 m 9 X s 307 752 m 8 X s 315 752 m 9 X s 324 752 m 9 X s 333 752 m 9 X s 342 752 m 9 X s 351 752 m 8 X s 359 752 m 9 X s 368 752 m 8 X 1 Y 1 X s 377 753 m 9 X s 386 753 m 9 X s 395 753 m 8 X s 403
 753 m 9 X s 412 753 m 9 X s 421 753 m 9 X s 430 753 m 6 X 1 Y 3 X s 439 754 m 8 X s 447 754 m 9 X s 456 754 m 9 X s 465 754 m 2 X 1 Y 7 X s 474 755 m 9 X s 483 755 m 1 X 1 1 d 6 X s 491 756 m 9 X s 500 756 m 2 X 1 Y 7 X s 509 757 m 4 X 1 Y 5 X s 518
 758 m 6 X 1 Y 3 X s 527 759 m 5 X 1 Y 3 X s 535 760 m 4 X 1 Y 5 X s 544 761 m 7 X 1 Y 2 X s 553 762 m 3 X 1 Y 6 X s 562 763 m 1 X 1 Y 8 X s 571 764 m 1 Y 8 X s 579 765 m 1 X 1 Y 5 X 1 1 d 2 X s 588 767 m 6 X 1 Y 3 X s 597 768 m 3 X 1 Y 6 X s 606 769
 m 1 X 1 Y 4 X 1 Y 4 X s 615 771 m 1 X 1 Y 4 X 1 Y 3 X s 623 773 m 1 X 1 Y 5 X 1 Y 3 X s 632 775 m 1 X 1 1 d 5 X 1 Y 2 X s 641 777 m 1 X 1 Y 3 X 1 Y 5 X s 650 779 m 1 X 1 Y 4 X 1 Y 4 X s 659 781 m 1 Y 4 X 1 Y 4 X s 667 783 m 1 X 1 Y 3 X 1 Y 5 X 1 Y s
 676 786 m 3 X 1 1 d 2 X 1 1 d 2 X s 685 788 m 1 X 1 Y 4 X 1 Y 2 X 1 Y 2 X s 694 791 m 1 X 1 Y 4 X 1 Y 1 X -1 Y 1 Y 3 X s 703 793 m 1 X 1 Y 3 X 1 Y 3 X 1 Y 1 X s 711 796 m 3 X 1 Y 2 X 1 Y 3 X 1 Y 1 X s 720 799 m 1 X 1 Y 2 X 1 Y 2 X 1 Y 2 X 1 Y 2 X s
 729 803 m 1 Y 3 X 1 Y 3 X 1 Y 2 X 1 1 d s 738 807 m 2 X 1 Y 4 X 1 Y 2 X 1 1 d s 747 810 m 3 X 1 Y 2 X 1 Y 3 X 1 Y s 755 813 m 2 X 1 1 d 3 X 1 Y 2 X 1 Y 1 X s 764 816 m 3 X 1 Y 2 X 1 Y 3 X 1 Y 1 X s 773 819 m 1 X 1 Y 1 X 1 1 d 2 X 1 Y 1 X 1 Y 3 X s
 782 823 m 1 X 1 Y 2 X 1 Y 3 X 1 Y 3 X s 791 826 m 1 Y 2 X 1 Y 2 X 1 Y 3 X 1 Y 1 X s 799 830 m 1 X 1 Y 1 X 1 Y 3 X 1 Y 1 1 d 2 X 1 Y 1 X s 808 835 m 1 X 1 Y 3 X 1 Y 3 X 1 Y 2 X s 817 838 m 1 X 1 Y 2 X 1 Y 3 X 1 Y 2 X 1 Y 1 X s 826 842 m 2 X 1 Y 2 X 1
 Y 2 X 1 Y 1 X 1 1 d 1 X s 835 846 m 1 X 1 Y 2 X 1 Y 2 X 1 Y 2 X 1 Y 1 X s 843 850 m 1 X 1 Y 3 X 1 Y 1 X 1 Y 2 X 1 Y 2 X s 852 854 m 1 Y 2 X 1 Y 3 X 1 Y 2 X 2 Y 2 X 1 Y s 861 860 m 2 X 1 Y 2 X 1 Y 2 X 1 Y 3 X s 870 863 m 1 Y 3 X 1 Y 2 X 1 Y 1 X 1 Y 2
 X 1 Y 1 X s 879 868 m 1 Y 2 X 1 1 d 2 X 1 Y 1 X 1 Y 2 X 1 Y s 887 873 m 1 X 1 1 d 1 X 1 Y 3 X 1 Y 2 X 1 Y 1 X 1 Y s 896 878 m 1 X 1 1 d 1 X 1 Y 1 X 1 1 d 2 X 1 Y 2 X 1 Y s 905 883 m 1 X 1 Y 2 X 1 Y 1 X 1 1 d 1 X 1 Y 2 X 1 1 d s 914 888 m 1 X 1 Y 2 X
 1 Y 1 X -1 Y 1 1 d 1 X 1 Y 3 X s 923 891 m 1 Y 1 X -1 Y 1 Y 1 X 1 Y 2 X 1 1 d 2 X 1 Y 1 X s 931 895 m 1 X 1 Y 3 X 1 Y 2 X 1 Y 2 X 1 Y 1 X s 940 899 m 2 X 1 Y 1 X 1 Y 2 X 1 Y 2 X 1 Y 2 X 1 Y s 949 904 m 2 X 1 Y 2 X 1 Y 1 X 1 Y 2 X 1 Y 2 X 1 Y s 958
 909 m 2 X 1 Y 2 X 1 Y 1 X 1 Y 1 X 1 Y 2 X 1 Y 1 X s 967 914 m 3 X 1 Y 2 X 1 Y 1 X 1 Y 1 X 1 Y 1 -1 d 2 Y s 975 919 m 1 X 1 1 d 2 X 1 1 d 1 Y 1 X 1 Y 2 X 1 1 d s 984 924 m 1 X 1 Y 2 X 1 Y 2 X 1 Y 1 X 1 Y 1 X 1 Y 1 X 1 Y 1 X s 993 930 m 1 X 1 Y 1 X 1
 Y 2 X 1 Y 1 X 1 1 d 1 X 1 Y 1 X 1 1 d s 1002 936 m 1 X 1 Y 2 X 1 Y 1 X 1 Y 1 X 1 1 d 2 X 1 Y 1 X s 1011 941 m 1 X 1 Y 2 X 1 Y 1 X 1 Y 1 X 1 Y 2 X 1 1 d s 1019 946 m 1 X 1 Y 1 X 1 1 d 1 X 1 Y 1 X 1 Y 2 X 1 Y 2 X s 1028 951 m 1 X 1 Y 1 X 1 Y 1 X 1 Y 2
 X 1 Y 2 X 1 1 d 1 X 1 Y s 1037 957 m 1 X 1 Y 1 X 1 Y 1 X 1 Y 2 X 1 Y 1 X 1 Y 1 X 1 Y 2 X s 1046 963 m 1 1 d 2 X 1 Y 1 X 1 Y 2 X 1 Y 1 X 1 1 d 1 X s 1055 968 m 1 Y 2 X 1 Y 2 X 1 Y 2 X 1 Y 2 X 1 Y s 1063 973 m 1 X 1 Y 1 X 1 Y 2 X 1 Y 1 X 1 Y 2 X 1 Y 2
 X 1 Y s 1072 979 m 1 X 1 Y 2 X 1 Y 3 X 1 1 d 1 X 1 Y 1 X s 1081 983 m 1 1 d 2 X 1 Y 2 X 1 1 d 1 X 1 Y 2 X s 1090 987 m 1 Y 2 X 1 Y 1 X 1 Y 2 X 2 Y 1 X 1 Y 1 X 1 Y 1 X 1 Y 1 X s 1099 995 m 2 X 1 Y 1 X 1 Y 1 X 1 Y 2 X 1 Y 1 X 1 Y 1 X 1 Y s 1107 1001 m
 2 X 1 Y 1 X 1 Y 1 X 1 Y 1 X 1 1 d 1 X 1 1 d 1 1 d s 1116 1007 m 1 1 d 1 X 1 Y 2 X 1 Y 2 X 1 Y 1 X 1 Y 2 X s 1125 1012 m 1 Y 1 1 d 1 X 1 1 d 2 X 1 Y 1 X 1 Y 2 X 2 Y 1 X -1 Y s 1134 1018 m 1 Y 1 X 1 Y 2 X 2 Y 2 X 1 Y 2 X 1 Y 1 X 1 Y 1 X s 1143 1025 m
 1 X 1 Y 1 1 d 1 X 1 Y 1 X 1 Y 1 X 1 Y 1 -1 d 1 Y 2 X 1 Y s 1151 1031 m 2 X 1 Y 1 X 1 Y 1 X 1 1 d 1 X 1 Y 1 X 1 Y 2 X 1 Y s 1160 1037 m 1 X 1 Y 2 X 1 Y 2 X 1 Y 2 X 1 Y 1 X 1 Y 1 X s 1169 1042 m 1 X 1 Y 2 X 1 Y 2 X 1 1 d 1 Y 1 X 1 1 d 1 X s 1178 1047
 m 1 X 1 Y 1 X 1 Y 2 X 1 Y 2 X 1 Y 1 X 1 Y 2 X s 1187 1052 m 1 X 1 Y 2 X 1 1 d 1 X 1 Y -1 Y 1 X 1 Y 2 X 1 Y s 1195 1056 m 1 1 d 2 X 1 Y 1 X 1 1 d -1 Y 1 Y 2 X 2 Y 1 X 1 Y 1 X s 1204 1062 m 1 X 1 Y 1 1 d 1 X 1 Y 1 X 1 1 d 1 Y 2 X 1 Y 1 X 1 Y 1 X s
 1213 1069 m 1 X 1 1 d 2 X 1 Y 1 X 1 1 d 1 X 1 Y 1 X 1 1 d s 1222 1074 m 1 X 1 Y 1 X 1 Y 3 X 1 Y 1 X 1 1 d 1 X 1 Y 1 X s 1231 1079 m 1 X 1 1 d 1 X 1 Y 1 X 1 Y 1 X 1 Y 1 X 1 1 d 1 X 1 Y s 1239 1085 m 2 X 1 Y 3 X 1 Y 2 X 1 Y 2 X s 1248 1088 m 1 X 1 1 d
 2 X 1 Y 1 X 1 Y 2 X 1 1 d 1 X s 1257 1092 m 1 X 1 Y 2 X 1 Y 3 X 1 Y 2 X 1 Y 1 X s 1266 1096 m 1 X 1 1 d 2 X 1 1 d 1 X 1 Y 3 X s 1275 1099 m 1 Y 3 X 1 Y 1 X 1 Y 3 X 1 Y 1 X 1 Y s 1283 1104 m 2 X 1 Y 3 X 1 1 d 1 X 1 1 d -1 Y 1 Y 1 X s 1292 1107 m 1 X
 1 Y 1 X 1 Y 3 X 1 Y 3 X 1 Y 1 X s 1301 1111 m 1 Y 2 X 1 Y 1 X 1 Y 5 X 1 Y 1 X s 1310 1115 m 1 Y 3 X 1 Y 3 X 1 Y 3 X s 1319 1118 m 1 Y 1 X 1 Y 3 X 1 Y 3 X 1 Y 1 1 d s 1327 1123 m 3 X 1 Y 4 X 1 Y 2 X 1 Y s 1336 1126 m 2 X 1 Y 3 X 1 Y 4 X 1 Y s 1345
 1129 m 1 X 1 2 d 3 X 2 Y 4 X s 1354 1133 m 1 X 1 Y 3 X 1 Y 4 X 1 Y 1 X s 1363 1136 m 3 X 1 Y 5 X 1 Y s 1371 1138 m 5 X 1 Y 2 X 1 Y 2 X s 1380 1140 m 2 X 1 1 d 2 X 1 Y 1 X -1 Y 1 X 1 Y 2 X s 1389 1142 m 1 Y 4 X 1 1 d 3 X 1 1 d s 1398 1145 m 1 X 1 Y 3
 X 1 1 d -1 Y 1 X 1 Y -1 Y 1 X 1 Y 2 X s 1407 1147 m 1 1 d 4 X 1 Y -1 Y 1 1 d 2 X s 1415 1149 m 1 1 d 4 X 1 Y 3 X 1 Y 1 X s 1424 1152 m 2 X 1 Y -1 Y 1 1 d 1 X 1 1 d -1 Y 1 Y 2 X 1 Y 2 X s 1433 1155 m 2 X 1 Y -1 Y 1 Y 4 X 1 Y 1 X -1 Y 1 X 1 1 d s 1442
 1157 m 9 X s 1451 1157 m 1 Y 1 X -1 Y 1 Y 6 X 1 Y 1 X s 1459 1159 m 6 X 1 Y 2 X 1 1 d 1 Y s 1468 1162 m 3 X 1 1 d 5 X s 1477 1163 m 3 X 1 Y 2 X 1 Y 4 X s 1486 1165 m 2 X 1 Y 1 X 1 Y 2 X 1 Y -1 Y 1 Y 1 X -1 Y 1 Y 3 X s 1495 1168 m 3 X 1 Y 5 X s 1503
 1169 m 2 X 1 Y 3 X 1 Y 4 X s 1512 1171 m 1 X -1 Y 1 X 1 Y 5 X 1 Y 1 -1 d 1 X s 1521 1171 m 7 X 1 Y 2 X s 1530 1172 m 1 Y 7 X 1 Y -1 Y 1 1 d 1 X s 1539 1174 m 1 Y 8 X s 1547 1175 m 6 X 1 Y 1 X 1 Y 2 X s 1556 1177 m 1 X 1 Y 1 X 1 Y -1 Y 1 X 1 Y 2 X 1
 1 d -1 Y 1 Y 3 X s 1565 1180 m 2 X 1 Y 4 X 1 Y 3 X s 1574 1182 m 7 X 1 1 d 1 X s 1583 1183 m -1 Y 1 X 1 Y 2 X 1 1 d -1 Y 1 X 1 Y 3 X s 1591 1184 m 4 X 1 Y 1 X -1 Y 1 1 d 1 X -1 Y 2 X s 1600 1184 m 2 X 1 Y 5 X 1 Y 1 X -1 Y 1 Y 1 X s 1609 1186 m 7 X
 -1 Y 1 X 1 Y -1 Y 1 X s 1618 1185 m 3 X 1 Y 6 X s 1627 1186 m 1 X 1 Y 2 X 1 Y 5 X 1 Y s 1635 1189 m 5 X -1 Y 1 X 1 Y 3 X s 1644 1189 m 7 X -1 Y 1 1 d -1 Y 1 Y 1 X -1 Y 1 Y s 1653 1189 m 4 X 1 1 d 4 X s 1662 1190 m 2 X 1 Y 1 X 1 Y -1 Y 1 X 1 Y 1 X 1
 Y 4 X s 1671 1193 m 1 X 1 Y 2 X -1 Y 5 X s 1679 1193 m 1 1 d -1 Y 1 X 1 Y -1 Y 1 Y 1 -1 d 1 Y 1 X -1 Y 5 X 1 Y -1 Y s 1688 1193 m 1 X 1 Y 1 X 1 Y -1 Y 1 X 1 1 d -1 Y 1 Y 1 X -1 Y 2 X 1 Y -1 Y 1 Y 1 X -1 Y 1 Y -1 Y 1 1 d s 1697 1195 m 5 X 1 1 d 3 X s
 1706 1196 m 1 X 1 Y 1 X 1 -1 d 1 Y 1 X 1 1 d 1 -1 d 3 X s 1715 1197 m 6 X -1 Y 1 X 1 -1 d 1 Y s 1723 1196 m 1 X 1 -1 d 1 Y 1 -1 d 1 Y -1 Y 1 X 1 Y 1 -1 d 1 Y 1 -1 d 3 X 1 Y s 1732 1196 m 1 X -1 Y 1 Y 1 1 d 2 X 1 Y -1 Y 4 X -1 Y 1 X 1 Y s 1741 1197 m
 -1 Y 1 X 1 Y -1 Y 1 X 1 Y 2 X 2 Y 1 X 1 Y -1 Y 2 X -1 Y 1 X 1 1 d s 1750 1199 m -1 Y 1 2 d 5 X 1 1 d -1 Y 1 Y -1 Y 2 X -1 Y s 1759 1199 m 1 X 1 Y 1 X 1 Y 1 X -2 Y 1 Y 1 X -1 Y 2 Y 1 X -1 Y 1 X 1 -1 d 1 Y -1 Y 1 X s 1767 1199 m 2 X 2 Y -1 Y 1 X 1 Y 2
 X 1 -1 d 1 X -1 Y 1 X 2 Y 1 X s 1776 1201 m 1 X 1 Y -1 Y 1 X 1 Y 2 X -1 Y 1 -1 d 1 Y 1 X 1 Y -1 Y 2 X 1 Y -1 Y 1 1 d s 1785 1202 m -1 Y 1 X -1 Y 3 X 1 Y 2 X -1 Y 1 -1 d 1 Y -1 Y 1 Y 1 -1 d 1 X s 1794 1199 m 2 X -1 Y 1 X -1 Y 1 X -1 Y 1 X -1 Y 1 X -1
 Y 1 X 1 -1 d 1 Y -1 Y 1 X s 1803 1193 m -1 Y 1 Y -1 Y 1 X -1 Y 2 X -1 Y 1 X -1 Y 1 X -2 Y 1 -1 d -1 Y 1 1 d -1 Y 1 Y -1 Y 2 X s 1812 1185 m 1 X -1 Y 1 1 d 1 -1 d 1 -1 d -1 Y 1 X 1 Y -1 Y 1 Y 1 X -1 Y 1 Y 1 -1 d -1 Y 1 X s 1820 1181 m 1 X -1 Y 2 Y 1
 X -1 Y 1 Y 1 -1 d 10 Y -1 Y 3 X 1 Y -1 Y 1 X -1 Y 1 X -1 Y 2 Y 1 X 1 Y s 1829 1191 m 1 Y 1 -1 d -1 Y 1 X -2 Y 1 X 1 Y -1 Y 1 X -3 Y 1 X -1 Y 1 X -1 Y 1 4 d -1 Y 1 -1 d -1 Y 1 X s 1838 1184 m -1 Y 2 Y 1 X -1 Y 1 X 3 Y -1 Y 1 Y 1 -1 d -1 Y 1 -1 d -2 Y
 1 X -1 Y 3 Y 1 X -1 Y 1 Y 1 X -1 Y 1 X -1 Y 1 X -1 Y s 1847 1181 m 1 X -1 Y 1 X -1 Y 2 X -1 Y 1 X -1 Y 1 -1 d -2 Y 1 -1 d -1 Y 1 Y 1 -1 d 1 X s 1856 1172 m -2 Y 1 X 1 Y 1 X -1 Y 1 1 d 1 -2 d 1 1 d -1 Y 1 X -2 Y 1 X 1 Y 1 -1 d -2 Y s 1864 1165 m -4 Y
 1 1 d 11 Y -3 Y 26 Y 1 X 1 Y 1 X 4 Y -2 Y 1 X -1 Y 1 X -2 Y 1 X -2 Y 1 X 3 Y 1 X -2 Y 1 Y 1 -1 d s 1873 1195 m 1 -1 d 5 Y 1 X -1 Y 1 1 d -2 Y 1 1 d -1 Y 1 -1 d 3 Y 1 -1 d -1 Y 1 -1 d -3 Y 1 1 d -1 Y 1 -1 d s 1882 1192 m -1 Y 2 X -1 Y 1 X -1 Y 1 X -1
 Y 1 X -3 Y 1 -1 d -1 Y 1 X -3 Y 1 X -1 Y 1 X -2 Y s 1891 1177 m 1 X 7 Y -2 Y 1 X -4 Y 1 X -1 Y 1 X -2 Y 17 Y 1 X -1 Y 1 X -1 Y 2 X 5 Y 1 -1 d s 1900 1194 m 2 Y -1 Y 1 Y 1 -1 d 1 -1 d 1 -1 d -1 Y 1 Y 1 -1 d 1 X 1 -4 d 1 Y -2 Y 1 3 d -1 Y 1 -1 d 1 Y s
 1908 1189 m 1 X 1 -15 d -5 Y 1 X -1 Y 1 X 1 -4 d 2 Y -1 Y 1 Y 1 -7 d 1 Y 1 X -6 Y 1 X -4 Y 1 X s 1917 1150 m -5 Y 1 -1 d 1 -1 d -1 Y 1 X 72 Y 2 X -1 Y 8 Y 2 X 6 Y 2 X s 1926 1227 m 3 X -1 Y 2 X -2 Y 1 X -1 Y 1 X -1 Y 1 X -1 Y 1 -1 d s 1935 1220 m -1
 Y 1 X -3 Y 1 Y 2 X -1 Y 1 X 1 -1 d 1 Y 1 X -2 Y 1 X -2 Y 1 1 d 1 X s 1944 1213 m 1 X -8 Y 1 -2 d -1 Y 1 X -4 Y 1 X -1 Y 1 X -16 Y 2 X -5 Y 1 X s 1952 1176 m 1 X -3 Y 1 X -60 Y 1 X -2 Y 1 X 7 Y 2 X -12 Y 1 X -2 Y 2 X 70 Y s 1961 1174 m 2 X -4 Y 1 X 1
 -1 d 1 -2 d 33 Y 2 X -4 Y 1 X 52 Y 1 X s 1970 1248 m 9 X s 1979 1248 m 3 X -1 Y 6 X s 1988 1247 m 8 X s 1996 1247 m 1 X -8 Y 1 Y 4 X 1 1 d 1 X 9 Y 2 X s 2005 1250 m 6 X -4 Y 3 X s 2014 1246 m 5 X -4 Y 1 X 12 Y 1 X 1 -3 d 1 X s 2023 1251 m 3 X -994 Y
 6 X s 2032 257 m 8 X s 2040 257 m 1 X s[  ] 0 sd 9 lw 0.49 0.6 0.82 c black 0 0 0.933333 c 245 1248 m 9 X s 254 1248 m 9 X s 263 1248 m 8 X s 271 1248 m 9 X s 280 1248 m 9 X s 289 1248 m 9 X s 298 1248 m 9 X s 307 1248 m 8 X s 315 1248 m 9 X s 324
 1248 m 9 X s 333 1248 m 9 X s 342 1248 m 9 X s 351 1248 m 8 X s 359 1248 m 9 X s 368 1248 m 9 X s 377 1248 m 9 X s 386 1248 m 9 X s 395 1248 m 8 X s 403 1248 m 9 X s 412 1248 m 9 X s 421 1248 m 9 X s 430 1248 m 9 X s 439 1248 m 8 X s 447 1248 m 9 X
 s 456 1248 m 9 X s 465 1248 m 9 X s 474 1248 m 9 X s 483 1248 m 8 X s 491 1248 m 9 X s 500 1248 m 9 X s 509 1248 m 9 X s 518 1248 m 9 X s 527 1248 m 8 X s 535 1248 m 9 X s 544 1248 m 9 X s 553 1248 m 9 X s 562 1248 m 9 X s 571 1248 m 8 X s 579 1248
 m 9 X s 588 1248 m 9 X s 597 1248 m 9 X s 606 1248 m 9 X s 615 1248 m 8 X s 623 1248 m 9 X s 632 1248 m 9 X s 641 1248 m 9 X s 650 1248 m 9 X s 659 1248 m 1 X 1 -1 d 6 X s 667 1247 m 9 X s 676 1247 m 9 X s 685 1247 m 9 X s 694 1247 m 6 X -1 Y 3 X s
 703 1246 m 8 X s 711 1246 m 9 X s 720 1246 m 9 X s 729 1246 m 9 X s 738 1246 m 9 X s 747 1246 m 8 X s 755 1246 m 4 X -1 Y 5 X s 764 1245 m 9 X s 773 1245 m 9 X s 782 1245 m 9 X s 791 1245 m 2 X 1 Y 6 X s 799 1246 m 9 X s 808 1246 m 8 X -1 Y 1 X s
 817 1245 m 9 X s 826 1245 m 9 X s 835 1245 m 8 X s 843 1245 m 9 X s 852 1245 m 9 X s 861 1245 m 8 X -2 Y 1 X s 870 1243 m 2 X 1 -1 d 6 X s 879 1242 m 8 X s 887 1242 m 1 X 1 Y 8 X s 896 1243 m 9 X s 905 1243 m 9 X s 914 1243 m 3 X -1 Y 1 X -1 Y 3 X
 -1 Y 2 X s 923 1240 m 1 X -2 Y 7 X s 931 1238 m 9 X -1 Y s 940 1237 m -1 Y 9 X s 949 1236 m 2 X -1 Y 1 X -1 Y 6 X s 958 1234 m 8 X -1 Y 1 X s 967 1233 m 8 X s 975 1233 m 8 X -1 Y 1 X s 984 1232 m 8 X -1 Y 1 X s 993 1231 m 3 X -1 Y 6 X s 1002 1230 m
 6 X -1 Y 3 X s 1011 1229 m -1 Y 8 X s 1019 1228 m 4 X -1 Y 1 X -1 Y 4 X s 1028 1226 m 6 X -1 Y 3 X s 1037 1225 m 1 X -1 Y 8 X s 1046 1224 m -1 Y 9 X s 1055 1223 m 4 X 1 -1 d -1 Y 3 X s 1063 1221 m 1 X 1 -1 d 1 X -1 Y 4 X -1 Y 1 X -1 Y 1 X s 1072
 1217 m 9 X s 1081 1217 m 8 X -2 Y 1 X s 1090 1215 m 1 X -1 Y 8 X s 1099 1214 m -1 Y 8 X s 1107 1213 m 9 X 1 Y s 1116 1214 m 1 X -1 Y 8 X s 1125 1213 m 5 X 1 -1 d 3 X s 1134 1212 m -1 Y 5 X -1 Y 2 X 1 Y 2 X s 1143 1211 m 3 X 1 -1 d 1 X 1 -1 d 2 X s
 1151 1209 m 3 X -1 Y 5 X 2 Y 1 X s 1160 1210 m 2 X -1 Y 1 -1 d 6 X s 1169 1208 m -1 Y 3 X -1 Y 1 X -1 Y 5 X -1 Y s 1178 1204 m 5 X -2 Y 4 X s 1187 1202 m 2 X -2 Y 2 X -2 Y 1 X -3 Y 3 X s 1195 1195 m 2 X -1 Y 4 X 1 -1 d 2 X s 1204 1193 m 9 X s 1213
 1193 m 3 X 1 Y 3 X -1 Y 1 -1 d 1 X -1 Y 1 X s 1222 1191 m 3 X -1 Y 5 X -2 Y 1 X s 1231 1188 m 8 X s 1239 1188 m 3 X 1 -1 d -1 Y 5 X -1 Y s 1248 1185 m 1 -1 d 2 X -1 Y 5 X -1 Y 1 X s 1257 1182 m -4 Y 5 X -2 Y 3 X 1 Y 1 X s 1266 1177 m 2 X -1 Y 1 X -4
 Y 2 X -1 Y 3 X -1 Y 1 X s 1275 1170 m 1 -1 d 1 X -1 Y 2 X 1 -2 d 1 X -1 Y 2 X s 1283 1165 m 1 X -1 Y 2 X -1 Y 5 X -1 Y 1 X s 1292 1162 m 2 X -2 Y 7 X 1 Y s 1301 1161 m 3 X -1 Y 1 X -1 Y 2 X -1 Y 3 X s 1310 1158 m 1 X -1 Y 8 X s 1319 1157 m -1 Y 2 X
 -1 Y 3 X -1 Y 1 X -1 Y 2 X s 1327 1153 m 1 X 1 Y 6 X -1 Y 1 X -2 Y 1 X s 1336 1151 m 1 -1 d -1 Y 1 X -1 Y 2 X -1 Y 2 X -1 Y 3 X s 1345 1146 m 7 X -2 Y 1 -1 d 1 X s 1354 1143 m -1 Y 5 X -1 Y 1 Y 1 X -1 Y 3 X s 1363 1141 m 1 X -1 Y 5 X 1 -1 d 1 X s
 1371 1139 m 3 X -1 Y 1 Y 1 -1 d 5 X s 1380 1138 m 4 X -1 Y 1 X -1 Y 1 X -1 Y 1 X -1 Y 1 Y 2 X s 1389 1135 m 2 X -1 Y 1 -1 d 2 X 1 -1 d 3 X s 1398 1132 m 2 Y -1 Y 1 X -1 Y 3 X -1 Y 1 Y 1 X -2 Y 1 X -1 Y 3 X s 1407 1129 m 1 X -2 Y 2 X -1 Y 2 X -2 Y 1
 X 2 Y -1 Y 1 Y 1 X -1 Y 1 X -1 Y s 1415 1124 m 2 X -1 Y 5 X -1 Y 1 X 1 -1 d s 1424 1121 m 1 X -1 Y 1 X -2 Y 2 X -1 Y 1 X -1 Y 4 X s 1433 1116 m 1 X -1 Y 1 -1 d 1 1 d -1 Y 1 X -1 Y 1 X -1 Y 1 X -1 Y 1 X -1 Y 2 X s 1442 1110 m -1 Y 1 X 1 -1 d 3 X -1 Y
 1 X -1 Y 1 -1 d 2 Y -1 Y 1 X -2 Y 1 X s 1451 1104 m 1 X -1 Y 6 X 1 Y 1 X s 1459 1104 m 1 X -1 Y 1 X -2 Y 1 -1 d 1 X -1 Y 2 X -3 Y 1 -1 d 1 X 1 -1 d 1 Y s 1468 1095 m 1 -1 d 1 X -1 Y 1 X -1 Y 2 X -2 Y 3 X 1 -1 d s 1477 1089 m -2 Y 1 -1 d 1 X -1 Y 3 X
 5 Y 1 X -1 Y 2 X -1 Y 1 X -1 Y s 1486 1087 m 1 X 1 Y 1 -1 d 2 X 1 2 d -2 Y 1 X -1 Y 1 X -1 Y 2 X s 1495 1085 m -1 Y 2 X -2 Y 1 X -1 Y 1 Y -1 Y 2 X -1 Y 1 Y 3 X s 1503 1081 m 1 -2 d 1 X -1 Y 1 X -2 Y 1 X 1 -2 d 2 X -1 Y 2 X -1 Y 1 Y s 1512 1073 m -1
 Y 1 X -1 Y 1 X -1 Y 1 X -2 Y 1 -2 d 1 Y -1 Y 1 X 1 -1 d -1 Y 1 X 1 -1 d -1 Y 1 X -1 Y s 1521 1061 m 1 X -1 Y 1 X -4 Y 1 X -1 Y 1 X -1 Y 1 X 1 Y 1 -1 d -1 Y 1 X -1 Y 2 X s 1530 1052 m 2 X 1 Y 1 -1 d -1 Y 1 X -1 Y 1 X -2 Y 1 -1 d -1 Y 1 X -3 Y 2 X -1
 Y s 1539 1042 m 1 Y 1 X -1 Y 1 X -1 Y 1 X -1 Y 1 X 1 -1 d -2 Y 1 X 1 -1 d -1 Y 1 -1 d s 1547 1034 m 1 X -2 Y 2 X 1 -1 d 1 Y -1 Y 1 X -2 Y 2 X 1 Y -1 Y 1 X -2 Y 1 X s 1556 1027 m 1 X -1 Y 1 X -1 Y 1 Y -5 Y 1 X -1 Y 3 X -1 Y 1 -1 d 1 X -2 Y 1 X -1 Y s
 1565 1015 m 1 -1 d 1 X -4 Y 1 -1 d -2 Y 1 X -2 Y 1 -1 d 1 1 d 1 -3 d 1 X -1 Y 1 -1 d -1 Y s 1574 999 m 1 -1 d -2 Y 2 X -1 Y 1 X -2 Y 1 X -2 Y 2 X -1 Y 1 -1 d -1 Y 1 X -3 Y s 1583 985 m 1 -2 d -1 Y 1 X -2 Y 1 -1 d -3 Y 1 X -3 Y 1 X 1 Y 1 X -1 Y 1 X
 -1 Y 1 X s 1591 972 m 1 X -1 Y 1 -1 d -1 Y 1 X -2 Y 1 X 1 Y 1 X -2 Y 1 X -2 Y 1 -1 d -3 Y 1 -1 d -2 Y 1 X s 1600 957 m 1 X -1 Y 1 X -1 Y 1 X -1 Y 1 X -1 Y 2 Y 1 -1 d -2 Y 1 X -1 Y 1 X -1 Y 1 X -1 Y 1 X s 1609 949 m -2 Y 1 -3 d -1 Y 1 X -2 Y 2 X -4 Y
 1 X -2 Y 1 X -2 Y 1 X -3 Y 1 -1 d -1 Y 1 X -2 Y s 1618 926 m -1 Y 1 X -1 Y 1 X -1 Y 1 Y -1 Y 1 1 d -1 Y 1 X -1 Y 1 X -1 Y 1 X 1 -1 d -2 Y 1 X -1 Y 1 X s 1627 917 m -3 Y 1 X -4 Y 1 X -2 Y 1 X -1 Y 1 -1 d -1 Y 1 X -2 Y 1 Y -1 Y 1 X -1 Y 1 X -1 Y 1 -1
 d -3 Y s 1635 897 m 1 X -1 Y 1 -1 d 1 Y -2 Y 1 Y -1 Y 1 X -3 Y 1 X -1 Y 1 X -6 Y 1 X -1 Y 1 Y 1 X -2 Y 1 -2 d -3 Y 1 X s 1644 877 m 1 -3 d -1 Y 1 X -1 Y 1 X -3 Y 1 -1 d -3 Y 1 -1 d -4 Y 1 X -2 Y 1 -1 d -4 Y 1 X -3 Y 1 Y 1 -2 d -1 Y s 1653 848 m -2 Y
 1 X -1 Y 1 X -3 Y 1 -1 d -1 Y 1 X -2 Y 1 X -3 Y 1 X -1 Y 1 Y -1 Y 1 X -4 Y 1 -2 d 1 Y -1 Y 1 X -2 Y s 1662 826 m -1 Y 1 -2 d -2 Y 1 -1 d 5 Y 1 -1 d -3 Y 1 X -1 Y 1 -2 d 1 Y -2 Y 1 -1 d -1 Y 1 -1 d -2 Y 1 X -2 Y 1 -1 d -2 Y s 1671 807 m -4 Y 1 X -1 Y
 1 Y 1 X -2 Y 1 X -4 Y 1 -3 d -2 Y 4 Y 1 X -2 Y 1 -1 d -3 Y 1 -1 d -3 Y 1 -1 d -3 Y s 1679 782 m 1 -4 d -2 Y 1 X -3 Y 1 -1 d -2 Y 1 X -4 Y 1 -1 d -2 Y 1 -1 d -3 Y 1 -1 d -4 Y 1 X -3 Y 1 -1 d 1 Y -3 Y s 1688 748 m -1 Y 1 X -3 Y 1 X -9 Y 1 X -5 Y 1 1 d
 -2 Y 1 X -3 Y 1 X -2 Y 1 X -6 Y 1 X -3 Y 1 -1 d -1 Y s 1697 713 m -1 Y 1 X -2 Y 1 X -4 Y 1 X -2 Y 1 -1 d -1 Y 1 X -3 Y 1 X -2 Y 1 -1 d -2 Y 1 X -3 Y 1 -1 d -1 Y s 1706 689 m -1 Y 1 -3 d -1 Y 1 X -3 Y 1 -1 d -4 Y 1 X -3 Y 1 X -3 Y 1 -1 d -4 Y 1 X -3
 Y 1 X -1 Y 1 X s 1715 661 m -6 Y 1 X -3 Y 1 X -2 Y 1 X -3 Y 1 X -2 Y 1 X -6 Y 1 X -4 Y 1 -2 d -3 Y 1 -3 d 1 Y -4 Y s 1723 624 m 1 X -2 Y 1 -2 d -3 Y 1 -1 d -3 Y 1 -1 d -2 Y 1 -1 d -1 Y 1 -3 d -1 Y 1 -1 d -3 Y 1 -1 d -4 Y 1 X 1 Y -2 Y s 1732 594 m 1
 1 d -3 Y 1 X -3 Y 1 -1 d -2 Y 1 X -6 Y 1 X -2 Y 1 X -5 Y 1 X -4 Y 1 -1 d -2 Y 1 1 d -1 Y s 1741 566 m -2 Y 1 -1 d -3 Y 1 -1 d 1 Y -2 Y 1 -1 d -2 Y 1 -1 d -2 Y 1 X -4 Y 1 X -3 Y 1 -1 d -3 Y 1 X -3 Y 1 -1 d s 1750 537 m -2 Y 1 X -4 Y 1 Y 1 -1 d -2 Y 1
 X -3 Y 1 -1 d -1 Y 1 X -3 Y 1 -1 d -1 Y 1 -1 d -1 Y 1 Y -2 Y 1 -1 d -3 Y 1 X -2 Y s 1759 510 m -5 Y 1 -1 d -1 Y 1 -1 d -1 Y 1 -1 d -8 Y 1 X -3 Y 1 -1 d -2 Y 1 -1 d -3 Y 1 X -1 Y 1 -1 d -2 Y s 1767 478 m 1 -1 d -2 Y 1 X -2 Y 1 Y -1 Y 1 -1 d -1 Y 1 X
 -4 Y 1 X -4 Y 1 -1 d -3 Y 1 X -3 Y 1 X -1 Y 1 Y -3 Y 1 X -3 Y s 1776 450 m -1 Y 1 X -2 Y 1 X -2 Y 1 X -1 Y 1 -1 d -5 Y 1 -1 d -3 Y 1 X -2 Y 1 X -1 Y 1 -1 d -3 Y 1 X -1 Y s 1785 426 m -3 Y 1 X -2 Y 1 X -2 Y 1 -1 d -3 Y 1 X -3 Y 1 2 d -4 Y 1 -1 d -4 Y
 1 -1 d -2 Y 1 -1 d -1 Y 1 X -2 Y s 1794 398 m -2 Y 1 X 1 -1 d -5 Y 1 X -4 Y 1 X -2 Y 1 X -4 Y 1 -1 d -3 Y 1 X -2 Y 1 X -2 Y 1 X -1 Y s 1803 371 m -3 Y 1 X -2 Y 1 X -1 Y 1 -1 d -3 Y 1 X -2 Y 1 X -5 Y 1 -1 d -1 Y 1 -1 d -1 Y 1 X -2 Y 1 -1 d s 1812 347
 m -2 Y 1 X -2 Y 1 X -1 Y 1 X -1 Y 1 -1 d -2 Y 1 X -1 Y 1 X -1 Y 1 X -2 Y 1 X -1 Y s 1820 333 m 1 X -1 Y 1 X -1 Y 1 X -1 Y 1 X -2 Y 2 X -2 Y 1 X -1 Y 1 -1 d -1 Y 1 Y 1 X -1 Y s 1829 323 m 1 -1 d -1 Y 1 -1 d 1 Y -3 Y 2 X -4 Y 1 X -1 Y 1 X -1 Y 1 X -1
 Y 1 -1 d -1 Y 1 X -1 Y s 1838 308 m 1 -1 d 1 -1 d 1 X -1 Y 1 -1 d -4 Y 1 X 2 Y -1 Y 1 X 1 Y 1 -1 d -1 Y 1 X 1 -1 d s 1847 299 m 1 X 1 -1 d 1 X -1 Y 2 X -2 Y 1 X -1 Y 1 -1 d -1 Y 2 X s 1856 292 m -1 Y 2 X -1 Y 1 1 d -1 Y 2 X -1 Y 1 X 1 -1 d 1 Y -1 Y
 1 X -1 Y s 1864 287 m -1 Y 1 -1 d 1 Y -2 Y 2 X -1 Y 1 -1 d 1 X -1 Y 1 X -1 Y 1 X 1 -1 d 1 -1 d s 1873 278 m 2 X -1 Y 2 X 1 -1 d 1 X -1 Y 1 X -1 Y 2 X -1 Y s 1882 273 m 3 X -1 Y 2 X -1 Y 2 X -1 Y 2 X s 1891 270 m -1 Y 2 X -1 Y 4 X -1 Y 3 X s 1900 267
 m 4 X 1 -1 d 2 X -1 Y 1 X s 1908 265 m 1 X 1 -2 d 3 X 1 -1 d 3 X s 1917 262 m -1 Y 9 X s 1926 261 m 5 X -1 Y 1 Y -1 Y 4 X s 1935 260 m 1 X -1 Y 8 X s 1944 259 m 1 X 1 -1 d 6 X s 1952 258 m 2 X -1 Y 7 X s 1961 257 m 9 X s 1970 257 m 9 X s 1979 257 m
 9 X s 1988 257 m 8 X s 1996 257 m 9 X s 2005 257 m 9 X s 2014 257 m 9 X s 2023 257 m 9 X s 2032 257 m 8 X s 2040 257 m 1 X s 1 0 0 c black 1 0 0 c 245 1248 m 9 X s 254 1248 m 9 X s 263 1248 m 8 X s 271 1248 m 9 X s 280 1248 m 9 X s 289 1248 m 9 X s
 298 1248 m 9 X s 307 1248 m 8 X s 315 1248 m 9 X s 324 1248 m 3 X -1 Y 6 X s 333 1247 m 9 X s 342 1247 m 9 X s 351 1247 m 8 X s 359 1247 m 9 X s 368 1247 m 9 X s 377 1247 m 9 X s 386 1247 m 8 X 1 -1 d s 395 1246 m 8 X s 403 1246 m 4 X -1 Y 5 X s 412
 1245 m 6 X -1 Y 3 X s 421 1244 m 6 X 1 -1 d 2 X s 430 1243 m 8 X -1 Y 1 X s 439 1242 m 7 X -1 Y 1 X s 447 1241 m 9 X -1 Y s 456 1240 m 4 X 1 -1 d 4 X s 465 1239 m 2 X 1 -1 d 5 X -1 Y 1 X s 474 1237 m 6 X -1 Y 3 X s 483 1236 m -1 Y 3 X -1 Y 5 X s 491
 1234 m 1 -1 d 5 X -1 Y 2 X 1 -1 d s 500 1231 m 3 X -2 Y 2 X 1 -1 d 3 X s 509 1228 m 1 X 1 -1 d 4 X -1 Y 3 X s 518 1226 m -1 Y 3 X -1 Y 2 X -1 Y 2 X 1 -1 d 1 X s 527 1222 m 1 X -1 Y 1 X -1 Y 2 X 1 -1 d 1 X -1 Y 1 -1 d 1 X s 535 1217 m 1 X -1 Y 3 X -1
 Y 2 X 1 -1 d 2 X -1 Y s 544 1213 m 3 X -1 Y 3 X -1 Y 2 X -1 Y 1 X s 553 1210 m 1 X -1 Y 1 X 1 -1 d -2 Y 3 X -1 Y 2 X -1 Y 1 X s 562 1204 m 1 X 1 -1 d 2 X -1 Y 3 X -1 Y 1 X -1 Y 1 X s 571 1200 m 2 X -1 Y 2 X -1 Y 2 X -1 Y 2 X -1 Y s 579 1196 m 1 X -1
 Y 2 X -1 Y 2 X -1 Y 1 -1 d 2 X -1 Y 1 X s 588 1191 m 1 X -1 Y 2 X 1 -1 d 2 X -1 Y 1 X -1 Y 2 X -1 Y s 597 1186 m 1 X 1 -1 d 1 X -1 Y 2 X 1 -1 d 1 X -1 Y 2 X s 606 1182 m -1 Y 1 X -1 Y 1 X -1 Y 1 X -1 Y 1 X -1 Y 1 X 1 -1 d 1 X -1 Y 1 X 1 -1 d s 615
 1174 m 1 X -1 Y 1 X -1 Y 1 X -1 Y 1 X -1 Y 1 X -1 Y 2 X -1 Y 1 -1 d -1 Y s 623 1166 m 2 X -1 Y 1 X -1 Y 2 X -1 Y 1 X -1 Y 2 X -1 Y 1 X -1 Y s 632 1160 m 1 X -1 Y 1 -1 d 1 -1 d 2 X -1 Y 1 X -1 Y 1 X 1 -1 d -1 Y 1 X s 641 1153 m -1 Y 1 X -1 Y 1 X -2 Y
 1 X -1 Y 2 X -1 Y 1 X 1 -1 d 1 X -1 Y 1 X s 650 1145 m 1 X -1 Y 1 X -1 Y 1 X -1 Y 1 X -1 Y 1 X -1 Y 1 X -1 Y 1 X -1 Y 1 X -1 Y 1 X s 659 1137 m 1 X -1 Y 1 X -1 Y 1 X -1 Y 1 X -1 Y 1 X -1 Y 1 X -1 Y 1 X 1 -1 d s 667 1130 m 1 X -1 Y 1 -1 d -1 Y 1 X -1
 Y 1 X -1 Y 2 X -1 Y 1 X -1 Y 2 X -1 Y s 676 1122 m 1 -1 d 1 -1 d 1 X -1 Y 1 X -1 Y 1 X -1 Y 1 X -1 Y 1 X -1 Y 1 X -1 Y 1 X -1 Y s 685 1113 m 1 -1 d 1 X -1 Y 1 X -1 Y 1 X -1 Y 1 X -2 Y 1 X -1 Y 1 X -1 Y 1 X -2 Y 1 X s 694 1103 m 1 -1 d 1 -1 d -1 Y 1
 X -1 Y 1 X -1 Y 2 X -1 Y 1 X 1 -1 d -1 Y 1 X s 703 1095 m -1 Y 1 X -1 Y 1 X -1 Y 1 X -1 Y 1 X -1 Y 2 X -2 Y 1 X -1 Y 1 X -1 Y s 711 1086 m 1 X -1 Y 1 X -1 Y 1 X -2 Y 1 X -1 Y 1 X -1 Y 1 X -1 Y 1 X -1 Y 1 X -1 Y 1 -1 d -1 Y s 720 1075 m 1 -1 d -1 Y 1
 -1 d -1 Y 1 X -1 Y 1 X -1 Y 1 -1 d -2 Y 1 X -2 Y 1 X -1 Y 1 -1 d -1 Y 1 X s 729 1061 m -1 Y 1 X -1 Y 1 X -1 Y 1 X -1 Y 1 -1 d 1 X -2 Y 1 X -1 Y 1 -1 d 1 X -1 Y 1 -1 d s 738 1050 m -1 Y 1 X -1 Y 1 X -1 Y 1 X -1 Y 2 X -1 Y 1 -1 d -1 Y 1 X -1 Y 1 X -1
 Y 1 X s 747 1041 m -1 Y 1 X -1 Y 1 -1 d 1 X -2 Y 1 -1 d 1 -1 d 1 X -1 Y 1 -1 d 1 X -2 Y s 755 1030 m 1 X -1 Y 1 X -1 Y 1 X -1 Y 1 X -1 Y 1 X -1 Y 1 X -1 Y 1 -1 d 1 -1 d 1 -1 d s 764 1021 m 1 -1 d 1 -1 d 1 X -2 Y 1 X -1 Y 1 X -1 Y 1 X -1 Y 1 -1 d 1 X
 -2 Y 1 1 d -1 Y s 773 1011 m -1 Y 1 X -1 Y 1 -1 d -1 Y 1 -1 d -1 Y 1 -1 d -1 Y 1 X -2 Y 1 X -1 Y 1 X -1 Y 1 X -1 Y 1 -1 d s 782 997 m 1 -1 d 1 -1 d -1 Y 1 X -1 Y 1 X -1 Y 1 X -1 Y 1 X -1 Y 1 -1 d -1 Y 1 X -1 Y 1 X s 791 987 m 1 -1 d 1 -1 d 1 -1 d -1
 Y 1 -1 d -1 Y 1 X -1 Y 1 X -1 Y 1 X -1 Y 1 -1 d -1 Y s 799 976 m 1 X -2 Y 1 -1 d -1 Y 1 X -1 Y 1 X -1 Y 1 X -3 Y 1 X -1 Y 1 -1 d -1 Y 2 X -2 Y s 808 962 m 1 X -1 Y 1 X -2 Y 1 X -1 Y 1 X 1 -1 d -1 Y 1 X -1 Y 2 X -1 Y 1 -1 d s 817 953 m 1 X -2 Y 1 X
 -1 Y 1 X -1 Y 1 X -1 Y 1 X -1 Y 1 X -1 Y 1 -1 d -1 Y 1 X -1 Y 1 X s 826 943 m -1 Y 1 X -1 Y 1 X -1 Y 1 X -2 Y 2 X -3 Y 1 X -2 Y 1 X 1 -1 d -1 Y 1 X s 835 931 m -1 Y 1 -1 d 1 X -1 Y 1 -1 d -1 Y 1 X -2 Y 1 X -1 Y 1 X -1 Y 1 X -1 Y 1 X -2 Y s 843 919 m
 1 X -1 Y 1 X -1 Y 1 X -1 Y 1 X -2 Y 1 X -3 Y 1 X -1 Y 1 X -1 Y 1 X -1 Y 1 -1 d s 852 907 m 1 -1 d -1 Y 1 X -1 Y 1 X -1 Y 1 X -1 Y 1 X -2 Y 1 X -1 Y 1 X -3 Y 1 -1 d -1 Y 1 X -1 Y s 861 893 m -1 Y 1 X -1 Y 1 X 1 -1 d -1 Y 1 X -1 Y 1 X -2 Y 1 X -2 Y 1
 X -1 Y 1 X -1 Y 1 X s 870 882 m -1 Y 1 X -1 Y 1 X -1 Y 1 -1 d -2 Y 1 X 1 -1 d 1 -1 d -2 Y 1 X -2 Y 1 X -1 Y 1 -1 d s 879 868 m -1 Y 1 X -1 Y 1 X -1 Y 1 X -1 Y 1 X -1 Y 1 X -1 Y 1 -1 d -2 Y 1 -1 d -1 Y 1 X -1 Y s 887 856 m 1 X -1 Y 1 X 1 -1 d -2 Y 1
 X -1 Y 1 X 1 -1 d 1 -1 d -1 Y 1 X -1 Y 1 X -3 Y s 896 844 m 1 -1 d 1 -1 d -1 Y 1 X -2 Y 1 X -1 Y 1 X -2 Y 2 X -2 Y 1 X -1 Y 1 X -1 Y s 905 832 m -1 Y 1 X -2 Y 1 X -1 Y 1 X -2 Y 1 X -1 Y 1 X -2 Y 1 X -2 Y 2 X -1 Y 1 X -1 Y s 914 819 m 1 -1 d -1 Y 1 X
 -1 Y 1 -1 d 1 -1 d 1 X -2 Y 1 X -1 Y 1 X 1 -1 d -1 Y 1 X s 923 809 m -1 Y 1 X -2 Y 1 X -1 Y 1 X -1 Y 1 X -1 Y 1 X -1 Y 1 X -1 Y 1 -1 d 1 -1 d s 931 799 m 1 -1 d -1 Y 1 X -1 Y 1 X 1 -1 d -1 Y 1 X -1 Y 1 X -1 Y 1 X -1 Y 1 X -1 Y 1 X -1 Y s 940 789 m 1
 X -1 Y 1 -1 d -2 Y 1 X -1 Y 1 X -1 Y 1 X -1 Y 1 -1 d -1 Y 1 X 1 -1 d 1 -1 d s 949 778 m -1 Y 1 X -1 Y 1 X -1 Y 1 X -2 Y 1 X -2 Y 1 X -1 Y 1 -1 d 1 X -1 Y 1 -1 d -1 Y 1 -1 d s 958 765 m 1 X -1 Y 1 X -1 Y 1 -1 d 1 -1 d -1 Y 1 X -2 Y 1 -1 d -1 Y 1 X -1
 Y 1 -1 d 1 -1 d s 967 753 m 1 X -1 Y 2 X -1 Y 1 X -1 Y 1 X -2 Y 1 X -2 Y 1 X -1 Y 1 X -3 Y s 975 742 m 1 X -1 Y 1 -1 d 1 -1 d 1 X -1 Y 1 X -3 Y 1 -1 d -1 Y 1 X -1 Y 1 X -1 Y 1 X -1 Y s 984 730 m 1 X -2 Y 1 X -1 Y 1 X -1 Y 1 X -1 Y 1 X -2 Y 1 X -1 Y
 1 X -3 Y 1 X -1 Y 1 -1 d s 993 717 m -1 Y 1 X -1 Y 1 -1 d -1 Y 1 -1 d -1 Y 1 X -1 Y 1 X -1 Y 1 X -1 Y 1 X -1 Y 1 X -2 Y 1 -1 d s 1002 704 m -1 Y 1 X -1 Y 1 X -1 Y 1 X -2 Y 1 -1 d 1 -1 d -1 Y 1 X -2 Y 2 X -1 Y 1 X s 1011 693 m -1 Y 1 X -1 Y 1 X -1 Y
 1 X -2 Y 1 X -1 Y 1 X -2 Y 1 X -1 Y 1 X -1 Y 1 X -2 Y s 1019 681 m 1 X 1 -1 d -1 Y 1 X -1 Y 1 -1 d -2 Y 1 X -2 Y 1 X -1 Y 2 X -1 Y 1 X -1 Y s 1028 670 m 1 X -1 Y 1 -1 d -2 Y 1 X -1 Y 1 X -1 Y 2 X -1 Y 1 X -1 Y 1 X -2 Y 1 X -1 Y s 1037 659 m -1 Y 1 X
 -2 Y 1 X -1 Y 1 X -2 Y 1 X -1 Y 1 X -1 Y 1 -1 d -1 Y 1 X -1 Y 1 -1 d 1 -1 d s 1046 646 m 1 -1 d 1 -1 d 1 X -1 Y 1 X -2 Y 1 X -1 Y 1 X -1 Y 1 X -1 Y 1 -1 d -1 Y 1 X s 1055 636 m 1 -1 d -1 Y 1 X -1 Y 1 X -1 Y 2 X -2 Y 1 X -1 Y 1 X -1 Y 1 X -2 Y s 1063
 626 m 1 X -1 Y 1 X -2 Y 1 X -1 Y 1 X -1 Y 1 -1 d -1 Y 1 X -1 Y 1 X -1 Y 1 X -1 Y 1 X -1 Y s 1072 615 m 1 -1 d -2 Y 1 X 1 -1 d 2 X -1 Y 1 X 1 -1 d -1 Y 2 X -1 Y s 1081 607 m -1 Y 1 X -1 Y 2 X -1 Y 1 X 1 -1 d -1 Y 1 X 1 -1 d -1 Y 1 X -1 Y 1 -1 d s
 1090 598 m -1 Y 1 X -1 Y 1 X -2 Y 1 X 1 -1 d 1 X -3 Y 1 X -2 Y 1 X -2 Y 1 X -1 Y 1 -1 d s 1099 584 m 2 X -2 Y 1 X -1 Y 1 -1 d -1 Y 2 X -2 Y 1 X -1 Y 1 -1 d -1 Y s 1107 574 m 2 X -1 Y 1 -1 d -1 Y 1 X -2 Y 1 X -1 Y 1 X -1 Y 1 X -1 Y 1 X -1 Y 1 -1 d -1
 Y s 1116 563 m 1 X -1 Y 1 X -1 Y 1 X -1 Y 1 X -1 Y 1 X -1 Y 1 X -1 Y 1 X -1 Y 1 X -1 Y 1 X s 1125 555 m -2 Y 1 -1 d 1 X -1 Y 1 X -1 Y 1 X 1 -1 d 1 X -1 Y 1 -1 d 1 -1 d -2 Y 1 X s 1134 544 m 1 -1 d -1 Y 1 X -1 Y 1 X -2 Y 1 X -1 Y 1 X -1 Y 1 X -1 Y 1
 X -1 Y 1 -1 d 1 X s 1143 534 m -1 Y 1 X -2 Y 1 X -1 Y 1 -1 d -1 Y 1 X -1 Y 1 X -1 Y 1 X -1 Y 2 X -1 Y s 1151 524 m 1 X -1 Y 1 X -1 Y 1 X -2 Y 1 X -1 Y 1 X -1 Y 1 X -1 Y 1 X -1 Y 1 X -1 Y 1 X -1 Y s 1160 514 m 1 X -1 Y 1 -1 d 1 -1 d 1 X -1 Y 1 X 1 -1
 d 1 X -1 Y 1 -1 d -1 Y 1 X s 1169 506 m -1 Y 1 X 1 -1 d 1 X -1 Y 1 X -1 Y 1 X 1 -2 d -1 Y 1 X -1 Y 2 X -1 Y s 1178 497 m 1 X -1 Y 1 X -1 Y 1 X -1 Y 1 X -1 Y 1 X -1 Y 1 X -1 Y 1 X -1 Y 1 X -1 Y 1 X s 1187 489 m 1 X -1 Y 1 X -1 Y 1 X 1 -1 d 1 -1 d -1
 Y 1 X -1 Y 2 X -2 Y s 1195 481 m 1 X 1 -1 d 1 -1 d 1 X -1 Y 1 X 1 -1 d 1 X -3 Y 1 X -1 Y 1 X s 1204 473 m 1 X -2 Y 1 X -1 Y 1 X -1 Y 1 X -1 Y 1 X -2 Y 1 X -1 Y 1 X -1 Y 1 X -1 Y 1 X s 1213 463 m 1 -1 d 1 X 1 -1 d 1 X -1 Y 1 X -1 Y 1 X -1 Y 1 X -1 Y
 1 X -1 Y 1 X s 1222 456 m -1 Y 1 X -1 Y 1 X -1 Y 1 X 1 -1 d 1 X -1 Y 1 X -1 Y 1 X -1 Y 1 X -1 Y 1 X s 1231 448 m 1 X -1 Y 1 X -1 Y 1 X -1 Y 1 X -1 Y 1 X -1 Y 1 X -1 Y 1 -1 d -1 Y 1 X s 1239 440 m 1 X -1 Y 2 X -1 Y 1 X -1 Y 1 X -1 Y 3 X -1 Y 1 X s
 1248 435 m 1 X -1 Y 1 X -1 Y 2 X 1 -1 d -1 Y 2 X -1 Y 1 X -1 Y 1 X s 1257 429 m 1 -1 d 1 X -1 Y 1 X -1 Y 3 X -1 Y 1 -1 d 1 Y -1 Y 2 X -1 Y s 1266 423 m 1 X -1 Y 1 X -1 Y 2 X -1 Y 1 X -1 Y 2 X -1 Y 1 X 1 -1 d s 1275 417 m 1 X -1 Y 2 X -1 Y 1 X -1 Y 1
 X 1 -1 d 1 X -1 Y 1 X -1 Y s 1283 411 m 2 X -1 Y 1 X -1 Y 2 X 1 -1 d 1 X -1 Y 2 X -1 Y s 1292 406 m 1 X -1 Y 1 X -1 Y 2 X -1 Y 3 X -1 Y 2 X -1 Y s 1301 401 m 1 X -1 Y 1 X -1 Y 1 X -1 Y 2 X -1 Y 3 X -1 Y 1 X s 1310 396 m 1 -1 d 1 X -1 Y 2 X -1 Y 3 X
 1 -1 d 1 X s 1319 392 m -1 Y 1 X -1 Y 2 X -1 Y 2 X -1 Y 2 X -1 Y 1 -1 d s 1327 386 m 2 X -1 Y 3 X 1 -1 d 1 X -1 Y 2 X -1 Y s 1336 382 m 2 X -1 Y 1 X -1 Y 2 X -1 Y 4 X -1 Y s 1345 378 m 1 X 1 -2 d 1 X -1 Y 2 X -1 Y 1 X -1 Y 3 X s 1354 373 m -1 Y 3 X
 -1 Y 1 X 1 -1 d 3 X -1 Y 1 X s 1363 369 m 2 X -1 Y 5 X -1 Y 1 X s 1371 367 m 3 X -1 Y 4 X -1 Y 1 -1 d 1 X s 1380 364 m 3 X -1 Y 2 X -1 Y 3 X -1 Y 1 X s 1389 361 m 2 X -1 Y 3 X -1 Y 4 X s 1398 359 m -1 Y 1 X -1 Y 3 X -1 Y 4 X -1 Y 1 X s 1407 355 m 1
 X -1 Y 3 X 1 -1 d 2 X 1 -1 d s 1415 352 m 2 X 1 -1 d 3 X 1 -1 d 2 X -1 Y s 1424 349 m 2 X -1 Y 1 X -1 Y 2 X -1 Y 3 X -1 Y 1 X s 1433 345 m 2 X -1 Y 4 X -1 Y 3 X s 1442 343 m 6 X -1 Y 3 X s 1451 342 m 1 X -1 Y 5 X -1 Y 2 X s 1459 340 m 3 X -1 Y 4 X
 -1 Y 1 X 1 -1 d -1 Y s 1468 336 m 3 X 1 -1 d 4 X 1 -1 d s 1477 334 m 4 X -1 Y 3 X -1 Y 2 X s 1486 332 m 2 X -1 Y 2 X -1 Y 3 X -1 Y 2 X s 1495 329 m 3 X -1 Y 5 X s 1503 328 m 1 X -1 Y 3 X -1 Y 5 X s 1512 326 m 2 X -1 Y 3 X -1 Y 4 X s 1521 324 m 3 X
 -1 Y 4 X -1 Y 2 X s 1530 322 m 4 X -1 Y 3 X -1 Y 2 X s 1539 320 m -1 Y 7 X -1 Y 1 X s 1547 318 m 5 X 1 -1 d 1 X -1 Y 2 X s 1556 316 m 1 X -1 Y 1 X -1 Y 3 X -1 Y 2 X 1 -1 d 1 X s 1565 312 m 2 X -1 Y 3 X -1 Y 4 X s 1574 310 m -1 Y 6 X -1 Y 3 X s 1583
 308 m 1 X -1 Y 2 X 1 -1 d 4 X s 1591 306 m 3 X -1 Y 6 X s 1600 305 m 2 X -1 Y 3 X -1 Y 4 X s 1609 303 m 2 X -1 Y 7 X s 1618 302 m 3 X -1 Y 3 X -1 Y 3 X s 1627 300 m 1 X -1 Y 2 X -1 Y 5 X -1 Y s 1635 297 m 6 X -1 Y 3 X s 1644 296 m 1 X -1 Y 7 X -1 Y
 1 X s 1653 294 m 2 X -1 Y 3 X 1 -1 d 3 X s 1662 292 m 1 X 1 -1 d 2 X -1 Y 3 X -1 Y 2 X s 1671 289 m 1 X -1 Y 7 X s 1679 288 m 1 -1 d 1 X -1 Y 6 X -1 Y 1 X s 1688 285 m 2 X -1 Y 2 X -1 Y 5 X -1 Y s 1697 282 m 4 X 1 -1 d 4 X s 1706 281 m -1 Y 3 X -1 Y
 4 X -1 Y 2 X s 1715 278 m 5 X -1 Y 3 X s 1723 277 m 3 X -1 Y 6 X -1 Y s 1732 275 m 2 X -1 Y 7 X -1 Y s 1741 273 m 4 X -1 Y 4 X 1 -1 d s 1750 271 m 1 X 1 -1 d 7 X s 1759 270 m -1 Y 4 X -1 Y 4 X s 1767 268 m 2 X -1 Y 6 X -1 Y 1 X s 1776 266 m 5 X -1 Y
 4 X s 1785 265 m 4 X -1 Y 5 X s 1794 264 m 6 X -1 Y 3 X s 1803 263 m 9 X s 1812 263 m 1 X 1 -1 d 6 X s 1820 262 m 3 X -1 Y 6 X s 1829 261 m 3 X -1 Y 6 X s 1838 260 m 9 X s 1847 260 m 9 X s 1856 260 m 1 X -1 Y 7 X s 1864 259 m 1 X -1 Y 8 X s 1873 258
 m 9 X s 1882 258 m 9 X s 1891 258 m 1 X -1 Y 8 X s 1900 257 m 8 X s 1908 257 m 9 X s 1917 257 m 9 X s 1926 257 m 9 X s 1935 257 m 9 X s 1944 257 m 8 X s 1952 257 m 9 X s 1961 257 m 9 X s 1970 257 m 9 X s 1979 257 m 9 X s 1988 257 m 8 X s 1996 257 m
 9 X s 2005 257 m 9 X s 2014 257 m 9 X s 2023 257 m 9 X s 2032 257 m 8 X s 2040 257 m 1 X s 0 0.666667 0 c 1 1 1 c black 0 0.666667 0 c 245 257 m 9 X s 254 257 m 9 X s 263 257 m 8 X s 271 257 m 9 X s 280 257 m 9 X s 289 257 m 9 X s 298 257 m 9 X s
 307 257 m 8 X s 315 257 m 9 X s 324 257 m 9 X s 333 257 m 9 X s 342 257 m 9 X s 351 257 m 8 X s 359 257 m 9 X s 368 257 m 9 X s 377 257 m 9 X s 386 257 m 9 X s 395 257 m 8 X s 403 257 m 9 X s 412 257 m 9 X s 421 257 m 9 X s 430 257 m 9 X s 439 257 m
 8 X s 447 257 m 9 X s 456 257 m 9 X s 465 257 m 9 X s 474 257 m 9 X s 483 257 m 8 X s 491 257 m 9 X s 500 257 m 9 X s 509 257 m 9 X s 518 257 m 9 X s 527 257 m 8 X s 535 257 m 9 X s 544 257 m 9 X s 553 257 m 9 X s 562 257 m 9 X s 571 257 m 8 X s 579
 257 m 9 X s 588 257 m 9 X s 597 257 m 9 X s 606 257 m 9 X s 615 257 m 8 X s 623 257 m 9 X s 632 257 m 9 X s 641 257 m 9 X s 650 257 m 9 X s 659 257 m 8 X s 667 257 m 9 X s 676 257 m 9 X s 685 257 m 9 X s 694 257 m 9 X s 703 257 m 8 X s 711 257 m 9 X
 s 720 257 m 9 X s 729 257 m 9 X s 738 257 m 9 X s 747 257 m 8 X s 755 257 m 9 X s 764 257 m 9 X s 773 257 m 9 X s 782 257 m 9 X s 791 257 m 8 X s 799 257 m 9 X s 808 257 m 9 X s 817 257 m 9 X s 826 257 m 9 X s 835 257 m 8 X s 843 257 m 9 X s 852 257
 m 9 X s 861 257 m 9 X s 870 257 m 9 X s 879 257 m 8 X s 887 257 m 9 X s 896 257 m 9 X s 905 257 m 9 X s 914 257 m 9 X s 923 257 m 8 X s 931 257 m 9 X s 940 257 m 9 X s 949 257 m 9 X s 958 257 m 9 X s 967 257 m 8 X s 975 257 m 9 X s 984 257 m 9 X s
 993 257 m 9 X s 1002 257 m 9 X s 1011 257 m 8 X s 1019 257 m 9 X s 1028 257 m 9 X s 1037 257 m 9 X s 1046 257 m 9 X s 1055 257 m 8 X s 1063 257 m 9 X s 1072 257 m 9 X s 1081 257 m 9 X s 1090 257 m 9 X s 1099 257 m 8 X s 1107 257 m 9 X s 1116 257 m 9
 X s 1125 257 m 9 X s 1134 257 m 9 X s 1143 257 m 8 X s 1151 257 m 9 X s 1160 257 m 9 X s 1169 257 m 9 X s 1178 257 m 9 X s 1187 257 m 8 X s 1195 257 m 9 X s 1204 257 m 9 X s 1213 257 m 9 X s 1222 257 m 9 X s 1231 257 m 8 X s 1239 257 m 9 X s 1248
 257 m 9 X s 1257 257 m 9 X s 1266 257 m 9 X s 1275 257 m 8 X s 1283 257 m 9 X s 1292 257 m 9 X s 1301 257 m 9 X s 1310 257 m 9 X s 1319 257 m 8 X s 1327 257 m 9 X s 1336 257 m 9 X s 1345 257 m 9 X s 1354 257 m 9 X s 1363 257 m 8 X s 1371 257 m 9 X s
 1380 257 m 9 X s 1389 257 m 9 X s 1398 257 m 9 X s 1407 257 m 8 X s 1415 257 m 9 X s 1424 257 m 9 X s 1433 257 m 9 X s 1442 257 m 9 X s 1451 257 m 8 X s 1459 257 m 9 X s 1468 257 m 9 X s 1477 257 m 9 X s 1486 257 m 9 X s 1495 257 m 8 X s 1503 257 m
 9 X s 1512 257 m 9 X s 1521 257 m 9 X s 1530 257 m 9 X s 1539 257 m 8 X s 1547 257 m 9 X s 1556 257 m 9 X s 1565 257 m 9 X s 1574 257 m 9 X s 1583 257 m 8 X s 1591 257 m 9 X s 1600 257 m 9 X s 1609 257 m 9 X s 1618 257 m 9 X s 1627 257 m 8 X s 1635
 257 m 9 X s 1644 257 m 9 X s 1653 257 m 9 X s 1662 257 m 9 X s 1671 257 m 8 X s 1679 257 m 9 X s 1688 257 m 9 X s 1697 257 m 9 X s 1706 257 m 9 X s 1715 257 m 8 X s 1723 257 m 9 X s 1732 257 m 9 X s 1741 257 m 9 X s 1750 257 m 9 X s 1759 257 m 8 X s
 1767 257 m 9 X s 1776 257 m 9 X s 1785 257 m 9 X s 1794 257 m 9 X s 1803 257 m 9 X s 1812 257 m 8 X s 1820 257 m 9 X s 1829 257 m 9 X s 1838 257 m 9 X s 1847 257 m 9 X s 1856 257 m 8 X s 1864 257 m 9 X s 1873 257 m 9 X s 1882 257 m 9 X s 1891 257 m
 9 X s 1900 257 m 8 X s 1908 257 m 9 X s 1917 257 m 9 X s 1926 257 m 9 X s 1935 257 m 9 X s 1944 257 m 8 X s 1952 257 m 9 X s 1961 257 m 9 X s 1970 257 m 9 X s 1979 257 m 9 X s 1988 257 m 8 X s 1996 257 m 9 X s 2005 257 m 9 X s 2014 257 m 9 X s 2023
 257 m 9 X s 2032 257 m 8 X s 2040 257 m 1 X s black 3 lw 245 202 m 1796 X s 481 242 m -40 Y s 538 222 m -20 Y s 594 222 m -20 Y s 651 222 m -20 Y s 707 222 m -20 Y s 764 242 m -40 Y s 821 222 m -20 Y s 877 222 m -20 Y s 934 222 m -20 Y s 991 222 m
 -20 Y s 1047 242 m -40 Y s 1104 222 m -20 Y s 1160 222 m -20 Y s 1217 222 m -20 Y s 1274 222 m -20 Y s 1330 242 m -40 Y s 1387 222 m -20 Y s 1444 222 m -20 Y s 1500 222 m -20 Y s 1557 222 m -20 Y s 1614 242 m -40 Y s 1670 222 m -20 Y s 1727 222 m
 -20 Y s 1783 222 m -20 Y s 1840 222 m -20 Y s 1897 242 m -40 Y s 481 242 m -40 Y s 424 222 m -20 Y s 368 222 m -20 Y s 311 222 m -20 Y s 254 222 m -20 Y s 1897 242 m -40 Y s 1953 222 m -20 Y s 2010 222 m -20 Y s 245 202 m 1145 Y s 291 257 m -46 X s
 268 306 m -23 X s 268 356 m -23 X s 268 405 m -23 X s 291 455 m -46 X s 268 504 m -23 X s 268 554 m -23 X s 268 604 m -23 X s 291 653 m -46 X s 268 703 m -23 X s 268 752 m -23 X s 268 802 m -23 X s 291 851 m -46 X s 268 901 m -23 X s 268 950 m -23 X
 s 268 1000 m -23 X s 291 1050 m -46 X s 268 1099 m -23 X s 268 1149 m -23 X s 268 1198 m -23 X s 291 1248 m -46 X s 291 257 m -46 X s 268 207 m -23 X s 291 1248 m -46 X s 268 1297 m -23 X s 0.490196 0.545098 0.615686 c 1 1 1 c 0.490196 0.545098
 0.615686 c 907 202 245 1347 bl 245 1347 m 907 X s 1152 1347 m 202 Y s 1152 1549 m -907 X s 245 1549 m -202 Y s black
 gsave  2268 1684 0 0 C 515.735 1478.95 t 0 r /Helvetica-Bold findfont 53.0904 sf 0 0 m (Signal efficiency) show NC gr  0 0 0.933333 c 9 lw 286 1499 m 190 X s black
 gsave  2268 1684 0 0 C 515.735 1376.56 t 0 r /Helvetica-Bold findfont 53.0904 sf 0 0 m (Background efficiency) show NC gr  1 0 0 c 286 1397 m 190 X s 0.490196 0.545098 0.615686 c 3 lw 1 1 1 c 0.490196 0.545098 0.615686 c 889 202 1152 1347 bl 1152
 1347 m 889 X s 2041 1347 m 202 Y s 2041 1549 m -889 X s 1152 1549 m -202 Y s black
 gsave  2268 1684 0 0 C 1418.27 1501.7 t 0 r /Helvetica-Bold findfont 56.8825 sf 0 0 m (Signal purity) show NC gr  0 0 0.933333 c[  52 12 ] 0 sd 6 lw 1192 1515 m 187 X s black
 gsave  2268 1684 0 0 C 1418.27 1433.44 t 0 r /Helvetica-Bold findfont 56.8825 sf 0 0 m (Signal efficiency*purity) show NC gr  0 0 0.933333 c[  22 12 ] 0 sd 1192 1448 m 187 X s black
 gsave  2268 1684 0 0 C 1501.7 1368.97 t 0 r /Helvetica-Bold findfont 56.8825 sf 0 0 m (S+B) show NC gr [  ] 0 sd 1483 1414 m 7 -49 d s 3 lw 1490 1365 m 8 65 d s 1498 1430 m 114 X s
 gsave  2268 1684 0 0 C 1418.27 1368.97 t 0 r /Helvetica-Bold findfont 56.8825 sf 0 0 m (S/) show NC gr  0 0.666667 0 c 9 lw 1192 1381 m 187 X s black 3 lw 245 1248 m 1796 X s
 gsave  2268 1684 0 0 C 337.503 390.593 t 0 r /Helvetica-Bold findfont 53.0904 sf 0 0 m (For 1000 signal and 1000 background) show NC gr 
 gsave  2268 1684 0 0 C 1065.6 322.334 t 0 r /Helvetica-Bold findfont 53.0904 sf 0 0 m ( is) show NC gr 
 gsave  2268 1684 0 0 C 963.211 322.334 t 0 r /Helvetica-Bold findfont 53.0904 sf 0 0 m (S+B) show NC gr  6 lw 940 364 m 8 -45 d s 3 lw 948 319 m 8 60 d s 956 379 m 110 X s
 gsave  2268 1684 0 0 C 337.503 322.334 t 0 r /Helvetica-Bold findfont 53.0904 sf 0 0 m (events the maximum S/) show NC gr 
 gsave  2268 1684 0 0 C 337.503 254.075 t 0 r /Helvetica-Bold findfont 53.0904 sf 0 0 m (28.16 when cutting at  0.02) show NC gr  0.490196 0.545098 0.615686 c 0.364706 0.419608 0.490196 c 1554 100 23 1575 bf 0.490196 0.545098 0.615686 c 23 1575 m
 1554 X s 1577 1575 m 100 Y s 1577 1675 m -1554 X s 23 1675 m -100 Y s 1 1 1 c black 1 1 1 c
 gsave  2268 1684 0 0 C 75.8434 1604.09 t 0 r /Helvetica-Bold findfont 79.6355 sf 0 0 m (Cut efficiencies and optimal cut value) show NC gr  0 0.666667 0 c 2041 202 m 1145 Y s 1995 202 m 46 X s 2018 239 m 23 X s 2018 276 m 23 X s 2018 313 m 23 X s
 2018 350 m 23 X s 1995 387 m 46 X s 2018 424 m 23 X s 2018 461 m 23 X s 2018 498 m 23 X s 2018 535 m 23 X s 1995 572 m 46 X s 2018 609 m 23 X s 2018 646 m 23 X s 2018 683 m 23 X s 2018 720 m 23 X s 1995 756 m 46 X s 2018 793 m 23 X s 2018 830 m 23 X
 s 2018 867 m 23 X s 2018 904 m 23 X s 1995 941 m 46 X s 2018 978 m 23 X s 2018 1015 m 23 X s 2018 1052 m 23 X s 2018 1089 m 23 X s 1995 1126 m 46 X s 2018 1163 m 23 X s 2018 1200 m 23 X s 2018 1237 m 23 X s 2018 1274 m 23 X s 1995 1311 m 46 X s 1995
 1311 m 46 X s black 0 0.666667 0 c
 gsave  2268 1684 0 0 C 2051.56 178.232 t 0 r /Helvetica-Bold findfont 64.4669 sf 0 0 m (0) show NC gr  black 0 0.666667 0 c
 gsave  2268 1684 0 0 C 2051.56 364.048 t 0 r /Helvetica-Bold findfont 64.4669 sf 0 0 m (5) show NC gr  black 0 0.666667 0 c
 gsave  2268 1684 0 0 C 2051.56 546.072 t 0 r /Helvetica-Bold findfont 64.4669 sf 0 0 m (10) show NC gr  black 0 0.666667 0 c
 gsave  2268 1684 0 0 C 2051.56 731.888 t 0 r /Helvetica-Bold findfont 64.4669 sf 0 0 m (15) show NC gr  black 0 0.666667 0 c
 gsave  2268 1684 0 0 C 2051.56 917.705 t 0 r /Helvetica-Bold findfont 64.4669 sf 0 0 m (20) show NC gr  black 0 0.666667 0 c
 gsave  2268 1684 0 0 C 2051.56 1099.73 t 0 r /Helvetica-Bold findfont 64.4669 sf 0 0 m (25) show NC gr  black 0 0.666667 0 c
 gsave  2268 1684 0 0 C 2051.56 1285.55 t 0 r /Helvetica-Bold findfont 64.4669 sf 0 0 m (30) show NC gr  black 0 0.666667 0 c
 gsave  2268 1684 0 0 C 2203.25 967.003 t 90 r /Helvetica-Bold findfont 64.4669 sf 0 0 m (Significance) show NC gr 
 gr  gr showpage
end
%%EOF
