%!PS-Adobe-2.0 EPSF-2.0
%%BoundingBox:  0 0 567 421
%%Title: dataset_class_comb2_all/plots/mvaeffs_BDTF.eps: Cut efficiencies for BDTF classifier
%%Creator: ROOT Version 6.18/00
%%CreationDate: Sat Sep 14 15:14:24 2019
%%DocumentNeededResources: ProcSet (FontSetInit)
%%EndComments
%%BeginProlog
80 dict begin
/s {stroke} def /l {lineto} def /m {moveto} def /t {translate} def
/r {rotate} def /rl {roll}  def /R {repeat} def
/d {rlineto} def /rm {rmoveto} def /gr {grestore} def /f {eofill} def
/c {setrgbcolor} def /black {0 setgray} def /sd {setdash} def
/cl {closepath} def /sf {scalefont setfont} def /lw {setlinewidth} def
/box {m dup 0 exch d exch 0 d 0 exch neg d cl} def
/NC{systemdict begin initclip end}def/C{NC box clip newpath}def
/bl {box s} def /bf {gsave box gsave f grestore 1 lw [] 0 sd s grestore} def /Y { 0 exch d} def /X { 0 d} def 
/K {{pop pop 0 moveto} exch kshow} bind def
/ita {/ang 15 def gsave [1 0 ang dup sin exch cos div 1 0 0] concat} def 
/mp {newpath /y exch def /x exch def} def
/side {[w .77 mul w .23 mul] .385 w mul sd w 0 l currentpoint t -144 r} def
/mr {mp x y w2 0 360 arc} def /m24 {mr s} def /m20 {mr f} def
/mb {mp x y w2 add m w2 neg 0 d 0 w neg d w 0 d 0 w d cl} def
/mt {mp x y w2 add m w2 neg w neg d w 0 d cl} def
/w4 {w 4 div} def
/w6 {w 6 div} def
/w8 {w 8 div} def
/m21 {mb f} def /m25 {mb s} def /m22 {mt f} def /m26{mt s} def
/m23 {mp x y w2 sub m w2 w d w neg 0 d cl f} def
/m27 {mp x y w2 add m w3 neg w2 neg d w3 w2 neg d w3 w2 d cl s} def
/m28 {mp x w2 sub y w2 sub w3 add m w3 0 d  0 w3 neg d w3 0 d 0 w3 d w3 0 d  0 w3 d w3 neg 0 d 0 w3 d w3 neg 0 d 0 w3 neg d w3 neg 0 d cl s } def
/m29 {mp gsave x w2 sub y w2 add w3 sub m currentpoint t 4 {side} repeat cl fill gr} def
/m30 {mp gsave x w2 sub y w2 add w3 sub m currentpoint t 4 {side} repeat cl s gr} def
/m31 {mp x y w2 sub m 0 w d x w2 sub y m w 0 d x w2 sub y w2 add m w w neg d x w2 sub y w2 sub m w w d s} def
/m32 {mp x y w2 sub m w2 w d w neg 0 d cl s} def
/m33 {mp x y w2 add m w3 neg w2 neg d w3 w2 neg d w3 w2 d cl f} def
/m34 {mp x w2 sub y w2 sub w3 add m w3 0 d  0 w3 neg d w3 0 d 0 w3 d w3 0 d  0 w3 d w3 neg 0 d 0 w3 d w3 neg 0 d 0 w3 neg d w3 neg 0 d cl f } def
/m35 {mp x y w2 add m w2 neg w2 neg d w2 w2 neg d w2 w2 d w2 neg w2 d x y w2 sub m 0 w d x w2 sub y m w 0 d s} def
/m36 {mb x w2 sub y w2 add m w w neg d x w2 sub y w2 sub m w w d s} def
/m37 {mp x y m w4 neg w2 d w4 neg w2 neg d w2 0 d  w4 neg w2 neg d w2 0 d w4 neg w2 d w2 0 d w4 neg w2 d w4 neg w2 neg d cl s} def
/m38 {mp x w4 sub y w2 add m w4 neg w4 neg d 0 w2 neg d w4 w4 neg d w2 0 d w4 w4 d 0 w2 d w4 neg w4 d w2 neg 0 d x y w2 sub m 0 w d x w2 sub y m w 0 d cl s} def
/m39 {mp x y m w4 neg w2 d w4 neg w2 neg d w2 0 d  w4 neg w2 neg d w2 0 d w4 neg w2 d w2 0 d w4 neg w2 d w4 neg w2 neg d cl f} def
/m40 {mp x y m w4 w2 d w4 w4 neg d w2 neg w4 neg d w2 w4 neg d w4 neg w4 neg d w4 neg w2 d w4 neg w2 neg d w4 neg w4 d w2 w4 d w2 neg w4 d w4 w4 d w4 w2 neg d cl s} def
/m41 {mp x y m w4 w2 d w4 w4 neg d w2 neg w4 neg d w2 w4 neg d w4 neg w4 neg d w4 neg w2 d w4 neg w2 neg d w4 neg w4 d w2 w4 d w2 neg w4 d w4 w4 d w4 w2 neg d cl f} def
/m42 {mp x y w2 add m w8 neg w2 -3 4 div mul d w2 -3 4 div mul w8 neg d w2 3 4 div mul w8 neg d w8 w2 -3 4 div mul d w8 w2 3 4 div mul d w2 3 4 div mul w8 d w2 -3 4 div mul w8 d w8 neg w2 3 4 div mul d cl s} def
/m43 {mp x y w2 add m w8 neg w2 -3 4 div mul d w2 -3 4 div mul w8 neg d w2 3 4 div mul w8 neg d w8 w2 -3 4 div mul d w8 w2 3 4 div mul d w2 3 4 div mul w8 d w2 -3 4 div mul w8 d w8 neg w2 3 4 div mul d cl f} def
/m44 {mp x y m w6 neg w2 d w2 2 3 div mul 0 d w6 neg w2 neg d w2 w6 d 0 w2 -2 3 div mul d w2 neg w6 d w6 w2 neg d w2 -2 3 div mul 0 d w6 w2 d w2 neg w6 neg d 0 w2 2 3 div mul d w2 w6 neg d cl s} def
/m45 {mp x y m w6 neg w2 d w2 2 3 div mul 0 d w6 neg w2 neg d w2 w6 d 0 w2 -2 3 div mul d w2 neg w6 d w6 w2 neg d w2 -2 3 div mul 0 d w6 w2 d w2 neg w6 neg d 0 w2 2 3 div mul d w2 w6 neg d cl f} def
/m46 {mp x y w4 add m w4 neg w4 d w4 neg w4 neg d  w4 w4 neg d w4 neg w4 neg d w4 w4 neg d w4 w4 d w4 w4 neg d w4 w4 d w4 neg w4 d w4 w4 d w4 neg w4 d w4 neg w4 neg d cl s} def
/m47 {mp x y w4 add m w4 neg w4 d w4 neg w4 neg d w4 w4 neg d w4 neg w4 neg d  w4 w4 neg d w4 w4 d w4 w4 neg d w4 w4 d w4 neg w4 d w4 w4 d w4 neg w4 d w4 neg w4 neg d cl f} def
/m48 {mp x y w4 add m w4 neg w4 d w4 neg w4 neg d w4 w4 neg d  w4 neg w4 neg d w4 w4 neg d w4 w4 d w4 w4 neg d w4 w4 d w4 neg w4 d w4 w4 d w4 neg w4 d w4 neg w4 neg d  w4 w4 neg d w4 neg w4 neg d w4 neg w4 d w4 w4 d cl f} def
/m49 {mp x w2 sub w3 add y w2 sub w3 add m  0 w3 neg d w3 0 d 0 w3 d w3 0 d 0 w3 d w3 neg 0 d 0 w3 d w3 neg 0 d 0 w3 neg d w3 neg 0 d 0 w3 neg d w3 0 d 0 w3 d w3 0 d 0 w3 neg d w3 neg 0 d cl f } def
/m2 {mp x y w2 sub m 0 w d x w2 sub y m w 0 d s} def
/m5 {mp x w2 sub y w2 sub m w w d x w2 sub y w2 add m w w neg d s} def
%%IncludeResource: ProcSet (FontSetInit)
%%IncludeResource: font Times-Roman
%%IncludeResource: font Times-Italic
%%IncludeResource: font Times-Bold
%%IncludeResource: font Times-BoldItalic
%%IncludeResource: font Helvetica
%%IncludeResource: font Helvetica-Oblique
%%IncludeResource: font Helvetica-Bold
%%IncludeResource: font Helvetica-BoldOblique
%%IncludeResource: font Courier
%%IncludeResource: font Courier-Oblique
%%IncludeResource: font Courier-Bold
%%IncludeResource: font Courier-BoldOblique
%%IncludeResource: font Symbol
%%IncludeResource: font ZapfDingbats
/reEncode {exch findfont dup length dict begin {1 index /FID eq  {pop pop} {def} ifelse } forall /Encoding exch def currentdict end dup /FontName get exch definefont pop } def [/Times-Bold /Times-Italic /Times-BoldItalic /Helvetica /Helvetica-Oblique
 /Helvetica-Bold /Helvetica-BoldOblique /Courier /Courier-Oblique /Courier-Bold /Courier-BoldOblique /Times-Roman /AvantGarde-Book /AvantGarde-BookOblique /AvantGarde-Demi /AvantGarde-DemiOblique /Bookman-Demi /Bookman-DemiItalic /Bookman-Light
 /Bookman-LightItalic /Helvetica-Narrow /Helvetica-Narrow-Bold /Helvetica-Narrow-BoldOblique /Helvetica-Narrow-Oblique /NewCenturySchlbk-Roman /NewCenturySchlbk-Bold /NewCenturySchlbk-BoldItalic /NewCenturySchlbk-Italic /Palatino-Bold
 /Palatino-BoldItalic /Palatino-Italic /Palatino-Roman ] {ISOLatin1Encoding reEncode } forall
%%EndProlog
%%BeginSetup
%%EndSetup
newpath  gsave  .25 .25 scale  gsave  0 0 t 0.490196 0.545098 0.615686 c[  ] 0 sd 3 lw 0.941176 0.941176 0.941176 c 2268 1684 0 0 bf black 1 1 0.992157 c 1796 1145 245 202 bf black 1796 1145 245 202 bl 1 1 0.992157 c 1796 1145 245 202 bf black 1796
 1145 245 202 bl 245 202 m 1796 X s[ 4 8] 0 sd 415 1347 m -1145 Y s 605 1347 m -1145 Y s 794 1347 m -1145 Y s 984 1347 m -1145 Y s 1174 1347 m -1145 Y s 1363 1347 m -1145 Y s 1553 1347 m -1145 Y s 1743 1347 m -1145 Y s 1932 1347 m -1145 Y s 415 1347
 m -1145 Y s 1932 1347 m -1145 Y s[  ] 0 sd 245 202 m 1145 Y s[ 4 8] 0 sd 2041 202 m -1796 X s 2041 410 m -1796 X s 2041 618 m -1796 X s 2041 827 m -1796 X s 2041 1035 m -1796 X s 2041 1243 m -1796 X s 2041 1243 m -1796 X s 0 0 0.933333 c[  22 12 ] 0
 sd 6 lw 0.49 0.6 0.82 c black 0 0 0.933333 c 245 722 m 1 Y 9 X s 254 723 m 9 X s 263 723 m 8 X s 271 723 m 9 X s 280 723 m 7 X 1 Y 2 X s 289 724 m 9 X s 298 724 m 6 X 1 Y 3 X s 307 725 m 5 X 1 Y 3 X s 315 726 m 7 X 1 1 d 1 X s 324 727 m 7 X 1 Y 2 X
 s 333 728 m 2 X 1 1 d 6 X s 342 729 m 1 X 1 Y 6 X 1 Y 2 X s 351 731 m 2 X 1 Y 4 X 1 1 d 1 X s 359 733 m 3 X 1 1 d 3 X 1 1 d 1 X s 368 735 m 3 X 1 Y 6 X 1 Y s 377 737 m 6 X 1 Y 3 X s 386 738 m 1 Y 4 X 1 Y 3 X 1 Y 2 X s 395 741 m 1 X 1 Y 3 X 1 Y 2 X 1
 Y 2 X 1 Y s 403 745 m 5 X 1 Y 3 X 1 Y 1 X s 412 747 m 4 X 1 Y 3 X 1 Y 2 X s 421 749 m 2 X 1 Y 3 X 1 Y 4 X 1 Y s 430 752 m 3 X 1 Y 2 X 1 1 d 3 X s 439 754 m 1 X 1 Y 5 X 1 Y 2 X s 447 756 m 1 X 1 Y 2 X 1 Y 3 X 1 1 d 2 X s 456 759 m 1 1 d 2 X 1 Y 3 X 1
 Y 2 X 1 Y 1 X s 465 763 m 2 X 1 Y 2 X 1 1 d 2 X 1 Y 2 X s 474 766 m 2 X 1 1 d 3 X 1 1 d 2 X s 483 768 m 1 X 1 Y 3 X 1 Y 2 X 1 Y 2 X s 491 771 m 1 1 d 1 X -1 Y 1 Y 3 X 1 Y 4 X 1 Y s 500 774 m 2 X 1 Y 2 X 1 Y 4 X 1 1 d s 509 777 m 2 X 1 Y 2 X 1 Y 2 X
 1 Y 2 X 1 1 d s 518 781 m 2 X 1 Y 1 X 1 1 d -1 Y 1 Y 2 X 1 Y 1 X 1 Y -1 Y 2 X s 527 784 m 1 Y 3 X 1 Y 2 X 1 Y 1 X 1 Y 2 X s 535 788 m 1 1 d 1 X 1 1 d 3 X 1 Y 2 X 1 Y 1 X s 544 792 m 1 X 1 1 d 1 X 1 Y 1 X 1 1 d 2 X 1 Y 1 X 1 Y 1 X s 553 797 m 1 X 1 Y
 3 X 1 Y 1 X 1 Y 1 X 1 Y 1 X 1 1 d -1 Y 1 Y 1 X s 562 802 m 1 X 1 1 d 2 X 1 1 d 2 X 1 Y 2 X s 571 805 m 1 Y 1 X 1 Y 3 X 1 1 d 2 X 1 Y 1 X s 579 809 m 2 X 1 Y 1 X 1 Y 3 X 1 Y 2 X 1 Y 1 X s 588 813 m 1 X 1 Y 1 X 1 Y 2 X 1 Y 2 X 1 1 d 1 X 1 Y 1 X s 597
 818 m 1 X 1 Y 3 X 1 Y 2 X 1 Y 1 -1 d 1 X 1 Y 1 X s 606 821 m 1 Y 2 X 1 Y 3 X 1 1 d 1 X 1 Y 2 X s 615 825 m 1 1 d 2 X 1 Y 2 X 1 1 d 2 X 1 Y -1 Y s 623 828 m 1 X 1 Y -1 Y 1 1 d 1 X 1 1 d 1 X -1 Y 1 Y 3 X 1 1 d s 632 831 m 1 X 1 Y 1 X -1 Y 1 1 d 2 X 1
 Y 2 X 1 Y 2 X s 641 834 m 1 Y 2 X 1 Y 1 X 1 Y 2 X 1 Y 1 X 1 1 d 1 X 1 Y 1 X s 650 840 m 1 Y 2 X 1 Y 2 X 1 Y 2 X 1 1 d 2 X s 659 844 m 1 Y 1 X 1 Y 1 1 d 1 Y 2 X 1 1 d 2 X 1 Y 1 X s 667 850 m 1 X 1 Y -1 Y 1 1 d 1 X 1 1 d 1 X 1 Y 3 X 1 Y 1 X s 676 854
 m 1 X 1 Y 1 X 1 Y 1 X 1 Y 2 X 1 Y 2 X 1 Y 2 X s 685 859 m 1 X 1 Y 1 X 1 1 d 2 X 1 Y 1 1 d 2 X 1 Y 1 X s 694 864 m 1 Y 1 X -1 Y 1 Y -1 Y 2 X 1 Y 2 X 1 Y 1 X 1 Y 2 X 1 Y 1 X s 703 868 m -1 Y 1 X 1 Y -1 Y 1 1 d 1 X 1 Y 1 X -1 Y 2 X 1 Y 2 X 1 Y s 711
 870 m 2 X 1 Y 1 X 1 Y 3 X 1 Y 2 X 1 1 d -1 Y s 720 873 m 1 X 1 Y 1 -1 d 1 Y 1 X 1 Y 2 X 1 Y 1 X 1 Y 1 X 1 Y 1 X -1 Y 1 1 d s 729 878 m 3 X 1 Y 3 X 1 Y -1 Y 1 X 1 1 d 1 Y 1 X 1 Y s 738 882 m 1 X 1 Y 2 X 1 Y 2 X 1 Y 1 X 1 Y 2 X 1 Y 1 X s 747 887 m 1 X
 1 Y 2 X 1 Y 1 X 1 Y 1 X 1 1 d 1 X 1 1 d -1 Y s 755 891 m 1 1 d 1 -1 d 1 X 1 Y 1 X 1 Y 2 X 1 Y 2 X 1 1 d s 764 895 m 1 X 1 Y 3 X 1 Y 1 X 1 1 d 1 X 1 Y 1 X 1 Y 1 X s 773 900 m 1 X 1 Y -2 Y 2 X 1 Y 1 1 d 1 X 1 1 d 1 X 1 Y 1 X 1 1 d s 782 904 m 2 X 1 Y
 2 X 1 1 d 1 X 1 Y 2 X 1 Y 1 -1 d s 791 907 m 1 1 d 1 X -1 Y 1 Y 2 X 1 Y 2 X 1 Y 2 X s 799 910 m 1 X 1 Y 1 X 1 Y 1 X 1 Y 2 X 1 Y 1 X 1 Y 3 X 1 Y s 808 916 m 3 X 1 Y 1 X 1 1 d -1 Y 1 Y 1 X 1 Y 3 X s 817 919 m 1 X 1 Y 2 X 1 Y 2 X 1 Y 2 X 1 1 d -2 Y 1 1
 d s 826 922 m 1 X 1 Y 1 -1 d 1 1 d 1 1 d 1 X 1 Y 3 X 1 Y 1 X s 835 926 m 1 X 1 Y 1 X 1 Y 2 X 1 Y 2 X 1 Y 2 X s 843 930 m 2 X 1 Y 3 X 1 Y 1 X 1 Y 1 1 d 1 1 d 1 X 1 Y s 852 936 m 2 X 1 Y 1 X 1 1 d 1 X 1 Y 1 X 1 1 d 2 X 1 Y s 861 941 m 1 Y 1 X -1 Y 1 Y
 1 X 1 Y 4 X 1 Y 1 X 1 Y 2 X s 870 945 m 1 X 1 Y 2 X 1 Y 2 X 1 Y 2 X 1 Y 1 X -1 Y 1 X s 879 948 m 1 Y 1 X 1 1 d 1 X 1 Y 1 X 1 Y 3 X 1 Y 1 X s 887 953 m 1 X 1 Y 1 X -1 Y 1 X 1 Y 4 X 1 Y 2 X 1 Y s 896 956 m 1 X -1 Y 1 X 1 Y 1 X 1 Y 3 X 2 Y 1 X 1 Y 1 X
 -1 Y 1 Y 1 X s 905 960 m 2 X 1 Y -1 Y 1 X 1 Y 2 X 1 Y -1 Y 1 Y 3 X 1 Y 1 X s 914 963 m 1 X 1 Y 1 X 1 Y 2 X 1 Y 1 X 1 1 d 1 X 1 Y 1 X 1 Y 1 X s 923 969 m 1 1 d 2 X 1 Y 1 X 1 Y -1 Y 1 Y 1 X -1 Y 1 Y 1 X 1 Y -1 Y 1 Y 2 X s 931 973 m 1 X 1 Y 3 X -1 Y 1
 1 d 1 X 1 Y 2 X 1 Y 1 -2 d 1 Y s 940 975 m 2 X 1 Y 1 X 1 Y 1 X -1 Y 1 Y 2 X 1 Y 2 X 1 Y 1 X s 949 979 m 2 X 1 Y 2 X 1 1 d 1 Y 1 X 1 Y 1 X -1 Y 1 X 1 Y 1 X s 958 983 m 1 X 1 Y 3 X -1 Y 1 X 1 Y 1 X 2 Y 1 X 1 Y 1 X -1 Y 1 X s 967 986 m 1 X 1 Y 2 X 1 Y
 3 X 1 Y 2 X 1 Y s 975 990 m 1 X -1 Y 1 1 d 1 X 1 Y 1 X 1 -1 d -1 Y 1 X 1 Y 2 X 1 1 d s 984 991 m 3 X 1 Y 2 X 1 Y 4 X 1 Y s 993 994 m 6 X 1 Y 3 X s 1002 995 m 1 X 1 Y 2 X 1 Y 2 X 1 Y 1 X 1 Y 2 X 1 Y 1 -1 d s 1011 999 m 1 Y 3 X 1 1 d 2 X 1 Y 1 X 1 Y 1
 X s 1019 1003 m 1 X 1 1 d -1 Y 1 X 1 1 d 1 X 1 Y 1 1 d 2 X 1 Y 1 X -1 Y s 1028 1006 m 1 X 1 Y 2 X 2 Y -1 Y 1 1 d -1 Y 2 X 1 1 d 1 X 1 Y -1 Y 1 X s 1037 1009 m 1 1 d 1 Y 1 X -1 Y 1 Y 2 X 1 Y 3 X 1 Y 2 X s 1046 1013 m 1 Y 1 X -1 Y 2 X 1 1 d 2 X -1 Y 1
 X -1 Y 1 Y 1 X -1 Y 1 X s 1055 1012 m 2 X 1 Y -1 Y 2 X 1 Y 1 X 1 Y 1 X 3 Y 1 X -1 Y 1 X -1 Y s 1063 1015 m 1 1 d 1 Y 2 X -1 Y 4 X 1 Y 2 X s 1072 1017 m 3 X 1 Y 3 X 1 1 d -1 Y 1 Y 2 X -2 Y s 1081 1017 m 2 X 1 Y 3 X 1 Y 4 X s 1090 1019 m 1 Y 3 X 1 1 d
 1 X 1 Y 1 -1 d 2 X 1 Y -1 Y 1 X s 1099 1021 m 1 Y 1 -1 d 3 X -1 Y 2 X 1 Y 2 X 1 Y s 1107 1022 m 1 -1 d 1 Y 3 X 2 Y 5 X 1 Y s 1116 1025 m 2 X 1 Y 1 X -1 Y 1 X 1 -3 d 1 X -2 Y 1 X 1 Y 1 X 1 Y 1 X -2 Y s 1125 1020 m 1 Y -2 Y 1 X 1 Y 6 X 1 Y 2 X s 1134
 1021 m 1 1 d -2 Y 1 Y -1 Y 1 X 1 Y 2 X -1 Y 2 X 1 1 d 2 X s 1143 1021 m 3 X 1 Y 2 X 1 1 d 2 X s 1151 1023 m 3 X 1 Y 2 X -1 Y 2 X -1 Y 2 X s 1160 1022 m 3 X -1 Y 1 X 1 Y 5 X s 1169 1022 m 4 X 1 Y 3 X -1 Y 1 X 1 Y -1 Y 1 X s 1178 1022 m 1 Y 1 X -1 Y 1
 X -3 Y 2 X 1 Y 3 X -3 Y 2 X s 1187 1017 m 6 X 1 Y 1 X 1 Y -1 Y 1 X s 1195 1018 m 1 X 1 Y 1 X -1 Y 4 X 1 Y 3 X s 1204 1019 m 1 Y 1 X -1 Y 2 X -1 Y 1 X -1 Y 5 X s 1213 1017 m 1 X 2 Y 5 X 1 Y 2 X -1 Y 1 X s 1222 1019 m 1 X 1 -1 d -1 Y 1 1 d 1 X -1 Y 2
 X -1 Y 1 X 1 Y -1 Y 1 X 1 Y 1 X s 1231 1017 m 1 X -2 Y 3 X -1 Y 1 X 1 -1 d 1 X -1 Y 1 X s 1239 1012 m 1 X -3 Y 2 X 3 Y 1 X -2 Y 1 X -1 Y 2 X 1 -1 d 1 Y 1 X s 1248 1009 m 1 X -1 Y 1 X 1 Y 5 X 1 Y 1 X -1 Y 1 X s 1257 1009 m 4 X 1 Y 2 X 1 Y 2 X -1 Y 1
 X -2 Y s 1266 1008 m 1 X -1 Y 1 X -2 Y 1 X 1 Y 1 -1 d 3 X -1 Y 2 X s 1275 1004 m 1 X 1 -1 d 1 X 2 Y 2 X -1 Y 2 X -1 Y 1 Y 1 -1 d s 1283 1003 m 2 X -1 Y 1 X 1 Y 5 X -1 Y 1 X s 1292 1002 m 1 -1 d 1 1 d 1 -2 d 2 X 1 Y 2 X 1 2 d 1 X s 1301 1003 m 1 X -1
 Y 1 X -1 Y 1 -1 d -1 Y 3 X 1 Y 3 X -1 Y s 1310 999 m 6 X 1 Y 1 X -1 Y 2 X s 1319 999 m 2 Y 6 X -1 Y 1 X -1 Y 1 X s 1327 999 m 1 X -2 Y 2 X -1 Y 3 X -2 Y 1 X -1 Y 1 1 d -1 Y 1 X -1 Y s 1336 992 m 1 X -1 Y 2 X 1 Y 1 X 1 -1 d 1 -2 d 3 X -1 Y s 1345 988
 m 1 X 1 Y 3 X -1 Y 1 X 1 Y 1 -1 d 3 X s 1354 988 m 1 X -1 Y 1 X 1 Y 1 X -1 Y 2 X -1 Y 1 X 1 Y 1 X 1 1 d 1 X s 1363 988 m 1 -1 d -1 Y 1 X 1 Y -1 Y 1 X 1 Y 1 -1 d 2 X 1 Y 1 X -2 Y 1 X -1 Y 1 Y s 1371 985 m 2 X 1 Y 1 X 1 -1 d 1 Y 1 X -1 Y 2 X -1 Y 1 X
 -1 Y 1 X s 1380 983 m 1 -1 d 1 Y 1 X -5 Y 1 X 1 Y 2 X -1 Y 1 X 1 Y 1 -1 d 1 Y 1 -2 d 1 X 1 Y s 1389 978 m 2 X 1 -5 d 3 X 1 Y 3 X -1 Y s 1398 973 m 1 X 1 -1 d 4 X -2 Y 1 X 1 Y 1 X -1 Y 1 X s 1407 970 m 1 X -1 Y 3 X -1 Y 2 Y -1 Y 1 X -2 Y 1 X -1 Y 2 X
 -1 Y s 1415 965 m 3 X 1 -1 d 1 X -1 Y 3 X -1 Y 1 X s 1424 962 m 1 X -3 Y 1 X -5 Y 1 X -1 Y 1 Y 1 X -1 Y 3 X -1 Y 2 X s 1433 952 m 1 X 1 Y 1 -1 d 2 X -1 Y 2 X -1 Y 1 X -1 Y 1 X -2 Y 1 X s 1442 947 m 1 X -1 Y 1 X -1 Y 1 X -1 Y 1 Y 1 X -1 Y 1 X -1 Y 2
 X -2 Y 1 X -1 Y 1 X s 1451 940 m 1 Y 3 X -1 Y 1 X 1 -1 d 3 X -2 Y s 1459 937 m 1 X -2 Y 3 X -1 Y 1 Y 2 X 1 Y 1 -1 d 1 X -1 Y 10 Y 1 -1 d s 1468 943 m 1 1 d -1 Y 3 X -1 Y 1 X 1 -2 d -2 Y 2 X 1 -1 d s 1477 937 m 1 -1 d -1 Y 1 X 1 Y 1 X -2 Y 1 -1 d 1 X
 1 Y 1 -3 d 2 X -1 Y 1 1 d s 1486 931 m 1 -1 d 1 Y 1 -2 d -1 Y 1 -2 d 3 X 1 Y -2 Y 1 X -1 Y 1 X -3 Y 1 X s 1495 921 m 1 Y -1 Y 1 X -1 Y 1 Y 1 X -1 Y 3 X 4 Y 1 X -1 Y 1 -1 d -2 Y 1 X -4 Y s 1503 916 m 1 X -2 Y 2 X -1 Y 1 -2 d -2 Y 1 X -1 Y 1 X -2 Y 1
 X -1 Y 1 X 1 Y -1 Y 1 X 1 Y -2 Y s 1512 904 m 1 X -3 Y 1 Y 1 X 1 Y -1 Y 1 X -2 Y 1 X -1 Y 1 X -2 Y 1 -1 d 1 Y -1 Y 1 X -2 Y 1 X -1 Y 1 X -1 Y s 1521 892 m 1 X 1 -1 d -1 Y 1 X -2 Y 2 X -1 Y 1 X -1 Y 1 X -2 Y 2 X s 1530 884 m 1 X -1 Y 1 X -1 Y 1 X -1
 Y 1 X -1 Y 1 1 d -4 Y 1 1 d -1 Y 2 X -5 Y 1 X -2 Y s 1539 870 m 1 X -1 Y 1 X 1 -1 d -1 Y 1 -1 d 1 -1 d -1 Y 1 -1 d -3 Y 2 X s 1547 860 m 1 X -5 Y 1 X -3 Y 1 X -1 Y 1 X -1 Y 1 X -1 Y 1 X 1 -1 d -2 Y 1 X 1 -1 d -2 Y s 1556 843 m -1 Y 1 -1 d -1 Y 2 Y 1
 -1 d -1 Y 1 X -1 Y 1 -1 d -1 Y 1 X -1 Y 1 Y -1 Y 1 1 d -1 Y 1 -2 d -2 Y 2 X s 1565 832 m 2 X 1 -2 d 1 X -1 Y 1 X -2 Y 1 X -4 Y 1 X -1 Y 1 -3 d 1 X s 1574 819 m -4 Y 1 X -1 Y 1 -1 d -4 Y 1 -1 d -2 Y 1 X -2 Y 1 X -2 Y 5 Y 1 X -3 Y 1 Y 1 -2 d 1 -2 d -1
 Y 1 1 d s 1583 801 m -2 Y 1 X -2 Y 1 -1 d -1 Y 1 Y 1 -1 d -3 Y 1 X -3 Y 1 -1 d -3 Y 1 -1 d -1 Y 1 1 d -2 Y 1 X -4 Y s 1591 778 m 1 X -7 Y 1 -1 d -4 Y 1 -1 d -1 Y 1 -1 d -3 Y 1 X 1 Y -2 Y 1 X -2 Y 1 X -1 Y 1 X -2 Y 1 X -2 Y s 1600 752 m 1 X -2 Y 1 X
 -3 Y 1 -1 d 1 Y 1 -1 d -1 Y 1 X -2 Y 1 -1 d 1 -1 d -1 Y 1 X -2 Y 1 X -1 Y s 1609 737 m -1 Y 1 X -3 Y 1 X -2 Y 1 -1 d -1 Y 1 -1 d -4 Y 1 -1 d -4 Y 1 X 1 -1 d -1 Y 1 -3 d -1 Y 1 -1 d -2 Y s 1618 710 m 1 -2 d -2 Y 1 X -2 Y 1 -2 d -2 Y 1 -1 d -1 Y 1 X
 -5 Y 1 -1 d -3 Y 1 -2 d -6 Y 1 X -2 Y 1 -1 d -1 Y s 1627 677 m -1 Y 1 -2 d -3 Y 1 Y 1 -1 d -3 Y 1 -1 d -1 Y 1 Y -1 Y 1 1 d -2 Y 1 X -2 Y 1 -1 d -4 Y 1 X -3 Y 1 X -2 Y s 1635 653 m 1 -1 d 1 Y -2 Y 1 1 d -3 Y 1 -2 d -4 Y 1 -2 d -2 Y 1 -1 d -2 Y 1 -1 d
 -4 Y 1 -2 d -2 Y 1 1 d -3 Y 1 -2 d -1 Y s 1644 622 m 1 -1 d -4 Y 1 X -2 Y 2 X -5 Y 1 X -2 Y 1 Y 1 -2 d -1 Y 1 X -1 Y 1 X -3 Y 1 X -3 Y s 1653 599 m -2 Y 1 -1 d -1 Y 1 X -2 Y 1 X -2 Y 1 -1 d -4 Y 1 1 d -2 Y 1 -1 d -2 Y 1 X -2 Y 1 -1 d -2 Y 1 -1 d -1
 Y s 1662 575 m 1 Y 1 X -3 Y 1 X -1 Y 1 X -2 Y 1 Y 1 X -2 Y 1 -1 d -2 Y 1 X -2 Y 1 -1 d -2 Y 1 -1 d -2 Y 1 -1 d s 1671 557 m -2 Y 1 -1 d -3 Y 1 -1 d -6 Y 1 X -3 Y 1 X -4 Y 1 Y 1 -1 d -2 Y 1 X -2 Y 1 -2 d -4 Y 1 X -1 Y s 1679 526 m 1 -3 d -2 Y 1 X -2
 Y 1 -1 d -7 Y 1 X -1 Y 1 X -2 Y 1 X -1 Y 1 X -7 Y 1 X -1 Y 1 X -1 Y s 1688 498 m -2 Y 1 X -1 Y 1 X -3 Y 1 X -1 Y 1 -1 d -3 Y 1 -1 d -1 Y 1 X -2 Y 1 -2 d -1 Y 1 X -1 Y 2 Y 1 1 d -1 Y s 1697 481 m -1 Y 1 X -2 Y 1 X -1 Y 1 X -2 Y 1 -1 d -3 Y 1 X -2 Y 1
 1 d -1 Y 1 -2 d -3 Y 1 X -2 Y 1 X -1 Y s 1706 461 m -1 Y 1 X -3 Y 1 -1 d 1 -1 d -4 Y 1 -1 d -2 Y 1 X -1 Y 1 Y 1 X -5 Y 1 -1 d -2 Y 1 X -2 Y 1 -2 d -1 Y s 1715 435 m -1 Y 1 1 d -1 Y 1 -1 d -2 Y 1 X -2 Y 1 X -3 Y 1 X -3 Y 1 X -2 Y 1 1 d -2 Y 1 -3 d -1
 Y s 1723 416 m 1 X -1 Y 1 -1 d -4 Y 1 X -1 Y 1 X -2 Y 1 -1 d -1 Y 1 -1 d -2 Y 1 -1 d -1 Y 1 -2 d -3 Y 1 X s 1732 395 m -1 Y 1 X 1 Y -1 Y 1 X -2 Y 1 -1 d -4 Y 1 X -1 Y 1 -2 d 1 X -4 Y 1 X -2 Y 1 -1 d -4 Y 1 X -1 Y s 1741 372 m -1 Y 1 X -2 Y 1 X -4 Y
 1 -1 d -2 Y 1 X -2 Y 1 X -2 Y 1 -1 d -1 Y 2 X -1 Y 1 X s 1750 355 m -2 Y 1 X -1 Y 2 X -2 Y 1 X -3 Y 1 -1 d -1 Y 1 X -2 Y 1 X -1 Y 1 X -1 Y 1 -1 d s 1759 340 m -1 Y 1 X -3 Y 1 -1 d -3 Y 1 X -1 Y 1 X -4 Y 1 -1 d -1 Y 1 X -2 Y 1 X 1 -1 d -2 Y s 1767
 320 m 1 -1 d 1 -4 d -2 Y 1 -1 d 1 -1 d -1 Y 1 -1 d -1 Y 1 1 d -2 Y 1 X -1 Y 1 X -3 Y 1 X -2 Y s 1776 301 m 1 -1 d -2 Y 2 X -2 Y 1 X -3 Y 2 X -4 Y 1 -1 d 1 Y -1 Y 2 X -2 Y s 1785 286 m 1 -1 d -1 Y 1 X -4 Y 1 X -1 Y 1 X -2 Y 1 X -2 Y 1 X 1 -1 d -3 Y 1
 X -1 Y 1 X -1 Y s 1794 269 m 2 X -2 Y 1 X -1 Y 1 X -1 Y 1 X -2 Y 1 1 d -1 Y 1 -1 d 1 Y 1 X -1 Y 1 X s 1803 262 m -1 Y 1 -1 d -2 Y 1 X -1 Y 5 X -1 Y 1 X 1 -1 d s 1812 255 m -1 Y 2 X -1 Y 1 X -2 Y 1 X -1 Y 1 X -2 Y 1 X 1 -1 d 1 X -1 Y s 1820 246 m -1
 Y 1 X 1 -1 d 1 -1 d 1 X -1 Y 1 -1 d 1 X -1 Y 1 X -2 Y 1 Y -2 Y 1 X -2 Y 1 X s 1829 235 m 1 -1 d 1 X -1 Y 1 X -1 Y 1 Y 1 -1 d 1 Y 1 X 1 -1 d 1 -1 d 1 Y 2 X s 1838 232 m 1 X -1 Y 1 X -1 Y 2 X -1 Y 1 X -1 Y 1 X -1 Y 2 X -1 Y 1 X s 1847 226 m 1 -1 d 1 X
 -1 Y 3 X -1 Y 1 X -1 Y 3 X s 1856 222 m 1 X -1 Y 4 X -1 Y 1 X -1 Y 1 X -2 Y 1 X -1 Y s 1864 216 m 4 X -1 Y 2 X -1 Y 3 X s 1873 214 m 1 X -1 Y 2 X -1 Y 1 X 1 -1 d 1 Y -1 Y 3 X 1 1 d s 1882 212 m 1 X -1 Y 2 X 1 Y -1 Y 4 X 1 -1 d 1 X s 1891 210 m 2 X
 -1 Y 7 X s 1900 209 m 3 X -1 Y 5 X -1 Y s 1908 207 m 6 X -1 Y 3 X s 1917 206 m 5 X -1 Y 4 X s 1926 205 m 9 X s 1935 205 m 1 X 1 -1 d 7 X s 1944 204 m 7 X -1 Y 1 X s 1952 203 m 9 X s 1961 203 m 9 X s 1970 203 m 9 X s 1979 203 m 9 X s 1988 203 m 7 X
 -1 Y 1 X s 1996 202 m 9 X s 2005 202 m 9 X s 2014 202 m 9 X s 2023 202 m 9 X s 2032 202 m 8 X s 2040 202 m 1 X s black[  ] 0 sd 3 lw 245 202 m 1796 X s 415 242 m -40 Y s 463 222 m -20 Y s 510 222 m -20 Y s 557 222 m -20 Y s 605 242 m -40 Y s 652 222
 m -20 Y s 700 222 m -20 Y s 747 222 m -20 Y s 794 242 m -40 Y s 842 222 m -20 Y s 889 222 m -20 Y s 937 222 m -20 Y s 984 242 m -40 Y s 1032 222 m -20 Y s 1079 222 m -20 Y s 1126 222 m -20 Y s 1174 242 m -40 Y s 1221 222 m -20 Y s 1269 222 m -20 Y s
 1316 222 m -20 Y s 1363 242 m -40 Y s 1411 222 m -20 Y s 1458 222 m -20 Y s 1506 222 m -20 Y s 1553 242 m -40 Y s 1601 222 m -20 Y s 1648 222 m -20 Y s 1695 222 m -20 Y s 1743 242 m -40 Y s 1790 222 m -20 Y s 1838 222 m -20 Y s 1885 222 m -20 Y s
 1932 242 m -40 Y s 415 242 m -40 Y s 368 222 m -20 Y s 320 222 m -20 Y s 273 222 m -20 Y s 1932 242 m -40 Y s 1980 222 m -20 Y s 2027 222 m -20 Y s
 gsave  2268 1684 0 0 C 383.009 128.934 t 0 r /Helvetica-Bold findfont 64.4669 sf 0 0 m (0.8) show NC gr 
 gsave  2268 1684 0 0 C 352.672 128.934 t 0 r /Symbol findfont 64.4669 sf 0 0 m (-) show NC gr 
 gsave  2268 1684 0 0 C 572.617 128.934 t 0 r /Helvetica-Bold findfont 64.4669 sf 0 0 m (0.6) show NC gr 
 gsave  2268 1684 0 0 C 542.28 128.934 t 0 r /Symbol findfont 64.4669 sf 0 0 m (-) show NC gr 
 gsave  2268 1684 0 0 C 762.226 128.934 t 0 r /Helvetica-Bold findfont 64.4669 sf 0 0 m (0.4) show NC gr 
 gsave  2268 1684 0 0 C 731.888 128.934 t 0 r /Symbol findfont 64.4669 sf 0 0 m (-) show NC gr 
 gsave  2268 1684 0 0 C 951.834 128.934 t 0 r /Helvetica-Bold findfont 64.4669 sf 0 0 m (0.2) show NC gr 
 gsave  2268 1684 0 0 C 921.497 128.934 t 0 r /Symbol findfont 64.4669 sf 0 0 m (-) show NC gr 
 gsave  2268 1684 0 0 C 1152.82 128.934 t 0 r /Helvetica-Bold findfont 64.4669 sf 0 0 m (0) show NC gr 
 gsave  2268 1684 0 0 C 1315.88 128.934 t 0 r /Helvetica-Bold findfont 64.4669 sf 0 0 m (0.2) show NC gr 
 gsave  2268 1684 0 0 C 1505.49 128.934 t 0 r /Helvetica-Bold findfont 64.4669 sf 0 0 m (0.4) show NC gr 
 gsave  2268 1684 0 0 C 1695.1 128.934 t 0 r /Helvetica-Bold findfont 64.4669 sf 0 0 m (0.6) show NC gr 
 gsave  2268 1684 0 0 C 1884.71 128.934 t 0 r /Helvetica-Bold findfont 64.4669 sf 0 0 m (0.8) show NC gr 
 gsave  2268 1684 0 0 C 868.406 30.3373 t 0 r /Helvetica-Bold findfont 72.0512 sf 0 0 m (Cut value applied on BDTF output) show NC gr  245 202 m 1145 Y s 291 202 m -46 X s 268 254 m -23 X s 268 306 m -23 X s 268 358 m -23 X s 291 410 m -46 X s 268
 462 m -23 X s 268 514 m -23 X s 268 566 m -23 X s 291 618 m -46 X s 268 670 m -23 X s 268 722 m -23 X s 268 775 m -23 X s 291 827 m -46 X s 268 879 m -23 X s 268 931 m -23 X s 268 983 m -23 X s 291 1035 m -46 X s 268 1087 m -23 X s 268 1139 m -23 X
 s 268 1191 m -23 X s 291 1243 m -46 X s 291 1243 m -46 X s 268 1295 m -23 X s 268 1347 m -23 X s
 gsave  2268 1684 0 0 C 182.024 178.232 t 0 r /Helvetica-Bold findfont 64.4669 sf 0 0 m (0) show NC gr 
 gsave  2268 1684 0 0 C 128.934 386.801 t 0 r /Helvetica-Bold findfont 64.4669 sf 0 0 m (0.2) show NC gr 
 gsave  2268 1684 0 0 C 128.934 595.37 t 0 r /Helvetica-Bold findfont 64.4669 sf 0 0 m (0.4) show NC gr 
 gsave  2268 1684 0 0 C 128.934 800.148 t 0 r /Helvetica-Bold findfont 64.4669 sf 0 0 m (0.6) show NC gr 
 gsave  2268 1684 0 0 C 128.934 1008.72 t 0 r /Helvetica-Bold findfont 64.4669 sf 0 0 m (0.8) show NC gr 
 gsave  2268 1684 0 0 C 189.608 1217.29 t 0 r /Helvetica-Bold findfont 64.4669 sf 0 0 m (1) show NC gr 
 gsave  2268 1684 0 0 C 64.4669 735.681 t 90 r /Helvetica-Bold findfont 72.0512 sf 0 0 m (Efficiency \(Purity\)) show NC gr  0 0 0.933333 c[  52 12 ] 0 sd 6 lw 0.49 0.6 0.82 c black 0 0 0.933333 c 245 722 m 1 Y 9 X s 254 723 m 9 X s 263 723 m 8 X s
 271 723 m 9 X s 280 723 m 7 X 1 Y 2 X s 289 724 m 9 X s 298 724 m 6 X 1 Y 3 X s 307 725 m 5 X 1 Y 3 X s 315 726 m 7 X 1 1 d 1 X s 324 727 m 7 X 1 Y 2 X s 333 728 m 2 X 1 1 d 6 X s 342 729 m 1 X 1 Y 6 X 1 Y 2 X s 351 731 m 2 X 1 Y 4 X 1 1 d 1 X s 359
 733 m 3 X 1 1 d 3 X 1 1 d 1 X s 368 735 m 3 X 1 Y 6 X 1 Y s 377 737 m 6 X 1 Y 3 X s 386 738 m 1 Y 4 X 1 Y 3 X 1 Y 2 X s 395 741 m 1 X 1 Y 3 X 1 Y 2 X 1 Y 2 X 1 Y s 403 745 m 5 X 1 Y 3 X 1 Y 1 X s 412 747 m 4 X 1 Y 3 X 1 Y 2 X s 421 749 m 2 X 1 Y 3 X
 1 Y 4 X 1 Y s 430 752 m 3 X 1 Y 2 X 1 1 d 3 X s 439 754 m 1 Y 4 X 1 Y 4 X s 447 756 m 1 1 d 1 X 1 1 d 3 X 1 Y 3 X s 456 759 m 1 Y 2 X 1 Y 4 X 1 Y 2 X 1 Y 1 X s 465 763 m 1 X 1 Y 3 X 1 Y 2 X 1 Y 3 X s 474 766 m 1 Y 6 X 1 Y 3 X s 483 768 m 1 X 1 Y 3 X
 1 Y 1 X 1 1 d 2 X 1 Y s 491 772 m 3 X 1 Y 4 X 1 Y 2 X s 500 774 m 1 X 1 Y 2 X 1 Y 4 X 1 Y 2 X s 509 777 m 1 X 1 Y 2 X 1 Y 2 X 1 Y 2 X 1 1 d 1 X s 518 781 m 1 X 1 Y 2 X 1 Y 1 X 1 Y 3 X 2 Y -1 Y 1 X 1 Y 1 X s 527 786 m 2 X 1 Y 3 X 1 Y 1 X 1 Y 2 X 1 Y
 s 535 790 m 2 X 1 Y 3 X 1 Y 2 X 1 1 d 1 X s 544 793 m 1 X 1 Y 2 X 1 Y 2 X 1 Y 2 X 1 Y 1 X 1 Y 1 X s 553 798 m 1 X 1 Y 3 X 1 Y 1 X 1 Y 1 X 1 Y 2 X 1 Y 1 X s 562 803 m 1 X 1 Y 2 X 1 Y 3 X 1 Y 3 X s 571 806 m 1 Y 1 X 1 Y 2 X 1 Y 2 X 1 Y 3 X 1 Y s 579
 811 m 2 X 1 Y 2 X 1 1 d 2 X 1 Y 1 X 1 1 d s 588 815 m 1 X 1 Y 1 X 1 1 d 2 X 1 Y 2 X 1 Y 2 X 1 Y s 597 820 m 1 X 1 Y 3 X 1 Y 2 X 1 Y 1 -1 d 1 Y 1 X 1 Y 1 X s 606 824 m 1 X 1 Y 2 X 1 1 d 2 X 1 Y 1 X 1 1 d 1 X s 615 828 m 1 X 1 Y 2 X 1 Y 2 X 1 Y 2 X 1
 Y 1 X s 623 832 m 2 X 1 Y 2 X 1 Y 3 X 1 Y 2 X 1 Y s 632 836 m 1 X 1 Y 3 X 1 Y 2 X 1 Y 2 X 1 1 d s 641 840 m 1 X 1 1 d 1 Y 2 X 1 Y 2 X 1 Y 2 X 1 Y 1 X 1 Y s 650 846 m 1 X 1 Y 2 X 1 Y 3 X 1 Y 2 X 1 Y 1 X s 659 850 m 1 Y 1 X 1 Y 1 X 1 Y 1 1 d 2 X 1 Y 2
 X 1 Y 1 X s 667 856 m 1 X 1 1 d 1 X 1 1 d 1 X 1 Y 3 X 1 Y 1 X s 676 860 m 1 X 1 Y 1 X 1 Y 1 X 1 Y 2 X 1 Y 2 X 1 Y 2 X s 685 865 m 1 Y 2 X 1 1 d 1 Y 2 X 1 Y 1 X 1 Y 2 X 1 Y 1 X s 694 871 m 1 X 1 Y -1 Y 1 1 d 2 X 1 Y 1 X 1 1 d 1 X 1 1 d 1 X s 703 875
 m 1 X 1 Y 1 X 1 Y 4 X 1 Y 1 X 1 Y 1 X s 711 879 m 1 X 1 Y 1 X 1 Y 2 X 1 Y 3 X 1 Y 2 X 1 Y s 720 884 m 2 X 1 Y 1 X 1 Y 2 X 1 Y 1 X 1 Y 1 X 1 Y 2 X s 729 889 m 1 X 1 Y 2 X 1 Y 1 X 1 1 d 1 X 1 1 d 1 X 2 Y 1 X s 738 895 m 1 Y 2 X 1 Y 2 X 1 Y 2 X 1 Y 1 X
 1 Y 2 X s 747 900 m 1 Y 1 X 1 1 d 1 X 1 Y 1 X 1 Y 1 X 1 1 d 1 X 1 Y 1 X s 755 906 m 1 X 1 1 d 1 X 1 Y 1 X 1 Y 2 X 1 Y 2 X 1 Y 1 X s 764 911 m 1 X 1 Y 2 X 1 Y 1 X 1 Y 2 X 1 Y 1 X 1 Y 2 X 1 Y s 773 917 m 2 X 1 Y 2 X 1 Y 2 X 1 Y 1 X 1 1 d 1 X 1 Y s 782
 922 m 2 X 1 Y 2 X 1 Y 1 X 1 Y 2 X 1 1 d 1 X s 791 926 m 1 1 d 2 X 1 Y 1 X 1 1 d 1 X 1 Y 2 X s 799 930 m 1 X 1 Y 1 X 1 Y 1 X 1 Y 2 X 1 Y 1 X 1 Y 1 X 1 Y 2 X s 808 936 m 1 X 1 Y 3 X 1 Y 1 X 1 Y 1 X 1 Y 3 X s 817 940 m 1 X 1 Y 1 X 1 1 d 1 Y 4 X 1 Y 1 X
 1 Y 1 X s 826 945 m 1 X 1 Y 1 X 1 1 d 1 1 d 1 X 1 Y -1 Y 1 Y 2 X 1 1 d 1 X s 835 950 m 1 Y 2 X 1 Y 1 X 1 Y 1 X 1 Y 2 X 1 Y 2 X s 843 955 m 2 X 1 Y 1 X 1 Y -1 Y 1 1 d 1 X 1 Y 1 X 1 Y 1 1 d 1 Y 2 X 1 Y s 852 962 m 1 X 1 Y 2 X 1 Y 1 X 1 1 d 1 1 d 1 X 1
 Y 2 X s 861 967 m 1 Y 1 X 1 Y 1 X 1 Y 3 X 1 1 d 1 X 1 Y 2 X s 870 972 m 1 Y 3 X 1 Y 2 X 1 Y 1 X 1 Y 1 X 1 1 d -1 Y 1 Y 1 X s 879 977 m 1 X 1 Y 1 X 1 Y 1 X 1 Y 2 X 1 1 d 2 X 1 Y s 887 982 m 3 X 1 Y 2 X 1 Y 3 X 1 Y 1 X 1 Y s 896 986 m 2 X 1 Y 2 X 1 1
 d 1 X 1 Y 1 X 1 Y 1 1 d -1 Y 1 Y 1 X s 905 991 m 1 X 1 Y 2 X 1 Y 1 X 1 Y 2 X 1 Y 1 X 1 1 d 1 X s 914 996 m 1 Y 1 X 1 Y 2 X 1 Y 1 X 1 Y 1 X 1 1 d 1 X 1 Y 2 X s 923 1002 m 1 Y 1 X 1 Y 2 X 1 Y 1 X 1 Y 2 X 2 Y 2 X s 931 1008 m 1 1 d 3 X 1 Y 1 X 1 1 d 1
 X 1 Y 2 X 1 Y s 940 1013 m 2 X 1 Y 1 X 1 Y 3 X 1 Y 1 X 1 1 d 1 X s 949 1017 m 1 Y 2 X 1 Y 1 X 1 Y -1 Y 1 Y 2 X 1 Y 1 X 1 Y 1 X 1 Y 2 X 1 Y s 958 1024 m 1 X 1 1 d 3 X 1 Y 1 X 2 Y 1 X 1 Y 2 X s 967 1029 m 2 X 1 Y 1 X 1 Y 3 X 1 Y 2 X 1 Y s 975 1033 m 1
 X 1 1 d 1 X 1 Y 3 X 1 Y 1 X 1 1 d 1 X s 984 1037 m 2 X 1 Y 1 X 1 Y 2 X 1 Y 2 X 1 Y 2 X s 993 1041 m 1 Y 3 X 1 Y 1 X 1 Y 2 X 1 Y 2 X 1 1 d s 1002 1046 m 1 X 1 Y 2 X 1 1 d 1 X 1 Y 1 X 1 Y 2 X 1 Y 1 X s 1011 1051 m 1 Y 3 X 1 Y 2 X 1 Y 2 X 1 Y 1 X 1 Y s
 1019 1056 m 3 X 1 1 d 1 X 1 Y 2 X 1 Y 1 X 1 Y 1 X -1 Y 1 Y s 1028 1060 m 1 X 1 Y 2 X 1 Y 3 X 1 Y 2 X 1 Y 1 X s 1037 1064 m 1 X 1 Y 1 X 1 Y 1 X 1 Y 2 X 1 Y 2 X 1 1 d 1 X s 1046 1069 m 1 X 1 Y 2 X 1 Y 3 X 1 Y 3 X s 1055 1072 m 1 X 1 1 d 2 X 1 Y 1 X 1
 Y 1 X 2 Y 2 X s 1063 1077 m 1 X 2 Y 5 X 1 Y 2 X 1 1 d s 1072 1081 m 3 X 1 Y 2 X 1 Y 4 X 1 Y -1 Y s 1081 1083 m 1 X 1 Y 4 X 1 Y 2 X 1 Y 2 X s 1090 1086 m 1 X 1 Y 4 X 1 Y 2 X 1 Y 2 X s 1099 1089 m 1 Y 6 X 1 1 d 1 X 1 Y s 1107 1092 m 1 -1 d 1 Y 2 X 1 Y
 1 X 1 Y 2 X 1 1 d 2 X 1 Y s 1116 1096 m 2 X 1 Y 5 X 1 Y 2 X s 1125 1098 m 1 X 1 Y 4 X 1 Y 3 X 1 Y 1 X s 1134 1101 m 3 X 1 Y 5 X 1 Y 1 X s 1143 1103 m 1 X 1 Y 2 X 1 Y 1 X 1 Y 4 X s 1151 1106 m 2 X 1 1 d 1 X 1 Y 5 X 1 Y s 1160 1109 m 5 X 1 Y 4 X s
 1169 1110 m 1 X 1 Y 6 X 1 Y -1 Y 1 X 2 Y 1 X s 1178 1113 m 3 X 1 1 d 5 X s 1187 1114 m 6 X 1 Y 2 X s 1195 1115 m 1 1 d 3 X 1 Y 2 X 1 Y 3 X s 1204 1118 m 1 Y 6 X 1 Y 3 X s 1213 1120 m 1 X 2 Y 4 X 1 Y 4 X s 1222 1123 m 1 1 d 5 X 1 Y -1 Y 1 Y 2 X 1 Y 1
 X s 1231 1126 m 8 X 1 Y s 1239 1127 m 1 X -1 Y 1 X 1 Y 1 X 1 Y 6 X s 1248 1128 m 2 X 1 Y 2 X 1 Y 3 X 1 Y 2 X s 1257 1131 m 2 X 1 Y 5 X 1 Y 2 X -1 Y s 1266 1132 m 1 X 1 Y 4 X 1 1 d -1 Y 1 Y 1 X -1 Y 1 1 d 1 X s 1275 1134 m 4 X 1 Y 4 X s 1283 1135 m 1
 X 1 Y 1 X -1 Y 1 X 2 Y 6 X s 1292 1137 m 1 X 1 Y 4 X 1 Y 2 X 1 Y 1 2 d 1 X s 1301 1142 m 6 X 1 Y 3 X 1 Y s 1310 1144 m 5 X 1 1 d 3 X s 1319 1145 m 1 X 1 1 d 6 X s 1327 1146 m 9 X s 1336 1146 m 3 X 1 Y 6 X s 1345 1147 m 1 X 1 Y 4 X 1 Y 4 X s 1354
 1149 m 1 X 1 Y 6 X 1 2 d -1 Y 1 X s 1363 1151 m 1 Y 7 X 1 Y 1 X s 1371 1153 m 4 X 1 Y 1 X -1 Y 1 Y 4 X s 1380 1154 m 6 X 1 Y 3 X s 1389 1155 m 4 X 1 Y 4 X 1 1 d -1 Y s 1398 1156 m 1 1 d 4 X 1 Y 4 X s 1407 1158 m 1 X 1 1 d 5 X 1 Y 1 X s 1415 1160 m 3
 X 1 1 d 5 X s 1424 1161 m 2 X -1 Y 2 X 1 Y 3 X 1 Y 2 X s 1433 1162 m 2 X 1 Y 7 X s 1442 1163 m 8 X 1 Y -1 Y 1 X s 1451 1163 m 1 Y 6 X 1 1 d 1 X -1 Y s 1459 1164 m 5 X 1 Y 3 X 2 Y 1 X s 1468 1167 m 3 X 1 Y 3 X -1 Y 3 X s 1477 1167 m 2 X 1 Y 6 X 1 Y 1
 X s 1486 1169 m 2 X -1 Y 1 X 1 Y 6 X s 1495 1169 m 1 X 1 Y 7 X s 1503 1170 m 8 X 1 Y 1 X s 1512 1171 m 2 X 1 Y 3 X 1 Y -1 Y 1 X 1 Y 3 X s 1521 1173 m 8 X 1 Y 1 X s 1530 1174 m 8 X 1 Y 1 X s 1539 1175 m 6 X -1 Y 1 X 1 1 d 1 Y s 1547 1176 m 1 X -1 Y 2
 X 1 Y 6 X s 1556 1176 m 1 X 1 Y 8 X s 1565 1177 m 1 X 1 Y 3 X 1 1 d 4 X s 1574 1179 m 9 X s 1583 1179 m 1 1 d -1 Y 1 Y -1 Y 1 Y 1 -1 d 1 X 1 Y 1 X -1 Y 2 X 1 1 d 1 Y -1 Y 1 X s 1591 1180 m 3 X -1 Y 1 Y 2 X 1 Y 4 X 1 Y s 1600 1182 m 9 X s 1609 1182 m
 7 X 1 Y 2 X 2 Y s 1618 1185 m 7 X -1 Y 2 X s 1627 1184 m 4 X 1 1 d 3 X s 1635 1185 m 4 X -1 Y 1 Y 1 -1 d 2 X 1 Y 1 1 d 1 -1 d s 1644 1185 m 9 X 2 Y s 1653 1187 m -1 Y 2 X 1 1 d -1 Y 6 X s 1662 1186 m 2 X 1 Y 2 X -1 Y 1 X 1 Y -1 Y 2 Y 4 X s 1671 1188
 m -1 Y 1 X 1 Y 1 X -1 Y 2 X 4 Y 1 X 1 Y 1 X -1 Y 1 X 1 1 d s 1679 1192 m 1 -1 d 2 X 1 Y -1 Y 6 X s 1688 1191 m 7 X -1 Y 1 Y -1 Y 1 1 d -1 Y 1 Y 1 1 d s 1697 1192 m 7 X -1 Y 2 X s 1706 1191 m 1 X -1 Y 5 X -1 Y 2 X 1 -1 d s 1715 1188 m 3 X 1 Y 3 X 1 1
 d 1 X s 1723 1190 m 2 X 1 Y -1 Y 3 X 1 Y 1 X -1 Y 1 Y 1 -1 d 1 Y 1 -1 d 1 X s 1732 1190 m 1 X 1 Y 1 X -1 Y 2 X 1 Y 1 X -1 Y 1 X 1 -1 d 1 X -1 Y 1 X s 1741 1188 m -1 Y 1 X 1 Y 1 X 1 Y 1 -1 d 1 X 1 Y -1 Y 1 X 1 -1 d 1 X 5 Y 2 X 1 Y s 1750 1193 m 2 X 1
 Y 1 X -1 Y 1 X 2 Y 1 X 1 -1 d 1 Y 2 X 1 -1 d 1 Y s 1759 1195 m -1 Y 1 X 2 Y -1 Y 1 X -1 Y 2 X -1 Y 1 -1 d 1 Y -1 Y 1 Y -1 Y 1 3 d -1 Y 1 Y 1 X -1 Y 1 X s 1767 1194 m 1 -1 d 1 Y -1 Y 1 -1 d 1 X -1 Y 1 X 1 -1 d 3 Y 3 X -2 Y 1 X 2 Y -1 Y 1 Y s 1776
 1193 m 1 -1 d 3 X -1 Y 1 X -1 Y 3 Y 1 X -2 Y 1 X 1 1 d 1 -1 d s 1785 1191 m 1 2 d -1 Y 1 X -2 Y 1 X -1 Y 1 Y 1 X -1 Y 1 X -1 Y 1 X 1 -1 d -2 Y 1 X 1 -1 d s 1794 1184 m 1 X -1 Y 1 X 2 Y -1 Y 1 X 1 Y 1 X 2 Y 1 X -2 Y 1 3 d -1 Y 1 X 11 Y 1 X -1 Y 1 Y 1
 X s 1803 1198 m 1 Y 1 -1 d -1 Y 1 X 1 Y 3 X 2 Y 1 X 2 Y 1 X -1 Y 1 X 1 Y 1 -1 d s 1812 1201 m 1 Y -1 Y 1 X 1 Y 1 X -1 Y 1 X -1 Y 1 X -1 Y 1 X 1 Y -1 Y 2 X 2 Y 1 4 d -1 Y 2 Y -1 Y s 1820 1205 m 1 1 d 1 X 1 -1 d 1 2 d -2 Y 1 Y -1 Y 2 X -1 Y 1 X -2 Y 1
 Y -1 Y 1 X -2 Y 1 X s 1829 1200 m 1 -1 d 1 Y 2 X -1 Y 1 Y 1 -1 d 9 Y -1 Y 1 X 2 Y 1 -1 d 1 -1 d 8 Y 1 X 1 2 d -1 Y s 1838 1216 m 2 X -1 Y 2 X 1 -1 d -1 Y 1 X -1 Y 2 X -1 Y 1 X s 1847 1211 m 1 -1 d 1 -1 d 1 X -1 Y 2 Y 2 X -1 Y 1 X -1 Y 2 X 2 Y 1 X s
 1856 1210 m -1 Y 1 X 1 -1 d 1 Y 1 X -1 Y 2 X -1 Y 1 X -2 Y 1 X -4 Y 1 X -1 Y s 1864 1200 m 2 X -1 Y 2 X -1 Y 1 X -1 Y 1 X -3 Y 1 X -1 Y 1 1 d -1 Y 1 X s 1873 1193 m 1 X -3 Y 1 -1 d -1 Y 1 X -1 Y 1 -3 d -1 Y 1 X 2 Y -1 Y 1 X 1 Y 1 X 1 -1 d 1 4 d s
 1882 1188 m -3 Y 1 X -1 Y 2 X 1 Y 2 X -3 Y 1 X -2 Y 1 X 1 -1 d -5 Y 1 -2 d s 1891 1172 m 1 Y 1 X -1 Y 2 X -1 Y 5 Y 1 X -1 Y 1 X -1 Y 1 X -1 Y 1 X -1 Y 1 X -2 Y 1 X s 1900 1170 m 3 X -5 Y 1 X -1 Y 1 23 d 13 Y 1 X -3 Y 1 X -1 Y 1 X -1 Y s 1908 1195 m
 1 X -1 Y 1 Y -1 Y 1 -2 d -1 Y 1 6 d -1 Y 1 X -1 Y 1 X -2 Y 1 X -6 Y 1 X 1 Y 2 X -2 Y s 1917 1186 m 1 Y 1 X -3 Y 1 X -1 Y 3 X -2 Y 1 X -1 Y 1 X -3 Y 1 -1 d -5 Y 1 Y 1 X s 1926 1172 m 1 X -2 Y 15 Y 2 X -2 Y 2 X -1 Y 2 X -3 Y 1 Y -1 Y 2 X s 1935 1179 m
 -1 Y 1 X 1 -2 d 1 X -1 Y 1 X -5 Y 2 X -1 Y 1 X 1 Y -1 Y 1 X -7 Y 1 X s 1944 1162 m 1 X -4 Y 4 X -8 Y 1 X -2 Y 1 X -3 Y 1 -1 d s 1952 1144 m 1 -1 d 2 X -15 Y 3 X -7 Y 1 Y 1 X -7 Y 1 -1 d 7 Y 1 X -2 Y s 1961 1119 m 3 X -2 Y 2 X -9 Y 1 -9 d 2 X 1 Y 1 X
 1 Y s 1970 1101 m 3 X -7 Y 1 9 d -8 Y 5 X s 1979 1095 m -31 Y 2 X 1 -26 d -11 Y 6 X s 1988 1027 m 4 X -1 Y 3 X -40 Y 1 X -71 Y s 1996 915 m 1 X 1 -183 d 7 X -11 Y s 2005 721 m 7 X 497 Y 1 X 3 Y 1 X s 2014 1221 m 9 X s 2023 1221 m 2 X 16 Y 3 X 1 6 d
 3 X s 2032 1243 m 8 X s 2040 1243 m 1 X s[  ] 0 sd 9 lw 0.49 0.6 0.82 c black 0 0 0.933333 c 245 1243 m 9 X s 254 1243 m 9 X s 263 1243 m 8 X s 271 1243 m 9 X s 280 1243 m 9 X s 289 1243 m 9 X s 298 1243 m 9 X s 307 1243 m 8 X s 315 1243 m 9 X s 324
 1243 m 9 X s 333 1243 m 9 X s 342 1243 m 9 X s 351 1243 m 8 X s 359 1243 m 9 X s 368 1243 m 9 X s 377 1243 m 9 X s 386 1243 m 9 X s 395 1243 m 8 X s 403 1243 m 9 X s 412 1243 m 9 X s 421 1243 m 9 X s 430 1243 m 9 X s 439 1243 m 8 X s 447 1243 m 9 X
 s 456 1243 m 9 X s 465 1243 m 9 X s 474 1243 m 9 X s 483 1243 m 8 X s 491 1243 m 2 X -1 Y 7 X s 500 1242 m 9 X s 509 1242 m 9 X s 518 1242 m 7 X -2 Y 2 X s 527 1240 m 5 X 1 Y 3 X s 535 1241 m 9 X s 544 1241 m 9 X s 553 1241 m 9 X s 562 1241 m 4 X -1
 Y 5 X s 571 1240 m 8 X s 579 1240 m 9 X s 588 1240 m 9 X s 597 1240 m 6 X 1 -1 d 2 X s 606 1239 m 4 X -1 Y 5 X s 615 1238 m 8 X -1 Y s 623 1237 m 5 X -1 Y 1 X 1 -1 d 2 X s 632 1235 m 2 X -1 Y 7 X s 641 1234 m 9 X s 650 1234 m 9 X s 659 1234 m 5 X -1
 Y 3 X s 667 1233 m 9 X s 676 1233 m 9 X s 685 1233 m 9 X s 694 1233 m 1 X -2 Y 3 X 1 Y 4 X -1 Y 1 X s 703 1231 m -1 Y 4 X -1 Y 3 X 1 -1 d s 711 1228 m 9 X -1 Y s 720 1227 m 1 X 1 -1 d 6 X -1 Y 1 X s 729 1225 m 4 X -1 Y 2 X -1 Y 3 X s 738 1223 m 7 X
 -1 Y 2 X s 747 1222 m 8 X -1 Y s 755 1221 m 1 X 1 -1 d 5 X -1 Y 2 X s 764 1219 m 3 X -1 Y 6 X s 773 1218 m 1 X -2 Y 2 X 1 1 d 5 X s 782 1217 m 7 X -1 Y 2 X s 791 1216 m 2 X -1 Y 6 X -1 Y s 799 1214 m 3 X 1 Y 1 X 1 -1 d 4 X s 808 1214 m 8 X -1 Y 1 X
 s 817 1213 m 2 X -1 Y 6 X -2 Y 1 X s 826 1210 m 1 X 1 -1 d 7 X s 835 1209 m 7 X -1 Y 1 X s 843 1208 m 3 X -1 Y 6 X s 852 1207 m 9 X s 861 1207 m 1 X -1 Y 8 X s 870 1206 m 5 X -1 Y 4 X s 879 1205 m 1 X -1 Y 3 X 1 Y 4 X s 887 1205 m 2 X -1 Y 2 X 1 -1
 d 4 X s 896 1203 m 1 X -1 Y 1 X 1 Y 6 X -1 Y 1 X s 905 1202 m 2 X -1 Y 3 X -1 Y 1 X -1 Y 3 X s 914 1199 m 9 X s 923 1199 m 5 X -1 Y 3 X -1 Y s 931 1197 m 4 X -1 Y 4 X 1 -2 d s 940 1194 m 9 X s 949 1194 m -1 Y 7 X -1 Y 2 X s 958 1192 m -1 Y 4 X -1 Y
 4 X -1 Y 1 X s 967 1189 m 8 X s 975 1189 m 1 X -1 Y 3 X -1 Y 1 X -2 Y 4 X s 984 1185 m 6 X -1 Y 3 X s 993 1184 m 1 X -1 Y 2 X -1 Y 2 X -1 Y 4 X -1 Y s 1002 1180 m 8 X 1 -1 d s 1011 1179 m 4 X -1 Y 2 X 1 Y 2 X s 1019 1179 m 2 X -1 Y 3 X 1 Y 4 X -1 Y
 s 1028 1178 m 3 X 1 Y 1 X -1 Y 2 X -1 Y 2 X 1 Y -1 Y 1 X s 1037 1177 m 2 X -1 Y 7 X s 1046 1176 m 1 X -1 Y 1 X -1 Y 4 X -2 Y 2 X -1 Y 1 X s 1055 1171 m 2 X -1 Y 2 X 1 Y 3 X -1 Y 1 X -1 Y s 1063 1169 m 3 X -1 Y 2 X -1 Y 4 X s 1072 1167 m 9 X -2 Y s
 1081 1165 m 6 X -1 Y 3 X s 1090 1164 m 3 X 1 1 d 1 X 1 -1 d 2 X -1 Y 1 X s 1099 1163 m 1 -1 d 3 X -1 Y 4 X s 1107 1161 m 6 X -1 Y 3 X s 1116 1160 m 3 X -1 Y 1 X 1 -3 d 1 X -2 Y 3 X -2 Y s 1125 1152 m -1 Y 9 X s 1134 1151 m 1 X -2 Y 1 1 d 1 X -1 Y 1
 1 d -2 Y 5 X s 1143 1148 m 1 X 1 -1 d 6 X s 1151 1147 m 4 X -1 Y 1 X 1 -1 d 1 X -1 Y 2 X s 1160 1144 m 3 X -2 Y 6 X s 1169 1142 m 1 X -1 Y 6 X -1 Y 2 X s 1178 1140 m 1 X -1 Y 1 X -4 Y 2 X 1 Y 3 X -4 Y 2 X s 1187 1132 m 6 X 1 Y 1 X -1 Y 1 X s 1195
 1132 m 2 X -1 Y 7 X -1 Y s 1204 1130 m 3 X -2 Y 1 X -1 Y 1 -1 d 4 X s 1213 1126 m 1 X 1 Y 2 X -1 Y 5 X -1 Y 1 X s 1222 1125 m 1 -1 d 1 -1 d 2 X -1 Y 2 X -1 Y 1 X -1 Y 2 X s 1231 1120 m 1 X -2 Y 2 X 1 -1 d 1 X -1 Y 1 X -1 Y 1 X -1 Y 1 X s 1239 1114 m
 1 X -3 Y 2 X 1 Y 1 X -1 Y 1 X -2 Y 4 X s 1248 1109 m 1 X -1 Y 5 X -1 Y 3 X -1 Y s 1257 1106 m 6 X 1 Y 2 X -1 Y 1 X -2 Y s 1266 1104 m 1 X -2 Y 1 X -2 Y 3 X -1 Y 2 X -1 Y 1 X -1 Y 1 X s 1275 1097 m 3 X 1 Y 2 X -1 Y 2 X -1 Y 1 X -1 Y s 1283 1095 m 2 X
 -1 Y 5 X -1 Y 1 X -1 Y 1 X s 1292 1092 m 1 -1 d 1 X 1 -1 d 4 X -1 Y 1 X -1 Y 1 X s 1301 1088 m 2 X -2 Y 1 X -1 Y 6 X -2 Y s 1310 1083 m 1 X -1 Y 4 X 1 Y 2 X -1 Y 2 X s 1319 1082 m 1 Y 1 X 1 Y 1 X -1 Y 2 X 1 Y 2 X -2 Y 1 X -1 Y 1 X s 1327 1081 m 1 X
 -2 Y 2 X -1 Y 3 X -2 Y 1 X -1 Y 1 X -1 Y 1 X -1 Y s 1336 1073 m 1 X -1 Y 3 X 1 -1 d 1 -1 d -1 Y 3 X -1 Y s 1345 1068 m -1 Y 1 X 2 Y -1 Y 3 X -1 Y 1 X 1 -1 d 2 X -1 Y 1 X s 1354 1065 m 4 X -1 Y 1 Y 1 X -2 Y 1 X 1 Y 3 X s 1363 1064 m -1 Y 1 -1 d 1 X
 -1 Y 1 X 1 Y 1 -1 d 2 X 1 Y 1 X -2 Y 1 X -2 Y 2 Y s 1371 1060 m 1 -1 d 1 X 1 Y 1 X 1 -1 d 1 X -1 Y 2 X -1 Y 2 X s 1380 1057 m 1 -1 d 1 X -5 Y 4 X 1 -1 d 1 Y 1 -2 d 1 X s 1389 1049 m 2 X 1 -5 d 2 X -1 Y 1 X 1 Y 3 X -1 Y s 1398 1043 m 1 X 1 -1 d -1 Y
 2 X 1 -1 d 1 X -1 Y 2 X -1 Y 1 X s 1407 1038 m 1 X -1 Y 2 X -1 Y 1 X 1 Y -1 Y 1 X -2 Y 1 X -1 Y 1 X -1 Y 1 X -1 Y s 1415 1031 m 3 X 1 -1 d -1 Y 1 X -1 Y 3 X 1 -1 d s 1424 1027 m 1 X -3 Y 1 X -5 Y 1 X -1 Y 1 X -1 Y 3 X -1 Y 2 X s 1433 1016 m 1 X 1 -1
 d -1 Y 2 X -1 Y 1 X 1 Y -1 Y 1 X -1 Y 1 X -1 Y 1 X -2 Y 1 X s 1442 1009 m -1 Y 2 X -1 Y 1 X -2 Y 1 Y 2 X -1 Y 1 X -1 Y 1 X -2 Y 1 X -1 Y 1 X s 1451 1001 m 1 X 1 Y 2 X -2 Y 1 X 1 Y 1 -2 d 3 X -2 Y s 1459 997 m 1 X -2 Y 2 X 1 -1 d 2 X 2 Y -1 Y 1 -1 d
 1 X -1 Y 9 Y 1 X s 1468 1002 m 1 X -1 Y 3 X -1 Y 1 X 1 -2 d -2 Y 1 X 1 -1 d 1 -1 d 1 Y -1 Y s 1477 994 m 1 X -1 Y 2 X -3 Y 1 X -1 Y 1 X 1 Y 1 -2 d -1 Y 2 X -1 Y 1 1 d s 1486 987 m -1 Y 1 Y 1 -1 d 1 Y 1 -2 d -1 Y 1 -2 d 3 X -2 Y 2 X -4 Y 1 X s 1495
 976 m 1 X -1 Y 1 X -1 Y 1 X 1 Y -1 Y 2 X 4 Y 1 X -1 Y 1 -1 d -3 Y 1 X -3 Y s 1503 970 m 1 X -2 Y 2 X -1 Y 1 -3 d -2 Y 1 X -1 Y 1 X -2 Y 1 X -1 Y 2 X -2 Y s 1512 956 m 1 X -3 Y 1 1 d -1 Y 1 X -2 Y 1 X -1 Y 1 X -3 Y 1 -1 d 1 X -2 Y 1 X -1 Y 1 -1 d -1
 Y s 1521 941 m 2 X -2 Y 1 X -2 Y 2 X 1 Y -2 Y 1 X -1 Y 1 X -2 Y 1 X 1 -1 d s 1530 932 m 1 X -1 Y 1 Y 1 X -1 Y 1 X -2 Y 1 X -1 Y 1 2 d -5 Y 1 1 d -1 Y 2 X -6 Y 1 X -2 Y s 1539 917 m 1 -1 d 1 X -1 Y 1 -1 d -1 Y 1 -1 d 1 -1 d -1 Y 1 X -3 Y 1 -1 d 1 Y 1
 X -1 Y s 1547 906 m 1 -1 d -4 Y 1 -1 d -2 Y 1 -1 d -1 Y 1 X -1 Y 1 X -1 Y 1 X -1 Y 1 -1 d -1 Y 1 X -1 Y 1 -1 d -2 Y s 1556 887 m -2 Y 1 -1 d 1 Y 1 X -2 Y 1 X -1 Y 1 -1 d -1 Y 1 X -1 Y 1 Y -1 Y 1 X 1 -2 d -2 Y 1 X -1 Y 1 X s 1565 874 m 2 X 1 -2 d -1
 Y 2 X -3 Y 1 X -5 Y 1 X -1 Y 1 Y 1 -3 d 1 X -1 Y s 1574 859 m -3 Y 1 -1 d -1 Y 1 -1 d -4 Y 1 -1 d -2 Y 1 X -2 Y 1 X -2 Y 4 Y 1 X -2 Y 1 -1 d -1 Y 1 Y 1 -3 d 1 X -1 Y s 1583 839 m -1 Y 1 -1 d -2 Y 1 X -1 Y 1 X -4 Y 1 X -3 Y 1 -1 d -3 Y 1 -1 d -1 Y 1
 X -2 Y 1 X -4 Y s 1591 815 m 1 X -8 Y 1 -1 d -4 Y 1 -1 d -1 Y 1 X -4 Y 1 X 1 Y -3 Y 1 X -2 Y 1 X -1 Y 1 X -2 Y 1 -1 d -1 Y s 1600 787 m 1 -1 d -2 Y 1 X -3 Y 1 -2 d 1 Y 1 X -1 Y 1 X -3 Y 1 X 1 -1 d -1 Y 1 -1 d -1 Y 1 -1 d -1 Y s 1609 770 m -1 Y 1 X
 -3 Y 1 X -2 Y 1 -1 d -2 Y 1 X -5 Y 1 -1 d -4 Y 1 X 1 -1 d -2 Y 1 -3 d -1 Y 1 X -4 Y s 1618 740 m 1 -2 d -2 Y 1 X -3 Y 1 -1 d -3 Y 1 X -1 Y 1 -1 d -6 Y 1 X -3 Y 1 -2 d -6 Y 1 X -2 Y 1 -1 d -1 Y s 1627 706 m -2 Y 1 -1 d -4 Y 1 Y 1 -1 d -3 Y 1 -1 d -1
 Y 1 1 d -3 Y 1 X -2 Y 1 -1 d -4 Y 1 X -3 Y 1 -1 d -2 Y s 1635 679 m 1 X -1 Y 1 X -3 Y 1 -1 d -5 Y 1 -1 d -3 Y 1 -1 d -2 Y 1 -1 d -4 Y 1 -3 d -2 Y 1 X -2 Y 1 -2 d -1 Y s 1644 647 m 1 -1 d -4 Y 1 -1 d -2 Y 1 Y 1 X -1 Y 1 X -4 Y 1 -1 d -2 Y 1 Y 1 -2 d
 -1 Y 1 X -2 Y 1 X -3 Y 1 X -3 Y s 1653 622 m -3 Y 1 X -1 Y 1 -1 d -2 Y 1 X -1 Y 1 -1 d -4 Y 1 X -2 Y 1 -1 d -2 Y 1 X -2 Y 1 -1 d -2 Y 1 -1 d -1 Y s 1662 597 m 1 Y 1 X -4 Y 1 X 1 Y -2 Y 1 X -1 Y 1 X -2 Y 1 -1 d -2 Y 1 -1 d -2 Y 1 -1 d -2 Y 1 X -3 Y 1
 -1 d s 1671 577 m -2 Y 1 -1 d -3 Y 1 -2 d -5 Y 1 -1 d -3 Y 1 X -4 Y 1 -1 d -3 Y 1 X -2 Y 1 -2 d -4 Y 1 X -1 Y s 1679 543 m 1 -3 d -3 Y 1 X -2 Y 1 -1 d -6 Y 1 X -1 Y 1 -1 d -2 Y 1 X -1 Y 1 X -7 Y 1 X -1 Y 1 X -2 Y s 1688 513 m -2 Y 1 1 d -1 Y 1 X -3
 Y 1 -1 d -1 Y 1 X -4 Y 1 -1 d -2 Y 1 Y 1 -1 d -1 Y 1 -2 d -1 Y 1 X -1 Y 2 Y -1 Y 1 1 d s 1697 496 m -1 Y 1 X -3 Y 1 X -1 Y 1 X -2 Y 1 -1 d -3 Y 1 X -2 Y 1 1 d -1 Y 1 -2 d -4 Y 1 1 d -3 Y 1 X s 1706 475 m -1 Y 1 X -4 Y 1 X -1 Y 1 X -4 Y 1 -2 d 1 Y -3
 Y 2 X -5 Y 1 X -3 Y 1 X -2 Y 1 -2 d -1 Y s 1715 448 m -1 Y 1 X -1 Y 1 Y 1 -1 d -2 Y 1 X -3 Y 1 X -2 Y 1 -1 d -3 Y 1 X -2 Y 1 X -1 Y 1 -3 d -1 Y s 1723 428 m 1 X -2 Y 1 -1 d -4 Y 1 X -1 Y 1 X -2 Y 1 -1 d -2 Y 1 -1 d -2 Y 1 X -2 Y 1 -1 d -3 Y 1 X -1 Y
 s 1732 405 m 1 X -1 Y 1 X -2 Y 1 -1 d -4 Y 1 X -2 Y 1 -1 d 1 -1 d -3 Y 1 -1 d -1 Y 1 -1 d -5 Y 1 X s 1741 382 m -2 Y 1 X -1 Y 1 -1 d -4 Y 1 -1 d -2 Y 1 X -2 Y 1 -1 d -1 Y 1 -1 d -1 Y 1 X -1 Y 1 X -1 Y 1 X -1 Y s 1750 362 m -1 Y 1 -1 d 1 -1 d 1 Y -1
 Y 1 X -2 Y 1 X -3 Y 1 -1 d -1 Y 1 X -2 Y 1 X -1 Y 1 Y -1 Y 1 -1 d 1 -1 d s 1759 347 m -2 Y 1 X -2 Y 1 -1 d -3 Y 1 -1 d 1 X -5 Y 1 -1 d 1 -1 d -2 Y 1 X -1 Y 1 X -2 Y s 1767 326 m 1 -1 d 1 -4 d -3 Y 1 X -1 Y 1 X -1 Y 1 -1 d -1 Y 1 X -2 Y 1 X -1 Y 1 X
 -3 Y 1 X -2 Y s 1776 306 m 1 -1 d -2 Y 1 X 1 -1 d -1 Y 1 -1 d -3 Y 2 X -4 Y 2 X -1 Y 1 X -1 Y s 1785 291 m 1 -1 d -2 Y 1 X -3 Y 1 X -2 Y 1 X -2 Y 1 X -2 Y 1 X 1 -1 d -3 Y 1 X -1 Y 1 X s 1794 274 m -1 Y 2 X -2 Y 1 X -1 Y 1 X -1 Y 1 X -2 Y 1 X -1 Y 1
 X 1 -1 d 1 X -1 Y s 1803 264 m -1 Y 1 X -2 Y 1 X -1 Y 1 X -1 Y 1 1 d -1 Y 1 Y 2 X -1 Y 1 X -1 Y 1 1 d -1 Y 1 -1 d s 1812 257 m -1 Y 2 X 1 -1 d -1 Y 1 X -2 Y 1 X -2 Y 1 X 1 -1 d 1 -1 d -1 Y s 1820 247 m 1 -1 d 1 Y -1 Y 1 X -1 Y 2 X -2 Y 1 X -1 Y 2 X
 -4 Y 1 X -2 Y 1 X s 1829 236 m 1 X -1 Y 2 X -1 Y 1 X 1 Y 1 X -1 Y 1 X -1 Y 1 -1 d 1 Y 1 X -1 Y 1 Y 1 X s 1838 233 m 1 X -1 Y 1 X -1 Y 1 X -1 Y 2 X -1 Y 1 X -1 Y 1 X -1 Y 2 X -1 Y s 1847 226 m 1 X 1 -1 d 1 X -1 Y 3 X -1 Y 3 X s 1856 223 m -1 Y 4 X -1
 Y 2 X -1 Y 1 X -3 Y 1 X s 1864 217 m 2 X -1 Y 4 X -1 Y 1 X -1 Y 1 1 d 1 X -1 Y s 1873 214 m 1 X 1 -1 d 1 X 1 -1 d 4 X 1 1 d s 1882 213 m -1 Y 6 X -1 Y 2 X -1 Y 1 X s 1891 210 m 6 X -1 Y 3 X s 1900 209 m 5 X -1 Y 3 X s 1908 208 m 1 X 1 -1 d 4 X -1 Y
 3 X s 1917 206 m 7 X -1 Y 2 X s 1926 205 m 9 X s 1935 205 m 4 X -1 Y 5 X s 1944 204 m 8 X s 1952 204 m 3 X -1 Y 6 X s 1961 203 m 9 X s 1970 203 m 9 X s 1979 203 m 9 X s 1988 203 m 8 X -1 Y s 1996 202 m 9 X s 2005 202 m 9 X s 2014 202 m 9 X s 2023
 202 m 9 X s 2032 202 m 8 X s 2040 202 m 1 X s 1 0 0 c black 1 0 0 c 245 1243 m -1 Y 9 X s 254 1242 m 9 X s 263 1242 m 5 X -1 Y 3 X s 271 1241 m 8 X -2 Y 1 X s 280 1239 m 7 X -1 Y 2 X s 289 1238 m 1 -1 d 2 X -1 Y 6 X s 298 1236 m 1 X -1 Y 5 X -1 Y 3
 X s 307 1234 m 1 X -1 Y 3 X -1 Y 1 X -1 Y 1 X -1 Y 2 X s 315 1230 m 1 X -1 Y 1 X -1 Y 5 X 1 -2 d 1 X -1 Y s 324 1225 m 3 X -1 Y 3 X 1 -1 d 1 -1 d 1 X s 333 1222 m 1 X -1 Y 1 X -2 Y 1 X 1 -1 d 2 X -1 Y 2 X -1 Y 1 X s 342 1216 m 1 -1 d -1 Y 2 X -1 Y 2
 X -1 Y 2 X -1 Y 2 X s 351 1211 m -1 Y 1 X -1 Y 1 -1 d -1 Y 1 X -1 Y 2 X -1 Y 1 X -1 Y 1 -1 d 1 -1 d s 359 1202 m 1 -1 d 1 X -1 Y 2 X -1 Y 1 X -2 Y 2 X 1 -1 d -1 Y 1 X s 368 1195 m -1 Y 1 X -1 Y 1 X 1 -1 d -1 Y 1 X -1 Y 2 X -1 Y 2 X -1 Y 1 X s 377
 1188 m 2 X 1 -1 d -1 Y 2 X 1 -1 d -1 Y 1 X -2 Y 1 X -1 Y 1 X s 386 1181 m -1 Y 1 X 1 -1 d -1 Y 2 X -1 Y 1 X -1 Y 1 X -2 Y 1 X -1 Y 1 X -2 Y 1 X s 395 1171 m -1 Y 1 X -2 Y 1 X -1 Y 2 X -3 Y 2 X -2 Y 1 X -1 Y 1 X -3 Y s 403 1158 m 2 X -1 Y 2 X -1 Y 1
 -1 d -1 Y 1 X -1 Y 2 X -2 Y 1 X -1 Y s 412 1150 m 1 X -1 Y 2 X -1 Y 1 X -1 Y 1 -1 d 1 -2 d 1 X 1 -1 d -1 Y 1 X -1 Y s 421 1141 m 1 X 1 -1 d 1 X -2 Y 1 X -1 Y 1 X -1 Y 1 X -1 Y 1 X -1 Y 1 X -1 Y 1 X s 430 1133 m 1 X -1 Y 1 X -1 Y 1 -1 d -2 Y 1 X -1 Y
 1 X -1 Y 1 X -2 Y 1 X -1 Y 1 X -1 Y 1 X s 439 1122 m -1 Y 2 X -1 Y 1 X -1 Y 1 X -1 Y 2 X -1 Y 1 -1 d 1 X -1 Y s 447 1115 m 1 -1 d -1 Y 1 X -2 Y 1 X -1 Y 1 X 1 -1 d -1 Y 1 X 1 -1 d -1 Y 1 X -1 Y 1 X -1 Y s 456 1104 m 1 -1 d -1 Y 1 X -2 Y 1 X 1 -1 d
 -1 Y 2 X -2 Y 1 X -1 Y 1 -1 d -2 Y 1 X s 465 1092 m -1 Y 1 X -1 Y 1 X -1 Y 1 X -1 Y 1 X -2 Y 1 X -2 Y 1 X -1 Y 2 X -1 Y 1 X s 474 1082 m -2 Y 2 X 1 -1 d 1 X -1 Y 1 X -1 Y 1 X -1 Y 1 X -1 Y 1 -1 d 1 X s 483 1074 m 1 X -2 Y 1 X -1 Y 1 X -1 Y 1 X -2 Y
 1 -1 d 1 -1 d -1 Y 1 X 1 -1 d -1 Y s 491 1063 m 1 -1 d 1 X -1 Y 1 X -1 Y 1 -1 d 1 X -1 Y 1 X -1 Y 1 X -1 Y 2 X -3 Y s 500 1053 m 1 X -1 Y 1 X -1 Y 1 X -2 Y 1 X -1 Y 1 X -1 Y 2 X -1 Y 1 -1 d 1 X s 509 1045 m -1 Y 1 X -1 Y 1 -1 d -1 Y 1 X -2 Y 1 X -1
 Y 1 X -1 Y 1 X -2 Y 1 -1 d 1 -1 d -1 Y 1 X s 518 1032 m -1 Y 1 X -2 Y 1 X -1 Y 1 X -2 Y 1 -1 d -2 Y 1 X -1 Y 1 X -1 Y 1 X -5 Y 2 X s 527 1016 m -1 Y 1 X -2 Y 1 X -1 Y 1 X -1 Y 1 X -1 Y 1 X -3 Y 1 X -2 Y 2 X -1 Y s 535 1004 m 1 X -2 Y 1 X -1 Y 1 -1 d
 -1 Y 1 X -1 Y 2 X -2 Y 1 -1 d 1 -1 d 1 X -1 Y s 544 993 m 1 X -2 Y 1 X -1 Y 1 X -2 Y 1 -1 d -1 Y 1 X -1 Y 1 -1 d -1 Y 1 X -1 Y 1 -1 d -2 Y 1 -1 d s 553 978 m 1 -1 d -1 Y 1 -1 d 1 X -1 Y 1 -1 d -1 Y 1 -1 d -1 Y 1 X -3 Y 1 -1 d -1 Y 1 -1 d -1 Y 1 X -1
 Y s 562 962 m 1 X -1 Y 1 -2 d 1 X -1 Y 1 -1 d -1 Y 2 X -2 Y 1 X -1 Y 1 X -1 Y 1 X s 571 952 m -2 Y 1 X -3 Y 1 X -1 Y 1 X -1 Y 1 X -1 Y 1 -1 d 1 -1 d 1 -1 d -1 Y 1 X s 579 940 m 1 -1 d -1 Y 1 X -2 Y 1 X -2 Y 1 X 1 -1 d 1 -1 d -1 Y 1 X -1 Y 1 X -2 Y 1
 X -1 Y s 588 927 m 1 -1 d -1 Y 1 -1 d -2 Y 1 X -1 Y 1 X -1 Y 1 X -1 Y 1 -1 d 1 -1 d -1 Y 1 X -1 Y 1 -1 d s 597 914 m -1 Y 1 X -2 Y 1 X -1 Y 1 X -1 Y 1 X -1 Y 1 X -1 Y 1 X -2 Y 1 X -1 Y 1 -1 d -2 Y 1 X -1 Y s 606 900 m -1 Y 1 X -1 Y 1 X -1 Y 1 X -1 Y
 1 -1 d 1 -1 d -1 Y 1 X -2 Y 1 X -1 Y 1 X -1 Y 1 X s 615 889 m -1 Y 1 -1 d 1 -1 d -1 Y 1 X -2 Y 1 X -1 Y 1 X -1 Y 1 X -1 Y 1 X -1 Y 1 X -2 Y s 623 877 m 1 X -1 Y 1 X -1 Y 1 X -1 Y 1 -1 d -1 Y 1 X -2 Y 1 X 1 -1 d -2 Y 2 X -1 Y s 632 866 m 1 -2 d -1 Y
 2 X -2 Y 1 X -1 Y 1 X -1 Y 1 X -1 Y 1 X -1 Y 1 -1 d -1 Y 1 X s 641 855 m -1 Y 1 X -1 Y 1 -1 d -2 Y 1 -1 d -1 Y 1 X -1 Y 1 X -1 Y 1 X -1 Y 1 -1 d -1 Y 1 X -3 Y 1 X s 650 840 m -2 Y 1 X -1 Y 1 -1 d 1 -1 d -1 Y 1 X -1 Y 1 X -1 Y 1 X -1 Y 1 X -1 Y 1 X
 -1 Y 1 X s 659 829 m -3 Y 1 -1 d -2 Y 1 -1 d -3 Y 1 X -2 Y 1 X 1 -1 d -1 Y 1 X -1 Y 1 X -1 Y 1 X -1 Y s 667 812 m 1 X -1 Y 1 X -1 Y 1 X -1 Y 1 -2 d -1 Y 2 X -1 Y 1 X -1 Y 1 X -1 Y 1 -1 d s 676 802 m 1 X -1 Y 1 X -4 Y 1 X -1 Y 1 X -1 Y 1 X -2 Y 1 -1
 d -1 Y 1 X -1 Y 1 X 1 -1 d s 685 789 m -1 Y 1 X -1 Y 1 X -1 Y 1 -1 d -2 Y 1 -1 d 1 X -2 Y 1 -1 d -1 Y 1 X -1 Y 1 X -2 Y 1 X s 694 775 m -1 Y 1 X -1 Y 1 X -1 Y 1 X -1 Y 1 X -1 Y 1 X -1 Y 1 -1 d -1 Y 1 X -1 Y 1 X -1 Y 1 -1 d s 703 764 m -1 Y 1 X -1 Y
 1 -1 d -1 Y 1 X -1 Y 1 -1 d 2 X -2 Y 1 -1 d 1 -1 d -1 Y s 711 753 m 1 X -1 Y 1 -1 d -2 Y 1 X -1 Y 2 X -1 Y 1 X -1 Y 1 X -1 Y 1 X -1 Y 1 -1 d -1 Y s 720 742 m 1 X -1 Y 1 -1 d -1 Y 1 X -2 Y 1 X -1 Y 1 X -2 Y 1 -1 d 1 -1 d -2 Y 1 X -1 Y 1 X s 729 729 m
 -1 Y 1 X -1 Y 1 X -1 Y 1 X -2 Y 1 X -1 Y 1 X -1 Y 1 X -1 Y 1 -1 d -1 Y 1 -1 d -3 Y 1 X -1 Y s 738 714 m -1 Y 1 X -1 Y 1 -1 d 1 -1 d 1 -1 d 1 -1 d -1 Y 1 X -2 Y 1 X -1 Y 1 X -1 Y 1 -1 d s 747 702 m -1 Y 1 X -1 Y 1 X -1 Y 1 X -3 Y 1 X -1 Y 1 X -2 Y 1
 X -1 Y 1 X -1 Y 1 X -2 Y s 755 689 m 1 X 1 -1 d -1 Y 1 X -2 Y 1 X -1 Y 1 X -1 Y 1 -1 d -1 Y 1 X -1 Y 1 -1 d 1 X -1 Y s 764 678 m 1 -1 d -1 Y 1 X -1 Y 1 X -1 Y 1 X -2 Y 1 X -1 Y 1 X -1 Y 1 X -2 Y 1 X -1 Y 1 X -2 Y s 773 665 m 1 X -1 Y 1 X -1 Y 1 X -1
 Y 1 X -1 Y 1 X -1 Y 1 X -1 Y 1 X -1 Y 1 -1 d -1 Y 1 X -1 Y s 782 655 m -1 Y 2 X -1 Y 1 X -1 Y 1 X -1 Y 1 -1 d -1 Y 1 X -1 Y 1 X -1 Y 1 X -2 Y 1 X s 791 645 m 1 -1 d 1 X -1 Y 1 X -1 Y 1 -1 d -1 Y 1 X -1 Y 1 X -1 Y 2 X -1 Y s 799 637 m 1 X -1 Y 1 -1 d
 -1 Y 1 -1 d -1 Y 1 X -1 Y 1 X -2 Y 1 X -2 Y 1 X -1 Y 1 X 1 -1 d s 808 625 m 1 X -1 Y 1 X -1 Y 1 X 1 -1 d -1 Y 1 X -1 Y 1 -1 d -1 Y 1 X 1 -1 d 1 X s 817 617 m 1 -1 d -1 Y 1 X -1 Y 1 X -2 Y 2 X -1 Y 1 X -1 Y 1 X -1 Y 1 -1 d -1 Y 1 -1 d s 826 606 m 1 X
 -2 Y 1 X -1 Y 1 X -2 Y 1 -1 d 1 -1 d 1 -1 d 1 X 1 -1 d -1 Y 1 X s 835 596 m -1 Y 1 X -1 Y 1 X -1 Y 1 X -2 Y 1 X -1 Y 1 X -1 Y 1 X -1 Y 1 X -1 Y 1 X s 843 587 m 1 -1 d 1 X -1 Y 1 -1 d 1 -1 d -1 Y 1 X -1 Y 1 X -3 Y 1 -1 d -1 Y 1 X -1 Y 1 X -1 Y s 852
 574 m 1 X -2 Y 1 X 1 -1 d -1 Y 1 X -1 Y 1 -1 d -1 Y 1 X 1 -1 d -1 Y 1 X -1 Y 1 X s 861 564 m -2 Y 1 X -1 Y 1 X -1 Y 1 -1 d 2 X -1 Y 1 X -1 Y 1 -1 d -1 Y 2 X -1 Y s 870 554 m 1 X -1 Y 2 X -1 Y 1 X -1 Y 1 X -2 Y 1 X -1 Y 1 X -1 Y 2 X s 879 547 m -1 Y
 1 X -1 Y 1 -2 d 1 X -2 Y 2 X -1 Y 1 X -1 Y 1 X -1 Y 1 X s 887 538 m 1 X -1 Y 1 X -1 Y 2 X -1 Y 1 -1 d 2 X -1 Y 1 X -1 Y 1 -1 d s 896 531 m 1 X -1 Y 1 X -1 Y 1 X -1 Y 1 X -1 Y 2 X -2 Y 1 X -3 Y 2 X -1 Y s 905 521 m 1 X -1 Y 1 X -1 Y 1 X -2 Y 2 X -2 Y
 1 X -1 Y 1 X -1 Y 1 -1 d 1 X -1 Y s 914 511 m 1 X -2 Y 1 X -1 Y 1 X -2 Y 1 X -1 Y 1 X 1 -1 d -1 Y 1 X -1 Y 2 X s 923 502 m -1 Y 1 -1 d -1 Y 1 X -1 Y 1 X -1 Y 1 X -1 Y 1 X -1 Y 1 X -2 Y 1 X -1 Y 1 X s 931 492 m 1 -1 d 1 X -1 Y 2 X -2 Y 1 X 1 -1 d -1
 Y 2 X -1 Y 1 X -1 Y s 940 484 m 1 X -1 Y 1 X -1 Y 1 X -1 Y 2 X -1 Y 1 X -2 Y 1 X 1 -1 d 1 -1 d s 949 476 m -1 Y 2 X -1 Y 1 -1 d 1 X -1 Y 1 X -2 Y 1 X -1 Y 1 X -1 Y 1 X -1 Y 1 X -1 Y s 958 466 m -1 Y 2 X -1 Y 2 X -1 Y 1 X -1 Y 1 X -2 Y 1 X -2 Y 2 X s
 967 458 m -1 Y 2 X -1 Y 1 X -1 Y 1 X 1 -1 d 1 X -1 Y 1 X 1 -1 d s 975 452 m 1 X -1 Y 1 -1 d 1 -1 d -1 Y 2 X -1 Y 1 X -1 Y 1 X -1 Y 2 X -1 Y s 984 444 m 2 X -1 Y 1 X -1 Y 2 X -2 Y 2 X -1 Y 1 X 1 -1 d s 993 438 m -1 Y 1 X -1 Y 2 X -1 Y 1 X -1 Y 1 X -1
 Y 1 X -1 Y 1 X -1 Y 2 X -1 Y s 1002 430 m 1 X -1 Y 2 X -1 Y 1 X -1 Y 1 X -1 Y 1 X -1 Y 1 X -1 Y 1 X -1 Y 1 X s 1011 423 m -1 Y 2 X -1 Y 1 X 1 -1 d -1 Y 2 X -1 Y 1 X -1 Y 1 X -1 Y s 1019 416 m 2 X -1 Y 2 X -1 Y 1 X -1 Y 2 X -1 Y 1 -1 d 1 X -1 Y s
 1028 410 m 1 X -1 Y 1 X -1 Y 3 X -1 Y 1 X -1 Y 1 X -1 Y 1 Y 1 X -2 Y 1 X s 1037 404 m 1 X -2 Y 1 X -1 Y 2 X -1 Y 1 X -1 Y 2 X -1 Y 1 X -1 Y 1 X s 1046 397 m 1 X -1 Y 1 X -1 Y 1 X 1 -1 d 2 X -1 Y 2 X -1 Y 1 X s 1055 392 m 2 X -1 Y 2 X -1 Y 1 X -1 Y 1
 X -3 Y 1 X -1 Y 1 X s 1063 385 m 1 X -2 Y 2 X -1 Y 3 X -1 Y 2 X -1 Y 1 X s 1072 380 m 1 X 1 -1 d 1 X 1 -1 d 3 X -1 Y 2 X -1 Y s 1081 376 m 4 X -1 Y 1 X -1 Y 2 X -1 Y 2 X s 1090 373 m 1 X -1 Y 2 X -1 Y 2 X -1 Y 2 X -1 Y 1 X -1 Y 1 X s 1099 368 m 2 X
 -1 Y 5 X -1 Y 1 X -1 Y s 1107 365 m 3 X -1 Y 1 X -2 Y 2 X 1 -1 d 2 X -1 Y s 1116 360 m 1 -1 d 1 X -1 Y 4 X -1 Y 1 X -1 Y 2 X -1 Y s 1125 355 m 3 X -1 Y 3 X -1 Y 2 X -1 Y 1 X s 1134 352 m 1 X 1 -1 d 3 X -1 Y 3 X -1 Y 1 X s 1143 349 m 1 -1 d 1 -1 d 1
 X -1 Y 2 X 1 -1 d 2 X s 1151 345 m 2 X 1 -1 d 1 X -1 Y 1 X 1 -1 d 3 X s 1160 342 m 2 X -1 Y 3 X -1 Y 4 X s 1169 340 m 1 X -1 Y 1 X -1 Y 6 X -2 Y 1 X s 1178 336 m 1 X -1 Y 3 X -1 Y 5 X s 1187 334 m 1 X -1 Y 5 X 1 -1 d 1 X s 1195 332 m 1 X -1 Y 3 X -1
 Y 2 X -1 Y 3 X -1 Y s 1204 328 m 1 X -1 Y 3 X -1 Y 5 X -1 Y s 1213 325 m 1 X -1 Y 2 X -1 Y 3 X -1 Y 3 X s 1222 322 m 1 X -1 Y 3 X -1 Y 3 X -1 Y 1 X -1 Y 1 X s 1231 318 m 5 X -1 Y 3 X s 1239 317 m 2 X -1 Y 1 X -1 Y 5 X -1 Y 1 X s 1248 314 m 3 X -1 Y
 4 X -1 Y 1 X -1 Y 1 X s 1257 311 m 2 X -1 Y 4 X -1 Y 3 X s 1266 309 m 1 X -1 Y 4 X 1 -1 d 3 X s 1275 307 m 2 X 1 -1 d 3 X 1 -1 d 1 X s 1283 305 m 3 X -2 Y 6 X -1 Y s 1292 302 m 3 X -1 Y 3 X -1 Y 1 X 1 -3 d 1 X s 1301 297 m 5 X -1 Y 4 X -1 Y s 1310
 295 m 1 X 1 -1 d 6 X -1 Y 1 X s 1319 293 m 8 X -1 Y s 1327 292 m 8 X -1 Y 1 X s 1336 291 m 5 X -1 Y 4 X s 1345 290 m 1 X -1 Y 1 X -1 Y 6 X -1 Y 1 X s 1354 287 m 6 X 1 -1 d 1 -1 d 1 X s 1363 285 m 2 X -1 Y 5 X -1 Y 1 X s 1371 283 m 5 X -1 Y 4 X s
 1380 282 m 4 X -1 Y 5 X -1 Y s 1389 280 m 3 X 1 -1 d 4 X 1 -1 d s 1398 278 m 2 X -1 Y 5 X -1 Y 2 X s 1407 276 m 3 X -1 Y 4 X -1 Y 1 X s 1415 274 m 1 X 1 -1 d 7 X s 1424 273 m 3 X -1 Y 2 X 1 -1 d 3 X s 1433 271 m 2 X -1 Y 3 X -1 Y 4 X s 1442 269 m 5
 X -1 Y 4 X s 1451 268 m 3 X -1 Y 5 X s 1459 267 m 5 X -1 Y 3 X -1 Y 1 X s 1468 265 m 3 X -1 Y 6 X s 1477 264 m 3 X -1 Y 5 X -1 Y 1 X s 1486 262 m 7 X -1 Y 2 X s 1495 261 m 4 X -1 Y 4 X s 1503 260 m 4 X 1 -1 d 3 X -1 Y 1 X s 1512 258 m 2 X -1 Y 3 X
 -1 Y 1 X -1 Y 3 X s 1521 255 m 7 X -1 Y 2 X s 1530 254 m 5 X -1 Y 3 X -1 Y 1 X s 1539 252 m 8 X -1 Y s 1547 251 m 1 X -1 Y 6 X -1 Y 2 X s 1556 249 m 2 X -1 Y 6 X -1 Y 1 X s 1565 247 m 4 X -1 Y 1 X 1 -1 d 3 X s 1574 245 m 2 X -1 Y 6 X 1 -1 d s 1583
 243 m 5 X -1 Y 2 X -1 Y 1 X s 1591 241 m 5 X -1 Y 1 X 1 -1 d 2 X s 1600 239 m 1 -1 d 8 X -1 Y s 1609 237 m 4 X -1 Y 3 X 1 -1 d 1 X -1 Y s 1618 234 m 2 X -1 Y 4 X -1 Y 3 X s 1627 232 m 3 X -1 Y 3 X -1 Y 2 X s 1635 230 m 4 X 1 -1 d 2 X -1 Y 2 X s 1644
 228 m 4 X -1 Y 5 X -1 Y s 1653 226 m 5 X -1 Y 4 X s 1662 225 m 2 X -1 Y 4 X -1 Y 3 X s 1671 223 m 2 X 1 -1 d 1 X -1 Y 1 X -1 Y 3 X s 1679 220 m 2 X 1 -1 d 6 X -1 Y s 1688 218 m 8 X -1 Y 1 X s 1697 217 m 7 X -1 Y 2 X s 1706 216 m 9 X s 1715 216 m 2 X
 -1 Y 4 X 1 -1 d 1 X s 1723 214 m 5 X -1 Y 4 X s 1732 213 m 3 X -1 Y 6 X s 1741 212 m 2 X 1 -1 d 4 X -1 Y 2 X s 1750 210 m 4 X -1 Y 5 X s 1759 209 m 5 X 1 -1 d 2 X s 1767 208 m 9 X -1 Y s 1776 207 m 9 X s 1785 207 m 1 -1 d 8 X s 1794 206 m 7 X -1 Y 2
 X s 1803 205 m 6 X -1 Y 3 X s 1812 204 m 8 X s 1820 204 m 9 X s 1829 204 m 1 X -1 Y 8 X s 1838 203 m 9 X s 1847 203 m 9 X s 1856 203 m 8 X s 1864 203 m 9 X s 1873 203 m 9 X s 1882 203 m 9 X s 1891 203 m 9 X s 1900 203 m 4 X 1 -1 d 3 X s 1908 202 m 9
 X s 1917 202 m 9 X s 1926 202 m 9 X s 1935 202 m 9 X s 1944 202 m 8 X s 1952 202 m 9 X s 1961 202 m 9 X s 1970 202 m 9 X s 1979 202 m 9 X s 1988 202 m 8 X s 1996 202 m 9 X s 2005 202 m 9 X s 2014 202 m 9 X s 2023 202 m 9 X s 2032 202 m 8 X s 2040
 202 m 1 X s 0 0.666667 0 c 1 1 1 c black 0 0.666667 0 c 245 1029 m 1 Y 9 X s 254 1030 m 9 X s 263 1030 m 8 X s 271 1030 m 9 X s 280 1030 m 9 X s 289 1030 m 1 1 d 8 X s 298 1031 m 9 X s 307 1031 m 4 X 1 Y 4 X s 315 1032 m 7 X 1 1 d 1 X s 324 1033 m 7
 X 1 1 d 1 X s 333 1034 m 6 X 1 Y 3 X s 342 1035 m 4 X 1 Y 5 X s 351 1036 m 2 X 1 Y 5 X 1 Y 1 X s 359 1038 m 5 X 1 Y 4 X s 368 1039 m 2 X 1 Y 7 X 1 Y s 377 1041 m 7 X 1 Y 2 X s 386 1042 m 2 X 1 Y 5 X 1 Y 2 X s 395 1044 m 1 X 1 Y 4 X 1 Y 3 X 1 Y s 403
 1047 m 5 X 1 Y 4 X s 412 1048 m 1 Y 5 X 1 1 d 3 X s 421 1050 m 1 X 1 Y 4 X 1 1 d 3 X s 430 1052 m 2 X 1 Y 3 X 1 Y 4 X s 439 1054 m 1 X 1 Y 5 X 1 1 d 1 X s 447 1056 m 2 X 1 Y 4 X 1 1 d 2 X s 456 1058 m 1 X 1 Y 3 X 1 Y 4 X 1 Y 1 X s 465 1061 m 2 X 1 Y
 3 X 1 Y 4 X s 474 1063 m 1 Y 7 X 1 Y 2 X s 483 1065 m 2 X 1 Y 3 X 1 Y 3 X 1 Y s 491 1068 m 2 X -1 Y 1 Y 4 X 1 Y 3 X s 500 1069 m 1 X 1 Y 3 X 1 Y 5 X s 509 1071 m 1 1 d 2 X 1 Y 3 X 1 Y 3 X s 518 1074 m 1 Y 3 X 1 Y 3 X 1 Y 1 X 1 Y -1 Y 2 X s 527 1077
 m 1 X 1 Y 3 X 1 Y 2 X 1 Y 2 X s 535 1080 m 1 X 1 Y 3 X 1 Y 3 X 1 1 d 1 X s 544 1083 m 2 X 1 Y 2 X 1 Y 2 X 1 1 d 1 X 1 Y 1 X s 553 1087 m 3 X 1 Y 2 X 1 Y 2 X 1 Y 2 X s 562 1090 m 1 X 1 Y 3 X 1 1 d 3 X 1 Y 1 X s 571 1093 m 1 X 1 Y 3 X 1 1 d 3 X s 579
 1095 m 1 1 d 2 X 1 Y 3 X 1 Y 3 X 1 Y s 588 1099 m 2 X 1 Y 2 X 1 1 d 3 X 1 Y 1 X s 597 1102 m 1 X 1 Y 3 X 1 Y 4 X 1 Y 1 X s 606 1105 m 2 X 1 Y 4 X 1 Y 3 X s 615 1107 m 1 Y 4 X 1 Y 3 X 1 Y 1 X s 623 1110 m 3 X 1 1 d 1 X -1 Y 1 Y 4 X 1 Y s 632 1112 m 4
 X 1 Y 3 X 1 1 d 1 X s 641 1114 m 1 X 1 Y 1 X 1 1 d 2 X 1 1 d 2 X 1 Y 1 X s 650 1118 m 1 Y 3 X 1 Y 3 X 1 Y 3 X s 659 1121 m 1 Y 1 X 1 Y 1 X 1 Y 4 X 1 Y 2 X s 667 1125 m 1 X 1 Y 2 X 1 1 d 3 X 1 Y 2 X s 676 1128 m 2 X 1 Y 1 X 1 Y 2 X 1 Y 3 X 1 Y 1 X s
 685 1132 m 2 X 1 Y 3 X 1 Y 1 X 1 1 d 2 X s 694 1135 m 1 Y 1 X -1 Y 1 Y -1 Y 2 X 1 Y 2 X 1 1 d 1 X 1 1 d 1 X s 703 1138 m -1 Y 1 X 1 Y 5 X 1 Y 2 X s 711 1139 m 1 X 1 Y 2 X 1 Y 4 X 1 Y 2 X s 720 1142 m 3 X 1 Y 2 X 1 Y 2 X 1 Y 1 X -1 Y 1 Y 1 X s 729
 1145 m 3 X 1 Y 1 X -1 Y 1 Y 4 X 1 Y 1 X 1 Y s 738 1148 m 2 X 1 Y 3 X 1 Y 2 X 1 Y 2 X s 747 1151 m 1 Y 3 X 1 Y 2 X 1 Y 3 X 1 Y -1 Y s 755 1154 m 3 X 1 Y 2 X 1 Y 4 X 1 Y s 764 1157 m 3 X 1 Y 2 X 1 1 d 1 X 1 1 d 1 X s 773 1160 m 1 X 1 Y -2 Y 1 X 1 Y 1
 X 1 1 d 2 X 1 Y 2 X 1 1 d s 782 1163 m 3 X 1 Y 2 X 1 Y 3 X 1 Y 1 -1 d s 791 1165 m 1 X 1 Y 1 X -1 Y 1 X 1 Y 2 X 1 Y 3 X s 799 1167 m 1 X 1 Y 2 X 1 Y 2 X 1 Y 2 X 1 Y 2 X s 808 1171 m 3 X 1 Y 2 X 1 Y 4 X s 817 1173 m 1 X 1 Y 3 X 1 Y -1 Y 1 1 d 2 X 1 1
 d -2 Y 1 Y 1 X s 826 1175 m 1 X 1 Y 1 -1 d 1 1 d 1 X 1 Y 4 X 1 Y 1 X s 835 1178 m 2 X 1 Y 2 X 1 Y 3 X 1 Y 1 X s 843 1181 m 3 X 1 Y -1 Y 1 X 1 Y 2 X 1 Y 1 X 1 Y 2 X s 852 1184 m 1 X 1 Y 2 X 1 1 d 1 X 1 Y 3 X 1 Y 1 X s 861 1188 m 1 X 1 1 d 3 X 1 Y -1
 Y 1 1 d 1 X 1 Y 2 X s 870 1191 m 3 X 1 Y 3 X 1 Y 3 X s 879 1193 m 1 X 1 Y -1 Y 1 1 d 1 X 1 Y 3 X 1 Y 2 X s 887 1196 m 4 X 1 Y 1 -1 d 1 Y 3 X 1 1 d s 896 1198 m 1 X -1 Y 1 X 1 Y 1 X 1 1 d 2 X 1 Y 1 X 1 1 d -1 Y 1 X 1 Y s 905 1201 m 2 X -1 Y 1 1 d 2 X
 1 Y -1 Y 1 Y 4 X s 914 1202 m 1 Y 2 X 1 Y 2 X 1 1 d 2 X 1 Y 2 X s 923 1206 m 1 Y 3 X 1 Y 3 X 1 Y 2 X s 931 1209 m 2 X 1 Y 2 X -1 Y 1 1 d 3 X 1 Y 1 -1 d s 940 1210 m 1 X 1 Y 4 X 1 Y 3 X 1 Y 1 X s 949 1213 m 2 X 1 1 d 2 X 1 Y 1 X 1 Y -1 Y 1 X 1 Y -1 Y
 1 X 1 Y 1 X s 958 1216 m 6 X 1 Y 1 X 1 Y 1 X -1 Y 1 1 d s 967 1218 m 3 X 1 Y 4 X 1 Y 1 X s 975 1220 m 3 X 1 Y 1 X 1 -1 d 4 X 1 Y s 984 1221 m 4 X 1 Y 5 X s 993 1222 m 1 Y 3 X -1 Y 1 Y -1 Y 1 X 1 Y 1 X -1 Y 1 Y 3 X 1 1 d -1 Y s 1002 1223 m 1 Y 3 X 1
 1 d 1 X 1 1 d 2 X 1 Y 1 -1 d s 1011 1226 m 2 X 1 Y 4 X 1 Y 2 X 1 Y s 1019 1229 m 3 X -1 Y 1 1 d 1 X 1 Y 2 X 1 Y 2 X -1 Y 1 Y s 1028 1231 m 3 X 1 Y 5 X 1 Y -1 Y 1 X 1 Y s 1037 1233 m 2 X 1 Y 5 X 1 Y 2 X s 1046 1235 m 1 X 1 Y -1 Y 4 X 1 Y 1 X -1 Y 1 X
 -1 Y 1 Y 1 X -1 Y 1 X s 1055 1234 m 2 X 1 Y -1 Y 2 X 1 Y 1 X 1 Y 1 X 1 Y 1 X -1 Y 1 X s 1063 1236 m 1 X 1 Y 8 X s 1072 1237 m 1 X 1 1 d 6 X 1 Y 1 X -1 Y s 1081 1238 m 5 X 1 Y 1 X -1 Y 1 X 1 Y 2 X s 1090 1239 m 3 X 1 Y 6 X s 1099 1240 m 8 X s 1107
 1240 m 3 X 1 Y 1 X 1 Y 5 X 1 Y s 1116 1243 m 3 X -1 Y 1 X 1 -2 d 3 X 1 Y 1 X -1 Y s 1125 1240 m -1 Y 3 X 1 1 d -1 Y 2 X 1 1 d 2 X s 1134 1240 m 1 X -1 Y 1 1 d 2 X -1 Y 2 X 1 Y 3 X s 1143 1240 m 3 X 1 Y 5 X s 1151 1241 m 1 X 1 Y 1 X -1 Y 1 X 1 Y 2 X
 -1 Y 4 X s 1160 1241 m 3 X -1 Y 3 X 1 Y 2 X -1 Y 1 X s 1169 1240 m 1 X 1 Y 6 X -1 Y 1 X 1 Y 1 X s 1178 1241 m 2 X -2 Y 5 X -2 Y 2 X s 1187 1237 m 3 X 1 Y 1 X -1 Y 2 X 1 Y 2 X s 1195 1238 m 6 X 1 Y 3 X s 1204 1239 m 3 X -1 Y 1 X 1 -1 d 3 X 1 1 d s
 1213 1238 m 1 X 1 Y 8 X s 1222 1239 m 1 -1 d 1 Y 1 -1 d 2 X -1 Y 1 X 1 Y 1 X -1 Y 3 X s 1231 1237 m 1 X -1 Y 4 X -1 Y 2 X -1 Y 1 X s 1239 1234 m 1 X -2 Y 1 X 1 Y 1 X 1 Y 1 X -1 Y 1 X -1 Y 4 X s 1248 1232 m 7 X 1 Y 2 X -1 Y s 1257 1232 m 2 X 1 Y -1 Y
 1 X 1 Y 4 X 1 Y -1 Y 2 X -1 Y s 1266 1232 m 1 X -1 Y 1 X -1 Y 5 X -1 Y 2 X s 1275 1229 m 3 X 1 Y 1 X -1 Y 4 X -1 Y 1 Y -1 Y s 1283 1228 m 1 X 1 Y 1 X -1 Y 1 X 1 Y 4 X -1 Y 2 X s 1292 1228 m 1 -1 d 1 1 d 1 -1 d 4 X 1 2 d -1 Y 1 X s 1301 1228 m 2 X -1
 Y 1 X -1 Y 6 X s 1310 1226 m 9 X s 1319 1226 m 1 Y 7 X -1 Y 1 X s 1327 1226 m 1 X -1 Y 2 X -1 Y 3 X -1 Y 1 X -1 Y 2 X -1 Y s 1336 1221 m 5 X -1 Y 1 X -1 Y 1 X 1 Y -1 Y 2 X s 1345 1219 m 1 X 1 Y -1 Y 1 X 1 Y 1 X 1 -1 d 1 Y -1 Y 5 X s 1354 1219 m 1 X
 -1 Y 1 X 1 Y 1 X -1 Y 2 X -1 Y 1 X 1 Y 1 X 1 1 d 1 X s 1363 1219 m 1 -1 d 3 X -1 Y 1 X 1 Y 2 X -1 Y 1 X -1 Y 1 Y s 1371 1217 m 2 X 1 Y 1 X -1 Y 4 X -1 Y 2 X s 1380 1216 m 1 -1 d 1 X -2 Y 5 X 1 -1 d 1 X s 1389 1212 m 2 X 1 -3 d 4 X 1 Y 1 -1 d 1 Y 1 X
 -1 Y s 1398 1209 m 2 X -1 Y 2 X 1 Y -1 Y 2 X -1 Y 1 X 1 Y 1 X -1 Y 1 X s 1407 1207 m 1 X -1 Y 3 X 1 Y -1 Y 1 X -1 Y 2 X -1 Y 1 X s 1415 1204 m 3 X 1 -1 d 2 X 1 -1 d 1 Y 1 -1 d 1 X s 1424 1202 m 1 X -2 Y 1 X -3 Y 1 X -1 Y 4 X -1 Y 1 X 1 Y -1 Y 1 X s
 1433 1195 m 1 X 1 Y 1 -1 d 1 Y -1 Y 4 X -1 Y 1 X -1 Y 1 1 d -2 Y 1 X s 1442 1192 m 2 X -1 Y 1 X -1 Y 2 X -1 Y 2 X -1 Y 2 X s 1451 1188 m 3 X -1 Y 1 X 1 Y 1 -1 d -1 Y 1 X 1 1 d -1 Y 1 X -1 Y s 1459 1185 m 1 X -1 Y 5 X 1 Y 1 -1 d 1 X -1 Y 7 Y 1 X s
 1468 1190 m 1 X -1 Y 1 X 1 Y 1 -1 d 2 X 1 -1 d -2 Y 2 X 1 -1 d s 1477 1185 m 1 X -1 Y 2 X -1 Y 1 X -1 Y 1 X 1 Y 1 -2 d 3 X s 1486 1181 m 1 X 1 -1 d -1 Y 1 -1 d 3 X -1 Y 2 X -2 Y 1 X s 1495 1175 m -1 Y 5 X 2 Y 1 X 1 -1 d -1 Y 1 X -3 Y s 1503 1171 m 1
 X -1 Y 2 X -1 Y 1 -2 d -1 Y 1 1 d -1 Y 1 -1 d -1 Y 3 X -1 Y s 1512 1163 m 1 X -2 Y 1 1 d -1 Y 1 X 1 Y -2 Y 1 X -1 Y 1 X 1 Y -2 Y 1 -1 d 1 Y 1 X -2 Y 1 X -1 Y 1 X s 1521 1155 m 1 X -1 Y 1 X -1 Y 1 X -1 Y 2 X -1 Y 2 X -2 Y 2 X s 1530 1149 m 1 X -1 Y 1
 Y 1 X -1 Y 1 X -1 Y 1 X -1 Y 1 1 d -3 Y 1 1 d -1 Y 1 X 1 Y -1 Y 1 X -3 Y 1 X -2 Y s 1539 1139 m 2 X 1 -1 d -1 Y 1 -1 d 1 X -1 Y 1 X -3 Y 1 X 1 Y 1 X -1 Y s 1547 1132 m 1 X -3 Y 1 X -2 Y 1 X -1 Y 1 X -1 Y 1 X -1 Y 2 X -1 Y 1 X -1 Y 1 X -2 Y s 1556
 1120 m -1 Y 1 -1 d 1 Y 1 X -1 Y 1 X -1 Y 1 -1 d 1 X -1 Y 1 Y 1 X -1 Y 1 -1 d -2 Y 2 X s 1565 1112 m 2 X 1 -1 d 1 X -1 Y 1 X -1 Y 1 X -3 Y 1 X -1 Y 1 -2 d 1 X s 1574 1103 m -3 Y 1 X -1 Y 1 X -4 Y 1 X -1 Y 1 X -2 Y 1 X -2 Y 4 Y 1 X -2 Y 1 -1 d 1 -2 d
 1 X s 1583 1089 m -1 Y 1 X -2 Y 1 Y 1 -1 d 1 X -3 Y 1 X -2 Y 1 -1 d -2 Y 1 -1 d -1 Y 1 1 d -2 Y 1 X -2 Y s 1591 1073 m 1 -1 d -5 Y 1 -1 d -3 Y 1 X -2 Y 1 X -2 Y 1 X 1 Y -2 Y 1 X -2 Y 2 X -2 Y 1 X -1 Y s 1600 1053 m 1 -1 d -1 Y 1 X -3 Y 2 X -1 Y 1 X
 -2 Y 1 X 1 -1 d -1 Y 1 X -1 Y 1 -1 d s 1609 1041 m -1 Y 1 X -2 Y 1 X -2 Y 1 X -2 Y 1 X -3 Y 1 -1 d -3 Y 1 X -1 Y 1 X -1 Y 1 -3 d -1 Y 1 X -2 Y s 1618 1019 m 1 -1 d -2 Y 1 X -2 Y 1 -1 d -2 Y 1 X -1 Y 1 X -5 Y 1 X -3 Y 1 -1 d -5 Y 1 X -2 Y 1 -1 d s
 1627 993 m -1 Y 1 -2 d -3 Y 1 Y 1 -1 d -2 Y 1 -1 d -1 Y 1 1 d -2 Y 1 X -1 Y 1 -1 d -4 Y 1 X -2 Y 1 X -2 Y s 1635 972 m 1 X -1 Y 1 X -3 Y 1 -1 d -3 Y 1 -2 d -2 Y 1 -1 d -2 Y 1 X -3 Y 1 -3 d -1 Y 1 X -2 Y 1 -1 d -1 Y s 1644 946 m 1 -1 d -4 Y 1 X -2 Y
 2 X -4 Y 1 X -2 Y 1 -1 d -1 Y 1 X -1 Y 1 X -3 Y 1 X -2 Y s 1653 925 m -3 Y 1 X -1 Y 1 X -2 Y 1 X -1 Y 1 -1 d -4 Y 1 X -2 Y 1 X -2 Y 1 X -2 Y 1 X -2 Y 1 -2 d -1 Y s 1662 902 m 2 Y 1 -1 d -2 Y 1 -1 d 1 Y -1 Y 1 X -2 Y 1 X -2 Y 1 X -2 Y 1 -1 d -1 Y 1
 -1 d -2 Y 1 X -2 Y 1 -2 d s 1671 885 m -2 Y 1 -1 d -2 Y 1 -2 d -5 Y 1 -1 d -2 Y 1 X -4 Y 1 Y 1 -1 d -2 Y 1 -1 d -1 Y 1 -2 d -4 Y 1 X -1 Y s 1679 855 m 1 -3 d -2 Y 1 -1 d -1 Y 1 -1 d -7 Y 1 X -1 Y 1 -1 d -1 Y 1 X -2 Y 1 X -7 Y 1 X -1 Y 1 X -1 Y s
 1688 826 m -2 Y 1 X -1 Y 1 X -3 Y 1 -1 d 1 -1 d -3 Y 1 -2 d -1 Y 1 X -2 Y 1 -2 d -1 Y 1 X -1 Y 2 Y -1 Y 1 1 d s 1697 808 m -1 Y 1 X -2 Y 1 -1 d -1 Y 1 X -2 Y 1 -1 d -3 Y 1 X -3 Y 1 2 d -2 Y 1 -2 d -3 Y 1 X -3 Y 1 X s 1706 786 m -1 Y 1 X -4 Y 1 -1 d
 1 -1 d -4 Y 1 -2 d 1 Y -3 Y 1 -1 d 1 Y 1 -1 d -5 Y 1 -1 d -2 Y 1 X -2 Y 1 -3 d -1 Y s 1715 756 m -1 Y 1 X -1 Y 1 X -3 Y 1 X -3 Y 1 X -3 Y 1 X -4 Y 1 X -2 Y 1 1 d -2 Y 1 -4 d -1 Y s 1723 733 m 1 X -2 Y 1 -1 d -4 Y 1 -1 d -1 Y 1 X -3 Y 1 -1 d -2 Y 1
 -1 d -2 Y 1 Y -1 Y 1 -1 d -2 Y 1 -2 d -4 Y 1 X s 1732 706 m -1 Y 2 X -4 Y 1 X -6 Y 1 X -2 Y 1 -1 d -1 Y 1 X -5 Y 1 -1 d -2 Y 1 -1 d -6 Y 1 X -1 Y s 1741 675 m -2 Y 1 X -2 Y 1 X -6 Y 1 -2 d -2 Y 1 X -2 Y 1 -2 d -2 Y 1 -1 d -2 Y 2 X -1 Y 1 X -1 Y s
 1750 650 m -2 Y 1 -1 d -1 Y 2 X -3 Y 1 X -4 Y 1 -1 d -2 Y 1 X -3 Y 1 X -1 Y 1 Y -2 Y 1 X -2 Y 1 -1 d s 1759 628 m -2 Y 1 X -4 Y 1 -1 d -5 Y 1 -1 d -1 Y 1 Y -1 Y 1 X -6 Y 1 -2 d -1 Y 1 -1 d -3 Y 1 X -1 Y 1 -1 d -3 Y s 1767 596 m 1 -1 d -1 Y 1 -6 d -5
 Y 1 X -1 Y 1 -1 d -2 Y 1 -2 d -1 Y 1 1 d -4 Y 1 X -2 Y 1 X -5 Y 1 X -3 Y s 1776 563 m -1 Y 1 -1 d -3 Y 1 X -1 Y 1 X -4 Y 1 X -6 Y 2 X -8 Y 1 X -1 Y 1 Y 1 X -1 Y 1 X -3 Y s 1785 535 m 1 -2 d -3 Y 1 Y 1 -1 d -7 Y 1 X -2 Y 1 -1 d -3 Y 1 -2 d -3 Y 1 X
 -1 Y 1 -2 d -6 Y 1 -1 d 1 -2 d s 1794 500 m -1 Y 1 X -1 Y 1 X -3 Y 1 X -3 Y 1 X -1 Y 1 X -5 Y 1 1 d -3 Y 1 X -1 Y 2 Y 1 -1 d -1 Y 1 X -1 Y s 1803 482 m -2 Y 1 -1 d -5 Y 1 -1 d -2 Y 2 X 1 1 d 1 X -1 Y 1 -1 d -1 Y 1 X -1 Y 1 -2 d s 1812 466 m -2 Y 1 X
 1 -1 d -1 Y 1 -2 d -3 Y 1 X -4 Y 1 X -4 Y 1 -1 d -1 Y 1 -1 d -1 Y 1 -1 d -3 Y s 1820 441 m 1 -2 d 1 Y -1 Y 1 -2 d -1 Y 1 -1 d 1 X -4 Y 2 Y -3 Y 1 X -2 Y 1 X -1 Y 1 -1 d -10 Y 1 X -6 Y 1 X -1 Y s 1829 409 m 1 -1 d -2 Y 1 X -1 Y 1 X -3 Y 1 X 3 Y 1 X 1
 -3 d -2 Y 1 -1 d 1 Y 1 X -1 Y 1 Y 1 1 d -1 Y s 1838 400 m 1 X -2 Y 1 -1 d -3 Y 1 X -1 Y 1 -1 d -1 Y 1 X -3 Y 1 X -4 Y 1 X -2 Y 1 X -1 Y 1 -1 d -2 Y s 1847 378 m 1 Y 1 -2 d -2 Y 1 -1 d -1 Y 1 -1 d -1 Y 2 X -3 Y 1 X -2 Y 1 X -1 Y 1 X -1 Y 1 X s 1856
 364 m -1 Y 1 -1 d -1 Y 1 X 1 Y -1 Y 1 X 1 -1 d -1 Y 1 X -3 Y 1 -1 d -3 Y 1 -1 d -11 Y 1 X -1 Y s 1864 339 m 1 X -1 Y 1 X -1 Y 1 X -1 Y 1 X -1 Y 1 X -2 Y 1 X -5 Y 1 Y -1 Y 1 X -1 Y 1 1 d -1 Y 1 X s 1873 327 m 1 X -5 Y 1 -1 d -1 Y 1 X -2 Y 1 -3 d -1 Y
 1 X -1 Y 3 X 1 4 d -1 Y s 1882 316 m -2 Y 1 X -1 Y 1 X -1 Y 1 X 2 Y -1 Y 1 X 1 Y -1 Y 1 X -2 Y 1 X -2 Y 1 X -1 Y 1 -1 d -4 Y 1 -2 d s 1891 301 m 1 Y 1 X -1 Y 1 X 1 Y -1 Y 1 X -1 Y 1 X 1 -1 d 1 -1 d 1 X -1 Y 1 X -1 Y 1 X s 1900 296 m 1 X -1 Y 2 X -3
 Y 1 X -1 Y 1 1 d 1 X -4 Y 2 X -1 Y s 1908 287 m 1 X -1 Y 1 -2 d -1 Y 1 X -2 Y 1 X -1 Y 1 X -1 Y 1 X -6 Y 1 X 1 Y 2 X -1 Y s 1917 273 m 1 X -1 Y 1 X -2 Y 3 X -1 Y 1 X -1 Y 1 X -1 Y 1 -1 d -3 Y 1 X s 1926 263 m 1 X -1 Y 1 Y 2 X -1 Y 2 X -1 Y 2 X -1 Y
 2 X s 1935 260 m -1 Y 1 X 1 -1 d 1 X -1 Y 1 X -2 Y 3 X -1 Y 1 X -2 Y 1 X s 1944 252 m 1 X -2 Y 4 X -3 Y 2 X -2 Y 1 X s 1952 245 m 3 X -4 Y 1 X 1 Y 2 X -2 Y 1 X -1 Y 1 -1 d 2 Y 1 X -1 Y s 1961 239 m 5 X -2 Y 1 -1 d 3 X s 1970 236 m 3 X -1 Y 1 1 d -1
 Y 5 X s 1979 235 m -4 Y 2 X 1 -3 d -1 Y 6 X s 1988 227 m 7 X -4 Y 1 X -4 Y s 1996 219 m 1 X 1 -7 d 7 X s 2005 212 m 7 X 2 Y 1 X -3 Y 1 X s 2014 211 m 9 X s 2023 211 m 2 X 9 Y 3 X 1 -3 d 3 X s 2032 217 m 8 X s 2040 217 m 1 X s black 3 lw 245 202 m
 1796 X s 415 242 m -40 Y s 463 222 m -20 Y s 510 222 m -20 Y s 557 222 m -20 Y s 605 242 m -40 Y s 652 222 m -20 Y s 700 222 m -20 Y s 747 222 m -20 Y s 794 242 m -40 Y s 842 222 m -20 Y s 889 222 m -20 Y s 937 222 m -20 Y s 984 242 m -40 Y s 1032
 222 m -20 Y s 1079 222 m -20 Y s 1126 222 m -20 Y s 1174 242 m -40 Y s 1221 222 m -20 Y s 1269 222 m -20 Y s 1316 222 m -20 Y s 1363 242 m -40 Y s 1411 222 m -20 Y s 1458 222 m -20 Y s 1506 222 m -20 Y s 1553 242 m -40 Y s 1601 222 m -20 Y s 1648
 222 m -20 Y s 1695 222 m -20 Y s 1743 242 m -40 Y s 1790 222 m -20 Y s 1838 222 m -20 Y s 1885 222 m -20 Y s 1932 242 m -40 Y s 415 242 m -40 Y s 368 222 m -20 Y s 320 222 m -20 Y s 273 222 m -20 Y s 1932 242 m -40 Y s 1980 222 m -20 Y s 2027 222 m
 -20 Y s 245 202 m 1145 Y s 291 202 m -46 X s 268 254 m -23 X s 268 306 m -23 X s 268 358 m -23 X s 291 410 m -46 X s 268 462 m -23 X s 268 514 m -23 X s 268 566 m -23 X s 291 618 m -46 X s 268 670 m -23 X s 268 722 m -23 X s 268 775 m -23 X s 291
 827 m -46 X s 268 879 m -23 X s 268 931 m -23 X s 268 983 m -23 X s 291 1035 m -46 X s 268 1087 m -23 X s 268 1139 m -23 X s 268 1191 m -23 X s 291 1243 m -46 X s 291 1243 m -46 X s 268 1295 m -23 X s 268 1347 m -23 X s 0.490196 0.545098 0.615686 c
 1 1 1 c 0.490196 0.545098 0.615686 c 907 202 245 1347 bl 245 1347 m 907 X s 1152 1347 m 202 Y s 1152 1549 m -907 X s 245 1549 m -202 Y s black
 gsave  2268 1684 0 0 C 515.735 1478.95 t 0 r /Helvetica-Bold findfont 53.0904 sf 0 0 m (Signal efficiency) show NC gr  0 0 0.933333 c 9 lw 286 1499 m 190 X s black
 gsave  2268 1684 0 0 C 515.735 1376.56 t 0 r /Helvetica-Bold findfont 53.0904 sf 0 0 m (Background efficiency) show NC gr  1 0 0 c 286 1397 m 190 X s 0.490196 0.545098 0.615686 c 3 lw 1 1 1 c 0.490196 0.545098 0.615686 c 889 202 1152 1347 bl 1152
 1347 m 889 X s 2041 1347 m 202 Y s 2041 1549 m -889 X s 1152 1549 m -202 Y s black
 gsave  2268 1684 0 0 C 1418.27 1501.7 t 0 r /Helvetica-Bold findfont 56.8825 sf 0 0 m (Signal purity) show NC gr  0 0 0.933333 c[  52 12 ] 0 sd 6 lw 1192 1515 m 187 X s black
 gsave  2268 1684 0 0 C 1418.27 1433.44 t 0 r /Helvetica-Bold findfont 56.8825 sf 0 0 m (Signal efficiency*purity) show NC gr  0 0 0.933333 c[  22 12 ] 0 sd 1192 1448 m 187 X s black
 gsave  2268 1684 0 0 C 1501.7 1368.97 t 0 r /Helvetica-Bold findfont 56.8825 sf 0 0 m (S+B) show NC gr [  ] 0 sd 1483 1414 m 7 -49 d s 3 lw 1490 1365 m 8 65 d s 1498 1430 m 114 X s
 gsave  2268 1684 0 0 C 1418.27 1368.97 t 0 r /Helvetica-Bold findfont 56.8825 sf 0 0 m (S/) show NC gr  0 0.666667 0 c 9 lw 1192 1381 m 187 X s black 3 lw 245 1243 m 1796 X s
 gsave  2268 1684 0 0 C 337.503 390.593 t 0 r /Helvetica-Bold findfont 53.0904 sf 0 0 m (For 1000 signal and 1000 background) show NC gr 
 gsave  2268 1684 0 0 C 1065.6 322.334 t 0 r /Helvetica-Bold findfont 53.0904 sf 0 0 m ( is) show NC gr 
 gsave  2268 1684 0 0 C 963.211 322.334 t 0 r /Helvetica-Bold findfont 53.0904 sf 0 0 m (S+B) show NC gr  6 lw 940 364 m 8 -45 d s 3 lw 948 319 m 8 60 d s 956 379 m 110 X s
 gsave  2268 1684 0 0 C 337.503 322.334 t 0 r /Helvetica-Bold findfont 53.0904 sf 0 0 m (events the maximum S/) show NC gr 
 gsave  2268 1684 0 0 C 337.503 254.075 t 0 r /Helvetica-Bold findfont 53.0904 sf 0 0 m (28.13 when cutting at \2550.06) show NC gr  0.490196 0.545098 0.615686 c 0.364706 0.419608 0.490196 c 1554 100 23 1575 bf 0.490196 0.545098 0.615686 c 23 1575 m
 1554 X s 1577 1575 m 100 Y s 1577 1675 m -1554 X s 23 1675 m -100 Y s 1 1 1 c black 1 1 1 c
 gsave  2268 1684 0 0 C 75.8434 1604.09 t 0 r /Helvetica-Bold findfont 79.6355 sf 0 0 m (Cut efficiencies and optimal cut value) show NC gr  0 0.666667 0 c 2041 202 m 1145 Y s 1995 202 m 46 X s 2018 239 m 23 X s 2018 276 m 23 X s 2018 313 m 23 X s
 2018 350 m 23 X s 1995 387 m 46 X s 2018 424 m 23 X s 2018 461 m 23 X s 2018 498 m 23 X s 2018 535 m 23 X s 1995 572 m 46 X s 2018 609 m 23 X s 2018 646 m 23 X s 2018 683 m 23 X s 2018 720 m 23 X s 1995 757 m 46 X s 2018 794 m 23 X s 2018 831 m 23 X
 s 2018 868 m 23 X s 2018 905 m 23 X s 1995 942 m 46 X s 2018 979 m 23 X s 2018 1016 m 23 X s 2018 1053 m 23 X s 2018 1090 m 23 X s 1995 1127 m 46 X s 2018 1164 m 23 X s 2018 1201 m 23 X s 2018 1238 m 23 X s 2018 1275 m 23 X s 1995 1312 m 46 X s 1995
 1312 m 46 X s black 0 0.666667 0 c
 gsave  2268 1684 0 0 C 2051.56 178.232 t 0 r /Helvetica-Bold findfont 64.4669 sf 0 0 m (0) show NC gr  black 0 0.666667 0 c
 gsave  2268 1684 0 0 C 2051.56 364.048 t 0 r /Helvetica-Bold findfont 64.4669 sf 0 0 m (5) show NC gr  black 0 0.666667 0 c
 gsave  2268 1684 0 0 C 2051.56 546.072 t 0 r /Helvetica-Bold findfont 64.4669 sf 0 0 m (10) show NC gr  black 0 0.666667 0 c
 gsave  2268 1684 0 0 C 2051.56 731.888 t 0 r /Helvetica-Bold findfont 64.4669 sf 0 0 m (15) show NC gr  black 0 0.666667 0 c
 gsave  2268 1684 0 0 C 2051.56 917.705 t 0 r /Helvetica-Bold findfont 64.4669 sf 0 0 m (20) show NC gr  black 0 0.666667 0 c
 gsave  2268 1684 0 0 C 2051.56 1103.52 t 0 r /Helvetica-Bold findfont 64.4669 sf 0 0 m (25) show NC gr  black 0 0.666667 0 c
 gsave  2268 1684 0 0 C 2051.56 1285.55 t 0 r /Helvetica-Bold findfont 64.4669 sf 0 0 m (30) show NC gr  black 0 0.666667 0 c
 gsave  2268 1684 0 0 C 2203.25 967.003 t 90 r /Helvetica-Bold findfont 64.4669 sf 0 0 m (Significance) show NC gr 
 gr  gr showpage
end
%%EOF
