%!PS-Adobe-2.0 EPSF-2.0
%%BoundingBox:  0 0 567 421
%%Title: dataset_class_comb2_all/plots/mvaeffs_BDTD.eps: Cut efficiencies for BDTD classifier
%%Creator: ROOT Version 6.18/00
%%CreationDate: Sat Sep 14 15:13:23 2019
%%DocumentNeededResources: ProcSet (FontSetInit)
%%EndComments
%%BeginProlog
80 dict begin
/s {stroke} def /l {lineto} def /m {moveto} def /t {translate} def
/r {rotate} def /rl {roll}  def /R {repeat} def
/d {rlineto} def /rm {rmoveto} def /gr {grestore} def /f {eofill} def
/c {setrgbcolor} def /black {0 setgray} def /sd {setdash} def
/cl {closepath} def /sf {scalefont setfont} def /lw {setlinewidth} def
/box {m dup 0 exch d exch 0 d 0 exch neg d cl} def
/NC{systemdict begin initclip end}def/C{NC box clip newpath}def
/bl {box s} def /bf {gsave box gsave f grestore 1 lw [] 0 sd s grestore} def /Y { 0 exch d} def /X { 0 d} def 
/K {{pop pop 0 moveto} exch kshow} bind def
/ita {/ang 15 def gsave [1 0 ang dup sin exch cos div 1 0 0] concat} def 
/mp {newpath /y exch def /x exch def} def
/side {[w .77 mul w .23 mul] .385 w mul sd w 0 l currentpoint t -144 r} def
/mr {mp x y w2 0 360 arc} def /m24 {mr s} def /m20 {mr f} def
/mb {mp x y w2 add m w2 neg 0 d 0 w neg d w 0 d 0 w d cl} def
/mt {mp x y w2 add m w2 neg w neg d w 0 d cl} def
/w4 {w 4 div} def
/w6 {w 6 div} def
/w8 {w 8 div} def
/m21 {mb f} def /m25 {mb s} def /m22 {mt f} def /m26{mt s} def
/m23 {mp x y w2 sub m w2 w d w neg 0 d cl f} def
/m27 {mp x y w2 add m w3 neg w2 neg d w3 w2 neg d w3 w2 d cl s} def
/m28 {mp x w2 sub y w2 sub w3 add m w3 0 d  0 w3 neg d w3 0 d 0 w3 d w3 0 d  0 w3 d w3 neg 0 d 0 w3 d w3 neg 0 d 0 w3 neg d w3 neg 0 d cl s } def
/m29 {mp gsave x w2 sub y w2 add w3 sub m currentpoint t 4 {side} repeat cl fill gr} def
/m30 {mp gsave x w2 sub y w2 add w3 sub m currentpoint t 4 {side} repeat cl s gr} def
/m31 {mp x y w2 sub m 0 w d x w2 sub y m w 0 d x w2 sub y w2 add m w w neg d x w2 sub y w2 sub m w w d s} def
/m32 {mp x y w2 sub m w2 w d w neg 0 d cl s} def
/m33 {mp x y w2 add m w3 neg w2 neg d w3 w2 neg d w3 w2 d cl f} def
/m34 {mp x w2 sub y w2 sub w3 add m w3 0 d  0 w3 neg d w3 0 d 0 w3 d w3 0 d  0 w3 d w3 neg 0 d 0 w3 d w3 neg 0 d 0 w3 neg d w3 neg 0 d cl f } def
/m35 {mp x y w2 add m w2 neg w2 neg d w2 w2 neg d w2 w2 d w2 neg w2 d x y w2 sub m 0 w d x w2 sub y m w 0 d s} def
/m36 {mb x w2 sub y w2 add m w w neg d x w2 sub y w2 sub m w w d s} def
/m37 {mp x y m w4 neg w2 d w4 neg w2 neg d w2 0 d  w4 neg w2 neg d w2 0 d w4 neg w2 d w2 0 d w4 neg w2 d w4 neg w2 neg d cl s} def
/m38 {mp x w4 sub y w2 add m w4 neg w4 neg d 0 w2 neg d w4 w4 neg d w2 0 d w4 w4 d 0 w2 d w4 neg w4 d w2 neg 0 d x y w2 sub m 0 w d x w2 sub y m w 0 d cl s} def
/m39 {mp x y m w4 neg w2 d w4 neg w2 neg d w2 0 d  w4 neg w2 neg d w2 0 d w4 neg w2 d w2 0 d w4 neg w2 d w4 neg w2 neg d cl f} def
/m40 {mp x y m w4 w2 d w4 w4 neg d w2 neg w4 neg d w2 w4 neg d w4 neg w4 neg d w4 neg w2 d w4 neg w2 neg d w4 neg w4 d w2 w4 d w2 neg w4 d w4 w4 d w4 w2 neg d cl s} def
/m41 {mp x y m w4 w2 d w4 w4 neg d w2 neg w4 neg d w2 w4 neg d w4 neg w4 neg d w4 neg w2 d w4 neg w2 neg d w4 neg w4 d w2 w4 d w2 neg w4 d w4 w4 d w4 w2 neg d cl f} def
/m42 {mp x y w2 add m w8 neg w2 -3 4 div mul d w2 -3 4 div mul w8 neg d w2 3 4 div mul w8 neg d w8 w2 -3 4 div mul d w8 w2 3 4 div mul d w2 3 4 div mul w8 d w2 -3 4 div mul w8 d w8 neg w2 3 4 div mul d cl s} def
/m43 {mp x y w2 add m w8 neg w2 -3 4 div mul d w2 -3 4 div mul w8 neg d w2 3 4 div mul w8 neg d w8 w2 -3 4 div mul d w8 w2 3 4 div mul d w2 3 4 div mul w8 d w2 -3 4 div mul w8 d w8 neg w2 3 4 div mul d cl f} def
/m44 {mp x y m w6 neg w2 d w2 2 3 div mul 0 d w6 neg w2 neg d w2 w6 d 0 w2 -2 3 div mul d w2 neg w6 d w6 w2 neg d w2 -2 3 div mul 0 d w6 w2 d w2 neg w6 neg d 0 w2 2 3 div mul d w2 w6 neg d cl s} def
/m45 {mp x y m w6 neg w2 d w2 2 3 div mul 0 d w6 neg w2 neg d w2 w6 d 0 w2 -2 3 div mul d w2 neg w6 d w6 w2 neg d w2 -2 3 div mul 0 d w6 w2 d w2 neg w6 neg d 0 w2 2 3 div mul d w2 w6 neg d cl f} def
/m46 {mp x y w4 add m w4 neg w4 d w4 neg w4 neg d  w4 w4 neg d w4 neg w4 neg d w4 w4 neg d w4 w4 d w4 w4 neg d w4 w4 d w4 neg w4 d w4 w4 d w4 neg w4 d w4 neg w4 neg d cl s} def
/m47 {mp x y w4 add m w4 neg w4 d w4 neg w4 neg d w4 w4 neg d w4 neg w4 neg d  w4 w4 neg d w4 w4 d w4 w4 neg d w4 w4 d w4 neg w4 d w4 w4 d w4 neg w4 d w4 neg w4 neg d cl f} def
/m48 {mp x y w4 add m w4 neg w4 d w4 neg w4 neg d w4 w4 neg d  w4 neg w4 neg d w4 w4 neg d w4 w4 d w4 w4 neg d w4 w4 d w4 neg w4 d w4 w4 d w4 neg w4 d w4 neg w4 neg d  w4 w4 neg d w4 neg w4 neg d w4 neg w4 d w4 w4 d cl f} def
/m49 {mp x w2 sub w3 add y w2 sub w3 add m  0 w3 neg d w3 0 d 0 w3 d w3 0 d 0 w3 d w3 neg 0 d 0 w3 d w3 neg 0 d 0 w3 neg d w3 neg 0 d 0 w3 neg d w3 0 d 0 w3 d w3 0 d 0 w3 neg d w3 neg 0 d cl f } def
/m2 {mp x y w2 sub m 0 w d x w2 sub y m w 0 d s} def
/m5 {mp x w2 sub y w2 sub m w w d x w2 sub y w2 add m w w neg d s} def
%%IncludeResource: ProcSet (FontSetInit)
%%IncludeResource: font Times-Roman
%%IncludeResource: font Times-Italic
%%IncludeResource: font Times-Bold
%%IncludeResource: font Times-BoldItalic
%%IncludeResource: font Helvetica
%%IncludeResource: font Helvetica-Oblique
%%IncludeResource: font Helvetica-Bold
%%IncludeResource: font Helvetica-BoldOblique
%%IncludeResource: font Courier
%%IncludeResource: font Courier-Oblique
%%IncludeResource: font Courier-Bold
%%IncludeResource: font Courier-BoldOblique
%%IncludeResource: font Symbol
%%IncludeResource: font ZapfDingbats
/reEncode {exch findfont dup length dict begin {1 index /FID eq  {pop pop} {def} ifelse } forall /Encoding exch def currentdict end dup /FontName get exch definefont pop } def [/Times-Bold /Times-Italic /Times-BoldItalic /Helvetica /Helvetica-Oblique
 /Helvetica-Bold /Helvetica-BoldOblique /Courier /Courier-Oblique /Courier-Bold /Courier-BoldOblique /Times-Roman /AvantGarde-Book /AvantGarde-BookOblique /AvantGarde-Demi /AvantGarde-DemiOblique /Bookman-Demi /Bookman-DemiItalic /Bookman-Light
 /Bookman-LightItalic /Helvetica-Narrow /Helvetica-Narrow-Bold /Helvetica-Narrow-BoldOblique /Helvetica-Narrow-Oblique /NewCenturySchlbk-Roman /NewCenturySchlbk-Bold /NewCenturySchlbk-BoldItalic /NewCenturySchlbk-Italic /Palatino-Bold
 /Palatino-BoldItalic /Palatino-Italic /Palatino-Roman ] {ISOLatin1Encoding reEncode } forall
%%EndProlog
%%BeginSetup
%%EndSetup
newpath  gsave  .25 .25 scale  gsave  0 0 t 0.490196 0.545098 0.615686 c[  ] 0 sd 3 lw 0.941176 0.941176 0.941176 c 2268 1684 0 0 bf black 1 1 0.992157 c 1796 1145 245 202 bf black 1796 1145 245 202 bl 1 1 0.992157 c 1796 1145 245 202 bf black 1796
 1145 245 202 bl 245 202 m 1796 X s[ 4 8] 0 sd 351 1347 m -1145 Y s 543 1347 m -1145 Y s 736 1347 m -1145 Y s 928 1347 m -1145 Y s 1121 1347 m -1145 Y s 1313 1347 m -1145 Y s 1506 1347 m -1145 Y s 1698 1347 m -1145 Y s 1891 1347 m -1145 Y s 351 1347
 m -1145 Y s 1891 1347 m -1145 Y s[  ] 0 sd 245 202 m 1145 Y s[ 4 8] 0 sd 2041 257 m -1796 X s 2041 455 m -1796 X s 2041 653 m -1796 X s 2041 851 m -1796 X s 2041 1050 m -1796 X s 2041 1248 m -1796 X s 2041 257 m -1796 X s 2041 1248 m -1796 X s 0 0
 0.933333 c[  22 12 ] 0 sd 6 lw 0.49 0.6 0.82 c black 0 0 0.933333 c 245 752 m 9 X s 254 752 m 9 X s 263 752 m 8 X s 271 752 m 9 X s 280 752 m 9 X s 289 752 m 9 X s 298 752 m 9 X s 307 752 m 8 X s 315 752 m 9 X s 324 752 m 9 X s 333 752 m 9 X s 342
 752 m 9 X s 351 752 m 8 X s 359 752 m 9 X s 368 752 m 9 X s 377 752 m 4 X 1 Y 5 X s 386 753 m 9 X s 395 753 m 8 X s 403 753 m 9 X s 412 753 m 9 X s 421 753 m 9 X s 430 753 m 3 X 1 Y 6 X s 439 754 m 8 X s 447 754 m 9 X s 456 754 m 1 X 1 Y 8 X s 465
 755 m 9 X s 474 755 m 5 X 1 Y 4 X s 483 756 m 8 X s 491 756 m 9 X s 500 756 m 1 X 1 1 d 7 X s 509 757 m 5 X 1 Y 4 X s 518 758 m 9 X s 527 758 m 1 X 1 Y 7 X s 535 759 m 2 X 1 Y 7 X s 544 760 m 6 X 1 1 d 2 X s 553 761 m 8 X 1 Y 1 X s 562 762 m 8 X 1 Y
 1 X s 571 763 m 8 X s 579 763 m 1 X 1 Y 8 X s 588 764 m 1 X 1 Y 8 X s 597 765 m 1 Y 6 X 1 Y 3 X s 606 767 m 5 X 1 Y 4 X s 615 768 m 1 Y 4 X 1 Y 4 X s 623 770 m 3 X 1 Y 6 X 1 Y s 632 772 m 5 X 1 Y 4 X s 641 773 m 1 X 1 Y 5 X 1 1 d 2 X s 650 775 m 4 X
 1 Y 5 X s 659 776 m 1 Y 5 X 1 Y 3 X s 667 778 m 3 X 1 Y 2 X 1 Y 4 X s 676 780 m 1 X 1 Y 3 X 1 Y 3 X 1 1 d 1 X s 685 783 m 2 X 1 Y 3 X 1 Y 4 X s 694 785 m 1 X 1 Y 4 X 1 Y 4 X s 703 787 m 1 Y 3 X 1 Y 3 X 1 Y 2 X s 711 790 m 3 X 1 Y 2 X 1 1 d 2 X 1 Y 1
 X s 720 793 m 1 X 1 Y 4 X 1 Y 3 X 1 Y 1 X s 729 796 m 2 X -1 Y 1 X 1 Y 3 X 1 Y 3 X s 738 797 m 1 X 1 Y 4 X 1 Y 1 X 1 Y 2 X -1 Y 1 X s 747 799 m 1 Y 4 X 1 Y 2 X 1 1 d 1 X s 755 802 m 2 X 1 Y 2 X 1 Y 3 X 1 Y 2 X s 764 805 m 1 X 1 Y 3 X 1 Y 2 X 1 Y 3 X
 1 Y s 773 809 m 3 X 1 Y 2 X 1 Y 1 X 1 Y 3 X s 782 812 m 1 Y 2 X 1 Y 3 X 1 Y 2 X 1 Y 2 X s 791 816 m 1 X 1 Y 3 X 1 Y 3 X 1 Y 1 X s 799 819 m 2 X 1 Y 2 X 1 1 d 1 X 1 Y 2 X 1 Y 1 X s 808 823 m 2 X 1 Y 2 X 1 Y 1 X 1 Y 2 X 1 Y 2 X 1 Y s 817 828 m 1 X 1 1
 d 2 X 1 Y 2 X 1 Y 2 X 1 Y 1 X s 826 832 m 1 X 1 Y 1 X 1 1 d 1 X 1 Y 1 X -1 Y 1 X 1 Y 2 X 1 Y 1 X s 835 836 m 1 Y 1 X 1 Y 3 X 1 Y 2 X 1 Y 2 X s 843 840 m 2 X 1 Y 2 X 1 Y 2 X 1 Y 3 X 1 Y s 852 844 m 2 X 1 Y 3 X 1 Y 2 X 1 Y 2 X 1 Y s 861 848 m 1 X 2 Y
 2 X 1 Y 3 X 1 1 d 1 X 1 1 d s 870 853 m 1 X 1 Y 2 X 1 Y 6 X s 879 855 m 1 1 d 1 X 1 Y 1 X -1 Y 1 X 1 Y 3 X 1 Y 1 X s 887 858 m 1 1 d 2 X 1 Y 2 X 2 Y 1 X 1 1 d 1 X 1 Y 1 X s 896 864 m 1 X 1 1 d 1 1 d 1 X 1 Y 1 X 1 1 d 1 X 1 1 d 1 X s 905 869 m 1 1 d
 2 X 1 Y 2 X 1 Y 2 X -1 Y 1 Y 2 X s 914 872 m 1 X 1 Y 2 X 1 Y 1 X 1 Y 3 X 1 Y 1 X 1 Y 1 X s 923 877 m 1 X 1 Y 1 X 1 1 d -1 Y 1 Y 2 X 1 Y 2 X 1 Y 1 X s 931 881 m 1 X 1 Y 1 X 1 1 d 1 1 d 1 1 d 1 1 d -1 Y 1 X 1 Y 1 X 1 Y 1 -1 d 1 Y s 940 887 m 2 X 1 Y 1
 X 1 1 d -1 Y 1 Y 1 X 1 1 d 1 X 1 Y 2 X 1 Y -2 Y s 949 890 m 1 Y 1 X 1 Y 2 X 1 Y 2 X 1 Y 2 X 1 Y 2 X s 958 895 m 1 Y 1 X 1 1 d 1 X 1 Y 2 X 1 Y 2 X 1 1 d 1 X s 967 900 m 1 Y 2 X 1 Y 2 X 1 Y 1 X 1 Y 2 X 1 Y 1 X s 975 905 m 1 X 1 Y 1 X 1 1 d 2 X 1 Y 1 X
 1 Y -1 Y 1 1 d 1 X 1 Y 1 X s 984 910 m 1 X 1 Y 1 X 1 Y 1 X 1 Y 2 X 1 Y -1 Y 2 X 1 Y 2 X s 993 914 m 1 1 d 1 X 1 Y 1 X 1 1 d 1 1 d 1 X 1 Y -1 Y 1 Y 1 X 1 Y 2 X s 1002 920 m 1 X 1 Y 1 X 1 Y 4 X 1 Y 1 X 1 Y 2 X s 1011 924 m 1 Y 1 X -1 Y 1 Y 1 X 1 Y 2 X
 1 Y 2 X 1 Y 1 X -1 Y 1 1 d 1 Y s 1019 929 m 2 X 1 Y 2 X 1 Y 1 X -2 Y 1 Y 1 X 1 1 d 1 Y 2 X 1 Y s 1028 933 m 1 X 1 1 d 1 X 1 Y -1 Y 1 1 d 1 X 1 Y 3 X 1 Y -1 Y 1 1 d s 1037 937 m 1 X 1 Y 1 X 1 Y -1 Y 1 X 1 1 d 1 X 1 Y 2 X 1 Y 2 X s 1046 941 m 1 X 1 Y
 2 X 1 1 d 1 X 1 Y 2 X 1 Y 1 X 1 Y 1 X s 1055 946 m 1 X -1 Y 1 Y 1 X 1 1 d 1 X 1 Y 2 X 1 Y 2 X 1 Y s 1063 950 m 1 X 1 Y -1 Y 1 X 2 Y 2 X 1 1 d 1 X 1 Y 1 X 1 Y 2 X s 1072 955 m -1 Y 1 1 d 1 X 1 Y 2 X 1 Y 2 X 1 Y 2 X 1 Y -1 Y 1 X 1 Y s 1081 959 m 1 X 1
 1 d 1 X 1 1 d 1 X 1 Y 2 X 1 Y 2 X 1 Y s 1090 964 m 1 1 d 1 1 d 1 1 d 1 X 1 Y 1 X 1 Y 2 X 1 Y 1 X -1 Y 1 X s 1099 969 m 1 Y 1 X 1 Y 2 X 1 Y 2 X 1 Y 1 X 1 Y 2 X 1 Y s 1107 975 m 2 X 1 Y 1 X 1 Y 1 X 1 Y 1 X 1 1 d 2 X 1 Y 1 X 1 Y s 1116 981 m -1 Y 1 1 d
 2 X 1 Y 2 X 1 1 d 1 X 1 Y 1 X 1 Y 1 X 1 Y s 1125 986 m 1 X 1 Y 2 X 1 Y 3 X 1 Y 1 X 1 Y 2 X s 1134 990 m 1 X 1 Y -1 Y 1 X 1 Y 2 X 1 Y 1 X 1 1 d 3 X s 1143 993 m 1 Y 1 X 1 Y 1 X 1 Y 2 X 1 Y 1 X 1 1 d 1 X 1 Y 1 X s 1151 999 m 1 X 1 Y 3 X 1 Y 2 X 1 Y 1
 -1 d -1 Y 1 Y 1 X 1 Y 1 X s 1160 1002 m 1 Y 2 X 1 Y 1 X 1 Y 1 X 1 Y 1 X -3 Y 1 Y 1 X 1 Y -1 Y 1 X 1 Y 1 X 1 Y 1 X 1 Y s 1169 1007 m 1 X -1 Y 2 X 1 Y 1 X 1 Y 2 X 1 Y 1 1 d 2 X s 1178 1010 m 2 Y 1 X 1 Y 1 X 2 Y 1 X 1 -1 d 1 Y 1 X 1 Y 1 X 1 Y 2 X 1 Y 1
 X s 1187 1018 m 1 X 1 Y -1 Y 1 X 1 Y 1 X 1 Y 1 X 1 Y 1 X -1 Y 1 Y 1 X 1 1 d 1 X 1 Y s 1195 1023 m 2 X 1 Y -3 Y 1 X 1 Y -1 Y 1 X 1 Y 3 X 1 Y 1 X 1 Y 1 X s 1204 1024 m 3 X 1 Y 2 X 1 Y -1 Y 1 X 1 -1 d 1 Y 2 X s 1213 1025 m 1 X -1 Y 1 X 1 Y 1 X 1 Y 1 -1
 d 1 Y 4 X 1 Y 1 X s 1222 1027 m 2 X 1 Y 2 X 1 Y 1 -1 d 2 X 1 Y 1 X -1 Y 1 1 d s 1231 1029 m -2 Y 1 X 1 Y 1 X -1 Y 1 -1 d 1 X -1 Y 1 X 1 Y 1 X -1 Y 1 X 1 1 d s 1239 1026 m 1 X 1 Y 1 -2 d 1 Y 3 X 1 Y 4 X s 1248 1027 m 1 Y 2 X 1 Y 2 X 1 Y 3 X 1 Y 1 X 1
 1 d s 1257 1032 m 2 X 1 Y 1 X 1 Y 2 X 1 Y 1 X 1 1 d 1 X 1 Y 1 X s 1266 1037 m 1 Y 1 X -1 Y 1 Y 1 X 1 Y 1 X -1 Y 1 X 1 Y 1 X -1 Y 1 X 1 Y 2 X 1 Y 1 -1 d s 1275 1039 m 1 1 d -2 Y 1 1 d -1 Y 1 X -1 Y 1 Y 4 X 1 Y 1 X -2 Y s 1283 1037 m 1 1 d 1 X 1 1 d 1
 X 1 -1 d 1 Y -1 Y 2 X 1 Y 2 X s 1292 1039 m 1 Y 1 -1 d 1 Y 1 X -1 Y 1 Y 1 X 1 Y 1 X -2 Y 2 X 1 Y 1 X 2 Y 1 -3 d 1 X 1 Y s 1301 1040 m -1 Y 2 X 1 Y -2 Y 2 X 1 Y 1 X 1 Y -1 Y 1 X 1 Y 2 X 1 -1 d s 1310 1039 m 2 X -1 Y 2 X 1 Y 1 X 1 Y 2 X 1 Y 2 X s 1319
 1041 m -3 Y 1 X 1 Y 1 X 1 Y -2 Y 2 X 1 Y 1 X -1 Y 1 1 d -1 Y 1 X 1 Y -1 Y 1 X s 1327 1038 m 3 X 1 Y 1 X -1 Y 1 X 1 Y -1 Y 1 X 1 Y 1 X -1 Y 1 Y 2 X s 1336 1039 m -1 Y 1 1 d 1 X 1 Y 2 X 1 Y -1 Y 1 X 9 Y 1 X 1 -1 d 1 X 1 2 d s 1345 1050 m -1 Y 1 X 1 1
 d 1 Y 2 X 1 -1 d -1 Y 1 Y 1 X -2 Y 1 X 1 Y -1 Y 2 X s 1354 1048 m 2 X 1 -1 d 2 X 1 Y 1 X 1 -1 d 1 X 1 Y 1 X s 1363 1048 m 3 X 1 Y 1 X -1 Y 2 X 1 1 d 1 X s 1371 1049 m 2 X 1 Y 3 X 1 Y 1 X -1 Y 3 X s 1380 1050 m 1 X -2 Y 1 -2 d 1 X -1 Y 1 X -1 Y 1 Y 1
 -1 d 4 X 1 Y -2 Y s 1389 1043 m 1 X -2 Y 1 X 1 Y -1 Y 3 X -1 Y 2 X -1 Y 2 X s 1398 1039 m 1 Y 1 X 1 Y 3 X -1 Y 1 X 1 -1 d 1 Y -1 Y 1 1 d -2 Y 2 X s 1407 1038 m -2 Y 1 X -2 Y 1 X -1 Y 1 X 1 -1 d 1 X 1 Y 1 X -2 Y 1 Y 1 X -1 Y 1 1 d s 1415 1032 m 2 X 1
 -1 d -1 Y 3 X 1 1 d 1 X -1 Y 1 X -2 Y s 1424 1028 m 1 Y 1 X -6 Y 1 1 d -2 Y 2 X 1 -1 d -2 Y 1 Y 1 X -2 Y 3 X -1 Y s 1433 1017 m 2 X -1 Y 3 X -2 Y 2 X -1 Y 1 X -2 Y 1 -1 d s 1442 1010 m 6 X -2 Y 1 X 1 -1 d -1 Y 1 X s 1451 1006 m -1 Y 1 X -1 Y 2 Y 4 X
 -2 Y 2 X -2 Y 1 1 d s 1459 1003 m 1 X -1 Y 1 X 1 -2 d 1 X -2 Y 2 X 1 Y 1 X -3 Y 1 X -1 Y 1 X -1 Y s 1468 994 m 2 X -1 Y 1 -1 d 1 X 1 Y 1 X -1 Y 1 -2 d 2 X 1 Y 1 X -4 Y s 1477 987 m 2 X -3 Y 1 X 2 Y 1 X -1 Y 1 X 1 -1 d -1 Y 1 -1 d -2 Y 1 X -1 Y 1 X s
 1486 979 m 1 -1 d 1 X 1 -1 d 2 X -1 Y 1 X -2 Y 2 X -1 Y 1 X s 1495 973 m -3 Y 2 X -2 Y 1 X 5 Y 1 X -1 Y 2 X -3 Y 1 -1 d 1 Y -1 Y 1 X -1 Y s 1503 967 m 1 X -1 Y 1 Y 1 X -2 Y 1 X -1 Y 1 X -1 Y 1 X -1 Y 1 -1 d -1 Y 2 Y 1 X -5 Y 1 Y 1 X -1 Y 1 X s 1512
 957 m 1 X -3 Y 1 -1 d 2 Y 1 X -1 Y 1 X -2 Y 1 X -2 Y 1 X -1 Y 1 X -2 Y 1 Y 1 X -2 Y 1 X s 1521 946 m 1 Y 1 X 1 Y 1 -1 d 2 X -3 Y 1 X -1 Y 1 X -1 Y 1 X -1 Y 1 X -2 Y 1 X s 1530 939 m 1 -1 d -1 Y 1 Y 1 X -1 Y 2 X -2 Y 1 X -2 Y 1 X -1 Y 1 X -2 Y 1 Y 1
 X -1 Y 1 X s 1539 930 m 1 X -1 Y 1 Y 1 X -2 Y 1 X -3 Y 1 -1 d -1 Y 1 X -1 Y 1 X 1 Y -1 Y 2 X 1 Y s 1547 923 m 1 X -1 Y 1 X 1 Y -1 Y 1 X -2 Y 1 -1 d -1 Y 1 X -3 Y 1 X 1 -1 d 1 -1 d -1 Y 1 -1 d -1 Y s 1556 910 m 1 X -3 Y 1 X -1 Y 1 X -2 Y 1 -1 d -2 Y
 1 X -1 Y 1 X -2 Y 1 X -1 Y 1 X -3 Y 1 X 1 Y s 1565 895 m -1 Y 1 X -2 Y 1 -1 d -1 Y 1 X 1 Y 1 X -1 Y 1 -2 d -3 Y 2 X 4 Y -2 Y 1 X -1 Y 1 X -1 Y s 1574 885 m 4 X -2 Y 1 1 d -2 Y 1 X -3 Y 1 X -3 Y 1 X -1 Y 1 X s 1583 875 m -1 Y 1 1 d -4 Y 1 X -6 Y 1 X
 -1 Y 1 X -1 Y 1 X -2 Y 1 X 1 Y -1 Y 1 X -2 Y 1 1 d -1 Y s 1591 859 m 1 -1 d -1 Y 1 1 d -1 Y 1 Y 1 -1 d 1 Y 1 -1 d 1 -1 d -1 Y 1 Y -1 Y 1 Y 1 X -3 Y 1 -1 d -1 Y 1 X -1 Y 1 -2 d s 1600 848 m 1 X -1 Y 1 Y 1 -1 d -2 Y 1 X -1 Y 1 -1 d -1 Y 1 Y 1 X -4 Y 1
 X -2 Y 1 -1 d -2 Y 1 X -5 Y 1 X -2 Y 1 Y s 1609 828 m 1 X -3 Y 1 X -2 Y 1 X -2 Y 1 X -2 Y 1 X -2 Y 1 X -1 Y 1 Y -2 Y 1 -1 d 1 Y 1 X -1 Y 1 X s 1618 814 m -1 Y 2 X -1 Y 2 Y -3 Y 1 -1 d -1 Y 1 X -2 Y 1 X 1 Y -1 Y 1 X -1 Y 1 X -3 Y 1 X 1 -1 d s 1627
 802 m -1 Y 1 X 1 -1 d -2 Y 1 -1 d -4 Y 1 X -3 Y 1 1 d -2 Y 1 X -2 Y 1 -1 d -1 Y 1 X -1 Y s 1635 784 m 1 X -1 Y 1 Y 1 X -3 Y 1 X -1 Y 1 X -1 Y 1 X -1 Y 1 -1 d -2 Y 1 X -3 Y 1 -2 d -1 Y 1 -1 d -1 Y s 1644 767 m 1 -1 d -4 Y 1 -2 d -1 Y 1 X -1 Y 1 X -2
 Y 1 -2 d -4 Y 1 X 1 -1 d -1 Y 1 X -3 Y 1 -1 d -1 Y s 1653 743 m -1 Y 1 X 1 Y -3 Y 1 X -2 Y 1 X -3 Y 1 -1 d 1 X -2 Y 1 -1 d -4 Y 1 X -1 Y 1 -1 d -1 Y 1 -1 d -2 Y s 1662 721 m -1 Y 1 X -2 Y 1 X -4 Y 1 -1 d -3 Y 1 -1 d -9 Y 1 Y 1 -1 d -4 Y 1 X -1 Y 1
 -1 d -2 Y 1 X -4 Y 1 X -1 Y s 1671 687 m 1 Y -3 Y 1 X -1 Y 1 X -2 Y 2 X -2 Y 1 X -1 Y 1 -1 d -1 Y 1 -1 d -2 Y 1 -1 d -1 Y s 1679 672 m 1 X -1 Y 1 -3 d -2 Y 1 X -2 Y 1 -1 d -1 Y 1 X -2 Y 1 X -1 Y 1 -1 d -5 Y 1 X 1 Y 1 -1 d -4 Y s 1688 649 m 1 X -2 Y
 1 Y 1 -1 d -3 Y 1 -1 d -1 Y 1 Y -1 Y 1 X -4 Y 1 -1 d -2 Y 1 X -2 Y 1 X -2 Y 1 -1 d -1 Y 1 X -2 Y s 1697 627 m 1 X -2 Y 2 X -1 Y 1 X -4 Y 1 X -2 Y 1 X -3 Y 1 -1 d -5 Y 1 1 d -4 Y 1 X -1 Y s 1706 605 m -2 Y 1 X -2 Y 1 -1 d -2 Y 1 X -2 Y 1 -1 d -1 Y 1
 X 1 -1 d -2 Y 1 -1 d -4 Y 1 X -2 Y 1 X -2 Y s 1715 582 m -5 Y 1 -3 d -3 Y 1 X -1 Y 1 -1 d -3 Y 1 Y -1 Y 1 X -1 Y 1 X -1 Y 1 X -2 Y 1 X -4 Y 1 X -2 Y s 1723 556 m 1 X -1 Y 1 -1 d -3 Y 1 X -4 Y 1 X -1 Y 1 -2 d -1 Y 1 -1 d -3 Y 1 -3 d -1 Y 1 -1 d -2 Y
 1 X -1 Y s 1732 531 m -2 Y 1 X 1 -1 d -2 Y 1 -1 d -1 Y 1 Y 1 -1 d -3 Y 1 X -3 Y 1 X -1 Y 1 Y -1 Y 1 X -2 Y 1 X -2 Y 1 X s 1741 513 m 1 -2 d -1 Y 1 X 1 Y -3 Y 1 X -2 Y 1 X -3 Y 1 X -2 Y 1 -1 d -2 Y 1 -1 d -4 Y 1 X -4 Y 1 X -1 Y s 1750 488 m -1 Y 1 -2
 d -4 Y 1 X -1 Y 1 X -1 Y 1 X -1 Y 1 X -3 Y 1 -1 d -2 Y 1 -1 d -2 Y 1 -1 d -3 Y 1 X s 1759 465 m -2 Y 1 X -2 Y 1 -1 d -3 Y 1 X -2 Y 1 X -1 Y 1 -1 d -2 Y 1 X -1 Y 1 X -5 Y 1 X s 1767 445 m 1 -1 d -1 Y 1 -1 d -1 Y 1 X 1 -1 d -1 Y 1 X -2 Y 1 X -2 Y 1 1
 d -3 Y 1 X -3 Y 1 X -2 Y s 1776 428 m -1 Y 1 1 d -1 Y 1 X -2 Y 1 X -2 Y 1 Y -1 Y 1 Y 1 X -1 Y 1 -1 d -2 Y 1 X -2 Y 1 -1 d -2 Y 1 -2 d 1 -1 d -1 Y s 1785 411 m -3 Y 1 X -3 Y 1 X -3 Y 1 X -2 Y 1 -1 d -4 Y 1 -1 d 1 Y -1 Y 1 Y -1 Y 1 -1 d 2 Y -1 Y 1 -1
 d -2 Y 1 X -1 Y 1 -1 d -1 Y s 1794 388 m -1 Y 1 1 d -3 Y 1 X -2 Y 1 X -1 Y 1 X -2 Y 1 X -1 Y 1 -1 d -2 Y 1 X -2 Y 1 X -2 Y 1 X -1 Y s 1803 371 m 1 -1 d -3 Y 1 -1 d 1 Y -2 Y 1 -1 d -2 Y 1 X -2 Y 1 X -1 Y 1 1 d 1 X -2 Y 1 -1 d -2 Y 1 1 d s 1812 356 m
 -3 Y 1 X -1 Y 1 Y -1 Y 1 X -2 Y 2 X -1 Y 1 X -2 Y 1 X -2 Y 1 X -1 Y 1 Y 1 X -1 Y s 1820 344 m 1 X -2 Y 1 -1 d -1 Y 1 -1 d 1 X -1 Y 1 X -2 Y 1 X -2 Y 1 X -1 Y 1 X -1 Y 1 X s 1829 332 m 1 X -1 Y 2 X -1 Y 1 X -1 Y 1 X -1 Y 1 Y 1 -1 d -1 Y 1 X -1 Y 2 X
 s 1838 326 m -1 Y 1 -1 d 1 -1 d -1 Y 1 X -1 Y 1 -1 d -1 Y 1 X 1 Y -2 Y 3 X -1 Y 1 X -1 Y s 1847 316 m -1 Y 1 X 1 -1 d 3 X -1 Y 2 X -1 Y 1 X -1 Y 1 X s 1856 311 m 1 X -1 Y 1 -1 d 1 X 1 -1 d 1 X -1 Y 1 X -2 Y 1 X -2 Y 1 -1 d -1 Y s 1864 301 m 3 X -1 Y
 2 X -1 Y 1 X -2 Y 1 X -1 Y 2 X -1 Y s 1873 295 m -1 Y 1 X -1 Y 1 X 1 Y -1 Y 1 X -1 Y 2 X -1 Y 2 X -1 Y 1 X -1 Y 1 X -1 Y s 1882 288 m 1 X -1 Y 2 X -1 Y 3 X -1 Y 1 X -1 Y 1 X -1 Y 1 X s 1891 283 m 2 X -1 Y 2 X -1 Y 2 X -1 Y 3 X s 1900 280 m -1 Y 1 X
 -1 Y 4 X -1 Y 1 X -1 Y 1 X -1 Y 1 Y 1 X s 1908 276 m 1 X -1 Y 1 X -1 Y 1 X 1 -2 d -1 Y 2 X -1 Y 1 X 1 1 d -1 Y 1 X s 1917 270 m 4 X -1 Y 3 X -2 Y 2 X 2 Y s 1926 269 m 1 X -1 Y 7 X -1 Y 1 X s 1935 267 m 4 X -1 Y 3 X -2 Y 2 X s 1944 264 m -1 Y 4 X -1
 Y 4 X s 1952 262 m 5 X -1 Y 4 X s 1961 261 m 1 X -1 Y 1 X -1 Y 7 X s 1970 259 m 2 X -1 Y 7 X s 1979 258 m 8 X -1 Y 1 X s 1988 257 m 8 X s 1996 257 m 9 X s 2005 257 m 9 X s 2014 257 m 9 X s 2023 257 m 9 X s 2032 257 m 8 X s 2040 257 m 1 X s black[  ]
 0 sd 3 lw 245 202 m 1796 X s 351 242 m -40 Y s 389 222 m -20 Y s 428 222 m -20 Y s 466 222 m -20 Y s 505 222 m -20 Y s 543 242 m -40 Y s 582 222 m -20 Y s 620 222 m -20 Y s 659 222 m -20 Y s 697 222 m -20 Y s 736 242 m -40 Y s 774 222 m -20 Y s 813
 222 m -20 Y s 851 222 m -20 Y s 890 222 m -20 Y s 928 242 m -40 Y s 967 222 m -20 Y s 1005 222 m -20 Y s 1044 222 m -20 Y s 1082 222 m -20 Y s 1121 242 m -40 Y s 1159 222 m -20 Y s 1198 222 m -20 Y s 1236 222 m -20 Y s 1275 222 m -20 Y s 1313 242 m
 -40 Y s 1352 222 m -20 Y s 1390 222 m -20 Y s 1429 222 m -20 Y s 1467 222 m -20 Y s 1506 242 m -40 Y s 1544 222 m -20 Y s 1583 222 m -20 Y s 1621 222 m -20 Y s 1660 222 m -20 Y s 1698 242 m -40 Y s 1737 222 m -20 Y s 1775 222 m -20 Y s 1814 222 m
 -20 Y s 1853 222 m -20 Y s 1891 242 m -40 Y s 351 242 m -40 Y s 312 222 m -20 Y s 274 222 m -20 Y s 1891 242 m -40 Y s 1930 222 m -20 Y s 1968 222 m -20 Y s 2007 222 m -20 Y s
 gsave  2268 1684 0 0 C 318.542 128.934 t 0 r /Helvetica-Bold findfont 64.4669 sf 0 0 m (0.5) show NC gr 
 gsave  2268 1684 0 0 C 288.205 128.934 t 0 r /Symbol findfont 64.4669 sf 0 0 m (-) show NC gr 
 gsave  2268 1684 0 0 C 511.943 128.934 t 0 r /Helvetica-Bold findfont 64.4669 sf 0 0 m (0.4) show NC gr 
 gsave  2268 1684 0 0 C 481.605 128.934 t 0 r /Symbol findfont 64.4669 sf 0 0 m (-) show NC gr 
 gsave  2268 1684 0 0 C 705.343 128.934 t 0 r /Helvetica-Bold findfont 64.4669 sf 0 0 m (0.3) show NC gr 
 gsave  2268 1684 0 0 C 675.006 128.934 t 0 r /Symbol findfont 64.4669 sf 0 0 m (-) show NC gr 
 gsave  2268 1684 0 0 C 894.952 128.934 t 0 r /Helvetica-Bold findfont 64.4669 sf 0 0 m (0.2) show NC gr 
 gsave  2268 1684 0 0 C 864.614 128.934 t 0 r /Symbol findfont 64.4669 sf 0 0 m (-) show NC gr 
 gsave  2268 1684 0 0 C 1092.14 128.934 t 0 r /Helvetica-Bold findfont 64.4669 sf 0 0 m (0.1) show NC gr 
 gsave  2268 1684 0 0 C 1061.81 128.934 t 0 r /Symbol findfont 64.4669 sf 0 0 m (-) show NC gr 
 gsave  2268 1684 0 0 C 1293.13 128.934 t 0 r /Helvetica-Bold findfont 64.4669 sf 0 0 m (0) show NC gr 
 gsave  2268 1684 0 0 C 1463.78 128.934 t 0 r /Helvetica-Bold findfont 64.4669 sf 0 0 m (0.1) show NC gr 
 gsave  2268 1684 0 0 C 1649.59 128.934 t 0 r /Helvetica-Bold findfont 64.4669 sf 0 0 m (0.2) show NC gr 
 gsave  2268 1684 0 0 C 1842.99 128.934 t 0 r /Helvetica-Bold findfont 64.4669 sf 0 0 m (0.3) show NC gr 
 gsave  2268 1684 0 0 C 860.822 30.3373 t 0 r /Helvetica-Bold findfont 72.0512 sf 0 0 m (Cut value applied on BDTD output) show NC gr  245 202 m 1145 Y s 291 257 m -46 X s 268 306 m -23 X s 268 356 m -23 X s 268 405 m -23 X s 291 455 m -46 X s 268
 504 m -23 X s 268 554 m -23 X s 268 604 m -23 X s 291 653 m -46 X s 268 703 m -23 X s 268 752 m -23 X s 268 802 m -23 X s 291 851 m -46 X s 268 901 m -23 X s 268 950 m -23 X s 268 1000 m -23 X s 291 1050 m -46 X s 268 1099 m -23 X s 268 1149 m -23 X
 s 268 1198 m -23 X s 291 1248 m -46 X s 291 257 m -46 X s 268 207 m -23 X s 291 1248 m -46 X s 268 1297 m -23 X s 268 1347 m -23 X s
 gsave  2268 1684 0 0 C 182.024 231.322 t 0 r /Helvetica-Bold findfont 64.4669 sf 0 0 m (0) show NC gr 
 gsave  2268 1684 0 0 C 128.934 428.515 t 0 r /Helvetica-Bold findfont 64.4669 sf 0 0 m (0.2) show NC gr 
 gsave  2268 1684 0 0 C 128.934 629.5 t 0 r /Helvetica-Bold findfont 64.4669 sf 0 0 m (0.4) show NC gr 
 gsave  2268 1684 0 0 C 128.934 826.693 t 0 r /Helvetica-Bold findfont 64.4669 sf 0 0 m (0.6) show NC gr 
 gsave  2268 1684 0 0 C 128.934 1023.89 t 0 r /Helvetica-Bold findfont 64.4669 sf 0 0 m (0.8) show NC gr 
 gsave  2268 1684 0 0 C 189.608 1224.87 t 0 r /Helvetica-Bold findfont 64.4669 sf 0 0 m (1) show NC gr 
 gsave  2268 1684 0 0 C 64.4669 735.681 t 90 r /Helvetica-Bold findfont 72.0512 sf 0 0 m (Efficiency \(Purity\)) show NC gr  0 0 0.933333 c[  52 12 ] 0 sd 6 lw 0.49 0.6 0.82 c black 0 0 0.933333 c 245 752 m 9 X s 254 752 m 9 X s 263 752 m 8 X s 271
 752 m 9 X s 280 752 m 9 X s 289 752 m 9 X s 298 752 m 9 X s 307 752 m 8 X s 315 752 m 9 X s 324 752 m 9 X s 333 752 m 9 X s 342 752 m 9 X s 351 752 m 3 X 1 1 d 4 X s 359 753 m 9 X s 368 753 m 9 X s 377 753 m 9 X s 386 753 m 9 X s 395 753 m 8 X s 403
 753 m 9 X s 412 753 m 9 X s 421 753 m 2 X 1 1 d 6 X s 430 754 m 9 X s 439 754 m 8 X s 447 754 m 2 X 1 1 d 6 X s 456 755 m 9 X s 465 755 m 9 X s 474 755 m 1 X 1 Y 8 X s 483 756 m 8 X s 491 756 m 4 X 1 Y 5 X s 500 757 m 9 X s 509 757 m 3 X 1 Y 6 X s
 518 758 m 5 X 1 Y 4 X s 527 759 m 7 X 1 Y 1 X s 535 760 m 9 X s 544 760 m 1 X 1 Y 8 X s 553 761 m 5 X 1 1 d 3 X s 562 762 m 4 X 1 1 d 4 X s 571 763 m 7 X 1 Y 1 X s 579 764 m 8 X 1 Y 1 X s 588 765 m 5 X 1 Y 1 X -1 Y 1 Y 3 X s 597 766 m 2 X 1 Y 7 X s
 606 767 m 2 X 1 1 d 3 X 1 Y 3 X s 615 769 m 2 X 1 Y 4 X 1 Y 2 X s 623 771 m 6 X 1 Y 3 X s 632 772 m 2 X 1 1 d 4 X 1 Y 2 X s 641 774 m 4 X 1 Y 5 X s 650 775 m 1 X 1 Y 6 X 1 Y 2 X s 659 777 m 3 X 1 Y 5 X s 667 778 m 1 X 1 Y 4 X 1 Y 4 X s 676 780 m 1 X
 1 Y 3 X 1 Y 3 X 1 1 d 1 X s 685 783 m 2 X 1 Y 3 X 1 Y 4 X s 694 785 m 1 X 1 Y 4 X 1 Y 4 X s 703 787 m 1 Y 3 X 1 Y 3 X 1 Y 2 X s 711 790 m 3 X 1 Y 2 X 1 1 d 2 X 1 Y 1 X s 720 793 m 1 X 1 Y 4 X 1 Y 3 X 1 Y 1 X s 729 796 m 4 X 1 Y 3 X 1 Y 2 X s 738 798
 m 3 X 1 Y 3 X 1 Y 2 X 1 Y -1 Y 1 Y -1 Y 1 1 d s 747 801 m 3 X 1 Y 3 X 1 Y 2 X s 755 803 m 1 1 d 2 X 1 Y 3 X 1 Y 2 X 1 Y 1 X s 764 807 m 3 X 1 Y 2 X 1 Y 3 X 1 Y 1 X s 773 810 m 2 X 1 Y 2 X 1 Y 2 X 1 Y 1 X 1 1 d 1 X s 782 814 m 1 X 1 1 d 2 X 1 Y 2 X 1
 Y 3 X s 791 817 m 1 Y 2 X 1 Y 4 X 1 Y 2 X s 799 820 m 1 1 d 2 X 1 Y 2 X 1 Y 2 X 1 Y 2 X 1 Y s 808 825 m 3 X 1 Y 2 X 1 Y 1 X 1 Y 2 X 1 Y 1 X s 817 829 m 1 1 d 2 X 1 Y 1 X 1 1 d 2 X 1 Y 1 X 1 1 d s 826 834 m 1 X 1 1 d 1 X 1 Y 2 X 1 Y -1 Y 1 1 d 2 X 1
 Y 1 X s 835 838 m 1 Y 1 X 1 Y 3 X 1 Y 2 X 1 Y 2 X 1 Y s 843 843 m 3 X 1 Y 2 X 1 Y 3 X 1 Y 1 X s 852 846 m 1 1 d 2 X 1 Y 2 X 1 1 d 2 X 1 Y 1 X 1 Y s 861 851 m 1 X 1 Y 1 X 1 Y 3 X 1 Y 2 X 1 Y 2 X s 870 855 m 1 Y 1 X 1 1 d 1 X 1 1 d 2 X 1 1 d 2 X s 879
 859 m 1 1 d 1 X 1 Y 2 X 1 Y 3 X 1 1 d s 887 863 m 1 X 1 Y 2 X 1 Y 2 X 1 Y 1 1 d 1 1 d 1 X 1 Y 1 X s 896 869 m 1 X 1 1 d 1 X 1 Y 1 X 1 Y 1 X 1 1 d 1 X 1 1 d 1 X s 905 874 m 1 Y 2 X 1 Y 2 X 1 Y 2 X 1 1 d -1 Y 1 Y 1 X 1 1 d s 914 879 m 2 X 1 1 d 1 Y 2
 X 1 Y 2 X 1 Y 1 X 1 Y 1 X s 923 884 m 1 X 1 Y 1 X 1 Y 2 X 1 Y 2 X 1 Y 1 X 1 Y 1 X s 931 889 m 1 X 1 1 d 1 X 1 Y 1 1 d 1 X 1 Y 1 X 1 Y 2 X 1 Y 1 X s 940 895 m 1 X 1 Y 2 X 1 Y 1 X 1 Y 1 X 1 1 d 1 X 1 Y 1 X 1 Y 1 X s 949 901 m 1 X 1 Y 1 X 1 Y 2 X 1 Y 2
 X 1 1 d 1 X 1 Y 1 X s 958 906 m 1 X 1 Y 1 X 1 1 d 1 X 1 Y 2 X 1 Y 2 X 1 Y 1 X s 967 911 m 1 X 1 Y 2 X 1 Y 1 X 1 Y 1 X 1 Y 3 X 1 Y s 975 916 m 1 X 1 Y 2 X 1 Y 1 X 1 Y 3 X 1 Y 2 X 1 Y s 984 921 m 1 X 1 Y 1 X 1 Y 1 X 1 Y 1 X 1 1 d 2 X 1 Y 2 X 1 Y s 993
 927 m 1 X 1 Y 2 X 1 Y 1 X 1 Y 1 X 1 Y 1 X 1 1 d 2 X s 1002 932 m 1 Y 1 X 1 Y 1 X 1 Y 3 X 1 Y 1 X 1 Y 2 X 1 Y 1 X s 1011 938 m 1 X 1 Y 2 X 1 Y 1 X 1 Y 2 X 1 Y 1 X 1 1 d s 1019 943 m 1 X 1 Y 1 X 1 1 d 1 X 1 Y 2 X 1 Y 1 X 2 Y 2 X s 1028 949 m 1 1 d 1 X
 1 Y 1 X 1 Y 2 X 1 Y 1 X 1 1 d -1 Y 1 Y 1 X 1 Y 1 X s 1037 955 m 1 Y 1 X 1 1 d 1 X 1 Y 1 X 1 1 d 1 X 1 Y 1 X 1 1 d 1 X s 1046 961 m 1 X 1 Y 2 X 1 Y 1 X 1 Y 2 X 1 Y 1 X 1 Y 1 X 1 Y 1 X s 1055 967 m 1 X 1 Y 1 X 1 Y 2 X 1 Y 1 X 1 Y 2 X 1 Y 1 X 1 Y s
 1063 973 m 2 X 2 Y 2 X 1 Y 1 X 1 1 d 1 X 1 Y 2 X 1 Y s 1072 979 m -1 Y 1 1 d 1 X 1 Y 2 X 1 Y 1 X 1 1 d 2 X 1 Y 1 X s 1081 983 m 1 1 d 1 X 1 Y 2 X 1 Y 1 X 1 Y 2 X 1 Y 1 X 1 Y 1 X s 1090 989 m 1 Y 1 X 1 Y 1 X 1 Y 1 X 1 Y 2 X 1 Y 1 X 1 Y 1 X 1 Y 2 X s
 1099 996 m 1 Y 1 X 1 Y 2 X 1 Y 2 X 1 Y 1 X 1 Y 1 X 1 1 d s 1107 1002 m 1 X 1 Y 1 X 1 Y 1 X 1 Y 2 X 1 Y 1 X 1 Y 2 X 1 Y 1 X 1 Y s 1116 1009 m 2 X 1 Y 1 X 1 Y 2 X 1 Y 1 X 1 1 d 1 X 2 Y 1 X s 1125 1015 m 1 X 1 Y 1 X 1 Y 1 X 1 Y 2 X 1 Y 2 X 1 Y 1 X 1 Y
 1 X s 1134 1021 m 1 X 1 Y 2 X 1 Y 2 X 1 Y 1 X 1 Y 3 X s 1143 1025 m 1 Y 1 X 1 Y 1 X 1 Y 1 X 1 Y 1 X 1 Y 1 X 1 1 d 1 X 1 Y 1 X s 1151 1032 m 1 1 d 2 X 1 Y 1 X 1 1 d 1 X 1 Y 1 X 1 1 d 1 X 1 Y s 1160 1038 m 1 X 1 Y 1 X 1 Y 1 X 1 Y 1 X 1 Y 1 X 1 Y 1 X 1
 Y 2 X 2 Y 1 X s 1169 1046 m 1 1 d 1 X 1 Y 1 X 1 Y 2 X 1 Y 1 X 1 Y 1 X 1 Y 2 X s 1178 1052 m 2 Y 1 X 1 Y 1 1 d 1 Y 1 X 1 Y -1 Y 1 1 d 1 Y 1 X 1 Y 1 X 1 1 d 1 X 1 Y 1 X s 1187 1062 m 1 Y 2 X 1 Y 1 X 1 Y 1 X 1 Y 1 X 1 1 d 1 X 1 Y 1 X 1 Y s 1195 1069 m
 2 X 1 Y -1 Y 1 X 1 Y 2 X 1 Y 2 X 1 Y 2 X s 1204 1072 m 1 X 1 Y 2 X 1 Y 2 X 1 Y 3 X 1 Y 1 X s 1213 1076 m 1 X 1 1 d 1 1 d 1 X 1 1 d 1 X 1 1 d 1 X 1 Y 1 X s 1222 1081 m 1 X 1 Y 1 X 1 1 d 2 X 1 Y 2 X 1 Y 1 X 1 Y 1 X s 1231 1086 m 1 X 1 1 d 1 -1 d 1 Y 2
 X 1 Y 2 X 1 Y 1 X s 1239 1089 m 1 X 1 Y 2 X 1 Y 2 X 1 Y 2 X 1 Y 2 X s 1248 1093 m 1 X 1 Y 1 X 1 Y 2 X 1 Y 3 X 1 Y 1 X 1 1 d 1 Y s 1257 1099 m 2 X 1 Y 2 X 1 Y 2 X 1 Y 1 X 1 Y 2 X s 1266 1103 m 1 Y 1 X 1 Y 2 X 1 1 d 2 X 1 Y 2 X 1 Y 1 X s 1275 1108 m 1
 X 1 1 d 3 X 1 Y 2 X 1 Y 1 X -1 Y 1 Y s 1283 1111 m 2 X 1 Y 1 X 1 Y 3 X 1 Y 2 X 1 Y 1 X s 1292 1115 m 1 X 2 Y 1 X 1 Y 1 X 1 Y 3 X 1 Y 3 X 1 Y s 1301 1121 m 3 X 1 Y 1 X 1 Y 2 X 1 Y 1 X 1 Y 2 X s 1310 1125 m 3 X 1 Y 2 X 1 Y 2 X 1 Y 2 X s 1319 1128 m 1
 X 1 Y 2 X 1 Y 2 X 1 Y 2 X 1 Y 1 X s 1327 1132 m 1 X 1 1 d 1 X 1 Y 3 X 1 Y 1 X 1 1 d 1 X s 1336 1136 m 2 X 1 Y 1 X 1 Y 2 X 1 Y 1 1 d 2 X 1 1 d s 1345 1141 m 2 X 1 Y 2 X 1 Y 1 -1 d 1 Y 4 X 1 Y s 1354 1144 m 5 X 1 Y 3 X 1 1 d s 1363 1146 m 2 X 1 Y 4 X
 1 Y 2 X s 1371 1148 m 1 1 d 2 X 1 Y 5 X 1 Y 1 X s 1380 1151 m 9 X 1 Y s 1389 1152 m 4 X 1 Y 5 X 1 Y s 1398 1154 m 3 X 1 Y 6 X s 1407 1155 m 3 X 1 Y 1 -1 d 1 Y 2 X 1 Y 2 X 1 Y s 1415 1158 m 3 X 1 1 d 5 X s 1424 1159 m 4 X 1 Y 5 X s 1433 1160 m 1 X 1
 Y 6 X 1 Y 1 X -1 Y 1 Y 1 X s 1442 1162 m 5 X 1 Y 4 X s 1451 1163 m 1 X 1 Y 1 X 1 Y 5 X 1 Y -1 Y 1 1 d s 1459 1166 m 9 X s 1468 1166 m 1 1 d 4 X 1 Y -1 Y 2 X 1 Y 2 X s 1477 1168 m 9 X s 1486 1168 m 4 X 1 Y 5 X s 1495 1169 m -1 Y 1 Y -1 Y 1 X 1 Y 4 X
 1 Y 1 X -1 Y 1 Y -1 Y 1 X 1 Y 1 X s 1503 1170 m 2 X 1 Y -1 Y 1 Y 5 X -1 Y 1 Y 2 X s 1512 1171 m 2 X 1 Y 1 X 1 Y -1 Y 1 1 d 1 X -1 Y 3 X 1 Y 1 X s 1521 1173 m 2 X 1 Y 7 X s 1530 1174 m 2 X 1 1 d 6 X s 1539 1175 m 1 X 1 Y 1 X -1 Y 1 Y 1 X -1 Y 1 X 1 Y
 3 X 1 Y 1 X s 1547 1177 m 2 X 1 Y 2 X 1 Y 5 X s 1556 1179 m 9 X 1 Y s 1565 1180 m 1 X -1 Y 1 Y 4 X -1 Y 1 Y 2 X 1 Y 1 X -1 Y 1 Y 1 X s 1574 1181 m 2 X 1 Y 6 X 1 1 d s 1583 1183 m 2 X -1 Y 1 X 1 Y 1 X 1 Y 4 X s 1591 1184 m 3 X 1 Y 6 X 1 Y s 1600 1186
 m 6 X -1 Y 1 X 1 1 d -1 Y 1 Y 1 X s 1609 1186 m 1 1 d 1 X -1 Y 1 X 1 Y -1 Y 3 X 1 Y 2 X 1 1 d s 1618 1188 m 5 X 1 1 d 3 X s 1627 1189 m 2 X -1 Y 1 Y 2 X 1 Y -1 Y 1 X 1 Y 1 X 1 -1 d 1 X 1 Y s 1635 1190 m 1 -1 d 1 Y 1 -1 d 1 1 d 6 X s 1644 1190 m 5 X
 1 Y 4 X s 1653 1191 m 1 X 2 Y 5 X -1 Y 3 X s 1662 1192 m 4 X -1 Y 1 X -1 Y 1 Y 4 X s 1671 1191 m 3 X 2 Y 5 X s 1679 1193 m 7 X 1 Y -1 Y 2 X s 1688 1193 m 1 Y 1 X 1 Y 1 X -1 Y 1 Y 4 X 1 Y 2 X 1 Y 1 X s 1697 1197 m 4 X 1 Y -1 Y 1 Y 1 X -1 Y 1 Y 1 X -1
 Y 3 X s 1706 1197 m 3 X 1 Y -1 Y 1 X 1 Y 3 X 1 Y 1 X -1 Y 1 X s 1715 1198 m -1 Y 1 1 d 1 Y 2 X 1 Y 1 X 1 Y 2 X 1 Y 2 X s 1723 1202 m 2 X -1 Y 2 X 1 -1 d 2 X -1 Y 2 X s 1732 1199 m 3 X 1 Y 1 X -1 Y 1 Y 2 X -1 Y 4 Y 2 X -1 Y 1 X s 1741 1202 m 6 X -1 Y
 1 Y -1 Y 1 Y 1 -1 d 1 X -1 Y 1 1 d s 1750 1201 m 1 X -1 Y 2 X 1 Y 2 X -1 Y 1 Y 1 -1 d 2 X -1 Y 1 X s 1759 1199 m 1 Y 2 X -1 Y 5 X -1 Y 1 X 2 Y s 1767 1200 m 1 X -1 Y 1 X 1 Y 1 X 1 Y 2 X 1 1 d -1 Y 2 X -1 Y 1 1 d -1 Y s 1776 1200 m 1 5 d 1 X -1 Y 1 X
 4 Y 2 X 2 Y 1 X 1 -1 d 3 Y 2 X s 1785 1212 m -1 Y 2 X -1 Y 1 Y 1 X -1 Y 1 Y 1 X -1 Y 1 Y -1 Y 1 X 1 Y 1 X 1 Y 1 X 1 Y -1 Y 1 X 1 Y 1 -1 d s 1794 1212 m 1 2 d 5 X -1 Y 2 X -1 Y 1 1 d -1 Y s 1803 1212 m 1 Y 1 X -1 Y 3 X -1 Y 1 X 1 1 d -1 Y 2 X -1 Y 1
 Y -1 Y 1 Y 1 X s 1812 1211 m -1 Y 2 X -1 Y 3 X 1 Y -1 Y 1 1 d 1 Y 1 X 1 Y 1 X s 1820 1212 m 1 X 1 -1 d -1 Y 1 X 1 Y 1 2 d -1 Y 1 Y 1 X -1 Y 1 X -1 Y 1 Y 1 X -1 Y 2 X s 1829 1211 m 2 X 3 Y 1 X -1 Y 1 Y 1 X -1 Y 1 1 d -1 Y 2 Y 2 X -1 Y 1 X 3 Y 1 X s
 1838 1217 m 1 X -1 Y 1 X -1 Y 1 X 1 Y -1 Y 1 1 d 1 Y -1 Y 1 X 1 Y 3 X -1 Y 1 Y 1 -1 d s 1847 1216 m 1 X -1 Y 1 X 2 Y 1 X -1 Y 1 Y -1 Y 1 X 1 Y -1 Y 1 X 1 Y -1 Y 2 X 1 -1 d 1 X s 1856 1215 m 1 Y 1 X -1 Y 3 X 2 Y 1 X 1 Y -1 Y 1 X -1 Y 1 X -1 Y 1 -1 d
 2 Y s 1864 1216 m 1 X 1 -1 d 2 Y -1 Y 1 1 d -1 Y 2 X 1 5 d -2 Y 1 X 4 Y 1 X 1 1 d -1 Y s 1873 1223 m 1 X -1 Y 1 X 2 Y 1 X -1 Y 3 Y 1 -1 d 1 X 1 Y 1 X 5 Y 1 -1 d 2 X -1 Y s 1882 1229 m 2 X 1 4 d 5 X -1 Y 1 X s 1891 1232 m 1 X 2 Y 1 X -1 Y 1 X 2 Y 1 X
 -1 Y 5 X s 1900 1234 m -1 Y 3 X 2 Y 2 X -1 Y 3 X s 1908 1234 m 1 X -1 Y 1 4 d 1 X -1 Y 1 -1 d -1 Y 1 X 1 2 d 3 X s 1917 1236 m 4 X -1 Y 3 X -2 Y 2 X 2 Y s 1926 1235 m 1 X 3 Y 2 X 2 Y 5 X -1 Y 1 Y -1 Y 1 X s 1935 1239 m 2 X 4 Y 2 X -1 Y 3 X -2 Y 1 Y
 -1 Y 2 X s 1944 1240 m 3 X -1 Y 3 X 7 Y 2 X s 1952 1246 m 5 X 1 Y 1 X -1 Y 1 Y 3 X s 1961 1247 m 1 X -1 Y 8 X s 1970 1246 m 1 1 d 1 X -1 Y 7 X s 1979 1246 m 1 2 d 8 X s 1988 1248 m 8 X s 1996 1248 m 9 X s 2005 1248 m 9 X s 2014 1248 m 9 X s 2023
 1248 m 9 X s 2032 1248 m 8 X s 2040 1248 m 1 X s[  ] 0 sd 9 lw 0.49 0.6 0.82 c black 0 0 0.933333 c 245 1247 m 9 X s 254 1247 m 9 X s 263 1247 m 8 X s 271 1247 m 9 X s 280 1247 m 9 X s 289 1247 m 9 X s 298 1247 m 9 X s 307 1247 m 8 X s 315 1247 m 9
 X s 324 1247 m 9 X s 333 1247 m 9 X s 342 1247 m 9 X s 351 1247 m 8 X s 359 1247 m 9 X s 368 1247 m 9 X s 377 1247 m 9 X s 386 1247 m 9 X s 395 1247 m 8 X s 403 1247 m 9 X s 412 1247 m 9 X s 421 1247 m 9 X s 430 1247 m 9 X s 439 1247 m 8 X s 447
 1247 m 9 X s 456 1247 m 9 X s 465 1247 m 9 X s 474 1247 m 9 X s 483 1247 m 8 X s 491 1247 m 9 X s 500 1247 m 9 X s 509 1247 m 9 X s 518 1247 m 9 X s 527 1247 m 8 X s 535 1247 m 9 X s 544 1247 m 9 X s 553 1247 m 9 X s 562 1247 m 9 X s 571 1247 m 8 X
 s 579 1247 m 9 X s 588 1247 m 9 X s 597 1247 m 9 X s 606 1247 m 9 X s 615 1247 m 8 X s 623 1247 m 9 X s 632 1247 m 9 X s 641 1247 m 9 X s 650 1247 m 9 X s 659 1247 m 8 X s 667 1247 m 4 X 1 Y 5 X s 676 1248 m 9 X s 685 1248 m 9 X s 694 1248 m 9 X s
 703 1248 m 8 X s 711 1248 m 9 X s 720 1248 m 9 X s 729 1248 m 2 X -1 Y 7 X s 738 1247 m 8 X -1 Y 1 X s 747 1246 m 8 X s 755 1246 m 5 X 1 -1 d 3 X s 764 1245 m 9 X s 773 1245 m 9 X s 782 1245 m 9 X s 791 1245 m 8 X s 799 1245 m 9 X s 808 1245 m 9 X s
 817 1245 m 9 X s 826 1245 m 5 X -1 Y 4 X s 835 1244 m 8 X s 843 1244 m 9 X s 852 1244 m 2 X -1 Y 7 X s 861 1243 m 9 X s 870 1243 m 5 X -1 Y 4 X s 879 1242 m -1 Y 3 X -1 Y 5 X s 887 1240 m 9 X s 896 1240 m 9 X s 905 1240 m 1 X -1 Y 6 X -1 Y 2 X s 914
 1238 m 2 X -1 Y 7 X s 923 1237 m 3 X -1 Y 5 X s 931 1236 m 6 X -1 Y 3 X s 940 1235 m 2 X -1 Y 1 X 1 1 d -1 Y 4 X -1 Y 1 X -1 Y s 949 1232 m 9 X s 958 1232 m 9 X s 967 1232 m 8 X -1 Y s 975 1231 m 6 X 1 Y 3 X s 984 1232 m 2 X -1 Y 3 X -1 Y 4 X s 993
 1230 m 6 X -1 Y 3 X s 1002 1229 m 5 X -1 Y 4 X s 1011 1228 m 5 X -1 Y 2 X -1 Y 1 X s 1019 1226 m 5 X -2 Y 4 X s 1028 1224 m 5 X 1 -1 d 1 X -1 Y 2 X s 1037 1222 m 2 X -1 Y 1 X -1 Y 6 X s 1046 1220 m 2 X 1 -1 d 6 X s 1055 1219 m 1 X -2 Y 4 X -1 Y 3 X
 s 1063 1216 m 9 X s 1072 1216 m -1 Y 8 X -1 Y 1 X s 1081 1214 m 9 X s 1090 1214 m 5 X 1 -1 d 2 X -1 Y 1 X s 1099 1212 m 8 X -1 Y s 1107 1211 m 9 X s 1116 1211 m 1 X -1 Y 4 X -1 Y 4 X s 1125 1209 m 5 X -1 Y 4 X s 1134 1208 m 1 X -1 Y 8 X s 1143 1207
 m 3 X -1 Y 5 X s 1151 1206 m 2 X -1 Y 3 X -1 Y 2 X -1 Y 2 X s 1160 1203 m 1 X -1 Y 4 X -3 Y 2 X -1 Y 2 X s 1169 1198 m 1 X -1 Y 1 X -1 Y 7 X s 1178 1196 m 3 X -1 Y 1 -1 d 3 X -1 Y 2 X s 1187 1193 m 5 X -1 Y 3 X s 1195 1192 m 2 X -3 Y 7 X s 1204 1189
 m 5 X -1 Y 1 Y -1 Y 1 X -1 Y 1 -1 d 2 X s 1213 1186 m 1 X -1 Y 2 X 1 -1 d 3 X -1 Y 2 X s 1222 1183 m 1 X -1 Y 3 X 1 -1 d 1 X -1 Y 2 X -1 Y 1 X s 1231 1179 m -1 Y 2 X -2 Y 1 -1 d 1 X -1 Y 2 X -2 Y 2 X s 1239 1172 m 1 X 1 -1 d 3 X -1 Y 4 X s 1248 1170
 m 8 X -1 Y 1 X s 1257 1169 m 2 X 1 Y 1 X 1 -1 d 1 X 1 Y 4 X s 1266 1170 m 1 X -1 Y 1 Y 2 X -1 Y 5 X 1 -1 d s 1275 1168 m 1 X -2 Y 2 X -1 Y 3 X -1 Y 2 X -1 Y s 1283 1163 m 4 X 1 -1 d -1 Y 1 X 1 -1 d 2 X s 1292 1160 m 1 X -1 Y 1 -1 d 2 X -2 Y 3 X 2 Y
 1 -4 d 1 X 1 Y s 1301 1155 m -1 Y 2 X -1 Y 1 X -1 Y 3 X -1 Y 2 X 1 -2 d s 1310 1149 m 2 X -1 Y 2 X 1 Y 4 X -1 Y 1 X s 1319 1148 m -2 Y 2 X 1 Y -2 Y 1 -1 d 2 X -1 Y 2 X -1 Y 1 X -1 Y s 1327 1141 m 4 X -1 Y 3 X -1 Y 2 X s 1336 1139 m -1 Y 5 X 9 Y -1 Y
 1 X 1 -1 d 1 X 1 1 d s 1345 1146 m -1 Y 2 X 1 Y 2 X 1 -2 d 1 X -1 Y 1 -1 d 1 X -1 Y 1 X s 1354 1141 m 2 X -1 Y 1 -1 d 6 X s 1363 1139 m 1 X 1 -1 d 4 X -1 Y 2 X s 1371 1137 m 7 X -1 Y 2 X s 1380 1136 m 1 X -2 Y 1 -2 d 1 X -1 Y 1 X -1 Y 1 X 1 -1 d 3 X
 -2 Y s 1389 1127 m 1 X -1 Y 1 X -1 Y 3 X -2 Y 2 X -1 Y 2 X s 1398 1122 m 1 X 1 Y 3 X -1 Y 1 X -1 Y 1 X -1 Y 1 X -1 Y 2 X s 1407 1119 m -3 Y 1 X -2 Y 1 X 1 -1 d 1 -1 d 2 X -2 Y 2 X -1 Y s 1415 1109 m 2 X 1 -1 d -1 Y 1 X 1 -1 d 1 X 1 Y 2 X -1 Y 1 X -2
 Y s 1424 1104 m 1 X -6 Y 1 1 d -2 Y 2 X -1 Y 1 X -2 Y 1 X -2 Y 1 X 1 Y -1 Y 1 X -1 Y 1 X s 1433 1091 m 1 X -1 Y 1 X -1 Y 3 X -3 Y 2 X -1 Y 1 X -2 Y 1 -1 d s 1442 1082 m 4 X -1 Y 1 X 1 -1 d -1 Y 1 X -1 Y 1 X -1 Y 1 X s 1451 1077 m -2 Y 1 X 1 -1 d 1 X
 1 Y 1 X -1 Y 1 X -2 Y 2 X -2 Y 1 X s 1459 1070 m 1 X -1 Y 1 X 1 -2 d 1 X -2 Y 3 X -3 Y 1 X -1 Y 1 X -1 Y s 1468 1060 m 2 X -1 Y 1 -1 d 2 X -1 Y 1 -2 d 2 X -1 Y 1 Y 1 X -4 Y s 1477 1051 m 2 X -3 Y 1 X 2 Y -1 Y 2 X -1 Y 1 -1 d -1 Y 1 -1 d -2 Y 1 X -1
 Y 1 X s 1486 1042 m 1 X -1 Y 1 X 1 -1 d 2 X -1 Y 1 X -2 Y 1 X -1 Y 1 X -1 Y 1 X s 1495 1035 m -3 Y 1 X -1 Y 1 X -1 Y 1 X 5 Y -1 Y 1 X -1 Y 2 X -2 Y 1 -2 d 1 X -2 Y s 1503 1027 m 2 X -2 Y 1 X -2 Y 2 X -2 Y 1 X -2 Y 2 Y 1 X -4 Y 1 X -1 Y 1 X s 1512
 1016 m 1 X -3 Y 1 -1 d 1 X -1 Y 1 X -1 Y 1 X -3 Y 1 X -1 Y 1 X -2 Y 1 Y 1 X -2 Y 1 X -1 Y s 1521 1002 m 2 Y 1 X 1 -1 d 2 X -3 Y 1 -1 d -1 Y 1 X -1 Y 1 X -1 Y 1 X -2 Y 1 X -1 Y s 1530 993 m 1 Y 1 -1 d -1 Y 2 X -1 Y 1 Y 1 -1 d -2 Y 1 X -3 Y 1 X 1 Y -1
 Y 1 X -2 Y 2 X -1 Y s 1539 983 m 1 X -1 Y 1 Y 1 X -2 Y 1 X -3 Y 1 -1 d -2 Y 1 X -1 Y 1 Y 1 X -1 Y 2 X 1 Y -1 Y s 1547 974 m 1 X -1 Y 1 X 1 -1 d -2 Y 1 -1 d -1 Y 1 X -4 Y 1 X 1 -1 d 1 -1 d -1 Y 1 -1 d -1 Y s 1556 959 m 1 X -3 Y 1 X -1 Y 1 -1 d -2 Y 1
 -1 d -1 Y 1 X -2 Y 1 X -2 Y 1 X 1 -1 d -3 Y 1 X -1 Y 1 Y s 1565 942 m 1 X -3 Y 1 -1 d -2 Y 1 X 2 Y 1 X -1 Y 1 -3 d -3 Y 2 X 4 Y -2 Y 1 X -1 Y 1 X -1 Y s 1574 931 m 1 X -1 Y 2 X 1 -1 d -1 Y 1 X -2 Y 1 X -3 Y 1 X -3 Y 1 X -1 Y 1 X -1 Y s 1583 918 m -1
 Y 1 1 d -4 Y 1 X -6 Y 1 X -2 Y 1 X -1 Y 1 X -2 Y 2 X -2 Y 1 X 1 Y -2 Y s 1591 900 m 1 X -1 Y 2 X -1 Y 1 X -1 Y 1 X -1 Y 1 Y -1 Y 1 X -3 Y 1 X -2 Y 1 X -2 Y 1 -1 d s 1600 888 m 1 X -1 Y 1 -1 d 1 Y -3 Y 1 X -1 Y 1 -1 d 1 X -4 Y 1 X -2 Y 1 -1 d -2 Y 1
 X -6 Y 1 X -2 Y 1 Y s 1609 866 m 1 X -3 Y 1 X -3 Y 1 X -2 Y 1 X -1 Y 1 -1 d -2 Y 1 X -1 Y 1 Y -2 Y 1 -1 d 1 Y -1 Y 1 X -1 Y 1 Y 1 -1 d s 1618 850 m -1 Y 1 X 1 -1 d 1 Y -2 Y 1 -1 d -2 Y 1 X -1 Y 1 -1 d 1 Y -1 Y 1 X -2 Y 1 X -2 Y 1 X 1 -1 d s 1627 837
 m -2 Y 1 X 1 Y -1 Y 1 X -2 Y 1 -2 d -4 Y 1 X -3 Y 1 X -1 Y 1 -1 d -2 Y 1 X -2 Y 1 X -1 Y s 1635 817 m 1 X -1 Y 1 Y 1 X -3 Y 1 X -1 Y 1 X -1 Y 1 X -2 Y 1 -1 d -2 Y 1 X -3 Y 1 -2 d -1 Y 1 -1 d -1 Y s 1644 799 m -1 Y 1 -1 d -4 Y 1 -1 d -1 Y 1 -1 d -1 Y
 1 X -2 Y 1 -2 d -4 Y 1 X -1 Y 1 -1 d -1 Y 1 -1 d -3 Y 1 Y 1 -1 d -1 Y s 1653 773 m -2 Y 1 X -2 Y 1 X -3 Y 1 X -3 Y 1 X -1 Y 1 X -2 Y 1 -1 d -4 Y 1 X -1 Y 1 -1 d -2 Y 1 X -2 Y s 1662 749 m -1 Y 1 -1 d -1 Y 1 -1 d -4 Y 1 -1 d -3 Y 1 X -9 Y 1 -1 d -4 Y
 1 X -1 Y 1 -1 d -3 Y 1 X -4 Y 1 X s 1671 714 m 1 Y -4 Y 1 X 1 -1 d -2 Y 1 X -1 Y 1 X -2 Y 1 X -1 Y 1 Y -2 Y 1 X -2 Y 1 X -3 Y 1 X -1 Y s 1679 697 m 1 -1 d -1 Y 1 -3 d -2 Y 1 X -2 Y 1 -2 d 1 Y -1 Y 1 -1 d -2 Y 1 X -1 Y 1 -1 d -4 Y 1 -1 d 1 Y 1 -1 d
 -4 Y s 1688 672 m 1 -1 d -1 Y 1 -1 d -3 Y 1 -2 d 1 -1 d -3 Y 1 -1 d -3 Y 1 Y 1 -1 d -2 Y 1 X -2 Y 1 -1 d -2 Y 1 X -2 Y s 1697 647 m 1 X -2 Y 1 X -1 Y 1 Y 1 -1 d -1 Y 1 X -3 Y 1 -1 d -1 Y 1 X -4 Y 1 -1 d -4 Y 1 X -4 Y 1 X -1 Y s 1706 624 m -3 Y 1 X
 -2 Y 1 X -2 Y 1 X -3 Y 1 -1 d -1 Y 1 X 1 -1 d -2 Y 1 -1 d -4 Y 1 X -2 Y 1 X -3 Y s 1715 599 m -5 Y 1 -3 d -4 Y 1 X -1 Y 1 X -4 Y 1 Y -1 Y 1 X -1 Y 1 Y -1 Y 1 -1 d -1 Y 1 X -2 Y 1 X -4 Y 1 X -2 Y s 1723 571 m 1 X -2 Y 1 X -4 Y 1 X -3 Y 1 -1 d -1 Y 1
 -2 d 1 Y -2 Y 1 X -3 Y 1 -3 d -2 Y 1 X -2 Y 1 -1 d -1 Y s 1732 545 m -2 Y 1 X 1 -1 d -2 Y 1 -1 d -1 Y 1 Y 1 -1 d -4 Y 1 X -2 Y 1 X -3 Y 1 X -1 Y 1 X -2 Y 1 X -1 Y 1 Y s 1741 526 m -1 Y 1 -1 d -2 Y 1 1 d -2 Y 1 -1 d -2 Y 1 X -3 Y 1 X -2 Y 1 -1 d -2 Y
 1 -1 d -4 Y 1 -1 d -3 Y 1 -1 d s 1750 500 m -2 Y 1 -2 d -3 Y 1 -1 d 1 -1 d -1 Y 1 X -1 Y 1 X -3 Y 1 -1 d -2 Y 1 -1 d -1 Y 1 Y -2 Y 1 -1 d -3 Y 1 -1 d s 1759 475 m -1 Y 1 X -3 Y 1 X -3 Y 1 -1 d -2 Y 1 X -1 Y 1 -1 d -2 Y 1 X -1 Y 1 X -5 Y 1 X -1 Y s
 1767 454 m 1 X -2 Y 1 X -1 Y 1 X -1 Y 1 X -2 Y 1 X -2 Y 1 X -2 Y 1 1 d -4 Y 1 X -2 Y 1 -1 d -1 Y s 1776 437 m -1 Y 1 X -1 Y 1 X -2 Y 1 -1 d -2 Y 1 Y 1 X -2 Y 1 X -2 Y 1 -1 d -1 Y 1 -2 d -3 Y 1 Y -1 Y 1 -1 d 1 -1 d -1 Y s 1785 417 m -3 Y 1 X -3 Y 1 X
 -3 Y 1 -1 d -1 Y 1 -1 d -4 Y 1 -1 d 1 -2 d 2 Y -1 Y 1 -1 d -2 Y 1 X -1 Y 1 -1 d -1 Y s 1794 393 m -1 Y 1 X -2 Y 1 X -2 Y 1 X -1 Y 1 -1 d -1 Y 1 X -2 Y 1 -1 d -2 Y 1 X -2 Y 1 X -2 Y 1 X s 1803 376 m -1 Y 1 -1 d -3 Y 1 X -1 Y 1 -2 d -2 Y 1 X -2 Y 1 X
 -1 Y 1 1 d 1 X -2 Y 1 -1 d -2 Y 1 X s 1812 359 m -2 Y 1 X -1 Y 1 Y -1 Y 1 -1 d -1 Y 1 X -1 Y 2 X -2 Y 1 X -2 Y 1 X -1 Y 1 X s 1820 348 m -1 Y 1 X -1 Y 1 -1 d -2 Y 1 X -1 Y 1 X -1 Y 1 X -2 Y 1 X -2 Y 1 X -1 Y 1 X -1 Y 1 X s 1829 335 m 1 -1 d 2 X -1 Y
 1 X -1 Y 1 X -1 Y 1 X -1 Y 1 -1 d -1 Y 2 X s 1838 328 m -1 Y 1 X -1 Y 1 -1 d -1 Y 1 X -1 Y 1 X -1 Y 1 -1 d 1 Y -2 Y 3 X -1 Y 1 X -1 Y s 1847 318 m -1 Y 1 X 1 -1 d 3 X -1 Y 1 X 1 -1 d 1 -1 d 1 X s 1856 313 m -1 Y 1 X -1 Y 2 X -1 Y 1 X 1 -1 d 1 -1 d
 -1 Y 1 X -2 Y 1 -2 d s 1864 303 m 1 X 1 -1 d 2 X -1 Y 1 X 1 -1 d -2 Y 1 X -1 Y 2 X -1 Y s 1873 296 m -1 Y 1 X -1 Y 2 X -1 Y 2 X -1 Y 1 X -1 Y 1 X 1 -1 d -1 Y 1 X s 1882 289 m -1 Y 2 X -1 Y 2 X -1 Y 1 X 1 Y -1 Y 1 Y 1 -1 d 1 -1 d 1 Y -1 Y 1 X -1 Y 1
 X s 1891 284 m 1 X -1 Y 2 X -1 Y 2 X -1 Y 3 X -1 Y 1 1 d s 1900 281 m -2 Y 3 X -1 Y 2 X -1 Y 1 X 1 -1 d 1 X s 1908 276 m 1 X -1 Y 2 X -1 Y 1 -2 d 1 -1 d 2 X -1 Y 1 1 d 1 X s 1917 271 m -1 Y 4 X 1 -1 d 2 X -1 Y 2 X 1 Y s 1926 269 m 2 X -1 Y 6 X -1 Y
 1 X s 1935 267 m 4 X -1 Y 3 X -2 Y 2 X s 1944 264 m -1 Y 4 X -1 Y 4 X s 1952 262 m 5 X -1 Y 4 X s 1961 261 m 1 X -1 Y 1 X -1 Y 7 X s 1970 259 m 2 X -1 Y 7 X s 1979 258 m 8 X -1 Y 1 X s 1988 257 m 8 X s 1996 257 m 9 X s 2005 257 m 9 X s 2014 257 m 9
 X s 2023 257 m 9 X s 2032 257 m 8 X s 2040 257 m 1 X s 1 0 0 c black 1 0 0 c 245 1248 m 9 X s 254 1248 m 9 X s 263 1248 m 8 X s 271 1248 m 9 X s 280 1248 m 9 X s 289 1248 m 8 X -1 Y 1 X s 298 1247 m 9 X s 307 1247 m 8 X s 315 1247 m 9 X s 324 1247 m
 9 X s 333 1247 m 9 X s 342 1247 m 3 X -1 Y 6 X s 351 1246 m 8 X s 359 1246 m 9 X s 368 1246 m 9 X s 377 1246 m 1 X -1 Y 8 X s 386 1245 m 5 X -1 Y 4 X s 395 1244 m 8 X s 403 1244 m 5 X -1 Y 4 X s 412 1243 m 9 X s 421 1243 m -1 Y 5 X 1 -1 d 3 X s 430
 1241 m 7 X -1 Y 2 X s 439 1240 m 5 X -1 Y 3 X s 447 1239 m 2 X -1 Y 6 X -1 Y 1 X s 456 1237 m 7 X -1 Y 2 X s 465 1236 m 2 X 1 -1 d 6 X s 474 1235 m 1 -1 d 1 X -1 Y 3 X 1 -1 d 3 X s 483 1232 m 3 X -1 Y 5 X s 491 1231 m 2 X -1 Y 7 X s 500 1230 m 1 -1
 d 2 X -1 Y 4 X -1 Y 2 X s 509 1227 m 2 X 1 -1 d 1 X -1 Y 4 X -1 Y 1 X s 518 1224 m 3 X -1 Y 2 X -1 Y 4 X s 527 1222 m -1 Y 4 X -1 Y 2 X -1 Y 1 X 1 -1 d s 535 1218 m 2 X -1 Y 1 X -1 Y 5 X -1 Y 1 X s 544 1215 m 2 X -1 Y 4 X 1 -1 d 2 X s 553 1213 m 1 X
 -1 Y 1 X -1 Y 4 X -1 Y 2 X -1 Y 1 X s 562 1209 m 1 X -1 Y 2 X 1 -1 d 2 X 1 -1 d 2 X s 571 1206 m 1 X -1 Y 2 X 1 -1 d 2 X -1 Y 1 X -1 Y 1 X s 579 1202 m 2 X 1 -1 d 2 X -1 Y 3 X -1 Y 1 X s 588 1199 m 1 X -1 Y 2 X -1 Y 1 X -1 Y 1 X -1 Y 3 X -1 Y 1 X s
 597 1194 m -1 Y 2 X -2 Y 1 X -1 Y 3 X -1 Y 3 X s 606 1189 m 1 -1 d 2 X -1 Y 1 X 1 -1 d -1 Y 1 X -1 Y 1 -1 d 1 X -1 Y 1 X s 615 1182 m 1 X -1 Y 1 X -1 Y 1 -1 d -1 Y 2 X -1 Y 1 X -1 Y 2 X -1 Y s 623 1175 m 3 X -1 Y 2 X -1 Y 1 X 1 -1 d 1 -1 d 1 X s 632
 1171 m 1 -1 d 1 X -1 Y 1 X -1 Y 1 X -1 Y 2 X -1 Y 1 X -1 Y 2 X -1 Y s 641 1164 m 1 X -1 Y 1 X -1 Y 2 X -1 Y 1 X 1 -1 d 2 X -1 Y 1 X s 650 1159 m 1 -1 d 1 X -1 Y 2 X -1 Y 2 X -1 Y 1 X -1 Y 1 X -1 Y 1 X s 659 1153 m -1 Y 1 X 1 -1 d 1 X -1 Y 2 X -1 Y 1
 X -1 Y 2 X s 667 1148 m 1 X -1 Y 1 X -1 Y 1 X -1 Y 2 X -1 Y 2 X -1 Y 2 X -2 Y s 676 1141 m 1 X -1 Y 1 X -1 Y 1 X -1 Y 1 X -1 Y 1 X 1 -1 d -1 Y 1 X -1 Y 1 -1 d -1 Y 1 X s 685 1132 m -1 Y 1 X -1 Y 2 X -2 Y 1 -1 d 1 X -1 Y 1 X -1 Y 2 X -1 Y 1 X s 694
 1124 m -1 Y 2 X -1 Y 1 X -1 Y 1 X -1 Y 1 X -1 Y 1 X -1 Y 1 X -1 Y 2 X s 703 1117 m -1 Y 1 X -2 Y 1 X -1 Y 1 X -1 Y 1 X -1 Y 1 X -1 Y 1 X -1 Y 2 X -1 Y s 711 1108 m 1 X -1 Y 1 X -1 Y 1 X -1 Y 1 X -1 Y 1 X -2 Y 1 X -1 Y 1 X -2 Y 1 X -1 Y 1 X s 720
 1098 m 1 X -3 Y 1 X -1 Y 2 X -1 Y 1 -1 d -1 Y 1 X -1 Y 1 X -1 Y 2 X s 729 1089 m -1 Y 1 X -1 Y 1 X -1 Y 1 X -1 Y 1 X -1 Y 1 X -1 Y 1 X -1 Y 1 X -1 Y 1 -1 d 1 X -1 Y s 738 1079 m 2 X -1 Y 1 X -1 Y 1 X -1 Y 1 X -1 Y 1 X -3 Y 1 X -1 Y 1 X -1 Y 1 X s
 747 1070 m 1 -1 d -1 Y 1 X -1 Y 1 X 1 -1 d -1 Y 1 X -1 Y 1 X -1 Y 1 -1 d 1 X -2 Y s 755 1060 m 2 X -1 Y 1 X -2 Y 1 -1 d 1 X -2 Y 1 X -1 Y 1 X -2 Y 1 X -1 Y 1 X s 764 1050 m -1 Y 1 X -1 Y 2 X -2 Y 1 X -1 Y 1 X -1 Y 1 -1 d -1 Y 1 X -1 Y 1 X -1 Y 1 X
 -1 Y s 773 1039 m 1 X -1 Y 1 -1 d 1 -1 d -1 Y 1 X -2 Y 1 X -2 Y 1 X -2 Y 1 X -1 Y 1 X -2 Y 1 X s 782 1026 m 1 -1 d 1 -1 d -1 Y 1 X -1 Y 1 X -1 Y 1 -1 d -1 Y 1 X -1 Y 1 -1 d -1 Y 1 X -1 Y 1 X s 791 1015 m -1 Y 1 X -1 Y 1 -1 d 1 X -1 Y 1 X -1 Y 1 X -1
 Y 1 X -1 Y 1 X -1 Y 1 X -1 Y s 799 1006 m 1 X -1 Y 1 X -2 Y 1 X -1 Y 1 X -1 Y 1 X -2 Y 1 X -1 Y 1 X -2 Y 1 X -1 Y 1 X -1 Y s 808 994 m -1 Y 1 X -1 Y 1 X -1 Y 1 X -2 Y 1 X -1 Y 1 X -2 Y 1 -1 d -2 Y 1 X -1 Y 1 X -1 Y 1 -1 d s 817 980 m -1 Y 1 -1 d -1
 Y 1 X -1 Y 1 X -2 Y 1 X -1 Y 1 -1 d -1 Y 1 X -1 Y 1 X -1 Y 1 X -2 Y 1 X -1 Y s 826 966 m 1 X -2 Y 1 X -2 Y 1 X -2 Y 1 -1 d 1 -1 d -1 Y 1 X -1 Y 1 X -1 Y 1 X -2 Y 1 X s 835 953 m -3 Y 1 X -2 Y 1 X -1 Y 2 X -2 Y 1 -1 d -1 Y 1 X -1 Y 1 -1 d -1 Y 1 X -1
 Y s 843 939 m 1 X -1 Y 1 X -1 Y 1 X -1 Y 1 X -1 Y 1 -1 d -1 Y 1 X -1 Y 1 X -1 Y 1 X -1 Y 1 X -1 Y s 852 929 m -1 Y 1 X -1 Y 1 X -2 Y 1 X -1 Y 2 X -2 Y 1 X -1 Y 1 X -1 Y 1 X -2 Y 1 X -1 Y s 861 917 m -1 Y 1 X -4 Y 1 X -2 Y 1 X -1 Y 2 X -1 Y 1 -1 d 1
 X -1 Y 1 -1 d 1 -1 d -1 Y s 870 903 m -1 Y 1 X -2 Y 1 X -1 Y 1 X -1 Y 1 X -2 Y 1 X -1 Y 1 X -1 Y 1 X 1 -1 d 1 X s 879 893 m -2 Y 1 X -2 Y 1 -1 d -1 Y 1 X -1 Y 1 X -1 Y 1 X -1 Y 1 X -1 Y 1 X -1 Y 1 -1 d -1 Y s 887 880 m 1 X -1 Y 1 X -2 Y 1 X -2 Y 1 X
 -1 Y 1 X -2 Y 1 -2 d -1 Y 1 X -1 Y 1 X -2 Y 1 X -1 Y s 896 865 m 1 X -1 Y 1 -1 d -2 Y 1 X -1 Y 1 -1 d -1 Y 1 X -2 Y 1 X -1 Y 1 -1 d -1 Y 1 X -1 Y 1 -1 d s 905 851 m -1 Y 1 X -1 Y 1 -1 d -1 Y 1 X -1 Y 1 X -1 Y 1 -1 d 1 -1 d 1 -1 d -1 Y 1 X -1 Y 1 -1
 d s 914 839 m 1 X -1 Y 1 X -1 Y 1 -1 d -2 Y 1 -1 d 1 X -2 Y 1 X -1 Y 1 X -2 Y 1 -1 d -1 Y 1 X s 923 826 m -1 Y 1 -1 d -1 Y 1 X -2 Y 1 X -2 Y 1 X -2 Y 1 X -1 Y 1 X -1 Y 1 X -2 Y 1 X -1 Y s 931 812 m 1 X -1 Y 1 X -1 Y 1 -1 d -2 Y 1 -2 d -1 Y 1 X -2 Y
 1 -1 d 1 X -2 Y 1 X -1 Y 1 -1 d -1 Y s 940 796 m 1 X -1 Y 1 X -1 Y 1 X -2 Y 1 X -2 Y 1 X -2 Y 1 X -1 Y 1 -1 d -1 Y 1 -1 d -1 Y 1 X -2 Y s 949 781 m 1 -1 d -1 Y 1 -1 d 1 X -2 Y 1 X 1 -1 d -1 Y 1 X -1 Y 1 X -1 Y 1 -1 d -1 Y 1 X s 958 770 m 1 -1 d -2 Y
 1 X -1 Y 1 X -1 Y 1 X -1 Y 1 X -1 Y 1 -1 d -1 Y 1 X 1 -1 d -1 Y 1 X s 967 759 m -1 Y 1 X -1 Y 1 X -1 Y 1 -1 d -1 Y 1 X -2 Y 1 X -2 Y 1 X -1 Y 1 X -1 Y 1 X -1 Y s 975 747 m 1 -1 d 1 X -2 Y 1 X 1 -1 d -2 Y 2 X -1 Y 1 X -2 Y 2 X -1 Y s 984 737 m -1 Y 1
 X -1 Y 1 -1 d -2 Y 1 X -2 Y 1 X -1 Y 1 -1 d -1 Y 1 -1 d 1 X -2 Y 1 X 1 -1 d s 993 723 m 1 -1 d -1 Y 1 X -1 Y 1 X -2 Y 1 X -1 Y 1 -2 d -1 Y 1 X -1 Y 1 -1 d -1 Y 1 X 1 -1 d s 1002 710 m -1 Y 1 X -1 Y 1 -1 d -1 Y 1 X -1 Y 1 X -1 Y 1 X -1 Y 1 X -2 Y 1 X
 -1 Y 1 X -1 Y 1 -1 d s 1011 698 m 1 X -2 Y 1 X -1 Y 1 X -1 Y 1 X -1 Y 1 -1 d -1 Y 1 X -2 Y 1 X 1 -1 d -1 Y s 1019 687 m 1 -1 d 1 X -2 Y 1 X -1 Y 1 X -2 Y 1 X -1 Y 1 -1 d -1 Y 1 X -3 Y 1 X 1 -1 d -1 Y s 1028 673 m 1 X -1 Y 1 -1 d -1 Y 1 -1 d 1 -1 d 1
 X -2 Y 1 X -1 Y 1 X -1 Y 1 X -2 Y 1 X -1 Y s 1037 661 m -1 Y 1 X -1 Y 1 -1 d -1 Y 1 X -2 Y 1 X -1 Y 1 X -2 Y 1 X -1 Y 1 X -1 Y 1 X -1 Y 1 X s 1046 649 m 1 X -2 Y 1 X -1 Y 1 X 1 -1 d -1 Y 1 X -1 Y 1 -1 d -2 Y 1 X -1 Y 1 -1 d 1 X s 1055 638 m -1 Y 1
 -1 d -1 Y 1 X -2 Y 1 X -1 Y 1 X -1 Y 1 X -2 Y 1 X -1 Y 1 X -1 Y 1 -1 d -2 Y s 1063 624 m 2 X -2 Y 1 -1 d 1 X -2 Y 1 X -1 Y 1 X -1 Y 1 X -2 Y 2 X -1 Y s 1072 614 m 1 X -2 Y 2 X -1 Y 1 X -1 Y 1 -1 d 1 -1 d 1 X -1 Y 1 X -1 Y 1 X -1 Y s 1081 605 m 1 X
 -1 Y 1 X -1 Y 1 X -1 Y 1 X -1 Y 1 -1 d -1 Y 1 X -1 Y 1 X -1 Y 1 X -1 Y 1 X -1 Y s 1090 595 m -1 Y 1 -1 d -1 Y 1 -1 d -1 Y 1 X -1 Y 1 -1 d -1 Y 1 X -1 Y 1 X -1 Y 1 X -2 Y 1 X -1 Y 1 X s 1099 582 m -1 Y 1 X -2 Y 1 X -1 Y 1 X -1 Y 1 X 1 -1 d -1 Y 1 -1
 d 1 -1 d 1 -1 d s 1107 572 m 1 X -2 Y 1 X -1 Y 1 X -2 Y 1 X -1 Y 1 X -1 Y 1 X -2 Y 1 X -1 Y 1 X -1 Y 1 X -1 Y s 1116 560 m 1 X -1 Y 1 X -1 Y 1 -1 d 1 -1 d 1 X -1 Y 1 -1 d -1 Y 1 X -1 Y 1 X -2 Y 1 X -1 Y s 1125 549 m 1 X -2 Y 1 X -1 Y 1 X -2 Y 2 X -1
 Y 1 X -1 Y 1 X -2 Y 1 X -1 Y 1 X s 1134 539 m 1 -1 d -1 Y 1 Y -1 Y 1 X -1 Y 2 X -1 Y 1 X -1 Y 1 -1 d -1 Y 3 X s 1143 532 m -1 Y 1 X -2 Y 1 X -1 Y 1 X -3 Y 1 X -1 Y 1 X -1 Y 1 X -1 Y 1 X -1 Y 1 X -1 Y s 1151 520 m 2 X -1 Y 1 X -1 Y 1 X -1 Y 1 X -1 Y
 1 X -2 Y 1 X -1 Y 1 X -1 Y 1 -1 d -1 Y s 1160 510 m 1 X -1 Y 1 X -2 Y 1 X -1 Y 1 X -2 Y 1 X -2 Y 1 X -1 Y 1 X -1 Y 1 X -2 Y 1 -1 d s 1169 497 m 1 -1 d -1 Y 1 X -1 Y 1 X -1 Y 1 X -1 Y 1 X -1 Y 1 X -2 Y 1 X -1 Y 2 X -1 Y s 1178 487 m -3 Y 1 X -1 Y 1 X
 -3 Y 1 X 1 -1 d -1 Y 1 -1 d -1 Y 1 X -1 Y 1 -1 d 1 X -1 Y 1 X s 1187 473 m -1 Y 1 X -1 Y 1 X -1 Y 1 -1 d -1 Y 1 X -1 Y 1 X -1 Y 1 X -1 Y 1 X -1 Y 1 X -1 Y s 1195 463 m 1 X -1 Y 1 X -1 Y 2 X 1 -1 d 1 X -1 Y 1 X -1 Y 2 X -1 Y s 1204 457 m 2 X -1 Y 1 X
 -1 Y 1 X -1 Y 2 X -1 Y 1 X -1 Y 1 X 1 -1 d s 1213 451 m 2 X -1 Y 1 -1 d 1 X -1 Y 1 X -1 Y 1 X -1 Y 1 X 1 -1 d 1 X -1 Y s 1222 444 m 1 -1 d 1 X -1 Y 1 X -1 Y 2 X -1 Y 1 X -1 Y 1 X -1 Y 1 X -1 Y 1 X s 1231 437 m 1 X -1 Y 1 X -1 Y 2 X -1 Y 1 X -1 Y 1 X
 -1 Y 1 X 1 -1 d s 1239 431 m 1 X -1 Y 1 X 1 -1 d 1 X -1 Y 1 X -1 Y 2 X -1 Y 2 X -1 Y s 1248 425 m 1 X 1 -1 d -1 Y 2 X -1 Y 1 X -1 Y 2 X -1 Y 1 X 1 -1 d -1 Y s 1257 418 m 2 X -1 Y 1 X -1 Y 1 X 1 -1 d 1 X -1 Y 1 X -1 Y 2 X s 1266 413 m -1 Y 1 -1 d 1 X
 -1 Y 1 X 1 -1 d 1 X -1 Y 2 X 1 -1 d 1 X s 1275 407 m 1 -1 d 1 -1 d 1 X -1 Y 3 X -1 Y 1 X -1 Y 1 X s 1283 402 m 1 X 1 -1 d 1 X -1 Y 2 X -1 Y 1 X -1 Y 1 X 1 -1 d 1 X -1 Y s 1292 396 m 1 X -2 Y 1 -1 d 1 X -2 Y 3 X -1 Y 1 X 1 -1 d 1 X s 1301 389 m 1 X
 -1 Y 2 X -1 Y 1 X -1 Y 1 X -1 Y 1 X -1 Y 1 X -1 Y 2 X s 1310 383 m 1 X -1 Y 3 X -1 Y 2 X -1 Y 2 X -1 Y 1 X s 1319 379 m 1 X -1 Y 1 X -1 Y 2 X -1 Y 1 X -1 Y 2 X -1 Y 1 X s 1327 374 m 1 -1 d 1 X 1 -1 d 1 X 1 -1 d 2 X -1 Y 1 -1 d 1 X s 1336 369 m 1 -1
 d 1 X -1 Y 2 X -1 Y 2 X 1 -1 d 2 X -1 Y s 1345 364 m 2 X -1 Y 2 X -1 Y 2 X 1 -1 d 2 X s 1354 361 m -1 Y 4 X -1 Y 4 X -1 Y 1 X s 1363 358 m 1 X -1 Y 3 X -1 Y 2 X 1 -1 d 1 X s 1371 355 m 1 X -1 Y 2 X 1 -1 d 4 X -1 Y 1 X s 1380 352 m 5 X -1 Y 4 X -1 Y
 s 1389 350 m 3 X -1 Y 2 X -1 Y 4 X s 1398 348 m -1 Y 4 X -1 Y 4 X -1 Y 1 X s 1407 345 m 4 X -1 Y 2 X -1 Y 2 X -1 Y s 1415 342 m 2 X -1 Y 3 X 1 -1 d 3 X s 1424 340 m 2 X -1 Y 3 X -1 Y 4 X s 1433 338 m -1 Y 3 X -1 Y 5 X -1 Y 1 X s 1442 335 m 5 X -1 Y
 4 X s 1451 334 m 1 X -2 Y 1 X 1 -1 d 3 X -1 Y 2 X s 1459 330 m 4 X -1 Y 5 X -1 Y s 1468 328 m 4 X -1 Y 5 X s 1477 327 m -1 Y 7 X -1 Y 2 X s 1486 325 m 5 X -1 Y 4 X s 1495 324 m 3 X -1 Y 5 X -1 Y s 1503 322 m 2 X -1 Y 6 X -1 Y 1 X s 1512 320 m 2 X -1
 Y 2 X -1 Y 5 X s 1521 318 m 1 X -1 Y 4 X -1 Y 4 X s 1530 316 m 2 X -1 Y 4 X -1 Y 3 X s 1539 314 m 3 X -1 Y 3 X -1 Y 2 X s 1547 312 m 2 X -1 Y 1 X -1 Y 3 X -1 Y 3 X s 1556 309 m 4 X -1 Y 5 X -1 Y s 1565 307 m 5 X -1 Y 4 X -1 Y s 1574 305 m 4 X -1 Y 4
 X -1 Y 1 X s 1583 303 m 3 X -1 Y 2 X -1 Y 3 X s 1591 301 m 3 X -1 Y 3 X -1 Y 3 X s 1600 299 m 2 X -1 Y 6 X -1 Y 1 X s 1609 297 m 1 X 1 -1 d 5 X 1 -1 d 1 X s 1618 295 m 2 X -1 Y 6 X -1 Y 1 X s 1627 293 m 4 X -1 Y 4 X s 1635 292 m 2 X -1 Y 6 X -1 Y 1
 X s 1644 290 m 4 X 1 -1 d 1 X -1 Y 3 X s 1653 288 m 1 X -1 Y 1 X -1 Y 7 X s 1662 286 m 3 X -1 Y 6 X s 1671 285 m 1 -1 d 2 X -1 Y 5 X -1 Y s 1679 282 m 7 X -1 Y 2 X s 1688 281 m 1 X -1 Y 2 X -1 Y 5 X -1 Y 1 X s 1697 278 m 1 X 1 -1 d 7 X -1 Y s 1706
 276 m 4 X -1 Y 5 X s 1715 275 m 1 -1 d 2 X -1 Y 2 X -1 Y 3 X s 1723 272 m 9 X -1 Y s 1732 271 m 6 X -1 Y 3 X s 1741 270 m 3 X -1 Y 6 X s 1750 269 m 1 X 1 -1 d 7 X s 1759 268 m -1 Y 8 X s 1767 267 m 2 X -1 Y 7 X s 1776 266 m 1 -1 d 2 X -1 Y 2 X -1 Y
 4 X s 1785 263 m 2 X -1 Y 7 X s 1794 262 m 1 -1 d 8 X s 1803 261 m 9 X s 1812 261 m 4 X -1 Y 4 X s 1820 260 m 9 X s 1829 260 m 2 X -1 Y 7 X s 1838 259 m 9 X s 1847 259 m 9 X s 1856 259 m -1 Y 8 X s 1864 258 m 9 X s 1873 258 m 3 X -1 Y 6 X s 1882 257
 m 9 X s 1891 257 m 9 X s 1900 257 m 8 X s 1908 257 m 9 X s 1917 257 m 9 X s 1926 257 m 9 X s 1935 257 m 9 X s 1944 257 m 8 X s 1952 257 m 9 X s 1961 257 m 9 X s 1970 257 m 9 X s 1979 257 m 9 X s 1988 257 m 8 X s 1996 257 m 9 X s 2005 257 m 9 X s
 2014 257 m 9 X s 2023 257 m 9 X s 2032 257 m 8 X s 2040 257 m 1 X s 0 0.666667 0 c 1 1 1 c black 0 0.666667 0 c 245 257 m 9 X s 254 257 m 9 X s 263 257 m 8 X s 271 257 m 9 X s 280 257 m 9 X s 289 257 m 9 X s 298 257 m 9 X s 307 257 m 8 X s 315 257 m
 9 X s 324 257 m 9 X s 333 257 m 9 X s 342 257 m 9 X s 351 257 m 8 X s 359 257 m 9 X s 368 257 m 9 X s 377 257 m 9 X s 386 257 m 9 X s 395 257 m 8 X s 403 257 m 9 X s 412 257 m 9 X s 421 257 m 9 X s 430 257 m 9 X s 439 257 m 8 X s 447 257 m 9 X s 456
 257 m 9 X s 465 257 m 9 X s 474 257 m 9 X s 483 257 m 8 X s 491 257 m 9 X s 500 257 m 9 X s 509 257 m 9 X s 518 257 m 9 X s 527 257 m 8 X s 535 257 m 9 X s 544 257 m 9 X s 553 257 m 9 X s 562 257 m 9 X s 571 257 m 8 X s 579 257 m 9 X s 588 257 m 9 X
 s 597 257 m 9 X s 606 257 m 9 X s 615 257 m 8 X s 623 257 m 9 X s 632 257 m 9 X s 641 257 m 9 X s 650 257 m 9 X s 659 257 m 8 X s 667 257 m 9 X s 676 257 m 9 X s 685 257 m 9 X s 694 257 m 9 X s 703 257 m 8 X s 711 257 m 9 X s 720 257 m 9 X s 729 257
 m 9 X s 738 257 m 9 X s 747 257 m 8 X s 755 257 m 9 X s 764 257 m 9 X s 773 257 m 9 X s 782 257 m 9 X s 791 257 m 8 X s 799 257 m 9 X s 808 257 m 9 X s 817 257 m 9 X s 826 257 m 9 X s 835 257 m 8 X s 843 257 m 9 X s 852 257 m 9 X s 861 257 m 9 X s
 870 257 m 9 X s 879 257 m 8 X s 887 257 m 9 X s 896 257 m 9 X s 905 257 m 9 X s 914 257 m 9 X s 923 257 m 8 X s 931 257 m 9 X s 940 257 m 9 X s 949 257 m 9 X s 958 257 m 9 X s 967 257 m 8 X s 975 257 m 9 X s 984 257 m 9 X s 993 257 m 9 X s 1002 257
 m 9 X s 1011 257 m 8 X s 1019 257 m 9 X s 1028 257 m 9 X s 1037 257 m 9 X s 1046 257 m 9 X s 1055 257 m 8 X s 1063 257 m 9 X s 1072 257 m 9 X s 1081 257 m 9 X s 1090 257 m 9 X s 1099 257 m 8 X s 1107 257 m 9 X s 1116 257 m 9 X s 1125 257 m 9 X s
 1134 257 m 9 X s 1143 257 m 8 X s 1151 257 m 9 X s 1160 257 m 9 X s 1169 257 m 9 X s 1178 257 m 9 X s 1187 257 m 8 X s 1195 257 m 9 X s 1204 257 m 9 X s 1213 257 m 9 X s 1222 257 m 9 X s 1231 257 m 8 X s 1239 257 m 9 X s 1248 257 m 9 X s 1257 257 m
 9 X s 1266 257 m 9 X s 1275 257 m 8 X s 1283 257 m 9 X s 1292 257 m 9 X s 1301 257 m 9 X s 1310 257 m 9 X s 1319 257 m 8 X s 1327 257 m 9 X s 1336 257 m 9 X s 1345 257 m 9 X s 1354 257 m 9 X s 1363 257 m 8 X s 1371 257 m 9 X s 1380 257 m 9 X s 1389
 257 m 9 X s 1398 257 m 9 X s 1407 257 m 8 X s 1415 257 m 9 X s 1424 257 m 9 X s 1433 257 m 9 X s 1442 257 m 9 X s 1451 257 m 8 X s 1459 257 m 9 X s 1468 257 m 9 X s 1477 257 m 9 X s 1486 257 m 9 X s 1495 257 m 8 X s 1503 257 m 9 X s 1512 257 m 9 X s
 1521 257 m 9 X s 1530 257 m 9 X s 1539 257 m 8 X s 1547 257 m 9 X s 1556 257 m 9 X s 1565 257 m 9 X s 1574 257 m 9 X s 1583 257 m 8 X s 1591 257 m 9 X s 1600 257 m 9 X s 1609 257 m 9 X s 1618 257 m 9 X s 1627 257 m 8 X s 1635 257 m 9 X s 1644 257 m
 9 X s 1653 257 m 9 X s 1662 257 m 9 X s 1671 257 m 8 X s 1679 257 m 9 X s 1688 257 m 9 X s 1697 257 m 9 X s 1706 257 m 9 X s 1715 257 m 8 X s 1723 257 m 9 X s 1732 257 m 9 X s 1741 257 m 9 X s 1750 257 m 9 X s 1759 257 m 8 X s 1767 257 m 9 X s 1776
 257 m 9 X s 1785 257 m 9 X s 1794 257 m 9 X s 1803 257 m 9 X s 1812 257 m 8 X s 1820 257 m 9 X s 1829 257 m 9 X s 1838 257 m 9 X s 1847 257 m 9 X s 1856 257 m 8 X s 1864 257 m 9 X s 1873 257 m 9 X s 1882 257 m 9 X s 1891 257 m 9 X s 1900 257 m 8 X s
 1908 257 m 9 X s 1917 257 m 9 X s 1926 257 m 9 X s 1935 257 m 9 X s 1944 257 m 8 X s 1952 257 m 9 X s 1961 257 m 9 X s 1970 257 m 9 X s 1979 257 m 9 X s 1988 257 m 8 X s 1996 257 m 9 X s 2005 257 m 9 X s 2014 257 m 9 X s 2023 257 m 9 X s 2032 257 m
 8 X s 2040 257 m 1 X s black 3 lw 245 202 m 1796 X s 351 242 m -40 Y s 389 222 m -20 Y s 428 222 m -20 Y s 466 222 m -20 Y s 505 222 m -20 Y s 543 242 m -40 Y s 582 222 m -20 Y s 620 222 m -20 Y s 659 222 m -20 Y s 697 222 m -20 Y s 736 242 m -40 Y
 s 774 222 m -20 Y s 813 222 m -20 Y s 851 222 m -20 Y s 890 222 m -20 Y s 928 242 m -40 Y s 967 222 m -20 Y s 1005 222 m -20 Y s 1044 222 m -20 Y s 1082 222 m -20 Y s 1121 242 m -40 Y s 1159 222 m -20 Y s 1198 222 m -20 Y s 1236 222 m -20 Y s 1275
 222 m -20 Y s 1313 242 m -40 Y s 1352 222 m -20 Y s 1390 222 m -20 Y s 1429 222 m -20 Y s 1467 222 m -20 Y s 1506 242 m -40 Y s 1544 222 m -20 Y s 1583 222 m -20 Y s 1621 222 m -20 Y s 1660 222 m -20 Y s 1698 242 m -40 Y s 1737 222 m -20 Y s 1775
 222 m -20 Y s 1814 222 m -20 Y s 1853 222 m -20 Y s 1891 242 m -40 Y s 351 242 m -40 Y s 312 222 m -20 Y s 274 222 m -20 Y s 1891 242 m -40 Y s 1930 222 m -20 Y s 1968 222 m -20 Y s 2007 222 m -20 Y s 245 202 m 1145 Y s 291 257 m -46 X s 268 306 m
 -23 X s 268 356 m -23 X s 268 405 m -23 X s 291 455 m -46 X s 268 504 m -23 X s 268 554 m -23 X s 268 604 m -23 X s 291 653 m -46 X s 268 703 m -23 X s 268 752 m -23 X s 268 802 m -23 X s 291 851 m -46 X s 268 901 m -23 X s 268 950 m -23 X s 268
 1000 m -23 X s 291 1050 m -46 X s 268 1099 m -23 X s 268 1149 m -23 X s 268 1198 m -23 X s 291 1248 m -46 X s 291 257 m -46 X s 268 207 m -23 X s 291 1248 m -46 X s 268 1297 m -23 X s 268 1347 m -23 X s 0.490196 0.545098 0.615686 c 1 1 1 c 0.490196
 0.545098 0.615686 c 907 202 245 1347 bl 245 1347 m 907 X s 1152 1347 m 202 Y s 1152 1549 m -907 X s 245 1549 m -202 Y s black
 gsave  2268 1684 0 0 C 515.735 1478.95 t 0 r /Helvetica-Bold findfont 53.0904 sf 0 0 m (Signal efficiency) show NC gr  0 0 0.933333 c 9 lw 286 1499 m 190 X s black
 gsave  2268 1684 0 0 C 515.735 1376.56 t 0 r /Helvetica-Bold findfont 53.0904 sf 0 0 m (Background efficiency) show NC gr  1 0 0 c 286 1397 m 190 X s 0.490196 0.545098 0.615686 c 3 lw 1 1 1 c 0.490196 0.545098 0.615686 c 889 202 1152 1347 bl 1152
 1347 m 889 X s 2041 1347 m 202 Y s 2041 1549 m -889 X s 1152 1549 m -202 Y s black
 gsave  2268 1684 0 0 C 1418.27 1501.7 t 0 r /Helvetica-Bold findfont 56.8825 sf 0 0 m (Signal purity) show NC gr  0 0 0.933333 c[  52 12 ] 0 sd 6 lw 1192 1515 m 187 X s black
 gsave  2268 1684 0 0 C 1418.27 1433.44 t 0 r /Helvetica-Bold findfont 56.8825 sf 0 0 m (Signal efficiency*purity) show NC gr  0 0 0.933333 c[  22 12 ] 0 sd 1192 1448 m 187 X s black
 gsave  2268 1684 0 0 C 1501.7 1368.97 t 0 r /Helvetica-Bold findfont 56.8825 sf 0 0 m (S+B) show NC gr [  ] 0 sd 1483 1414 m 7 -49 d s 3 lw 1490 1365 m 8 65 d s 1498 1430 m 114 X s
 gsave  2268 1684 0 0 C 1418.27 1368.97 t 0 r /Helvetica-Bold findfont 56.8825 sf 0 0 m (S/) show NC gr  0 0.666667 0 c 9 lw 1192 1381 m 187 X s black 3 lw 245 1248 m 1796 X s
 gsave  2268 1684 0 0 C 337.503 390.593 t 0 r /Helvetica-Bold findfont 53.0904 sf 0 0 m (For 1000 signal and 1000 background) show NC gr 
 gsave  2268 1684 0 0 C 1065.6 322.334 t 0 r /Helvetica-Bold findfont 53.0904 sf 0 0 m ( is) show NC gr 
 gsave  2268 1684 0 0 C 963.211 322.334 t 0 r /Helvetica-Bold findfont 53.0904 sf 0 0 m (S+B) show NC gr  6 lw 940 364 m 8 -45 d s 3 lw 948 319 m 8 60 d s 956 379 m 110 X s
 gsave  2268 1684 0 0 C 337.503 322.334 t 0 r /Helvetica-Bold findfont 53.0904 sf 0 0 m (events the maximum S/) show NC gr 
 gsave  2268 1684 0 0 C 337.503 254.075 t 0 r /Helvetica-Bold findfont 53.0904 sf 0 0 m (28.31 when cutting at  0.02) show NC gr  0.490196 0.545098 0.615686 c 0.364706 0.419608 0.490196 c 1554 100 23 1575 bf 0.490196 0.545098 0.615686 c 23 1575 m
 1554 X s 1577 1575 m 100 Y s 1577 1675 m -1554 X s 23 1675 m -100 Y s 1 1 1 c black 1 1 1 c
 gsave  2268 1684 0 0 C 75.8434 1604.09 t 0 r /Helvetica-Bold findfont 79.6355 sf 0 0 m (Cut efficiencies and optimal cut value) show NC gr  0 0.666667 0 c 2041 202 m 1145 Y s 1995 202 m 46 X s 2018 239 m 23 X s 2018 276 m 23 X s 2018 312 m 23 X s
 2018 349 m 23 X s 1995 386 m 46 X s 2018 423 m 23 X s 2018 459 m 23 X s 2018 496 m 23 X s 2018 533 m 23 X s 1995 570 m 46 X s 2018 606 m 23 X s 2018 643 m 23 X s 2018 680 m 23 X s 2018 717 m 23 X s 1995 753 m 46 X s 2018 790 m 23 X s 2018 827 m 23 X
 s 2018 864 m 23 X s 2018 901 m 23 X s 1995 937 m 46 X s 2018 974 m 23 X s 2018 1011 m 23 X s 2018 1048 m 23 X s 2018 1084 m 23 X s 1995 1121 m 46 X s 2018 1158 m 23 X s 2018 1195 m 23 X s 2018 1231 m 23 X s 2018 1268 m 23 X s 1995 1305 m 46 X s 1995
 1305 m 46 X s 2018 1342 m 23 X s black 0 0.666667 0 c
 gsave  2268 1684 0 0 C 2051.56 178.232 t 0 r /Helvetica-Bold findfont 64.4669 sf 0 0 m (0) show NC gr  black 0 0.666667 0 c
 gsave  2268 1684 0 0 C 2051.56 360.256 t 0 r /Helvetica-Bold findfont 64.4669 sf 0 0 m (5) show NC gr  black 0 0.666667 0 c
 gsave  2268 1684 0 0 C 2051.56 546.072 t 0 r /Helvetica-Bold findfont 64.4669 sf 0 0 m (10) show NC gr  black 0 0.666667 0 c
 gsave  2268 1684 0 0 C 2051.56 728.096 t 0 r /Helvetica-Bold findfont 64.4669 sf 0 0 m (15) show NC gr  black 0 0.666667 0 c
 gsave  2268 1684 0 0 C 2051.56 913.913 t 0 r /Helvetica-Bold findfont 64.4669 sf 0 0 m (20) show NC gr  black 0 0.666667 0 c
 gsave  2268 1684 0 0 C 2051.56 1095.94 t 0 r /Helvetica-Bold findfont 64.4669 sf 0 0 m (25) show NC gr  black 0 0.666667 0 c
 gsave  2268 1684 0 0 C 2051.56 1281.75 t 0 r /Helvetica-Bold findfont 64.4669 sf 0 0 m (30) show NC gr  black 0 0.666667 0 c
 gsave  2268 1684 0 0 C 2203.25 967.003 t 90 r /Helvetica-Bold findfont 64.4669 sf 0 0 m (Significance) show NC gr 
 gr  gr showpage
end
%%EOF
