%!PS-Adobe-2.0 EPSF-2.0
%%BoundingBox:  0 0 567 421
%%Title: dataset_class_comb2_all/plots/mvaeffs_Likelihood.eps: Cut efficiencies for Likelihood classifier
%%Creator: ROOT Version 6.18/00
%%CreationDate: Sat Sep 14 15:08:30 2019
%%DocumentNeededResources: ProcSet (FontSetInit)
%%EndComments
%%BeginProlog
80 dict begin
/s {stroke} def /l {lineto} def /m {moveto} def /t {translate} def
/r {rotate} def /rl {roll}  def /R {repeat} def
/d {rlineto} def /rm {rmoveto} def /gr {grestore} def /f {eofill} def
/c {setrgbcolor} def /black {0 setgray} def /sd {setdash} def
/cl {closepath} def /sf {scalefont setfont} def /lw {setlinewidth} def
/box {m dup 0 exch d exch 0 d 0 exch neg d cl} def
/NC{systemdict begin initclip end}def/C{NC box clip newpath}def
/bl {box s} def /bf {gsave box gsave f grestore 1 lw [] 0 sd s grestore} def /Y { 0 exch d} def /X { 0 d} def 
/K {{pop pop 0 moveto} exch kshow} bind def
/ita {/ang 15 def gsave [1 0 ang dup sin exch cos div 1 0 0] concat} def 
/mp {newpath /y exch def /x exch def} def
/side {[w .77 mul w .23 mul] .385 w mul sd w 0 l currentpoint t -144 r} def
/mr {mp x y w2 0 360 arc} def /m24 {mr s} def /m20 {mr f} def
/mb {mp x y w2 add m w2 neg 0 d 0 w neg d w 0 d 0 w d cl} def
/mt {mp x y w2 add m w2 neg w neg d w 0 d cl} def
/w4 {w 4 div} def
/w6 {w 6 div} def
/w8 {w 8 div} def
/m21 {mb f} def /m25 {mb s} def /m22 {mt f} def /m26{mt s} def
/m23 {mp x y w2 sub m w2 w d w neg 0 d cl f} def
/m27 {mp x y w2 add m w3 neg w2 neg d w3 w2 neg d w3 w2 d cl s} def
/m28 {mp x w2 sub y w2 sub w3 add m w3 0 d  0 w3 neg d w3 0 d 0 w3 d w3 0 d  0 w3 d w3 neg 0 d 0 w3 d w3 neg 0 d 0 w3 neg d w3 neg 0 d cl s } def
/m29 {mp gsave x w2 sub y w2 add w3 sub m currentpoint t 4 {side} repeat cl fill gr} def
/m30 {mp gsave x w2 sub y w2 add w3 sub m currentpoint t 4 {side} repeat cl s gr} def
/m31 {mp x y w2 sub m 0 w d x w2 sub y m w 0 d x w2 sub y w2 add m w w neg d x w2 sub y w2 sub m w w d s} def
/m32 {mp x y w2 sub m w2 w d w neg 0 d cl s} def
/m33 {mp x y w2 add m w3 neg w2 neg d w3 w2 neg d w3 w2 d cl f} def
/m34 {mp x w2 sub y w2 sub w3 add m w3 0 d  0 w3 neg d w3 0 d 0 w3 d w3 0 d  0 w3 d w3 neg 0 d 0 w3 d w3 neg 0 d 0 w3 neg d w3 neg 0 d cl f } def
/m35 {mp x y w2 add m w2 neg w2 neg d w2 w2 neg d w2 w2 d w2 neg w2 d x y w2 sub m 0 w d x w2 sub y m w 0 d s} def
/m36 {mb x w2 sub y w2 add m w w neg d x w2 sub y w2 sub m w w d s} def
/m37 {mp x y m w4 neg w2 d w4 neg w2 neg d w2 0 d  w4 neg w2 neg d w2 0 d w4 neg w2 d w2 0 d w4 neg w2 d w4 neg w2 neg d cl s} def
/m38 {mp x w4 sub y w2 add m w4 neg w4 neg d 0 w2 neg d w4 w4 neg d w2 0 d w4 w4 d 0 w2 d w4 neg w4 d w2 neg 0 d x y w2 sub m 0 w d x w2 sub y m w 0 d cl s} def
/m39 {mp x y m w4 neg w2 d w4 neg w2 neg d w2 0 d  w4 neg w2 neg d w2 0 d w4 neg w2 d w2 0 d w4 neg w2 d w4 neg w2 neg d cl f} def
/m40 {mp x y m w4 w2 d w4 w4 neg d w2 neg w4 neg d w2 w4 neg d w4 neg w4 neg d w4 neg w2 d w4 neg w2 neg d w4 neg w4 d w2 w4 d w2 neg w4 d w4 w4 d w4 w2 neg d cl s} def
/m41 {mp x y m w4 w2 d w4 w4 neg d w2 neg w4 neg d w2 w4 neg d w4 neg w4 neg d w4 neg w2 d w4 neg w2 neg d w4 neg w4 d w2 w4 d w2 neg w4 d w4 w4 d w4 w2 neg d cl f} def
/m42 {mp x y w2 add m w8 neg w2 -3 4 div mul d w2 -3 4 div mul w8 neg d w2 3 4 div mul w8 neg d w8 w2 -3 4 div mul d w8 w2 3 4 div mul d w2 3 4 div mul w8 d w2 -3 4 div mul w8 d w8 neg w2 3 4 div mul d cl s} def
/m43 {mp x y w2 add m w8 neg w2 -3 4 div mul d w2 -3 4 div mul w8 neg d w2 3 4 div mul w8 neg d w8 w2 -3 4 div mul d w8 w2 3 4 div mul d w2 3 4 div mul w8 d w2 -3 4 div mul w8 d w8 neg w2 3 4 div mul d cl f} def
/m44 {mp x y m w6 neg w2 d w2 2 3 div mul 0 d w6 neg w2 neg d w2 w6 d 0 w2 -2 3 div mul d w2 neg w6 d w6 w2 neg d w2 -2 3 div mul 0 d w6 w2 d w2 neg w6 neg d 0 w2 2 3 div mul d w2 w6 neg d cl s} def
/m45 {mp x y m w6 neg w2 d w2 2 3 div mul 0 d w6 neg w2 neg d w2 w6 d 0 w2 -2 3 div mul d w2 neg w6 d w6 w2 neg d w2 -2 3 div mul 0 d w6 w2 d w2 neg w6 neg d 0 w2 2 3 div mul d w2 w6 neg d cl f} def
/m46 {mp x y w4 add m w4 neg w4 d w4 neg w4 neg d  w4 w4 neg d w4 neg w4 neg d w4 w4 neg d w4 w4 d w4 w4 neg d w4 w4 d w4 neg w4 d w4 w4 d w4 neg w4 d w4 neg w4 neg d cl s} def
/m47 {mp x y w4 add m w4 neg w4 d w4 neg w4 neg d w4 w4 neg d w4 neg w4 neg d  w4 w4 neg d w4 w4 d w4 w4 neg d w4 w4 d w4 neg w4 d w4 w4 d w4 neg w4 d w4 neg w4 neg d cl f} def
/m48 {mp x y w4 add m w4 neg w4 d w4 neg w4 neg d w4 w4 neg d  w4 neg w4 neg d w4 w4 neg d w4 w4 d w4 w4 neg d w4 w4 d w4 neg w4 d w4 w4 d w4 neg w4 d w4 neg w4 neg d  w4 w4 neg d w4 neg w4 neg d w4 neg w4 d w4 w4 d cl f} def
/m49 {mp x w2 sub w3 add y w2 sub w3 add m  0 w3 neg d w3 0 d 0 w3 d w3 0 d 0 w3 d w3 neg 0 d 0 w3 d w3 neg 0 d 0 w3 neg d w3 neg 0 d 0 w3 neg d w3 0 d 0 w3 d w3 0 d 0 w3 neg d w3 neg 0 d cl f } def
/m2 {mp x y w2 sub m 0 w d x w2 sub y m w 0 d s} def
/m5 {mp x w2 sub y w2 sub m w w d x w2 sub y w2 add m w w neg d s} def
%%IncludeResource: ProcSet (FontSetInit)
%%IncludeResource: font Times-Roman
%%IncludeResource: font Times-Italic
%%IncludeResource: font Times-Bold
%%IncludeResource: font Times-BoldItalic
%%IncludeResource: font Helvetica
%%IncludeResource: font Helvetica-Oblique
%%IncludeResource: font Helvetica-Bold
%%IncludeResource: font Helvetica-BoldOblique
%%IncludeResource: font Courier
%%IncludeResource: font Courier-Oblique
%%IncludeResource: font Courier-Bold
%%IncludeResource: font Courier-BoldOblique
%%IncludeResource: font Symbol
%%IncludeResource: font ZapfDingbats
/reEncode {exch findfont dup length dict begin {1 index /FID eq  {pop pop} {def} ifelse } forall /Encoding exch def currentdict end dup /FontName get exch definefont pop } def [/Times-Bold /Times-Italic /Times-BoldItalic /Helvetica /Helvetica-Oblique
 /Helvetica-Bold /Helvetica-BoldOblique /Courier /Courier-Oblique /Courier-Bold /Courier-BoldOblique /Times-Roman /AvantGarde-Book /AvantGarde-BookOblique /AvantGarde-Demi /AvantGarde-DemiOblique /Bookman-Demi /Bookman-DemiItalic /Bookman-Light
 /Bookman-LightItalic /Helvetica-Narrow /Helvetica-Narrow-Bold /Helvetica-Narrow-BoldOblique /Helvetica-Narrow-Oblique /NewCenturySchlbk-Roman /NewCenturySchlbk-Bold /NewCenturySchlbk-BoldItalic /NewCenturySchlbk-Italic /Palatino-Bold
 /Palatino-BoldItalic /Palatino-Italic /Palatino-Roman ] {ISOLatin1Encoding reEncode } forall
%%EndProlog
%%BeginSetup
%%EndSetup
newpath  gsave  .25 .25 scale  gsave  0 0 t 0.490196 0.545098 0.615686 c[  ] 0 sd 3 lw 0.941176 0.941176 0.941176 c 2268 1684 0 0 bf black 1 1 0.992157 c 1796 1145 245 202 bf black 1796 1145 245 202 bl 1 1 0.992157 c 1796 1145 245 202 bf black 1796
 1145 245 202 bl 245 202 m 1796 X s[ 4 8] 0 sd 337 1347 m -1145 Y s 612 1347 m -1145 Y s 886 1347 m -1145 Y s 1161 1347 m -1145 Y s 1436 1347 m -1145 Y s 1711 1347 m -1145 Y s 1986 1347 m -1145 Y s 337 1347 m -1145 Y s 1986 1347 m -1145 Y s[  ] 0 sd
 245 202 m 1145 Y s[ 4 8] 0 sd 2041 202 m -1796 X s 2041 410 m -1796 X s 2041 618 m -1796 X s 2041 827 m -1796 X s 2041 1035 m -1796 X s 2041 1243 m -1796 X s 2041 1243 m -1796 X s 0 0 0.933333 c[  22 12 ] 0 sd 6 lw 0.49 0.6 0.82 c black 0 0 0.933333
 c 245 722 m 9 X s 254 722 m 9 X s 263 722 m 8 X s 271 722 m 9 X s 280 722 m 9 X s 289 722 m 9 X s 298 722 m 9 X s 307 722 m 8 X s 315 722 m 9 X s 324 722 m 9 X s 333 722 m 9 X s 342 722 m 9 X s 351 722 m 8 X s 359 722 m 9 X s 368 722 m 9 X s 377 722
 m 9 X s 386 722 m 9 X s 395 722 m 8 X s 403 722 m 9 X s 412 722 m 9 X s 421 722 m 9 X s 430 722 m 9 X s 439 722 m 8 X s 447 722 m 9 X s 456 722 m 9 X s 465 722 m 9 X s 474 722 m 9 X s 483 722 m 8 X s 491 722 m 9 X s 500 722 m 9 X s 509 722 m 9 X s
 518 722 m 9 X s 527 722 m 8 X s 535 722 m 9 X s 544 722 m 9 X s 553 722 m 9 X s 562 722 m 9 X s 571 722 m 8 X s 579 722 m 6 X 1 Y 3 X s 588 723 m 9 X s 597 723 m 9 X s 606 723 m 9 X s 615 723 m 8 X s 623 723 m 9 X s 632 723 m 9 X s 641 723 m 9 X s
 650 723 m 9 X s 659 723 m 8 X s 667 723 m 9 X s 676 723 m 9 X s 685 723 m 9 X s 694 723 m 9 X s 703 723 m 8 X s 711 723 m 9 X s 720 723 m 9 X s 729 723 m 9 X s 738 723 m 9 X s 747 723 m 8 X s 755 723 m 9 X s 764 723 m 9 X s 773 723 m 9 X s 782 723 m
 9 X s 791 723 m 8 X s 799 723 m 9 X s 808 723 m 9 X s 817 723 m 9 X s 826 723 m 9 X s 835 723 m 8 X s 843 723 m 9 X s 852 723 m 2 X 1 Y 7 X s 861 724 m 9 X s 870 724 m 9 X s 879 724 m 8 X s 887 724 m 9 X s 896 724 m 9 X s 905 724 m 9 X s 914 724 m 9
 X s 923 724 m 8 X s 931 724 m 9 X s 940 724 m 9 X s 949 724 m 9 X s 958 724 m 9 X s 967 724 m 8 X s 975 724 m 9 X s 984 724 m 9 X s 993 724 m 9 X s 1002 724 m 9 X s 1011 724 m 8 X s 1019 724 m 9 X s 1028 724 m 9 X s 1037 724 m 9 X s 1046 724 m 9 X s
 1055 724 m 1 1 d 7 X s 1063 725 m 9 X s 1072 725 m 9 X s 1081 725 m 5 X 1 Y 4 X s 1090 726 m 5 X 1 Y 4 X s 1099 727 m 2 X 1 Y 4 X 1 Y 2 X s 1107 729 m 3 X 1 Y 4 X 1 Y 2 X s 1116 731 m 2 X 1 Y 4 X 1 Y 3 X s 1125 733 m 1 X 1 Y 3 X 1 Y 3 X 1 Y 2 X s
 1134 736 m 2 X 1 Y 3 X 1 1 d 3 X s 1143 738 m 1 X 1 Y 3 X 1 1 d 3 X s 1151 740 m 2 X 1 Y 1 -1 d 1 Y 6 X 1 Y s 1160 742 m 4 X 1 1 d 4 X s 1169 743 m 2 X 1 1 d 6 X s 1178 744 m 6 X 1 Y 1 X -1 Y 2 X s 1187 744 m 8 X s 1195 744 m 9 X s 1204 744 m 9 X s
 1213 744 m 9 X s 1222 744 m 9 X s 1231 744 m 8 X s 1239 744 m 9 X s 1248 744 m 9 X s 1257 744 m 9 X s 1266 744 m 9 X s 1275 744 m 3 X 1 1 d 4 X s 1283 745 m 9 X s 1292 745 m 9 X s 1301 745 m 9 X s 1310 745 m 9 X s 1319 745 m 7 X 1 Y 1 X s 1327 746 m
 9 X s 1336 746 m 2 X 1 Y 7 X s 1345 747 m 1 1 d 5 X 1 Y 3 X s 1354 749 m 2 X 1 Y 4 X 1 Y 2 X 1 Y 1 X s 1363 752 m 1 X 1 Y 3 X 1 Y 2 X 1 Y 2 X s 1371 755 m 2 X 1 Y 2 X 1 Y 2 X 1 Y 2 X 1 Y 1 X s 1380 759 m 1 1 d 1 X 1 1 d 2 X 1 Y 2 X 1 Y 1 X 1 Y 1 X s
 1389 764 m 1 X 1 Y 1 X 1 1 d 1 X 1 Y 2 X 1 Y 1 X 1 Y 1 X 1 Y 1 X s 1398 770 m 1 X 1 Y 2 X 1 Y 1 X 1 1 d 1 X 1 Y 1 X 1 Y 1 X -1 Y 1 Y 1 -1 d s 1407 774 m 1 X 1 Y 1 X 1 Y -1 Y 1 Y 1 X -1 Y 1 Y 2 X 1 Y 2 X 1 Y 1 X 1 Y -1 Y s 1415 778 m 1 X 1 Y 1 X 1 1
 d 1 X 1 Y -1 Y 1 X 1 Y 2 X 1 Y 1 X 1 Y 1 X s 1424 783 m 1 X -1 Y 1 Y 3 X 1 Y 2 X 1 1 d 1 X 1 Y 1 X s 1433 786 m 1 Y 3 X 1 Y 2 X 1 Y 3 X 1 Y 1 X s 1442 790 m 1 X 1 1 d 3 X 1 Y 1 X 1 -2 d 1 X -2 Y 1 X s 1451 788 m 2 X 1 Y 1 X -1 Y 5 X s 1459 788 m 6 X
 1 Y 3 X s 1468 789 m 9 X s 1477 789 m 9 X s 1486 789 m 9 X s 1495 789 m 8 X s 1503 789 m 9 X s 1512 789 m 9 X s 1521 789 m 9 X s 1530 789 m 9 X s 1539 789 m 8 X s 1547 789 m 9 X s 1556 789 m 9 X s 1565 789 m 2 X 1 Y 7 X s 1574 790 m 9 X s 1583 790 m
 1 X 1 Y 7 X s 1591 791 m 4 X 1 Y 5 X s 1600 792 m 3 X 1 Y 3 X 1 Y -1 Y 3 X 1 Y s 1609 794 m 4 X 1 Y 3 X 1 Y -1 Y 1 X 1 Y 1 X s 1618 796 m 2 X 1 Y 3 X 1 Y -1 Y 1 Y 1 X 1 Y 3 X s 1627 799 m 2 Y 1 X -1 Y 1 X 1 1 d 1 Y 1 X 1 1 d 1 1 d 1 1 d 1 X 1 Y s
 1635 806 m 1 X 1 Y 1 X 2 Y 1 X 1 Y 1 X -1 Y 1 X 2 Y 1 X 2 Y 1 X 1 Y 1 X 1 Y 1 X 1 Y -1 Y s 1644 815 m 1 X 1 Y 1 X 1 Y 1 X 1 Y 1 1 d 1 Y 1 X 1 Y 1 1 d 1 Y 1 X 2 Y 1 1 d 2 Y 1 X 1 Y s 1653 829 m 2 Y 1 X 2 Y 1 X 2 Y 1 -1 d 1 Y 1 1 d 1 Y 1 X 2 Y 1 1 d 2
 Y 1 X 2 Y 1 X 2 Y 1 1 d 1 Y s 1662 848 m 2 Y 1 1 d 1 Y 1 1 d 2 Y -1 Y 1 1 d 1 Y 1 1 d 1 Y 1 1 d 3 Y 1 X 2 Y 1 X 5 Y 1 X 1 Y -1 Y 2 Y 1 1 d s 1671 872 m 1 Y 1 1 d 2 Y 1 1 d 3 Y 1 X 3 Y 1 X 2 Y 1 1 d 4 Y 1 X 2 Y 1 X 2 Y 1 X 3 Y -1 Y s 1679 896 m 1 X 1
 Y -1 Y 2 Y 1 X 3 Y -1 Y 1 1 d 3 Y 1 X 4 Y 1 -1 d 2 Y 1 X 4 Y 1 1 d 1 Y -1 Y 2 Y 1 2 d 1 Y -1 Y 3 Y 1 X 1 Y -1 Y s 1688 921 m 1 Y 1 X 2 Y -1 Y 1 1 d 4 Y 1 X 1 Y 1 X 3 Y 1 1 d 2 Y 1 1 d 4 Y 1 -1 d 3 Y 1 1 d 2 Y 1 X 2 Y -1 Y s 1697 946 m 2 Y 1 X -3 Y 2
 Y 1 X -3 Y 2 Y 1 1 d 1 Y -1 Y 1 Y 1 X 4 Y 1 1 d 1 Y -3 Y 1 Y 1 -1 d 1 Y -2 Y 2 Y 1 X -3 Y 2 Y 1 1 d -1 Y 1 Y 1 -1 d 4 Y s 1706 955 m 1 Y 1 -2 d 3 Y 1 -2 d 1 Y -2 Y 2 Y 1 X 2 Y -5 Y 1 1 d -2 Y 2 Y -1 Y 1 3 d -2 Y 2 Y 1 -1 d -1 Y 1 Y 1 1 d 1 Y -4 Y 1
 X -1 Y 1 Y -2 Y 1 -2 d -2 Y s 1715 947 m 1 Y -3 Y 2 Y 1 1 d -1 Y 1 Y -1 Y 1 -2 d 1 Y -1 Y 1 X -1 Y 1 Y -4 Y 1 -1 d -6 Y 1 -2 d 1 Y -4 Y 1 -1 d -4 Y 1 X -9 Y 1 -3 d -2 Y s 1723 910 m 1 -2 d -5 Y 1 -3 d -7 Y 1 1 d -13 Y 1 -2 d -11 Y 1 -3 d -5 Y 1 X
 -11 Y 1 -3 d -2 Y 1 -7 d -19 Y 1 8 d -11 Y s 1732 815 m -4 Y 1 -6 d -12 Y 1 -5 d 1 Y -18 Y 1 X -17 Y 1 -3 d -13 Y 1 -5 d -16 Y 1 -2 d -22 Y 1 -1 d -13 Y 1 -2 d -10 Y 1 -4 d -9 Y s 1741 654 m -8 Y 1 -4 d -16 Y 1 -8 d -5 Y 2 Y -5 Y 1 -7 d -19 Y 1 X
 -16 Y 1 -4 d -11 Y 1 -3 d -13 Y 1 -3 d -21 Y 1 -4 d -10 Y 1 X -6 Y s 1750 493 m -5 Y 1 -3 d -11 Y 1 -4 d -16 Y 1 -4 d -10 Y 1 -2 d -13 Y 1 -3 d -11 Y 1 -3 d 2 Y -5 Y 1 -1 d -9 Y 1 -1 d -15 Y 1 -2 d -2 Y s 1759 375 m -3 Y 1 -2 d -11 Y 1 -2 d -5 Y 1
 -1 d -7 Y 1 X -5 Y 1 -3 d -4 Y 1 -1 d -3 Y 1 -1 d -9 Y 1 -1 d -3 Y s 1767 314 m 1 -5 d -4 Y 1 X -3 Y 1 Y 1 -2 d -2 Y 1 -2 d -1 Y 1 -1 d 1 Y -2 Y 1 X -4 Y 1 -1 d -4 Y 1 -1 d -2 Y 1 -2 d -3 Y s 1776 277 m 1 X -3 Y 1 X -2 Y 1 -1 d 1 X -4 Y 1 -1 d 1 -1
 d -2 Y 1 X -3 Y 1 -1 d -2 Y 1 X -1 Y s 1785 256 m -1 Y 1 X -1 Y 1 X -3 Y 1 X 1 -1 d 1 -1 d -1 Y 1 X -2 Y 1 X -1 Y 1 -1 d 2 Y 1 X -1 Y s 1794 245 m 1 -1 d -1 Y 1 X -2 Y 1 X -1 Y 1 -1 d 1 X -1 Y 1 X -1 Y 1 -1 d -1 Y 1 X -1 Y 1 X s 1803 234 m 3 X -1 Y
 1 Y -1 Y 1 X -2 Y 2 X -1 Y 1 X -2 Y 1 -1 d 1 Y -1 Y 1 X s 1812 227 m -1 Y 1 X -2 Y 1 X -1 Y 2 X -1 Y 3 X -1 Y 1 Y 1 -1 d s 1820 221 m 2 X -1 Y 5 X -1 Y 2 X s 1829 219 m 1 X -1 Y 5 X -1 Y 1 Y 2 X -1 Y 1 X s 1838 217 m 2 X 1 -1 d 3 X 1 -1 d 1 X 1 -1 d
 s 1847 214 m 7 X -1 Y 2 X s 1856 213 m 3 X -1 Y 5 X s 1864 212 m 9 X s 1873 212 m 7 X -1 Y 1 X 1 Y 1 X s 1882 212 m 2 X -1 Y 7 X s 1891 211 m 9 X s 1900 211 m 8 X s 1908 211 m 3 X 1 -1 d 5 X s 1917 210 m 9 X s 1926 210 m 9 X s 1935 210 m 9 X s 1944
 210 m 8 X s 1952 210 m 9 X s 1961 210 m 9 X s 1970 210 m 9 X s 1979 210 m 9 X s 1988 210 m 5 X -1 Y 1 X 1 1 d 1 X s 1996 210 m 2 X -1 Y 7 X s 2005 209 m 5 X -1 Y 4 X s 2014 208 m 4 X -1 Y 5 X s 2023 207 m -1 Y 3 X -2 Y 6 X s 2032 204 m 3 X -1 Y 5 X
 s 2040 203 m 1 X s black[  ] 0 sd 3 lw 245 202 m 1796 X s 337 242 m -40 Y s 406 222 m -20 Y s 474 222 m -20 Y s 543 222 m -20 Y s 612 242 m -40 Y s 680 222 m -20 Y s 749 222 m -20 Y s 818 222 m -20 Y s 886 242 m -40 Y s 955 222 m -20 Y s 1024 222 m
 -20 Y s 1093 222 m -20 Y s 1161 242 m -40 Y s 1230 222 m -20 Y s 1299 222 m -20 Y s 1367 222 m -20 Y s 1436 242 m -40 Y s 1505 222 m -20 Y s 1573 222 m -20 Y s 1642 222 m -20 Y s 1711 242 m -40 Y s 1780 222 m -20 Y s 1848 222 m -20 Y s 1917 222 m
 -20 Y s 1986 242 m -40 Y s 337 242 m -40 Y s 268 222 m -20 Y s 1986 242 m -40 Y s
 gsave  2268 1684 0 0 C 310.958 128.934 t 0 r /Helvetica-Bold findfont 64.4669 sf 0 0 m (10) show NC gr 
 gsave  2268 1684 0 0 C 280.62 128.934 t 0 r /Symbol findfont 64.4669 sf 0 0 m (-) show NC gr 
 gsave  2268 1684 0 0 C 606.747 128.934 t 0 r /Helvetica-Bold findfont 64.4669 sf 0 0 m (8) show NC gr 
 gsave  2268 1684 0 0 C 576.41 128.934 t 0 r /Symbol findfont 64.4669 sf 0 0 m (-) show NC gr 
 gsave  2268 1684 0 0 C 879.783 128.934 t 0 r /Helvetica-Bold findfont 64.4669 sf 0 0 m (6) show NC gr 
 gsave  2268 1684 0 0 C 849.446 128.934 t 0 r /Symbol findfont 64.4669 sf 0 0 m (-) show NC gr 
 gsave  2268 1684 0 0 C 1156.61 128.934 t 0 r /Helvetica-Bold findfont 64.4669 sf 0 0 m (4) show NC gr 
 gsave  2268 1684 0 0 C 1126.27 128.934 t 0 r /Symbol findfont 64.4669 sf 0 0 m (-) show NC gr 
 gsave  2268 1684 0 0 C 1429.65 128.934 t 0 r /Helvetica-Bold findfont 64.4669 sf 0 0 m (2) show NC gr 
 gsave  2268 1684 0 0 C 1399.31 128.934 t 0 r /Symbol findfont 64.4669 sf 0 0 m (-) show NC gr 
 gsave  2268 1684 0 0 C 1691.31 128.934 t 0 r /Helvetica-Bold findfont 64.4669 sf 0 0 m (0) show NC gr 
 gsave  2268 1684 0 0 C 1964.34 128.934 t 0 r /Helvetica-Bold findfont 64.4669 sf 0 0 m (2) show NC gr 
 gsave  2268 1684 0 0 C 701.551 30.3373 t 0 r /Helvetica-Bold findfont 72.0512 sf 0 0 m (Cut value applied on Likelihood output) show NC gr  245 202 m 1145 Y s 291 202 m -46 X s 268 254 m -23 X s 268 306 m -23 X s 268 358 m -23 X s 291 410 m -46 X s
 268 462 m -23 X s 268 514 m -23 X s 268 566 m -23 X s 291 618 m -46 X s 268 670 m -23 X s 268 722 m -23 X s 268 775 m -23 X s 291 827 m -46 X s 268 879 m -23 X s 268 931 m -23 X s 268 983 m -23 X s 291 1035 m -46 X s 268 1087 m -23 X s 268 1139 m
 -23 X s 268 1191 m -23 X s 291 1243 m -46 X s 291 1243 m -46 X s 268 1295 m -23 X s 268 1347 m -23 X s
 gsave  2268 1684 0 0 C 182.024 178.232 t 0 r /Helvetica-Bold findfont 64.4669 sf 0 0 m (0) show NC gr 
 gsave  2268 1684 0 0 C 128.934 386.801 t 0 r /Helvetica-Bold findfont 64.4669 sf 0 0 m (0.2) show NC gr 
 gsave  2268 1684 0 0 C 128.934 595.37 t 0 r /Helvetica-Bold findfont 64.4669 sf 0 0 m (0.4) show NC gr 
 gsave  2268 1684 0 0 C 128.934 800.148 t 0 r /Helvetica-Bold findfont 64.4669 sf 0 0 m (0.6) show NC gr 
 gsave  2268 1684 0 0 C 128.934 1008.72 t 0 r /Helvetica-Bold findfont 64.4669 sf 0 0 m (0.8) show NC gr 
 gsave  2268 1684 0 0 C 189.608 1217.29 t 0 r /Helvetica-Bold findfont 64.4669 sf 0 0 m (1) show NC gr 
 gsave  2268 1684 0 0 C 64.4669 735.681 t 90 r /Helvetica-Bold findfont 72.0512 sf 0 0 m (Efficiency \(Purity\)) show NC gr  0 0 0.933333 c[  52 12 ] 0 sd 6 lw 0.49 0.6 0.82 c black 0 0 0.933333 c 245 722 m 9 X s 254 722 m 9 X s 263 722 m 8 X s 271
 722 m 9 X s 280 722 m 9 X s 289 722 m 9 X s 298 722 m 9 X s 307 722 m 8 X s 315 722 m 9 X s 324 722 m 9 X s 333 722 m 9 X s 342 722 m 9 X s 351 722 m 8 X s 359 722 m 9 X s 368 722 m 9 X s 377 722 m 9 X s 386 722 m 9 X s 395 722 m 8 X s 403 722 m 9 X
 s 412 722 m 9 X s 421 722 m 9 X s 430 722 m 9 X s 439 722 m 8 X s 447 722 m 9 X s 456 722 m 9 X s 465 722 m 9 X s 474 722 m 9 X s 483 722 m 8 X s 491 722 m 9 X s 500 722 m 9 X s 509 722 m 9 X s 518 722 m 9 X s 527 722 m 8 X s 535 722 m 9 X s 544 722
 m 9 X s 553 722 m 9 X s 562 722 m 9 X s 571 722 m 8 X s 579 722 m 6 X 1 Y 3 X s 588 723 m 9 X s 597 723 m 9 X s 606 723 m 9 X s 615 723 m 8 X s 623 723 m 9 X s 632 723 m 9 X s 641 723 m 9 X s 650 723 m 9 X s 659 723 m 8 X s 667 723 m 9 X s 676 723 m
 9 X s 685 723 m 9 X s 694 723 m 9 X s 703 723 m 8 X s 711 723 m 9 X s 720 723 m 9 X s 729 723 m 9 X s 738 723 m 9 X s 747 723 m 8 X s 755 723 m 9 X s 764 723 m 9 X s 773 723 m 9 X s 782 723 m 9 X s 791 723 m 8 X s 799 723 m 9 X s 808 723 m 9 X s 817
 723 m 9 X s 826 723 m 9 X s 835 723 m 8 X s 843 723 m 9 X s 852 723 m 2 X 1 Y 7 X s 861 724 m 9 X s 870 724 m 9 X s 879 724 m 8 X s 887 724 m 9 X s 896 724 m 9 X s 905 724 m 9 X s 914 724 m 9 X s 923 724 m 8 X s 931 724 m 9 X s 940 724 m 9 X s 949
 724 m 9 X s 958 724 m 9 X s 967 724 m 8 X s 975 724 m 9 X s 984 724 m 9 X s 993 724 m 9 X s 1002 724 m 9 X s 1011 724 m 8 X s 1019 724 m 9 X s 1028 724 m 9 X s 1037 724 m 9 X s 1046 724 m 9 X s 1055 724 m 1 1 d 7 X s 1063 725 m 9 X s 1072 725 m 9 X
 s 1081 725 m 5 X 1 Y 4 X s 1090 726 m 5 X 1 Y 4 X s 1099 727 m 2 X 1 Y 4 X 1 Y 2 X s 1107 729 m 3 X 1 Y 4 X 1 Y 2 X s 1116 731 m 2 X 1 Y 4 X 1 Y 3 X s 1125 733 m 1 X 1 Y 3 X 1 Y 3 X 1 Y 2 X s 1134 736 m 2 X 1 Y 3 X 1 1 d 3 X s 1143 738 m 1 X 1 Y 3 X
 1 Y 4 X 1 Y s 1151 741 m 4 X 1 Y 5 X 1 Y s 1160 743 m 5 X 1 Y 4 X s 1169 744 m 3 X 1 Y 6 X s 1178 745 m 8 X 1 Y 1 X s 1187 746 m 1 -1 d 5 X 1 Y 2 X s 1195 746 m 9 X s 1204 746 m 9 X s 1213 746 m 9 X s 1222 746 m 9 X s 1231 746 m 8 X s 1239 746 m 9 X
 s 1248 746 m 9 X s 1257 746 m 9 X s 1266 746 m 9 X s 1275 746 m 8 X s 1283 746 m 9 X s 1292 746 m 9 X s 1301 746 m 9 X s 1310 746 m 5 X 1 Y 4 X s 1319 747 m 8 X s 1327 747 m 4 X 1 Y 5 X s 1336 748 m 4 X 1 1 d 4 X s 1345 749 m 3 X 1 Y 5 X 1 Y 1 X s
 1354 751 m 4 X 1 Y 3 X 1 Y 2 X s 1363 753 m 1 Y 2 X 1 Y 2 X 1 1 d 3 X s 1371 756 m 1 1 d 1 X 1 1 d 2 X 1 Y 2 X 1 Y 2 X 1 Y s 1380 761 m 1 X 1 Y 2 X 1 Y 2 X 1 Y 2 X 1 Y 1 X 1 Y 1 X s 1389 766 m 1 X 1 Y 1 X 1 Y 2 X 1 Y 1 X 1 Y 2 X 1 Y 1 X 1 Y 1 X 1 Y
 s 1398 773 m -1 Y 1 Y 1 X 1 Y 2 X 1 Y 2 X 1 Y 1 X 1 Y 1 X 1 Y 2 X s 1407 778 m 1 Y 1 X 1 Y 2 X 1 Y 2 X 1 Y 2 X 1 Y 1 X 1 Y s 1415 784 m 2 X 1 Y 2 X 1 Y 1 X 1 Y 2 X 1 Y 1 X 1 Y 1 X s 1424 789 m 1 X 1 1 d 2 X 1 Y 2 X 1 Y 2 X 1 Y 1 X s 1433 793 m 1 Y 3
 X 1 Y 2 X 1 Y 2 X 1 1 d 1 X s 1442 797 m 1 X 1 Y 4 X 1 Y 1 X 1 -1 d 1 Y 1 X -1 Y 1 X s 1451 798 m 1 X 1 Y 7 X s 1459 799 m 9 X s 1468 799 m 4 X 1 Y 5 X s 1477 800 m 9 X s 1486 800 m 9 X s 1495 800 m 8 X s 1503 800 m 9 X s 1512 800 m 9 X s 1521 800 m
 9 X s 1530 800 m 9 X s 1539 800 m 8 X s 1547 800 m 9 X s 1556 800 m 6 X 1 Y 3 X s 1565 801 m 9 X s 1574 801 m 9 X s 1583 801 m 1 Y 8 X s 1591 802 m 2 X 1 Y 7 X s 1600 803 m 1 X 1 Y 5 X 1 Y 3 X s 1609 805 m 2 X 1 Y 3 X 1 Y 3 X 1 Y 1 X s 1618 808 m 2
 X 1 Y 2 X 1 Y 2 X 1 Y 2 X 1 Y 1 X s 1627 812 m 1 Y 2 X 1 1 d 1 Y 1 X 1 1 d 1 1 d 1 1 d 1 X 1 Y s 1635 819 m 1 X 1 Y 1 X 2 Y 1 X 1 Y 1 X 1 Y 1 X 1 Y 1 1 d 1 Y 1 X 2 Y 1 X 1 Y 1 X 1 Y s 1644 831 m 1 X 1 Y 1 1 d 1 Y 1 X 1 Y 1 1 d 1 Y 1 X 2 Y 1 X 2 Y 1
 X 2 Y 1 X 2 Y 1 1 d 1 Y s 1653 847 m 2 Y 1 X 2 Y 1 X 3 Y 1 X 1 Y 1 X 2 Y 1 X 3 Y 1 1 d 2 Y 1 X 3 Y 1 X 2 Y 1 1 d 1 Y s 1662 870 m 2 Y 1 1 d 1 Y 1 1 d 2 Y 1 1 d 2 Y 1 X 2 Y 1 1 d 2 Y 1 1 d 2 Y 1 X 5 Y 1 X 3 Y 1 1 d s 1671 897 m 2 Y 1 X 3 Y 1 1 d 2 Y
 1 1 d 3 Y 1 1 d 2 Y 1 1 d 3 Y 1 1 d 3 Y 1 X 3 Y 1 X 4 Y s 1679 927 m 1 X 3 Y 1 X 4 Y 1 X 3 Y 1 1 d 4 Y 1 X 3 Y 1 X 5 Y 1 1 d 4 Y 1 1 d 3 Y 1 1 d 4 Y s 1688 964 m 1 Y 1 1 d 3 Y 1 1 d 4 Y 1 X 3 Y 1 X 5 Y 1 1 d 3 Y 1 1 d 4 Y 1 1 d 4 Y 1 2 d 3 Y 1 1 d 3
 Y s 1697 1005 m 2 Y 1 1 d 4 Y 1 1 d -1 Y 4 Y 1 2 d 2 Y 1 1 d 5 Y 1 1 d 2 Y -1 Y 2 Y 1 X 2 Y 1 1 d 1 Y -1 Y 3 Y 1 1 d 2 Y 1 X 4 Y s 1706 1043 m 3 Y 1 X 3 Y 1 1 d 5 Y 1 X 4 Y 1 X 3 Y 1 1 d 4 Y 1 X 3 Y 1 X 3 Y 1 1 d 1 Y 1 1 d s 1715 1076 m 3 Y 1 1 d 4
 Y 1 X 4 Y 1 1 d 4 Y 1 1 d 3 Y 1 X 4 Y 1 X 2 Y 1 1 d 3 Y 1 1 d 4 Y s 1723 1112 m 1 X 2 Y 1 X 4 Y 1 1 d 1 Y 1 X 2 Y 1 X 2 Y 1 3 d 1 Y 1 1 d 4 Y 1 X 3 Y 1 2 d 2 Y s 1732 1140 m 1 Y 2 X 3 Y 1 2 d 2 Y 1 1 d 2 Y -1 Y 5 Y 1 X 1 Y 1 X -1 Y 1 1 d 2 Y -1 Y 1
 Y 1 X 2 Y 1 1 d 1 Y s 1741 1162 m 1 X 1 -1 d 1 Y -1 Y 2 X 2 Y -1 Y 1 Y -1 Y 1 Y 1 X 1 Y 1 X 1 -1 d 1 Y -1 Y 1 Y 1 X 1 2 d 1 Y s 1750 1167 m -1 Y 1 Y 1 -1 d -1 Y 2 Y -1 Y 1 X -1 Y 1 Y -1 Y 1 X -1 Y 4 Y 1 X -1 Y 1 X 4 Y -2 Y 1 X 3 Y 2 X -3 Y 1 -1 d s
 1759 1168 m 1 Y 1 X -2 Y 1 X -1 Y 1 X -2 Y 1 X -1 Y 1 Y -1 Y 1 X 1 Y -2 Y 1 Y 1 X -1 Y 1 Y 1 X -3 Y 1 X 3 Y -1 Y 1 Y s 1767 1163 m 1 -4 d -2 Y 1 Y 1 X -1 Y 1 Y 1 -1 d -1 Y 1 -2 d 2 Y 1 5 d 4 Y -1 Y 1 X 1 Y -2 Y 1 X -2 Y 1 -1 d -1 Y 1 Y 1 -1 d -2 Y s
 1776 1157 m 1 X -2 Y 1 X -2 Y 1 X 1 Y -1 Y 1 1 d -4 Y 3 Y 1 -1 d 1 Y -1 Y 5 Y 1 -1 d 3 Y 1 -1 d -2 Y 2 Y -1 Y 1 -1 d -2 Y 1 X -2 Y 8 Y s 1785 1160 m -2 Y 1 X -1 Y 1 Y -1 Y 1 2 d 11 Y -2 Y 1 X 1 Y -1 Y 1 X 8 Y -1 Y 1 X -1 Y 2 Y -1 Y 1 X -2 Y 1 X -2 Y
 1 -1 d 3 Y -1 Y 1 Y 1 X -2 Y s 1794 1171 m 1 -2 d -1 Y 1 X -3 Y 1 Y 1 X 1 Y 1 -1 d 1 X -1 Y 2 Y 1 -1 d -3 Y 1 X -1 Y 1 X -1 Y 1 X s 1803 1161 m 1 Y -1 Y 1 X 2 Y 1 X 5 Y -1 Y 1 -1 d -1 Y 7 Y 1 1 d -3 Y 1 X -1 Y 1 X -2 Y 1 1 d -4 Y 1 X 1 Y 1 X s 1812
 1165 m -3 Y 1 X -7 Y 1 X -2 Y 1 X -2 Y 1 1 d -2 Y 1 X -1 Y 1 X -1 Y 1 1 d -1 Y 2 Y 1 X 1 Y s 1820 1151 m -1 Y 1 X -1 Y 1 X -1 Y 1 X -1 Y 1 X -1 Y 1 X 4 Y 1 X -1 Y 2 Y -1 Y 1 X -2 Y 2 X s 1829 1148 m -2 Y 1 X 2 Y -1 Y 1 -1 d -2 Y 1 X -1 Y 11 Y 1 X -1
 Y 2 X -1 Y 2 Y 2 X -1 Y 1 X -2 Y s 1838 1151 m -1 Y 1 X -1 Y 1 X 1 -1 d -1 Y 1 X -1 Y 1 -1 d -1 Y 1 X 1 -1 d -4 Y 1 -1 d -1 Y 1 -1 d s 1847 1136 m 1 -1 d -2 Y 1 -1 d 1 X -1 Y 15 Y 1 2 d -1 Y 1 X 1 -1 d 1 X -3 Y 2 X s 1856 1143 m 1 X -1 Y 1 Y 1 X -2
 Y 1 1 d -4 Y 1 X 3 Y -1 Y 3 X -1 Y 1 -2 d 2 Y -1 Y s 1864 1138 m 1 X 1 Y 1 -1 d 2 X 1 Y -1 Y 4 X -1 Y 1 X s 1873 1137 m 1 -2 d 1 1 d -1 Y 4 X -1 Y 2 X 1 Y 1 X s 1882 1135 m 2 X -1 Y 1 X 1 -1 d 3 X -2 Y 2 X s 1891 1131 m 1 X -1 Y 1 X 7 Y -2 Y 7 X s
 1900 1135 m -3 Y 3 X 1 4 d 2 X 2 Y 2 X s 1908 1138 m 3 X 1 -4 d 1 X -1 Y 5 Y 2 X 9 Y 2 X s 1917 1147 m 6 X -1 Y 3 X s 1926 1146 m 7 X -1 Y 5 Y 2 X s 1935 1150 m 9 X s 1944 1150 m 8 X s 1952 1150 m 4 X -1 Y 5 X s 1961 1149 m 1 5 d 8 X s 1970 1154 m 3
 X 3 Y 3 X 1 1 d 3 Y 2 X s 1979 1161 m 4 Y 2 X 2 Y -1 Y 1 X -1 Y 2 X -1 Y 2 X -2 Y 2 X s 1988 1162 m 3 X -2 Y 2 X -1 Y 1 X 1 19 d -1 Y 1 X 1 Y s 1996 1178 m 2 X -1 Y 1 X 1 -1 d 2 X -1 Y 2 X 5 Y 1 X s 2005 1180 m 2 X 1 -1 d 1 Y 1 X -1 Y 1 X -6 Y 1 X
 -2 Y 1 -1 d 7 Y 1 X -2 Y 1 X 1 Y s 2014 1176 m 2 X -1 Y 1 Y 1 X -2 Y 1 X -4 Y 1 X -2 Y 1 X 7 Y 1 X 20 Y 1 X -5 Y 1 X s 2023 1190 m 10 Y 2 X -1 Y 1 X -20 Y 2 X 10 Y 3 X -2 Y 1 X s 2032 1187 m 3 X 9 Y 5 X s 2040 1196 m 1 X s[  ] 0 sd 9 lw 0.49 0.6
 0.82 c black 0 0 0.933333 c 245 1243 m 9 X s 254 1243 m 9 X s 263 1243 m 8 X s 271 1243 m 9 X s 280 1243 m 9 X s 289 1243 m 9 X s 298 1243 m 9 X s 307 1243 m 8 X s 315 1243 m 9 X s 324 1243 m 9 X s 333 1243 m 9 X s 342 1243 m 9 X s 351 1243 m 8 X s
 359 1243 m 9 X s 368 1243 m 9 X s 377 1243 m 9 X s 386 1243 m 9 X s 395 1243 m 8 X s 403 1243 m 9 X s 412 1243 m 9 X s 421 1243 m 9 X s 430 1243 m 9 X s 439 1243 m 8 X s 447 1243 m 9 X s 456 1243 m 9 X s 465 1243 m 9 X s 474 1243 m 9 X s 483 1243 m
 8 X s 491 1243 m 9 X s 500 1243 m 9 X s 509 1243 m 9 X s 518 1243 m 9 X s 527 1243 m 8 X s 535 1243 m 9 X s 544 1243 m 9 X s 553 1243 m 9 X s 562 1243 m 9 X s 571 1243 m 8 X s 579 1243 m 9 X s 588 1243 m 9 X s 597 1243 m 9 X s 606 1243 m 9 X s 615
 1243 m 8 X s 623 1243 m 9 X s 632 1243 m 9 X s 641 1243 m 9 X s 650 1243 m 9 X s 659 1243 m 8 X s 667 1243 m 9 X s 676 1243 m 9 X s 685 1243 m 9 X s 694 1243 m 9 X s 703 1243 m 8 X s 711 1243 m 9 X s 720 1243 m 9 X s 729 1243 m 9 X s 738 1243 m 9 X
 s 747 1243 m 8 X s 755 1243 m 9 X s 764 1243 m 9 X s 773 1243 m 9 X s 782 1243 m 9 X s 791 1243 m 8 X s 799 1243 m 9 X s 808 1243 m 9 X s 817 1243 m 9 X s 826 1243 m 9 X s 835 1243 m 8 X s 843 1243 m 9 X s 852 1243 m 9 X s 861 1243 m 9 X s 870 1243
 m 9 X s 879 1243 m 8 X s 887 1243 m 9 X s 896 1243 m 9 X s 905 1243 m 9 X s 914 1243 m 9 X s 923 1243 m 8 X s 931 1243 m 9 X s 940 1243 m 9 X s 949 1243 m 9 X s 958 1243 m 9 X s 967 1243 m 8 X s 975 1243 m 9 X s 984 1243 m 9 X s 993 1243 m 9 X s
 1002 1243 m 9 X s 1011 1243 m 8 X s 1019 1243 m 9 X s 1028 1243 m 9 X s 1037 1243 m 9 X s 1046 1243 m 9 X s 1055 1243 m 8 X s 1063 1243 m 9 X s 1072 1243 m 9 X s 1081 1243 m 9 X s 1090 1243 m 9 X s 1099 1243 m 8 X s 1107 1243 m 9 X s 1116 1243 m 9 X
 s 1125 1243 m 9 X s 1134 1243 m 8 X -1 Y 1 X s 1143 1242 m 1 X 1 Y 7 X -1 Y s 1151 1242 m 2 X 1 -1 d 6 X s 1160 1241 m 9 X s 1169 1241 m 9 X s 1178 1241 m 9 X s 1187 1241 m 1 -1 d 7 X s 1195 1240 m 9 X s 1204 1240 m 9 X s 1213 1240 m 9 X s 1222 1240
 m 9 X s 1231 1240 m 8 X s 1239 1240 m 9 X s 1248 1240 m 9 X s 1257 1240 m 9 X s 1266 1240 m 9 X s 1275 1240 m 8 X s 1283 1240 m 9 X s 1292 1240 m 9 X s 1301 1240 m 9 X s 1310 1240 m 9 X s 1319 1240 m 8 X s 1327 1240 m 9 X s 1336 1240 m 9 X s 1345
 1240 m 9 X s 1354 1240 m 9 X s 1363 1240 m 8 X s 1371 1240 m 9 X s 1380 1240 m 8 X -1 Y 1 X s 1389 1239 m 9 X s 1398 1239 m -1 Y 8 X -1 Y 1 -2 d s 1407 1235 m 3 X -1 Y 5 X -1 Y s 1415 1233 m 4 X -1 Y 5 X s 1424 1232 m 1 X -1 Y 4 X 1 -1 d 3 X 1 Y s
 1433 1231 m 2 X -1 Y 7 X s 1442 1230 m 6 X 1 -2 d 1 X -3 Y 1 X s 1451 1225 m 4 X 1 -1 d 3 X s 1459 1224 m 9 X s 1468 1224 m 9 X s 1477 1224 m 9 X s 1486 1224 m 9 X s 1495 1224 m 8 X s 1503 1224 m 9 X s 1512 1224 m 9 X s 1521 1224 m 9 X s 1530 1224 m
 9 X s 1539 1224 m 8 X s 1547 1224 m 9 X s 1556 1224 m 9 X s 1565 1224 m 9 X s 1574 1224 m 9 X s 1583 1224 m 8 X s 1591 1224 m 9 X s 1600 1224 m 6 X -1 Y 3 X s 1609 1223 m 7 X -1 Y 2 X s 1618 1222 m 9 X s 1627 1222 m 1 X -1 Y 7 X s 1635 1221 m 4 X -2
 Y 5 X -3 Y s 1644 1216 m 1 X -1 Y 4 X -1 Y 4 X s 1653 1214 m 2 X -1 Y 1 -1 d -1 Y 2 X -1 Y 2 X -1 Y 2 X -1 Y s 1662 1208 m 1 Y 2 X -2 Y 6 X -2 Y 1 Y 1 X s 1671 1206 m -1 Y 2 X 1 -1 d 2 X 1 -1 d 1 -1 d -2 Y 1 X -1 Y s 1679 1199 m 1 -1 d -1 Y 1 X -1 Y
 1 X -1 Y 1 X 1 Y 1 -2 d -1 Y 1 -1 d 1 X -3 Y 1 Y 1 1 d -1 Y 1 -1 d -5 Y s 1688 1184 m 1 X -3 Y 1 X 1 Y -1 Y 1 X -2 Y 1 -1 d -2 Y 2 X -1 Y 1 -2 d -2 Y 1 X -1 Y 1 -1 d -3 Y s 1697 1166 m 1 -1 d -6 Y 1 X -5 Y 1 -1 d -2 Y 1 X -2 Y 1 X -5 Y 1 X -2 Y 1 Y
 -2 Y 1 1 d -5 Y 1 X -2 Y 1 -1 d s 1706 1134 m -2 Y 1 -2 d -1 Y 1 -2 d -4 Y 1 -2 d 1 Y -7 Y 1 X -3 Y 1 1 d -3 Y 1 -3 d -2 Y 1 1 d -7 Y 1 X -5 Y 1 -2 d -3 Y s 1715 1089 m -3 Y 1 X -4 Y 1 -3 d -4 Y 1 -1 d -8 Y 1 -3 d -10 Y 1 -2 d -7 Y 1 -2 d -6 Y 1 -1
 d -13 Y 1 -4 d -6 Y s 1723 1012 m 1 -2 d -8 Y 1 -3 d -12 Y 1 1 d -16 Y 1 -3 d -14 Y 1 -3 d -8 Y 1 -2 d -13 Y 1 -3 d -7 Y 1 -8 d -22 Y 1 7 d -13 Y s 1732 883 m -6 Y 1 -6 d -14 Y 1 -5 d -21 Y 1 -2 d -19 Y 1 -5 d -18 Y 1 -5 d -18 Y 1 -3 d -22 Y 1 -2 d
 -16 Y 1 -2 d -12 Y 1 -5 d -10 Y s 1741 692 m -8 Y 1 -5 d -17 Y 1 -9 d -5 Y 2 Y -5 Y 1 -7 d -21 Y 1 X -19 Y 1 -4 d -12 Y 1 -3 d -14 Y 1 -4 d -22 Y 1 -5 d -10 Y 1 -2 d -5 Y s 1750 517 m -7 Y 1 -2 d -13 Y 1 -3 d -18 Y 1 -4 d -12 Y 1 -1 d -14 Y 1 -3 d
 -13 Y 1 -3 d 2 Y -6 Y 1 -2 d -9 Y 1 -1 d -15 Y 1 -3 d -1 Y s 1759 389 m -4 Y 1 -2 d -12 Y 1 -2 d -5 Y 1 -1 d -7 Y 1 -1 d -5 Y 1 -2 d -6 Y 1 X -4 Y 1 X -10 Y 1 -1 d -3 Y s 1767 324 m 1 -5 d -4 Y 1 -1 d -3 Y 1 Y 1 -2 d -2 Y 1 -2 d -2 Y 1 Y -1 Y 1 Y 1
 -2 d 1 Y -2 Y 1 -1 d -4 Y 1 -1 d -4 Y 1 -1 d -2 Y 1 -2 d -3 Y s 1776 284 m 1 -1 d -2 Y 1 X -3 Y 1 X -1 Y 1 X -4 Y 1 -1 d -1 Y 1 X -2 Y 1 -1 d -3 Y 1 -1 d -1 Y 1 -1 d -1 Y s 1785 261 m -1 Y 1 X -1 Y 1 X -4 Y 1 X 1 -1 d -1 Y 1 X -2 Y 1 X -1 Y 1 -1 d
 -1 Y 1 X 1 Y 1 X -1 Y s 1794 248 m 1 -1 d -1 Y 1 X -2 Y 1 X -1 Y 1 -1 d 1 X -1 Y 1 X -2 Y 1 X -1 Y 1 X -1 Y 1 X s 1803 237 m 1 X -1 Y 1 Y 1 X 1 -1 d -1 Y 1 X -1 Y 1 -1 d 1 X -1 Y 1 X -2 Y 2 X s 1812 230 m -1 Y 1 -1 d -2 Y 1 X -1 Y 2 X -1 Y 3 X -1 Y
 1 X s 1820 223 m 1 X -1 Y 1 X 1 Y -1 Y 4 X -1 Y 3 X s 1829 221 m -1 Y 2 X 1 -1 d 6 X -1 Y s 1838 218 m 4 X -1 Y 3 X -1 Y 2 X s 1847 216 m 1 X -1 Y 6 X -1 Y 2 X s 1856 214 m 3 X 1 -1 d 4 X s 1864 213 m 9 X s 1873 213 m 9 X s 1882 213 m 3 X 1 -1 d 5 X
 s 1891 212 m 9 X s 1900 212 m 8 X s 1908 212 m 3 X 1 -1 d 5 X s 1917 211 m 9 X s 1926 211 m 9 X s 1935 211 m 9 X s 1944 211 m 8 X s 1952 211 m 9 X s 1961 211 m 9 X s 1970 211 m 9 X s 1979 211 m 7 X -1 Y 2 X s 1988 210 m 8 X s 1996 210 m 9 X s 2005
 210 m 1 X -1 Y 5 X -1 Y 3 X s 2014 208 m 6 X -1 Y 3 X s 2023 207 m 3 X -3 Y 6 X s 2032 204 m 3 X -1 Y 5 X s 2040 203 m 1 X s 1 0 0 c black 1 0 0 c 245 1243 m 9 X s 254 1243 m 9 X s 263 1243 m 8 X s 271 1243 m 9 X s 280 1243 m 9 X s 289 1243 m 9 X s
 298 1243 m 9 X s 307 1243 m 8 X s 315 1243 m 9 X s 324 1243 m 9 X s 333 1243 m 9 X s 342 1243 m 9 X s 351 1243 m 8 X s 359 1243 m 9 X s 368 1243 m 9 X s 377 1243 m 9 X s 386 1243 m 9 X s 395 1243 m 8 X s 403 1243 m 9 X s 412 1243 m 9 X s 421 1243 m
 9 X s 430 1243 m 9 X s 439 1243 m 8 X s 447 1243 m 9 X s 456 1243 m 9 X s 465 1243 m 9 X s 474 1243 m 9 X s 483 1243 m 8 X s 491 1243 m 9 X s 500 1243 m 9 X s 509 1243 m 9 X s 518 1243 m 9 X s 527 1243 m 8 X s 535 1243 m 9 X s 544 1243 m 9 X s 553
 1243 m 9 X s 562 1243 m 9 X s 571 1243 m 8 X s 579 1243 m 9 X s 588 1243 m 9 X s 597 1243 m 9 X s 606 1243 m 7 X -1 Y 2 X s 615 1242 m 8 X s 623 1242 m 9 X s 632 1242 m 9 X s 641 1242 m 9 X s 650 1242 m 9 X s 659 1242 m 8 X s 667 1242 m 9 X s 676
 1242 m 9 X s 685 1242 m 9 X s 694 1242 m 9 X s 703 1242 m 8 X s 711 1242 m 9 X s 720 1242 m 9 X s 729 1242 m 9 X s 738 1242 m 9 X s 747 1242 m 8 X s 755 1242 m 9 X s 764 1242 m 9 X s 773 1242 m 9 X s 782 1242 m 9 X s 791 1242 m 8 X s 799 1242 m 9 X
 s 808 1242 m 9 X s 817 1242 m 7 X -1 Y 2 X s 826 1241 m 9 X s 835 1241 m 3 X -1 Y 5 X s 843 1240 m 5 X -1 Y 4 X s 852 1239 m 2 X -1 Y 7 X s 861 1238 m 9 X s 870 1238 m 2 X -1 Y 7 X s 879 1237 m 8 X s 887 1237 m 9 X s 896 1237 m 9 X s 905 1237 m 9 X
 s 914 1237 m 9 X s 923 1237 m 8 X s 931 1237 m 9 X s 940 1237 m 9 X s 949 1237 m 9 X s 958 1237 m 9 X s 967 1237 m 8 X s 975 1237 m 6 X -1 Y 3 X s 984 1236 m 9 X s 993 1236 m 9 X s 1002 1236 m 9 X s 1011 1236 m 8 X s 1019 1236 m 9 X s 1028 1236 m 9
 X s 1037 1236 m 9 X s 1046 1236 m 7 X -1 Y 2 X s 1055 1235 m 7 X -1 Y 1 X s 1063 1234 m 9 X s 1072 1234 m 2 X -1 Y 6 X -1 Y 1 X s 1081 1232 m 3 X 1 -1 d 1 X -1 Y 2 X -1 Y 2 X s 1090 1229 m 1 X -1 Y 3 X -1 Y 2 X -1 Y 1 X -1 Y 2 X s 1099 1225 m -1 Y 1
 X -1 Y 2 X -1 Y 1 X -1 Y 1 X -1 Y 1 X -1 Y 1 X -2 Y 1 X s 1107 1217 m 2 X -1 Y 1 -1 d -1 Y 1 X 1 -1 d -1 Y 2 X -1 Y 1 X -1 Y 1 X -1 Y s 1116 1209 m 1 X -1 Y 1 X -1 Y 1 -1 d 1 X -1 Y 1 X -1 Y 1 X -1 Y 1 X -1 Y 1 X -1 Y 1 X -1 Y s 1125 1200 m 1 X -1 Y
 1 X 1 -1 d -2 Y 2 X -1 Y 1 -1 d -1 Y 1 X -1 Y 1 X -1 Y 1 X -1 Y s 1134 1190 m 1 X -1 Y 1 X -1 Y 1 X -1 Y 1 X -1 Y 1 X -1 Y 1 -1 d -1 Y 1 X -1 Y 1 X -1 Y 1 X s 1143 1181 m 1 X -2 Y 1 X -2 Y 2 X -1 Y 1 X -1 Y 1 X -1 Y 1 X -1 Y 1 X -1 Y s 1151 1172 m 1
 X -1 Y 1 X -1 Y 1 X -1 Y 1 X -2 Y 1 X 1 -1 d 1 X -1 Y 2 X -1 Y s 1160 1164 m 1 -1 d 1 Y -1 Y 1 X -1 Y 2 X -1 Y 1 X -1 Y 1 X -1 Y 1 X 1 -1 d 1 X s 1169 1158 m 1 X -1 Y 3 X -1 Y 3 X 1 -1 d 1 X s 1178 1155 m 1 X -1 Y 4 X -1 Y 4 X s 1187 1153 m -1 Y 8 X
 s 1195 1152 m 9 X s 1204 1152 m 1 X 1 -1 d 7 X s 1213 1151 m 9 X s 1222 1151 m 9 X s 1231 1151 m 8 X s 1239 1151 m 1 X -1 Y 8 X s 1248 1150 m 9 X s 1257 1150 m 9 X s 1266 1150 m 9 X s 1275 1150 m 8 X s 1283 1150 m 9 X s 1292 1150 m 9 X s 1301 1150 m
 9 X s 1310 1150 m 1 X -1 Y 4 X -1 Y 4 X s 1319 1148 m 3 X 1 -1 d 2 X -1 Y 2 X s 1327 1146 m 2 X -1 Y 3 X -1 Y 3 X -1 Y 1 X s 1336 1143 m 2 X -1 Y 1 X -1 Y 4 X -1 Y 1 X -1 Y 1 X s 1345 1139 m 2 X -2 Y 3 X -1 Y 1 X -1 Y 1 X -1 Y 1 X -1 Y 1 X s 1354
 1133 m 1 X -1 Y 1 X -1 Y 1 X 1 -1 d 1 X -1 Y 1 X -2 Y 1 X -2 Y 1 X -1 Y 1 X s 1363 1124 m -2 Y 1 X -1 Y 1 -1 d -1 Y 1 X -1 Y 1 -1 d -1 Y 1 X -2 Y 2 X -1 Y 1 X s 1371 1113 m 1 -1 d 1 -1 d -2 Y 2 X -2 Y 1 -1 d -1 Y 1 -1 d -1 Y 1 X -2 Y 1 X -1 Y 1 -1 d
 -2 Y s 1380 1097 m -1 Y 1 X -2 Y 1 X -2 Y 1 X -1 Y 1 X -1 Y 1 -1 d -2 Y 1 X -1 Y 1 -1 d -2 Y 1 X -2 Y 1 -1 d -1 Y s 1389 1079 m -1 Y 1 X -2 Y 1 X -3 Y 1 -1 d -1 Y 1 X -3 Y 1 X -1 Y 1 X -2 Y 1 X -3 Y 1 -1 d -3 Y 1 X -2 Y s 1398 1056 m -1 Y 1 -1 d -2
 Y 1 X -1 Y 1 -1 d -2 Y 1 X -1 Y 1 X -2 Y 1 -1 d -2 Y 1 -1 d -2 Y 1 X -2 Y 1 -1 d s 1407 1036 m -2 Y 1 X -3 Y 1 X -2 Y 1 X -3 Y 1 X -1 Y 1 -1 d -1 Y 1 X -2 Y 1 X -3 Y 1 X -1 Y s 1415 1017 m 1 -1 d -1 Y 1 -1 d -1 Y 1 -1 d -1 Y 1 X -3 Y 1 X -2 Y 1 X -2
 Y 1 X -1 Y 1 -1 d -2 Y 1 X -2 Y s 1424 998 m 1 -1 d -1 Y 1 X -1 Y 1 X -1 Y 1 X -1 Y 1 -1 d -1 Y 1 -1 d -1 Y 1 -1 d -1 Y 1 X -2 Y 1 X -1 Y s 1433 984 m -1 Y 1 X -1 Y 1 X -1 Y 1 -1 d 1 -1 d -1 Y 1 X -1 Y 1 -1 d -1 Y 1 X -1 Y 1 X -1 Y 1 X s 1442 973 m
 -1 Y 1 X -1 Y 1 X -2 Y 1 X 1 -1 d 1 X -1 Y 2 X 1 -1 d -1 Y 1 X s 1451 965 m 1 X -1 Y 4 X -1 Y 3 X s 1459 963 m 3 X -1 Y 5 X -1 Y 1 X s 1468 961 m 6 X 1 -1 d 2 X s 1477 960 m 5 X -1 Y 4 X s 1486 959 m 9 X s 1495 959 m 8 X s 1503 959 m 9 X s 1512 959
 m 4 X 1 -1 d 4 X s 1521 958 m 9 X s 1530 958 m 9 X s 1539 958 m 8 X s 1547 958 m 9 X s 1556 958 m 2 X -1 Y 7 X s 1565 957 m 3 X -1 Y 6 X s 1574 956 m 3 X 1 -1 d 4 X -1 Y 1 X s 1583 954 m 3 X -1 Y 4 X -1 Y 1 X s 1591 952 m 2 X -1 Y 4 X -1 Y 2 X -1 Y
 1 X s 1600 949 m 1 X -1 Y 2 X -1 Y 2 X -1 Y 1 X -2 Y 3 X -1 Y s 1609 943 m 2 X -1 Y 1 X -1 Y 1 X -1 Y 1 -1 d 1 X -2 Y 1 X 1 -1 d -1 Y 1 X s 1618 935 m -1 Y 1 X -1 Y 1 X -1 Y 1 X -1 Y 1 X -1 Y 1 -1 d -1 Y 1 X -2 Y 1 X -1 Y 1 X -1 Y 1 -1 d s 1627 923
 m -2 Y 1 -1 d -1 Y 1 -1 d 1 -1 d -2 Y 1 -1 d -2 Y 1 X -3 Y 1 -1 d -1 Y 1 -1 d -2 Y 1 X -3 Y s 1635 901 m 1 X -3 Y 1 X -4 Y 1 -1 d -2 Y 1 -1 d -2 Y 1 -1 d -4 Y 1 -1 d -3 Y 1 -1 d -4 Y 1 -1 d -2 Y 1 -1 d -3 Y s 1644 867 m -1 Y 1 -1 d -3 Y 1 X -5 Y 1 X
 -3 Y 1 -2 d -3 Y 1 -1 d -4 Y 1 -1 d -4 Y 1 -1 d -4 Y 1 -2 d -5 Y 1 X -4 Y s 1653 823 m -4 Y 1 -1 d -4 Y 1 -2 d -6 Y 1 X -4 Y 1 -2 d -3 Y 1 -1 d -8 Y 1 -2 d -5 Y 1 X -6 Y 1 -1 d -5 Y 1 -1 d -3 Y s 1662 765 m -5 Y 1 -2 d -4 Y 1 -1 d -6 Y 1 -2 d -4 Y 1
 -1 d -3 Y 1 -3 d -6 Y 1 -2 d -4 Y 1 -1 d -9 Y 1 -1 d -6 Y 1 -3 d s 1671 702 m -5 Y 1 X -7 Y 1 -1 d -5 Y 1 -2 d -7 Y 1 -2 d -5 Y 1 -1 d -7 Y 1 -2 d -5 Y 1 -2 d -6 Y 1 -1 d -7 Y s 1679 637 m 1 -1 d -5 Y 1 -2 d -7 Y 1 -2 d -5 Y 1 -1 d -7 Y 1 -1 d -6 Y
 1 -2 d -9 Y 1 X -9 Y 1 -1 d -7 Y 1 -2 d -8 Y s 1688 562 m -2 Y 1 -2 d -6 Y 1 -1 d -7 Y 1 -1 d -5 Y 1 -2 d -9 Y 1 -1 d -4 Y 1 -2 d -8 Y 1 -1 d -8 Y 1 -2 d -6 Y 1 -2 d -5 Y s 1697 488 m -3 Y 1 -2 d -8 Y 1 -1 d -7 Y 1 -2 d -5 Y 1 -1 d -8 Y 1 -1 d -6 Y
 1 X -4 Y 1 -1 d -5 Y 1 -1 d -4 Y 1 X -5 Y s 1706 424 m -4 Y 1 -1 d -5 Y 1 -1 d -8 Y 1 -1 d -5 Y 1 -1 d -4 Y 1 -2 d -5 Y 1 -1 d -4 Y 1 X -5 Y 1 -1 d -3 Y 1 -1 d -1 Y s 1715 371 m -4 Y 1 -1 d -5 Y 1 -2 d -4 Y 1 -1 d -6 Y 1 -2 d -5 Y 1 X -6 Y 1 -1 d -2
 Y 1 -2 d -5 Y 1 -1 d -5 Y s 1723 319 m 1 -1 d -2 Y 1 -1 d -6 Y 1 -1 d -3 Y 1 -1 d -3 Y 1 -1 d -3 Y 1 -2 d -3 Y 1 -1 d -5 Y 1 X -5 Y 1 -1 d -3 Y s 1732 277 m -1 Y 1 -1 d -2 Y 1 X -5 Y 1 -1 d -4 Y 1 -1 d -6 Y 1 X -3 Y 1 X -1 Y 1 -1 d -3 Y 1 X -2 Y 1
 -1 d -2 Y s 1741 243 m 1 -1 d -1 Y 1 X -1 Y 1 -1 d -2 Y 1 X -2 Y 1 X -2 Y 1 X -1 Y 1 X -2 Y 1 -1 d -1 Y 1 -1 d s 1750 227 m -1 Y 1 X -1 Y 1 X -1 Y 1 X -2 Y 1 X -1 Y 1 X -2 Y 1 X -1 Y 1 X -1 Y 2 X s 1759 217 m -1 Y 1 X -1 Y 3 X -1 Y 2 X -1 Y 2 X -1 Y
 s 1767 212 m 4 X -1 Y 1 X -1 Y 4 X -1 Y s 1776 209 m 5 X -1 Y 4 X -1 Y s 1785 207 m 2 X -1 Y 3 X -1 Y 4 X s 1794 205 m 9 X s 1803 205 m 3 X -1 Y 6 X s 1812 204 m 8 X s 1820 204 m 9 X s 1829 204 m 9 X s 1838 204 m 9 X s 1847 204 m 3 X -1 Y 6 X s 1856
 203 m 8 X s 1864 203 m 9 X s 1873 203 m 9 X s 1882 203 m 9 X s 1891 203 m 9 X s 1900 203 m 8 X s 1908 203 m 9 X s 1917 203 m 9 X s 1926 203 m 9 X s 1935 203 m 9 X s 1944 203 m 8 X s 1952 203 m 9 X s 1961 203 m 9 X s 1970 203 m 9 X s 1979 203 m 9 X s
 1988 203 m 8 X s 1996 203 m 9 X s 2005 203 m 7 X -1 Y 2 X s 2014 202 m 9 X s 2023 202 m 9 X s 2032 202 m 8 X s 2040 202 m 1 X s 0 0.666667 0 c 1 1 1 c black 0 0.666667 0 c 245 1066 m 9 X s 254 1066 m 9 X s 263 1066 m 8 X s 271 1066 m 9 X s 280 1066
 m 9 X s 289 1066 m 9 X s 298 1066 m 9 X s 307 1066 m 8 X s 315 1066 m 9 X s 324 1066 m 9 X s 333 1066 m 9 X s 342 1066 m 9 X s 351 1066 m 8 X s 359 1066 m 9 X s 368 1066 m 9 X s 377 1066 m 9 X s 386 1066 m 9 X s 395 1066 m 8 X s 403 1066 m 9 X s 412
 1066 m 9 X s 421 1066 m 9 X s 430 1066 m 9 X s 439 1066 m 8 X s 447 1066 m 9 X s 456 1066 m 9 X s 465 1066 m 9 X s 474 1066 m 9 X s 483 1066 m 8 X s 491 1066 m 9 X s 500 1066 m 9 X s 509 1066 m 9 X s 518 1066 m 9 X s 527 1066 m 8 X s 535 1066 m 9 X
 s 544 1066 m 9 X s 553 1066 m 9 X s 562 1066 m 9 X s 571 1066 m 8 X s 579 1066 m 9 X s 588 1066 m 9 X s 597 1066 m 9 X s 606 1066 m 9 X s 615 1066 m 8 X s 623 1066 m 9 X s 632 1066 m 9 X s 641 1066 m 9 X s 650 1066 m 9 X s 659 1066 m 8 X s 667 1066
 m 9 X s 676 1066 m 9 X s 685 1066 m 9 X s 694 1066 m 9 X s 703 1066 m 8 X s 711 1066 m 9 X s 720 1066 m 9 X s 729 1066 m 9 X s 738 1066 m 9 X s 747 1066 m 8 X s 755 1066 m 9 X s 764 1066 m 9 X s 773 1066 m 9 X s 782 1066 m 9 X s 791 1066 m 8 X s 799
 1066 m 9 X s 808 1066 m 9 X s 817 1066 m 9 X s 826 1066 m 9 X s 835 1066 m 5 X 1 Y 3 X s 843 1067 m 9 X s 852 1067 m 9 X s 861 1067 m 9 X s 870 1067 m 9 X s 879 1067 m 8 X s 887 1067 m 9 X s 896 1067 m 9 X s 905 1067 m 9 X s 914 1067 m 9 X s 923
 1067 m 8 X s 931 1067 m 9 X s 940 1067 m 9 X s 949 1067 m 9 X s 958 1067 m 9 X s 967 1067 m 8 X s 975 1067 m 9 X s 984 1067 m 9 X s 993 1067 m 9 X s 1002 1067 m 9 X s 1011 1067 m 8 X s 1019 1067 m 9 X s 1028 1067 m 9 X s 1037 1067 m 9 X s 1046 1067
 m 8 X 1 Y 1 X s 1055 1068 m 8 X s 1063 1068 m 9 X s 1072 1068 m 9 X s 1081 1068 m 5 X 1 Y 4 X s 1090 1069 m 7 X 1 Y 2 X s 1099 1070 m 4 X 1 Y 4 X s 1107 1071 m 2 X 1 Y 5 X 1 Y 2 X s 1116 1073 m 2 X 1 Y 5 X 1 Y 2 X s 1125 1075 m 3 X 1 Y 4 X 1 Y 2 X s
 1134 1077 m 2 X 1 Y 4 X 1 Y 1 -1 d 1 Y 2 X s 1143 1079 m 2 X 1 Y 5 X 1 Y 1 X -1 Y s 1151 1080 m 1 X 1 Y 6 X 1 Y -1 Y 2 X 1 Y s 1160 1082 m 5 X 1 Y 4 X s 1169 1083 m 6 X 1 Y 1 X -1 Y 1 Y 2 X s 1178 1084 m 9 X s 1187 1084 m 8 X s 1195 1084 m 9 X s
 1204 1084 m 9 X s 1213 1084 m 9 X s 1222 1084 m 9 X s 1231 1084 m 8 X s 1239 1084 m 9 X s 1248 1084 m 9 X s 1257 1084 m 9 X s 1266 1084 m 9 X s 1275 1084 m 8 X s 1283 1084 m 9 X s 1292 1084 m 9 X s 1301 1084 m 9 X s 1310 1084 m 9 X s 1319 1084 m 1 Y
 3 X -1 Y 1 1 d 4 X s 1327 1085 m 9 X 1 Y s 1336 1086 m 9 X s 1345 1086 m 2 X 1 Y 5 X 1 Y 2 X s 1354 1088 m 4 X 1 Y 4 X 1 Y 1 X s 1363 1090 m 1 X 1 Y 3 X 1 Y 4 X s 1371 1092 m 1 X 1 Y 3 X 1 Y 2 X 1 Y 3 X 1 Y s 1380 1096 m 1 X 1 Y 3 X 1 1 d 2 X 1 Y 2
 X 1 Y s 1389 1100 m 1 X 1 Y 1 X -1 Y 1 Y 2 X 1 Y 1 X 1 1 d 1 X 1 Y 2 X 1 Y s 1398 1105 m -1 Y 1 1 d 1 X 1 1 d 1 X 1 1 d 1 X 1 Y 2 X 1 Y -1 Y 1 X s 1407 1108 m 1 X 1 Y 4 X 1 Y 2 X 1 Y 1 X s 1415 1111 m 1 X 1 1 d 2 X 1 Y -1 Y 1 1 d 1 X 1 1 d 2 X 1 Y s
 1424 1115 m 1 X -1 Y 1 Y 3 X 1 1 d 3 X 1 Y 1 X s 1433 1117 m 1 Y 4 X 1 Y 3 X 1 Y 2 X s 1442 1120 m 1 X 1 Y 4 X 1 1 d 1 -2 d 1 X 1 Y -2 Y 1 X s 1451 1119 m 8 X s 1459 1119 m 9 X s 1468 1119 m 7 X 1 Y -1 Y 2 X s 1477 1119 m 9 X s 1486 1119 m 9 X s
 1495 1119 m 8 X s 1503 1119 m 9 X s 1512 1119 m 9 X s 1521 1119 m 2 X 1 Y 7 X s 1530 1120 m 9 X s 1539 1120 m 8 X s 1547 1120 m 9 X s 1556 1120 m 9 X s 1565 1120 m 9 X s 1574 1120 m 8 X 1 Y 1 X s 1583 1121 m 8 X s 1591 1121 m 4 X 1 Y 5 X s 1600 1122
 m 4 X 1 1 d 4 X s 1609 1123 m 3 X 1 Y 4 X 1 Y -1 Y 1 X 1 Y 1 X s 1618 1125 m 3 X 1 Y 3 X 1 Y 2 X 1 1 d s 1627 1128 m 1 1 d -1 Y 1 X 1 1 d 1 X 1 Y 1 X 1 Y 1 X 1 1 d 1 X 1 Y s 1635 1133 m 1 X 1 Y 1 X 1 Y 1 X 1 Y 1 X -1 Y 1 X 2 Y 1 X 1 Y 1 X 1 Y 1 X 1
 Y 1 X -1 Y s 1644 1139 m 1 Y 2 X 1 Y 1 X 1 Y 1 1 d 1 1 d 1 Y 1 X 1 Y 1 X 1 Y 1 1 d 1 Y 1 X 1 Y s 1653 1150 m 2 Y 1 X 1 Y 1 1 d 1 Y 1 -1 d 1 Y 1 X 1 Y 1 X 2 Y 1 1 d 1 Y 1 X 2 Y 1 X 1 Y 1 1 d s 1662 1164 m 2 Y 1 1 d 1 Y 1 X 1 Y 1 X 2 Y 1 X 1 Y 1 1 d 2
 Y 1 X 1 Y 1 1 d 3 Y 1 X 1 Y 1 1 d 1 Y s 1671 1183 m -1 Y 1 Y 1 X 2 Y 1 1 d 2 Y 1 X 2 Y 1 X 2 Y 1 1 d 2 Y 1 X 2 Y 1 X 1 Y -1 Y 1 Y 1 X 2 Y s 1679 1200 m 1 X 1 Y 1 X 2 Y 1 X 2 Y 1 X 3 Y 1 X 1 Y 1 X 3 Y 1 X 1 Y -1 Y 2 Y 1 1 d 2 Y 1 X 1 Y -1 Y s 1688
 1217 m 1 Y 1 X 1 Y 1 X 3 Y 1 1 d -1 Y 1 Y 1 X 2 Y 1 1 d 1 Y 1 1 d 3 Y 1 -1 d 2 Y 1 1 d 1 Y -1 Y 1 Y 1 X 1 Y s 1697 1235 m 1 Y 1 X -1 Y 1 1 d -2 Y 1 Y 1 1 d 1 1 d 2 Y 1 1 d -2 Y 1 Y 1 X -1 Y 1 Y 1 X -2 Y 2 Y 2 X 2 Y s 1706 1241 m 1 Y 1 -1 d 1 Y 1 -1
 d 1 Y -1 Y 1 Y 1 X 1 Y -3 Y 1 X -1 Y 1 Y 1 2 d -1 Y 1 Y 1 -1 d -1 Y 1 Y 1 1 d -2 Y 1 X -1 Y 1 Y -2 Y 1 -1 d -1 Y s 1715 1236 m -2 Y 1 Y 1 2 d -2 Y 1 Y 1 -2 d 1 Y -1 Y 1 X -1 Y 1 Y -3 Y 1 X -5 Y 1 -1 d 1 Y -3 Y 1 -1 d -2 Y 1 Y -2 Y 1 1 d -7 Y 1 -2 d
 -1 Y s 1723 1210 m 1 -2 d -4 Y 1 -1 d -6 Y 1 1 d -9 Y 1 -2 d -8 Y 1 -2 d -4 Y 1 X -8 Y 1 -2 d -2 Y 1 -5 d -14 Y 1 6 d -8 Y s 1732 1140 m -4 Y 1 -4 d -10 Y 1 -3 d -14 Y 1 X -13 Y 1 -3 d -11 Y 1 -3 d -14 Y 1 -2 d -18 Y 1 -1 d -11 Y 1 -2 d -8 Y 1 -4 d
 -8 Y s 1741 1007 m -7 Y 1 -4 d -14 Y 1 -8 d -5 Y 3 Y -5 Y 1 -6 d -18 Y 1 -1 d -16 Y 1 -3 d -11 Y 1 -3 d -14 Y 1 -3 d -22 Y 1 -4 d -11 Y 1 -1 d -5 Y s 1750 849 m -7 Y 1 -3 d -13 Y 1 -4 d -19 Y 1 -5 d -12 Y 1 -2 d -16 Y 1 -4 d -14 Y 1 -4 d 2 Y -7 Y 1
 -1 d -12 Y 1 -1 d -21 Y 1 -4 d -2 Y s 1759 700 m -4 Y 1 -3 d -17 Y 1 -2 d -8 Y 1 -1 d -12 Y 1 X -8 Y 1 -4 d -8 Y 1 -1 d -5 Y 1 -1 d -16 Y 1 -2 d -5 Y s 1767 603 m 1 -9 d -6 Y 1 Y -2 Y 1 -1 d -5 Y 1 Y 1 -3 d -4 Y 1 -4 d -3 Y 2 Y -2 Y 1 Y 1 -1 d -2 Y
 1 -1 d -8 Y 1 -2 d -8 Y 1 -3 d -4 Y 1 -3 d -7 Y s 1776 530 m -1 Y 1 X -5 Y 1 -1 d -5 Y 1 -1 d -1 Y 1 -1 d -8 Y 1 -1 d -2 Y 1 -1 d -5 Y 1 Y -1 Y 1 -1 d -8 Y 1 -1 d -4 Y 1 -1 d -2 Y s 1785 481 m -3 Y 1 X -2 Y 1 Y -1 Y 1 X -8 Y 1 X -1 Y 1 -1 d -2 Y 1
 -1 d -4 Y 1 -1 d -4 Y 1 -1 d -4 Y 1 -1 d 5 Y -1 Y 1 Y 1 X -3 Y s 1794 450 m -1 Y 1 -3 d -2 Y 1 -1 d -6 Y 1 X -3 Y 1 -1 d 1 Y -2 Y 1 X -2 Y 1 -1 d -4 Y 1 -1 d -1 Y 1 Y -4 Y 1 X -3 Y 1 1 d s 1803 418 m -2 Y 1 X -1 Y 2 Y 1 X -1 Y 1 -1 d -1 Y 1 Y -3 Y 1
 X -5 Y 1 X -2 Y 1 X -4 Y 1 X -8 Y 2 X s 1812 393 m -4 Y 1 X -10 Y 1 X -2 Y 1 X -3 Y 1 X -2 Y 1 X -2 Y 2 X -1 Y 1 X -1 Y s 1820 368 m -1 Y 1 X -2 Y 1 X 1 Y -2 Y 2 X -1 Y 1 X -1 Y 1 Y 1 -1 d -1 Y 1 -1 d -1 Y 1 X -1 Y 1 X s 1829 358 m -2 Y 1 X -1 Y 1 X
 -2 Y 1 -1 d 1 X -1 Y 1 X 1 Y -1 Y 1 X -1 Y 2 Y 2 X -1 Y 1 -1 d -2 Y s 1838 348 m 1 X -1 Y 1 X -1 Y 1 X -1 Y 1 X -2 Y 1 X -1 Y 1 X -1 Y 1 X -3 Y 1 -1 d -1 Y 1 X -1 Y s 1847 335 m 1 X -2 Y 1 -1 d 1 X -1 Y 1 Y 1 X -1 Y 3 X -2 Y 1 X -1 Y 1 X s 1856 328
 m 1 X -1 Y 2 X -3 Y 1 X -1 Y 3 X -1 Y 1 -1 d 1 Y s 1864 322 m 2 X -1 Y 2 X 1 Y 3 X -1 Y 2 X s 1873 321 m 1 -2 d 1 1 d -1 Y 5 X -1 Y 1 X 1 Y 1 X s 1882 319 m 2 X -1 Y 3 X -1 Y 2 X -1 Y 2 X s 1891 316 m 2 X -1 Y 5 X -1 Y 2 X s 1900 314 m -1 Y 8 X s
 1908 313 m 3 X 1 -3 d 3 X 1 Y 2 X s 1917 311 m 4 X 1 -1 d 4 X s 1926 310 m 9 X s 1935 310 m 9 X s 1944 310 m 7 X -1 Y 1 X s 1952 309 m 9 X s 1961 309 m 1 1 d 8 X s 1970 310 m 2 X -1 Y 1 X 1 Y -1 Y 3 X 1 Y 3 X s 1979 310 m 2 X 1 Y -1 Y 3 X -1 Y 2 X
 -2 Y 2 X s 1988 307 m 3 X -1 Y 2 X -1 Y 1 X 1 1 d 1 X s 1996 306 m 2 X -1 Y 3 X -1 Y 1 X -1 Y 3 X s 2005 303 m -1 Y 4 X -1 Y 1 X -5 Y 1 X -2 Y 2 X -2 Y 1 X 1 Y s 2014 293 m 3 X -1 Y 1 X -3 Y 1 X -2 Y 2 X 1 Y 1 X -5 Y 1 X s 2023 283 m -1 Y 2 X -1 Y 1
 X -27 Y 2 X 6 Y 3 X -2 Y 1 X s 2032 258 m 3 X -12 Y 5 X s 2040 246 m 1 X s black 3 lw 245 202 m 1796 X s 337 242 m -40 Y s 406 222 m -20 Y s 474 222 m -20 Y s 543 222 m -20 Y s 612 242 m -40 Y s 680 222 m -20 Y s 749 222 m -20 Y s 818 222 m -20 Y s
 886 242 m -40 Y s 955 222 m -20 Y s 1024 222 m -20 Y s 1093 222 m -20 Y s 1161 242 m -40 Y s 1230 222 m -20 Y s 1299 222 m -20 Y s 1367 222 m -20 Y s 1436 242 m -40 Y s 1505 222 m -20 Y s 1573 222 m -20 Y s 1642 222 m -20 Y s 1711 242 m -40 Y s 1780
 222 m -20 Y s 1848 222 m -20 Y s 1917 222 m -20 Y s 1986 242 m -40 Y s 337 242 m -40 Y s 268 222 m -20 Y s 1986 242 m -40 Y s 245 202 m 1145 Y s 291 202 m -46 X s 268 254 m -23 X s 268 306 m -23 X s 268 358 m -23 X s 291 410 m -46 X s 268 462 m -23
 X s 268 514 m -23 X s 268 566 m -23 X s 291 618 m -46 X s 268 670 m -23 X s 268 722 m -23 X s 268 775 m -23 X s 291 827 m -46 X s 268 879 m -23 X s 268 931 m -23 X s 268 983 m -23 X s 291 1035 m -46 X s 268 1087 m -23 X s 268 1139 m -23 X s 268 1191
 m -23 X s 291 1243 m -46 X s 291 1243 m -46 X s 268 1295 m -23 X s 268 1347 m -23 X s 0.490196 0.545098 0.615686 c 1 1 1 c 0.490196 0.545098 0.615686 c 907 202 245 1347 bl 245 1347 m 907 X s 1152 1347 m 202 Y s 1152 1549 m -907 X s 245 1549 m -202 Y
 s black
 gsave  2268 1684 0 0 C 515.735 1478.95 t 0 r /Helvetica-Bold findfont 53.0904 sf 0 0 m (Signal efficiency) show NC gr  0 0 0.933333 c 9 lw 286 1499 m 190 X s black
 gsave  2268 1684 0 0 C 515.735 1376.56 t 0 r /Helvetica-Bold findfont 53.0904 sf 0 0 m (Background efficiency) show NC gr  1 0 0 c 286 1397 m 190 X s 0.490196 0.545098 0.615686 c 3 lw 1 1 1 c 0.490196 0.545098 0.615686 c 889 202 1152 1347 bl 1152
 1347 m 889 X s 2041 1347 m 202 Y s 2041 1549 m -889 X s 1152 1549 m -202 Y s black
 gsave  2268 1684 0 0 C 1418.27 1501.7 t 0 r /Helvetica-Bold findfont 56.8825 sf 0 0 m (Signal purity) show NC gr  0 0 0.933333 c[  52 12 ] 0 sd 6 lw 1192 1515 m 187 X s black
 gsave  2268 1684 0 0 C 1418.27 1433.44 t 0 r /Helvetica-Bold findfont 56.8825 sf 0 0 m (Signal efficiency*purity) show NC gr  0 0 0.933333 c[  22 12 ] 0 sd 1192 1448 m 187 X s black
 gsave  2268 1684 0 0 C 1501.7 1368.97 t 0 r /Helvetica-Bold findfont 56.8825 sf 0 0 m (S+B) show NC gr [  ] 0 sd 1483 1414 m 7 -49 d s 3 lw 1490 1365 m 8 65 d s 1498 1430 m 114 X s
 gsave  2268 1684 0 0 C 1418.27 1368.97 t 0 r /Helvetica-Bold findfont 56.8825 sf 0 0 m (S/) show NC gr  0 0.666667 0 c 9 lw 1192 1381 m 187 X s black 3 lw 245 1243 m 1796 X s
 gsave  2268 1684 0 0 C 337.503 390.593 t 0 r /Helvetica-Bold findfont 53.0904 sf 0 0 m (For 1000 signal and 1000 background) show NC gr 
 gsave  2268 1684 0 0 C 1065.6 322.334 t 0 r /Helvetica-Bold findfont 53.0904 sf 0 0 m ( is) show NC gr 
 gsave  2268 1684 0 0 C 963.211 322.334 t 0 r /Helvetica-Bold findfont 53.0904 sf 0 0 m (S+B) show NC gr  6 lw 940 364 m 8 -45 d s 3 lw 948 319 m 8 60 d s 956 379 m 110 X s
 gsave  2268 1684 0 0 C 337.503 322.334 t 0 r /Helvetica-Bold findfont 53.0904 sf 0 0 m (events the maximum S/) show NC gr 
 gsave  2268 1684 0 0 C 337.503 254.075 t 0 r /Helvetica-Bold findfont 53.0904 sf 0 0 m (26.94 when cutting at \2550.01) show NC gr  0.490196 0.545098 0.615686 c 0.364706 0.419608 0.490196 c 1554 100 23 1575 bf 0.490196 0.545098 0.615686 c 23 1575 m
 1554 X s 1577 1575 m 100 Y s 1577 1675 m -1554 X s 23 1675 m -100 Y s 1 1 1 c black 1 1 1 c
 gsave  2268 1684 0 0 C 75.8434 1604.09 t 0 r /Helvetica-Bold findfont 79.6355 sf 0 0 m (Cut efficiencies and optimal cut value) show NC gr  0 0.666667 0 c 2041 202 m 1145 Y s 1995 202 m 46 X s 2018 241 m 23 X s 2018 279 m 23 X s 2018 318 m 23 X s
 2018 357 m 23 X s 1995 395 m 46 X s 2018 434 m 23 X s 2018 472 m 23 X s 2018 511 m 23 X s 2018 550 m 23 X s 1995 588 m 46 X s 2018 627 m 23 X s 2018 666 m 23 X s 2018 704 m 23 X s 2018 743 m 23 X s 1995 782 m 46 X s 2018 820 m 23 X s 2018 859 m 23 X
 s 2018 897 m 23 X s 2018 936 m 23 X s 1995 975 m 46 X s 2018 1013 m 23 X s 2018 1052 m 23 X s 2018 1091 m 23 X s 2018 1129 m 23 X s 1995 1168 m 46 X s 1995 1168 m 46 X s 2018 1207 m 23 X s 2018 1245 m 23 X s 2018 1284 m 23 X s 2018 1322 m 23 X s
 black 0 0.666667 0 c
 gsave  2268 1684 0 0 C 2051.56 178.232 t 0 r /Helvetica-Bold findfont 64.4669 sf 0 0 m (0) show NC gr  black 0 0.666667 0 c
 gsave  2268 1684 0 0 C 2051.56 371.632 t 0 r /Helvetica-Bold findfont 64.4669 sf 0 0 m (5) show NC gr  black 0 0.666667 0 c
 gsave  2268 1684 0 0 C 2051.56 565.033 t 0 r /Helvetica-Bold findfont 64.4669 sf 0 0 m (10) show NC gr  black 0 0.666667 0 c
 gsave  2268 1684 0 0 C 2051.56 758.434 t 0 r /Helvetica-Bold findfont 64.4669 sf 0 0 m (15) show NC gr  black 0 0.666667 0 c
 gsave  2268 1684 0 0 C 2051.56 951.834 t 0 r /Helvetica-Bold findfont 64.4669 sf 0 0 m (20) show NC gr  black 0 0.666667 0 c
 gsave  2268 1684 0 0 C 2051.56 1141.44 t 0 r /Helvetica-Bold findfont 64.4669 sf 0 0 m (25) show NC gr  black 0 0.666667 0 c
 gsave  2268 1684 0 0 C 2203.25 967.003 t 90 r /Helvetica-Bold findfont 64.4669 sf 0 0 m (Significance) show NC gr 
 gr  gr showpage
end
%%EOF
