%!PS-Adobe-2.0 EPSF-2.0
%%BoundingBox:  0 0 567 416
%%Title: dataset_class_comb2_all/plots/rejBvsS.eps: the canvas
%%Creator: ROOT Version 6.18/00
%%CreationDate: Sat Sep 14 14:57:57 2019
%%DocumentNeededResources: ProcSet (FontSetInit)
%%EndComments
%%BeginProlog
80 dict begin
/s {stroke} def /l {lineto} def /m {moveto} def /t {translate} def
/r {rotate} def /rl {roll}  def /R {repeat} def
/d {rlineto} def /rm {rmoveto} def /gr {grestore} def /f {eofill} def
/c {setrgbcolor} def /black {0 setgray} def /sd {setdash} def
/cl {closepath} def /sf {scalefont setfont} def /lw {setlinewidth} def
/box {m dup 0 exch d exch 0 d 0 exch neg d cl} def
/NC{systemdict begin initclip end}def/C{NC box clip newpath}def
/bl {box s} def /bf {gsave box gsave f grestore 1 lw [] 0 sd s grestore} def /Y { 0 exch d} def /X { 0 d} def 
/K {{pop pop 0 moveto} exch kshow} bind def
/ita {/ang 15 def gsave [1 0 ang dup sin exch cos div 1 0 0] concat} def 
/mp {newpath /y exch def /x exch def} def
/side {[w .77 mul w .23 mul] .385 w mul sd w 0 l currentpoint t -144 r} def
/mr {mp x y w2 0 360 arc} def /m24 {mr s} def /m20 {mr f} def
/mb {mp x y w2 add m w2 neg 0 d 0 w neg d w 0 d 0 w d cl} def
/mt {mp x y w2 add m w2 neg w neg d w 0 d cl} def
/w4 {w 4 div} def
/w6 {w 6 div} def
/w8 {w 8 div} def
/m21 {mb f} def /m25 {mb s} def /m22 {mt f} def /m26{mt s} def
/m23 {mp x y w2 sub m w2 w d w neg 0 d cl f} def
/m27 {mp x y w2 add m w3 neg w2 neg d w3 w2 neg d w3 w2 d cl s} def
/m28 {mp x w2 sub y w2 sub w3 add m w3 0 d  0 w3 neg d w3 0 d 0 w3 d w3 0 d  0 w3 d w3 neg 0 d 0 w3 d w3 neg 0 d 0 w3 neg d w3 neg 0 d cl s } def
/m29 {mp gsave x w2 sub y w2 add w3 sub m currentpoint t 4 {side} repeat cl fill gr} def
/m30 {mp gsave x w2 sub y w2 add w3 sub m currentpoint t 4 {side} repeat cl s gr} def
/m31 {mp x y w2 sub m 0 w d x w2 sub y m w 0 d x w2 sub y w2 add m w w neg d x w2 sub y w2 sub m w w d s} def
/m32 {mp x y w2 sub m w2 w d w neg 0 d cl s} def
/m33 {mp x y w2 add m w3 neg w2 neg d w3 w2 neg d w3 w2 d cl f} def
/m34 {mp x w2 sub y w2 sub w3 add m w3 0 d  0 w3 neg d w3 0 d 0 w3 d w3 0 d  0 w3 d w3 neg 0 d 0 w3 d w3 neg 0 d 0 w3 neg d w3 neg 0 d cl f } def
/m35 {mp x y w2 add m w2 neg w2 neg d w2 w2 neg d w2 w2 d w2 neg w2 d x y w2 sub m 0 w d x w2 sub y m w 0 d s} def
/m36 {mb x w2 sub y w2 add m w w neg d x w2 sub y w2 sub m w w d s} def
/m37 {mp x y m w4 neg w2 d w4 neg w2 neg d w2 0 d  w4 neg w2 neg d w2 0 d w4 neg w2 d w2 0 d w4 neg w2 d w4 neg w2 neg d cl s} def
/m38 {mp x w4 sub y w2 add m w4 neg w4 neg d 0 w2 neg d w4 w4 neg d w2 0 d w4 w4 d 0 w2 d w4 neg w4 d w2 neg 0 d x y w2 sub m 0 w d x w2 sub y m w 0 d cl s} def
/m39 {mp x y m w4 neg w2 d w4 neg w2 neg d w2 0 d  w4 neg w2 neg d w2 0 d w4 neg w2 d w2 0 d w4 neg w2 d w4 neg w2 neg d cl f} def
/m40 {mp x y m w4 w2 d w4 w4 neg d w2 neg w4 neg d w2 w4 neg d w4 neg w4 neg d w4 neg w2 d w4 neg w2 neg d w4 neg w4 d w2 w4 d w2 neg w4 d w4 w4 d w4 w2 neg d cl s} def
/m41 {mp x y m w4 w2 d w4 w4 neg d w2 neg w4 neg d w2 w4 neg d w4 neg w4 neg d w4 neg w2 d w4 neg w2 neg d w4 neg w4 d w2 w4 d w2 neg w4 d w4 w4 d w4 w2 neg d cl f} def
/m42 {mp x y w2 add m w8 neg w2 -3 4 div mul d w2 -3 4 div mul w8 neg d w2 3 4 div mul w8 neg d w8 w2 -3 4 div mul d w8 w2 3 4 div mul d w2 3 4 div mul w8 d w2 -3 4 div mul w8 d w8 neg w2 3 4 div mul d cl s} def
/m43 {mp x y w2 add m w8 neg w2 -3 4 div mul d w2 -3 4 div mul w8 neg d w2 3 4 div mul w8 neg d w8 w2 -3 4 div mul d w8 w2 3 4 div mul d w2 3 4 div mul w8 d w2 -3 4 div mul w8 d w8 neg w2 3 4 div mul d cl f} def
/m44 {mp x y m w6 neg w2 d w2 2 3 div mul 0 d w6 neg w2 neg d w2 w6 d 0 w2 -2 3 div mul d w2 neg w6 d w6 w2 neg d w2 -2 3 div mul 0 d w6 w2 d w2 neg w6 neg d 0 w2 2 3 div mul d w2 w6 neg d cl s} def
/m45 {mp x y m w6 neg w2 d w2 2 3 div mul 0 d w6 neg w2 neg d w2 w6 d 0 w2 -2 3 div mul d w2 neg w6 d w6 w2 neg d w2 -2 3 div mul 0 d w6 w2 d w2 neg w6 neg d 0 w2 2 3 div mul d w2 w6 neg d cl f} def
/m46 {mp x y w4 add m w4 neg w4 d w4 neg w4 neg d  w4 w4 neg d w4 neg w4 neg d w4 w4 neg d w4 w4 d w4 w4 neg d w4 w4 d w4 neg w4 d w4 w4 d w4 neg w4 d w4 neg w4 neg d cl s} def
/m47 {mp x y w4 add m w4 neg w4 d w4 neg w4 neg d w4 w4 neg d w4 neg w4 neg d  w4 w4 neg d w4 w4 d w4 w4 neg d w4 w4 d w4 neg w4 d w4 w4 d w4 neg w4 d w4 neg w4 neg d cl f} def
/m48 {mp x y w4 add m w4 neg w4 d w4 neg w4 neg d w4 w4 neg d  w4 neg w4 neg d w4 w4 neg d w4 w4 d w4 w4 neg d w4 w4 d w4 neg w4 d w4 w4 d w4 neg w4 d w4 neg w4 neg d  w4 w4 neg d w4 neg w4 neg d w4 neg w4 d w4 w4 d cl f} def
/m49 {mp x w2 sub w3 add y w2 sub w3 add m  0 w3 neg d w3 0 d 0 w3 d w3 0 d 0 w3 d w3 neg 0 d 0 w3 d w3 neg 0 d 0 w3 neg d w3 neg 0 d 0 w3 neg d w3 0 d 0 w3 d w3 0 d 0 w3 neg d w3 neg 0 d cl f } def
/m2 {mp x y w2 sub m 0 w d x w2 sub y m w 0 d s} def
/m5 {mp x w2 sub y w2 sub m w w d x w2 sub y w2 add m w w neg d s} def
%%IncludeResource: ProcSet (FontSetInit)
%%IncludeResource: font Times-Roman
%%IncludeResource: font Times-Italic
%%IncludeResource: font Times-Bold
%%IncludeResource: font Times-BoldItalic
%%IncludeResource: font Helvetica
%%IncludeResource: font Helvetica-Oblique
%%IncludeResource: font Helvetica-Bold
%%IncludeResource: font Helvetica-BoldOblique
%%IncludeResource: font Courier
%%IncludeResource: font Courier-Oblique
%%IncludeResource: font Courier-Bold
%%IncludeResource: font Courier-BoldOblique
%%IncludeResource: font Symbol
%%IncludeResource: font ZapfDingbats
/reEncode {exch findfont dup length dict begin {1 index /FID eq  {pop pop} {def} ifelse } forall /Encoding exch def currentdict end dup /FontName get exch definefont pop } def [/Times-Bold /Times-Italic /Times-BoldItalic /Helvetica /Helvetica-Oblique
 /Helvetica-Bold /Helvetica-BoldOblique /Courier /Courier-Oblique /Courier-Bold /Courier-BoldOblique /Times-Roman /AvantGarde-Book /AvantGarde-BookOblique /AvantGarde-Demi /AvantGarde-DemiOblique /Bookman-Demi /Bookman-DemiItalic /Bookman-Light
 /Bookman-LightItalic /Helvetica-Narrow /Helvetica-Narrow-Bold /Helvetica-Narrow-BoldOblique /Helvetica-Narrow-Oblique /NewCenturySchlbk-Roman /NewCenturySchlbk-Bold /NewCenturySchlbk-BoldItalic /NewCenturySchlbk-Italic /Palatino-Bold
 /Palatino-BoldItalic /Palatino-Italic /Palatino-Roman ] {ISOLatin1Encoding reEncode } forall
%%EndProlog
%%BeginSetup
%%EndSetup
newpath  gsave  .25 .25 scale  gsave  0 0 t 0.490196 0.545098 0.615686 c[  ] 0 sd 3 lw 0.941176 0.941176 0.941176 c 2268 1666 0 0 bf black 1 1 0.992157 c 1909 1299 245 200 bf black 1909 1299 245 200 bl 1 1 0.992157 c 1909 1299 245 200 bf black 1909
 1299 245 200 bl 245 200 m 1909 X s 245 242 m -42 Y s[ 4 8] 0 sd 245 1499 m -1299 Y s[  ] 0 sd 283 221 m -21 Y s 321 221 m -21 Y s 359 221 m -21 Y s 398 221 m -21 Y s 436 242 m -42 Y s[ 4 8] 0 sd 436 1499 m -1299 Y s[  ] 0 sd 474 221 m -21 Y s 512
 221 m -21 Y s 550 221 m -21 Y s 589 221 m -21 Y s 627 242 m -42 Y s[ 4 8] 0 sd 627 1499 m -1299 Y s[  ] 0 sd 665 221 m -21 Y s 703 221 m -21 Y s 741 221 m -21 Y s 780 221 m -21 Y s 818 242 m -42 Y s[ 4 8] 0 sd 818 1499 m -1299 Y s[  ] 0 sd 856 221 m
 -21 Y s 894 221 m -21 Y s 932 221 m -21 Y s 970 221 m -21 Y s 1009 242 m -42 Y s[ 4 8] 0 sd 1009 1499 m -1299 Y s[  ] 0 sd 1047 221 m -21 Y s 1085 221 m -21 Y s 1123 221 m -21 Y s 1161 221 m -21 Y s 1200 242 m -42 Y s[ 4 8] 0 sd 1200 1499 m -1299 Y
 s[  ] 0 sd 1238 221 m -21 Y s 1276 221 m -21 Y s 1314 221 m -21 Y s 1352 221 m -21 Y s 1391 242 m -42 Y s[ 4 8] 0 sd 1391 1499 m -1299 Y s[  ] 0 sd 1429 221 m -21 Y s 1467 221 m -21 Y s 1505 221 m -21 Y s 1543 221 m -21 Y s 1582 242 m -42 Y s[ 4 8]
 0 sd 1582 1499 m -1299 Y s[  ] 0 sd 1620 221 m -21 Y s 1658 221 m -21 Y s 1696 221 m -21 Y s 1734 221 m -21 Y s 1772 242 m -42 Y s[ 4 8] 0 sd 1772 1499 m -1299 Y s[  ] 0 sd 1811 221 m -21 Y s 1849 221 m -21 Y s 1887 221 m -21 Y s 1925 221 m -21 Y s
 1963 242 m -42 Y s[ 4 8] 0 sd 1963 1499 m -1299 Y s[  ] 0 sd 2002 221 m -21 Y s 2040 221 m -21 Y s 2078 221 m -21 Y s 2116 221 m -21 Y s 2154 242 m -42 Y s[ 4 8] 0 sd 2154 1499 m -1299 Y s
 gsave  2268 1666 0 0 C 223.972 129.484 t 0 r /Helvetica-Bold findfont 62.9921 sf 0 0 m (0) show NC gr 
 gsave  2268 1666 0 0 C 395.451 129.484 t 0 r /Helvetica-Bold findfont 62.9921 sf 0 0 m (0.1) show NC gr 
 gsave  2268 1666 0 0 C 584.427 129.484 t 0 r /Helvetica-Bold findfont 62.9921 sf 0 0 m (0.2) show NC gr 
 gsave  2268 1666 0 0 C 773.403 129.484 t 0 r /Helvetica-Bold findfont 62.9921 sf 0 0 m (0.3) show NC gr 
 gsave  2268 1666 0 0 C 965.879 129.484 t 0 r /Helvetica-Bold findfont 62.9921 sf 0 0 m (0.4) show NC gr 
 gsave  2268 1666 0 0 C 1154.86 129.484 t 0 r /Helvetica-Bold findfont 62.9921 sf 0 0 m (0.5) show NC gr 
 gsave  2268 1666 0 0 C 1347.33 129.484 t 0 r /Helvetica-Bold findfont 62.9921 sf 0 0 m (0.6) show NC gr 
 gsave  2268 1666 0 0 C 1532.81 129.484 t 0 r /Helvetica-Bold findfont 62.9921 sf 0 0 m (0.7) show NC gr 
 gsave  2268 1666 0 0 C 1728.78 129.484 t 0 r /Helvetica-Bold findfont 62.9921 sf 0 0 m (0.8) show NC gr 
 gsave  2268 1666 0 0 C 1921.26 129.484 t 0 r /Helvetica-Bold findfont 62.9921 sf 0 0 m (0.9) show NC gr 
 gsave  2268 1666 0 0 C 2138.23 129.484 t 0 r /Helvetica-Bold findfont 62.9921 sf 0 0 m (1) show NC gr 
 gsave  2268 1666 0 0 C 1592.3 31.4961 t 0 r /Helvetica-Bold findfont 69.9912 sf 0 0 m (Signal efficiency) show NC gr [  ] 0 sd 245 1499 m 1909 X s 245 1457 m 42 Y s 283 1478 m 21 Y s 321 1478 m 21 Y s 359 1478 m 21 Y s 398 1478 m 21 Y s 436 1457 m
 42 Y s 474 1478 m 21 Y s 512 1478 m 21 Y s 550 1478 m 21 Y s 589 1478 m 21 Y s 627 1457 m 42 Y s 665 1478 m 21 Y s 703 1478 m 21 Y s 741 1478 m 21 Y s 780 1478 m 21 Y s 818 1457 m 42 Y s 856 1478 m 21 Y s 894 1478 m 21 Y s 932 1478 m 21 Y s 970 1478
 m 21 Y s 1009 1457 m 42 Y s 1047 1478 m 21 Y s 1085 1478 m 21 Y s 1123 1478 m 21 Y s 1161 1478 m 21 Y s 1200 1457 m 42 Y s 1238 1478 m 21 Y s 1276 1478 m 21 Y s 1314 1478 m 21 Y s 1352 1478 m 21 Y s 1391 1457 m 42 Y s 1429 1478 m 21 Y s 1467 1478 m
 21 Y s 1505 1478 m 21 Y s 1543 1478 m 21 Y s 1582 1457 m 42 Y s 1620 1478 m 21 Y s 1658 1478 m 21 Y s 1696 1478 m 21 Y s 1734 1478 m 21 Y s 1772 1457 m 42 Y s 1811 1478 m 21 Y s 1849 1478 m 21 Y s 1887 1478 m 21 Y s 1925 1478 m 21 Y s 1963 1457 m 42
 Y s 2002 1478 m 21 Y s 2040 1478 m 21 Y s 2078 1478 m 21 Y s 2116 1478 m 21 Y s 2154 1457 m 42 Y s 245 200 m 1299 Y s 298 200 m -53 X s[ 4 8] 0 sd 2154 200 m -1909 X s[  ] 0 sd 271 232 m -26 X s 271 265 m -26 X s 271 297 m -26 X s 271 330 m -26 X s
 298 362 m -53 X s[ 4 8] 0 sd 2154 362 m -1909 X s[  ] 0 sd 271 395 m -26 X s 271 427 m -26 X s 271 460 m -26 X s 271 492 m -26 X s 298 525 m -53 X s[ 4 8] 0 sd 2154 525 m -1909 X s[  ] 0 sd 271 557 m -26 X s 271 590 m -26 X s 271 622 m -26 X s 271
 655 m -26 X s 298 687 m -53 X s[ 4 8] 0 sd 2154 687 m -1909 X s[  ] 0 sd 271 720 m -26 X s 271 752 m -26 X s 271 785 m -26 X s 271 817 m -26 X s 298 850 m -53 X s[ 4 8] 0 sd 2154 850 m -1909 X s[  ] 0 sd 271 882 m -26 X s 271 915 m -26 X s 271 947 m
 -26 X s 271 979 m -26 X s 298 1012 m -53 X s[ 4 8] 0 sd 2154 1012 m -1909 X s[  ] 0 sd 271 1044 m -26 X s 271 1077 m -26 X s 271 1109 m -26 X s 271 1142 m -26 X s 298 1174 m -53 X s[ 4 8] 0 sd 2154 1174 m -1909 X s[  ] 0 sd 271 1207 m -26 X s 271
 1239 m -26 X s 271 1272 m -26 X s 271 1304 m -26 X s 298 1337 m -53 X s[ 4 8] 0 sd 2154 1337 m -1909 X s[  ] 0 sd 271 1369 m -26 X s 271 1402 m -26 X s 271 1434 m -26 X s 271 1467 m -26 X s 298 1499 m -53 X s[ 4 8] 0 sd 2154 1499 m -1909 X s[  ] 0
 sd 298 200 m -53 X s[ 4 8] 0 sd 2154 200 m -1909 X s
 gsave  2268 1666 0 0 C 132.983 178.478 t 0 r /Helvetica-Bold findfont 62.9921 sf 0 0 m (0.2) show NC gr 
 gsave  2268 1666 0 0 C 132.983 339.458 t 0 r /Helvetica-Bold findfont 62.9921 sf 0 0 m (0.3) show NC gr 
 gsave  2268 1666 0 0 C 132.983 500.437 t 0 r /Helvetica-Bold findfont 62.9921 sf 0 0 m (0.4) show NC gr 
 gsave  2268 1666 0 0 C 132.983 664.917 t 0 r /Helvetica-Bold findfont 62.9921 sf 0 0 m (0.5) show NC gr 
 gsave  2268 1666 0 0 C 132.983 825.897 t 0 r /Helvetica-Bold findfont 62.9921 sf 0 0 m (0.6) show NC gr 
 gsave  2268 1666 0 0 C 129.484 990.376 t 0 r /Helvetica-Bold findfont 62.9921 sf 0 0 m (0.7) show NC gr 
 gsave  2268 1666 0 0 C 132.983 1151.36 t 0 r /Helvetica-Bold findfont 62.9921 sf 0 0 m (0.8) show NC gr 
 gsave  2268 1666 0 0 C 132.983 1312.34 t 0 r /Helvetica-Bold findfont 62.9921 sf 0 0 m (0.9) show NC gr 
 gsave  2268 1666 0 0 C 192.476 1476.82 t 0 r /Helvetica-Bold findfont 62.9921 sf 0 0 m (1) show NC gr 
 gsave  2268 1666 0 0 C 62.9921 776.903 t 90 r /Helvetica-Bold findfont 69.9912 sf 0 0 m (Background rejection) show NC gr [  ] 0 sd 2154 200 m 1299 Y s 2101 200 m 53 X s 2128 232 m 26 X s 2128 265 m 26 X s 2128 297 m 26 X s 2128 330 m 26 X s 2101
 362 m 53 X s 2128 395 m 26 X s 2128 427 m 26 X s 2128 460 m 26 X s 2128 492 m 26 X s 2101 525 m 53 X s 2128 557 m 26 X s 2128 590 m 26 X s 2128 622 m 26 X s 2128 655 m 26 X s 2101 687 m 53 X s 2128 720 m 26 X s 2128 752 m 26 X s 2128 785 m 26 X s
 2128 817 m 26 X s 2101 850 m 53 X s 2128 882 m 26 X s 2128 915 m 26 X s 2128 947 m 26 X s 2128 979 m 26 X s 2101 1012 m 53 X s 2128 1044 m 26 X s 2128 1077 m 26 X s 2128 1109 m 26 X s 2128 1142 m 26 X s 2101 1174 m 53 X s 2128 1207 m 26 X s 2128
 1239 m 26 X s 2128 1272 m 26 X s 2128 1304 m 26 X s 2101 1337 m 53 X s 2128 1369 m 26 X s 2128 1402 m 26 X s 2128 1434 m 26 X s 2128 1467 m 26 X s 2101 1499 m 53 X s 2101 200 m 53 X s 9 lw 1 1 1 c black 254 1499 m 20 -1 d 30 X 8 -1 d 19 -1 d 10 X 9
 -1 d 19 X 19 -1 d 15 X 4 -1 d 19 -3 d 8 X 9 -1 d 21 X 20 -1 d 19 -1 d 19 -1 d 19 X 5 -1 d 14 -2 d 7 X 12 -1 d 19 X 19 -1 d 19 X 19 -2 d 12 -1 d 46 X 4 -1 d 15 -2 d 5 -1 d 14 X 19 -1 d 11 -1 d 8 X 11 1 d 14 X 6 1 d 4 X 3 -1 d 3 X 3 -1 d 11 -4 d 6 X 4
 -1 d 11 -1 d 17 -1 d 12 X 5 1 d 5 X 4 -1 d 5 X 10 -2 d 16 -4 d 3 -1 d 16 X 2 -1 d 1 X 1 -1 d 2 -1 d 2 -2 d 2 -2 d 6 -6 d 2 -2 d 1 -1 d 2 -1 d 1 X 2 -1 d 2 X 3 -1 d 2 X 3 1 d 3 X 4 1 d 2 1 d 2 1 d 2 2 d 4 3 d 3 2 d 2 1 d 1 1 d 2 X 1 1 d 4 X 15 -3 d 3
 -1 d 8 X 3 -1 d 2 X 2 -1 d 1 X 2 -1 d 2 -1 d 2 -2 d 2 -2 d 5 -5 d 2 -2 d 2 -1 d 1 -1 d 2 -1 d 1 -1 d 16 X 2 -1 d 4 -1 d 15 -3 d 7 -2 d 6 -2 d 3 -1 d 3 X 6 -1 d 10 X 2 1 d 3 X 1 1 d 3 2 d 4 3 d 3 2 d 2 1 d 1 X 2 1 d 3 X 2 -1 d 3 X 2 -1 d 2 -1 d 2 -1
 d 3 -2 d 2 -1 d 1 -2 d s 1190 1421 m 19 -6 d 19 -8 d 19 -5 d 19 -5 d 20 -6 d 19 -10 d 8 X 11 2 d 17 5 d 2 X 11 -2 d 8 -6 d 14 -26 d 5 -6 d 5 -2 d 13 2 d 1 X 19 -12 d 19 -13 d 5 X 7 2 d 3 -2 d 3 -6 d 1 -6 d 2 -11 d 3 -18 d 4 -35 d 4 -45 d 2 -17 d 2
 -12 d 2 -7 d -2 Y 3 -3 d 2 1 d 3 7 d 3 12 d 7 26 d 2 6 d 9 26 d 6 16 d 4 7 d 4 4 d 15 2 d 3 5 d 5 13 d 4 11 d 3 4 d 3 -1 d 1 -1 d 2 -6 d 2 -12 d 3 -20 d 6 -44 d 2 -13 d 1 -8 d 2 -3 d 1 -1 d 2 3 d 2 7 d 2 14 d 4 32 d 4 29 d 2 15 d 2 8 d 1 2 d 3 3 d 3
 -1 d 11 -27 d 2 -4 d 3 -2 d 8 4 d 2 -3 d 2 -5 d 2 -8 d 2 -12 d -3 Y 2 -14 d 1 -20 d 2 -27 d 2 -36 d 3 -83 d 3 -57 d 2 -36 d 1 -23 d 2 -17 d 1 -14 d -2 Y 2 -11 d 2 -8 d 2 -4 d 3 X 4 8 d 4 6 d 2 1 d 20 -8 d 19 -8 d 19 -8 d 19 -8 d 19 -8 d 19 -8 d 19
 -8 d 19 -8 d 8 4 d 10 6 d 1 X 19 -8 d 19 -8 d 20 -7 d 19 -8 d 19 -8 d 2 2 d 2 6 d 5 16 d 3 4 d 2 -1 d 1 -5 d 2 -8 d 1 -11 d 1 -11 d 1 -23 d 2 -26 d 2 -30 d 1 -33 d 2 -38 d 1 -41 d 1 -45 d 2 -48 d 1 -52 d 1 -61 d 1 -53 d 1 -59 d 1 -60 d -37 Y s 1 0 0
 c 1 1 1 c black 1 0 0 c 254 1499 m 14 X 6 -1 d 12 X 7 -1 d 19 -3 d 7 X 12 1 d 6 1 d 7 1 d 6 X 19 -2 d 8 -1 d 11 X 19 -1 d 19 X 4 -1 d 14 -3 d 9 X 10 1 d 21 X 9 -1 d 10 -1 d 19 -2 d 16 X 3 -1 d 5 X 11 -2 d 3 X 5 -1 d 5 1 d 28 X 6 -1 d 13 -1 d 15 -2 d
 62 X 5 -1 d 14 -2 d 15 X 4 -1 d 19 -2 d 7 -1 d 5 -1 d 4 -1 d 3 X 3 1 d 2 X 5 1 d 4 1 d 3 1 d 5 X 16 -3 d 13 -1 d 9 X 5 1 d 5 1 d 6 X 19 -8 d 6 -1 d 5 -1 d 7 -1 d 2 -1 d 5 X 14 -1 d 19 -2 d 17 -1 d 16 X 4 -1 d 5 X 15 -3 d 6 -1 d 13 -1 d 19 -2 d 12 X
 3 -1 d 4 X 3 -1 d 2 -1 d 4 -3 d 6 -3 d 2 -1 d 2 -1 d 3 -1 d 4 -1 d 5 -1 d 8 X 3 -1 d 10 X 3 -1 d 3 X 2 -1 d 4 -2 d 13 -7 d 2 -1 d 5 -4 d 4 -2 d 2 -1 d 2 -1 d 2 X 2 -1 d 1 X 2 1 d 2 X 3 1 d 3 2 d 4 2 d 2 1 d 2 X 3 1 d 16 1 d 12 2 d 7 1 d s 1190 1424
 m 17 3 d 2 X 19 -3 d 16 -4 d 3 -2 d 19 -18 d 20 -18 d 6 -5 d 6 -5 d 4 -6 d 3 -6 d 2 -10 d 4 -17 d 7 -37 d 3 -10 d 2 -7 d 1 -1 d 3 -2 d 3 2 d 4 8 d 8 14 d 1 2 d 19 24 d 5 8 d 6 14 d 4 4 d 2 -1 d 2 -2 d 3 -6 d 3 -13 d 13 -68 d 8 -44 d 11 -61 d 2 -14 d
 4 -27 d 4 -37 d 2 -15 d 2 -9 d 2 -5 d 1 -1 d 2 2 d 2 Y 2 7 d 1 11 d 1 15 d 2 22 d 1 31 d 4 68 d 3 47 d 1 29 d 2 18 d 1 12 d 1 10 d 2 Y 2 6 d 2 4 d 2 X 2 -5 d 10 -42 d 1 -6 d 14 -28 d 6 -14 d 2 -9 d 3 -17 d 6 -36 d 2 -10 d 2 -5 d 2 -1 d 2 3 d 1 6 d 2
 10 d 2 16 d 2 24 d 3 47 d 3 32 d 2 21 d 1 14 d 2 11 d 1 3 d 2 8 d 2 4 d 15 -16 d 5 1 d 6 4 d 4 -2 d 2 -4 d 2 -4 d 2 -9 d 17 -109 d 2 -5 d 3 -2 d 5 2 d 6 4 d 2 -1 d 1 -1 d 5 -8 d 14 -38 d 19 -42 d 3 -10 d 10 -39 d 2 -5 d 2 -1 d 2 2 d 1 Y 2 4 d 1 10 d
 2 15 d 1 24 d 5 64 d 2 20 d 1 13 d 2 7 d 1 3 d 1 -1 d 1 -4 d 1 -6 d -11 Y 1 -14 d 1 -17 d 1 -20 d 1 -25 d 15 -884 d 1 -15 d 1 -12 d 1 -9 d 2 -6 d 1 -2 d 2 1 d 3 7 d 4 15 d 2 4 d 2 1 d 19 -17 d 19 -16 d 10 -8 d s 0 1 0 c 1 1 1 c black 0 1 0 c 254
 1499 m 9 -1 d 8 -1 d 3 X 5 -1 d 14 X 19 -2 d 19 X 19 -3 d 8 X 11 -1 d 19 -2 d 6 X 13 -1 d 19 X 4 -1 d 15 -2 d 5 X 11 -1 d 3 X 20 -1 d 19 -1 d 19 -1 d 12 -1 d 7 X 19 -1 d 19 X 19 -2 d 19 X 11 -1 d 8 X 16 -2 d 3 X 8 -1 d 10 X 2 -1 d 19 -2 d 19 X 4 -1
 d 14 -2 d 1 -1 d 5 X 14 -1 d 19 -1 d 19 -1 d 19 -1 d 15 -1 d 4 X 19 -3 d 11 -1 d 8 X 20 -1 d 19 -2 d 7 X 12 -1 d 14 -1 d 5 X 19 -2 d 17 -2 d 2 X 6 -1 d 13 X 5 -1 d 14 -2 d 7 -1 d 12 X 19 -2 d 20 -1 d 8 X 8 -1 d 3 X 19 -1 d 14 -1 d 5 X 7 -1 d 12 -2 d
 15 -1 d 4 -1 d 8 -1 d 9 -2 d 2 X s 1190 1428 m 19 -2 d 19 -4 d 19 -2 d 19 X 20 -2 d 19 -2 d 19 -3 d 19 -5 d 19 -4 d 19 -4 d 19 -4 d 19 -3 d 19 -4 d 19 -1 d 19 -3 d 20 -3 d 19 -7 d 19 -4 d 19 -3 d 19 -8 d 19 -3 d 19 -7 d 19 -5 d 19 -5 d 19 -3 d 20 -5
 d 19 -9 d 19 -5 d 19 -9 d 19 -5 d 19 -10 d 19 -10 d 19 -8 d 19 -9 d 19 -15 d 19 -18 d 13 -6 d 7 -5 d 19 -27 d 12 -12 d 7 -7 d 15 -16 d 4 -5 d 9 -16 d 10 -18 d 19 -39 d 5 -7 d 10 -9 d 4 -6 d 7 -15 d 7 -17 d 5 -17 d 7 -23 d 8 -36 d 4 -17 d 10 -46 d 5
 -24 d 4 -23 d 8 -46 d 4 -26 d 3 -24 d 3 -25 d 2 -14 d 2 -24 d 2 -32 d 4 -46 d 6 -87 d 2 -29 d 3 -29 d 4 -42 d 4 -35 d 4 -31 d 4 -27 d 3 -19 d s 0 0 1 c 1 1 1 c black 0 0 1 c 254 1499 m 20 -2 d 15 -1 d 4 -1 d 19 X 19 -1 d 19 -1 d 19 X 16 -1 d 12 X 10
 -1 d 15 -1 d 4 -1 d 19 -1 d 5 X 14 -1 d 20 -1 d 19 X 19 -1 d 15 X 4 -1 d 19 -1 d 19 X 13 -1 d 6 X 19 -2 d 9 X 10 -1 d 19 X 20 -1 d 5 -1 d 33 X 19 -1 d 19 -1 d 10 -1 d 28 X 19 -1 d 19 -1 d 9 X 10 -1 d 19 -1 d 20 -1 d 19 -1 d 19 X 16 -1 d 3 X 18 -1 d
 20 X 13 -1 d 17 X 8 -1 d 19 -1 d 16 -1 d 3 -1 d 17 X 3 -1 d 2 X 3 -1 d 10 -2 d 3 X 1 -1 d 7 X 12 -1 d 19 X 8 -1 d 11 X 15 -2 d 4 X 8 -1 d 7 -1 d 4 X s 1190 1450 m 19 X 19 -2 d 19 -3 d 19 -1 d 20 -1 d 19 -2 d 19 X 19 -3 d 19 -1 d 19 -1 d 19 -1 d 19
 -3 d 19 -1 d 19 -1 d 19 -2 d 20 -4 d 19 -2 d 19 -2 d 19 -4 d 19 -4 d 19 -2 d 19 -3 d 19 -1 d 19 -5 d 19 -4 d 20 -4 d 19 -4 d 19 -5 d 19 -2 d 19 -3 d 16 -4 d 3 -2 d 19 -11 d 19 -7 d 19 -11 d 19 -8 d 19 -3 d 16 -8 d 4 -3 d 15 -10 d 4 -4 d 19 -26 d 19
 -26 d 9 -7 d 6 -7 d 4 -5 d 6 -12 d 9 -22 d 4 -11 d 19 -61 d 5 -10 d 11 -18 d 3 -8 d 8 -23 d 5 -16 d 4 -16 d 2 -11 d 3 -16 d 16 -116 d 3 -12 d 4 -15 d 6 -20 d 3 -13 d 3 -12 d 1 -7 d 2 -19 d 3 -25 d 3 -30 d 11 -117 d 6 -73 d 5 -65 d 6 -72 d 2 -19 d s
 2126 398 m 19 -167 d s 1 0 1 c 1 1 1 c black 1 0 1 c 254 1499 m 39 X 6 -1 d 13 X 19 -1 d 7 -1 d 37 X 9 -1 d 4 X 17 -2 d 2 X 6 -1 d 32 X 4 -1 d 15 -1 d 5 X 15 -1 d 46 X 9 -1 d 9 X 10 -1 d 11 X 10 -1 d 19 X 19 -1 d 19 X 15 -1 d 4 X 6 -1 d 14 X 19 -1 d
 19 -1 d 19 -2 d 19 X 19 -1 d 19 X 16 -1 d 3 X 19 -1 d 19 X 5 -1 d 14 -1 d 6 X 14 -1 d 19 -1 d 24 X 14 -2 d 17 -1 d 17 X 4 -1 d 4 X 15 -1 d 4 X 11 -1 d 8 X 13 -2 d 2 X 4 -1 d 15 X 20 -1 d 6 X 10 -1 d 3 X 19 -1 d 14 -1 d 5 X 19 -1 d 19 -2 d 19 -1 d s
 1190 1455 m 19 -1 d 19 -1 d 19 -1 d 19 -1 d 20 -2 d 19 -1 d 19 -2 d 19 -1 d 19 -2 d 19 -2 d 19 -3 d 19 -1 d 19 -2 d 19 -2 d 19 -3 d 20 -2 d 19 -4 d 19 -2 d 19 -1 d 19 -2 d 19 -2 d 19 -3 d 19 -3 d 19 -2 d 19 -2 d 20 -3 d 19 -1 d 15 -4 d 4 -1 d 19 -10
 d 19 -8 d 19 -9 d 19 -10 d 19 -10 d 19 -9 d 19 -4 d 19 -10 d 20 -8 d 19 -9 d 15 -8 d 4 -3 d 19 -22 d 8 -6 d 11 -8 d 16 -14 d 3 -4 d 12 -14 d 7 -11 d 10 -17 d 9 -20 d 6 -11 d 6 -10 d 3 -9 d 3 -9 d 1 -6 d 3 -12 d 3 -17 d 13 -96 d 6 -29 d 7 -38 d 7 -31
 d 2 -13 d 9 -34 d 3 -13 d 2 -13 d 2 -14 d 1 -4 d 3 -26 d 2 -24 d 3 -28 d 3 -31 d 3 -34 d 2 -33 d 3 -39 d s 2126 610 m 19 -227 d s 0 1 1 c 1 1 1 c black 0 1 1 c 254 1499 m 7 -1 d 6 X 7 -1 d 19 X 19 -2 d 4 X 11 -1 d 4 X 4 -1 d 13 -2 d 21 X 16 -1 d 9 X
 12 -1 d 7 X 12 -1 d 1 X 19 -1 d 19 -1 d 28 X 7 -1 d 9 X 14 -1 d 15 -2 d 42 X 19 -1 d 19 X 15 -1 d 11 X 12 -1 d 15 -1 d 5 X 5 -1 d 11 -1 d 3 -1 d 19 X 6 -1 d 32 X 7 -1 d 12 X 19 -2 d 19 X 3 -1 d 16 -2 d 8 X 11 -1 d 19 X 17 -1 d 3 X 19 -1 d 14 -1 d 5
 X 19 -1 d 19 -1 d 19 X 19 -1 d 19 -1 d 19 X 19 -1 d 8 X 10 -1 d 21 X 19 -2 d 24 X 13 -2 d 28 X 7 -1 d 4 X s 1190 1453 m 19 -2 d 19 -2 d 19 -2 d 19 -3 d 20 X 19 -2 d 19 -1 d 19 -2 d 19 -1 d 19 -1 d 19 -1 d 19 -2 d 19 -1 d 19 -2 d 19 -1 d 20 -3 d 19 X
 19 -2 d 19 X 19 -3 d 19 -2 d 19 -3 d 19 -1 d 19 -3 d 19 -2 d 20 -3 d 19 -5 d 19 -5 d 19 -4 d 19 -3 d 19 -8 d 19 -4 d 19 -7 d 19 -5 d 19 -6 d 19 -7 d 18 -7 d 2 -1 d 19 -14 d 19 -13 d 19 -11 d 19 -16 d 15 -13 d 4 -5 d 10 -13 d 6 -10 d 3 -6 d 6 -14 d
 13 -39 d 9 -22 d 6 -17 d 4 -15 d 6 -23 d 5 -20 d 4 -19 d 4 -24 d 4 -21 d 4 -32 d 12 -86 d 11 -88 d 6 -45 d 2 -14 d 6 -58 d 6 -53 d 7 -63 d s 2126 592 m 19 -303 d s 0.35 0.83 0.33 c 1 1 1 c black 0.35 0.83 0.33 c 254 1498 m 20 X 6 -1 d 16 X 13 -2 d 3
 -1 d 19 X 19 -1 d 19 X 4 -1 d 15 -2 d 19 X 19 -1 d 19 X 19 -1 d 39 X 19 -1 d 19 X 18 -1 d 1 X 7 -1 d 12 X 19 -1 d 19 -1 d 19 -1 d 24 X 13 -2 d 30 X 10 -1 d 19 -1 d 7 X 12 -1 d 19 X 4 -1 d 13 -1 d 21 X 4 -1 d 15 -2 d 13 X 6 -1 d 19 X 12 -1 d 8 X 4 -1
 d 13 -1 d 7 X 14 -1 d 19 -1 d 18 -1 d 39 X 19 -1 d 16 -1 d 3 X 15 -1 d 4 X 15 -1 d 5 X 19 -2 d 19 -1 d 19 -2 d 16 -1 d 3 X 15 -1 d 12 X 9 -1 d 2 -1 d s 1190 1452 m 19 -1 d 19 X 19 -1 d 19 -2 d 20 X 19 -2 d 19 -1 d 19 -4 d 19 -1 d 19 -2 d 19 -1 d 19
 -1 d 19 -1 d 19 -2 d 19 X 20 -2 d 19 -4 d 19 -2 d 19 X 19 -1 d 19 -3 d 19 -1 d 19 -2 d 19 -3 d 19 -2 d 20 -2 d 19 -3 d 19 -3 d 19 -7 d 19 -4 d 19 -4 d 19 -2 d 19 -2 d 16 -4 d 3 -1 d 19 -13 d 15 -6 d 4 -2 d 16 -4 d 4 -1 d 8 -5 d 11 -8 d 16 -11 d 3 -2
 d 10 -11 d 9 -10 d 14 -17 d 5 -7 d 17 -32 d 2 -3 d 6 -7 d 13 -12 d 6 -5 d 6 -4 d 4 -5 d 3 -6 d 3 -8 d 16 -64 d 3 -4 d 2 -3 d 8 -6 d 3 -4 d 2 -5 d 1 -3 d 3 -10 d 2 -13 d 4 -20 d 11 -68 d 10 -63 d 5 -31 d 4 -28 d 4 -35 d 5 -41 d 4 -37 d 5 -41 d 1 -8 d
 s 2126 718 m 19 -241 d s 0.35 0.33 0.85 c 1 1 1 c black 0.35 0.33 0.85 c 254 1499 m 39 X 14 -1 d 11 X 12 -1 d 1 X 8 -1 d 30 X 13 -1 d 6 X 19 -1 d 19 -1 d 19 X 19 -1 d 34 X 5 -1 d 4 X 14 -1 d 7 X 13 -1 d 24 X 6 -1 d 8 -1 d 19 -3 d 19 X 5 -1 d 14 -1 d
 7 X 12 -1 d 20 X 19 -1 d 19 -1 d 19 X 19 -1 d 22 X 16 -3 d 19 X 9 -1 d 44 X 4 -1 d 5 X 14 -2 d 1 X 6 -1 d 13 X 14 -1 d 5 X 19 -2 d 6 X 13 -1 d 19 X 11 -1 d 8 X 5 -1 d 14 -2 d 6 X 12 -1 d 1 X 19 -2 d 6 X 14 -1 d 14 -1 d 5 X 6 -1 d 11 -1 d 2 -1 d 6 X
 13 -1 d 14 -1 d 32 X 9 -1 d 2 X s 1190 1451 m 19 X 19 -1 d 19 -3 d 19 -2 d 20 X 19 -2 d 19 -1 d 19 -2 d 19 -1 d 19 -2 d 19 -3 d 19 -1 d 19 -2 d 19 X 19 -2 d 20 -4 d 19 -2 d 19 -2 d 19 -4 d 19 -2 d 19 -1 d 19 -2 d 19 -5 d 19 -2 d 19 -3 d 20 -4 d 19
 -3 d 19 -2 d 19 -4 d 19 -3 d 19 -1 d 19 -4 d 19 -4 d 19 -7 d 19 -5 d 18 -1 d 1 -1 d 20 -9 d 19 -6 d 6 X 7 -1 d 4 -2 d 2 -2 d 4 -6 d 15 -34 d 4 -5 d 15 -14 d 13 -14 d 5 -8 d 1 -2 d 4 -9 d 14 -38 d 1 -2 d 4 -6 d 7 -7 d 6 -6 d 2 -3 d 7 -12 d 5 -12 d 6
 -13 d 1 -5 d 7 -19 d 4 -17 d 5 -17 d 3 -17 d 4 -21 d 5 -27 d 6 -37 d 5 -27 d 8 -57 d 5 -33 d 4 -28 d 2 -16 d 4 -41 d 4 -39 d 4 -40 d 4 -41 d 3 -32 d s 2126 638 m 19 -186 d s 0.754 0.715 0.676 c 1 1 1 c black 0.754 0.715 0.676 c 254 1499 m 11 -1 d 28
 X 19 -1 d 14 -1 d 24 X 3 -1 d 12 -2 d 12 X 11 -1 d 19 X 19 -1 d 19 X 19 -1 d 17 -1 d 22 X 8 -1 d 11 X 10 -1 d 9 -1 d 19 -2 d 15 X 4 -1 d 24 X 14 -1 d 19 X 19 -1 d 20 -2 d 19 -1 d 19 X 19 -1 d 34 X 4 -1 d 5 X 14 -1 d 5 X 14 -1 d 19 -1 d 19 -1 d 19 X
 7 -1 d 15 X 17 -4 d 27 X 7 -1 d 4 X 19 -2 d 10 X 9 -1 d 19 -1 d 15 X 4 -1 d 7 X 11 -1 d 1 X 6 -1 d 13 X 20 -2 d 9 X 10 -1 d 27 X 8 -1 d 3 X 17 -2 d 8 X 11 -1 d 21 X s 1190 1452 m 19 -1 d 19 -1 d 19 -3 d 19 -2 d 20 -1 d 19 -1 d 19 -2 d 19 -2 d 19 -1
 d 19 -2 d 19 X 19 -2 d 19 -1 d 19 -1 d 19 -3 d 20 -2 d 19 -2 d 19 -1 d 19 -2 d 19 -3 d 19 -2 d 19 -1 d 19 -4 d 19 -3 d 19 -2 d 20 -2 d 19 -7 d 19 -3 d 19 -6 d 19 -1 d 19 -5 d 19 -6 d 18 -4 d 1 -1 d 19 -11 d 7 -1 d 10 -1 d 2 -1 d 19 -16 d 20 -9 d 19
 -13 d 11 -3 d 8 -4 d 19 -20 d 6 -4 d 11 -6 d 2 -2 d 7 -8 d 12 -16 d 16 -21 d 3 -5 d 11 -17 d 5 -8 d 3 -9 d 19 -80 d 5 -15 d 8 -27 d 4 -11 d 2 -12 d 4 -19 d 4 -24 d 5 -29 d 7 -42 d 4 -33 d 15 -111 d 14 -104 d 5 -35 d s 2126 655 m 19 -221 d s black 3
 lw 245 200 m 1909 X s 245 242 m -42 Y s[ 4 8] 0 sd 245 1499 m -1299 Y s[  ] 0 sd 283 221 m -21 Y s 321 221 m -21 Y s 359 221 m -21 Y s 398 221 m -21 Y s 436 242 m -42 Y s[ 4 8] 0 sd 436 1499 m -1299 Y s[  ] 0 sd 474 221 m -21 Y s 512 221 m -21 Y s
 550 221 m -21 Y s 589 221 m -21 Y s 627 242 m -42 Y s[ 4 8] 0 sd 627 1499 m -1299 Y s[  ] 0 sd 665 221 m -21 Y s 703 221 m -21 Y s 741 221 m -21 Y s 780 221 m -21 Y s 818 242 m -42 Y s[ 4 8] 0 sd 818 1499 m -1299 Y s[  ] 0 sd 856 221 m -21 Y s 894
 221 m -21 Y s 932 221 m -21 Y s 970 221 m -21 Y s 1009 242 m -42 Y s[ 4 8] 0 sd 1009 1499 m -1299 Y s[  ] 0 sd 1047 221 m -21 Y s 1085 221 m -21 Y s 1123 221 m -21 Y s 1161 221 m -21 Y s 1200 242 m -42 Y s[ 4 8] 0 sd 1200 1499 m -1299 Y s[  ] 0 sd
 1238 221 m -21 Y s 1276 221 m -21 Y s 1314 221 m -21 Y s 1352 221 m -21 Y s 1391 242 m -42 Y s[ 4 8] 0 sd 1391 1499 m -1299 Y s[  ] 0 sd 1429 221 m -21 Y s 1467 221 m -21 Y s 1505 221 m -21 Y s 1543 221 m -21 Y s 1582 242 m -42 Y s[ 4 8] 0 sd 1582
 1499 m -1299 Y s[  ] 0 sd 1620 221 m -21 Y s 1658 221 m -21 Y s 1696 221 m -21 Y s 1734 221 m -21 Y s 1772 242 m -42 Y s[ 4 8] 0 sd 1772 1499 m -1299 Y s[  ] 0 sd 1811 221 m -21 Y s 1849 221 m -21 Y s 1887 221 m -21 Y s 1925 221 m -21 Y s 1963 242 m
 -42 Y s[ 4 8] 0 sd 1963 1499 m -1299 Y s[  ] 0 sd 2002 221 m -21 Y s 2040 221 m -21 Y s 2078 221 m -21 Y s 2116 221 m -21 Y s 2154 242 m -42 Y s[ 4 8] 0 sd 2154 1499 m -1299 Y s[  ] 0 sd 245 1499 m 1909 X s 245 1457 m 42 Y s 283 1478 m 21 Y s 321
 1478 m 21 Y s 359 1478 m 21 Y s 398 1478 m 21 Y s 436 1457 m 42 Y s 474 1478 m 21 Y s 512 1478 m 21 Y s 550 1478 m 21 Y s 589 1478 m 21 Y s 627 1457 m 42 Y s 665 1478 m 21 Y s 703 1478 m 21 Y s 741 1478 m 21 Y s 780 1478 m 21 Y s 818 1457 m 42 Y s
 856 1478 m 21 Y s 894 1478 m 21 Y s 932 1478 m 21 Y s 970 1478 m 21 Y s 1009 1457 m 42 Y s 1047 1478 m 21 Y s 1085 1478 m 21 Y s 1123 1478 m 21 Y s 1161 1478 m 21 Y s 1200 1457 m 42 Y s 1238 1478 m 21 Y s 1276 1478 m 21 Y s 1314 1478 m 21 Y s 1352
 1478 m 21 Y s 1391 1457 m 42 Y s 1429 1478 m 21 Y s 1467 1478 m 21 Y s 1505 1478 m 21 Y s 1543 1478 m 21 Y s 1582 1457 m 42 Y s 1620 1478 m 21 Y s 1658 1478 m 21 Y s 1696 1478 m 21 Y s 1734 1478 m 21 Y s 1772 1457 m 42 Y s 1811 1478 m 21 Y s 1849
 1478 m 21 Y s 1887 1478 m 21 Y s 1925 1478 m 21 Y s 1963 1457 m 42 Y s 2002 1478 m 21 Y s 2040 1478 m 21 Y s 2078 1478 m 21 Y s 2116 1478 m 21 Y s 2154 1457 m 42 Y s 245 200 m 1299 Y s 298 200 m -53 X s[ 4 8] 0 sd 2154 200 m -1909 X s[  ] 0 sd 271
 232 m -26 X s 271 265 m -26 X s 271 297 m -26 X s 271 330 m -26 X s 298 362 m -53 X s[ 4 8] 0 sd 2154 362 m -1909 X s[  ] 0 sd 271 395 m -26 X s 271 427 m -26 X s 271 460 m -26 X s 271 492 m -26 X s 298 525 m -53 X s[ 4 8] 0 sd 2154 525 m -1909 X s[
  ] 0 sd 271 557 m -26 X s 271 590 m -26 X s 271 622 m -26 X s 271 655 m -26 X s 298 687 m -53 X s[ 4 8] 0 sd 2154 687 m -1909 X s[  ] 0 sd 271 720 m -26 X s 271 752 m -26 X s 271 785 m -26 X s 271 817 m -26 X s 298 850 m -53 X s[ 4 8] 0 sd 2154 850
 m -1909 X s[  ] 0 sd 271 882 m -26 X s 271 915 m -26 X s 271 947 m -26 X s 271 979 m -26 X s 298 1012 m -53 X s[ 4 8] 0 sd 2154 1012 m -1909 X s[  ] 0 sd 271 1044 m -26 X s 271 1077 m -26 X s 271 1109 m -26 X s 271 1142 m -26 X s 298 1174 m -53 X s[
 4 8] 0 sd 2154 1174 m -1909 X s[  ] 0 sd 271 1207 m -26 X s 271 1239 m -26 X s 271 1272 m -26 X s 271 1304 m -26 X s 298 1337 m -53 X s[ 4 8] 0 sd 2154 1337 m -1909 X s[  ] 0 sd 271 1369 m -26 X s 271 1402 m -26 X s 271 1434 m -26 X s 271 1467 m -26
 X s 298 1499 m -53 X s[ 4 8] 0 sd 2154 1499 m -1909 X s[  ] 0 sd 298 200 m -53 X s[ 4 8] 0 sd 2154 200 m -1909 X s[  ] 0 sd 2154 200 m 1299 Y s 2101 200 m 53 X s 2128 232 m 26 X s 2128 265 m 26 X s 2128 297 m 26 X s 2128 330 m 26 X s 2101 362 m 53 X
 s 2128 395 m 26 X s 2128 427 m 26 X s 2128 460 m 26 X s 2128 492 m 26 X s 2101 525 m 53 X s 2128 557 m 26 X s 2128 590 m 26 X s 2128 622 m 26 X s 2128 655 m 26 X s 2101 687 m 53 X s 2128 720 m 26 X s 2128 752 m 26 X s 2128 785 m 26 X s 2128 817 m 26
 X s 2101 850 m 53 X s 2128 882 m 26 X s 2128 915 m 26 X s 2128 947 m 26 X s 2128 979 m 26 X s 2101 1012 m 53 X s 2128 1044 m 26 X s 2128 1077 m 26 X s 2128 1109 m 26 X s 2128 1142 m 26 X s 2101 1174 m 53 X s 2128 1207 m 26 X s 2128 1239 m 26 X s
 2128 1272 m 26 X s 2128 1304 m 26 X s 2101 1337 m 53 X s 2128 1369 m 26 X s 2128 1402 m 26 X s 2128 1434 m 26 X s 2128 1467 m 26 X s 2101 1499 m 53 X s 2101 200 m 53 X s
 gsave  2268 1666 0 0 C 370.954 1137.36 t 0 r /Helvetica-Bold findfont 55.993 sf 0 0 m (MVA Method:) show NC gr 
 gsave  2268 1666 0 0 C 654.418 1046.37 t 0 r /Helvetica-Bold findfont 55.993 sf 0 0 m (BDT) show NC gr  0.35 0.83 0.33 c 9 lw 388 1064 m 222 X s black
 gsave  2268 1666 0 0 C 654.418 951.881 t 0 r /Helvetica-Bold findfont 55.993 sf 0 0 m (BDTD) show NC gr  0.35 0.33 0.85 c 388 972 m 222 X s black
 gsave  2268 1666 0 0 C 654.418 860.892 t 0 r /Helvetica-Bold findfont 55.993 sf 0 0 m (BDTF) show NC gr  0.754 0.715 0.676 c 388 880 m 222 X s black
 gsave  2268 1666 0 0 C 654.418 769.904 t 0 r /Helvetica-Bold findfont 55.993 sf 0 0 m (Fisher) show NC gr  1 0 1 c 388 789 m 222 X s black
 gsave  2268 1666 0 0 C 654.418 678.915 t 0 r /Helvetica-Bold findfont 55.993 sf 0 0 m (BDTG) show NC gr  0 1 1 c 388 697 m 222 X s black
 gsave  2268 1666 0 0 C 654.418 587.927 t 0 r /Helvetica-Bold findfont 55.993 sf 0 0 m (LikelihoodD) show NC gr  0 0 1 c 388 606 m 222 X s black
 gsave  2268 1666 0 0 C 654.418 493.438 t 0 r /Helvetica-Bold findfont 55.993 sf 0 0 m (Likelihood) show NC gr  0 1 0 c 388 514 m 222 X s black
 gsave  2268 1666 0 0 C 654.418 402.45 t 0 r /Helvetica-Bold findfont 55.993 sf 0 0 m (Cuts) show NC gr  388 422 m 222 X s
 gsave  2268 1666 0 0 C 654.418 311.461 t 0 r /Helvetica-Bold findfont 55.993 sf 0 0 m (CutsD) show NC gr  1 0 0 c 388 331 m 222 X s 0.490196 0.545098 0.615686 c 3 lw 0.364706 0.419608 0.490196 c 1587 100 23 1557 bf 0.490196 0.545098 0.615686 c 23
 1557 m 1587 X s 1610 1557 m 100 Y s 1610 1657 m -1587 X s 23 1657 m -100 Y s 1 1 1 c black 1 1 1 c
 gsave  2268 1666 0 0 C 76.9904 1588.8 t 0 r /Helvetica-Bold findfont 66.4917 sf 0 0 m (Background rejection versus Signal efficiency) show NC gr 
 gr  gr showpage
end
%%EOF
