%!PS-Adobe-2.0 EPSF-2.0
%%BoundingBox:  0 0 567 546
%%Title: dataset_class_l2/plots/CorrelationMatrixB.eps: Correlations between MVA input variables (background)
%%Creator: ROOT Version 6.18/00
%%CreationDate: Sat Sep 14 12:30:34 2019
%%DocumentNeededResources: ProcSet (FontSetInit)
%%EndComments
%%BeginProlog
80 dict begin
/s {stroke} def /l {lineto} def /m {moveto} def /t {translate} def
/r {rotate} def /rl {roll}  def /R {repeat} def
/d {rlineto} def /rm {rmoveto} def /gr {grestore} def /f {eofill} def
/c {setrgbcolor} def /black {0 setgray} def /sd {setdash} def
/cl {closepath} def /sf {scalefont setfont} def /lw {setlinewidth} def
/box {m dup 0 exch d exch 0 d 0 exch neg d cl} def
/NC{systemdict begin initclip end}def/C{NC box clip newpath}def
/bl {box s} def /bf {gsave box gsave f grestore 1 lw [] 0 sd s grestore} def /Y { 0 exch d} def /X { 0 d} def 
/K {{pop pop 0 moveto} exch kshow} bind def
/ita {/ang 15 def gsave [1 0 ang dup sin exch cos div 1 0 0] concat} def 
/mp {newpath /y exch def /x exch def} def
/side {[w .77 mul w .23 mul] .385 w mul sd w 0 l currentpoint t -144 r} def
/mr {mp x y w2 0 360 arc} def /m24 {mr s} def /m20 {mr f} def
/mb {mp x y w2 add m w2 neg 0 d 0 w neg d w 0 d 0 w d cl} def
/mt {mp x y w2 add m w2 neg w neg d w 0 d cl} def
/w4 {w 4 div} def
/w6 {w 6 div} def
/w8 {w 8 div} def
/m21 {mb f} def /m25 {mb s} def /m22 {mt f} def /m26{mt s} def
/m23 {mp x y w2 sub m w2 w d w neg 0 d cl f} def
/m27 {mp x y w2 add m w3 neg w2 neg d w3 w2 neg d w3 w2 d cl s} def
/m28 {mp x w2 sub y w2 sub w3 add m w3 0 d  0 w3 neg d w3 0 d 0 w3 d w3 0 d  0 w3 d w3 neg 0 d 0 w3 d w3 neg 0 d 0 w3 neg d w3 neg 0 d cl s } def
/m29 {mp gsave x w2 sub y w2 add w3 sub m currentpoint t 4 {side} repeat cl fill gr} def
/m30 {mp gsave x w2 sub y w2 add w3 sub m currentpoint t 4 {side} repeat cl s gr} def
/m31 {mp x y w2 sub m 0 w d x w2 sub y m w 0 d x w2 sub y w2 add m w w neg d x w2 sub y w2 sub m w w d s} def
/m32 {mp x y w2 sub m w2 w d w neg 0 d cl s} def
/m33 {mp x y w2 add m w3 neg w2 neg d w3 w2 neg d w3 w2 d cl f} def
/m34 {mp x w2 sub y w2 sub w3 add m w3 0 d  0 w3 neg d w3 0 d 0 w3 d w3 0 d  0 w3 d w3 neg 0 d 0 w3 d w3 neg 0 d 0 w3 neg d w3 neg 0 d cl f } def
/m35 {mp x y w2 add m w2 neg w2 neg d w2 w2 neg d w2 w2 d w2 neg w2 d x y w2 sub m 0 w d x w2 sub y m w 0 d s} def
/m36 {mb x w2 sub y w2 add m w w neg d x w2 sub y w2 sub m w w d s} def
/m37 {mp x y m w4 neg w2 d w4 neg w2 neg d w2 0 d  w4 neg w2 neg d w2 0 d w4 neg w2 d w2 0 d w4 neg w2 d w4 neg w2 neg d cl s} def
/m38 {mp x w4 sub y w2 add m w4 neg w4 neg d 0 w2 neg d w4 w4 neg d w2 0 d w4 w4 d 0 w2 d w4 neg w4 d w2 neg 0 d x y w2 sub m 0 w d x w2 sub y m w 0 d cl s} def
/m39 {mp x y m w4 neg w2 d w4 neg w2 neg d w2 0 d  w4 neg w2 neg d w2 0 d w4 neg w2 d w2 0 d w4 neg w2 d w4 neg w2 neg d cl f} def
/m40 {mp x y m w4 w2 d w4 w4 neg d w2 neg w4 neg d w2 w4 neg d w4 neg w4 neg d w4 neg w2 d w4 neg w2 neg d w4 neg w4 d w2 w4 d w2 neg w4 d w4 w4 d w4 w2 neg d cl s} def
/m41 {mp x y m w4 w2 d w4 w4 neg d w2 neg w4 neg d w2 w4 neg d w4 neg w4 neg d w4 neg w2 d w4 neg w2 neg d w4 neg w4 d w2 w4 d w2 neg w4 d w4 w4 d w4 w2 neg d cl f} def
/m42 {mp x y w2 add m w8 neg w2 -3 4 div mul d w2 -3 4 div mul w8 neg d w2 3 4 div mul w8 neg d w8 w2 -3 4 div mul d w8 w2 3 4 div mul d w2 3 4 div mul w8 d w2 -3 4 div mul w8 d w8 neg w2 3 4 div mul d cl s} def
/m43 {mp x y w2 add m w8 neg w2 -3 4 div mul d w2 -3 4 div mul w8 neg d w2 3 4 div mul w8 neg d w8 w2 -3 4 div mul d w8 w2 3 4 div mul d w2 3 4 div mul w8 d w2 -3 4 div mul w8 d w8 neg w2 3 4 div mul d cl f} def
/m44 {mp x y m w6 neg w2 d w2 2 3 div mul 0 d w6 neg w2 neg d w2 w6 d 0 w2 -2 3 div mul d w2 neg w6 d w6 w2 neg d w2 -2 3 div mul 0 d w6 w2 d w2 neg w6 neg d 0 w2 2 3 div mul d w2 w6 neg d cl s} def
/m45 {mp x y m w6 neg w2 d w2 2 3 div mul 0 d w6 neg w2 neg d w2 w6 d 0 w2 -2 3 div mul d w2 neg w6 d w6 w2 neg d w2 -2 3 div mul 0 d w6 w2 d w2 neg w6 neg d 0 w2 2 3 div mul d w2 w6 neg d cl f} def
/m46 {mp x y w4 add m w4 neg w4 d w4 neg w4 neg d  w4 w4 neg d w4 neg w4 neg d w4 w4 neg d w4 w4 d w4 w4 neg d w4 w4 d w4 neg w4 d w4 w4 d w4 neg w4 d w4 neg w4 neg d cl s} def
/m47 {mp x y w4 add m w4 neg w4 d w4 neg w4 neg d w4 w4 neg d w4 neg w4 neg d  w4 w4 neg d w4 w4 d w4 w4 neg d w4 w4 d w4 neg w4 d w4 w4 d w4 neg w4 d w4 neg w4 neg d cl f} def
/m48 {mp x y w4 add m w4 neg w4 d w4 neg w4 neg d w4 w4 neg d  w4 neg w4 neg d w4 w4 neg d w4 w4 d w4 w4 neg d w4 w4 d w4 neg w4 d w4 w4 d w4 neg w4 d w4 neg w4 neg d  w4 w4 neg d w4 neg w4 neg d w4 neg w4 d w4 w4 d cl f} def
/m49 {mp x w2 sub w3 add y w2 sub w3 add m  0 w3 neg d w3 0 d 0 w3 d w3 0 d 0 w3 d w3 neg 0 d 0 w3 d w3 neg 0 d 0 w3 neg d w3 neg 0 d 0 w3 neg d w3 0 d 0 w3 d w3 0 d 0 w3 neg d w3 neg 0 d cl f } def
/m2 {mp x y w2 sub m 0 w d x w2 sub y m w 0 d s} def
/m5 {mp x w2 sub y w2 sub m w w d x w2 sub y w2 add m w w neg d s} def
%%IncludeResource: ProcSet (FontSetInit)
%%IncludeResource: font Times-Roman
%%IncludeResource: font Times-Italic
%%IncludeResource: font Times-Bold
%%IncludeResource: font Times-BoldItalic
%%IncludeResource: font Helvetica
%%IncludeResource: font Helvetica-Oblique
%%IncludeResource: font Helvetica-Bold
%%IncludeResource: font Helvetica-BoldOblique
%%IncludeResource: font Courier
%%IncludeResource: font Courier-Oblique
%%IncludeResource: font Courier-Bold
%%IncludeResource: font Courier-BoldOblique
%%IncludeResource: font Symbol
%%IncludeResource: font ZapfDingbats
/reEncode {exch findfont dup length dict begin {1 index /FID eq  {pop pop} {def} ifelse } forall /Encoding exch def currentdict end dup /FontName get exch definefont pop } def [/Times-Bold /Times-Italic /Times-BoldItalic /Helvetica /Helvetica-Oblique
 /Helvetica-Bold /Helvetica-BoldOblique /Courier /Courier-Oblique /Courier-Bold /Courier-BoldOblique /Times-Roman /AvantGarde-Book /AvantGarde-BookOblique /AvantGarde-Demi /AvantGarde-DemiOblique /Bookman-Demi /Bookman-DemiItalic /Bookman-Light
 /Bookman-LightItalic /Helvetica-Narrow /Helvetica-Narrow-Bold /Helvetica-Narrow-BoldOblique /Helvetica-Narrow-Oblique /NewCenturySchlbk-Roman /NewCenturySchlbk-Bold /NewCenturySchlbk-BoldItalic /NewCenturySchlbk-Italic /Palatino-Bold
 /Palatino-BoldItalic /Palatino-Italic /Palatino-Roman ] {ISOLatin1Encoding reEncode } forall
%%EndProlog
%%BeginSetup
%%EndSetup
newpath  gsave  .25 .25 scale  gsave  0 0 t 0.490196 0.545098 0.615686 c[  ] 0 sd 3 lw 0.941176 0.941176 0.941176 c 2268 2184 0 0 bf black 1 1 0.992157 c 1633 1572 340 328 bf black 1633 1572 340 328 bl 1 1 0.992157 c 1633 1572 340 328 bf black 1633
 1572 340 328 bl 1 1 1 c 1 0 0 c 102 98 340 328 bf 102 98 442 328 bf 102 98 544 328 bf 102 98 646 328 bf 0 1 0.0533333 c 102 98 748 328 bf 102 98 850 328 bf 102 98 952 328 bf 103 98 1054 328 bf 0.88 1 0 c 102 98 1157 328 bf 1 0.933333 0 c 102 98 1259
 328 bf 0.6 1 0 c 102 98 1361 328 bf 102 98 1463 328 bf 0 1 0.333333 c 102 98 1565 328 bf 102 98 1667 328 bf 102 98 1769 328 bf 102 98 1871 328 bf 1 0 0 c 102 98 340 426 bf 102 98 442 426 bf 102 98 544 426 bf 102 98 646 426 bf 0 1 0.0533333 c 102 98
 748 426 bf 102 98 850 426 bf 102 98 952 426 bf 103 98 1054 426 bf 0.88 1 0 c 102 98 1157 426 bf 1 0.933333 0 c 102 98 1259 426 bf 0.6 1 0 c 102 98 1361 426 bf 102 98 1463 426 bf 0 1 0.333333 c 102 98 1565 426 bf 102 98 1667 426 bf 102 98 1769 426 bf
 102 98 1871 426 bf 1 0 0 c 102 99 340 524 bf 102 99 442 524 bf 102 99 544 524 bf 102 99 646 524 bf 0 1 0.0533333 c 102 99 748 524 bf 102 99 850 524 bf 102 99 952 524 bf 103 99 1054 524 bf 0.88 1 0 c 102 99 1157 524 bf 1 0.933333 0 c 102 99 1259 524
 bf 0.6 1 0 c 102 99 1361 524 bf 102 99 1463 524 bf 0 1 0.333333 c 102 99 1565 524 bf 102 99 1667 524 bf 102 99 1769 524 bf 102 99 1871 524 bf 1 0 0 c 102 98 340 623 bf 102 98 442 623 bf 102 98 544 623 bf 102 98 646 623 bf 0 1 0.0533333 c 102 98 748
 623 bf 102 98 850 623 bf 102 98 952 623 bf 103 98 1054 623 bf 0.88 1 0 c 102 98 1157 623 bf 1 0.933333 0 c 102 98 1259 623 bf 0.6 1 0 c 102 98 1361 623 bf 102 98 1463 623 bf 0 1 0.333333 c 102 98 1565 623 bf 102 98 1667 623 bf 102 98 1769 623 bf 102
 98 1871 623 bf 0 1 0.0533333 c 102 98 340 721 bf 102 98 442 721 bf 102 98 544 721 bf 102 98 646 721 bf 1 0 0 c 102 98 748 721 bf 102 98 850 721 bf 102 98 952 721 bf 103 98 1054 721 bf 0.88 1 0 c 102 98 1157 721 bf 0.6 1 0 c 102 98 1259 721 bf 102 98
 1361 721 bf 0.413333 1 0 c 102 98 1463 721 bf 0 1 0.0533333 c 102 98 1565 721 bf 102 98 1667 721 bf 102 98 1769 721 bf 102 98 1871 721 bf 102 98 340 819 bf 102 98 442 819 bf 102 98 544 819 bf 102 98 646 819 bf 1 0 0 c 102 98 748 819 bf 102 98 850
 819 bf 102 98 952 819 bf 103 98 1054 819 bf 0.88 1 0 c 102 98 1157 819 bf 0.6 1 0 c 102 98 1259 819 bf 102 98 1361 819 bf 0.413333 1 0 c 102 98 1463 819 bf 0 1 0.0533333 c 102 98 1565 819 bf 102 98 1667 819 bf 102 98 1769 819 bf 102 98 1871 819 bf
 102 99 340 917 bf 102 99 442 917 bf 102 99 544 917 bf 102 99 646 917 bf 1 0 0 c 102 99 748 917 bf 102 99 850 917 bf 102 99 952 917 bf 103 99 1054 917 bf 0.88 1 0 c 102 99 1157 917 bf 0.6 1 0 c 102 99 1259 917 bf 102 99 1361 917 bf 102 99 1463 917 bf
 0 1 0.0533333 c 102 99 1565 917 bf 102 99 1667 917 bf 102 99 1769 917 bf 102 99 1871 917 bf 102 98 340 1016 bf 102 98 442 1016 bf 102 98 544 1016 bf 102 98 646 1016 bf 1 0 0 c 102 98 748 1016 bf 102 98 850 1016 bf 102 98 952 1016 bf 103 98 1054 1016
 bf 0.88 1 0 c 102 98 1157 1016 bf 0.6 1 0 c 102 98 1259 1016 bf 102 98 1361 1016 bf 0.413333 1 0 c 102 98 1463 1016 bf 0 1 0.0533333 c 102 98 1565 1016 bf 102 98 1667 1016 bf 102 98 1769 1016 bf 102 98 1871 1016 bf 0.88 1 0 c 102 98 340 1114 bf 102
 98 442 1114 bf 102 98 544 1114 bf 102 98 646 1114 bf 102 98 748 1114 bf 102 98 850 1114 bf 102 98 952 1114 bf 103 98 1054 1114 bf 1 0 0 c 102 98 1157 1114 bf 102 98 1259 1114 bf 1 0.186667 0 c 102 98 1361 1114 bf 102 98 1463 1114 bf 0.413333 1 0 c
 102 98 1565 1114 bf 102 98 1667 1114 bf 102 98 1769 1114 bf 102 98 1871 1114 bf 1 0.933333 0 c 102 99 340 1212 bf 102 99 442 1212 bf 102 99 544 1212 bf 102 99 646 1212 bf 0.6 1 0 c 102 99 748 1212 bf 102 99 850 1212 bf 102 99 952 1212 bf 103 99 1054
 1212 bf 1 0 0 c 102 99 1157 1212 bf 102 99 1259 1212 bf 1 0.186667 0 c 102 99 1361 1212 bf 1 0.466667 0 c 102 99 1463 1212 bf 0.413333 1 0 c 102 99 1565 1212 bf 102 99 1667 1212 bf 102 99 1769 1212 bf 102 99 1871 1212 bf 0.6 1 0 c 102 98 340 1311 bf
 102 98 442 1311 bf 102 98 544 1311 bf 102 98 646 1311 bf 102 98 748 1311 bf 102 98 850 1311 bf 102 98 952 1311 bf 103 98 1054 1311 bf 1 0.186667 0 c 102 98 1157 1311 bf 102 98 1259 1311 bf 1 0 0 c 102 98 1361 1311 bf 1 0.466667 0 c 102 98 1463 1311
 bf 0.88 1 0 c 102 98 1565 1311 bf 0.6 1 0 c 102 98 1667 1311 bf 0.88 1 0 c 102 98 1769 1311 bf 102 98 1871 1311 bf 0.6 1 0 c 102 98 340 1409 bf 102 98 442 1409 bf 102 98 544 1409 bf 102 98 646 1409 bf 0.413333 1 0 c 102 98 748 1409 bf 102 98 850
 1409 bf 0.6 1 0 c 102 98 952 1409 bf 0.413333 1 0 c 103 98 1054 1409 bf 1 0.186667 0 c 102 98 1157 1409 bf 1 0.466667 0 c 102 98 1259 1409 bf 102 98 1361 1409 bf 1 0 0 c 102 98 1463 1409 bf 0.413333 1 0 c 102 98 1565 1409 bf 102 98 1667 1409 bf 102
 98 1769 1409 bf 102 98 1871 1409 bf 0 1 0.333333 c 102 98 340 1507 bf 102 98 442 1507 bf 102 98 544 1507 bf 102 98 646 1507 bf 0 1 0.0533333 c 102 98 748 1507 bf 102 98 850 1507 bf 102 98 952 1507 bf 103 98 1054 1507 bf 0.413333 1 0 c 102 98 1157
 1507 bf 102 98 1259 1507 bf 0.88 1 0 c 102 98 1361 1507 bf 0.413333 1 0 c 102 98 1463 1507 bf 1 0 0 c 102 98 1565 1507 bf 102 98 1667 1507 bf 102 98 1769 1507 bf 102 98 1871 1507 bf 0 1 0.333333 c 102 99 340 1605 bf 102 99 442 1605 bf 102 99 544
 1605 bf 102 99 646 1605 bf 0 1 0.0533333 c 102 99 748 1605 bf 102 99 850 1605 bf 102 99 952 1605 bf 103 99 1054 1605 bf 0.413333 1 0 c 102 99 1157 1605 bf 102 99 1259 1605 bf 0.6 1 0 c 102 99 1361 1605 bf 0.413333 1 0 c 102 99 1463 1605 bf 1 0 0 c
 102 99 1565 1605 bf 102 99 1667 1605 bf 102 99 1769 1605 bf 102 99 1871 1605 bf 0 1 0.333333 c 102 98 340 1704 bf 102 98 442 1704 bf 102 98 544 1704 bf 102 98 646 1704 bf 0 1 0.0533333 c 102 98 748 1704 bf 102 98 850 1704 bf 102 98 952 1704 bf 103
 98 1054 1704 bf 0.413333 1 0 c 102 98 1157 1704 bf 102 98 1259 1704 bf 0.88 1 0 c 102 98 1361 1704 bf 0.413333 1 0 c 102 98 1463 1704 bf 1 0 0 c 102 98 1565 1704 bf 102 98 1667 1704 bf 102 98 1769 1704 bf 102 98 1871 1704 bf 0 1 0.333333 c 102 98
 340 1802 bf 102 98 442 1802 bf 102 98 544 1802 bf 102 98 646 1802 bf 0 1 0.0533333 c 102 98 748 1802 bf 102 98 850 1802 bf 102 98 952 1802 bf 103 98 1054 1802 bf 0.413333 1 0 c 102 98 1157 1802 bf 102 98 1259 1802 bf 0.88 1 0 c 102 98 1361 1802 bf
 0.413333 1 0 c 102 98 1463 1802 bf 1 0 0 c 102 98 1565 1802 bf 102 98 1667 1802 bf 102 98 1769 1802 bf 102 98 1871 1802 bf 0.386667 0 1 c 102 78 1984 328 bf 0.2 0 1 c 102 79 1984 406 bf 0 0.0800001 1 c 102 79 1984 485 bf 0 0.266667 1 c 102 78 1984
 564 bf 0 0.546666 1 c 102 79 1984 642 bf 0 0.733333 1 c 102 78 1984 721 bf 0 1 0.986667 c 102 79 1984 799 bf 0 1 0.8 c 102 79 1984 878 bf 0 1 0.52 c 102 78 1984 957 bf 0 1 0.333333 c 102 79 1984 1035 bf 0 1 0.0533333 c 102 79 1984 1114 bf 0.133333 1
 0 c 102 78 1984 1193 bf 0.413333 1 0 c 102 79 1984 1271 bf 0.6 1 0 c 102 79 1984 1350 bf 0.88 1 0 c 102 78 1984 1429 bf 1 0.933333 0 c 102 79 1984 1507 bf 1 0.653333 0 c 102 78 1984 1586 bf 1 0.466667 0 c 102 79 1984 1664 bf 1 0.186667 0 c 102 79
 1984 1743 bf 1 0 0 c 102 78 1984 1822 bf black 2086 328 m 1572 Y s 2037 328 m 49 X s 2037 485 m 49 X s 2037 642 m 49 X s 2037 799 m 49 X s 2037 957 m 49 X s 2037 1114 m 49 X s 2037 1271 m 49 X s 2037 1429 m 49 X s 2037 1586 m 49 X s 2037 1743 m 49 X
 s 2037 1900 m 49 X s
 gsave  2268 2184 0 0 C 2134.99 303.373 t 0 r /Helvetica findfont 72.0512 sf 0 0 m (100) show NC gr 
 gsave  2268 2184 0 0 C 2097.07 303.373 t 0 r /Symbol findfont 72.0512 sf 0 0 m (-) show NC gr 
 gsave  2268 2184 0 0 C 2134.99 458.852 t 0 r /Helvetica findfont 72.0512 sf 0 0 m (80) show NC gr 
 gsave  2268 2184 0 0 C 2097.07 458.852 t 0 r /Symbol findfont 72.0512 sf 0 0 m (-) show NC gr 
 gsave  2268 2184 0 0 C 2134.99 618.123 t 0 r /Helvetica findfont 72.0512 sf 0 0 m (60) show NC gr 
 gsave  2268 2184 0 0 C 2097.07 618.123 t 0 r /Symbol findfont 72.0512 sf 0 0 m (-) show NC gr 
 gsave  2268 2184 0 0 C 2134.99 773.602 t 0 r /Helvetica findfont 72.0512 sf 0 0 m (40) show NC gr 
 gsave  2268 2184 0 0 C 2097.07 773.602 t 0 r /Symbol findfont 72.0512 sf 0 0 m (-) show NC gr 
 gsave  2268 2184 0 0 C 2134.99 932.873 t 0 r /Helvetica findfont 72.0512 sf 0 0 m (20) show NC gr 
 gsave  2268 2184 0 0 C 2097.07 932.873 t 0 r /Symbol findfont 72.0512 sf 0 0 m (-) show NC gr 
 gsave  2268 2184 0 0 C 2097.07 1088.35 t 0 r /Helvetica findfont 72.0512 sf 0 0 m (0) show NC gr 
 gsave  2268 2184 0 0 C 2097.07 1247.62 t 0 r /Helvetica findfont 72.0512 sf 0 0 m (20) show NC gr 
 gsave  2268 2184 0 0 C 2097.07 1403.1 t 0 r /Helvetica findfont 72.0512 sf 0 0 m (40) show NC gr 
 gsave  2268 2184 0 0 C 2097.07 1562.37 t 0 r /Helvetica findfont 72.0512 sf 0 0 m (60) show NC gr 
 gsave  2268 2184 0 0 C 2097.07 1717.85 t 0 r /Helvetica findfont 72.0512 sf 0 0 m (80) show NC gr 
 gsave  2268 2184 0 0 C 2097.07 1877.12 t 0 r /Helvetica findfont 72.0512 sf 0 0 m (100) show NC gr  1 1 1 c black 340 328 m 1633 X s
 gsave  2268 2184 0 0 C 383.009 261.66 t -19 r /Helvetica findfont 53.0903 sf 0 0 m (yy.H1_l2) show NC gr 
 gsave  2268 2184 0 0 C 485.398 261.66 t -19 r /Helvetica findfont 53.0903 sf 0 0 m (yy.HT_l2) show NC gr 
 gsave  2268 2184 0 0 C 583.994 261.66 t -19 r /Helvetica findfont 53.0903 sf 0 0 m (yy.HP_l2) show NC gr 
 gsave  2268 2184 0 0 C 686.382 261.66 t -19 r /Helvetica findfont 53.0903 sf 0 0 m (yy.HY_l2) show NC gr 
 gsave  2268 2184 0 0 C 788.771 261.66 t -19 r /Helvetica findfont 53.0903 sf 0 0 m (bb.H1_l2) show NC gr 
 gsave  2268 2184 0 0 C 891.159 261.66 t -19 r /Helvetica findfont 53.0903 sf 0 0 m (bb.HT_l2) show NC gr 
 gsave  2268 2184 0 0 C 993.548 261.66 t -19 r /Helvetica findfont 53.0903 sf 0 0 m (bb.HP_l2) show NC gr 
 gsave  2268 2184 0 0 C 1095.94 261.66 t -19 r /Helvetica findfont 53.0903 sf 0 0 m (bb.HY_l2) show NC gr 
 gsave  2268 2184 0 0 C 1198.33 261.66 t -19 r /Helvetica findfont 53.0903 sf 0 0 m (yybb.H1_l2) show NC gr 
 gsave  2268 2184 0 0 C 1300.71 261.66 t -19 r /Helvetica findfont 53.0903 sf 0 0 m (yybb.HT_l2) show NC gr 
 gsave  2268 2184 0 0 C 1403.1 261.66 t -19 r /Helvetica findfont 53.0903 sf 0 0 m (yybb.HP_l2) show NC gr 
 gsave  2268 2184 0 0 C 1505.49 261.66 t -19 r /Helvetica findfont 53.0903 sf 0 0 m (yybb.HY_l2) show NC gr 
 gsave  2268 2184 0 0 C 1607.88 261.66 t -19 r /Helvetica findfont 53.0903 sf 0 0 m (hh.H1_l2) show NC gr 
 gsave  2268 2184 0 0 C 1706.48 261.66 t -19 r /Helvetica findfont 53.0903 sf 0 0 m (hh.HT_l2) show NC gr 
 gsave  2268 2184 0 0 C 1808.86 261.66 t -19 r /Helvetica findfont 53.0903 sf 0 0 m (hh.HP_l2) show NC gr 
 gsave  2268 2184 0 0 C 1911.25 261.66 t -19 r /Helvetica findfont 53.0903 sf 0 0 m (hh.HY_l2) show NC gr  340 375 m -47 Y s[ 4 8] 0 sd 340 1900 m -1572 Y s[  ] 0 sd 442 375 m -47 Y s[ 4 8] 0 sd 442 1900 m -1572 Y s[  ] 0 sd 544 375 m -47 Y s[ 4 8] 0
 sd 544 1900 m -1572 Y s[  ] 0 sd 646 375 m -47 Y s[ 4 8] 0 sd 646 1900 m -1572 Y s[  ] 0 sd 748 375 m -47 Y s[ 4 8] 0 sd 748 1900 m -1572 Y s[  ] 0 sd 850 375 m -47 Y s[ 4 8] 0 sd 850 1900 m -1572 Y s[  ] 0 sd 952 375 m -47 Y s[ 4 8] 0 sd 952 1900 m
 -1572 Y s[  ] 0 sd 1054 375 m -47 Y s[ 4 8] 0 sd 1054 1900 m -1572 Y s[  ] 0 sd 1157 375 m -47 Y s[ 4 8] 0 sd 1157 1900 m -1572 Y s[  ] 0 sd 1259 375 m -47 Y s[ 4 8] 0 sd 1259 1900 m -1572 Y s[  ] 0 sd 1361 375 m -47 Y s[ 4 8] 0 sd 1361 1900 m -1572
 Y s[  ] 0 sd 1463 375 m -47 Y s[ 4 8] 0 sd 1463 1900 m -1572 Y s[  ] 0 sd 1565 375 m -47 Y s[ 4 8] 0 sd 1565 1900 m -1572 Y s[  ] 0 sd 1667 375 m -47 Y s[ 4 8] 0 sd 1667 1900 m -1572 Y s[  ] 0 sd 1769 375 m -47 Y s[ 4 8] 0 sd 1769 1900 m -1572 Y s[ 
 ] 0 sd 1871 375 m -47 Y s[ 4 8] 0 sd 1871 1900 m -1572 Y s[  ] 0 sd 1973 375 m -47 Y s[ 4 8] 0 sd 1973 1900 m -1572 Y s[  ] 0 sd 340 1900 m 1633 X s 340 1853 m 47 Y s 442 1853 m 47 Y s 544 1853 m 47 Y s 646 1853 m 47 Y s 748 1853 m 47 Y s 850 1853 m
 47 Y s 952 1853 m 47 Y s 1054 1853 m 47 Y s 1157 1853 m 47 Y s 1259 1853 m 47 Y s 1361 1853 m 47 Y s 1463 1853 m 47 Y s 1565 1853 m 47 Y s 1667 1853 m 47 Y s 1769 1853 m 47 Y s 1871 1853 m 47 Y s 1973 1853 m 47 Y s 340 328 m 1572 Y s
 gsave  2268 2184 0 0 C 113.765 364.048 t 0 r /Helvetica findfont 53.0903 sf 0 0 m (yy.H1_l2) show NC gr 
 gsave  2268 2184 0 0 C 109.973 462.645 t 0 r /Helvetica findfont 53.0903 sf 0 0 m (yy.HT_l2) show NC gr 
 gsave  2268 2184 0 0 C 106.181 561.241 t 0 r /Helvetica findfont 53.0903 sf 0 0 m (yy.HP_l2) show NC gr 
 gsave  2268 2184 0 0 C 106.181 659.837 t 0 r /Helvetica findfont 53.0903 sf 0 0 m (yy.HY_l2) show NC gr 
 gsave  2268 2184 0 0 C 106.181 754.641 t 0 r /Helvetica findfont 53.0903 sf 0 0 m (bb.H1_l2) show NC gr 
 gsave  2268 2184 0 0 C 98.5964 849.446 t 0 r /Helvetica findfont 53.0903 sf 0 0 m (bb.HT_l2) show NC gr 
 gsave  2268 2184 0 0 C 98.5964 948.042 t 0 r /Helvetica findfont 53.0903 sf 0 0 m (bb.HP_l2) show NC gr 
 gsave  2268 2184 0 0 C 98.5964 1046.64 t 0 r /Helvetica findfont 53.0903 sf 0 0 m (bb.HY_l2) show NC gr 
 gsave  2268 2184 0 0 C 53.0904 1149.03 t 0 r /Helvetica findfont 53.0903 sf 0 0 m (yybb.H1_l2) show NC gr 
 gsave  2268 2184 0 0 C 49.2982 1247.62 t 0 r /Helvetica findfont 53.0903 sf 0 0 m (yybb.HT_l2) show NC gr 
 gsave  2268 2184 0 0 C 49.2982 1346.22 t 0 r /Helvetica findfont 53.0903 sf 0 0 m (yybb.HP_l2) show NC gr 
 gsave  2268 2184 0 0 C 45.506 1444.82 t 0 r /Helvetica findfont 53.0903 sf 0 0 m (yybb.HY_l2) show NC gr 
 gsave  2268 2184 0 0 C 106.181 1539.62 t 0 r /Helvetica findfont 53.0903 sf 0 0 m (hh.H1_l2) show NC gr 
 gsave  2268 2184 0 0 C 102.389 1638.22 t 0 r /Helvetica findfont 53.0903 sf 0 0 m (hh.HT_l2) show NC gr 
 gsave  2268 2184 0 0 C 102.389 1736.81 t 0 r /Helvetica findfont 53.0903 sf 0 0 m (hh.HP_l2) show NC gr 
 gsave  2268 2184 0 0 C 98.5964 1835.41 t 0 r /Helvetica findfont 53.0903 sf 0 0 m (hh.HY_l2) show NC gr  389 328 m -49 X s[ 4 8] 0 sd 1973 328 m -1633 X s[  ] 0 sd 389 426 m -49 X s[ 4 8] 0 sd 1973 426 m -1633 X s[  ] 0 sd 389 524 m -49 X s[ 4 8] 0
 sd 1973 524 m -1633 X s[  ] 0 sd 389 623 m -49 X s[ 4 8] 0 sd 1973 623 m -1633 X s[  ] 0 sd 389 721 m -49 X s[ 4 8] 0 sd 1973 721 m -1633 X s[  ] 0 sd 389 819 m -49 X s[ 4 8] 0 sd 1973 819 m -1633 X s[  ] 0 sd 389 917 m -49 X s[ 4 8] 0 sd 1973 917 m
 -1633 X s[  ] 0 sd 389 1016 m -49 X s[ 4 8] 0 sd 1973 1016 m -1633 X s[  ] 0 sd 389 1114 m -49 X s[ 4 8] 0 sd 1973 1114 m -1633 X s[  ] 0 sd 389 1212 m -49 X s[ 4 8] 0 sd 1973 1212 m -1633 X s[  ] 0 sd 389 1311 m -49 X s[ 4 8] 0 sd 1973 1311 m -1633
 X s[  ] 0 sd 389 1409 m -49 X s[ 4 8] 0 sd 1973 1409 m -1633 X s[  ] 0 sd 389 1507 m -49 X s[ 4 8] 0 sd 1973 1507 m -1633 X s[  ] 0 sd 389 1605 m -49 X s[ 4 8] 0 sd 1973 1605 m -1633 X s[  ] 0 sd 389 1704 m -49 X s[ 4 8] 0 sd 1973 1704 m -1633 X s[ 
 ] 0 sd 389 1802 m -49 X s[ 4 8] 0 sd 1973 1802 m -1633 X s[  ] 0 sd 389 1900 m -49 X s[ 4 8] 0 sd 1973 1900 m -1633 X s[  ] 0 sd 1973 328 m 1572 Y s 1924 328 m 49 X s 1924 426 m 49 X s 1924 524 m 49 X s 1924 623 m 49 X s 1924 721 m 49 X s 1924 819 m
 49 X s 1924 917 m 49 X s 1924 1016 m 49 X s 1924 1114 m 49 X s 1924 1212 m 49 X s 1924 1311 m 49 X s 1924 1409 m 49 X s 1924 1507 m 49 X s 1924 1605 m 49 X s 1924 1704 m 49 X s 1924 1802 m 49 X s 1924 1900 m 49 X s 0.490196 0.545098 0.615686 c
 0.364706 0.419608 0.490196 c 1587 127 23 2046 bf 0.490196 0.545098 0.615686 c 23 2046 m 1587 X s 1610 2046 m 127 Y s 1610 2173 m -1587 X s 23 2173 m -127 Y s 1 1 1 c black 1 1 1 c
 gsave  2268 2184 0 0 C 87.2199 2085.69 t 0 r /Helvetica-Bold findfont 94.8042 sf 0 0 m (Correlation Matrix \(background\)) show NC gr  black 1 1 1 c
 gsave  2268 2184 0 0 C 337.503 356.464 t 0 r /Helvetica-Bold findfont 60.6747 sf 0 0 m (100) show NC gr  black 1 1 1 c
 gsave  2268 2184 0 0 C 451.268 356.464 t 0 r /Helvetica-Bold findfont 60.6747 sf 0 0 m ( 99) show NC gr  black 1 1 1 c
 gsave  2268 2184 0 0 C 549.864 356.464 t 0 r /Helvetica-Bold findfont 60.6747 sf 0 0 m ( 98) show NC gr  black 1 1 1 c
 gsave  2268 2184 0 0 C 652.253 356.464 t 0 r /Helvetica-Bold findfont 60.6747 sf 0 0 m ( 99) show NC gr  black 1 1 1 c
 gsave  2268 2184 0 0 C 762.226 356.464 t 0 r /Helvetica-Bold findfont 60.6747 sf 0 0 m (  5) show NC gr  black 1 1 1 c
 gsave  2268 2184 0 0 C 864.614 352.672 t 0 r /Helvetica-Bold findfont 60.6747 sf 0 0 m (  4) show NC gr  black 1 1 1 c
 gsave  2268 2184 0 0 C 967.003 356.464 t 0 r /Helvetica-Bold findfont 60.6747 sf 0 0 m (  5) show NC gr  black 1 1 1 c
 gsave  2268 2184 0 0 C 1069.39 356.464 t 0 r /Helvetica-Bold findfont 60.6747 sf 0 0 m (  5) show NC gr  black 1 1 1 c
 gsave  2268 2184 0 0 C 1164.2 352.672 t 0 r /Helvetica-Bold findfont 60.6747 sf 0 0 m ( 47) show NC gr  black 1 1 1 c
 gsave  2268 2184 0 0 C 1266.58 356.464 t 0 r /Helvetica-Bold findfont 60.6747 sf 0 0 m ( 50) show NC gr  black 1 1 1 c
 gsave  2268 2184 0 0 C 1368.97 356.464 t 0 r /Helvetica-Bold findfont 60.6747 sf 0 0 m ( 36) show NC gr  black 1 1 1 c
 gsave  2268 2184 0 0 C 1471.36 356.464 t 0 r /Helvetica-Bold findfont 60.6747 sf 0 0 m ( 35) show NC gr  black 1 1 1 c
 gsave  2268 2184 0 0 C 1577.54 352.672 t 0 r /Helvetica-Bold findfont 60.6747 sf 0 0 m ( \2552) show NC gr  black 1 1 1 c
 gsave  2268 2184 0 0 C 1676.14 352.672 t 0 r /Helvetica-Bold findfont 60.6747 sf 0 0 m ( \2552) show NC gr  black 1 1 1 c
 gsave  2268 2184 0 0 C 1778.53 356.464 t 0 r /Helvetica-Bold findfont 60.6747 sf 0 0 m ( \2553) show NC gr  black 1 1 1 c
 gsave  2268 2184 0 0 C 1880.92 352.672 t 0 r /Helvetica-Bold findfont 60.6747 sf 0 0 m ( \2552) show NC gr  black 1 1 1 c
 gsave  2268 2184 0 0 C 348.879 455.06 t 0 r /Helvetica-Bold findfont 60.6747 sf 0 0 m ( 99) show NC gr  black 1 1 1 c
 gsave  2268 2184 0 0 C 439.892 455.06 t 0 r /Helvetica-Bold findfont 60.6747 sf 0 0 m (100) show NC gr  black 1 1 1 c
 gsave  2268 2184 0 0 C 549.864 455.06 t 0 r /Helvetica-Bold findfont 60.6747 sf 0 0 m ( 99) show NC gr  black 1 1 1 c
 gsave  2268 2184 0 0 C 652.253 455.06 t 0 r /Helvetica-Bold findfont 60.6747 sf 0 0 m ( 99) show NC gr  black 1 1 1 c
 gsave  2268 2184 0 0 C 762.226 455.06 t 0 r /Helvetica-Bold findfont 60.6747 sf 0 0 m (  5) show NC gr  black 1 1 1 c
 gsave  2268 2184 0 0 C 864.614 451.268 t 0 r /Helvetica-Bold findfont 60.6747 sf 0 0 m (  4) show NC gr  black 1 1 1 c
 gsave  2268 2184 0 0 C 967.003 455.06 t 0 r /Helvetica-Bold findfont 60.6747 sf 0 0 m (  5) show NC gr  black 1 1 1 c
 gsave  2268 2184 0 0 C 1069.39 455.06 t 0 r /Helvetica-Bold findfont 60.6747 sf 0 0 m (  5) show NC gr  black 1 1 1 c
 gsave  2268 2184 0 0 C 1164.2 455.06 t 0 r /Helvetica-Bold findfont 60.6747 sf 0 0 m ( 46) show NC gr  black 1 1 1 c
 gsave  2268 2184 0 0 C 1266.58 455.06 t 0 r /Helvetica-Bold findfont 60.6747 sf 0 0 m ( 50) show NC gr  black 1 1 1 c
 gsave  2268 2184 0 0 C 1368.97 455.06 t 0 r /Helvetica-Bold findfont 60.6747 sf 0 0 m ( 36) show NC gr  black 1 1 1 c
 gsave  2268 2184 0 0 C 1471.36 455.06 t 0 r /Helvetica-Bold findfont 60.6747 sf 0 0 m ( 34) show NC gr  black 1 1 1 c
 gsave  2268 2184 0 0 C 1577.54 455.06 t 0 r /Helvetica-Bold findfont 60.6747 sf 0 0 m ( \2553) show NC gr  black 1 1 1 c
 gsave  2268 2184 0 0 C 1676.14 455.06 t 0 r /Helvetica-Bold findfont 60.6747 sf 0 0 m ( \2553) show NC gr  black 1 1 1 c
 gsave  2268 2184 0 0 C 1778.53 451.268 t 0 r /Helvetica-Bold findfont 60.6747 sf 0 0 m ( \2554) show NC gr  black 1 1 1 c
 gsave  2268 2184 0 0 C 1880.92 455.06 t 0 r /Helvetica-Bold findfont 60.6747 sf 0 0 m ( \2553) show NC gr  black 1 1 1 c
 gsave  2268 2184 0 0 C 348.879 553.657 t 0 r /Helvetica-Bold findfont 60.6747 sf 0 0 m ( 98) show NC gr  black 1 1 1 c
 gsave  2268 2184 0 0 C 451.268 553.657 t 0 r /Helvetica-Bold findfont 60.6747 sf 0 0 m ( 99) show NC gr  black 1 1 1 c
 gsave  2268 2184 0 0 C 538.488 553.657 t 0 r /Helvetica-Bold findfont 60.6747 sf 0 0 m (100) show NC gr  black 1 1 1 c
 gsave  2268 2184 0 0 C 652.253 553.657 t 0 r /Helvetica-Bold findfont 60.6747 sf 0 0 m ( 98) show NC gr  black 1 1 1 c
 gsave  2268 2184 0 0 C 762.226 553.657 t 0 r /Helvetica-Bold findfont 60.6747 sf 0 0 m (  5) show NC gr  black 1 1 1 c
 gsave  2268 2184 0 0 C 864.614 553.657 t 0 r /Helvetica-Bold findfont 60.6747 sf 0 0 m (  5) show NC gr  black 1 1 1 c
 gsave  2268 2184 0 0 C 967.003 553.657 t 0 r /Helvetica-Bold findfont 60.6747 sf 0 0 m (  5) show NC gr  black 1 1 1 c
 gsave  2268 2184 0 0 C 1069.39 553.657 t 0 r /Helvetica-Bold findfont 60.6747 sf 0 0 m (  5) show NC gr  black 1 1 1 c
 gsave  2268 2184 0 0 C 1164.2 553.657 t 0 r /Helvetica-Bold findfont 60.6747 sf 0 0 m ( 46) show NC gr  black 1 1 1 c
 gsave  2268 2184 0 0 C 1266.58 553.657 t 0 r /Helvetica-Bold findfont 60.6747 sf 0 0 m ( 50) show NC gr  black 1 1 1 c
 gsave  2268 2184 0 0 C 1368.97 553.657 t 0 r /Helvetica-Bold findfont 60.6747 sf 0 0 m ( 37) show NC gr  black 1 1 1 c
 gsave  2268 2184 0 0 C 1471.36 553.657 t 0 r /Helvetica-Bold findfont 60.6747 sf 0 0 m ( 35) show NC gr  black 1 1 1 c
 gsave  2268 2184 0 0 C 1577.54 553.657 t 0 r /Helvetica-Bold findfont 60.6747 sf 0 0 m ( \2553) show NC gr  black 1 1 1 c
 gsave  2268 2184 0 0 C 1676.14 553.657 t 0 r /Helvetica-Bold findfont 60.6747 sf 0 0 m ( \2553) show NC gr  black 1 1 1 c
 gsave  2268 2184 0 0 C 1778.53 549.864 t 0 r /Helvetica-Bold findfont 60.6747 sf 0 0 m ( \2554) show NC gr  black 1 1 1 c
 gsave  2268 2184 0 0 C 1880.92 553.657 t 0 r /Helvetica-Bold findfont 60.6747 sf 0 0 m ( \2553) show NC gr  black 1 1 1 c
 gsave  2268 2184 0 0 C 348.879 652.253 t 0 r /Helvetica-Bold findfont 60.6747 sf 0 0 m ( 99) show NC gr  black 1 1 1 c
 gsave  2268 2184 0 0 C 451.268 652.253 t 0 r /Helvetica-Bold findfont 60.6747 sf 0 0 m ( 99) show NC gr  black 1 1 1 c
 gsave  2268 2184 0 0 C 549.864 652.253 t 0 r /Helvetica-Bold findfont 60.6747 sf 0 0 m ( 98) show NC gr  black 1 1 1 c
 gsave  2268 2184 0 0 C 640.876 652.253 t 0 r /Helvetica-Bold findfont 60.6747 sf 0 0 m (100) show NC gr  black 1 1 1 c
 gsave  2268 2184 0 0 C 762.226 652.253 t 0 r /Helvetica-Bold findfont 60.6747 sf 0 0 m (  5) show NC gr  black 1 1 1 c
 gsave  2268 2184 0 0 C 864.614 648.461 t 0 r /Helvetica-Bold findfont 60.6747 sf 0 0 m (  4) show NC gr  black 1 1 1 c
 gsave  2268 2184 0 0 C 967.003 652.253 t 0 r /Helvetica-Bold findfont 60.6747 sf 0 0 m (  5) show NC gr  black 1 1 1 c
 gsave  2268 2184 0 0 C 1069.39 652.253 t 0 r /Helvetica-Bold findfont 60.6747 sf 0 0 m (  5) show NC gr  black 1 1 1 c
 gsave  2268 2184 0 0 C 1164.2 648.461 t 0 r /Helvetica-Bold findfont 60.6747 sf 0 0 m ( 47) show NC gr  black 1 1 1 c
 gsave  2268 2184 0 0 C 1266.58 652.253 t 0 r /Helvetica-Bold findfont 60.6747 sf 0 0 m ( 50) show NC gr  black 1 1 1 c
 gsave  2268 2184 0 0 C 1368.97 652.253 t 0 r /Helvetica-Bold findfont 60.6747 sf 0 0 m ( 36) show NC gr  black 1 1 1 c
 gsave  2268 2184 0 0 C 1471.36 652.253 t 0 r /Helvetica-Bold findfont 60.6747 sf 0 0 m ( 35) show NC gr  black 1 1 1 c
 gsave  2268 2184 0 0 C 1577.54 648.461 t 0 r /Helvetica-Bold findfont 60.6747 sf 0 0 m ( \2552) show NC gr  black 1 1 1 c
 gsave  2268 2184 0 0 C 1676.14 648.461 t 0 r /Helvetica-Bold findfont 60.6747 sf 0 0 m ( \2552) show NC gr  black 1 1 1 c
 gsave  2268 2184 0 0 C 1778.53 652.253 t 0 r /Helvetica-Bold findfont 60.6747 sf 0 0 m ( \2553) show NC gr  black 1 1 1 c
 gsave  2268 2184 0 0 C 1880.92 648.461 t 0 r /Helvetica-Bold findfont 60.6747 sf 0 0 m ( \2552) show NC gr  black 1 1 1 c
 gsave  2268 2184 0 0 C 356.464 750.849 t 0 r /Helvetica-Bold findfont 60.6747 sf 0 0 m (  5) show NC gr  black 1 1 1 c
 gsave  2268 2184 0 0 C 458.852 750.849 t 0 r /Helvetica-Bold findfont 60.6747 sf 0 0 m (  5) show NC gr  black 1 1 1 c
 gsave  2268 2184 0 0 C 557.449 750.849 t 0 r /Helvetica-Bold findfont 60.6747 sf 0 0 m (  5) show NC gr  black 1 1 1 c
 gsave  2268 2184 0 0 C 659.837 750.849 t 0 r /Helvetica-Bold findfont 60.6747 sf 0 0 m (  5) show NC gr  black 1 1 1 c
 gsave  2268 2184 0 0 C 743.265 750.849 t 0 r /Helvetica-Bold findfont 60.6747 sf 0 0 m (100) show NC gr  black 1 1 1 c
 gsave  2268 2184 0 0 C 857.03 750.849 t 0 r /Helvetica-Bold findfont 60.6747 sf 0 0 m ( 99) show NC gr  black 1 1 1 c
 gsave  2268 2184 0 0 C 959.419 750.849 t 0 r /Helvetica-Bold findfont 60.6747 sf 0 0 m ( 98) show NC gr  black 1 1 1 c
 gsave  2268 2184 0 0 C 1050.43 750.849 t 0 r /Helvetica-Bold findfont 60.6747 sf 0 0 m (100) show NC gr  black 1 1 1 c
 gsave  2268 2184 0 0 C 1164.2 750.849 t 0 r /Helvetica-Bold findfont 60.6747 sf 0 0 m ( 48) show NC gr  black 1 1 1 c
 gsave  2268 2184 0 0 C 1266.58 750.849 t 0 r /Helvetica-Bold findfont 60.6747 sf 0 0 m ( 38) show NC gr  black 1 1 1 c
 gsave  2268 2184 0 0 C 1368.97 750.849 t 0 r /Helvetica-Bold findfont 60.6747 sf 0 0 m ( 36) show NC gr  black 1 1 1 c
 gsave  2268 2184 0 0 C 1471.36 750.849 t 0 r /Helvetica-Bold findfont 60.6747 sf 0 0 m ( 29) show NC gr  black 1 1 1 c
 gsave  2268 2184 0 0 C 356.464 841.861 t 0 r /Helvetica-Bold findfont 60.6747 sf 0 0 m (  4) show NC gr  black 1 1 1 c
 gsave  2268 2184 0 0 C 458.852 841.861 t 0 r /Helvetica-Bold findfont 60.6747 sf 0 0 m (  4) show NC gr  black 1 1 1 c
 gsave  2268 2184 0 0 C 557.449 845.653 t 0 r /Helvetica-Bold findfont 60.6747 sf 0 0 m (  5) show NC gr  black 1 1 1 c
 gsave  2268 2184 0 0 C 659.837 841.861 t 0 r /Helvetica-Bold findfont 60.6747 sf 0 0 m (  4) show NC gr  black 1 1 1 c
 gsave  2268 2184 0 0 C 754.641 845.653 t 0 r /Helvetica-Bold findfont 60.6747 sf 0 0 m ( 99) show NC gr  black 1 1 1 c
 gsave  2268 2184 0 0 C 845.654 845.653 t 0 r /Helvetica-Bold findfont 60.6747 sf 0 0 m (100) show NC gr  black 1 1 1 c
 gsave  2268 2184 0 0 C 959.419 845.653 t 0 r /Helvetica-Bold findfont 60.6747 sf 0 0 m ( 98) show NC gr  black 1 1 1 c
 gsave  2268 2184 0 0 C 1061.81 845.653 t 0 r /Helvetica-Bold findfont 60.6747 sf 0 0 m ( 99) show NC gr  black 1 1 1 c
 gsave  2268 2184 0 0 C 1164.2 845.653 t 0 r /Helvetica-Bold findfont 60.6747 sf 0 0 m ( 48) show NC gr  black 1 1 1 c
 gsave  2268 2184 0 0 C 1266.58 845.653 t 0 r /Helvetica-Bold findfont 60.6747 sf 0 0 m ( 38) show NC gr  black 1 1 1 c
 gsave  2268 2184 0 0 C 1368.97 845.653 t 0 r /Helvetica-Bold findfont 60.6747 sf 0 0 m ( 35) show NC gr  black 1 1 1 c
 gsave  2268 2184 0 0 C 1471.36 845.653 t 0 r /Helvetica-Bold findfont 60.6747 sf 0 0 m ( 29) show NC gr  black 1 1 1 c
 gsave  2268 2184 0 0 C 356.464 944.25 t 0 r /Helvetica-Bold findfont 60.6747 sf 0 0 m (  5) show NC gr  black 1 1 1 c
 gsave  2268 2184 0 0 C 458.852 944.25 t 0 r /Helvetica-Bold findfont 60.6747 sf 0 0 m (  5) show NC gr  black 1 1 1 c
 gsave  2268 2184 0 0 C 557.449 944.25 t 0 r /Helvetica-Bold findfont 60.6747 sf 0 0 m (  5) show NC gr  black 1 1 1 c
 gsave  2268 2184 0 0 C 659.837 944.25 t 0 r /Helvetica-Bold findfont 60.6747 sf 0 0 m (  5) show NC gr  black 1 1 1 c
 gsave  2268 2184 0 0 C 754.641 944.25 t 0 r /Helvetica-Bold findfont 60.6747 sf 0 0 m ( 98) show NC gr  black 1 1 1 c
 gsave  2268 2184 0 0 C 857.03 944.25 t 0 r /Helvetica-Bold findfont 60.6747 sf 0 0 m ( 98) show NC gr  black 1 1 1 c
 gsave  2268 2184 0 0 C 948.042 944.25 t 0 r /Helvetica-Bold findfont 60.6747 sf 0 0 m (100) show NC gr  black 1 1 1 c
 gsave  2268 2184 0 0 C 1061.81 944.25 t 0 r /Helvetica-Bold findfont 60.6747 sf 0 0 m ( 98) show NC gr  black 1 1 1 c
 gsave  2268 2184 0 0 C 1164.2 940.458 t 0 r /Helvetica-Bold findfont 60.6747 sf 0 0 m ( 47) show NC gr  black 1 1 1 c
 gsave  2268 2184 0 0 C 1266.58 944.25 t 0 r /Helvetica-Bold findfont 60.6747 sf 0 0 m ( 38) show NC gr  black 1 1 1 c
 gsave  2268 2184 0 0 C 1368.97 944.25 t 0 r /Helvetica-Bold findfont 60.6747 sf 0 0 m ( 36) show NC gr  black 1 1 1 c
 gsave  2268 2184 0 0 C 1471.36 944.25 t 0 r /Helvetica-Bold findfont 60.6747 sf 0 0 m ( 30) show NC gr  black 1 1 1 c
 gsave  2268 2184 0 0 C 1585.13 940.458 t 0 r /Helvetica-Bold findfont 60.6747 sf 0 0 m (  1) show NC gr  black 1 1 1 c
 gsave  2268 2184 0 0 C 1888.5 940.458 t 0 r /Helvetica-Bold findfont 60.6747 sf 0 0 m (  1) show NC gr  black 1 1 1 c
 gsave  2268 2184 0 0 C 356.464 1042.85 t 0 r /Helvetica-Bold findfont 60.6747 sf 0 0 m (  5) show NC gr  black 1 1 1 c
 gsave  2268 2184 0 0 C 458.852 1042.85 t 0 r /Helvetica-Bold findfont 60.6747 sf 0 0 m (  5) show NC gr  black 1 1 1 c
 gsave  2268 2184 0 0 C 557.449 1042.85 t 0 r /Helvetica-Bold findfont 60.6747 sf 0 0 m (  5) show NC gr  black 1 1 1 c
 gsave  2268 2184 0 0 C 659.837 1042.85 t 0 r /Helvetica-Bold findfont 60.6747 sf 0 0 m (  5) show NC gr  black 1 1 1 c
 gsave  2268 2184 0 0 C 743.265 1042.85 t 0 r /Helvetica-Bold findfont 60.6747 sf 0 0 m (100) show NC gr  black 1 1 1 c
 gsave  2268 2184 0 0 C 857.03 1042.85 t 0 r /Helvetica-Bold findfont 60.6747 sf 0 0 m ( 99) show NC gr  black 1 1 1 c
 gsave  2268 2184 0 0 C 959.419 1042.85 t 0 r /Helvetica-Bold findfont 60.6747 sf 0 0 m ( 98) show NC gr  black 1 1 1 c
 gsave  2268 2184 0 0 C 1050.43 1042.85 t 0 r /Helvetica-Bold findfont 60.6747 sf 0 0 m (100) show NC gr  black 1 1 1 c
 gsave  2268 2184 0 0 C 1164.2 1042.85 t 0 r /Helvetica-Bold findfont 60.6747 sf 0 0 m ( 48) show NC gr  black 1 1 1 c
 gsave  2268 2184 0 0 C 1266.58 1042.85 t 0 r /Helvetica-Bold findfont 60.6747 sf 0 0 m ( 38) show NC gr  black 1 1 1 c
 gsave  2268 2184 0 0 C 1368.97 1042.85 t 0 r /Helvetica-Bold findfont 60.6747 sf 0 0 m ( 36) show NC gr  black 1 1 1 c
 gsave  2268 2184 0 0 C 1471.36 1042.85 t 0 r /Helvetica-Bold findfont 60.6747 sf 0 0 m ( 29) show NC gr  black 1 1 1 c
 gsave  2268 2184 0 0 C 348.879 1137.65 t 0 r /Helvetica-Bold findfont 60.6747 sf 0 0 m ( 47) show NC gr  black 1 1 1 c
 gsave  2268 2184 0 0 C 451.268 1141.44 t 0 r /Helvetica-Bold findfont 60.6747 sf 0 0 m ( 46) show NC gr  black 1 1 1 c
 gsave  2268 2184 0 0 C 549.864 1141.44 t 0 r /Helvetica-Bold findfont 60.6747 sf 0 0 m ( 46) show NC gr  black 1 1 1 c
 gsave  2268 2184 0 0 C 652.253 1137.65 t 0 r /Helvetica-Bold findfont 60.6747 sf 0 0 m ( 47) show NC gr  black 1 1 1 c
 gsave  2268 2184 0 0 C 754.641 1141.44 t 0 r /Helvetica-Bold findfont 60.6747 sf 0 0 m ( 48) show NC gr  black 1 1 1 c
 gsave  2268 2184 0 0 C 857.03 1141.44 t 0 r /Helvetica-Bold findfont 60.6747 sf 0 0 m ( 48) show NC gr  black 1 1 1 c
 gsave  2268 2184 0 0 C 959.419 1137.65 t 0 r /Helvetica-Bold findfont 60.6747 sf 0 0 m ( 47) show NC gr  black 1 1 1 c
 gsave  2268 2184 0 0 C 1061.81 1141.44 t 0 r /Helvetica-Bold findfont 60.6747 sf 0 0 m ( 48) show NC gr  black 1 1 1 c
 gsave  2268 2184 0 0 C 1152.82 1141.44 t 0 r /Helvetica-Bold findfont 60.6747 sf 0 0 m (100) show NC gr  black 1 1 1 c
 gsave  2268 2184 0 0 C 1266.58 1141.44 t 0 r /Helvetica-Bold findfont 60.6747 sf 0 0 m ( 93) show NC gr  black 1 1 1 c
 gsave  2268 2184 0 0 C 1368.97 1141.44 t 0 r /Helvetica-Bold findfont 60.6747 sf 0 0 m ( 86) show NC gr  black 1 1 1 c
 gsave  2268 2184 0 0 C 1475.15 1141.44 t 0 r /Helvetica-Bold findfont 60.6747 sf 0 0 m ( 81) show NC gr  black 1 1 1 c
 gsave  2268 2184 0 0 C 1573.75 1137.65 t 0 r /Helvetica-Bold findfont 60.6747 sf 0 0 m ( 22) show NC gr  black 1 1 1 c
 gsave  2268 2184 0 0 C 1676.14 1137.65 t 0 r /Helvetica-Bold findfont 60.6747 sf 0 0 m ( 21) show NC gr  black 1 1 1 c
 gsave  2268 2184 0 0 C 1778.53 1137.65 t 0 r /Helvetica-Bold findfont 60.6747 sf 0 0 m ( 21) show NC gr  black 1 1 1 c
 gsave  2268 2184 0 0 C 1877.12 1137.65 t 0 r /Helvetica-Bold findfont 60.6747 sf 0 0 m ( 22) show NC gr  black 1 1 1 c
 gsave  2268 2184 0 0 C 348.879 1240.04 t 0 r /Helvetica-Bold findfont 60.6747 sf 0 0 m ( 50) show NC gr  black 1 1 1 c
 gsave  2268 2184 0 0 C 451.268 1240.04 t 0 r /Helvetica-Bold findfont 60.6747 sf 0 0 m ( 50) show NC gr  black 1 1 1 c
 gsave  2268 2184 0 0 C 549.864 1240.04 t 0 r /Helvetica-Bold findfont 60.6747 sf 0 0 m ( 50) show NC gr  black 1 1 1 c
 gsave  2268 2184 0 0 C 652.253 1240.04 t 0 r /Helvetica-Bold findfont 60.6747 sf 0 0 m ( 50) show NC gr  black 1 1 1 c
 gsave  2268 2184 0 0 C 754.641 1240.04 t 0 r /Helvetica-Bold findfont 60.6747 sf 0 0 m ( 38) show NC gr  black 1 1 1 c
 gsave  2268 2184 0 0 C 857.03 1240.04 t 0 r /Helvetica-Bold findfont 60.6747 sf 0 0 m ( 38) show NC gr  black 1 1 1 c
 gsave  2268 2184 0 0 C 959.419 1240.04 t 0 r /Helvetica-Bold findfont 60.6747 sf 0 0 m ( 38) show NC gr  black 1 1 1 c
 gsave  2268 2184 0 0 C 1061.81 1240.04 t 0 r /Helvetica-Bold findfont 60.6747 sf 0 0 m ( 38) show NC gr  black 1 1 1 c
 gsave  2268 2184 0 0 C 1164.2 1240.04 t 0 r /Helvetica-Bold findfont 60.6747 sf 0 0 m ( 93) show NC gr  black 1 1 1 c
 gsave  2268 2184 0 0 C 1255.21 1240.04 t 0 r /Helvetica-Bold findfont 60.6747 sf 0 0 m (100) show NC gr  black 1 1 1 c
 gsave  2268 2184 0 0 C 1368.97 1240.04 t 0 r /Helvetica-Bold findfont 60.6747 sf 0 0 m ( 89) show NC gr  black 1 1 1 c
 gsave  2268 2184 0 0 C 1471.36 1236.25 t 0 r /Helvetica-Bold findfont 60.6747 sf 0 0 m ( 77) show NC gr  black 1 1 1 c
 gsave  2268 2184 0 0 C 1573.75 1240.04 t 0 r /Helvetica-Bold findfont 60.6747 sf 0 0 m ( 25) show NC gr  black 1 1 1 c
 gsave  2268 2184 0 0 C 1672.35 1240.04 t 0 r /Helvetica-Bold findfont 60.6747 sf 0 0 m ( 25) show NC gr  black 1 1 1 c
 gsave  2268 2184 0 0 C 1774.73 1240.04 t 0 r /Helvetica-Bold findfont 60.6747 sf 0 0 m ( 25) show NC gr  black 1 1 1 c
 gsave  2268 2184 0 0 C 1877.12 1240.04 t 0 r /Helvetica-Bold findfont 60.6747 sf 0 0 m ( 25) show NC gr  black 1 1 1 c
 gsave  2268 2184 0 0 C 348.879 1338.64 t 0 r /Helvetica-Bold findfont 60.6747 sf 0 0 m ( 36) show NC gr  black 1 1 1 c
 gsave  2268 2184 0 0 C 451.268 1338.64 t 0 r /Helvetica-Bold findfont 60.6747 sf 0 0 m ( 36) show NC gr  black 1 1 1 c
 gsave  2268 2184 0 0 C 549.864 1338.64 t 0 r /Helvetica-Bold findfont 60.6747 sf 0 0 m ( 37) show NC gr  black 1 1 1 c
 gsave  2268 2184 0 0 C 652.253 1338.64 t 0 r /Helvetica-Bold findfont 60.6747 sf 0 0 m ( 36) show NC gr  black 1 1 1 c
 gsave  2268 2184 0 0 C 754.641 1338.64 t 0 r /Helvetica-Bold findfont 60.6747 sf 0 0 m ( 36) show NC gr  black 1 1 1 c
 gsave  2268 2184 0 0 C 857.03 1338.64 t 0 r /Helvetica-Bold findfont 60.6747 sf 0 0 m ( 35) show NC gr  black 1 1 1 c
 gsave  2268 2184 0 0 C 959.419 1338.64 t 0 r /Helvetica-Bold findfont 60.6747 sf 0 0 m ( 36) show NC gr  black 1 1 1 c
 gsave  2268 2184 0 0 C 1061.81 1338.64 t 0 r /Helvetica-Bold findfont 60.6747 sf 0 0 m ( 36) show NC gr  black 1 1 1 c
 gsave  2268 2184 0 0 C 1164.2 1338.64 t 0 r /Helvetica-Bold findfont 60.6747 sf 0 0 m ( 86) show NC gr  black 1 1 1 c
 gsave  2268 2184 0 0 C 1266.58 1338.64 t 0 r /Helvetica-Bold findfont 60.6747 sf 0 0 m ( 89) show NC gr  black 1 1 1 c
 gsave  2268 2184 0 0 C 1357.6 1338.64 t 0 r /Helvetica-Bold findfont 60.6747 sf 0 0 m (100) show NC gr  black 1 1 1 c
 gsave  2268 2184 0 0 C 1471.36 1334.84 t 0 r /Helvetica-Bold findfont 60.6747 sf 0 0 m ( 74) show NC gr  black 1 1 1 c
 gsave  2268 2184 0 0 C 1573.75 1338.64 t 0 r /Helvetica-Bold findfont 60.6747 sf 0 0 m ( 40) show NC gr  black 1 1 1 c
 gsave  2268 2184 0 0 C 1672.35 1338.64 t 0 r /Helvetica-Bold findfont 60.6747 sf 0 0 m ( 39) show NC gr  black 1 1 1 c
 gsave  2268 2184 0 0 C 1774.73 1338.64 t 0 r /Helvetica-Bold findfont 60.6747 sf 0 0 m ( 40) show NC gr  black 1 1 1 c
 gsave  2268 2184 0 0 C 1877.12 1338.64 t 0 r /Helvetica-Bold findfont 60.6747 sf 0 0 m ( 40) show NC gr  black 1 1 1 c
 gsave  2268 2184 0 0 C 348.879 1437.23 t 0 r /Helvetica-Bold findfont 60.6747 sf 0 0 m ( 35) show NC gr  black 1 1 1 c
 gsave  2268 2184 0 0 C 451.268 1437.23 t 0 r /Helvetica-Bold findfont 60.6747 sf 0 0 m ( 34) show NC gr  black 1 1 1 c
 gsave  2268 2184 0 0 C 549.864 1437.23 t 0 r /Helvetica-Bold findfont 60.6747 sf 0 0 m ( 35) show NC gr  black 1 1 1 c
 gsave  2268 2184 0 0 C 652.253 1437.23 t 0 r /Helvetica-Bold findfont 60.6747 sf 0 0 m ( 35) show NC gr  black 1 1 1 c
 gsave  2268 2184 0 0 C 754.641 1437.23 t 0 r /Helvetica-Bold findfont 60.6747 sf 0 0 m ( 29) show NC gr  black 1 1 1 c
 gsave  2268 2184 0 0 C 857.03 1437.23 t 0 r /Helvetica-Bold findfont 60.6747 sf 0 0 m ( 29) show NC gr  black 1 1 1 c
 gsave  2268 2184 0 0 C 959.419 1437.23 t 0 r /Helvetica-Bold findfont 60.6747 sf 0 0 m ( 30) show NC gr  black 1 1 1 c
 gsave  2268 2184 0 0 C 1061.81 1437.23 t 0 r /Helvetica-Bold findfont 60.6747 sf 0 0 m ( 29) show NC gr  black 1 1 1 c
 gsave  2268 2184 0 0 C 1167.99 1437.23 t 0 r /Helvetica-Bold findfont 60.6747 sf 0 0 m ( 81) show NC gr  black 1 1 1 c
 gsave  2268 2184 0 0 C 1266.58 1433.44 t 0 r /Helvetica-Bold findfont 60.6747 sf 0 0 m ( 77) show NC gr  black 1 1 1 c
 gsave  2268 2184 0 0 C 1368.97 1433.44 t 0 r /Helvetica-Bold findfont 60.6747 sf 0 0 m ( 74) show NC gr  black 1 1 1 c
 gsave  2268 2184 0 0 C 1459.98 1437.23 t 0 r /Helvetica-Bold findfont 60.6747 sf 0 0 m (100) show NC gr  black 1 1 1 c
 gsave  2268 2184 0 0 C 1573.75 1437.23 t 0 r /Helvetica-Bold findfont 60.6747 sf 0 0 m ( 23) show NC gr  black 1 1 1 c
 gsave  2268 2184 0 0 C 1672.35 1433.44 t 0 r /Helvetica-Bold findfont 60.6747 sf 0 0 m ( 22) show NC gr  black 1 1 1 c
 gsave  2268 2184 0 0 C 1774.73 1437.23 t 0 r /Helvetica-Bold findfont 60.6747 sf 0 0 m ( 23) show NC gr  black 1 1 1 c
 gsave  2268 2184 0 0 C 1877.12 1437.23 t 0 r /Helvetica-Bold findfont 60.6747 sf 0 0 m ( 23) show NC gr  black 1 1 1 c
 gsave  2268 2184 0 0 C 352.672 1532.04 t 0 r /Helvetica-Bold findfont 60.6747 sf 0 0 m ( \2552) show NC gr  black 1 1 1 c
 gsave  2268 2184 0 0 C 455.06 1535.83 t 0 r /Helvetica-Bold findfont 60.6747 sf 0 0 m ( \2553) show NC gr  black 1 1 1 c
 gsave  2268 2184 0 0 C 553.657 1535.83 t 0 r /Helvetica-Bold findfont 60.6747 sf 0 0 m ( \2553) show NC gr  black 1 1 1 c
 gsave  2268 2184 0 0 C 656.045 1532.04 t 0 r /Helvetica-Bold findfont 60.6747 sf 0 0 m ( \2552) show NC gr  black 1 1 1 c
 gsave  2268 2184 0 0 C 970.795 1532.04 t 0 r /Helvetica-Bold findfont 60.6747 sf 0 0 m (  1) show NC gr  black 1 1 1 c
 gsave  2268 2184 0 0 C 1164.2 1532.04 t 0 r /Helvetica-Bold findfont 60.6747 sf 0 0 m ( 22) show NC gr  black 1 1 1 c
 gsave  2268 2184 0 0 C 1266.58 1535.83 t 0 r /Helvetica-Bold findfont 60.6747 sf 0 0 m ( 25) show NC gr  black 1 1 1 c
 gsave  2268 2184 0 0 C 1368.97 1535.83 t 0 r /Helvetica-Bold findfont 60.6747 sf 0 0 m ( 40) show NC gr  black 1 1 1 c
 gsave  2268 2184 0 0 C 1471.36 1535.83 t 0 r /Helvetica-Bold findfont 60.6747 sf 0 0 m ( 23) show NC gr  black 1 1 1 c
 gsave  2268 2184 0 0 C 1562.37 1535.83 t 0 r /Helvetica-Bold findfont 60.6747 sf 0 0 m (100) show NC gr  black 1 1 1 c
 gsave  2268 2184 0 0 C 1672.35 1535.83 t 0 r /Helvetica-Bold findfont 60.6747 sf 0 0 m ( 97) show NC gr  black 1 1 1 c
 gsave  2268 2184 0 0 C 1774.73 1535.83 t 0 r /Helvetica-Bold findfont 60.6747 sf 0 0 m ( 98) show NC gr  black 1 1 1 c
 gsave  2268 2184 0 0 C 1865.75 1535.83 t 0 r /Helvetica-Bold findfont 60.6747 sf 0 0 m (100) show NC gr  black 1 1 1 c
 gsave  2268 2184 0 0 C 352.672 1630.63 t 0 r /Helvetica-Bold findfont 60.6747 sf 0 0 m ( \2552) show NC gr  black 1 1 1 c
 gsave  2268 2184 0 0 C 455.06 1634.42 t 0 r /Helvetica-Bold findfont 60.6747 sf 0 0 m ( \2553) show NC gr  black 1 1 1 c
 gsave  2268 2184 0 0 C 553.657 1634.42 t 0 r /Helvetica-Bold findfont 60.6747 sf 0 0 m ( \2553) show NC gr  black 1 1 1 c
 gsave  2268 2184 0 0 C 656.045 1630.63 t 0 r /Helvetica-Bold findfont 60.6747 sf 0 0 m ( \2552) show NC gr  black 1 1 1 c
 gsave  2268 2184 0 0 C 1167.99 1630.63 t 0 r /Helvetica-Bold findfont 60.6747 sf 0 0 m ( 21) show NC gr  black 1 1 1 c
 gsave  2268 2184 0 0 C 1266.58 1634.42 t 0 r /Helvetica-Bold findfont 60.6747 sf 0 0 m ( 25) show NC gr  black 1 1 1 c
 gsave  2268 2184 0 0 C 1368.97 1634.42 t 0 r /Helvetica-Bold findfont 60.6747 sf 0 0 m ( 39) show NC gr  black 1 1 1 c
 gsave  2268 2184 0 0 C 1471.36 1630.63 t 0 r /Helvetica-Bold findfont 60.6747 sf 0 0 m ( 22) show NC gr  black 1 1 1 c
 gsave  2268 2184 0 0 C 1573.75 1634.42 t 0 r /Helvetica-Bold findfont 60.6747 sf 0 0 m ( 97) show NC gr  black 1 1 1 c
 gsave  2268 2184 0 0 C 1660.97 1634.42 t 0 r /Helvetica-Bold findfont 60.6747 sf 0 0 m (100) show NC gr  black 1 1 1 c
 gsave  2268 2184 0 0 C 1774.73 1634.42 t 0 r /Helvetica-Bold findfont 60.6747 sf 0 0 m ( 97) show NC gr  black 1 1 1 c
 gsave  2268 2184 0 0 C 1877.12 1634.42 t 0 r /Helvetica-Bold findfont 60.6747 sf 0 0 m ( 97) show NC gr  black 1 1 1 c
 gsave  2268 2184 0 0 C 352.672 1733.02 t 0 r /Helvetica-Bold findfont 60.6747 sf 0 0 m ( \2553) show NC gr  black 1 1 1 c
 gsave  2268 2184 0 0 C 455.06 1729.23 t 0 r /Helvetica-Bold findfont 60.6747 sf 0 0 m ( \2554) show NC gr  black 1 1 1 c
 gsave  2268 2184 0 0 C 553.657 1729.23 t 0 r /Helvetica-Bold findfont 60.6747 sf 0 0 m ( \2554) show NC gr  black 1 1 1 c
 gsave  2268 2184 0 0 C 656.045 1733.02 t 0 r /Helvetica-Bold findfont 60.6747 sf 0 0 m ( \2553) show NC gr  black 1 1 1 c
 gsave  2268 2184 0 0 C 1167.99 1729.23 t 0 r /Helvetica-Bold findfont 60.6747 sf 0 0 m ( 21) show NC gr  black 1 1 1 c
 gsave  2268 2184 0 0 C 1266.58 1733.02 t 0 r /Helvetica-Bold findfont 60.6747 sf 0 0 m ( 25) show NC gr  black 1 1 1 c
 gsave  2268 2184 0 0 C 1368.97 1733.02 t 0 r /Helvetica-Bold findfont 60.6747 sf 0 0 m ( 40) show NC gr  black 1 1 1 c
 gsave  2268 2184 0 0 C 1471.36 1733.02 t 0 r /Helvetica-Bold findfont 60.6747 sf 0 0 m ( 23) show NC gr  black 1 1 1 c
 gsave  2268 2184 0 0 C 1573.75 1733.02 t 0 r /Helvetica-Bold findfont 60.6747 sf 0 0 m ( 98) show NC gr  black 1 1 1 c
 gsave  2268 2184 0 0 C 1672.35 1733.02 t 0 r /Helvetica-Bold findfont 60.6747 sf 0 0 m ( 97) show NC gr  black 1 1 1 c
 gsave  2268 2184 0 0 C 1763.36 1733.02 t 0 r /Helvetica-Bold findfont 60.6747 sf 0 0 m (100) show NC gr  black 1 1 1 c
 gsave  2268 2184 0 0 C 1877.12 1733.02 t 0 r /Helvetica-Bold findfont 60.6747 sf 0 0 m ( 98) show NC gr  black 1 1 1 c
 gsave  2268 2184 0 0 C 352.672 1827.82 t 0 r /Helvetica-Bold findfont 60.6747 sf 0 0 m ( \2552) show NC gr  black 1 1 1 c
 gsave  2268 2184 0 0 C 455.06 1831.62 t 0 r /Helvetica-Bold findfont 60.6747 sf 0 0 m ( \2553) show NC gr  black 1 1 1 c
 gsave  2268 2184 0 0 C 553.657 1831.62 t 0 r /Helvetica-Bold findfont 60.6747 sf 0 0 m ( \2553) show NC gr  black 1 1 1 c
 gsave  2268 2184 0 0 C 656.045 1827.82 t 0 r /Helvetica-Bold findfont 60.6747 sf 0 0 m ( \2552) show NC gr  black 1 1 1 c
 gsave  2268 2184 0 0 C 970.795 1827.82 t 0 r /Helvetica-Bold findfont 60.6747 sf 0 0 m (  1) show NC gr  black 1 1 1 c
 gsave  2268 2184 0 0 C 1164.2 1827.82 t 0 r /Helvetica-Bold findfont 60.6747 sf 0 0 m ( 22) show NC gr  black 1 1 1 c
 gsave  2268 2184 0 0 C 1266.58 1831.62 t 0 r /Helvetica-Bold findfont 60.6747 sf 0 0 m ( 25) show NC gr  black 1 1 1 c
 gsave  2268 2184 0 0 C 1368.97 1831.62 t 0 r /Helvetica-Bold findfont 60.6747 sf 0 0 m ( 40) show NC gr  black 1 1 1 c
 gsave  2268 2184 0 0 C 1471.36 1831.62 t 0 r /Helvetica-Bold findfont 60.6747 sf 0 0 m ( 23) show NC gr  black 1 1 1 c
 gsave  2268 2184 0 0 C 1562.37 1831.62 t 0 r /Helvetica-Bold findfont 60.6747 sf 0 0 m (100) show NC gr  black 1 1 1 c
 gsave  2268 2184 0 0 C 1672.35 1831.62 t 0 r /Helvetica-Bold findfont 60.6747 sf 0 0 m ( 97) show NC gr  black 1 1 1 c
 gsave  2268 2184 0 0 C 1774.73 1831.62 t 0 r /Helvetica-Bold findfont 60.6747 sf 0 0 m ( 98) show NC gr  black 1 1 1 c
 gsave  2268 2184 0 0 C 1865.75 1831.62 t 0 r /Helvetica-Bold findfont 60.6747 sf 0 0 m (100) show NC gr  black
 gsave  2268 2184 0 0 C 1201.89 1922.17 t 0 r /Helvetica-Bold findfont 53.0903 sf 0 0 m (Linear correlation coefficients in %) show NC gr 
 gr  gr showpage
end
%%EOF
