%!PS-Adobe-2.0 EPSF-2.0
%%BoundingBox:  0 0 567 296
%%Title: dataset_class_l2/plots/variables_id_c1.eps: Input variables (training sample)
%%Creator: ROOT Version 6.18/00
%%CreationDate: Sat Sep 14 12:33:07 2019
%%DocumentNeededResources: ProcSet (FontSetInit)
%%EndComments
%%BeginProlog
80 dict begin
/s {stroke} def /l {lineto} def /m {moveto} def /t {translate} def
/r {rotate} def /rl {roll}  def /R {repeat} def
/d {rlineto} def /rm {rmoveto} def /gr {grestore} def /f {eofill} def
/c {setrgbcolor} def /black {0 setgray} def /sd {setdash} def
/cl {closepath} def /sf {scalefont setfont} def /lw {setlinewidth} def
/box {m dup 0 exch d exch 0 d 0 exch neg d cl} def
/NC{systemdict begin initclip end}def/C{NC box clip newpath}def
/bl {box s} def /bf {gsave box gsave f grestore 1 lw [] 0 sd s grestore} def /Y { 0 exch d} def /X { 0 d} def 
/K {{pop pop 0 moveto} exch kshow} bind def
/ita {/ang 15 def gsave [1 0 ang dup sin exch cos div 1 0 0] concat} def 
/mp {newpath /y exch def /x exch def} def
/side {[w .77 mul w .23 mul] .385 w mul sd w 0 l currentpoint t -144 r} def
/mr {mp x y w2 0 360 arc} def /m24 {mr s} def /m20 {mr f} def
/mb {mp x y w2 add m w2 neg 0 d 0 w neg d w 0 d 0 w d cl} def
/mt {mp x y w2 add m w2 neg w neg d w 0 d cl} def
/w4 {w 4 div} def
/w6 {w 6 div} def
/w8 {w 8 div} def
/m21 {mb f} def /m25 {mb s} def /m22 {mt f} def /m26{mt s} def
/m23 {mp x y w2 sub m w2 w d w neg 0 d cl f} def
/m27 {mp x y w2 add m w3 neg w2 neg d w3 w2 neg d w3 w2 d cl s} def
/m28 {mp x w2 sub y w2 sub w3 add m w3 0 d  0 w3 neg d w3 0 d 0 w3 d w3 0 d  0 w3 d w3 neg 0 d 0 w3 d w3 neg 0 d 0 w3 neg d w3 neg 0 d cl s } def
/m29 {mp gsave x w2 sub y w2 add w3 sub m currentpoint t 4 {side} repeat cl fill gr} def
/m30 {mp gsave x w2 sub y w2 add w3 sub m currentpoint t 4 {side} repeat cl s gr} def
/m31 {mp x y w2 sub m 0 w d x w2 sub y m w 0 d x w2 sub y w2 add m w w neg d x w2 sub y w2 sub m w w d s} def
/m32 {mp x y w2 sub m w2 w d w neg 0 d cl s} def
/m33 {mp x y w2 add m w3 neg w2 neg d w3 w2 neg d w3 w2 d cl f} def
/m34 {mp x w2 sub y w2 sub w3 add m w3 0 d  0 w3 neg d w3 0 d 0 w3 d w3 0 d  0 w3 d w3 neg 0 d 0 w3 d w3 neg 0 d 0 w3 neg d w3 neg 0 d cl f } def
/m35 {mp x y w2 add m w2 neg w2 neg d w2 w2 neg d w2 w2 d w2 neg w2 d x y w2 sub m 0 w d x w2 sub y m w 0 d s} def
/m36 {mb x w2 sub y w2 add m w w neg d x w2 sub y w2 sub m w w d s} def
/m37 {mp x y m w4 neg w2 d w4 neg w2 neg d w2 0 d  w4 neg w2 neg d w2 0 d w4 neg w2 d w2 0 d w4 neg w2 d w4 neg w2 neg d cl s} def
/m38 {mp x w4 sub y w2 add m w4 neg w4 neg d 0 w2 neg d w4 w4 neg d w2 0 d w4 w4 d 0 w2 d w4 neg w4 d w2 neg 0 d x y w2 sub m 0 w d x w2 sub y m w 0 d cl s} def
/m39 {mp x y m w4 neg w2 d w4 neg w2 neg d w2 0 d  w4 neg w2 neg d w2 0 d w4 neg w2 d w2 0 d w4 neg w2 d w4 neg w2 neg d cl f} def
/m40 {mp x y m w4 w2 d w4 w4 neg d w2 neg w4 neg d w2 w4 neg d w4 neg w4 neg d w4 neg w2 d w4 neg w2 neg d w4 neg w4 d w2 w4 d w2 neg w4 d w4 w4 d w4 w2 neg d cl s} def
/m41 {mp x y m w4 w2 d w4 w4 neg d w2 neg w4 neg d w2 w4 neg d w4 neg w4 neg d w4 neg w2 d w4 neg w2 neg d w4 neg w4 d w2 w4 d w2 neg w4 d w4 w4 d w4 w2 neg d cl f} def
/m42 {mp x y w2 add m w8 neg w2 -3 4 div mul d w2 -3 4 div mul w8 neg d w2 3 4 div mul w8 neg d w8 w2 -3 4 div mul d w8 w2 3 4 div mul d w2 3 4 div mul w8 d w2 -3 4 div mul w8 d w8 neg w2 3 4 div mul d cl s} def
/m43 {mp x y w2 add m w8 neg w2 -3 4 div mul d w2 -3 4 div mul w8 neg d w2 3 4 div mul w8 neg d w8 w2 -3 4 div mul d w8 w2 3 4 div mul d w2 3 4 div mul w8 d w2 -3 4 div mul w8 d w8 neg w2 3 4 div mul d cl f} def
/m44 {mp x y m w6 neg w2 d w2 2 3 div mul 0 d w6 neg w2 neg d w2 w6 d 0 w2 -2 3 div mul d w2 neg w6 d w6 w2 neg d w2 -2 3 div mul 0 d w6 w2 d w2 neg w6 neg d 0 w2 2 3 div mul d w2 w6 neg d cl s} def
/m45 {mp x y m w6 neg w2 d w2 2 3 div mul 0 d w6 neg w2 neg d w2 w6 d 0 w2 -2 3 div mul d w2 neg w6 d w6 w2 neg d w2 -2 3 div mul 0 d w6 w2 d w2 neg w6 neg d 0 w2 2 3 div mul d w2 w6 neg d cl f} def
/m46 {mp x y w4 add m w4 neg w4 d w4 neg w4 neg d  w4 w4 neg d w4 neg w4 neg d w4 w4 neg d w4 w4 d w4 w4 neg d w4 w4 d w4 neg w4 d w4 w4 d w4 neg w4 d w4 neg w4 neg d cl s} def
/m47 {mp x y w4 add m w4 neg w4 d w4 neg w4 neg d w4 w4 neg d w4 neg w4 neg d  w4 w4 neg d w4 w4 d w4 w4 neg d w4 w4 d w4 neg w4 d w4 w4 d w4 neg w4 d w4 neg w4 neg d cl f} def
/m48 {mp x y w4 add m w4 neg w4 d w4 neg w4 neg d w4 w4 neg d  w4 neg w4 neg d w4 w4 neg d w4 w4 d w4 w4 neg d w4 w4 d w4 neg w4 d w4 w4 d w4 neg w4 d w4 neg w4 neg d  w4 w4 neg d w4 neg w4 neg d w4 neg w4 d w4 w4 d cl f} def
/m49 {mp x w2 sub w3 add y w2 sub w3 add m  0 w3 neg d w3 0 d 0 w3 d w3 0 d 0 w3 d w3 neg 0 d 0 w3 d w3 neg 0 d 0 w3 neg d w3 neg 0 d 0 w3 neg d w3 0 d 0 w3 d w3 0 d 0 w3 neg d w3 neg 0 d cl f } def
/m2 {mp x y w2 sub m 0 w d x w2 sub y m w 0 d s} def
/m5 {mp x w2 sub y w2 sub m w w d x w2 sub y w2 add m w w neg d s} def
%%IncludeResource: ProcSet (FontSetInit)
%%IncludeResource: font Times-Roman
%%IncludeResource: font Times-Italic
%%IncludeResource: font Times-Bold
%%IncludeResource: font Times-BoldItalic
%%IncludeResource: font Helvetica
%%IncludeResource: font Helvetica-Oblique
%%IncludeResource: font Helvetica-Bold
%%IncludeResource: font Helvetica-BoldOblique
%%IncludeResource: font Courier
%%IncludeResource: font Courier-Oblique
%%IncludeResource: font Courier-Bold
%%IncludeResource: font Courier-BoldOblique
%%IncludeResource: font Symbol
%%IncludeResource: font ZapfDingbats
/reEncode {exch findfont dup length dict begin {1 index /FID eq  {pop pop} {def} ifelse } forall /Encoding exch def currentdict end dup /FontName get exch definefont pop } def [/Times-Bold /Times-Italic /Times-BoldItalic /Helvetica /Helvetica-Oblique
 /Helvetica-Bold /Helvetica-BoldOblique /Courier /Courier-Oblique /Courier-Bold /Courier-BoldOblique /Times-Roman /AvantGarde-Book /AvantGarde-BookOblique /AvantGarde-Demi /AvantGarde-DemiOblique /Bookman-Demi /Bookman-DemiItalic /Bookman-Light
 /Bookman-LightItalic /Helvetica-Narrow /Helvetica-Narrow-Bold /Helvetica-Narrow-BoldOblique /Helvetica-Narrow-Oblique /NewCenturySchlbk-Roman /NewCenturySchlbk-Bold /NewCenturySchlbk-BoldItalic /NewCenturySchlbk-Italic /Palatino-Bold
 /Palatino-BoldItalic /Palatino-Italic /Palatino-Roman ] {ISOLatin1Encoding reEncode } forall
%%EndProlog
%%BeginSetup
%%EndSetup
newpath  gsave  .25 .25 scale  gsave  0 0 t 0.490196 0.545098 0.615686 c[  ] 0 sd 3 lw 0.941176 0.941176 0.941176 c 2268 1182 0 0 bf 0.490196 0.545098 0.615686 c 0.941176 0.941176 0.941176 c 710 567 23 603 bf black 1 1 0.992157 c 548 429 143 685 bf
 black 548 429 143 685 bl 0 0 0.933333 c 6 lw 0.49 0.6 0.82 c black 3 lw 0.49 0.6 0.82 c 143 705 m 124 X 229 Y 13 X -89 Y 14 X -22 Y 14 X -23 Y 27 X -1 Y 14 X -8 Y 13 X -5 Y 14 X 2 Y 14 X -10 Y 13 X -5 Y 14 X -8 Y 14 X -12 Y 13 X -29 Y 14 X -18 Y 14
 X -1 Y 219 X f 6 lw 0 0 0.933333 c 0.49 0.6 0.82 c 0 0 0.933333 c 143 705 m 124 X 229 Y 13 X -89 Y 14 X -22 Y 14 X -23 Y 27 X -1 Y 14 X -8 Y 13 X -5 Y 14 X 2 Y 14 X -10 Y 13 X -5 Y 14 X -8 Y 14 X -12 Y 13 X -29 Y 14 X -18 Y 14 X -1 Y 219 X -20 Y s
 black 3 lw 143 685 m 548 X s 207 698 m -13 Y s 219 691 m -6 Y s 232 691 m -6 Y s 245 691 m -6 Y s 258 691 m -6 Y s 270 698 m -13 Y s 283 691 m -6 Y s 296 691 m -6 Y s 309 691 m -6 Y s 321 691 m -6 Y s 334 698 m -13 Y s 347 691 m -6 Y s 360 691 m -6
 Y s 373 691 m -6 Y s 385 691 m -6 Y s 398 698 m -13 Y s 411 691 m -6 Y s 424 691 m -6 Y s 436 691 m -6 Y s 449 691 m -6 Y s 462 698 m -13 Y s 475 691 m -6 Y s 488 691 m -6 Y s 500 691 m -6 Y s 513 691 m -6 Y s 526 698 m -13 Y s 539 691 m -6 Y s 551
 691 m -6 Y s 564 691 m -6 Y s 577 691 m -6 Y s 590 698 m -13 Y s 602 691 m -6 Y s 615 691 m -6 Y s 628 691 m -6 Y s 641 691 m -6 Y s 654 698 m -13 Y s 207 698 m -13 Y s 194 691 m -6 Y s 181 691 m -6 Y s 168 691 m -6 Y s 155 691 m -6 Y s 654 698 m
 -13 Y s 666 691 m -6 Y s 679 691 m -6 Y s
 gsave  710 567 23 603 C 204.606 656.444 t 0 r /Helvetica findfont 25.6631 sf 0 0 m (1) show NC gr 
 gsave  710 567 23 603 C 190.397 656.444 t 0 r /Symbol findfont 25.6631 sf 0 0 m (-) show NC gr 
 gsave  710 567 23 603 C 258.599 656.444 t 0 r /Helvetica findfont 25.6631 sf 0 0 m (0.5) show NC gr 
 gsave  710 567 23 603 C 244.391 656.444 t 0 r /Symbol findfont 25.6631 sf 0 0 m (-) show NC gr 
 gsave  710 567 23 603 C 323.96 656.444 t 0 r /Helvetica findfont 25.6631 sf 0 0 m (0) show NC gr 
 gsave  710 567 23 603 C 380.794 656.444 t 0 r /Helvetica findfont 25.6631 sf 0 0 m (0.5) show NC gr 
 gsave  710 567 23 603 C 454.68 656.444 t 0 r /Helvetica findfont 25.6631 sf 0 0 m (1) show NC gr 
 gsave  710 567 23 603 C 508.673 656.444 t 0 r /Helvetica findfont 25.6631 sf 0 0 m (1.5) show NC gr 
 gsave  710 567 23 603 C 579.717 656.444 t 0 r /Helvetica findfont 25.6631 sf 0 0 m (2) show NC gr 
 gsave  710 567 23 603 C 633.71 656.444 t 0 r /Helvetica findfont 25.6631 sf 0 0 m (2.5) show NC gr 
 gsave  710 567 23 603 C 582.559 616.66 t 0 r /Helvetica findfont 28.5146 sf 0 0 m (yy.H1_l2) show NC gr  143 1114 m 548 X s 207 1100 m 14 Y s 219 1107 m 7 Y s 232 1107 m 7 Y s 245 1107 m 7 Y s 258 1107 m 7 Y s 270 1100 m 14 Y s 283 1107 m 7 Y s 296
 1107 m 7 Y s 309 1107 m 7 Y s 321 1107 m 7 Y s 334 1100 m 14 Y s 347 1107 m 7 Y s 360 1107 m 7 Y s 373 1107 m 7 Y s 385 1107 m 7 Y s 398 1100 m 14 Y s 411 1107 m 7 Y s 424 1107 m 7 Y s 436 1107 m 7 Y s 449 1107 m 7 Y s 462 1100 m 14 Y s 475 1107 m 7
 Y s 488 1107 m 7 Y s 500 1107 m 7 Y s 513 1107 m 7 Y s 526 1100 m 14 Y s 539 1107 m 7 Y s 551 1107 m 7 Y s 564 1107 m 7 Y s 577 1107 m 7 Y s 590 1100 m 14 Y s 602 1107 m 7 Y s 615 1107 m 7 Y s 628 1107 m 7 Y s 641 1107 m 7 Y s 654 1100 m 14 Y s 207
 1100 m 14 Y s 194 1107 m 7 Y s 181 1107 m 7 Y s 168 1107 m 7 Y s 155 1107 m 7 Y s 654 1100 m 14 Y s 666 1107 m 7 Y s 679 1107 m 7 Y s 143 685 m 429 Y s 160 705 m -17 X s 152 719 m -9 X s 152 733 m -9 X s 152 746 m -9 X s 152 760 m -9 X s 160 774 m
 -17 X s 152 788 m -9 X s 152 802 m -9 X s 152 816 m -9 X s 152 829 m -9 X s 160 843 m -17 X s 152 857 m -9 X s 152 871 m -9 X s 152 885 m -9 X s 152 898 m -9 X s 160 912 m -17 X s 152 926 m -9 X s 152 940 m -9 X s 152 954 m -9 X s 152 967 m -9 X s
 160 981 m -17 X s 152 995 m -9 X s 152 1009 m -9 X s 152 1023 m -9 X s 152 1036 m -9 X s 160 1050 m -17 X s 160 705 m -17 X s 152 691 m -9 X s 160 1050 m -17 X s 152 1064 m -9 X s 152 1078 m -9 X s 152 1092 m -9 X s 152 1106 m -9 X s
 gsave  710 567 23 603 C 119.354 696.229 t 0 r /Helvetica findfont 25.6631 sf 0 0 m (0) show NC gr 
 gsave  710 567 23 603 C 99.4613 764.431 t 0 r /Helvetica findfont 25.6631 sf 0 0 m (0.5) show NC gr 
 gsave  710 567 23 603 C 122.195 832.633 t 0 r /Helvetica findfont 25.6631 sf 0 0 m (1) show NC gr 
 gsave  710 567 23 603 C 99.4613 900.835 t 0 r /Helvetica findfont 25.6631 sf 0 0 m (1.5) show NC gr 
 gsave  710 567 23 603 C 119.354 971.879 t 0 r /Helvetica findfont 25.6631 sf 0 0 m (2) show NC gr 
 gsave  710 567 23 603 C 99.4613 1040.08 t 0 r /Helvetica findfont 25.6631 sf 0 0 m (2.5) show NC gr 
 gsave  710 567 23 603 C 45.468 1037.24 t 90 r /Helvetica findfont 28.5146 sf 0 0 m (0.107 ) show NC gr 
 gsave  710 567 23 603 C 31.2593 1034.4 t 90 r /Helvetica findfont 19.9602 sf 0 0 m ( ) show NC gr 
 gsave  710 567 23 603 C 45.468 1023.03 t 90 r /Helvetica findfont 28.5146 sf 0 0 m (/) show NC gr 
 gsave  710 567 23 603 C 53.9933 1020.19 t 90 r /Helvetica findfont 19.9602 sf 0 0 m ( ) show NC gr 
 gsave  710 567 23 603 C 45.468 915.044 t 90 r /Helvetica findfont 28.5146 sf 0 0 m (\(1/N\) dN) show NC gr  691 685 m 429 Y s 674 705 m 17 X s 683 719 m 8 X s 683 733 m 8 X s 683 746 m 8 X s 683 760 m 8 X s 674 774 m 17 X s 683 788 m 8 X s 683 802 m
 8 X s 683 816 m 8 X s 683 829 m 8 X s 674 843 m 17 X s 683 857 m 8 X s 683 871 m 8 X s 683 885 m 8 X s 683 898 m 8 X s 674 912 m 17 X s 683 926 m 8 X s 683 940 m 8 X s 683 954 m 8 X s 683 967 m 8 X s 674 981 m 17 X s 683 995 m 8 X s 683 1009 m 8 X s
 683 1023 m 8 X s 683 1036 m 8 X s 674 1050 m 17 X s 674 705 m 17 X s 683 691 m 8 X s 674 1050 m 17 X s 683 1064 m 8 X s 683 1078 m 8 X s 683 1092 m 8 X s 683 1106 m 8 X s 0.490196 0.545098 0.615686 c 0.364706 0.419608 0.490196 c 332 38 30 1130 bf
 0.490196 0.545098 0.615686 c 30 1130 m 332 X s 362 1130 m 38 Y s 362 1168 m -332 X s 30 1168 m -38 Y s 1 1 1 c black 1 1 1 c
 gsave  710 567 23 603 C 34.101 1142.38 t 0 r /Helvetica-Bold findfont 28.5146 sf 0 0 m (Input variable: yy.H1_l2) show NC gr  1 0 0 c 6 lw black 3 lw 1 0 0 c 682 705 m s 667 705 m s 652 705 m s 637 705 m s 621 705 m s 606 705 m s 591 705 m s 576 705
 m s 561 705 m s 546 705 m s 531 705 m s 516 705 m s 501 705 m s 486 705 m s 472 706 m -1 -1 d s 466 716 m -10 -11 d s 458 723 m -17 -18 d s 458 738 m -32 -33 d s 447 742 m -37 -37 d s 443 753 m -48 -48 d s 431 756 m -51 -51 d s 419 759 m -54 -54 d s
 413 768 m -10 -9 d s 403 758 m -53 -53 d s 390 760 m -55 -55 d s 379 764 m -59 -59 d s 365 765 m -60 -60 d s 359 775 m -69 -70 d s 349 779 m -74 -74 d s 339 785 m -72 -73 d s 260 705 m s 324 785 m -57 -58 d s 245 705 m s 317 794 m -50 -52 d s 230
 705 m s 308 799 m -41 -42 d s 215 705 m s 308 814 m -41 -41 d s 199 705 m s 295 817 m -28 -29 d s 184 705 m s 294 831 m -27 -28 d s 169 705 m s 294 846 m -27 -28 d s 154 705 m s 294 861 m -27 -28 d s 283 865 m -16 -16 d s 280 878 m -13 -14 d s 280
 893 m -13 -14 d s 280 908 m -13 -14 d s 280 923 m -13 -14 d s 280 938 m -13 -14 d s 280 953 m -13 -13 d s 280 969 m -13 -14 d s 280 984 m -13 -14 d s 280 999 m -13 -14 d s 280 1014 m -13 -14 d s 270 1019 m -3 -3 d s 6 lw 143 705 m 124 X 314 Y 13 X
 -154 Y 14 X -48 Y 14 X -23 Y 13 X -9 Y 28 X -10 Y 13 X -10 Y 14 X -1 Y 14 X -6 Y 13 X 10 Y 14 X -9 Y 14 X -6 Y 13 X -11 Y 14 X -26 Y 14 X -11 Y 219 X -20 Y s 0.490196 0.545098 0.615686 c 3 lw 1 1 1 c 0.490196 0.545098 0.615686 c 285 86 143 1028 bl
 143 1028 m 285 X s 428 1028 m 86 Y s 428 1114 m -285 X s 143 1114 m -86 Y s black
 gsave  710 567 23 603 C 227.34 1085.55 t 0 r /Helvetica-Bold findfont 31.3661 sf 0 0 m (Signal) show NC gr  0.49 0.6 0.82 c 156 1077 m 60 X 30 Y -60 X f 0 0 0.933333 c 6 lw 156 1107 m 60 X s 156 1077 m 60 X s 216 1077 m 30 Y s 156 1077 m 30 Y s
 black
 gsave  710 567 23 603 C 227.34 1042.92 t 0 r /Helvetica-Bold findfont 31.3661 sf 0 0 m (Background) show NC gr  1 0 0 c 3 lw 216 1041 m -6 -6 d s 216 1056 m -21 -21 d s 210 1065 m -30 -30 d s 195 1065 m -30 -30 d s 180 1065 m -24 -24 d s 165 1065 m
 -9 -9 d s 6 lw 0 0 0.933333 c 1 0 0 c 156 1065 m 60 X s 156 1035 m 60 X s 216 1035 m 30 Y s 156 1035 m 30 Y s black 3 lw 143 685 m 548 X s 207 698 m -13 Y s 219 691 m -6 Y s 232 691 m -6 Y s 245 691 m -6 Y s 258 691 m -6 Y s 270 698 m -13 Y s 283
 691 m -6 Y s 296 691 m -6 Y s 309 691 m -6 Y s 321 691 m -6 Y s 334 698 m -13 Y s 347 691 m -6 Y s 360 691 m -6 Y s 373 691 m -6 Y s 385 691 m -6 Y s 398 698 m -13 Y s 411 691 m -6 Y s 424 691 m -6 Y s 436 691 m -6 Y s 449 691 m -6 Y s 462 698 m -13
 Y s 475 691 m -6 Y s 488 691 m -6 Y s 500 691 m -6 Y s 513 691 m -6 Y s 526 698 m -13 Y s 539 691 m -6 Y s 551 691 m -6 Y s 564 691 m -6 Y s 577 691 m -6 Y s 590 698 m -13 Y s 602 691 m -6 Y s 615 691 m -6 Y s 628 691 m -6 Y s 641 691 m -6 Y s 654
 698 m -13 Y s 207 698 m -13 Y s 194 691 m -6 Y s 181 691 m -6 Y s 168 691 m -6 Y s 155 691 m -6 Y s 654 698 m -13 Y s 666 691 m -6 Y s 679 691 m -6 Y s 143 1114 m 548 X s 207 1100 m 14 Y s 219 1107 m 7 Y s 232 1107 m 7 Y s 245 1107 m 7 Y s 258 1107
 m 7 Y s 270 1100 m 14 Y s 283 1107 m 7 Y s 296 1107 m 7 Y s 309 1107 m 7 Y s 321 1107 m 7 Y s 334 1100 m 14 Y s 347 1107 m 7 Y s 360 1107 m 7 Y s 373 1107 m 7 Y s 385 1107 m 7 Y s 398 1100 m 14 Y s 411 1107 m 7 Y s 424 1107 m 7 Y s 436 1107 m 7 Y s
 449 1107 m 7 Y s 462 1100 m 14 Y s 475 1107 m 7 Y s 488 1107 m 7 Y s 500 1107 m 7 Y s 513 1107 m 7 Y s 526 1100 m 14 Y s 539 1107 m 7 Y s 551 1107 m 7 Y s 564 1107 m 7 Y s 577 1107 m 7 Y s 590 1100 m 14 Y s 602 1107 m 7 Y s 615 1107 m 7 Y s 628 1107
 m 7 Y s 641 1107 m 7 Y s 654 1100 m 14 Y s 207 1100 m 14 Y s 194 1107 m 7 Y s 181 1107 m 7 Y s 168 1107 m 7 Y s 155 1107 m 7 Y s 654 1100 m 14 Y s 666 1107 m 7 Y s 679 1107 m 7 Y s 143 685 m 429 Y s 160 705 m -17 X s 152 719 m -9 X s 152 733 m -9 X
 s 152 746 m -9 X s 152 760 m -9 X s 160 774 m -17 X s 152 788 m -9 X s 152 802 m -9 X s 152 816 m -9 X s 152 829 m -9 X s 160 843 m -17 X s 152 857 m -9 X s 152 871 m -9 X s 152 885 m -9 X s 152 898 m -9 X s 160 912 m -17 X s 152 926 m -9 X s 152
 940 m -9 X s 152 954 m -9 X s 152 967 m -9 X s 160 981 m -17 X s 152 995 m -9 X s 152 1009 m -9 X s 152 1023 m -9 X s 152 1036 m -9 X s 160 1050 m -17 X s 160 705 m -17 X s 152 691 m -9 X s 160 1050 m -17 X s 152 1064 m -9 X s 152 1078 m -9 X s 152
 1092 m -9 X s 152 1106 m -9 X s 691 685 m 429 Y s 674 705 m 17 X s 683 719 m 8 X s 683 733 m 8 X s 683 746 m 8 X s 683 760 m 8 X s 674 774 m 17 X s 683 788 m 8 X s 683 802 m 8 X s 683 816 m 8 X s 683 829 m 8 X s 674 843 m 17 X s 683 857 m 8 X s 683
 871 m 8 X s 683 885 m 8 X s 683 898 m 8 X s 674 912 m 17 X s 683 926 m 8 X s 683 940 m 8 X s 683 954 m 8 X s 683 967 m 8 X s 674 981 m 17 X s 683 995 m 8 X s 683 1009 m 8 X s 683 1023 m 8 X s 683 1036 m 8 X s 674 1050 m 17 X s 674 705 m 17 X s 683
 691 m 8 X s 674 1050 m 17 X s 683 1064 m 8 X s 683 1078 m 8 X s 683 1092 m 8 X s 683 1106 m 8 X s
 gsave  710 567 23 603 C 719.017 682.347 t 90 r /Helvetica-Bold findfont 19.9602 sf 0 0 m (U/O\255flow \(S,B\): \(0.0, 0.0\)% / \(0.0, 0.0\)%) show NC gr  0.490196 0.545098 0.615686 c 0.364706 0.419608 0.490196 c 332 38 30 1130 bf 0.490196 0.545098
 0.615686 c 30 1130 m 332 X s 362 1130 m 38 Y s 362 1168 m -332 X s 30 1168 m -38 Y s 1 1 1 c black 1 1 1 c
 gsave  710 567 23 603 C 34.101 1142.38 t 0 r /Helvetica-Bold findfont 28.5146 sf 0 0 m (Input variable: yy.H1_l2) show NC gr  0.490196 0.545098 0.615686 c 0.941176 0.941176 0.941176 c 710 567 779 603 bf black 1 1 0.992157 c 548 429 899 685 bf black
 548 429 899 685 bl 0 0 0.933333 c 6 lw 0.49 0.6 0.82 c black 3 lw 0.49 0.6 0.82 c 899 685 m 41 X 56 Y 14 X 127 Y 14 X 20 Y 13 X 17 Y 14 X -9 Y 14 X 31 Y 13 X -24 Y 14 X -34 Y 14 X -21 Y 14 X -2 Y 13 X 3 Y 14 X -17 Y 14 X 7 Y 13 X -1 Y 14 X -15 Y 14
 X -6 Y 13 X -1 Y 14 X -2 Y 14 X 7 Y 13 X -6 Y 14 X -12 Y 14 X -21 Y 13 X -16 Y 14 X 2 Y 14 X 4 Y 13 X -19 Y 14 X -4 Y 14 X 3 Y 13 X -17 Y 14 X -17 Y 14 X -6 Y 13 X -12 Y 14 X -8 Y 14 X -6 Y 13 X -1 Y 42 X f 6 lw 0 0 0.933333 c 0.49 0.6 0.82 c 0 0
 0.933333 c 899 685 m 41 X 56 Y 14 X 127 Y 14 X 20 Y 13 X 17 Y 14 X -9 Y 14 X 31 Y 13 X -24 Y 14 X -34 Y 14 X -21 Y 14 X -2 Y 13 X 3 Y 14 X -17 Y 14 X 7 Y 13 X -1 Y 14 X -15 Y 14 X -6 Y 13 X -1 Y 14 X -2 Y 14 X 7 Y 13 X -6 Y 14 X -12 Y 14 X -21 Y 13
 X -16 Y 14 X 2 Y 14 X 4 Y 13 X -19 Y 14 X -4 Y 14 X 3 Y 13 X -17 Y 14 X -17 Y 14 X -6 Y 13 X -12 Y 14 X -8 Y 14 X -6 Y 13 X -1 Y 42 X s black 3 lw 899 685 m 548 X s 919 698 m -13 Y s 931 691 m -6 Y s 943 691 m -6 Y s 955 691 m -6 Y s 967 691 m -6 Y
 s 979 698 m -13 Y s 992 691 m -6 Y s 1004 691 m -6 Y s 1016 691 m -6 Y s 1028 691 m -6 Y s 1040 698 m -13 Y s 1052 691 m -6 Y s 1065 691 m -6 Y s 1077 691 m -6 Y s 1089 691 m -6 Y s 1101 698 m -13 Y s 1113 691 m -6 Y s 1125 691 m -6 Y s 1138 691 m
 -6 Y s 1150 691 m -6 Y s 1162 698 m -13 Y s 1174 691 m -6 Y s 1186 691 m -6 Y s 1198 691 m -6 Y s 1211 691 m -6 Y s 1223 698 m -13 Y s 1235 691 m -6 Y s 1247 691 m -6 Y s 1259 691 m -6 Y s 1271 691 m -6 Y s 1284 698 m -13 Y s 1296 691 m -6 Y s 1308
 691 m -6 Y s 1320 691 m -6 Y s 1332 691 m -6 Y s 1344 698 m -13 Y s 1357 691 m -6 Y s 1369 691 m -6 Y s 1381 691 m -6 Y s 1393 691 m -6 Y s 1405 698 m -13 Y s 919 698 m -13 Y s 906 691 m -6 Y s 1405 698 m -13 Y s 1417 691 m -6 Y s 1430 691 m -6 Y s
 1442 691 m -6 Y s
 gsave  710 567 779 603 C 897.993 656.444 t 0 r /Helvetica findfont 25.6631 sf 0 0 m (0.15) show NC gr 
 gsave  710 567 779 603 C 886.626 656.444 t 0 r /Symbol findfont 25.6631 sf 0 0 m (-) show NC gr 
 gsave  710 567 779 603 C 966.195 656.444 t 0 r /Helvetica findfont 25.6631 sf 0 0 m (0.1) show NC gr 
 gsave  710 567 779 603 C 954.828 656.444 t 0 r /Symbol findfont 25.6631 sf 0 0 m (-) show NC gr 
 gsave  710 567 779 603 C 1020.19 656.444 t 0 r /Helvetica findfont 25.6631 sf 0 0 m (0.05) show NC gr 
 gsave  710 567 779 603 C 1008.82 656.444 t 0 r /Symbol findfont 25.6631 sf 0 0 m (-) show NC gr 
 gsave  710 567 779 603 C 1091.23 656.444 t 0 r /Helvetica findfont 25.6631 sf 0 0 m (0) show NC gr 
 gsave  710 567 779 603 C 1133.86 656.444 t 0 r /Helvetica findfont 25.6631 sf 0 0 m (0.05) show NC gr 
 gsave  710 567 779 603 C 1204.9 656.444 t 0 r /Helvetica findfont 25.6631 sf 0 0 m (0.1) show NC gr 
 gsave  710 567 779 603 C 1256.05 656.444 t 0 r /Helvetica findfont 25.6631 sf 0 0 m (0.15) show NC gr 
 gsave  710 567 779 603 C 1327.1 656.444 t 0 r /Helvetica findfont 25.6631 sf 0 0 m (0.2) show NC gr 
 gsave  710 567 779 603 C 1378.25 656.444 t 0 r /Helvetica findfont 25.6631 sf 0 0 m (0.25) show NC gr 
 gsave  710 567 779 603 C 1335.62 616.66 t 0 r /Helvetica findfont 28.5146 sf 0 0 m (yy.HT_l2) show NC gr  899 1114 m 548 X s 919 1100 m 14 Y s 931 1107 m 7 Y s 943 1107 m 7 Y s 955 1107 m 7 Y s 967 1107 m 7 Y s 979 1100 m 14 Y s 992 1107 m 7 Y s
 1004 1107 m 7 Y s 1016 1107 m 7 Y s 1028 1107 m 7 Y s 1040 1100 m 14 Y s 1052 1107 m 7 Y s 1065 1107 m 7 Y s 1077 1107 m 7 Y s 1089 1107 m 7 Y s 1101 1100 m 14 Y s 1113 1107 m 7 Y s 1125 1107 m 7 Y s 1138 1107 m 7 Y s 1150 1107 m 7 Y s 1162 1100 m
 14 Y s 1174 1107 m 7 Y s 1186 1107 m 7 Y s 1198 1107 m 7 Y s 1211 1107 m 7 Y s 1223 1100 m 14 Y s 1235 1107 m 7 Y s 1247 1107 m 7 Y s 1259 1107 m 7 Y s 1271 1107 m 7 Y s 1284 1100 m 14 Y s 1296 1107 m 7 Y s 1308 1107 m 7 Y s 1320 1107 m 7 Y s 1332
 1107 m 7 Y s 1344 1100 m 14 Y s 1357 1107 m 7 Y s 1369 1107 m 7 Y s 1381 1107 m 7 Y s 1393 1107 m 7 Y s 1405 1100 m 14 Y s 919 1100 m 14 Y s 906 1107 m 7 Y s 1405 1100 m 14 Y s 1417 1107 m 7 Y s 1430 1107 m 7 Y s 1442 1107 m 7 Y s 899 685 m 429 Y s
 915 685 m -16 X s 907 694 m -8 X s 907 703 m -8 X s 907 712 m -8 X s 907 721 m -8 X s 915 730 m -16 X s 907 739 m -8 X s 907 749 m -8 X s 907 758 m -8 X s 907 767 m -8 X s 915 776 m -16 X s 907 785 m -8 X s 907 794 m -8 X s 907 804 m -8 X s 907 813
 m -8 X s 915 822 m -16 X s 907 831 m -8 X s 907 840 m -8 X s 907 849 m -8 X s 907 858 m -8 X s 915 868 m -16 X s 907 877 m -8 X s 907 886 m -8 X s 907 895 m -8 X s 907 904 m -8 X s 915 913 m -16 X s 907 922 m -8 X s 907 932 m -8 X s 907 941 m -8 X s
 907 950 m -8 X s 915 959 m -16 X s 907 968 m -8 X s 907 977 m -8 X s 907 986 m -8 X s 907 996 m -8 X s 915 1005 m -16 X s 907 1014 m -8 X s 907 1023 m -8 X s 907 1032 m -8 X s 907 1041 m -8 X s 915 1050 m -16 X s 907 1060 m -8 X s 907 1069 m -8 X s
 907 1078 m -8 X s 907 1087 m -8 X s 915 1096 m -16 X s 915 1096 m -16 X s 907 1105 m -8 X s
 gsave  710 567 779 603 C 875.259 673.495 t 0 r /Helvetica findfont 25.6631 sf 0 0 m (0) show NC gr 
 gsave  710 567 779 603 C 878.101 721.805 t 0 r /Helvetica findfont 25.6631 sf 0 0 m (1) show NC gr 
 gsave  710 567 779 603 C 875.259 767.273 t 0 r /Helvetica findfont 25.6631 sf 0 0 m (2) show NC gr 
 gsave  710 567 779 603 C 875.259 812.741 t 0 r /Helvetica findfont 25.6631 sf 0 0 m (3) show NC gr 
 gsave  710 567 779 603 C 875.259 858.209 t 0 r /Helvetica findfont 25.6631 sf 0 0 m (4) show NC gr 
 gsave  710 567 779 603 C 875.259 903.677 t 0 r /Helvetica findfont 25.6631 sf 0 0 m (5) show NC gr 
 gsave  710 567 779 603 C 875.259 949.145 t 0 r /Helvetica findfont 25.6631 sf 0 0 m (6) show NC gr 
 gsave  710 567 779 603 C 875.259 994.613 t 0 r /Helvetica findfont 25.6631 sf 0 0 m (7) show NC gr 
 gsave  710 567 779 603 C 875.259 1040.08 t 0 r /Helvetica findfont 25.6631 sf 0 0 m (8) show NC gr 
 gsave  710 567 779 603 C 875.259 1085.55 t 0 r /Helvetica findfont 25.6631 sf 0 0 m (9) show NC gr 
 gsave  710 567 779 603 C 801.374 1023.03 t 90 r /Helvetica findfont 28.5146 sf 0 0 m (0.0112 ) show NC gr 
 gsave  710 567 779 603 C 787.165 1020.19 t 90 r /Helvetica findfont 19.9602 sf 0 0 m ( ) show NC gr 
 gsave  710 567 779 603 C 801.374 1008.82 t 90 r /Helvetica findfont 28.5146 sf 0 0 m (/) show NC gr 
 gsave  710 567 779 603 C 809.899 1005.98 t 90 r /Helvetica findfont 19.9602 sf 0 0 m ( ) show NC gr 
 gsave  710 567 779 603 C 801.374 900.835 t 90 r /Helvetica findfont 28.5146 sf 0 0 m (\(1/N\) dN) show NC gr  1447 685 m 429 Y s 1430 685 m 17 X s 1438 694 m 9 X s 1438 703 m 9 X s 1438 712 m 9 X s 1438 721 m 9 X s 1430 730 m 17 X s 1438 739 m 9 X s
 1438 749 m 9 X s 1438 758 m 9 X s 1438 767 m 9 X s 1430 776 m 17 X s 1438 785 m 9 X s 1438 794 m 9 X s 1438 804 m 9 X s 1438 813 m 9 X s 1430 822 m 17 X s 1438 831 m 9 X s 1438 840 m 9 X s 1438 849 m 9 X s 1438 858 m 9 X s 1430 868 m 17 X s 1438 877
 m 9 X s 1438 886 m 9 X s 1438 895 m 9 X s 1438 904 m 9 X s 1430 913 m 17 X s 1438 922 m 9 X s 1438 932 m 9 X s 1438 941 m 9 X s 1438 950 m 9 X s 1430 959 m 17 X s 1438 968 m 9 X s 1438 977 m 9 X s 1438 986 m 9 X s 1438 996 m 9 X s 1430 1005 m 17 X s
 1438 1014 m 9 X s 1438 1023 m 9 X s 1438 1032 m 9 X s 1438 1041 m 9 X s 1430 1050 m 17 X s 1438 1060 m 9 X s 1438 1069 m 9 X s 1438 1078 m 9 X s 1438 1087 m 9 X s 1430 1096 m 17 X s 1430 1096 m 17 X s 1438 1105 m 9 X s 0.490196 0.545098 0.615686 c
 0.364706 0.419608 0.490196 c 332 38 786 1130 bf 0.490196 0.545098 0.615686 c 786 1130 m 332 X s 1118 1130 m 38 Y s 1118 1168 m -332 X s 786 1168 m -38 Y s 1 1 1 c black 1 1 1 c
 gsave  710 567 779 603 C 790.007 1142.38 t 0 r /Helvetica-Bold findfont 28.5146 sf 0 0 m (Input variable: yy.HT_l2) show NC gr  1 0 0 c 6 lw black 3 lw 1 0 0 c 1432 685 m s 1417 685 m cl s 1405 688 m -3 -3 d s 1400 697 m -13 -12 d s 1392 704 m -20
 -19 d s 1378 706 m -21 -21 d s 1378 721 m -36 -36 d s 1371 729 m -44 -44 d s 1357 730 m -45 -45 d s 1351 739 m -54 -54 d s 1343 746 m -61 -61 d s 1325 744 m -58 -59 d s 1316 749 m -64 -64 d s 1308 757 m -71 -72 d s 1296 760 m -75 -75 d s 1282 761 m
 -76 -76 d s 1277 771 m -86 -86 d s 1258 767 m -82 -82 d s 1245 769 m -84 -84 d s 1233 772 m -5 -5 d s 1223 763 m -77 -78 d s 1211 765 m -80 -80 d s 1200 770 m -84 -85 d s 1197 781 m -10 -10 d s 1186 771 m -85 -86 d s 1173 772 m -87 -87 d s 1159 774
 m -88 -89 d s 1155 785 m -99 -100 d s 1141 786 m -100 -101 d s 1129 789 m -103 -104 d s 1118 793 m -108 -108 d s 1118 808 m -123 -123 d s 1118 824 m -13 -14 d s 1104 809 m -124 -124 d s 1077 797 m -112 -112 d s 1077 813 m -127 -128 d s 1066 817 m -2
 -3 d s 1063 814 m -123 -124 d s 935 685 m s 1048 814 m -108 -109 d s 920 685 m s 1036 817 m -96 -97 d s 905 685 m s 1036 832 m -96 -96 d s 1036 847 m -96 -96 d s 1036 862 m -96 -96 d s 1023 864 m -83 -83 d s 1020 876 m -66 -66 d s 942 798 m -2 -2 d
 s 1009 880 m -55 -55 d s 1009 896 m -55 -56 d s 1009 911 m -55 -55 d s 1008 925 m -54 -54 d s 995 927 m -41 -41 d s 995 942 m -41 -41 d s 995 958 m -41 -42 d s 995 973 m -41 -41 d s 995 988 m -41 -41 d s 984 992 m -30 -30 d s 981 1005 m -27 -28 d s
 981 1020 m -27 -28 d s 979 1033 m -25 -26 d s 968 1036 m -14 -13 d s 968 1052 m -14 -14 d s 968 1067 m -14 -14 d s 960 1075 m -6 -7 d s 6 lw 899 685 m 41 X 113 Y 14 X 277 Y 14 X -42 Y 13 X -41 Y 14 X -67 Y 14 X -49 Y 13 X -12 Y 14 X -50 Y 28 X 3 Y
 13 X -21 Y 14 X 13 Y 14 X 15 Y 13 X -35 Y 14 X -3 Y 14 X -1 Y 13 X -11 Y 14 X -3 Y 14 X 10 Y 13 X -16 Y 14 X -2 Y 14 X 9 Y 13 X -3 Y 14 X -2 Y 14 X 4 Y 13 X -11 Y 14 X -3 Y 14 X -8 Y 13 X -5 Y 14 X 2 Y 14 X -16 Y 13 X -1 Y 14 X -24 Y 14 X -8 Y 13 X
 -12 Y 42 X s black 3 lw 899 685 m 548 X s 919 698 m -13 Y s 931 691 m -6 Y s 943 691 m -6 Y s 955 691 m -6 Y s 967 691 m -6 Y s 979 698 m -13 Y s 992 691 m -6 Y s 1004 691 m -6 Y s 1016 691 m -6 Y s 1028 691 m -6 Y s 1040 698 m -13 Y s 1052 691 m -6
 Y s 1065 691 m -6 Y s 1077 691 m -6 Y s 1089 691 m -6 Y s 1101 698 m -13 Y s 1113 691 m -6 Y s 1125 691 m -6 Y s 1138 691 m -6 Y s 1150 691 m -6 Y s 1162 698 m -13 Y s 1174 691 m -6 Y s 1186 691 m -6 Y s 1198 691 m -6 Y s 1211 691 m -6 Y s 1223 698
 m -13 Y s 1235 691 m -6 Y s 1247 691 m -6 Y s 1259 691 m -6 Y s 1271 691 m -6 Y s 1284 698 m -13 Y s 1296 691 m -6 Y s 1308 691 m -6 Y s 1320 691 m -6 Y s 1332 691 m -6 Y s 1344 698 m -13 Y s 1357 691 m -6 Y s 1369 691 m -6 Y s 1381 691 m -6 Y s
 1393 691 m -6 Y s 1405 698 m -13 Y s 919 698 m -13 Y s 906 691 m -6 Y s 1405 698 m -13 Y s 1417 691 m -6 Y s 1430 691 m -6 Y s 1442 691 m -6 Y s 899 1114 m 548 X s 919 1100 m 14 Y s 931 1107 m 7 Y s 943 1107 m 7 Y s 955 1107 m 7 Y s 967 1107 m 7 Y s
 979 1100 m 14 Y s 992 1107 m 7 Y s 1004 1107 m 7 Y s 1016 1107 m 7 Y s 1028 1107 m 7 Y s 1040 1100 m 14 Y s 1052 1107 m 7 Y s 1065 1107 m 7 Y s 1077 1107 m 7 Y s 1089 1107 m 7 Y s 1101 1100 m 14 Y s 1113 1107 m 7 Y s 1125 1107 m 7 Y s 1138 1107 m 7
 Y s 1150 1107 m 7 Y s 1162 1100 m 14 Y s 1174 1107 m 7 Y s 1186 1107 m 7 Y s 1198 1107 m 7 Y s 1211 1107 m 7 Y s 1223 1100 m 14 Y s 1235 1107 m 7 Y s 1247 1107 m 7 Y s 1259 1107 m 7 Y s 1271 1107 m 7 Y s 1284 1100 m 14 Y s 1296 1107 m 7 Y s 1308
 1107 m 7 Y s 1320 1107 m 7 Y s 1332 1107 m 7 Y s 1344 1100 m 14 Y s 1357 1107 m 7 Y s 1369 1107 m 7 Y s 1381 1107 m 7 Y s 1393 1107 m 7 Y s 1405 1100 m 14 Y s 919 1100 m 14 Y s 906 1107 m 7 Y s 1405 1100 m 14 Y s 1417 1107 m 7 Y s 1430 1107 m 7 Y s
 1442 1107 m 7 Y s 899 685 m 429 Y s 915 685 m -16 X s 907 694 m -8 X s 907 703 m -8 X s 907 712 m -8 X s 907 721 m -8 X s 915 730 m -16 X s 907 739 m -8 X s 907 749 m -8 X s 907 758 m -8 X s 907 767 m -8 X s 915 776 m -16 X s 907 785 m -8 X s 907
 794 m -8 X s 907 804 m -8 X s 907 813 m -8 X s 915 822 m -16 X s 907 831 m -8 X s 907 840 m -8 X s 907 849 m -8 X s 907 858 m -8 X s 915 868 m -16 X s 907 877 m -8 X s 907 886 m -8 X s 907 895 m -8 X s 907 904 m -8 X s 915 913 m -16 X s 907 922 m -8
 X s 907 932 m -8 X s 907 941 m -8 X s 907 950 m -8 X s 915 959 m -16 X s 907 968 m -8 X s 907 977 m -8 X s 907 986 m -8 X s 907 996 m -8 X s 915 1005 m -16 X s 907 1014 m -8 X s 907 1023 m -8 X s 907 1032 m -8 X s 907 1041 m -8 X s 915 1050 m -16 X
 s 907 1060 m -8 X s 907 1069 m -8 X s 907 1078 m -8 X s 907 1087 m -8 X s 915 1096 m -16 X s 915 1096 m -16 X s 907 1105 m -8 X s 1447 685 m 429 Y s 1430 685 m 17 X s 1438 694 m 9 X s 1438 703 m 9 X s 1438 712 m 9 X s 1438 721 m 9 X s 1430 730 m 17
 X s 1438 739 m 9 X s 1438 749 m 9 X s 1438 758 m 9 X s 1438 767 m 9 X s 1430 776 m 17 X s 1438 785 m 9 X s 1438 794 m 9 X s 1438 804 m 9 X s 1438 813 m 9 X s 1430 822 m 17 X s 1438 831 m 9 X s 1438 840 m 9 X s 1438 849 m 9 X s 1438 858 m 9 X s 1430
 868 m 17 X s 1438 877 m 9 X s 1438 886 m 9 X s 1438 895 m 9 X s 1438 904 m 9 X s 1430 913 m 17 X s 1438 922 m 9 X s 1438 932 m 9 X s 1438 941 m 9 X s 1438 950 m 9 X s 1430 959 m 17 X s 1438 968 m 9 X s 1438 977 m 9 X s 1438 986 m 9 X s 1438 996 m 9
 X s 1430 1005 m 17 X s 1438 1014 m 9 X s 1438 1023 m 9 X s 1438 1032 m 9 X s 1438 1041 m 9 X s 1430 1050 m 17 X s 1438 1060 m 9 X s 1438 1069 m 9 X s 1438 1078 m 9 X s 1438 1087 m 9 X s 1430 1096 m 17 X s 1430 1096 m 17 X s 1438 1105 m 9 X s
 gsave  710 567 779 603 C 1474.92 682.347 t 90 r /Helvetica-Bold findfont 19.9602 sf 0 0 m (U/O\255flow \(S,B\): \(0.0, 0.0\)% / \(0.0, 0.0\)%) show NC gr  0.490196 0.545098 0.615686 c 0.364706 0.419608 0.490196 c 332 38 786 1130 bf 0.490196 0.545098
 0.615686 c 786 1130 m 332 X s 1118 1130 m 38 Y s 1118 1168 m -332 X s 786 1168 m -38 Y s 1 1 1 c black 1 1 1 c
 gsave  710 567 779 603 C 790.007 1142.38 t 0 r /Helvetica-Bold findfont 28.5146 sf 0 0 m (Input variable: yy.HT_l2) show NC gr  0.490196 0.545098 0.615686 c 0.941176 0.941176 0.941176 c 711 567 1534 603 bf black 1 1 0.992157 c 547 429 1655 685 bf
 black 547 429 1655 685 bl 0 0 0.933333 c 6 lw 0.49 0.6 0.82 c black 3 lw 0.49 0.6 0.82 c 1655 685 m 41 X 128 Y 14 X 124 Y 14 X 59 Y 13 X -41 Y 14 X 68 Y 14 X -66 Y 13 X 11 Y 14 X -18 Y 14 X -26 Y 13 X -27 Y 14 X 23 Y 14 X -20 Y 13 X 17 Y 14 X -28 Y
 14 X -4 Y 13 X -4 Y 14 X -39 Y 14 X 14 Y 14 X 14 Y 13 X -41 Y 14 X 8 Y 14 X -29 Y 13 X 6 Y 14 X -10 Y 14 X -18 Y 13 X -8 Y 14 X -14 Y 14 X -6 Y 13 X -20 Y 14 X -7 Y 14 X -24 Y 13 X -9 Y 14 X -10 Y 14 X -3 Y 54 X f 6 lw 0 0 0.933333 c 0.49 0.6 0.82 c
 0 0 0.933333 c 1655 685 m 41 X 128 Y 14 X 124 Y 14 X 59 Y 13 X -41 Y 14 X 68 Y 14 X -66 Y 13 X 11 Y 14 X -18 Y 14 X -26 Y 13 X -27 Y 14 X 23 Y 14 X -20 Y 13 X 17 Y 14 X -28 Y 14 X -4 Y 13 X -4 Y 14 X -39 Y 14 X 14 Y 14 X 14 Y 13 X -41 Y 14 X 8 Y 14
 X -29 Y 13 X 6 Y 14 X -10 Y 14 X -18 Y 13 X -8 Y 14 X -14 Y 14 X -6 Y 13 X -20 Y 14 X -7 Y 14 X -24 Y 13 X -9 Y 14 X -10 Y 14 X -3 Y 54 X s black 3 lw 1655 685 m 547 X s 1672 698 m -13 Y s 1684 691 m -6 Y s 1696 691 m -6 Y s 1708 691 m -6 Y s 1720
 691 m -6 Y s 1732 698 m -13 Y s 1744 691 m -6 Y s 1756 691 m -6 Y s 1768 691 m -6 Y s 1780 691 m -6 Y s 1792 698 m -13 Y s 1804 691 m -6 Y s 1816 691 m -6 Y s 1828 691 m -6 Y s 1840 691 m -6 Y s 1852 698 m -13 Y s 1864 691 m -6 Y s 1876 691 m -6 Y s
 1888 691 m -6 Y s 1900 691 m -6 Y s 1912 698 m -13 Y s 1924 691 m -6 Y s 1936 691 m -6 Y s 1948 691 m -6 Y s 1960 691 m -6 Y s 1972 698 m -13 Y s 1984 691 m -6 Y s 1996 691 m -6 Y s 2008 691 m -6 Y s 2020 691 m -6 Y s 2032 698 m -13 Y s 2044 691 m
 -6 Y s 2056 691 m -6 Y s 2068 691 m -6 Y s 2080 691 m -6 Y s 2092 698 m -13 Y s 2104 691 m -6 Y s 2116 691 m -6 Y s 2128 691 m -6 Y s 2140 691 m -6 Y s 2152 698 m -13 Y s 1672 698 m -13 Y s 1660 691 m -6 Y s 2152 698 m -13 Y s 2164 691 m -6 Y s 2176
 691 m -6 Y s 2188 691 m -6 Y s 2200 691 m -6 Y s
 gsave  711 567 1534 603 C 1651.06 656.444 t 0 r /Helvetica findfont 25.6631 sf 0 0 m (0.15) show NC gr 
 gsave  711 567 1534 603 C 1639.69 656.444 t 0 r /Symbol findfont 25.6631 sf 0 0 m (-) show NC gr 
 gsave  711 567 1534 603 C 1719.26 656.444 t 0 r /Helvetica findfont 25.6631 sf 0 0 m (0.1) show NC gr 
 gsave  711 567 1534 603 C 1707.89 656.444 t 0 r /Symbol findfont 25.6631 sf 0 0 m (-) show NC gr 
 gsave  711 567 1534 603 C 1770.41 656.444 t 0 r /Helvetica findfont 25.6631 sf 0 0 m (0.05) show NC gr 
 gsave  711 567 1534 603 C 1759.04 656.444 t 0 r /Symbol findfont 25.6631 sf 0 0 m (-) show NC gr 
 gsave  711 567 1534 603 C 1841.45 656.444 t 0 r /Helvetica findfont 25.6631 sf 0 0 m (0) show NC gr 
 gsave  711 567 1534 603 C 1884.08 656.444 t 0 r /Helvetica findfont 25.6631 sf 0 0 m (0.05) show NC gr 
 gsave  711 567 1534 603 C 1952.28 656.444 t 0 r /Helvetica findfont 25.6631 sf 0 0 m (0.1) show NC gr 
 gsave  711 567 1534 603 C 2003.43 656.444 t 0 r /Helvetica findfont 25.6631 sf 0 0 m (0.15) show NC gr 
 gsave  711 567 1534 603 C 2074.48 656.444 t 0 r /Helvetica findfont 25.6631 sf 0 0 m (0.2) show NC gr 
 gsave  711 567 1534 603 C 2125.63 656.444 t 0 r /Helvetica findfont 25.6631 sf 0 0 m (0.25) show NC gr 
 gsave  711 567 1534 603 C 2091.53 616.66 t 0 r /Helvetica findfont 28.5146 sf 0 0 m (yy.HP_l2) show NC gr  1655 1114 m 547 X s 1672 1100 m 14 Y s 1684 1107 m 7 Y s 1696 1107 m 7 Y s 1708 1107 m 7 Y s 1720 1107 m 7 Y s 1732 1100 m 14 Y s 1744 1107 m
 7 Y s 1756 1107 m 7 Y s 1768 1107 m 7 Y s 1780 1107 m 7 Y s 1792 1100 m 14 Y s 1804 1107 m 7 Y s 1816 1107 m 7 Y s 1828 1107 m 7 Y s 1840 1107 m 7 Y s 1852 1100 m 14 Y s 1864 1107 m 7 Y s 1876 1107 m 7 Y s 1888 1107 m 7 Y s 1900 1107 m 7 Y s 1912
 1100 m 14 Y s 1924 1107 m 7 Y s 1936 1107 m 7 Y s 1948 1107 m 7 Y s 1960 1107 m 7 Y s 1972 1100 m 14 Y s 1984 1107 m 7 Y s 1996 1107 m 7 Y s 2008 1107 m 7 Y s 2020 1107 m 7 Y s 2032 1100 m 14 Y s 2044 1107 m 7 Y s 2056 1107 m 7 Y s 2068 1107 m 7 Y s
 2080 1107 m 7 Y s 2092 1100 m 14 Y s 2104 1107 m 7 Y s 2116 1107 m 7 Y s 2128 1107 m 7 Y s 2140 1107 m 7 Y s 2152 1100 m 14 Y s 1672 1100 m 14 Y s 1660 1107 m 7 Y s 2152 1100 m 14 Y s 2164 1107 m 7 Y s 2176 1107 m 7 Y s 2188 1107 m 7 Y s 2200 1107 m
 7 Y s 1655 685 m 429 Y s 1671 685 m -16 X s 1663 697 m -8 X s 1663 710 m -8 X s 1663 722 m -8 X s 1663 735 m -8 X s 1671 748 m -16 X s 1663 760 m -8 X s 1663 773 m -8 X s 1663 785 m -8 X s 1663 798 m -8 X s 1671 811 m -16 X s 1663 823 m -8 X s 1663
 836 m -8 X s 1663 848 m -8 X s 1663 861 m -8 X s 1671 874 m -16 X s 1663 886 m -8 X s 1663 899 m -8 X s 1663 911 m -8 X s 1663 924 m -8 X s 1671 937 m -16 X s 1663 949 m -8 X s 1663 962 m -8 X s 1663 974 m -8 X s 1663 987 m -8 X s 1671 1000 m -16 X
 s 1663 1012 m -8 X s 1663 1025 m -8 X s 1663 1037 m -8 X s 1663 1050 m -8 X s 1671 1063 m -16 X s 1671 1063 m -16 X s 1663 1075 m -8 X s 1663 1088 m -8 X s 1663 1100 m -8 X s 1663 1113 m -8 X s
 gsave  711 567 1534 603 C 1631.16 673.495 t 0 r /Helvetica findfont 25.6631 sf 0 0 m (0) show NC gr 
 gsave  711 567 1534 603 C 1634.01 738.855 t 0 r /Helvetica findfont 25.6631 sf 0 0 m (1) show NC gr 
 gsave  711 567 1534 603 C 1631.16 801.374 t 0 r /Helvetica findfont 25.6631 sf 0 0 m (2) show NC gr 
 gsave  711 567 1534 603 C 1631.16 863.892 t 0 r /Helvetica findfont 25.6631 sf 0 0 m (3) show NC gr 
 gsave  711 567 1534 603 C 1631.16 926.411 t 0 r /Helvetica findfont 25.6631 sf 0 0 m (4) show NC gr 
 gsave  711 567 1534 603 C 1631.16 988.929 t 0 r /Helvetica findfont 25.6631 sf 0 0 m (5) show NC gr 
 gsave  711 567 1534 603 C 1631.16 1051.45 t 0 r /Helvetica findfont 25.6631 sf 0 0 m (6) show NC gr 
 gsave  711 567 1534 603 C 1557.28 1023.03 t 90 r /Helvetica findfont 28.5146 sf 0 0 m (0.0114 ) show NC gr 
 gsave  711 567 1534 603 C 1543.07 1020.19 t 90 r /Helvetica findfont 19.9602 sf 0 0 m ( ) show NC gr 
 gsave  711 567 1534 603 C 1557.28 1008.82 t 90 r /Helvetica findfont 28.5146 sf 0 0 m (/) show NC gr 
 gsave  711 567 1534 603 C 1565.8 1005.98 t 90 r /Helvetica findfont 19.9602 sf 0 0 m ( ) show NC gr 
 gsave  711 567 1534 603 C 1557.28 900.835 t 90 r /Helvetica findfont 28.5146 sf 0 0 m (\(1/N\) dN) show NC gr  2202 685 m 429 Y s 2186 685 m 16 X s 2194 697 m 8 X s 2194 710 m 8 X s 2194 722 m 8 X s 2194 735 m 8 X s 2186 748 m 16 X s 2194 760 m 8 X
 s 2194 773 m 8 X s 2194 785 m 8 X s 2194 798 m 8 X s 2186 811 m 16 X s 2194 823 m 8 X s 2194 836 m 8 X s 2194 848 m 8 X s 2194 861 m 8 X s 2186 874 m 16 X s 2194 886 m 8 X s 2194 899 m 8 X s 2194 911 m 8 X s 2194 924 m 8 X s 2186 937 m 16 X s 2194
 949 m 8 X s 2194 962 m 8 X s 2194 974 m 8 X s 2194 987 m 8 X s 2186 1000 m 16 X s 2194 1012 m 8 X s 2194 1025 m 8 X s 2194 1037 m 8 X s 2194 1050 m 8 X s 2186 1063 m 16 X s 2186 1063 m 16 X s 2194 1075 m 8 X s 2194 1088 m 8 X s 2194 1100 m 8 X s
 2194 1113 m 8 X s 0.490196 0.545098 0.615686 c 0.364706 0.419608 0.490196 c 335 38 1542 1130 bf 0.490196 0.545098 0.615686 c 1542 1130 m 335 X s 1877 1130 m 38 Y s 1877 1168 m -335 X s 1542 1168 m -38 Y s 1 1 1 c black 1 1 1 c
 gsave  711 567 1534 603 C 1545.91 1142.38 t 0 r /Helvetica-Bold findfont 28.5146 sf 0 0 m (Input variable: yy.HP_l2) show NC gr  1 0 0 c 6 lw black 3 lw 1 0 0 c 2188 685 m s 2173 685 m s 2161 688 m -3 -3 d s 2148 689 m -5 -4 d s 2147 703 m -19 -18 d
 s 2134 706 m -21 -21 d s 2134 721 m -36 -36 d s 2126 728 m -43 -43 d s 2120 738 m -52 -53 d s 2116 749 m -63 -64 d s 2102 750 m -64 -65 d s 2093 756 m -70 -71 d s 2091 769 m -12 -12 d s 2078 756 m -70 -71 d s 2066 758 m -74 -73 d s 2066 774 m -89
 -89 d s 2052 775 m -90 -90 d s 2052 790 m -105 -105 d s 2026 780 m -94 -95 d s 2025 793 m -108 -108 d s 2025 808 m -14 -14 d s 2006 790 m -104 -105 d s 2018 817 m -7 -7 d s 1995 794 m -108 -109 d s 1982 795 m -110 -110 d s 1970 799 m -113 -114 d s
 1958 802 m -116 -117 d s 1956 815 m -13 -14 d s 1931 790 m -104 -105 d s 1943 817 m s 1929 803 m -117 -118 d s 1925 814 m -10 -10 d s 1906 795 m -110 -110 d s 1901 806 m -120 -121 d s 1901 821 m -135 -136 d s 1901 836 m -150 -151 d s 1898 847 m -10
 -10 d s 1887 837 m -151 -152 d s 1874 839 m -153 -154 d s 1874 854 m -168 -169 d s 1864 859 m -168 -169 d s 1691 685 m s 1860 871 m -13 -14 d s 1843 853 m -147 -148 d s 1676 685 m s 1860 886 m -13 -14 d s 1833 858 m -137 -138 d s 1661 685 m s 1851
 891 m -4 -4 d s 1819 860 m -123 -124 d s 1819 875 m -123 -124 d s 1819 890 m -123 -124 d s 1819 905 m -123 -124 d s 1806 907 m -110 -111 d s 1806 922 m -110 -111 d s 1794 925 m -98 -98 d s 1792 938 m -96 -96 d s 1792 953 m -96 -96 d s 1792 969 m -96
 -97 d s 1792 984 m -82 -83 d s 1707 898 m -11 -11 d s 1780 987 m -70 -71 d s 1778 1000 m -68 -68 d s 1778 1016 m -68 -69 d s 1778 1031 m -68 -69 d s 1778 1046 m -13 -14 d s 1764 1032 m -54 -55 d s 1766 1049 m -1 -2 d s 1751 1034 m -41 -42 d s 1751
 1049 m -41 -42 d s 1745 1057 m -21 -21 d s 1719 1032 m -9 -9 d s 1737 1065 m -13 -13 d s 1731 1075 m -7 -8 d s 6 lw 1655 685 m 41 X 213 Y 14 X 134 Y 14 X 43 Y 13 X -18 Y 14 X -25 Y 14 X 17 Y 13 X -62 Y 14 X -62 Y 14 X -18 Y 13 X -48 Y 14 X -6 Y 14 X
 38 Y 13 X -32 Y 14 X -22 Y 14 X 10 Y 13 X -52 Y 14 X 19 Y 14 X -24 Y 14 X 27 Y 13 X -15 Y 14 X -7 Y 14 X -1 Y 13 X -4 Y 14 X 27 Y 14 X -37 Y 13 X 10 Y 14 X -16 Y 14 X -18 Y 13 X 13 Y 14 X -19 Y 14 X -1 Y 13 X -21 Y 14 X -25 Y 14 X -14 Y 13 X -4 Y 41
 X s black 3 lw 1655 685 m 547 X s 1672 698 m -13 Y s 1684 691 m -6 Y s 1696 691 m -6 Y s 1708 691 m -6 Y s 1720 691 m -6 Y s 1732 698 m -13 Y s 1744 691 m -6 Y s 1756 691 m -6 Y s 1768 691 m -6 Y s 1780 691 m -6 Y s 1792 698 m -13 Y s 1804 691 m -6
 Y s 1816 691 m -6 Y s 1828 691 m -6 Y s 1840 691 m -6 Y s 1852 698 m -13 Y s 1864 691 m -6 Y s 1876 691 m -6 Y s 1888 691 m -6 Y s 1900 691 m -6 Y s 1912 698 m -13 Y s 1924 691 m -6 Y s 1936 691 m -6 Y s 1948 691 m -6 Y s 1960 691 m -6 Y s 1972 698
 m -13 Y s 1984 691 m -6 Y s 1996 691 m -6 Y s 2008 691 m -6 Y s 2020 691 m -6 Y s 2032 698 m -13 Y s 2044 691 m -6 Y s 2056 691 m -6 Y s 2068 691 m -6 Y s 2080 691 m -6 Y s 2092 698 m -13 Y s 2104 691 m -6 Y s 2116 691 m -6 Y s 2128 691 m -6 Y s
 2140 691 m -6 Y s 2152 698 m -13 Y s 1672 698 m -13 Y s 1660 691 m -6 Y s 2152 698 m -13 Y s 2164 691 m -6 Y s 2176 691 m -6 Y s 2188 691 m -6 Y s 2200 691 m -6 Y s 1655 1114 m 547 X s 1672 1100 m 14 Y s 1684 1107 m 7 Y s 1696 1107 m 7 Y s 1708 1107
 m 7 Y s 1720 1107 m 7 Y s 1732 1100 m 14 Y s 1744 1107 m 7 Y s 1756 1107 m 7 Y s 1768 1107 m 7 Y s 1780 1107 m 7 Y s 1792 1100 m 14 Y s 1804 1107 m 7 Y s 1816 1107 m 7 Y s 1828 1107 m 7 Y s 1840 1107 m 7 Y s 1852 1100 m 14 Y s 1864 1107 m 7 Y s 1876
 1107 m 7 Y s 1888 1107 m 7 Y s 1900 1107 m 7 Y s 1912 1100 m 14 Y s 1924 1107 m 7 Y s 1936 1107 m 7 Y s 1948 1107 m 7 Y s 1960 1107 m 7 Y s 1972 1100 m 14 Y s 1984 1107 m 7 Y s 1996 1107 m 7 Y s 2008 1107 m 7 Y s 2020 1107 m 7 Y s 2032 1100 m 14 Y s
 2044 1107 m 7 Y s 2056 1107 m 7 Y s 2068 1107 m 7 Y s 2080 1107 m 7 Y s 2092 1100 m 14 Y s 2104 1107 m 7 Y s 2116 1107 m 7 Y s 2128 1107 m 7 Y s 2140 1107 m 7 Y s 2152 1100 m 14 Y s 1672 1100 m 14 Y s 1660 1107 m 7 Y s 2152 1100 m 14 Y s 2164 1107 m
 7 Y s 2176 1107 m 7 Y s 2188 1107 m 7 Y s 2200 1107 m 7 Y s 1655 685 m 429 Y s 1671 685 m -16 X s 1663 697 m -8 X s 1663 710 m -8 X s 1663 722 m -8 X s 1663 735 m -8 X s 1671 748 m -16 X s 1663 760 m -8 X s 1663 773 m -8 X s 1663 785 m -8 X s 1663
 798 m -8 X s 1671 811 m -16 X s 1663 823 m -8 X s 1663 836 m -8 X s 1663 848 m -8 X s 1663 861 m -8 X s 1671 874 m -16 X s 1663 886 m -8 X s 1663 899 m -8 X s 1663 911 m -8 X s 1663 924 m -8 X s 1671 937 m -16 X s 1663 949 m -8 X s 1663 962 m -8 X s
 1663 974 m -8 X s 1663 987 m -8 X s 1671 1000 m -16 X s 1663 1012 m -8 X s 1663 1025 m -8 X s 1663 1037 m -8 X s 1663 1050 m -8 X s 1671 1063 m -16 X s 1671 1063 m -16 X s 1663 1075 m -8 X s 1663 1088 m -8 X s 1663 1100 m -8 X s 1663 1113 m -8 X s
 2202 685 m 429 Y s 2186 685 m 16 X s 2194 697 m 8 X s 2194 710 m 8 X s 2194 722 m 8 X s 2194 735 m 8 X s 2186 748 m 16 X s 2194 760 m 8 X s 2194 773 m 8 X s 2194 785 m 8 X s 2194 798 m 8 X s 2186 811 m 16 X s 2194 823 m 8 X s 2194 836 m 8 X s 2194
 848 m 8 X s 2194 861 m 8 X s 2186 874 m 16 X s 2194 886 m 8 X s 2194 899 m 8 X s 2194 911 m 8 X s 2194 924 m 8 X s 2186 937 m 16 X s 2194 949 m 8 X s 2194 962 m 8 X s 2194 974 m 8 X s 2194 987 m 8 X s 2186 1000 m 16 X s 2194 1012 m 8 X s 2194 1025 m
 8 X s 2194 1037 m 8 X s 2194 1050 m 8 X s 2186 1063 m 16 X s 2186 1063 m 16 X s 2194 1075 m 8 X s 2194 1088 m 8 X s 2194 1100 m 8 X s 2194 1113 m 8 X s
 gsave  711 567 1534 603 C 2230.83 682.347 t 90 r /Helvetica-Bold findfont 19.9602 sf 0 0 m (U/O\255flow \(S,B\): \(0.0, 0.0\)% / \(0.0, 0.0\)%) show NC gr  0.490196 0.545098 0.615686 c 0.364706 0.419608 0.490196 c 335 38 1542 1130 bf 0.490196
 0.545098 0.615686 c 1542 1130 m 335 X s 1877 1130 m 38 Y s 1877 1168 m -335 X s 1542 1168 m -38 Y s 1 1 1 c black 1 1 1 c
 gsave  711 567 1534 603 C 1545.91 1142.38 t 0 r /Helvetica-Bold findfont 28.5146 sf 0 0 m (Input variable: yy.HP_l2) show NC gr  0.490196 0.545098 0.615686 c 0.941176 0.941176 0.941176 c 710 567 23 12 bf black 1 1 0.992157 c 548 429 143 94 bf black
 548 429 143 94 bl 0 0 0.933333 c 6 lw 0.49 0.6 0.82 c black 3 lw 0.49 0.6 0.82 c 143 114 m 69 X 268 Y 14 X -140 Y 13 X -24 Y 14 X -14 Y 14 X -2 Y 13 X -10 Y 14 X -6 Y 14 X 4 Y 13 X -6 Y 14 X 5 Y 14 X -10 Y 13 X 5 Y 14 X -6 Y 14 X 5 Y 13 X -11 Y 14 X
 5 Y 14 X -10 Y 13 X 2 Y 14 X -12 Y 14 X 8 Y 13 X -10 Y 14 X -8 Y 14 X -14 Y 13 X -13 Y 14 X -6 Y 151 X f 6 lw 0 0 0.933333 c 0.49 0.6 0.82 c 0 0 0.933333 c 143 114 m 69 X 268 Y 14 X -140 Y 13 X -24 Y 14 X -14 Y 14 X -2 Y 13 X -10 Y 14 X -6 Y 14 X 4
 Y 13 X -6 Y 14 X 5 Y 14 X -10 Y 13 X 5 Y 14 X -6 Y 14 X 5 Y 13 X -11 Y 14 X 5 Y 14 X -10 Y 13 X 2 Y 14 X -12 Y 14 X 8 Y 13 X -10 Y 14 X -8 Y 14 X -14 Y 13 X -13 Y 14 X -6 Y 151 X s black 3 lw 143 94 m 548 X s 146 107 m -13 Y s 164 100 m -6 Y s 182
 100 m -6 Y s 199 100 m -6 Y s 217 100 m -6 Y s 234 107 m -13 Y s 252 100 m -6 Y s 269 100 m -6 Y s 287 100 m -6 Y s 305 100 m -6 Y s 322 107 m -13 Y s 340 100 m -6 Y s 357 100 m -6 Y s 375 100 m -6 Y s 392 100 m -6 Y s 410 107 m -13 Y s 427 100 m -6
 Y s 445 100 m -6 Y s 463 100 m -6 Y s 480 100 m -6 Y s 498 107 m -13 Y s 515 100 m -6 Y s 533 100 m -6 Y s 550 100 m -6 Y s 568 100 m -6 Y s 586 107 m -13 Y s 603 100 m -6 Y s 621 100 m -6 Y s 638 100 m -6 Y s 656 100 m -6 Y s 673 107 m -13 Y s 146
 107 m -13 Y s 673 107 m -13 Y s
 gsave  710 567 23 12 C 133.562 65.3603 t 0 r /Helvetica findfont 25.6631 sf 0 0 m (0.2) show NC gr 
 gsave  710 567 23 12 C 119.354 65.3603 t 0 r /Symbol findfont 25.6631 sf 0 0 m (-) show NC gr 
 gsave  710 567 23 12 C 221.657 65.3603 t 0 r /Helvetica findfont 25.6631 sf 0 0 m (0.1) show NC gr 
 gsave  710 567 23 12 C 210.29 65.3603 t 0 r /Symbol findfont 25.6631 sf 0 0 m (-) show NC gr 
 gsave  710 567 23 12 C 312.592 65.3603 t 0 r /Helvetica findfont 25.6631 sf 0 0 m (0) show NC gr 
 gsave  710 567 23 12 C 392.161 65.3603 t 0 r /Helvetica findfont 25.6631 sf 0 0 m (0.1) show NC gr 
 gsave  710 567 23 12 C 480.256 65.3603 t 0 r /Helvetica findfont 25.6631 sf 0 0 m (0.2) show NC gr 
 gsave  710 567 23 12 C 568.35 65.3603 t 0 r /Helvetica findfont 25.6631 sf 0 0 m (0.3) show NC gr 
 gsave  710 567 23 12 C 653.603 65.3603 t 0 r /Helvetica findfont 25.6631 sf 0 0 m (0.4) show NC gr 
 gsave  710 567 23 12 C 579.717 25.5758 t 0 r /Helvetica findfont 28.5146 sf 0 0 m (yy.HY_l2) show NC gr  143 523 m 548 X s 146 509 m 14 Y s 164 516 m 7 Y s 182 516 m 7 Y s 199 516 m 7 Y s 217 516 m 7 Y s 234 509 m 14 Y s 252 516 m 7 Y s 269 516 m 7
 Y s 287 516 m 7 Y s 305 516 m 7 Y s 322 509 m 14 Y s 340 516 m 7 Y s 357 516 m 7 Y s 375 516 m 7 Y s 392 516 m 7 Y s 410 509 m 14 Y s 427 516 m 7 Y s 445 516 m 7 Y s 463 516 m 7 Y s 480 516 m 7 Y s 498 509 m 14 Y s 515 516 m 7 Y s 533 516 m 7 Y s
 550 516 m 7 Y s 568 516 m 7 Y s 586 509 m 14 Y s 603 516 m 7 Y s 621 516 m 7 Y s 638 516 m 7 Y s 656 516 m 7 Y s 673 509 m 14 Y s 146 509 m 14 Y s 673 509 m 14 Y s 143 94 m 429 Y s 160 114 m -17 X s 152 128 m -9 X s 152 141 m -9 X s 152 155 m -9 X s
 160 168 m -17 X s 152 182 m -9 X s 152 195 m -9 X s 152 209 m -9 X s 160 222 m -17 X s 152 236 m -9 X s 152 249 m -9 X s 152 263 m -9 X s 160 276 m -17 X s 152 290 m -9 X s 152 303 m -9 X s 152 317 m -9 X s 160 331 m -17 X s 152 344 m -9 X s 152 358
 m -9 X s 152 371 m -9 X s 160 385 m -17 X s 152 398 m -9 X s 152 412 m -9 X s 152 425 m -9 X s 160 439 m -17 X s 152 452 m -9 X s 152 466 m -9 X s 152 479 m -9 X s 160 493 m -17 X s 160 114 m -17 X s 152 100 m -9 X s 160 493 m -17 X s 152 506 m -9 X
 s 152 520 m -9 X s
 gsave  710 567 23 12 C 119.354 105.145 t 0 r /Helvetica findfont 25.6631 sf 0 0 m (0) show NC gr 
 gsave  710 567 23 12 C 119.354 159.138 t 0 r /Helvetica findfont 25.6631 sf 0 0 m (2) show NC gr 
 gsave  710 567 23 12 C 119.354 213.131 t 0 r /Helvetica findfont 25.6631 sf 0 0 m (4) show NC gr 
 gsave  710 567 23 12 C 119.354 267.125 t 0 r /Helvetica findfont 25.6631 sf 0 0 m (6) show NC gr 
 gsave  710 567 23 12 C 119.354 321.118 t 0 r /Helvetica findfont 25.6631 sf 0 0 m (8) show NC gr 
 gsave  710 567 23 12 C 105.145 375.111 t 0 r /Helvetica findfont 25.6631 sf 0 0 m (10) show NC gr 
 gsave  710 567 23 12 C 105.145 429.104 t 0 r /Helvetica findfont 25.6631 sf 0 0 m (12) show NC gr 
 gsave  710 567 23 12 C 105.145 483.098 t 0 r /Helvetica findfont 25.6631 sf 0 0 m (14) show NC gr 
 gsave  710 567 23 12 C 45.468 431.946 t 90 r /Helvetica findfont 28.5146 sf 0 0 m (0.0156 ) show NC gr 
 gsave  710 567 23 12 C 31.2593 429.104 t 90 r /Helvetica findfont 19.9602 sf 0 0 m ( ) show NC gr 
 gsave  710 567 23 12 C 45.468 417.737 t 90 r /Helvetica findfont 28.5146 sf 0 0 m (/) show NC gr 
 gsave  710 567 23 12 C 53.9933 414.896 t 90 r /Helvetica findfont 19.9602 sf 0 0 m ( ) show NC gr 
 gsave  710 567 23 12 C 45.468 309.751 t 90 r /Helvetica findfont 28.5146 sf 0 0 m (\(1/N\) dN) show NC gr  691 94 m 429 Y s 674 114 m 17 X s 683 128 m 8 X s 683 141 m 8 X s 683 155 m 8 X s 674 168 m 17 X s 683 182 m 8 X s 683 195 m 8 X s 683 209 m 8
 X s 674 222 m 17 X s 683 236 m 8 X s 683 249 m 8 X s 683 263 m 8 X s 674 276 m 17 X s 683 290 m 8 X s 683 303 m 8 X s 683 317 m 8 X s 674 331 m 17 X s 683 344 m 8 X s 683 358 m 8 X s 683 371 m 8 X s 674 385 m 17 X s 683 398 m 8 X s 683 412 m 8 X s
 683 425 m 8 X s 674 439 m 17 X s 683 452 m 8 X s 683 466 m 8 X s 683 479 m 8 X s 674 493 m 17 X s 674 114 m 17 X s 683 100 m 8 X s 674 493 m 17 X s 683 506 m 8 X s 683 520 m 8 X s 0.490196 0.545098 0.615686 c 0.364706 0.419608 0.490196 c 332 37 30
 539 bf 0.490196 0.545098 0.615686 c 30 539 m 332 X s 362 539 m 37 Y s 362 576 m -332 X s 30 576 m -37 Y s 1 1 1 c black 1 1 1 c
 gsave  710 567 23 12 C 34.101 551.299 t 0 r /Helvetica-Bold findfont 28.5146 sf 0 0 m (Input variable: yy.HY_l2) show NC gr  1 0 0 c 6 lw black 3 lw 1 0 0 c 682 114 m s 667 114 m s 652 114 m s 637 114 m s 621 114 m s 606 114 m s 591 114 m s 576 114
 m s 561 114 m s 549 116 m -3 -2 d s 540 123 m -9 -9 d s 540 138 m -24 -24 d s 526 140 m -25 -26 d s 518 146 m -32 -32 d s 506 149 m -35 -35 d s 496 154 m -40 -40 d s 485 159 m -44 -45 d s 468 157 m -42 -43 d s 458 162 m -48 -48 d s 447 166 m -3 -3 d
 s 440 159 m -45 -45 d s 420 154 m -40 -40 d s 408 157 m -43 -43 d s 400 165 m -50 -51 d s 381 161 m -46 -47 d s 364 158 m -44 -44 d s 362 172 m -57 -58 d s 350 175 m -1 -2 d s 344 168 m -54 -54 d s 335 175 m -60 -61 d s 333 188 m -12 -12 d s 320 175
 m -60 -61 d s 306 176 m -61 -62 d s 294 179 m -64 -65 d s 288 188 m -73 -74 d s 271 186 m -59 -60 d s 199 114 m s 267 197 m -55 -55 d s 184 114 m s 264 209 m -52 -52 d s 169 114 m s 253 213 m -41 -41 d s 154 114 m s 247 223 m -35 -36 d s 239 230 m
 -27 -28 d s 239 245 m -27 -27 d s 239 260 m -27 -27 d s 238 274 m -26 -26 d s 226 277 m -14 -14 d s 226 292 m -14 -14 d s 226 307 m -14 -14 d s 226 322 m -14 -13 d s 226 338 m -14 -14 d s 226 353 m -14 -14 d s 226 368 m -14 -14 d s 226 383 m -14 -14
 d s 226 398 m -14 -13 d s 226 414 m -14 -14 d s 226 429 m -14 -14 d s 226 444 m -14 -14 d s 226 459 m -14 -14 d s 226 474 m -14 -14 d s 221 485 m -9 -9 d s 6 lw 143 114 m 69 X 371 Y 14 X -211 Y 13 X -51 Y 14 X -14 Y 14 X -23 Y 13 X 2 Y 14 X -12 Y 14
 X -1 Y 13 X 13 Y 14 X -20 Y 14 X 7 Y 13 X -17 Y 14 X 3 Y 14 X 4 Y 13 X -8 Y 14 X -3 Y 14 X 5 Y 13 X 7 Y 14 X -9 Y 14 X 2 Y 13 X -5 Y 14 X -5 Y 14 X -3 Y 13 X -6 Y 14 X -24 Y 14 X -2 Y 137 X s black 3 lw 143 94 m 548 X s 146 107 m -13 Y s 164 100 m
 -6 Y s 182 100 m -6 Y s 199 100 m -6 Y s 217 100 m -6 Y s 234 107 m -13 Y s 252 100 m -6 Y s 269 100 m -6 Y s 287 100 m -6 Y s 305 100 m -6 Y s 322 107 m -13 Y s 340 100 m -6 Y s 357 100 m -6 Y s 375 100 m -6 Y s 392 100 m -6 Y s 410 107 m -13 Y s
 427 100 m -6 Y s 445 100 m -6 Y s 463 100 m -6 Y s 480 100 m -6 Y s 498 107 m -13 Y s 515 100 m -6 Y s 533 100 m -6 Y s 550 100 m -6 Y s 568 100 m -6 Y s 586 107 m -13 Y s 603 100 m -6 Y s 621 100 m -6 Y s 638 100 m -6 Y s 656 100 m -6 Y s 673 107 m
 -13 Y s 146 107 m -13 Y s 673 107 m -13 Y s 143 523 m 548 X s 146 509 m 14 Y s 164 516 m 7 Y s 182 516 m 7 Y s 199 516 m 7 Y s 217 516 m 7 Y s 234 509 m 14 Y s 252 516 m 7 Y s 269 516 m 7 Y s 287 516 m 7 Y s 305 516 m 7 Y s 322 509 m 14 Y s 340 516
 m 7 Y s 357 516 m 7 Y s 375 516 m 7 Y s 392 516 m 7 Y s 410 509 m 14 Y s 427 516 m 7 Y s 445 516 m 7 Y s 463 516 m 7 Y s 480 516 m 7 Y s 498 509 m 14 Y s 515 516 m 7 Y s 533 516 m 7 Y s 550 516 m 7 Y s 568 516 m 7 Y s 586 509 m 14 Y s 603 516 m 7 Y
 s 621 516 m 7 Y s 638 516 m 7 Y s 656 516 m 7 Y s 673 509 m 14 Y s 146 509 m 14 Y s 673 509 m 14 Y s 143 94 m 429 Y s 160 114 m -17 X s 152 128 m -9 X s 152 141 m -9 X s 152 155 m -9 X s 160 168 m -17 X s 152 182 m -9 X s 152 195 m -9 X s 152 209 m
 -9 X s 160 222 m -17 X s 152 236 m -9 X s 152 249 m -9 X s 152 263 m -9 X s 160 276 m -17 X s 152 290 m -9 X s 152 303 m -9 X s 152 317 m -9 X s 160 331 m -17 X s 152 344 m -9 X s 152 358 m -9 X s 152 371 m -9 X s 160 385 m -17 X s 152 398 m -9 X s
 152 412 m -9 X s 152 425 m -9 X s 160 439 m -17 X s 152 452 m -9 X s 152 466 m -9 X s 152 479 m -9 X s 160 493 m -17 X s 160 114 m -17 X s 152 100 m -9 X s 160 493 m -17 X s 152 506 m -9 X s 152 520 m -9 X s 691 94 m 429 Y s 674 114 m 17 X s 683 128
 m 8 X s 683 141 m 8 X s 683 155 m 8 X s 674 168 m 17 X s 683 182 m 8 X s 683 195 m 8 X s 683 209 m 8 X s 674 222 m 17 X s 683 236 m 8 X s 683 249 m 8 X s 683 263 m 8 X s 674 276 m 17 X s 683 290 m 8 X s 683 303 m 8 X s 683 317 m 8 X s 674 331 m 17 X
 s 683 344 m 8 X s 683 358 m 8 X s 683 371 m 8 X s 674 385 m 17 X s 683 398 m 8 X s 683 412 m 8 X s 683 425 m 8 X s 674 439 m 17 X s 683 452 m 8 X s 683 466 m 8 X s 683 479 m 8 X s 674 493 m 17 X s 674 114 m 17 X s 683 100 m 8 X s 674 493 m 17 X s
 683 506 m 8 X s 683 520 m 8 X s
 gsave  710 567 23 12 C 719.017 91.2634 t 90 r /Helvetica-Bold findfont 19.9602 sf 0 0 m (U/O\255flow \(S,B\): \(0.0, 0.0\)% / \(0.0, 0.0\)%) show NC gr  0.490196 0.545098 0.615686 c 0.364706 0.419608 0.490196 c 332 37 30 539 bf 0.490196 0.545098
 0.615686 c 30 539 m 332 X s 362 539 m 37 Y s 362 576 m -332 X s 30 576 m -37 Y s 1 1 1 c black 1 1 1 c
 gsave  710 567 23 12 C 34.101 551.299 t 0 r /Helvetica-Bold findfont 28.5146 sf 0 0 m (Input variable: yy.HY_l2) show NC gr  0.490196 0.545098 0.615686 c 0.941176 0.941176 0.941176 c 710 567 779 12 bf black 1 1 0.992157 c 548 429 899 94 bf black 548
 429 899 94 bl 0 0 0.933333 c 6 lw 0.49 0.6 0.82 c black 3 lw 0.49 0.6 0.82 c 899 94 m 213 Y 14 X -101 Y 14 X -33 Y 13 X -9 Y 14 X 4 Y 14 X -4 Y 13 X -3 Y 14 X 1 Y 14 X -4 Y 13 X -1 Y 28 X 1 Y 14 X -6 Y 27 X 2 Y 14 X -1 Y 13 X -2 Y 14 X -1 Y 14 X -1
 Y 13 X -2 Y 14 X 1 Y 14 X 2 Y 13 X 2 Y 14 X -5 Y 14 X -1 Y 13 X 5 Y 14 X -11 Y 14 X 1 Y 13 X -3 Y 14 X 6 Y 14 X -1 Y 13 X -5 Y 28 X 4 Y 13 X -19 Y 14 X 5 Y 14 X -10 Y 13 X -11 Y 14 X -10 Y 14 X -3 Y 14 X f 6 lw 0 0 0.933333 c 0.49 0.6 0.82 c 0 0
 0.933333 c 899 307 m 14 X -101 Y 14 X -33 Y 13 X -9 Y 14 X 4 Y 14 X -4 Y 13 X -3 Y 14 X 1 Y 14 X -4 Y 13 X -1 Y 28 X 1 Y 14 X -6 Y 27 X 2 Y 14 X -1 Y 13 X -2 Y 14 X -1 Y 14 X -1 Y 13 X -2 Y 14 X 1 Y 14 X 2 Y 13 X 2 Y 14 X -5 Y 14 X -1 Y 13 X 5 Y 14
 X -11 Y 14 X 1 Y 13 X -3 Y 14 X 6 Y 14 X -1 Y 13 X -5 Y 28 X 4 Y 13 X -19 Y 14 X 5 Y 14 X -10 Y 13 X -11 Y 14 X -10 Y 14 X -3 Y 14 X s black 3 lw 899 94 m 548 X s 935 107 m -13 Y s 953 100 m -6 Y s 971 100 m -6 Y s 988 100 m -6 Y s 1006 107 m -13 Y
 s 1024 100 m -6 Y s 1042 100 m -6 Y s 1060 100 m -6 Y s 1077 107 m -13 Y s 1095 100 m -6 Y s 1113 100 m -6 Y s 1131 100 m -6 Y s 1148 107 m -13 Y s 1166 100 m -6 Y s 1184 100 m -6 Y s 1202 100 m -6 Y s 1220 107 m -13 Y s 1237 100 m -6 Y s 1255 100 m
 -6 Y s 1273 100 m -6 Y s 1291 107 m -13 Y s 1309 100 m -6 Y s 1326 100 m -6 Y s 1344 100 m -6 Y s 1362 107 m -13 Y s 1380 100 m -6 Y s 1398 100 m -6 Y s 1415 100 m -6 Y s 1433 107 m -13 Y s 935 107 m -13 Y s 917 100 m -6 Y s 1433 107 m -13 Y s
 gsave  710 567 779 12 C 923.569 65.3603 t 0 r /Helvetica findfont 25.6631 sf 0 0 m (0.4) show NC gr 
 gsave  710 567 779 12 C 909.36 65.3603 t 0 r /Symbol findfont 25.6631 sf 0 0 m (-) show NC gr 
 gsave  710 567 779 12 C 994.612 65.3603 t 0 r /Helvetica findfont 25.6631 sf 0 0 m (0.2) show NC gr 
 gsave  710 567 779 12 C 980.404 65.3603 t 0 r /Symbol findfont 25.6631 sf 0 0 m (-) show NC gr 
 gsave  710 567 779 12 C 1068.5 65.3603 t 0 r /Helvetica findfont 25.6631 sf 0 0 m (0) show NC gr 
 gsave  710 567 779 12 C 1131.02 65.3603 t 0 r /Helvetica findfont 25.6631 sf 0 0 m (0.2) show NC gr 
 gsave  710 567 779 12 C 1202.06 65.3603 t 0 r /Helvetica findfont 25.6631 sf 0 0 m (0.4) show NC gr 
 gsave  710 567 779 12 C 1273.1 65.3603 t 0 r /Helvetica findfont 25.6631 sf 0 0 m (0.6) show NC gr 
 gsave  710 567 779 12 C 1344.15 65.3603 t 0 r /Helvetica findfont 25.6631 sf 0 0 m (0.8) show NC gr 
 gsave  710 567 779 12 C 1426.56 65.3603 t 0 r /Helvetica findfont 25.6631 sf 0 0 m (1) show NC gr 
 gsave  710 567 779 12 C 1332.78 22.734 t 0 r /Helvetica findfont 28.5146 sf 0 0 m (bb.H1_l2) show NC gr  899 523 m 548 X s 935 509 m 14 Y s 953 516 m 7 Y s 971 516 m 7 Y s 988 516 m 7 Y s 1006 509 m 14 Y s 1024 516 m 7 Y s 1042 516 m 7 Y s 1060 516
 m 7 Y s 1077 509 m 14 Y s 1095 516 m 7 Y s 1113 516 m 7 Y s 1131 516 m 7 Y s 1148 509 m 14 Y s 1166 516 m 7 Y s 1184 516 m 7 Y s 1202 516 m 7 Y s 1220 509 m 14 Y s 1237 516 m 7 Y s 1255 516 m 7 Y s 1273 516 m 7 Y s 1291 509 m 14 Y s 1309 516 m 7 Y s
 1326 516 m 7 Y s 1344 516 m 7 Y s 1362 509 m 14 Y s 1380 516 m 7 Y s 1398 516 m 7 Y s 1415 516 m 7 Y s 1433 509 m 14 Y s 935 509 m 14 Y s 917 516 m 7 Y s 1433 509 m 14 Y s 899 94 m 429 Y s 915 94 m -16 X s 907 102 m -8 X s 907 111 m -8 X s 907 120 m
 -8 X s 907 129 m -8 X s 915 137 m -16 X s 907 146 m -8 X s 907 155 m -8 X s 907 164 m -8 X s 907 173 m -8 X s 915 181 m -16 X s 907 190 m -8 X s 907 199 m -8 X s 907 208 m -8 X s 907 216 m -8 X s 915 225 m -16 X s 907 234 m -8 X s 907 243 m -8 X s
 907 251 m -8 X s 907 260 m -8 X s 915 269 m -16 X s 907 278 m -8 X s 907 287 m -8 X s 907 295 m -8 X s 907 304 m -8 X s 915 313 m -16 X s 907 322 m -8 X s 907 330 m -8 X s 907 339 m -8 X s 907 348 m -8 X s 915 357 m -16 X s 907 366 m -8 X s 907 374
 m -8 X s 907 383 m -8 X s 907 392 m -8 X s 915 401 m -16 X s 907 409 m -8 X s 907 418 m -8 X s 907 427 m -8 X s 907 436 m -8 X s 915 445 m -16 X s 907 453 m -8 X s 907 462 m -8 X s 907 471 m -8 X s 907 480 m -8 X s 915 488 m -16 X s 915 488 m -16 X
 s 907 497 m -8 X s 907 506 m -8 X s 907 515 m -8 X s
 gsave  710 567 779 12 C 875.259 82.4108 t 0 r /Helvetica findfont 25.6631 sf 0 0 m (0) show NC gr 
 gsave  710 567 779 12 C 855.367 127.879 t 0 r /Helvetica findfont 25.6631 sf 0 0 m (0.5) show NC gr 
 gsave  710 567 779 12 C 878.101 170.505 t 0 r /Helvetica findfont 25.6631 sf 0 0 m (1) show NC gr 
 gsave  710 567 779 12 C 855.367 215.973 t 0 r /Helvetica findfont 25.6631 sf 0 0 m (1.5) show NC gr 
 gsave  710 567 779 12 C 875.259 258.599 t 0 r /Helvetica findfont 25.6631 sf 0 0 m (2) show NC gr 
 gsave  710 567 779 12 C 855.367 304.067 t 0 r /Helvetica findfont 25.6631 sf 0 0 m (2.5) show NC gr 
 gsave  710 567 779 12 C 875.259 346.694 t 0 r /Helvetica findfont 25.6631 sf 0 0 m (3) show NC gr 
 gsave  710 567 779 12 C 855.367 389.32 t 0 r /Helvetica findfont 25.6631 sf 0 0 m (3.5) show NC gr 
 gsave  710 567 779 12 C 875.259 434.788 t 0 r /Helvetica findfont 25.6631 sf 0 0 m (4) show NC gr 
 gsave  710 567 779 12 C 855.367 477.414 t 0 r /Helvetica findfont 25.6631 sf 0 0 m (4.5) show NC gr 
 gsave  710 567 779 12 C 801.374 431.946 t 90 r /Helvetica findfont 28.5146 sf 0 0 m (0.0384 ) show NC gr 
 gsave  710 567 779 12 C 787.165 429.104 t 90 r /Helvetica findfont 19.9602 sf 0 0 m ( ) show NC gr 
 gsave  710 567 779 12 C 801.374 417.737 t 90 r /Helvetica findfont 28.5146 sf 0 0 m (/) show NC gr 
 gsave  710 567 779 12 C 809.899 414.896 t 90 r /Helvetica findfont 19.9602 sf 0 0 m ( ) show NC gr 
 gsave  710 567 779 12 C 801.374 309.751 t 90 r /Helvetica findfont 28.5146 sf 0 0 m (\(1/N\) dN) show NC gr  1447 94 m 429 Y s 1430 94 m 17 X s 1438 102 m 9 X s 1438 111 m 9 X s 1438 120 m 9 X s 1438 129 m 9 X s 1430 137 m 17 X s 1438 146 m 9 X s
 1438 155 m 9 X s 1438 164 m 9 X s 1438 173 m 9 X s 1430 181 m 17 X s 1438 190 m 9 X s 1438 199 m 9 X s 1438 208 m 9 X s 1438 216 m 9 X s 1430 225 m 17 X s 1438 234 m 9 X s 1438 243 m 9 X s 1438 251 m 9 X s 1438 260 m 9 X s 1430 269 m 17 X s 1438 278
 m 9 X s 1438 287 m 9 X s 1438 295 m 9 X s 1438 304 m 9 X s 1430 313 m 17 X s 1438 322 m 9 X s 1438 330 m 9 X s 1438 339 m 9 X s 1438 348 m 9 X s 1430 357 m 17 X s 1438 366 m 9 X s 1438 374 m 9 X s 1438 383 m 9 X s 1438 392 m 9 X s 1430 401 m 17 X s
 1438 409 m 9 X s 1438 418 m 9 X s 1438 427 m 9 X s 1438 436 m 9 X s 1430 445 m 17 X s 1438 453 m 9 X s 1438 462 m 9 X s 1438 471 m 9 X s 1438 480 m 9 X s 1430 488 m 17 X s 1430 488 m 17 X s 1438 497 m 9 X s 1438 506 m 9 X s 1438 515 m 9 X s 0.490196
 0.545098 0.615686 c 0.364706 0.419608 0.490196 c 335 37 786 539 bf 0.490196 0.545098 0.615686 c 786 539 m 335 X s 1121 539 m 37 Y s 1121 576 m -335 X s 786 576 m -37 Y s 1 1 1 c black 1 1 1 c
 gsave  710 567 779 12 C 790.007 551.299 t 0 r /Helvetica-Bold findfont 28.5146 sf 0 0 m (Input variable: bb.H1_l2) show NC gr  1 0 0 c 6 lw black 3 lw 1 0 0 c 1434 95 m -2 -1 d s 1432 109 m -15 -15 d s 1419 110 m -17 -16 d s 1405 112 m -18 -18 d s
 1395 117 m -23 -23 d s 1384 121 m -6 -6 d s 1377 114 m -20 -20 d s 1364 115 m -22 -21 d s 1351 117 m -24 -23 d s 1337 119 m -25 -25 d s 1328 125 m -31 -31 d s 1312 124 m -30 -30 d s 1299 126 m -3 -3 d s 1293 120 m -26 -26 d s 1282 125 m -30 -31 d s
 1270 127 m -33 -33 d s 1258 131 m -3 -4 d s 1254 126 m -33 -32 d s 1241 129 m -35 -35 d s 1228 130 m -37 -36 d s 1217 135 m -3 -3 d s 1208 126 m -32 -32 d s 1200 133 m -39 -39 d s 1188 135 m -42 -41 d s 1175 138 m -44 -44 d s 1168 146 m -9 -9 d s
 1152 130 m -36 -36 d s 1144 137 m -43 -43 d s 1127 135 m -41 -41 d s 1118 141 m -47 -47 d s 1105 143 m s 1103 141 m -47 -47 d s 1091 144 m -50 -50 d s 1074 142 m -48 -48 d s 1064 147 m -54 -53 d s 1054 153 m -59 -59 d s 1042 155 m -62 -61 d s 1036
 165 m -71 -71 d s 1026 170 m -4 -4 d s 1020 164 m -70 -70 d s 1009 168 m -74 -74 d s 996 170 m -1 -1 d s 988 162 m -68 -68 d s 981 171 m -76 -77 d s 968 172 m -69 -69 d s 954 173 m -55 -55 d s 954 189 m -55 -56 d s 950 200 m -51 -51 d s 940 205 m
 -41 -41 d s 927 207 m -28 -28 d s 927 222 m -28 -28 d s 927 237 m -28 -28 d s 927 252 m -28 -27 d s 915 256 m -16 -16 d s 913 269 m -14 -14 d s 913 284 m -14 -14 d s 913 299 m -14 -14 d s 913 314 m -14 -13 d s 913 329 m -14 -13 d s 913 345 m -14 -14
 d s 913 360 m -14 -14 d s 913 375 m -14 -14 d s 913 390 m -14 -14 d s 913 405 m -14 -13 d s 913 421 m -14 -14 d s 913 436 m -14 -14 d s 913 451 m -14 -14 d s 913 466 m -14 -14 d s 913 481 m -14 -13 d s 900 484 m -1 -1 d s 6 lw 899 484 m 14 X -228 Y
 14 X -49 Y 13 X -7 Y 14 X -28 Y 27 X -10 Y 14 X 8 Y 14 X -6 Y 13 X 6 Y 14 X -15 Y 14 X -2 Y 14 X -11 Y 13 X 3 Y 14 X -4 Y 14 X 2 Y 13 X -8 Y 14 X 2 Y 14 X -7 Y 13 X 16 Y 14 X -8 Y 14 X -3 Y 13 X -9 Y 14 X 9 Y 14 X -5 Y 13 X -4 Y 14 X 5 Y 14 X -4 Y
 13 X -7 Y 14 X 6 Y 14 X -2 Y 13 X 1 Y 14 X -7 Y 14 X -3 Y 13 X -1 Y 14 X 7 Y 14 X -4 Y 13 X -6 Y 14 X -2 Y 14 X -14 Y 14 X s black 3 lw 899 94 m 548 X s 935 107 m -13 Y s 953 100 m -6 Y s 971 100 m -6 Y s 988 100 m -6 Y s 1006 107 m -13 Y s 1024 100
 m -6 Y s 1042 100 m -6 Y s 1060 100 m -6 Y s 1077 107 m -13 Y s 1095 100 m -6 Y s 1113 100 m -6 Y s 1131 100 m -6 Y s 1148 107 m -13 Y s 1166 100 m -6 Y s 1184 100 m -6 Y s 1202 100 m -6 Y s 1220 107 m -13 Y s 1237 100 m -6 Y s 1255 100 m -6 Y s
 1273 100 m -6 Y s 1291 107 m -13 Y s 1309 100 m -6 Y s 1326 100 m -6 Y s 1344 100 m -6 Y s 1362 107 m -13 Y s 1380 100 m -6 Y s 1398 100 m -6 Y s 1415 100 m -6 Y s 1433 107 m -13 Y s 935 107 m -13 Y s 917 100 m -6 Y s 1433 107 m -13 Y s 899 523 m
 548 X s 935 509 m 14 Y s 953 516 m 7 Y s 971 516 m 7 Y s 988 516 m 7 Y s 1006 509 m 14 Y s 1024 516 m 7 Y s 1042 516 m 7 Y s 1060 516 m 7 Y s 1077 509 m 14 Y s 1095 516 m 7 Y s 1113 516 m 7 Y s 1131 516 m 7 Y s 1148 509 m 14 Y s 1166 516 m 7 Y s
 1184 516 m 7 Y s 1202 516 m 7 Y s 1220 509 m 14 Y s 1237 516 m 7 Y s 1255 516 m 7 Y s 1273 516 m 7 Y s 1291 509 m 14 Y s 1309 516 m 7 Y s 1326 516 m 7 Y s 1344 516 m 7 Y s 1362 509 m 14 Y s 1380 516 m 7 Y s 1398 516 m 7 Y s 1415 516 m 7 Y s 1433 509
 m 14 Y s 935 509 m 14 Y s 917 516 m 7 Y s 1433 509 m 14 Y s 899 94 m 429 Y s 915 94 m -16 X s 907 102 m -8 X s 907 111 m -8 X s 907 120 m -8 X s 907 129 m -8 X s 915 137 m -16 X s 907 146 m -8 X s 907 155 m -8 X s 907 164 m -8 X s 907 173 m -8 X s
 915 181 m -16 X s 907 190 m -8 X s 907 199 m -8 X s 907 208 m -8 X s 907 216 m -8 X s 915 225 m -16 X s 907 234 m -8 X s 907 243 m -8 X s 907 251 m -8 X s 907 260 m -8 X s 915 269 m -16 X s 907 278 m -8 X s 907 287 m -8 X s 907 295 m -8 X s 907 304
 m -8 X s 915 313 m -16 X s 907 322 m -8 X s 907 330 m -8 X s 907 339 m -8 X s 907 348 m -8 X s 915 357 m -16 X s 907 366 m -8 X s 907 374 m -8 X s 907 383 m -8 X s 907 392 m -8 X s 915 401 m -16 X s 907 409 m -8 X s 907 418 m -8 X s 907 427 m -8 X s
 907 436 m -8 X s 915 445 m -16 X s 907 453 m -8 X s 907 462 m -8 X s 907 471 m -8 X s 907 480 m -8 X s 915 488 m -16 X s 915 488 m -16 X s 907 497 m -8 X s 907 506 m -8 X s 907 515 m -8 X s 1447 94 m 429 Y s 1430 94 m 17 X s 1438 102 m 9 X s 1438
 111 m 9 X s 1438 120 m 9 X s 1438 129 m 9 X s 1430 137 m 17 X s 1438 146 m 9 X s 1438 155 m 9 X s 1438 164 m 9 X s 1438 173 m 9 X s 1430 181 m 17 X s 1438 190 m 9 X s 1438 199 m 9 X s 1438 208 m 9 X s 1438 216 m 9 X s 1430 225 m 17 X s 1438 234 m 9
 X s 1438 243 m 9 X s 1438 251 m 9 X s 1438 260 m 9 X s 1430 269 m 17 X s 1438 278 m 9 X s 1438 287 m 9 X s 1438 295 m 9 X s 1438 304 m 9 X s 1430 313 m 17 X s 1438 322 m 9 X s 1438 330 m 9 X s 1438 339 m 9 X s 1438 348 m 9 X s 1430 357 m 17 X s 1438
 366 m 9 X s 1438 374 m 9 X s 1438 383 m 9 X s 1438 392 m 9 X s 1430 401 m 17 X s 1438 409 m 9 X s 1438 418 m 9 X s 1438 427 m 9 X s 1438 436 m 9 X s 1430 445 m 17 X s 1438 453 m 9 X s 1438 462 m 9 X s 1438 471 m 9 X s 1438 480 m 9 X s 1430 488 m 17
 X s 1430 488 m 17 X s 1438 497 m 9 X s 1438 506 m 9 X s 1438 515 m 9 X s
 gsave  710 567 779 12 C 1474.92 91.2634 t 90 r /Helvetica-Bold findfont 19.9602 sf 0 0 m (U/O\255flow \(S,B\): \(0.0, 0.0\)% / \(0.0, 0.0\)%) show NC gr  0.490196 0.545098 0.615686 c 0.364706 0.419608 0.490196 c 335 37 786 539 bf 0.490196 0.545098
 0.615686 c 786 539 m 335 X s 1121 539 m 37 Y s 1121 576 m -335 X s 786 576 m -37 Y s 1 1 1 c black 1 1 1 c
 gsave  710 567 779 12 C 790.007 551.299 t 0 r /Helvetica-Bold findfont 28.5146 sf 0 0 m (Input variable: bb.H1_l2) show NC gr  0.490196 0.545098 0.615686 c 0.941176 0.941176 0.941176 c 711 567 1534 12 bf black 1 1 0.992157 c 547 429 1655 94 bf black
 547 429 1655 94 bl 0 0 0.933333 c 6 lw 0.49 0.6 0.82 c black 3 lw 0.49 0.6 0.82 c 1655 94 m 118 Y 14 X 51 Y 14 X 19 Y 13 X -12 Y 14 X 37 Y 14 X 2 Y 13 X -16 Y 14 X 3 Y 14 X -7 Y 13 X -4 Y 14 X -14 Y 14 X 1 Y 13 X -5 Y 14 X -9 Y 14 X 5 Y 13 X -1 Y 14
 X 2 Y 14 X -28 Y 13 X 17 Y 14 X -18 Y 14 X 9 Y 14 X -12 Y 13 X 10 Y 14 X -18 Y 14 X -21 Y 13 X 23 Y 14 X -15 Y 14 X -6 Y 13 X -24 Y 14 X 18 Y 14 X -27 Y 13 X -1 Y 14 X -11 Y 14 X -14 Y 13 X -15 Y 14 X -4 Y 14 X -14 Y 13 X -11 Y 14 X -5 Y 14 X -3 Y
 13 X f 6 lw 0 0 0.933333 c 0.49 0.6 0.82 c 0 0 0.933333 c 1655 212 m 14 X 51 Y 14 X 19 Y 13 X -12 Y 14 X 37 Y 14 X 2 Y 13 X -16 Y 14 X 3 Y 14 X -7 Y 13 X -4 Y 14 X -14 Y 14 X 1 Y 13 X -5 Y 14 X -9 Y 14 X 5 Y 13 X -1 Y 14 X 2 Y 14 X -28 Y 13 X 17 Y
 14 X -18 Y 14 X 9 Y 14 X -12 Y 13 X 10 Y 14 X -18 Y 14 X -21 Y 13 X 23 Y 14 X -15 Y 14 X -6 Y 13 X -24 Y 14 X 18 Y 14 X -27 Y 13 X -1 Y 14 X -11 Y 14 X -14 Y 13 X -15 Y 14 X -4 Y 14 X -14 Y 13 X -11 Y 14 X -5 Y 14 X -3 Y 13 X s black 3 lw 1655 94 m
 547 X s 1691 107 m -13 Y s 1705 100 m -6 Y s 1719 100 m -6 Y s 1734 100 m -6 Y s 1748 100 m -6 Y s 1762 107 m -13 Y s 1776 100 m -6 Y s 1791 100 m -6 Y s 1805 100 m -6 Y s 1819 100 m -6 Y s 1833 107 m -13 Y s 1848 100 m -6 Y s 1862 100 m -6 Y s 1876
 100 m -6 Y s 1890 100 m -6 Y s 1905 107 m -13 Y s 1919 100 m -6 Y s 1933 100 m -6 Y s 1947 100 m -6 Y s 1962 100 m -6 Y s 1976 107 m -13 Y s 1990 100 m -6 Y s 2004 100 m -6 Y s 2019 100 m -6 Y s 2033 100 m -6 Y s 2047 107 m -13 Y s 2061 100 m -6 Y s
 2076 100 m -6 Y s 2090 100 m -6 Y s 2104 100 m -6 Y s 2118 107 m -13 Y s 2133 100 m -6 Y s 2147 100 m -6 Y s 2161 100 m -6 Y s 2176 100 m -6 Y s 2190 107 m -13 Y s 1691 107 m -13 Y s 1677 100 m -6 Y s 1662 100 m -6 Y s 2190 107 m -13 Y s
 gsave  711 567 1534 12 C 1679.47 65.3603 t 0 r /Helvetica findfont 25.6631 sf 0 0 m (0.1) show NC gr 
 gsave  711 567 1534 12 C 1668.11 65.3603 t 0 r /Symbol findfont 25.6631 sf 0 0 m (-) show NC gr 
 gsave  711 567 1534 12 C 1741.99 65.3603 t 0 r /Helvetica findfont 25.6631 sf 0 0 m (0.05) show NC gr 
 gsave  711 567 1534 12 C 1730.63 65.3603 t 0 r /Symbol findfont 25.6631 sf 0 0 m (-) show NC gr 
 gsave  711 567 1534 12 C 1824.4 65.3603 t 0 r /Helvetica findfont 25.6631 sf 0 0 m (0) show NC gr 
 gsave  711 567 1534 12 C 1878.4 65.3603 t 0 r /Helvetica findfont 25.6631 sf 0 0 m (0.05) show NC gr 
 gsave  711 567 1534 12 C 1957.97 65.3603 t 0 r /Helvetica findfont 25.6631 sf 0 0 m (0.1) show NC gr 
 gsave  711 567 1534 12 C 2020.48 65.3603 t 0 r /Helvetica findfont 25.6631 sf 0 0 m (0.15) show NC gr 
 gsave  711 567 1534 12 C 2100.05 65.3603 t 0 r /Helvetica findfont 25.6631 sf 0 0 m (0.2) show NC gr 
 gsave  711 567 1534 12 C 2162.57 65.3603 t 0 r /Helvetica findfont 25.6631 sf 0 0 m (0.25) show NC gr 
 gsave  711 567 1534 12 C 2085.84 22.734 t 0 r /Helvetica findfont 28.5146 sf 0 0 m (bb.HT_l2) show NC gr  1655 523 m 547 X s 1691 509 m 14 Y s 1705 516 m 7 Y s 1719 516 m 7 Y s 1734 516 m 7 Y s 1748 516 m 7 Y s 1762 509 m 14 Y s 1776 516 m 7 Y s
 1791 516 m 7 Y s 1805 516 m 7 Y s 1819 516 m 7 Y s 1833 509 m 14 Y s 1848 516 m 7 Y s 1862 516 m 7 Y s 1876 516 m 7 Y s 1890 516 m 7 Y s 1905 509 m 14 Y s 1919 516 m 7 Y s 1933 516 m 7 Y s 1947 516 m 7 Y s 1962 516 m 7 Y s 1976 509 m 14 Y s 1990 516
 m 7 Y s 2004 516 m 7 Y s 2019 516 m 7 Y s 2033 516 m 7 Y s 2047 509 m 14 Y s 2061 516 m 7 Y s 2076 516 m 7 Y s 2090 516 m 7 Y s 2104 516 m 7 Y s 2118 509 m 14 Y s 2133 516 m 7 Y s 2147 516 m 7 Y s 2161 516 m 7 Y s 2176 516 m 7 Y s 2190 509 m 14 Y s
 1691 509 m 14 Y s 1677 516 m 7 Y s 1662 516 m 7 Y s 2190 509 m 14 Y s 1655 94 m 429 Y s 1671 94 m -16 X s 1663 103 m -8 X s 1663 113 m -8 X s 1663 123 m -8 X s 1663 133 m -8 X s 1671 143 m -16 X s 1663 153 m -8 X s 1663 162 m -8 X s 1663 172 m -8 X
 s 1663 182 m -8 X s 1671 192 m -16 X s 1663 202 m -8 X s 1663 212 m -8 X s 1663 221 m -8 X s 1663 231 m -8 X s 1671 241 m -16 X s 1663 251 m -8 X s 1663 261 m -8 X s 1663 270 m -8 X s 1663 280 m -8 X s 1671 290 m -16 X s 1663 300 m -8 X s 1663 310 m
 -8 X s 1663 320 m -8 X s 1663 329 m -8 X s 1671 339 m -16 X s 1663 349 m -8 X s 1663 359 m -8 X s 1663 369 m -8 X s 1663 379 m -8 X s 1671 388 m -16 X s 1663 398 m -8 X s 1663 408 m -8 X s 1663 418 m -8 X s 1663 428 m -8 X s 1671 438 m -16 X s 1663
 447 m -8 X s 1663 457 m -8 X s 1663 467 m -8 X s 1663 477 m -8 X s 1671 487 m -16 X s 1671 487 m -16 X s 1663 497 m -8 X s 1663 506 m -8 X s 1663 516 m -8 X s
 gsave  711 567 1534 12 C 1631.16 82.4108 t 0 r /Helvetica findfont 25.6631 sf 0 0 m (0) show NC gr 
 gsave  711 567 1534 12 C 1634.01 133.562 t 0 r /Helvetica findfont 25.6631 sf 0 0 m (1) show NC gr 
 gsave  711 567 1534 12 C 1631.16 181.872 t 0 r /Helvetica findfont 25.6631 sf 0 0 m (2) show NC gr 
 gsave  711 567 1534 12 C 1631.16 230.182 t 0 r /Helvetica findfont 25.6631 sf 0 0 m (3) show NC gr 
 gsave  711 567 1534 12 C 1631.16 281.333 t 0 r /Helvetica findfont 25.6631 sf 0 0 m (4) show NC gr 
 gsave  711 567 1534 12 C 1631.16 329.643 t 0 r /Helvetica findfont 25.6631 sf 0 0 m (5) show NC gr 
 gsave  711 567 1534 12 C 1631.16 377.953 t 0 r /Helvetica findfont 25.6631 sf 0 0 m (6) show NC gr 
 gsave  711 567 1534 12 C 1631.16 426.263 t 0 r /Helvetica findfont 25.6631 sf 0 0 m (7) show NC gr 
 gsave  711 567 1534 12 C 1631.16 477.414 t 0 r /Helvetica findfont 25.6631 sf 0 0 m (8) show NC gr 
 gsave  711 567 1534 12 C 1557.28 431.946 t 90 r /Helvetica findfont 28.5146 sf 0 0 m (0.0096 ) show NC gr 
 gsave  711 567 1534 12 C 1543.07 429.104 t 90 r /Helvetica findfont 19.9602 sf 0 0 m ( ) show NC gr 
 gsave  711 567 1534 12 C 1557.28 417.737 t 90 r /Helvetica findfont 28.5146 sf 0 0 m (/) show NC gr 
 gsave  711 567 1534 12 C 1565.8 414.896 t 90 r /Helvetica findfont 19.9602 sf 0 0 m ( ) show NC gr 
 gsave  711 567 1534 12 C 1557.28 309.751 t 90 r /Helvetica findfont 28.5146 sf 0 0 m (\(1/N\) dN) show NC gr  2202 94 m 429 Y s 2186 94 m 16 X s 2194 103 m 8 X s 2194 113 m 8 X s 2194 123 m 8 X s 2194 133 m 8 X s 2186 143 m 16 X s 2194 153 m 8 X s
 2194 162 m 8 X s 2194 172 m 8 X s 2194 182 m 8 X s 2186 192 m 16 X s 2194 202 m 8 X s 2194 212 m 8 X s 2194 221 m 8 X s 2194 231 m 8 X s 2186 241 m 16 X s 2194 251 m 8 X s 2194 261 m 8 X s 2194 270 m 8 X s 2194 280 m 8 X s 2186 290 m 16 X s 2194 300
 m 8 X s 2194 310 m 8 X s 2194 320 m 8 X s 2194 329 m 8 X s 2186 339 m 16 X s 2194 349 m 8 X s 2194 359 m 8 X s 2194 369 m 8 X s 2194 379 m 8 X s 2186 388 m 16 X s 2194 398 m 8 X s 2194 408 m 8 X s 2194 418 m 8 X s 2194 428 m 8 X s 2186 438 m 16 X s
 2194 447 m 8 X s 2194 457 m 8 X s 2194 467 m 8 X s 2194 477 m 8 X s 2186 487 m 16 X s 2186 487 m 16 X s 2194 497 m 8 X s 2194 506 m 8 X s 2194 516 m 8 X s 0.490196 0.545098 0.615686 c 0.364706 0.419608 0.490196 c 338 37 1542 539 bf 0.490196 0.545098
 0.615686 c 1542 539 m 338 X s 1880 539 m 37 Y s 1880 576 m -338 X s 1542 576 m -37 Y s 1 1 1 c black 1 1 1 c
 gsave  711 567 1534 12 C 1545.91 551.299 t 0 r /Helvetica-Bold findfont 28.5146 sf 0 0 m (Input variable: bb.HT_l2) show NC gr  1 0 0 c 6 lw black 3 lw 1 0 0 c 2189 94 m -1 X s 2189 109 m -16 -15 d s 2179 115 m -21 -21 d s 2164 114 m -21 -20 d s
 2151 116 m -23 -22 d s 2148 128 m -35 -34 d s 2140 136 m -42 -42 d s 2126 137 m -43 -43 d s 2117 143 m -49 -49 d s 2100 142 m -7 -8 d s 2090 132 m -37 -38 d s 2079 135 m -41 -41 d s 2079 151 m -56 -57 d s 2066 152 m -58 -58 d s 2066 167 m -74 -73 d
 s 2047 164 m -70 -70 d s 2025 156 m -63 -62 d s 2025 171 m -78 -77 d s 2015 177 m -83 -83 d s 1998 175 m -81 -81 d s 1991 184 m -89 -90 d s 1984 191 m -97 -97 d s 1972 195 m -2 -3 d s 1956 179 m -84 -85 d s 1946 184 m -89 -90 d s 1943 195 m -101
 -101 d s 1942 210 m -115 -116 d s 1923 206 m -111 -112 d s 1906 204 m -110 -110 d s 1893 206 m -5 -5 d s 1879 192 m -98 -98 d s 1874 202 m -108 -108 d s 1873 216 m -122 -122 d s 1848 206 m -112 -112 d s 1847 220 m -126 -126 d s 1841 230 m -8 -8 d s
 1828 217 m -122 -123 d s 1819 223 m -128 -129 d s 1819 238 m -143 -144 d s 1806 240 m -145 -146 d s 1806 255 m -151 -152 d s 1806 270 m -151 -152 d s 1792 271 m -137 -138 d s 1784 278 m -129 -129 d s 1770 280 m -115 -116 d s 1751 275 m -96 -96 d s
 1751 291 m -96 -97 d s 1751 306 m -96 -97 d s 1738 308 m -1 -1 d s 1733 303 m -78 -78 d s 1724 309 m -69 -69 d s 1724 324 m -69 -69 d s 1724 339 m -69 -69 d s 1724 354 m -69 -69 d s 1710 356 m -55 -55 d s 1710 371 m -55 -55 d s 1710 386 m -55 -55 d
 s 1710 401 m -55 -55 d s 1710 416 m -55 -55 d s 1709 430 m -54 -54 d s 1684 421 m -29 -29 d s 1683 434 m -28 -27 d s 1683 450 m -28 -28 d s 1683 465 m -28 -28 d s 1683 480 m -28 -28 d s 1671 484 m -2 -3 d s 1659 471 m -4 -3 d s 6 lw 1655 471 m 14 X
 13 Y 14 X -63 Y 13 X 9 Y 14 X -74 Y 14 X -53 Y 13 X 5 Y 14 X -33 Y 14 X 5 Y 13 X -2 Y 14 X -7 Y 14 X -31 Y 13 X -23 Y 14 X 13 Y 14 X -24 Y 13 X 10 Y 14 X -24 Y 14 X 14 Y 13 X -2 Y 14 X 2 Y 14 X 4 Y 14 X -26 Y 13 X -5 Y 14 X 16 Y 14 X -11 Y 13 X -9 Y
 14 X 2 Y 14 X -21 Y 13 X 8 Y 14 X 3 Y 14 X -16 Y 13 X -19 Y 14 X 10 Y 14 X 1 Y 13 X -6 Y 14 X -1 Y 14 X -20 Y 13 X -2 Y 14 X 1 Y 14 X -21 Y 13 X s black 3 lw 1655 94 m 547 X s 1691 107 m -13 Y s 1705 100 m -6 Y s 1719 100 m -6 Y s 1734 100 m -6 Y s
 1748 100 m -6 Y s 1762 107 m -13 Y s 1776 100 m -6 Y s 1791 100 m -6 Y s 1805 100 m -6 Y s 1819 100 m -6 Y s 1833 107 m -13 Y s 1848 100 m -6 Y s 1862 100 m -6 Y s 1876 100 m -6 Y s 1890 100 m -6 Y s 1905 107 m -13 Y s 1919 100 m -6 Y s 1933 100 m
 -6 Y s 1947 100 m -6 Y s 1962 100 m -6 Y s 1976 107 m -13 Y s 1990 100 m -6 Y s 2004 100 m -6 Y s 2019 100 m -6 Y s 2033 100 m -6 Y s 2047 107 m -13 Y s 2061 100 m -6 Y s 2076 100 m -6 Y s 2090 100 m -6 Y s 2104 100 m -6 Y s 2118 107 m -13 Y s 2133
 100 m -6 Y s 2147 100 m -6 Y s 2161 100 m -6 Y s 2176 100 m -6 Y s 2190 107 m -13 Y s 1691 107 m -13 Y s 1677 100 m -6 Y s 1662 100 m -6 Y s 2190 107 m -13 Y s 1655 523 m 547 X s 1691 509 m 14 Y s 1705 516 m 7 Y s 1719 516 m 7 Y s 1734 516 m 7 Y s
 1748 516 m 7 Y s 1762 509 m 14 Y s 1776 516 m 7 Y s 1791 516 m 7 Y s 1805 516 m 7 Y s 1819 516 m 7 Y s 1833 509 m 14 Y s 1848 516 m 7 Y s 1862 516 m 7 Y s 1876 516 m 7 Y s 1890 516 m 7 Y s 1905 509 m 14 Y s 1919 516 m 7 Y s 1933 516 m 7 Y s 1947 516
 m 7 Y s 1962 516 m 7 Y s 1976 509 m 14 Y s 1990 516 m 7 Y s 2004 516 m 7 Y s 2019 516 m 7 Y s 2033 516 m 7 Y s 2047 509 m 14 Y s 2061 516 m 7 Y s 2076 516 m 7 Y s 2090 516 m 7 Y s 2104 516 m 7 Y s 2118 509 m 14 Y s 2133 516 m 7 Y s 2147 516 m 7 Y s
 2161 516 m 7 Y s 2176 516 m 7 Y s 2190 509 m 14 Y s 1691 509 m 14 Y s 1677 516 m 7 Y s 1662 516 m 7 Y s 2190 509 m 14 Y s 1655 94 m 429 Y s 1671 94 m -16 X s 1663 103 m -8 X s 1663 113 m -8 X s 1663 123 m -8 X s 1663 133 m -8 X s 1671 143 m -16 X s
 1663 153 m -8 X s 1663 162 m -8 X s 1663 172 m -8 X s 1663 182 m -8 X s 1671 192 m -16 X s 1663 202 m -8 X s 1663 212 m -8 X s 1663 221 m -8 X s 1663 231 m -8 X s 1671 241 m -16 X s 1663 251 m -8 X s 1663 261 m -8 X s 1663 270 m -8 X s 1663 280 m -8
 X s 1671 290 m -16 X s 1663 300 m -8 X s 1663 310 m -8 X s 1663 320 m -8 X s 1663 329 m -8 X s 1671 339 m -16 X s 1663 349 m -8 X s 1663 359 m -8 X s 1663 369 m -8 X s 1663 379 m -8 X s 1671 388 m -16 X s 1663 398 m -8 X s 1663 408 m -8 X s 1663 418
 m -8 X s 1663 428 m -8 X s 1671 438 m -16 X s 1663 447 m -8 X s 1663 457 m -8 X s 1663 467 m -8 X s 1663 477 m -8 X s 1671 487 m -16 X s 1671 487 m -16 X s 1663 497 m -8 X s 1663 506 m -8 X s 1663 516 m -8 X s 2202 94 m 429 Y s 2186 94 m 16 X s 2194
 103 m 8 X s 2194 113 m 8 X s 2194 123 m 8 X s 2194 133 m 8 X s 2186 143 m 16 X s 2194 153 m 8 X s 2194 162 m 8 X s 2194 172 m 8 X s 2194 182 m 8 X s 2186 192 m 16 X s 2194 202 m 8 X s 2194 212 m 8 X s 2194 221 m 8 X s 2194 231 m 8 X s 2186 241 m 16
 X s 2194 251 m 8 X s 2194 261 m 8 X s 2194 270 m 8 X s 2194 280 m 8 X s 2186 290 m 16 X s 2194 300 m 8 X s 2194 310 m 8 X s 2194 320 m 8 X s 2194 329 m 8 X s 2186 339 m 16 X s 2194 349 m 8 X s 2194 359 m 8 X s 2194 369 m 8 X s 2194 379 m 8 X s 2186
 388 m 16 X s 2194 398 m 8 X s 2194 408 m 8 X s 2194 418 m 8 X s 2194 428 m 8 X s 2186 438 m 16 X s 2194 447 m 8 X s 2194 457 m 8 X s 2194 467 m 8 X s 2194 477 m 8 X s 2186 487 m 16 X s 2186 487 m 16 X s 2194 497 m 8 X s 2194 506 m 8 X s 2194 516 m 8
 X s
 gsave  711 567 1534 12 C 2230.83 91.2634 t 90 r /Helvetica-Bold findfont 19.9602 sf 0 0 m (U/O\255flow \(S,B\): \(0.0, 0.0\)% / \(0.0, 0.0\)%) show NC gr  0.490196 0.545098 0.615686 c 0.364706 0.419608 0.490196 c 338 37 1542 539 bf 0.490196 0.545098
 0.615686 c 1542 539 m 338 X s 1880 539 m 37 Y s 1880 576 m -338 X s 1542 576 m -37 Y s 1 1 1 c black 1 1 1 c
 gsave  711 567 1534 12 C 1545.91 551.299 t 0 r /Helvetica-Bold findfont 28.5146 sf 0 0 m (Input variable: bb.HT_l2) show NC gr 
 gr  gr showpage
end
%%EOF
