%!PS-Adobe-2.0 EPSF-2.0
%%BoundingBox:  0 0 567 296
%%Title: dataset_class_l2/plots/variables_id_c2.eps: Input variables (training sample)
%%Creator: ROOT Version 6.18/00
%%CreationDate: Sat Sep 14 12:36:00 2019
%%DocumentNeededResources: ProcSet (FontSetInit)
%%EndComments
%%BeginProlog
80 dict begin
/s {stroke} def /l {lineto} def /m {moveto} def /t {translate} def
/r {rotate} def /rl {roll}  def /R {repeat} def
/d {rlineto} def /rm {rmoveto} def /gr {grestore} def /f {eofill} def
/c {setrgbcolor} def /black {0 setgray} def /sd {setdash} def
/cl {closepath} def /sf {scalefont setfont} def /lw {setlinewidth} def
/box {m dup 0 exch d exch 0 d 0 exch neg d cl} def
/NC{systemdict begin initclip end}def/C{NC box clip newpath}def
/bl {box s} def /bf {gsave box gsave f grestore 1 lw [] 0 sd s grestore} def /Y { 0 exch d} def /X { 0 d} def 
/K {{pop pop 0 moveto} exch kshow} bind def
/ita {/ang 15 def gsave [1 0 ang dup sin exch cos div 1 0 0] concat} def 
/mp {newpath /y exch def /x exch def} def
/side {[w .77 mul w .23 mul] .385 w mul sd w 0 l currentpoint t -144 r} def
/mr {mp x y w2 0 360 arc} def /m24 {mr s} def /m20 {mr f} def
/mb {mp x y w2 add m w2 neg 0 d 0 w neg d w 0 d 0 w d cl} def
/mt {mp x y w2 add m w2 neg w neg d w 0 d cl} def
/w4 {w 4 div} def
/w6 {w 6 div} def
/w8 {w 8 div} def
/m21 {mb f} def /m25 {mb s} def /m22 {mt f} def /m26{mt s} def
/m23 {mp x y w2 sub m w2 w d w neg 0 d cl f} def
/m27 {mp x y w2 add m w3 neg w2 neg d w3 w2 neg d w3 w2 d cl s} def
/m28 {mp x w2 sub y w2 sub w3 add m w3 0 d  0 w3 neg d w3 0 d 0 w3 d w3 0 d  0 w3 d w3 neg 0 d 0 w3 d w3 neg 0 d 0 w3 neg d w3 neg 0 d cl s } def
/m29 {mp gsave x w2 sub y w2 add w3 sub m currentpoint t 4 {side} repeat cl fill gr} def
/m30 {mp gsave x w2 sub y w2 add w3 sub m currentpoint t 4 {side} repeat cl s gr} def
/m31 {mp x y w2 sub m 0 w d x w2 sub y m w 0 d x w2 sub y w2 add m w w neg d x w2 sub y w2 sub m w w d s} def
/m32 {mp x y w2 sub m w2 w d w neg 0 d cl s} def
/m33 {mp x y w2 add m w3 neg w2 neg d w3 w2 neg d w3 w2 d cl f} def
/m34 {mp x w2 sub y w2 sub w3 add m w3 0 d  0 w3 neg d w3 0 d 0 w3 d w3 0 d  0 w3 d w3 neg 0 d 0 w3 d w3 neg 0 d 0 w3 neg d w3 neg 0 d cl f } def
/m35 {mp x y w2 add m w2 neg w2 neg d w2 w2 neg d w2 w2 d w2 neg w2 d x y w2 sub m 0 w d x w2 sub y m w 0 d s} def
/m36 {mb x w2 sub y w2 add m w w neg d x w2 sub y w2 sub m w w d s} def
/m37 {mp x y m w4 neg w2 d w4 neg w2 neg d w2 0 d  w4 neg w2 neg d w2 0 d w4 neg w2 d w2 0 d w4 neg w2 d w4 neg w2 neg d cl s} def
/m38 {mp x w4 sub y w2 add m w4 neg w4 neg d 0 w2 neg d w4 w4 neg d w2 0 d w4 w4 d 0 w2 d w4 neg w4 d w2 neg 0 d x y w2 sub m 0 w d x w2 sub y m w 0 d cl s} def
/m39 {mp x y m w4 neg w2 d w4 neg w2 neg d w2 0 d  w4 neg w2 neg d w2 0 d w4 neg w2 d w2 0 d w4 neg w2 d w4 neg w2 neg d cl f} def
/m40 {mp x y m w4 w2 d w4 w4 neg d w2 neg w4 neg d w2 w4 neg d w4 neg w4 neg d w4 neg w2 d w4 neg w2 neg d w4 neg w4 d w2 w4 d w2 neg w4 d w4 w4 d w4 w2 neg d cl s} def
/m41 {mp x y m w4 w2 d w4 w4 neg d w2 neg w4 neg d w2 w4 neg d w4 neg w4 neg d w4 neg w2 d w4 neg w2 neg d w4 neg w4 d w2 w4 d w2 neg w4 d w4 w4 d w4 w2 neg d cl f} def
/m42 {mp x y w2 add m w8 neg w2 -3 4 div mul d w2 -3 4 div mul w8 neg d w2 3 4 div mul w8 neg d w8 w2 -3 4 div mul d w8 w2 3 4 div mul d w2 3 4 div mul w8 d w2 -3 4 div mul w8 d w8 neg w2 3 4 div mul d cl s} def
/m43 {mp x y w2 add m w8 neg w2 -3 4 div mul d w2 -3 4 div mul w8 neg d w2 3 4 div mul w8 neg d w8 w2 -3 4 div mul d w8 w2 3 4 div mul d w2 3 4 div mul w8 d w2 -3 4 div mul w8 d w8 neg w2 3 4 div mul d cl f} def
/m44 {mp x y m w6 neg w2 d w2 2 3 div mul 0 d w6 neg w2 neg d w2 w6 d 0 w2 -2 3 div mul d w2 neg w6 d w6 w2 neg d w2 -2 3 div mul 0 d w6 w2 d w2 neg w6 neg d 0 w2 2 3 div mul d w2 w6 neg d cl s} def
/m45 {mp x y m w6 neg w2 d w2 2 3 div mul 0 d w6 neg w2 neg d w2 w6 d 0 w2 -2 3 div mul d w2 neg w6 d w6 w2 neg d w2 -2 3 div mul 0 d w6 w2 d w2 neg w6 neg d 0 w2 2 3 div mul d w2 w6 neg d cl f} def
/m46 {mp x y w4 add m w4 neg w4 d w4 neg w4 neg d  w4 w4 neg d w4 neg w4 neg d w4 w4 neg d w4 w4 d w4 w4 neg d w4 w4 d w4 neg w4 d w4 w4 d w4 neg w4 d w4 neg w4 neg d cl s} def
/m47 {mp x y w4 add m w4 neg w4 d w4 neg w4 neg d w4 w4 neg d w4 neg w4 neg d  w4 w4 neg d w4 w4 d w4 w4 neg d w4 w4 d w4 neg w4 d w4 w4 d w4 neg w4 d w4 neg w4 neg d cl f} def
/m48 {mp x y w4 add m w4 neg w4 d w4 neg w4 neg d w4 w4 neg d  w4 neg w4 neg d w4 w4 neg d w4 w4 d w4 w4 neg d w4 w4 d w4 neg w4 d w4 w4 d w4 neg w4 d w4 neg w4 neg d  w4 w4 neg d w4 neg w4 neg d w4 neg w4 d w4 w4 d cl f} def
/m49 {mp x w2 sub w3 add y w2 sub w3 add m  0 w3 neg d w3 0 d 0 w3 d w3 0 d 0 w3 d w3 neg 0 d 0 w3 d w3 neg 0 d 0 w3 neg d w3 neg 0 d 0 w3 neg d w3 0 d 0 w3 d w3 0 d 0 w3 neg d w3 neg 0 d cl f } def
/m2 {mp x y w2 sub m 0 w d x w2 sub y m w 0 d s} def
/m5 {mp x w2 sub y w2 sub m w w d x w2 sub y w2 add m w w neg d s} def
%%IncludeResource: ProcSet (FontSetInit)
%%IncludeResource: font Times-Roman
%%IncludeResource: font Times-Italic
%%IncludeResource: font Times-Bold
%%IncludeResource: font Times-BoldItalic
%%IncludeResource: font Helvetica
%%IncludeResource: font Helvetica-Oblique
%%IncludeResource: font Helvetica-Bold
%%IncludeResource: font Helvetica-BoldOblique
%%IncludeResource: font Courier
%%IncludeResource: font Courier-Oblique
%%IncludeResource: font Courier-Bold
%%IncludeResource: font Courier-BoldOblique
%%IncludeResource: font Symbol
%%IncludeResource: font ZapfDingbats
/reEncode {exch findfont dup length dict begin {1 index /FID eq  {pop pop} {def} ifelse } forall /Encoding exch def currentdict end dup /FontName get exch definefont pop } def [/Times-Bold /Times-Italic /Times-BoldItalic /Helvetica /Helvetica-Oblique
 /Helvetica-Bold /Helvetica-BoldOblique /Courier /Courier-Oblique /Courier-Bold /Courier-BoldOblique /Times-Roman /AvantGarde-Book /AvantGarde-BookOblique /AvantGarde-Demi /AvantGarde-DemiOblique /Bookman-Demi /Bookman-DemiItalic /Bookman-Light
 /Bookman-LightItalic /Helvetica-Narrow /Helvetica-Narrow-Bold /Helvetica-Narrow-BoldOblique /Helvetica-Narrow-Oblique /NewCenturySchlbk-Roman /NewCenturySchlbk-Bold /NewCenturySchlbk-BoldItalic /NewCenturySchlbk-Italic /Palatino-Bold
 /Palatino-BoldItalic /Palatino-Italic /Palatino-Roman ] {ISOLatin1Encoding reEncode } forall
%%EndProlog
%%BeginSetup
%%EndSetup
newpath  gsave  .25 .25 scale  gsave  0 0 t 0.490196 0.545098 0.615686 c[  ] 0 sd 3 lw 0.941176 0.941176 0.941176 c 2268 1182 0 0 bf 0.490196 0.545098 0.615686 c 0.941176 0.941176 0.941176 c 710 567 23 603 bf black 1 1 0.992157 c 548 429 143 685 bf
 black 548 429 143 685 bl 0 0 0.933333 c 6 lw 0.49 0.6 0.82 c black 3 lw 0.49 0.6 0.82 c 143 685 m 185 Y 14 X 30 Y 14 X 23 Y 14 X 9 Y 13 X 16 Y 14 X 17 Y 14 X -23 Y 13 X 55 Y 14 X -29 Y 14 X -11 Y 13 X -26 Y 14 X -1 Y 14 X 7 Y 13 X -15 Y 14 X -2 Y 14
 X 18 Y 13 X -27 Y 14 X -13 Y 14 X -2 Y 13 X -8 Y 14 X -3 Y 14 X 14 Y 13 X -30 Y 14 X 5 Y 14 X -36 Y 13 X 9 Y 14 X -19 Y 14 X 1 Y 13 X -18 Y 14 X -2 Y 14 X -22 Y 13 X 10 Y 14 X -22 Y 14 X -8 Y 14 X -30 Y 13 X -7 Y 14 X -19 Y 14 X -17 Y 13 X -4 Y 14 X
 -5 Y 14 X f 6 lw 0 0 0.933333 c 0.49 0.6 0.82 c 0 0 0.933333 c 143 870 m 14 X 30 Y 14 X 23 Y 14 X 9 Y 13 X 16 Y 14 X 17 Y 14 X -23 Y 13 X 55 Y 14 X -29 Y 14 X -11 Y 13 X -26 Y 14 X -1 Y 14 X 7 Y 13 X -15 Y 14 X -2 Y 14 X 18 Y 13 X -27 Y 14 X -13 Y
 14 X -2 Y 13 X -8 Y 14 X -3 Y 14 X 14 Y 13 X -30 Y 14 X 5 Y 14 X -36 Y 13 X 9 Y 14 X -19 Y 14 X 1 Y 13 X -18 Y 14 X -2 Y 14 X -22 Y 13 X 10 Y 14 X -22 Y 14 X -8 Y 14 X -30 Y 13 X -7 Y 14 X -19 Y 14 X -17 Y 13 X -4 Y 14 X -5 Y 14 X s black 3 lw 143
 685 m 548 X s 179 698 m -13 Y s 193 691 m -6 Y s 208 691 m -6 Y s 222 691 m -6 Y s 236 691 m -6 Y s 250 698 m -13 Y s 265 691 m -6 Y s 279 691 m -6 Y s 293 691 m -6 Y s 307 691 m -6 Y s 322 698 m -13 Y s 336 691 m -6 Y s 350 691 m -6 Y s 364 691 m
 -6 Y s 379 691 m -6 Y s 393 698 m -13 Y s 407 691 m -6 Y s 421 691 m -6 Y s 436 691 m -6 Y s 450 691 m -6 Y s 464 698 m -13 Y s 478 691 m -6 Y s 493 691 m -6 Y s 507 691 m -6 Y s 521 691 m -6 Y s 536 698 m -13 Y s 550 691 m -6 Y s 564 691 m -6 Y s
 578 691 m -6 Y s 593 691 m -6 Y s 607 698 m -13 Y s 621 691 m -6 Y s 635 691 m -6 Y s 650 691 m -6 Y s 664 691 m -6 Y s 678 698 m -13 Y s 179 698 m -13 Y s 165 691 m -6 Y s 151 691 m -6 Y s 678 698 m -13 Y s
 gsave  710 567 23 603 C 167.663 656.444 t 0 r /Helvetica findfont 25.6631 sf 0 0 m (0.1) show NC gr 
 gsave  710 567 23 603 C 156.296 656.444 t 0 r /Symbol findfont 25.6631 sf 0 0 m (-) show NC gr 
 gsave  710 567 23 603 C 230.182 656.444 t 0 r /Helvetica findfont 25.6631 sf 0 0 m (0.05) show NC gr 
 gsave  710 567 23 603 C 218.815 656.444 t 0 r /Symbol findfont 25.6631 sf 0 0 m (-) show NC gr 
 gsave  710 567 23 603 C 312.592 656.444 t 0 r /Helvetica findfont 25.6631 sf 0 0 m (0) show NC gr 
 gsave  710 567 23 603 C 366.586 656.444 t 0 r /Helvetica findfont 25.6631 sf 0 0 m (0.05) show NC gr 
 gsave  710 567 23 603 C 446.155 656.444 t 0 r /Helvetica findfont 25.6631 sf 0 0 m (0.1) show NC gr 
 gsave  710 567 23 603 C 508.673 656.444 t 0 r /Helvetica findfont 25.6631 sf 0 0 m (0.15) show NC gr 
 gsave  710 567 23 603 C 588.242 656.444 t 0 r /Helvetica findfont 25.6631 sf 0 0 m (0.2) show NC gr 
 gsave  710 567 23 603 C 650.761 656.444 t 0 r /Helvetica findfont 25.6631 sf 0 0 m (0.25) show NC gr 
 gsave  710 567 23 603 C 574.034 613.818 t 0 r /Helvetica findfont 28.5146 sf 0 0 m (bb.HP_l2) show NC gr  143 1114 m 548 X s 179 1100 m 14 Y s 193 1107 m 7 Y s 208 1107 m 7 Y s 222 1107 m 7 Y s 236 1107 m 7 Y s 250 1100 m 14 Y s 265 1107 m 7 Y s 279
 1107 m 7 Y s 293 1107 m 7 Y s 307 1107 m 7 Y s 322 1100 m 14 Y s 336 1107 m 7 Y s 350 1107 m 7 Y s 364 1107 m 7 Y s 379 1107 m 7 Y s 393 1100 m 14 Y s 407 1107 m 7 Y s 421 1107 m 7 Y s 436 1107 m 7 Y s 450 1107 m 7 Y s 464 1100 m 14 Y s 478 1107 m 7
 Y s 493 1107 m 7 Y s 507 1107 m 7 Y s 521 1107 m 7 Y s 536 1100 m 14 Y s 550 1107 m 7 Y s 564 1107 m 7 Y s 578 1107 m 7 Y s 593 1107 m 7 Y s 607 1100 m 14 Y s 621 1107 m 7 Y s 635 1107 m 7 Y s 650 1107 m 7 Y s 664 1107 m 7 Y s 678 1100 m 14 Y s 179
 1100 m 14 Y s 165 1107 m 7 Y s 151 1107 m 7 Y s 678 1100 m 14 Y s 143 685 m 429 Y s 160 685 m -17 X s 152 698 m -9 X s 152 712 m -9 X s 152 725 m -9 X s 152 739 m -9 X s 160 752 m -17 X s 152 766 m -9 X s 152 779 m -9 X s 152 793 m -9 X s 152 806 m
 -9 X s 160 820 m -17 X s 152 833 m -9 X s 152 847 m -9 X s 152 861 m -9 X s 152 874 m -9 X s 160 888 m -17 X s 152 901 m -9 X s 152 915 m -9 X s 152 928 m -9 X s 152 942 m -9 X s 160 955 m -17 X s 152 969 m -9 X s 152 982 m -9 X s 152 996 m -9 X s
 152 1009 m -9 X s 160 1023 m -17 X s 152 1036 m -9 X s 152 1050 m -9 X s 152 1063 m -9 X s 152 1077 m -9 X s 160 1091 m -17 X s 160 1091 m -17 X s 152 1104 m -9 X s
 gsave  710 567 23 603 C 119.354 673.495 t 0 r /Helvetica findfont 25.6631 sf 0 0 m (0) show NC gr 
 gsave  710 567 23 603 C 122.195 741.697 t 0 r /Helvetica findfont 25.6631 sf 0 0 m (1) show NC gr 
 gsave  710 567 23 603 C 119.354 809.899 t 0 r /Helvetica findfont 25.6631 sf 0 0 m (2) show NC gr 
 gsave  710 567 23 603 C 119.354 878.101 t 0 r /Helvetica findfont 25.6631 sf 0 0 m (3) show NC gr 
 gsave  710 567 23 603 C 119.354 946.303 t 0 r /Helvetica findfont 25.6631 sf 0 0 m (4) show NC gr 
 gsave  710 567 23 603 C 119.354 1011.66 t 0 r /Helvetica findfont 25.6631 sf 0 0 m (5) show NC gr 
 gsave  710 567 23 603 C 119.354 1079.86 t 0 r /Helvetica findfont 25.6631 sf 0 0 m (6) show NC gr 
 gsave  710 567 23 603 C 45.468 1005.98 t 90 r /Helvetica findfont 28.5146 sf 0 0 m (0.00959 ) show NC gr 
 gsave  710 567 23 603 C 31.2593 1003.14 t 90 r /Helvetica findfont 19.9602 sf 0 0 m ( ) show NC gr 
 gsave  710 567 23 603 C 45.468 991.771 t 90 r /Helvetica findfont 28.5146 sf 0 0 m (/) show NC gr 
 gsave  710 567 23 603 C 53.9933 988.929 t 90 r /Helvetica findfont 19.9602 sf 0 0 m ( ) show NC gr 
 gsave  710 567 23 603 C 45.468 883.784 t 90 r /Helvetica findfont 28.5146 sf 0 0 m (\(1/N\) dN) show NC gr  691 685 m 429 Y s 674 685 m 17 X s 683 698 m 8 X s 683 712 m 8 X s 683 725 m 8 X s 683 739 m 8 X s 674 752 m 17 X s 683 766 m 8 X s 683 779 m
 8 X s 683 793 m 8 X s 683 806 m 8 X s 674 820 m 17 X s 683 833 m 8 X s 683 847 m 8 X s 683 861 m 8 X s 683 874 m 8 X s 674 888 m 17 X s 683 901 m 8 X s 683 915 m 8 X s 683 928 m 8 X s 683 942 m 8 X s 674 955 m 17 X s 683 969 m 8 X s 683 982 m 8 X s
 683 996 m 8 X s 683 1009 m 8 X s 674 1023 m 17 X s 683 1036 m 8 X s 683 1050 m 8 X s 683 1063 m 8 X s 683 1077 m 8 X s 674 1091 m 17 X s 674 1091 m 17 X s 683 1104 m 8 X s 0.490196 0.545098 0.615686 c 0.364706 0.419608 0.490196 c 338 38 30 1130 bf
 0.490196 0.545098 0.615686 c 30 1130 m 338 X s 368 1130 m 38 Y s 368 1168 m -338 X s 30 1168 m -38 Y s 1 1 1 c black 1 1 1 c
 gsave  710 567 23 603 C 34.101 1142.38 t 0 r /Helvetica-Bold findfont 28.5146 sf 0 0 m (Input variable: bb.HP_l2) show NC gr  1 0 0 c 6 lw black 3 lw 1 0 0 c 677 685 m s 677 700 m -15 -15 d s 676 715 m -30 -30 d s 656 710 m -25 -25 d s 650 718 m -34
 -33 d s 637 721 m -36 -36 d s 631 729 m -45 -44 d s 622 736 m -51 -51 d s 622 751 m -66 -66 d s 609 753 m s 603 747 m -62 -62 d s 585 744 m -59 -59 d s 573 747 m -62 -62 d s 567 757 m -71 -72 d s 567 772 m -86 -87 d s 554 774 m s 548 768 m -82 -83 d
 s 535 769 m -85 -84 d s 526 776 m -91 -91 d s 526 792 m -13 -14 d s 509 774 m -89 -89 d s 516 796 m -3 -3 d s 499 779 m -94 -94 d s 499 794 m -109 -109 d s 494 804 m -9 -8 d s 479 789 m -104 -104 d s 472 797 m -112 -112 d s 472 812 m -127 -127 d s
 466 822 m -8 -8 d s 448 804 m -118 -119 d s 435 806 m -4 -5 d s 425 796 m -110 -111 d s 417 803 m -117 -118 d s 417 818 m -132 -133 d s 417 833 m -147 -148 d s 417 848 m -162 -163 d s 417 863 m -14 -13 d s 400 847 m -10 -11 d s 389 835 m -150 -150 d
 s 413 875 m -10 -10 d s 375 836 m -151 -151 d s 362 839 m -153 -154 d s 362 854 m -168 -169 d s 357 863 m -8 -8 d s 335 842 m -156 -157 d s 335 857 m -171 -172 d s 335 872 m -186 -187 d s 335 887 m -192 -193 d s 327 894 m -6 -5 d s 310 877 m -167
 -168 d s 308 890 m -165 -165 d s 308 905 m -165 -165 d s 308 920 m -165 -165 d s 306 934 m -163 -164 d s 294 937 m -151 -152 d s 294 952 m -151 -152 d s 294 967 m -151 -151 d s 284 973 m -141 -142 d s 280 984 m -137 -138 d s 280 999 m -137 -138 d s
 270 1004 m -127 -128 d s 267 1016 m -124 -124 d s 261 1025 m -118 -118 d s 253 1032 m -110 -110 d s 253 1047 m -110 -110 d s 239 1049 m -96 -97 d s 239 1064 m -68 -69 d s 169 993 m -26 -26 d s 235 1075 m -9 -10 d s 217 1056 m -46 -46 d s 157 996 m
 -14 -13 d s 205 1060 m -34 -35 d s 157 1012 m -14 -14 d s 198 1068 m -27 -27 d s 150 1020 m -7 -7 d s 187 1072 m -2 -2 d s 6 lw 143 1020 m 14 X -27 Y 14 X 61 Y 14 X 18 Y 13 X -12 Y 14 X -4 Y 14 X 19 Y 13 X -27 Y 14 X -23 Y 14 X -21 Y 13 X -31 Y 14 X
 -39 Y 14 X -57 Y 13 X 17 Y 14 X -52 Y 14 X 21 Y 13 X -27 Y 14 X -1 Y 14 X 12 Y 13 X 28 Y 14 X -79 Y 14 X 10 Y 13 X -2 Y 14 X 18 Y 14 X -33 Y 13 X 15 Y 14 X -30 Y 14 X 22 Y 13 X -27 Y 14 X -1 Y 14 X 6 Y 13 X -27 Y 14 X -3 Y 14 X 3 Y 14 X 6 Y 13 X -24
 Y 14 X -8 Y 14 X -11 Y 13 X 5 Y 14 X -30 Y 14 X s black 3 lw 143 685 m 548 X s 179 698 m -13 Y s 193 691 m -6 Y s 208 691 m -6 Y s 222 691 m -6 Y s 236 691 m -6 Y s 250 698 m -13 Y s 265 691 m -6 Y s 279 691 m -6 Y s 293 691 m -6 Y s 307 691 m -6 Y
 s 322 698 m -13 Y s 336 691 m -6 Y s 350 691 m -6 Y s 364 691 m -6 Y s 379 691 m -6 Y s 393 698 m -13 Y s 407 691 m -6 Y s 421 691 m -6 Y s 436 691 m -6 Y s 450 691 m -6 Y s 464 698 m -13 Y s 478 691 m -6 Y s 493 691 m -6 Y s 507 691 m -6 Y s 521
 691 m -6 Y s 536 698 m -13 Y s 550 691 m -6 Y s 564 691 m -6 Y s 578 691 m -6 Y s 593 691 m -6 Y s 607 698 m -13 Y s 621 691 m -6 Y s 635 691 m -6 Y s 650 691 m -6 Y s 664 691 m -6 Y s 678 698 m -13 Y s 179 698 m -13 Y s 165 691 m -6 Y s 151 691 m
 -6 Y s 678 698 m -13 Y s 143 1114 m 548 X s 179 1100 m 14 Y s 193 1107 m 7 Y s 208 1107 m 7 Y s 222 1107 m 7 Y s 236 1107 m 7 Y s 250 1100 m 14 Y s 265 1107 m 7 Y s 279 1107 m 7 Y s 293 1107 m 7 Y s 307 1107 m 7 Y s 322 1100 m 14 Y s 336 1107 m 7 Y
 s 350 1107 m 7 Y s 364 1107 m 7 Y s 379 1107 m 7 Y s 393 1100 m 14 Y s 407 1107 m 7 Y s 421 1107 m 7 Y s 436 1107 m 7 Y s 450 1107 m 7 Y s 464 1100 m 14 Y s 478 1107 m 7 Y s 493 1107 m 7 Y s 507 1107 m 7 Y s 521 1107 m 7 Y s 536 1100 m 14 Y s 550
 1107 m 7 Y s 564 1107 m 7 Y s 578 1107 m 7 Y s 593 1107 m 7 Y s 607 1100 m 14 Y s 621 1107 m 7 Y s 635 1107 m 7 Y s 650 1107 m 7 Y s 664 1107 m 7 Y s 678 1100 m 14 Y s 179 1100 m 14 Y s 165 1107 m 7 Y s 151 1107 m 7 Y s 678 1100 m 14 Y s 143 685 m
 429 Y s 160 685 m -17 X s 152 698 m -9 X s 152 712 m -9 X s 152 725 m -9 X s 152 739 m -9 X s 160 752 m -17 X s 152 766 m -9 X s 152 779 m -9 X s 152 793 m -9 X s 152 806 m -9 X s 160 820 m -17 X s 152 833 m -9 X s 152 847 m -9 X s 152 861 m -9 X s
 152 874 m -9 X s 160 888 m -17 X s 152 901 m -9 X s 152 915 m -9 X s 152 928 m -9 X s 152 942 m -9 X s 160 955 m -17 X s 152 969 m -9 X s 152 982 m -9 X s 152 996 m -9 X s 152 1009 m -9 X s 160 1023 m -17 X s 152 1036 m -9 X s 152 1050 m -9 X s 152
 1063 m -9 X s 152 1077 m -9 X s 160 1091 m -17 X s 160 1091 m -17 X s 152 1104 m -9 X s 691 685 m 429 Y s 674 685 m 17 X s 683 698 m 8 X s 683 712 m 8 X s 683 725 m 8 X s 683 739 m 8 X s 674 752 m 17 X s 683 766 m 8 X s 683 779 m 8 X s 683 793 m 8 X
 s 683 806 m 8 X s 674 820 m 17 X s 683 833 m 8 X s 683 847 m 8 X s 683 861 m 8 X s 683 874 m 8 X s 674 888 m 17 X s 683 901 m 8 X s 683 915 m 8 X s 683 928 m 8 X s 683 942 m 8 X s 674 955 m 17 X s 683 969 m 8 X s 683 982 m 8 X s 683 996 m 8 X s 683
 1009 m 8 X s 674 1023 m 17 X s 683 1036 m 8 X s 683 1050 m 8 X s 683 1063 m 8 X s 683 1077 m 8 X s 674 1091 m 17 X s 674 1091 m 17 X s 683 1104 m 8 X s
 gsave  710 567 23 603 C 719.017 682.347 t 90 r /Helvetica-Bold findfont 19.9602 sf 0 0 m (U/O\255flow \(S,B\): \(0.0, 0.0\)% / \(0.0, 0.0\)%) show NC gr  0.490196 0.545098 0.615686 c 0.364706 0.419608 0.490196 c 338 38 30 1130 bf 0.490196 0.545098
 0.615686 c 30 1130 m 338 X s 368 1130 m 38 Y s 368 1168 m -338 X s 30 1168 m -38 Y s 1 1 1 c black 1 1 1 c
 gsave  710 567 23 603 C 34.101 1142.38 t 0 r /Helvetica-Bold findfont 28.5146 sf 0 0 m (Input variable: bb.HP_l2) show NC gr  0.490196 0.545098 0.615686 c 0.941176 0.941176 0.941176 c 710 567 779 603 bf black 1 1 0.992157 c 548 429 899 685 bf black
 548 429 899 685 bl 0 0 0.933333 c 6 lw 0.49 0.6 0.82 c black 3 lw 0.49 0.6 0.82 c 899 685 m 213 Y 14 X -101 Y 14 X -33 Y 13 X -9 Y 14 X 4 Y 14 X -4 Y 13 X -3 Y 14 X 1 Y 14 X -4 Y 13 X -1 Y 28 X 1 Y 14 X -6 Y 27 X 2 Y 14 X -1 Y 13 X -1 Y 14 X -2 Y 14
 X -1 Y 13 X -2 Y 14 X 1 Y 14 X 2 Y 13 X 2 Y 14 X -5 Y 14 X -1 Y 13 X 5 Y 14 X -11 Y 14 X 1 Y 13 X -3 Y 14 X 6 Y 14 X -1 Y 13 X -5 Y 28 X 4 Y 13 X -19 Y 14 X 5 Y 14 X -10 Y 13 X -11 Y 14 X -9 Y 14 X -4 Y 14 X f 6 lw 0 0 0.933333 c 0.49 0.6 0.82 c 0 0
 0.933333 c 899 898 m 14 X -101 Y 14 X -33 Y 13 X -9 Y 14 X 4 Y 14 X -4 Y 13 X -3 Y 14 X 1 Y 14 X -4 Y 13 X -1 Y 28 X 1 Y 14 X -6 Y 27 X 2 Y 14 X -1 Y 13 X -1 Y 14 X -2 Y 14 X -1 Y 13 X -2 Y 14 X 1 Y 14 X 2 Y 13 X 2 Y 14 X -5 Y 14 X -1 Y 13 X 5 Y 14
 X -11 Y 14 X 1 Y 13 X -3 Y 14 X 6 Y 14 X -1 Y 13 X -5 Y 28 X 4 Y 13 X -19 Y 14 X 5 Y 14 X -10 Y 13 X -11 Y 14 X -9 Y 14 X -4 Y 14 X s black 3 lw 899 685 m 548 X s 935 698 m -13 Y s 949 691 m -6 Y s 963 691 m -6 Y s 978 691 m -6 Y s 992 691 m -6 Y s
 1006 698 m -13 Y s 1020 691 m -6 Y s 1035 691 m -6 Y s 1049 691 m -6 Y s 1063 691 m -6 Y s 1077 698 m -13 Y s 1092 691 m -6 Y s 1106 691 m -6 Y s 1120 691 m -6 Y s 1134 691 m -6 Y s 1148 698 m -13 Y s 1163 691 m -6 Y s 1177 691 m -6 Y s 1191 691 m
 -6 Y s 1205 691 m -6 Y s 1220 698 m -13 Y s 1234 691 m -6 Y s 1248 691 m -6 Y s 1262 691 m -6 Y s 1277 691 m -6 Y s 1291 698 m -13 Y s 1305 691 m -6 Y s 1319 691 m -6 Y s 1334 691 m -6 Y s 1348 691 m -6 Y s 1362 698 m -13 Y s 1376 691 m -6 Y s 1390
 691 m -6 Y s 1405 691 m -6 Y s 1419 691 m -6 Y s 1433 698 m -13 Y s 935 698 m -13 Y s 921 691 m -6 Y s 906 691 m -6 Y s 1433 698 m -13 Y s
 gsave  710 567 779 603 C 923.569 656.444 t 0 r /Helvetica findfont 25.6631 sf 0 0 m (0.1) show NC gr 
 gsave  710 567 779 603 C 912.202 656.444 t 0 r /Symbol findfont 25.6631 sf 0 0 m (-) show NC gr 
 gsave  710 567 779 603 C 986.087 656.444 t 0 r /Helvetica findfont 25.6631 sf 0 0 m (0.05) show NC gr 
 gsave  710 567 779 603 C 974.72 656.444 t 0 r /Symbol findfont 25.6631 sf 0 0 m (-) show NC gr 
 gsave  710 567 779 603 C 1068.5 656.444 t 0 r /Helvetica findfont 25.6631 sf 0 0 m (0) show NC gr 
 gsave  710 567 779 603 C 1122.49 656.444 t 0 r /Helvetica findfont 25.6631 sf 0 0 m (0.05) show NC gr 
 gsave  710 567 779 603 C 1202.06 656.444 t 0 r /Helvetica findfont 25.6631 sf 0 0 m (0.1) show NC gr 
 gsave  710 567 779 603 C 1264.58 656.444 t 0 r /Helvetica findfont 25.6631 sf 0 0 m (0.15) show NC gr 
 gsave  710 567 779 603 C 1344.15 656.444 t 0 r /Helvetica findfont 25.6631 sf 0 0 m (0.2) show NC gr 
 gsave  710 567 779 603 C 1406.67 656.444 t 0 r /Helvetica findfont 25.6631 sf 0 0 m (0.25) show NC gr 
 gsave  710 567 779 603 C 1329.94 613.818 t 0 r /Helvetica findfont 28.5146 sf 0 0 m (bb.HY_l2) show NC gr  899 1114 m 548 X s 935 1100 m 14 Y s 949 1107 m 7 Y s 963 1107 m 7 Y s 978 1107 m 7 Y s 992 1107 m 7 Y s 1006 1100 m 14 Y s 1020 1107 m 7 Y s
 1035 1107 m 7 Y s 1049 1107 m 7 Y s 1063 1107 m 7 Y s 1077 1100 m 14 Y s 1092 1107 m 7 Y s 1106 1107 m 7 Y s 1120 1107 m 7 Y s 1134 1107 m 7 Y s 1148 1100 m 14 Y s 1163 1107 m 7 Y s 1177 1107 m 7 Y s 1191 1107 m 7 Y s 1205 1107 m 7 Y s 1220 1100 m
 14 Y s 1234 1107 m 7 Y s 1248 1107 m 7 Y s 1262 1107 m 7 Y s 1277 1107 m 7 Y s 1291 1100 m 14 Y s 1305 1107 m 7 Y s 1319 1107 m 7 Y s 1334 1107 m 7 Y s 1348 1107 m 7 Y s 1362 1100 m 14 Y s 1376 1107 m 7 Y s 1390 1107 m 7 Y s 1405 1107 m 7 Y s 1419
 1107 m 7 Y s 1433 1100 m 14 Y s 935 1100 m 14 Y s 921 1107 m 7 Y s 906 1107 m 7 Y s 1433 1100 m 14 Y s 899 685 m 429 Y s 915 685 m -16 X s 907 696 m -8 X s 907 707 m -8 X s 907 718 m -8 X s 915 728 m -16 X s 907 739 m -8 X s 907 750 m -8 X s 907 761
 m -8 X s 915 772 m -16 X s 907 783 m -8 X s 907 794 m -8 X s 907 805 m -8 X s 915 816 m -16 X s 907 827 m -8 X s 907 838 m -8 X s 907 849 m -8 X s 915 860 m -16 X s 907 871 m -8 X s 907 882 m -8 X s 907 893 m -8 X s 915 904 m -16 X s 907 915 m -8 X
 s 907 926 m -8 X s 907 937 m -8 X s 915 948 m -16 X s 907 959 m -8 X s 907 970 m -8 X s 907 981 m -8 X s 915 992 m -16 X s 907 1003 m -8 X s 907 1014 m -8 X s 907 1025 m -8 X s 915 1036 m -16 X s 907 1047 m -8 X s 907 1058 m -8 X s 907 1069 m -8 X s
 915 1080 m -16 X s 915 1080 m -16 X s 907 1090 m -8 X s 907 1101 m -8 X s 907 1112 m -8 X s
 gsave  710 567 779 603 C 875.259 673.495 t 0 r /Helvetica findfont 25.6631 sf 0 0 m (0) show NC gr 
 gsave  710 567 779 603 C 875.259 718.963 t 0 r /Helvetica findfont 25.6631 sf 0 0 m (2) show NC gr 
 gsave  710 567 779 603 C 875.259 761.589 t 0 r /Helvetica findfont 25.6631 sf 0 0 m (4) show NC gr 
 gsave  710 567 779 603 C 875.259 807.057 t 0 r /Helvetica findfont 25.6631 sf 0 0 m (6) show NC gr 
 gsave  710 567 779 603 C 875.259 849.683 t 0 r /Helvetica findfont 25.6631 sf 0 0 m (8) show NC gr 
 gsave  710 567 779 603 C 861.05 895.151 t 0 r /Helvetica findfont 25.6631 sf 0 0 m (10) show NC gr 
 gsave  710 567 779 603 C 861.05 937.778 t 0 r /Helvetica findfont 25.6631 sf 0 0 m (12) show NC gr 
 gsave  710 567 779 603 C 861.05 980.404 t 0 r /Helvetica findfont 25.6631 sf 0 0 m (14) show NC gr 
 gsave  710 567 779 603 C 861.05 1025.87 t 0 r /Helvetica findfont 25.6631 sf 0 0 m (16) show NC gr 
 gsave  710 567 779 603 C 861.05 1068.5 t 0 r /Helvetica findfont 25.6631 sf 0 0 m (18) show NC gr 
 gsave  710 567 779 603 C 801.374 1011.66 t 90 r /Helvetica findfont 28.5146 sf 0 0 m (0.00961 ) show NC gr 
 gsave  710 567 779 603 C 787.165 1008.82 t 90 r /Helvetica findfont 19.9602 sf 0 0 m ( ) show NC gr 
 gsave  710 567 779 603 C 801.374 997.454 t 90 r /Helvetica findfont 28.5146 sf 0 0 m (/) show NC gr 
 gsave  710 567 779 603 C 809.899 994.613 t 90 r /Helvetica findfont 19.9602 sf 0 0 m ( ) show NC gr 
 gsave  710 567 779 603 C 801.374 889.468 t 90 r /Helvetica findfont 28.5146 sf 0 0 m (\(1/N\) dN) show NC gr  1447 685 m 429 Y s 1430 685 m 17 X s 1438 696 m 9 X s 1438 707 m 9 X s 1438 718 m 9 X s 1430 728 m 17 X s 1438 739 m 9 X s 1438 750 m 9 X s
 1438 761 m 9 X s 1430 772 m 17 X s 1438 783 m 9 X s 1438 794 m 9 X s 1438 805 m 9 X s 1430 816 m 17 X s 1438 827 m 9 X s 1438 838 m 9 X s 1438 849 m 9 X s 1430 860 m 17 X s 1438 871 m 9 X s 1438 882 m 9 X s 1438 893 m 9 X s 1430 904 m 17 X s 1438
 915 m 9 X s 1438 926 m 9 X s 1438 937 m 9 X s 1430 948 m 17 X s 1438 959 m 9 X s 1438 970 m 9 X s 1438 981 m 9 X s 1430 992 m 17 X s 1438 1003 m 9 X s 1438 1014 m 9 X s 1438 1025 m 9 X s 1430 1036 m 17 X s 1438 1047 m 9 X s 1438 1058 m 9 X s 1438
 1069 m 9 X s 1430 1080 m 17 X s 1430 1080 m 17 X s 1438 1090 m 9 X s 1438 1101 m 9 X s 1438 1112 m 9 X s 0.490196 0.545098 0.615686 c 0.364706 0.419608 0.490196 c 338 38 786 1130 bf 0.490196 0.545098 0.615686 c 786 1130 m 338 X s 1124 1130 m 38 Y s
 1124 1168 m -338 X s 786 1168 m -38 Y s 1 1 1 c black 1 1 1 c
 gsave  710 567 779 603 C 790.007 1142.38 t 0 r /Helvetica-Bold findfont 28.5146 sf 0 0 m (Input variable: bb.HY_l2) show NC gr  1 0 0 c 6 lw black 3 lw 1 0 0 c 1434 686 m -2 -1 d s 1432 700 m -15 -15 d s 1419 702 m -17 -17 d s 1405 703 m -18 -18 d s
 1395 708 m -23 -23 d s 1384 712 m -6 -6 d s 1377 705 m -20 -20 d s 1364 706 m -22 -21 d s 1351 709 m -24 -24 d s 1337 710 m -25 -25 d s 1328 716 m -31 -31 d s 1312 715 m -30 -30 d s 1299 717 m -3 -3 d s 1293 711 m -26 -26 d s 1282 716 m -30 -31 d s
 1270 718 m -33 -33 d s 1258 722 m -3 -4 d s 1254 717 m -33 -32 d s 1241 720 m -35 -35 d s 1228 721 m -37 -36 d s 1217 726 m -3 -3 d s 1208 717 m -32 -32 d s 1200 724 m -39 -39 d s 1188 727 m -42 -42 d s 1175 729 m -44 -44 d s 1168 737 m -9 -9 d s
 1152 721 m -36 -36 d s 1144 728 m -43 -43 d s 1127 726 m -41 -41 d s 1118 732 m -47 -47 d s 1105 734 m s 1103 732 m -47 -47 d s 1091 735 m -50 -50 d s 1074 733 m -48 -48 d s 1064 738 m -54 -53 d s 1054 744 m -59 -59 d s 1042 747 m -62 -62 d s 1036
 756 m -71 -71 d s 1026 761 m -4 -4 d s 1020 755 m -70 -70 d s 1009 759 m -74 -74 d s 996 761 m -1 -1 d s 988 753 m -68 -68 d s 981 762 m -76 -77 d s 968 763 m -69 -69 d s 954 765 m -55 -56 d s 954 780 m -55 -55 d s 950 791 m -51 -51 d s 940 796 m
 -41 -41 d s 927 798 m -28 -28 d s 927 813 m -28 -28 d s 927 828 m -28 -28 d s 927 843 m -28 -27 d s 915 847 m -16 -16 d s 913 860 m -14 -14 d s 913 875 m -14 -14 d s 913 890 m -14 -14 d s 913 905 m -14 -13 d s 913 921 m -14 -14 d s 913 936 m -14 -14
 d s 913 951 m -14 -14 d s 913 966 m -14 -14 d s 913 981 m -14 -14 d s 913 996 m -14 -13 d s 913 1012 m -14 -14 d s 913 1027 m -14 -14 d s 913 1042 m -14 -14 d s 913 1057 m -14 -14 d s 913 1072 m -14 -13 d s 900 1075 m -1 -1 d s 6 lw 899 1075 m 14 X
 -228 Y 14 X -49 Y 13 X -7 Y 14 X -28 Y 27 X -10 Y 14 X 8 Y 14 X -6 Y 13 X 6 Y 14 X -14 Y 14 X -3 Y 14 X -11 Y 13 X 3 Y 14 X -4 Y 14 X 2 Y 13 X -8 Y 14 X 2 Y 14 X -7 Y 13 X 16 Y 14 X -8 Y 14 X -2 Y 13 X -10 Y 14 X 9 Y 14 X -5 Y 13 X -4 Y 14 X 5 Y 14
 X -4 Y 13 X -7 Y 14 X 6 Y 14 X -2 Y 13 X 1 Y 14 X -7 Y 14 X -3 Y 13 X -1 Y 14 X 7 Y 14 X -4 Y 13 X -6 Y 14 X -2 Y 14 X -14 Y 14 X s black 3 lw 899 685 m 548 X s 935 698 m -13 Y s 949 691 m -6 Y s 963 691 m -6 Y s 978 691 m -6 Y s 992 691 m -6 Y s
 1006 698 m -13 Y s 1020 691 m -6 Y s 1035 691 m -6 Y s 1049 691 m -6 Y s 1063 691 m -6 Y s 1077 698 m -13 Y s 1092 691 m -6 Y s 1106 691 m -6 Y s 1120 691 m -6 Y s 1134 691 m -6 Y s 1148 698 m -13 Y s 1163 691 m -6 Y s 1177 691 m -6 Y s 1191 691 m
 -6 Y s 1205 691 m -6 Y s 1220 698 m -13 Y s 1234 691 m -6 Y s 1248 691 m -6 Y s 1262 691 m -6 Y s 1277 691 m -6 Y s 1291 698 m -13 Y s 1305 691 m -6 Y s 1319 691 m -6 Y s 1334 691 m -6 Y s 1348 691 m -6 Y s 1362 698 m -13 Y s 1376 691 m -6 Y s 1390
 691 m -6 Y s 1405 691 m -6 Y s 1419 691 m -6 Y s 1433 698 m -13 Y s 935 698 m -13 Y s 921 691 m -6 Y s 906 691 m -6 Y s 1433 698 m -13 Y s 899 1114 m 548 X s 935 1100 m 14 Y s 949 1107 m 7 Y s 963 1107 m 7 Y s 978 1107 m 7 Y s 992 1107 m 7 Y s 1006
 1100 m 14 Y s 1020 1107 m 7 Y s 1035 1107 m 7 Y s 1049 1107 m 7 Y s 1063 1107 m 7 Y s 1077 1100 m 14 Y s 1092 1107 m 7 Y s 1106 1107 m 7 Y s 1120 1107 m 7 Y s 1134 1107 m 7 Y s 1148 1100 m 14 Y s 1163 1107 m 7 Y s 1177 1107 m 7 Y s 1191 1107 m 7 Y s
 1205 1107 m 7 Y s 1220 1100 m 14 Y s 1234 1107 m 7 Y s 1248 1107 m 7 Y s 1262 1107 m 7 Y s 1277 1107 m 7 Y s 1291 1100 m 14 Y s 1305 1107 m 7 Y s 1319 1107 m 7 Y s 1334 1107 m 7 Y s 1348 1107 m 7 Y s 1362 1100 m 14 Y s 1376 1107 m 7 Y s 1390 1107 m
 7 Y s 1405 1107 m 7 Y s 1419 1107 m 7 Y s 1433 1100 m 14 Y s 935 1100 m 14 Y s 921 1107 m 7 Y s 906 1107 m 7 Y s 1433 1100 m 14 Y s 899 685 m 429 Y s 915 685 m -16 X s 907 696 m -8 X s 907 707 m -8 X s 907 718 m -8 X s 915 728 m -16 X s 907 739 m -8
 X s 907 750 m -8 X s 907 761 m -8 X s 915 772 m -16 X s 907 783 m -8 X s 907 794 m -8 X s 907 805 m -8 X s 915 816 m -16 X s 907 827 m -8 X s 907 838 m -8 X s 907 849 m -8 X s 915 860 m -16 X s 907 871 m -8 X s 907 882 m -8 X s 907 893 m -8 X s 915
 904 m -16 X s 907 915 m -8 X s 907 926 m -8 X s 907 937 m -8 X s 915 948 m -16 X s 907 959 m -8 X s 907 970 m -8 X s 907 981 m -8 X s 915 992 m -16 X s 907 1003 m -8 X s 907 1014 m -8 X s 907 1025 m -8 X s 915 1036 m -16 X s 907 1047 m -8 X s 907
 1058 m -8 X s 907 1069 m -8 X s 915 1080 m -16 X s 915 1080 m -16 X s 907 1090 m -8 X s 907 1101 m -8 X s 907 1112 m -8 X s 1447 685 m 429 Y s 1430 685 m 17 X s 1438 696 m 9 X s 1438 707 m 9 X s 1438 718 m 9 X s 1430 728 m 17 X s 1438 739 m 9 X s
 1438 750 m 9 X s 1438 761 m 9 X s 1430 772 m 17 X s 1438 783 m 9 X s 1438 794 m 9 X s 1438 805 m 9 X s 1430 816 m 17 X s 1438 827 m 9 X s 1438 838 m 9 X s 1438 849 m 9 X s 1430 860 m 17 X s 1438 871 m 9 X s 1438 882 m 9 X s 1438 893 m 9 X s 1430 904
 m 17 X s 1438 915 m 9 X s 1438 926 m 9 X s 1438 937 m 9 X s 1430 948 m 17 X s 1438 959 m 9 X s 1438 970 m 9 X s 1438 981 m 9 X s 1430 992 m 17 X s 1438 1003 m 9 X s 1438 1014 m 9 X s 1438 1025 m 9 X s 1430 1036 m 17 X s 1438 1047 m 9 X s 1438 1058 m
 9 X s 1438 1069 m 9 X s 1430 1080 m 17 X s 1430 1080 m 17 X s 1438 1090 m 9 X s 1438 1101 m 9 X s 1438 1112 m 9 X s
 gsave  710 567 779 603 C 1474.92 682.347 t 90 r /Helvetica-Bold findfont 19.9602 sf 0 0 m (U/O\255flow \(S,B\): \(0.0, 0.0\)% / \(0.0, 0.0\)%) show NC gr  0.490196 0.545098 0.615686 c 0.364706 0.419608 0.490196 c 338 38 786 1130 bf 0.490196 0.545098
 0.615686 c 786 1130 m 338 X s 1124 1130 m 38 Y s 1124 1168 m -338 X s 786 1168 m -38 Y s 1 1 1 c black 1 1 1 c
 gsave  710 567 779 603 C 790.007 1142.38 t 0 r /Helvetica-Bold findfont 28.5146 sf 0 0 m (Input variable: bb.HY_l2) show NC gr  0.490196 0.545098 0.615686 c 0.941176 0.941176 0.941176 c 711 567 1534 603 bf black 1 1 0.992157 c 547 429 1655 685 bf
 black 547 429 1655 685 bl 0 0 0.933333 c 6 lw 0.49 0.6 0.82 c black 3 lw 0.49 0.6 0.82 c 1655 685 m 21 Y 14 X 72 Y 14 X 43 Y 13 X 62 Y 14 X 37 Y 14 X 24 Y 13 X 44 Y 14 X 52 Y 14 X -11 Y 13 X 4 Y 14 X -20 Y 14 X -40 Y 13 X -44 Y 14 X -53 Y 14 X -7 Y
 13 X -38 Y 14 X -22 Y 14 X -27 Y 13 X -17 Y 14 X 6 Y 14 X -31 Y 14 X 4 Y 13 X -6 Y 14 X -1 Y 14 X -13 Y 13 X -14 Y 14 X 5 Y 14 X 1 Y 13 X -10 Y 14 X -6 Y 14 X -4 Y 13 X 2 Y 14 X -3 Y 14 X -7 Y 13 X 2 Y 14 X -5 Y 14 X 1 Y 13 X -1 Y 41 X f 6 lw 0 0
 0.933333 c 0.49 0.6 0.82 c 0 0 0.933333 c 1655 706 m 14 X 72 Y 14 X 43 Y 13 X 62 Y 14 X 37 Y 14 X 24 Y 13 X 44 Y 14 X 52 Y 14 X -11 Y 13 X 4 Y 14 X -20 Y 14 X -40 Y 13 X -44 Y 14 X -53 Y 14 X -7 Y 13 X -38 Y 14 X -22 Y 14 X -27 Y 13 X -17 Y 14 X 6 Y
 14 X -31 Y 14 X 4 Y 13 X -6 Y 14 X -1 Y 14 X -13 Y 13 X -14 Y 14 X 5 Y 14 X 1 Y 13 X -10 Y 14 X -6 Y 14 X -4 Y 13 X 2 Y 14 X -3 Y 14 X -7 Y 13 X 2 Y 14 X -5 Y 14 X 1 Y 13 X -1 Y 41 X s black 3 lw 1655 685 m 547 X s 1727 698 m -13 Y s 1741 691 m -6 Y
 s 1756 691 m -6 Y s 1770 691 m -6 Y s 1785 691 m -6 Y s 1799 698 m -13 Y s 1814 691 m -6 Y s 1828 691 m -6 Y s 1842 691 m -6 Y s 1857 691 m -6 Y s 1871 698 m -13 Y s 1886 691 m -6 Y s 1900 691 m -6 Y s 1915 691 m -6 Y s 1929 691 m -6 Y s 1944 698 m
 -13 Y s 1958 691 m -6 Y s 1973 691 m -6 Y s 1987 691 m -6 Y s 2002 691 m -6 Y s 2016 698 m -13 Y s 2031 691 m -6 Y s 2045 691 m -6 Y s 2060 691 m -6 Y s 2074 691 m -6 Y s 2088 698 m -13 Y s 2103 691 m -6 Y s 2117 691 m -6 Y s 2132 691 m -6 Y s 2146
 691 m -6 Y s 2161 698 m -13 Y s 1727 698 m -13 Y s 1712 691 m -6 Y s 1698 691 m -6 Y s 1683 691 m -6 Y s 1669 691 m -6 Y s 2161 698 m -13 Y s 2175 691 m -6 Y s 2190 691 m -6 Y s
 gsave  711 567 1534 603 C 1724.94 656.444 t 0 r /Helvetica findfont 25.6631 sf 0 0 m (1) show NC gr 
 gsave  711 567 1534 603 C 1710.73 656.444 t 0 r /Symbol findfont 25.6631 sf 0 0 m (-) show NC gr 
 gsave  711 567 1534 603 C 1790.3 656.444 t 0 r /Helvetica findfont 25.6631 sf 0 0 m (0) show NC gr 
 gsave  711 567 1534 603 C 1864.19 656.444 t 0 r /Helvetica findfont 25.6631 sf 0 0 m (1) show NC gr 
 gsave  711 567 1534 603 C 1932.39 656.444 t 0 r /Helvetica findfont 25.6631 sf 0 0 m (2) show NC gr 
 gsave  711 567 1534 603 C 2006.28 656.444 t 0 r /Helvetica findfont 25.6631 sf 0 0 m (3) show NC gr 
 gsave  711 567 1534 603 C 2077.32 656.444 t 0 r /Helvetica findfont 25.6631 sf 0 0 m (4) show NC gr 
 gsave  711 567 1534 603 C 2151.2 656.444 t 0 r /Helvetica findfont 25.6631 sf 0 0 m (5) show NC gr 
 gsave  711 567 1534 603 C 2063.11 616.66 t 0 r /Helvetica findfont 28.5146 sf 0 0 m (yybb.H1_l2) show NC gr  1655 1114 m 547 X s 1727 1100 m 14 Y s 1741 1107 m 7 Y s 1756 1107 m 7 Y s 1770 1107 m 7 Y s 1785 1107 m 7 Y s 1799 1100 m 14 Y s 1814 1107
 m 7 Y s 1828 1107 m 7 Y s 1842 1107 m 7 Y s 1857 1107 m 7 Y s 1871 1100 m 14 Y s 1886 1107 m 7 Y s 1900 1107 m 7 Y s 1915 1107 m 7 Y s 1929 1107 m 7 Y s 1944 1100 m 14 Y s 1958 1107 m 7 Y s 1973 1107 m 7 Y s 1987 1107 m 7 Y s 2002 1107 m 7 Y s 2016
 1100 m 14 Y s 2031 1107 m 7 Y s 2045 1107 m 7 Y s 2060 1107 m 7 Y s 2074 1107 m 7 Y s 2088 1100 m 14 Y s 2103 1107 m 7 Y s 2117 1107 m 7 Y s 2132 1107 m 7 Y s 2146 1107 m 7 Y s 2161 1100 m 14 Y s 1727 1100 m 14 Y s 1712 1107 m 7 Y s 1698 1107 m 7 Y
 s 1683 1107 m 7 Y s 1669 1107 m 7 Y s 2161 1100 m 14 Y s 2175 1107 m 7 Y s 2190 1107 m 7 Y s 1655 685 m 429 Y s 1671 685 m -16 X s 1663 702 m -8 X s 1663 719 m -8 X s 1663 736 m -8 X s 1663 753 m -8 X s 1671 770 m -16 X s 1663 787 m -8 X s 1663 804
 m -8 X s 1663 821 m -8 X s 1663 838 m -8 X s 1671 854 m -16 X s 1663 871 m -8 X s 1663 888 m -8 X s 1663 905 m -8 X s 1663 922 m -8 X s 1671 939 m -16 X s 1663 956 m -8 X s 1663 973 m -8 X s 1663 990 m -8 X s 1663 1007 m -8 X s 1671 1024 m -16 X s
 1663 1041 m -8 X s 1663 1058 m -8 X s 1663 1075 m -8 X s 1663 1092 m -8 X s 1671 1109 m -16 X s 1671 1109 m -16 X s
 gsave  711 567 1534 603 C 1631.16 673.495 t 0 r /Helvetica findfont 25.6631 sf 0 0 m (0) show NC gr 
 gsave  711 567 1534 603 C 1614.11 758.747 t 0 r /Helvetica findfont 25.6631 sf 0 0 m (0.1) show NC gr 
 gsave  711 567 1534 603 C 1611.27 844 t 0 r /Helvetica findfont 25.6631 sf 0 0 m (0.2) show NC gr 
 gsave  711 567 1534 603 C 1611.27 929.252 t 0 r /Helvetica findfont 25.6631 sf 0 0 m (0.3) show NC gr 
 gsave  711 567 1534 603 C 1611.27 1014.5 t 0 r /Helvetica findfont 25.6631 sf 0 0 m (0.4) show NC gr 
 gsave  711 567 1534 603 C 1611.27 1099.76 t 0 r /Helvetica findfont 25.6631 sf 0 0 m (0.5) show NC gr 
 gsave  711 567 1534 603 C 1557.28 1037.24 t 90 r /Helvetica findfont 28.5146 sf 0 0 m (0.189 ) show NC gr 
 gsave  711 567 1534 603 C 1543.07 1034.4 t 90 r /Helvetica findfont 19.9602 sf 0 0 m ( ) show NC gr 
 gsave  711 567 1534 603 C 1557.28 1023.03 t 90 r /Helvetica findfont 28.5146 sf 0 0 m (/) show NC gr 
 gsave  711 567 1534 603 C 1565.8 1020.19 t 90 r /Helvetica findfont 19.9602 sf 0 0 m ( ) show NC gr 
 gsave  711 567 1534 603 C 1557.28 915.044 t 90 r /Helvetica findfont 28.5146 sf 0 0 m (\(1/N\) dN) show NC gr  2202 685 m 429 Y s 2186 685 m 16 X s 2194 702 m 8 X s 2194 719 m 8 X s 2194 736 m 8 X s 2194 753 m 8 X s 2186 770 m 16 X s 2194 787 m 8 X
 s 2194 804 m 8 X s 2194 821 m 8 X s 2194 838 m 8 X s 2186 854 m 16 X s 2194 871 m 8 X s 2194 888 m 8 X s 2194 905 m 8 X s 2194 922 m 8 X s 2186 939 m 16 X s 2194 956 m 8 X s 2194 973 m 8 X s 2194 990 m 8 X s 2194 1007 m 8 X s 2186 1024 m 16 X s 2194
 1041 m 8 X s 2194 1058 m 8 X s 2194 1075 m 8 X s 2194 1092 m 8 X s 2186 1109 m 16 X s 2186 1109 m 16 X s 0.490196 0.545098 0.615686 c 0.364706 0.419608 0.490196 c 366 38 1542 1130 bf 0.490196 0.545098 0.615686 c 1542 1130 m 366 X s 1908 1130 m 38 Y
 s 1908 1168 m -366 X s 1542 1168 m -38 Y s 1 1 1 c black 1 1 1 c
 gsave  711 567 1534 603 C 1545.91 1142.38 t 0 r /Helvetica-Bold findfont 28.5146 sf 0 0 m (Input variable: yybb.H1_l2) show NC gr  1 0 0 c 6 lw black 3 lw 1 0 0 c 2188 685 m s 2175 686 m -2 -1 d s 2161 688 m -3 -3 d s 2145 687 m -2 -2 d s 2134 691 m
 -6 -6 d s 2126 698 m -13 -13 d s 2108 695 m -10 -10 d s 2097 699 m -14 -14 d s 2083 700 m -15 -15 d s 2079 711 m -26 -26 d s 2054 701 m -16 -16 d s 2050 712 m -27 -27 d s 2028 706 m -20 -21 d s 2016 708 m -24 -23 d s 2011 718 m -34 -33 d s 2000 723
 m -38 -38 d s 1988 725 m -41 -40 d s 1972 724 m -40 -39 d s 1962 730 m -45 -45 d s 1956 739 m -54 -54 d s 1945 743 m -58 -58 d s 1940 753 m -68 -68 d s 1929 757 m -72 -72 d s 1929 772 m -87 -87 d s 1915 774 m -88 -89 d s 1904 778 m -92 -93 d s 1901
 790 m -105 -105 d s 1901 806 m -120 -121 d s 1895 814 m -129 -129 d s 1888 822 m -137 -137 d s 1875 825 m -139 -140 d s 1874 839 m -153 -154 d s 1874 854 m -168 -169 d s 1865 860 m -174 -175 d s 1860 871 m -184 -186 d s 1860 886 m -199 -201 d s 1860
 900 m -191 -192 d s 1847 902 m -178 -179 d s 1847 917 m -164 -165 d s 1679 749 m -10 -11 d s 1834 920 m -151 -153 d s 1833 934 m -150 -152 d s 1833 949 m -123 -124 d s 1699 814 m -3 -3 d s 1833 964 m -123 -124 d s 1825 972 m -101 -103 d s 1716 861 m
 -6 -5 d s 1819 981 m -95 -96 d s 1817 994 m -80 -80 d s 1731 908 m -7 -8 d s 1806 998 m -55 -56 d s 1751 942 m -14 -13 d s 1806 1013 m -41 -42 d s 1806 1028 m -41 -41 d s 1802 1039 m -37 -37 d s 1792 1045 m -27 -28 d s 1780 1048 m -15 -16 d s 1778
 1061 m -13 -14 d s 1777 1075 m -12 -12 d s 6 lw 1655 694 m 14 X 55 Y 14 X 48 Y 13 X 17 Y 14 X 47 Y 14 X 47 Y 13 X 34 Y 14 X 15 Y 14 X 118 Y 13 X -27 Y 14 X -9 Y 14 X -45 Y 13 X -22 Y 14 X -52 Y 14 X -20 Y 13 X -40 Y 14 X -35 Y 14 X -11 Y 13 X -36 Y
 14 X -4 Y 14 X -21 Y 14 X -10 Y 13 X -13 Y 14 X -6 Y 14 X 1 Y 13 X -2 Y 14 X -15 Y 14 X -2 Y 13 X 6 Y 14 X -11 Y 14 X 10 Y 13 X -11 Y 14 X -1 Y 14 X -4 Y 13 X 3 Y 14 X -11 Y 14 X 1 Y 13 X -2 Y 14 X -1 Y 27 X s black 3 lw 1655 685 m 547 X s 1727 698
 m -13 Y s 1741 691 m -6 Y s 1756 691 m -6 Y s 1770 691 m -6 Y s 1785 691 m -6 Y s 1799 698 m -13 Y s 1814 691 m -6 Y s 1828 691 m -6 Y s 1842 691 m -6 Y s 1857 691 m -6 Y s 1871 698 m -13 Y s 1886 691 m -6 Y s 1900 691 m -6 Y s 1915 691 m -6 Y s
 1929 691 m -6 Y s 1944 698 m -13 Y s 1958 691 m -6 Y s 1973 691 m -6 Y s 1987 691 m -6 Y s 2002 691 m -6 Y s 2016 698 m -13 Y s 2031 691 m -6 Y s 2045 691 m -6 Y s 2060 691 m -6 Y s 2074 691 m -6 Y s 2088 698 m -13 Y s 2103 691 m -6 Y s 2117 691 m
 -6 Y s 2132 691 m -6 Y s 2146 691 m -6 Y s 2161 698 m -13 Y s 1727 698 m -13 Y s 1712 691 m -6 Y s 1698 691 m -6 Y s 1683 691 m -6 Y s 1669 691 m -6 Y s 2161 698 m -13 Y s 2175 691 m -6 Y s 2190 691 m -6 Y s 1655 1114 m 547 X s 1727 1100 m 14 Y s
 1741 1107 m 7 Y s 1756 1107 m 7 Y s 1770 1107 m 7 Y s 1785 1107 m 7 Y s 1799 1100 m 14 Y s 1814 1107 m 7 Y s 1828 1107 m 7 Y s 1842 1107 m 7 Y s 1857 1107 m 7 Y s 1871 1100 m 14 Y s 1886 1107 m 7 Y s 1900 1107 m 7 Y s 1915 1107 m 7 Y s 1929 1107 m 7
 Y s 1944 1100 m 14 Y s 1958 1107 m 7 Y s 1973 1107 m 7 Y s 1987 1107 m 7 Y s 2002 1107 m 7 Y s 2016 1100 m 14 Y s 2031 1107 m 7 Y s 2045 1107 m 7 Y s 2060 1107 m 7 Y s 2074 1107 m 7 Y s 2088 1100 m 14 Y s 2103 1107 m 7 Y s 2117 1107 m 7 Y s 2132
 1107 m 7 Y s 2146 1107 m 7 Y s 2161 1100 m 14 Y s 1727 1100 m 14 Y s 1712 1107 m 7 Y s 1698 1107 m 7 Y s 1683 1107 m 7 Y s 1669 1107 m 7 Y s 2161 1100 m 14 Y s 2175 1107 m 7 Y s 2190 1107 m 7 Y s 1655 685 m 429 Y s 1671 685 m -16 X s 1663 702 m -8 X
 s 1663 719 m -8 X s 1663 736 m -8 X s 1663 753 m -8 X s 1671 770 m -16 X s 1663 787 m -8 X s 1663 804 m -8 X s 1663 821 m -8 X s 1663 838 m -8 X s 1671 854 m -16 X s 1663 871 m -8 X s 1663 888 m -8 X s 1663 905 m -8 X s 1663 922 m -8 X s 1671 939 m
 -16 X s 1663 956 m -8 X s 1663 973 m -8 X s 1663 990 m -8 X s 1663 1007 m -8 X s 1671 1024 m -16 X s 1663 1041 m -8 X s 1663 1058 m -8 X s 1663 1075 m -8 X s 1663 1092 m -8 X s 1671 1109 m -16 X s 1671 1109 m -16 X s 2202 685 m 429 Y s 2186 685 m 16
 X s 2194 702 m 8 X s 2194 719 m 8 X s 2194 736 m 8 X s 2194 753 m 8 X s 2186 770 m 16 X s 2194 787 m 8 X s 2194 804 m 8 X s 2194 821 m 8 X s 2194 838 m 8 X s 2186 854 m 16 X s 2194 871 m 8 X s 2194 888 m 8 X s 2194 905 m 8 X s 2194 922 m 8 X s 2186
 939 m 16 X s 2194 956 m 8 X s 2194 973 m 8 X s 2194 990 m 8 X s 2194 1007 m 8 X s 2186 1024 m 16 X s 2194 1041 m 8 X s 2194 1058 m 8 X s 2194 1075 m 8 X s 2194 1092 m 8 X s 2186 1109 m 16 X s 2186 1109 m 16 X s
 gsave  711 567 1534 603 C 2230.83 682.347 t 90 r /Helvetica-Bold findfont 19.9602 sf 0 0 m (U/O\255flow \(S,B\): \(0.0, 0.0\)% / \(0.0, 0.0\)%) show NC gr  0.490196 0.545098 0.615686 c 0.364706 0.419608 0.490196 c 366 38 1542 1130 bf 0.490196
 0.545098 0.615686 c 1542 1130 m 366 X s 1908 1130 m 38 Y s 1908 1168 m -366 X s 1542 1168 m -38 Y s 1 1 1 c black 1 1 1 c
 gsave  711 567 1534 603 C 1545.91 1142.38 t 0 r /Helvetica-Bold findfont 28.5146 sf 0 0 m (Input variable: yybb.H1_l2) show NC gr  0.490196 0.545098 0.615686 c 0.941176 0.941176 0.941176 c 710 567 23 12 bf black 1 1 0.992157 c 548 429 143 94 bf
 black 548 429 143 94 bl 0 0 0.933333 c 6 lw 0.49 0.6 0.82 c black 3 lw 0.49 0.6 0.82 c 143 94 m 4 Y 14 X 15 Y 14 X 51 Y 14 X 50 Y 13 X 63 Y 14 X 64 Y 14 X 37 Y 13 X 6 Y 14 X 48 Y 14 X 31 Y 13 X -56 Y 14 X -5 Y 14 X -38 Y 13 X -29 Y 14 X -24 Y 14 X
 -14 Y 13 X -17 Y 14 X -24 Y 14 X -23 Y 13 X -18 Y 14 X -9 Y 14 X -17 Y 13 X -14 Y 14 X -9 Y 14 X -11 Y 13 X -12 Y 14 X -5 Y 14 X -14 Y 13 X -2 Y 14 X -5 Y 14 X -5 Y 13 X -1 Y 14 X -10 Y 14 X -2 Y 14 X -3 Y 13 X 1 Y 14 X -3 Y 55 X f 6 lw 0 0 0.933333
 c 0.49 0.6 0.82 c 0 0 0.933333 c 143 98 m 14 X 15 Y 14 X 51 Y 14 X 50 Y 13 X 63 Y 14 X 64 Y 14 X 37 Y 13 X 6 Y 14 X 48 Y 14 X 31 Y 13 X -56 Y 14 X -5 Y 14 X -38 Y 13 X -29 Y 14 X -24 Y 14 X -14 Y 13 X -17 Y 14 X -24 Y 14 X -23 Y 13 X -18 Y 14 X -9 Y
 14 X -17 Y 13 X -14 Y 14 X -9 Y 14 X -11 Y 13 X -12 Y 14 X -5 Y 14 X -14 Y 13 X -2 Y 14 X -5 Y 14 X -5 Y 13 X -1 Y 14 X -10 Y 14 X -2 Y 14 X -3 Y 13 X 1 Y 14 X -3 Y 55 X s black 3 lw 143 94 m 548 X s 192 107 m -13 Y s 203 100 m -6 Y s 214 100 m -6 Y
 s 226 100 m -6 Y s 237 100 m -6 Y s 248 107 m -13 Y s 259 100 m -6 Y s 271 100 m -6 Y s 282 100 m -6 Y s 293 100 m -6 Y s 304 107 m -13 Y s 316 100 m -6 Y s 327 100 m -6 Y s 338 100 m -6 Y s 349 100 m -6 Y s 361 107 m -13 Y s 372 100 m -6 Y s 383
 100 m -6 Y s 395 100 m -6 Y s 406 100 m -6 Y s 417 107 m -13 Y s 428 100 m -6 Y s 440 100 m -6 Y s 451 100 m -6 Y s 462 100 m -6 Y s 473 107 m -13 Y s 485 100 m -6 Y s 496 100 m -6 Y s 507 100 m -6 Y s 518 100 m -6 Y s 530 107 m -13 Y s 541 100 m -6
 Y s 552 100 m -6 Y s 563 100 m -6 Y s 575 100 m -6 Y s 586 107 m -13 Y s 597 100 m -6 Y s 608 100 m -6 Y s 620 100 m -6 Y s 631 100 m -6 Y s 642 107 m -13 Y s 192 107 m -13 Y s 181 100 m -6 Y s 169 100 m -6 Y s 158 100 m -6 Y s 147 100 m -6 Y s 642
 107 m -13 Y s 653 100 m -6 Y s 665 100 m -6 Y s 676 100 m -6 Y s 687 100 m -6 Y s
 gsave  710 567 23 12 C 179.03 65.3603 t 0 r /Helvetica findfont 25.6631 sf 0 0 m (0.1) show NC gr 
 gsave  710 567 23 12 C 167.663 65.3603 t 0 r /Symbol findfont 25.6631 sf 0 0 m (-) show NC gr 
 gsave  710 567 23 12 C 227.34 65.3603 t 0 r /Helvetica findfont 25.6631 sf 0 0 m (0.05) show NC gr 
 gsave  710 567 23 12 C 215.973 65.3603 t 0 r /Symbol findfont 25.6631 sf 0 0 m (-) show NC gr 
 gsave  710 567 23 12 C 295.542 65.3603 t 0 r /Helvetica findfont 25.6631 sf 0 0 m (0) show NC gr 
 gsave  710 567 23 12 C 332.485 65.3603 t 0 r /Helvetica findfont 25.6631 sf 0 0 m (0.05) show NC gr 
 gsave  710 567 23 12 C 397.845 65.3603 t 0 r /Helvetica findfont 25.6631 sf 0 0 m (0.1) show NC gr 
 gsave  710 567 23 12 C 446.155 65.3603 t 0 r /Helvetica findfont 25.6631 sf 0 0 m (0.15) show NC gr 
 gsave  710 567 23 12 C 511.515 65.3603 t 0 r /Helvetica findfont 25.6631 sf 0 0 m (0.2) show NC gr 
 gsave  710 567 23 12 C 559.825 65.3603 t 0 r /Helvetica findfont 25.6631 sf 0 0 m (0.25) show NC gr 
 gsave  710 567 23 12 C 622.343 65.3603 t 0 r /Helvetica findfont 25.6631 sf 0 0 m (0.3) show NC gr 
 gsave  710 567 23 12 C 548.458 25.5758 t 0 r /Helvetica findfont 28.5146 sf 0 0 m (yybb.HT_l2) show NC gr  143 523 m 548 X s 192 509 m 14 Y s 203 516 m 7 Y s 214 516 m 7 Y s 226 516 m 7 Y s 237 516 m 7 Y s 248 509 m 14 Y s 259 516 m 7 Y s 271 516 m
 7 Y s 282 516 m 7 Y s 293 516 m 7 Y s 304 509 m 14 Y s 316 516 m 7 Y s 327 516 m 7 Y s 338 516 m 7 Y s 349 516 m 7 Y s 361 509 m 14 Y s 372 516 m 7 Y s 383 516 m 7 Y s 395 516 m 7 Y s 406 516 m 7 Y s 417 509 m 14 Y s 428 516 m 7 Y s 440 516 m 7 Y s
 451 516 m 7 Y s 462 516 m 7 Y s 473 509 m 14 Y s 485 516 m 7 Y s 496 516 m 7 Y s 507 516 m 7 Y s 518 516 m 7 Y s 530 509 m 14 Y s 541 516 m 7 Y s 552 516 m 7 Y s 563 516 m 7 Y s 575 516 m 7 Y s 586 509 m 14 Y s 597 516 m 7 Y s 608 516 m 7 Y s 620
 516 m 7 Y s 631 516 m 7 Y s 642 509 m 14 Y s 192 509 m 14 Y s 181 516 m 7 Y s 169 516 m 7 Y s 158 516 m 7 Y s 147 516 m 7 Y s 642 509 m 14 Y s 653 516 m 7 Y s 665 516 m 7 Y s 676 516 m 7 Y s 687 516 m 7 Y s 143 94 m 429 Y s 160 94 m -17 X s 152 105
 m -9 X s 152 117 m -9 X s 152 128 m -9 X s 152 140 m -9 X s 160 151 m -17 X s 152 163 m -9 X s 152 174 m -9 X s 152 186 m -9 X s 152 197 m -9 X s 160 209 m -17 X s 152 220 m -9 X s 152 232 m -9 X s 152 244 m -9 X s 152 255 m -9 X s 160 267 m -17 X s
 152 278 m -9 X s 152 290 m -9 X s 152 301 m -9 X s 152 313 m -9 X s 160 324 m -17 X s 152 336 m -9 X s 152 347 m -9 X s 152 359 m -9 X s 152 371 m -9 X s 160 382 m -17 X s 152 394 m -9 X s 152 405 m -9 X s 152 417 m -9 X s 152 428 m -9 X s 160 440 m
 -17 X s 152 451 m -9 X s 152 463 m -9 X s 152 474 m -9 X s 152 486 m -9 X s 160 498 m -17 X s 160 498 m -17 X s 152 509 m -9 X s 152 521 m -9 X s
 gsave  710 567 23 12 C 119.354 82.4108 t 0 r /Helvetica findfont 25.6631 sf 0 0 m (0) show NC gr 
 gsave  710 567 23 12 C 122.195 142.088 t 0 r /Helvetica findfont 25.6631 sf 0 0 m (1) show NC gr 
 gsave  710 567 23 12 C 119.354 198.923 t 0 r /Helvetica findfont 25.6631 sf 0 0 m (2) show NC gr 
 gsave  710 567 23 12 C 119.354 255.758 t 0 r /Helvetica findfont 25.6631 sf 0 0 m (3) show NC gr 
 gsave  710 567 23 12 C 119.354 315.434 t 0 r /Helvetica findfont 25.6631 sf 0 0 m (4) show NC gr 
 gsave  710 567 23 12 C 119.354 372.269 t 0 r /Helvetica findfont 25.6631 sf 0 0 m (5) show NC gr 
 gsave  710 567 23 12 C 119.354 429.104 t 0 r /Helvetica findfont 25.6631 sf 0 0 m (6) show NC gr 
 gsave  710 567 23 12 C 119.354 488.781 t 0 r /Helvetica findfont 25.6631 sf 0 0 m (7) show NC gr 
 gsave  710 567 23 12 C 45.468 434.788 t 90 r /Helvetica findfont 28.5146 sf 0 0 m (0.0121 ) show NC gr 
 gsave  710 567 23 12 C 31.2593 431.946 t 90 r /Helvetica findfont 19.9602 sf 0 0 m ( ) show NC gr 
 gsave  710 567 23 12 C 45.468 420.579 t 90 r /Helvetica findfont 28.5146 sf 0 0 m (/) show NC gr 
 gsave  710 567 23 12 C 53.9933 417.737 t 90 r /Helvetica findfont 19.9602 sf 0 0 m ( ) show NC gr 
 gsave  710 567 23 12 C 45.468 312.592 t 90 r /Helvetica findfont 28.5146 sf 0 0 m (\(1/N\) dN) show NC gr  691 94 m 429 Y s 674 94 m 17 X s 683 105 m 8 X s 683 117 m 8 X s 683 128 m 8 X s 683 140 m 8 X s 674 151 m 17 X s 683 163 m 8 X s 683 174 m 8
 X s 683 186 m 8 X s 683 197 m 8 X s 674 209 m 17 X s 683 220 m 8 X s 683 232 m 8 X s 683 244 m 8 X s 683 255 m 8 X s 674 267 m 17 X s 683 278 m 8 X s 683 290 m 8 X s 683 301 m 8 X s 683 313 m 8 X s 674 324 m 17 X s 683 336 m 8 X s 683 347 m 8 X s
 683 359 m 8 X s 683 371 m 8 X s 674 382 m 17 X s 683 394 m 8 X s 683 405 m 8 X s 683 417 m 8 X s 683 428 m 8 X s 674 440 m 17 X s 683 451 m 8 X s 683 463 m 8 X s 683 474 m 8 X s 683 486 m 8 X s 674 498 m 17 X s 674 498 m 17 X s 683 509 m 8 X s 683
 521 m 8 X s 0.490196 0.545098 0.615686 c 0.364706 0.419608 0.490196 c 369 37 30 539 bf 0.490196 0.545098 0.615686 c 30 539 m 369 X s 399 539 m 37 Y s 399 576 m -369 X s 30 576 m -37 Y s 1 1 1 c black 1 1 1 c
 gsave  710 567 23 12 C 34.101 551.299 t 0 r /Helvetica-Bold findfont 28.5146 sf 0 0 m (Input variable: yybb.HT_l2) show NC gr  1 0 0 c 6 lw black 3 lw 1 0 0 c 677 94 m s 663 95 m -1 -1 d s 650 97 m -4 -3 d s 633 95 m -2 -1 d s 622 99 m -6 -5 d s 613
 106 m -12 -12 d s 596 103 m -10 -9 d s 592 115 m -21 -21 d s 571 109 m -15 -15 d s 567 120 m -26 -26 d s 546 114 m -20 -20 d s 533 116 m -22 -22 d s 526 125 m -30 -31 d s 523 137 m -10 -11 d s 512 126 m -31 -32 d s 499 127 m -33 -33 d s 497 140 m
 -47 -46 d s 485 144 m -50 -50 d s 474 147 m -54 -53 d s 472 161 m -67 -67 d s 462 166 m -4 -4 d s 452 156 m -62 -62 d s 444 163 m -69 -69 d s 444 178 m -84 -84 d s 442 191 m -97 -97 d s 431 195 m -101 -101 d s 431 210 m -116 -116 d s 403 198 m -103
 -104 d s 403 213 m -118 -119 d s 403 228 m -133 -134 d s 403 243 m -148 -149 d s 394 250 m -4 -5 d s 379 234 m -140 -140 d s 376 246 m -152 -152 d s 376 261 m -167 -167 d s 376 277 m -182 -183 d s 375 290 m -196 -196 d s 354 285 m -190 -191 d s 349
 295 m -192 -193 d s 157 101 m -8 -7 d s 344 305 m -159 -161 d s 184 144 m -13 -13 d s 160 120 m -3 -3 d s 335 311 m -150 -151 d s 335 326 m -150 -151 d s 335 342 m -150 -152 d s 335 357 m -137 -138 d s 193 214 m -8 -9 d s 335 372 m -123 -124 d s 203
 239 m -5 -5 d s 335 387 m -96 -96 d s 238 290 m -12 -13 d s 219 271 m -7 -8 d s 331 398 m -92 -92 d s 321 403 m -82 -82 d s 308 405 m -69 -69 d s 308 420 m -69 -69 d s 308 435 m -69 -68 d s 308 451 m -55 -55 d s 250 393 m -11 -11 d s 308 466 m -55
 -55 d s 308 481 m -14 -14 d s 287 460 m -7 -7 d s 276 449 m -9 -9 d s 262 435 m -9 -9 d s 295 484 m -1 -2 d s 6 lw 143 101 m 14 X 19 Y 14 X 24 Y 14 X 70 Y 13 X 25 Y 14 X 32 Y 14 X 19 Y 13 X 103 Y 14 X 42 Y 14 X 14 Y 13 X 11 Y 14 X 24 Y 14 X -81 Y 13
 X -5 Y 14 X -93 Y 14 X -20 Y 13 X 5 Y 14 X -56 Y 14 X 16 Y 13 X -52 Y 14 X 13 Y 14 X -20 Y 13 X -35 Y 14 X 10 Y 14 X -19 Y 13 X -7 Y 14 X -14 Y 14 X 11 Y 13 X -21 Y 14 X -2 Y 14 X 7 Y 13 X -12 Y 14 X 6 Y 14 X -12 Y 14 X 3 Y 13 X -11 Y 14 X 2 Y 14 X
 -2 Y 13 X -1 Y 28 X s black 3 lw 143 94 m 548 X s 192 107 m -13 Y s 203 100 m -6 Y s 214 100 m -6 Y s 226 100 m -6 Y s 237 100 m -6 Y s 248 107 m -13 Y s 259 100 m -6 Y s 271 100 m -6 Y s 282 100 m -6 Y s 293 100 m -6 Y s 304 107 m -13 Y s 316 100 m
 -6 Y s 327 100 m -6 Y s 338 100 m -6 Y s 349 100 m -6 Y s 361 107 m -13 Y s 372 100 m -6 Y s 383 100 m -6 Y s 395 100 m -6 Y s 406 100 m -6 Y s 417 107 m -13 Y s 428 100 m -6 Y s 440 100 m -6 Y s 451 100 m -6 Y s 462 100 m -6 Y s 473 107 m -13 Y s
 485 100 m -6 Y s 496 100 m -6 Y s 507 100 m -6 Y s 518 100 m -6 Y s 530 107 m -13 Y s 541 100 m -6 Y s 552 100 m -6 Y s 563 100 m -6 Y s 575 100 m -6 Y s 586 107 m -13 Y s 597 100 m -6 Y s 608 100 m -6 Y s 620 100 m -6 Y s 631 100 m -6 Y s 642 107 m
 -13 Y s 192 107 m -13 Y s 181 100 m -6 Y s 169 100 m -6 Y s 158 100 m -6 Y s 147 100 m -6 Y s 642 107 m -13 Y s 653 100 m -6 Y s 665 100 m -6 Y s 676 100 m -6 Y s 687 100 m -6 Y s 143 523 m 548 X s 192 509 m 14 Y s 203 516 m 7 Y s 214 516 m 7 Y s
 226 516 m 7 Y s 237 516 m 7 Y s 248 509 m 14 Y s 259 516 m 7 Y s 271 516 m 7 Y s 282 516 m 7 Y s 293 516 m 7 Y s 304 509 m 14 Y s 316 516 m 7 Y s 327 516 m 7 Y s 338 516 m 7 Y s 349 516 m 7 Y s 361 509 m 14 Y s 372 516 m 7 Y s 383 516 m 7 Y s 395
 516 m 7 Y s 406 516 m 7 Y s 417 509 m 14 Y s 428 516 m 7 Y s 440 516 m 7 Y s 451 516 m 7 Y s 462 516 m 7 Y s 473 509 m 14 Y s 485 516 m 7 Y s 496 516 m 7 Y s 507 516 m 7 Y s 518 516 m 7 Y s 530 509 m 14 Y s 541 516 m 7 Y s 552 516 m 7 Y s 563 516 m
 7 Y s 575 516 m 7 Y s 586 509 m 14 Y s 597 516 m 7 Y s 608 516 m 7 Y s 620 516 m 7 Y s 631 516 m 7 Y s 642 509 m 14 Y s 192 509 m 14 Y s 181 516 m 7 Y s 169 516 m 7 Y s 158 516 m 7 Y s 147 516 m 7 Y s 642 509 m 14 Y s 653 516 m 7 Y s 665 516 m 7 Y s
 676 516 m 7 Y s 687 516 m 7 Y s 143 94 m 429 Y s 160 94 m -17 X s 152 105 m -9 X s 152 117 m -9 X s 152 128 m -9 X s 152 140 m -9 X s 160 151 m -17 X s 152 163 m -9 X s 152 174 m -9 X s 152 186 m -9 X s 152 197 m -9 X s 160 209 m -17 X s 152 220 m
 -9 X s 152 232 m -9 X s 152 244 m -9 X s 152 255 m -9 X s 160 267 m -17 X s 152 278 m -9 X s 152 290 m -9 X s 152 301 m -9 X s 152 313 m -9 X s 160 324 m -17 X s 152 336 m -9 X s 152 347 m -9 X s 152 359 m -9 X s 152 371 m -9 X s 160 382 m -17 X s
 152 394 m -9 X s 152 405 m -9 X s 152 417 m -9 X s 152 428 m -9 X s 160 440 m -17 X s 152 451 m -9 X s 152 463 m -9 X s 152 474 m -9 X s 152 486 m -9 X s 160 498 m -17 X s 160 498 m -17 X s 152 509 m -9 X s 152 521 m -9 X s 691 94 m 429 Y s 674 94 m
 17 X s 683 105 m 8 X s 683 117 m 8 X s 683 128 m 8 X s 683 140 m 8 X s 674 151 m 17 X s 683 163 m 8 X s 683 174 m 8 X s 683 186 m 8 X s 683 197 m 8 X s 674 209 m 17 X s 683 220 m 8 X s 683 232 m 8 X s 683 244 m 8 X s 683 255 m 8 X s 674 267 m 17 X s
 683 278 m 8 X s 683 290 m 8 X s 683 301 m 8 X s 683 313 m 8 X s 674 324 m 17 X s 683 336 m 8 X s 683 347 m 8 X s 683 359 m 8 X s 683 371 m 8 X s 674 382 m 17 X s 683 394 m 8 X s 683 405 m 8 X s 683 417 m 8 X s 683 428 m 8 X s 674 440 m 17 X s 683
 451 m 8 X s 683 463 m 8 X s 683 474 m 8 X s 683 486 m 8 X s 674 498 m 17 X s 674 498 m 17 X s 683 509 m 8 X s 683 521 m 8 X s
 gsave  710 567 23 12 C 719.017 91.2634 t 90 r /Helvetica-Bold findfont 19.9602 sf 0 0 m (U/O\255flow \(S,B\): \(0.0, 0.0\)% / \(0.0, 0.0\)%) show NC gr  0.490196 0.545098 0.615686 c 0.364706 0.419608 0.490196 c 369 37 30 539 bf 0.490196 0.545098
 0.615686 c 30 539 m 369 X s 399 539 m 37 Y s 399 576 m -369 X s 30 576 m -37 Y s 1 1 1 c black 1 1 1 c
 gsave  710 567 23 12 C 34.101 551.299 t 0 r /Helvetica-Bold findfont 28.5146 sf 0 0 m (Input variable: yybb.HT_l2) show NC gr  0.490196 0.545098 0.615686 c 0.941176 0.941176 0.941176 c 710 567 779 12 bf black 1 1 0.992157 c 548 429 899 94 bf black
 548 429 899 94 bl 0 0 0.933333 c 6 lw 0.49 0.6 0.82 c black 3 lw 0.49 0.6 0.82 c 899 94 m 1 Y 14 X 17 Y 14 X 39 Y 13 X 64 Y 14 X 45 Y 14 X 42 Y 13 X 80 Y 14 X 14 Y 14 X 69 Y 13 X -10 Y 14 X -8 Y 14 X -25 Y 14 X 4 Y 13 X -31 Y 14 X -46 Y 14 X -14 Y
 13 X 2 Y 14 X -32 Y 14 X -46 Y 13 X -10 Y 14 X -14 Y 14 X -21 Y 13 X -6 Y 14 X -25 Y 14 X 5 Y 13 X -29 Y 14 X -7 Y 14 X -16 Y 13 X 3 Y 14 X -7 Y 14 X -10 Y 13 X -9 Y 14 X -6 Y 14 X -8 Y 27 X -3 Y 14 X -2 Y 55 X f 6 lw 0 0 0.933333 c 0.49 0.6 0.82 c
 0 0 0.933333 c 899 95 m 14 X 17 Y 14 X 39 Y 13 X 64 Y 14 X 45 Y 14 X 42 Y 13 X 80 Y 14 X 14 Y 14 X 69 Y 13 X -10 Y 14 X -8 Y 14 X -25 Y 14 X 4 Y 13 X -31 Y 14 X -46 Y 14 X -14 Y 13 X 2 Y 14 X -32 Y 14 X -46 Y 13 X -10 Y 14 X -14 Y 14 X -21 Y 13 X -6
 Y 14 X -25 Y 14 X 5 Y 13 X -29 Y 14 X -7 Y 14 X -16 Y 13 X 3 Y 14 X -7 Y 14 X -10 Y 13 X -9 Y 14 X -6 Y 14 X -8 Y 27 X -3 Y 14 X -2 Y 55 X s black 3 lw 899 94 m 548 X s 950 107 m -13 Y s 961 100 m -6 Y s 972 100 m -6 Y s 983 100 m -6 Y s 995 100 m
 -6 Y s 1006 107 m -13 Y s 1017 100 m -6 Y s 1028 100 m -6 Y s 1040 100 m -6 Y s 1051 100 m -6 Y s 1062 107 m -13 Y s 1074 100 m -6 Y s 1085 100 m -6 Y s 1096 100 m -6 Y s 1107 100 m -6 Y s 1119 107 m -13 Y s 1130 100 m -6 Y s 1141 100 m -6 Y s 1152
 100 m -6 Y s 1164 100 m -6 Y s 1175 107 m -13 Y s 1186 100 m -6 Y s 1197 100 m -6 Y s 1209 100 m -6 Y s 1220 100 m -6 Y s 1231 107 m -13 Y s 1242 100 m -6 Y s 1254 100 m -6 Y s 1265 100 m -6 Y s 1276 100 m -6 Y s 1287 107 m -13 Y s 1299 100 m -6 Y s
 1310 100 m -6 Y s 1321 100 m -6 Y s 1333 100 m -6 Y s 1344 107 m -13 Y s 1355 100 m -6 Y s 1366 100 m -6 Y s 1378 100 m -6 Y s 1389 100 m -6 Y s 1400 107 m -13 Y s 950 107 m -13 Y s 938 100 m -6 Y s 927 100 m -6 Y s 916 100 m -6 Y s 905 100 m -6 Y s
 1400 107 m -13 Y s 1411 100 m -6 Y s 1423 100 m -6 Y s 1434 100 m -6 Y s 1445 100 m -6 Y s
 gsave  710 567 779 12 C 937.778 65.3603 t 0 r /Helvetica findfont 25.6631 sf 0 0 m (0.1) show NC gr 
 gsave  710 567 779 12 C 926.411 65.3603 t 0 r /Symbol findfont 25.6631 sf 0 0 m (-) show NC gr 
 gsave  710 567 779 12 C 983.246 65.3603 t 0 r /Helvetica findfont 25.6631 sf 0 0 m (0.05) show NC gr 
 gsave  710 567 779 12 C 971.879 65.3603 t 0 r /Symbol findfont 25.6631 sf 0 0 m (-) show NC gr 
 gsave  710 567 779 12 C 1051.45 65.3603 t 0 r /Helvetica findfont 25.6631 sf 0 0 m (0) show NC gr 
 gsave  710 567 779 12 C 1091.23 65.3603 t 0 r /Helvetica findfont 25.6631 sf 0 0 m (0.05) show NC gr 
 gsave  710 567 779 12 C 1156.59 65.3603 t 0 r /Helvetica findfont 25.6631 sf 0 0 m (0.1) show NC gr 
 gsave  710 567 779 12 C 1204.9 65.3603 t 0 r /Helvetica findfont 25.6631 sf 0 0 m (0.15) show NC gr 
 gsave  710 567 779 12 C 1270.26 65.3603 t 0 r /Helvetica findfont 25.6631 sf 0 0 m (0.2) show NC gr 
 gsave  710 567 779 12 C 1315.73 65.3603 t 0 r /Helvetica findfont 25.6631 sf 0 0 m (0.25) show NC gr 
 gsave  710 567 779 12 C 1381.09 65.3603 t 0 r /Helvetica findfont 25.6631 sf 0 0 m (0.3) show NC gr 
 gsave  710 567 779 12 C 1304.36 25.5758 t 0 r /Helvetica findfont 28.5146 sf 0 0 m (yybb.HP_l2) show NC gr  899 523 m 548 X s 950 509 m 14 Y s 961 516 m 7 Y s 972 516 m 7 Y s 983 516 m 7 Y s 995 516 m 7 Y s 1006 509 m 14 Y s 1017 516 m 7 Y s 1028
 516 m 7 Y s 1040 516 m 7 Y s 1051 516 m 7 Y s 1062 509 m 14 Y s 1074 516 m 7 Y s 1085 516 m 7 Y s 1096 516 m 7 Y s 1107 516 m 7 Y s 1119 509 m 14 Y s 1130 516 m 7 Y s 1141 516 m 7 Y s 1152 516 m 7 Y s 1164 516 m 7 Y s 1175 509 m 14 Y s 1186 516 m 7
 Y s 1197 516 m 7 Y s 1209 516 m 7 Y s 1220 516 m 7 Y s 1231 509 m 14 Y s 1242 516 m 7 Y s 1254 516 m 7 Y s 1265 516 m 7 Y s 1276 516 m 7 Y s 1287 509 m 14 Y s 1299 516 m 7 Y s 1310 516 m 7 Y s 1321 516 m 7 Y s 1333 516 m 7 Y s 1344 509 m 14 Y s 1355
 516 m 7 Y s 1366 516 m 7 Y s 1378 516 m 7 Y s 1389 516 m 7 Y s 1400 509 m 14 Y s 950 509 m 14 Y s 938 516 m 7 Y s 927 516 m 7 Y s 916 516 m 7 Y s 905 516 m 7 Y s 1400 509 m 14 Y s 1411 516 m 7 Y s 1423 516 m 7 Y s 1434 516 m 7 Y s 1445 516 m 7 Y s
 899 94 m 429 Y s 915 94 m -16 X s 907 107 m -8 X s 907 120 m -8 X s 907 133 m -8 X s 907 146 m -8 X s 915 159 m -16 X s 907 172 m -8 X s 907 185 m -8 X s 907 198 m -8 X s 907 211 m -8 X s 915 224 m -16 X s 907 237 m -8 X s 907 250 m -8 X s 907 263 m
 -8 X s 907 276 m -8 X s 915 289 m -16 X s 907 302 m -8 X s 907 315 m -8 X s 907 328 m -8 X s 907 341 m -8 X s 915 355 m -16 X s 907 368 m -8 X s 907 381 m -8 X s 907 394 m -8 X s 907 407 m -8 X s 915 420 m -16 X s 907 433 m -8 X s 907 446 m -8 X s
 907 459 m -8 X s 907 472 m -8 X s 915 485 m -16 X s 915 485 m -16 X s 907 498 m -8 X s 907 511 m -8 X s
 gsave  710 567 779 12 C 875.259 82.4108 t 0 r /Helvetica findfont 25.6631 sf 0 0 m (0) show NC gr 
 gsave  710 567 779 12 C 878.101 147.771 t 0 r /Helvetica findfont 25.6631 sf 0 0 m (1) show NC gr 
 gsave  710 567 779 12 C 875.259 213.131 t 0 r /Helvetica findfont 25.6631 sf 0 0 m (2) show NC gr 
 gsave  710 567 779 12 C 875.259 278.492 t 0 r /Helvetica findfont 25.6631 sf 0 0 m (3) show NC gr 
 gsave  710 567 779 12 C 875.259 343.852 t 0 r /Helvetica findfont 25.6631 sf 0 0 m (4) show NC gr 
 gsave  710 567 779 12 C 875.259 409.212 t 0 r /Helvetica findfont 25.6631 sf 0 0 m (5) show NC gr 
 gsave  710 567 779 12 C 875.259 474.572 t 0 r /Helvetica findfont 25.6631 sf 0 0 m (6) show NC gr 
 gsave  710 567 779 12 C 801.374 434.788 t 90 r /Helvetica findfont 28.5146 sf 0 0 m (0.0121 ) show NC gr 
 gsave  710 567 779 12 C 787.165 431.946 t 90 r /Helvetica findfont 19.9602 sf 0 0 m ( ) show NC gr 
 gsave  710 567 779 12 C 801.374 420.579 t 90 r /Helvetica findfont 28.5146 sf 0 0 m (/) show NC gr 
 gsave  710 567 779 12 C 809.899 417.737 t 90 r /Helvetica findfont 19.9602 sf 0 0 m ( ) show NC gr 
 gsave  710 567 779 12 C 801.374 312.592 t 90 r /Helvetica findfont 28.5146 sf 0 0 m (\(1/N\) dN) show NC gr  1447 94 m 429 Y s 1430 94 m 17 X s 1438 107 m 9 X s 1438 120 m 9 X s 1438 133 m 9 X s 1438 146 m 9 X s 1430 159 m 17 X s 1438 172 m 9 X s
 1438 185 m 9 X s 1438 198 m 9 X s 1438 211 m 9 X s 1430 224 m 17 X s 1438 237 m 9 X s 1438 250 m 9 X s 1438 263 m 9 X s 1438 276 m 9 X s 1430 289 m 17 X s 1438 302 m 9 X s 1438 315 m 9 X s 1438 328 m 9 X s 1438 341 m 9 X s 1430 355 m 17 X s 1438 368
 m 9 X s 1438 381 m 9 X s 1438 394 m 9 X s 1438 407 m 9 X s 1430 420 m 17 X s 1438 433 m 9 X s 1438 446 m 9 X s 1438 459 m 9 X s 1438 472 m 9 X s 1430 485 m 17 X s 1430 485 m 17 X s 1438 498 m 9 X s 1438 511 m 9 X s 0.490196 0.545098 0.615686 c
 0.364706 0.419608 0.490196 c 369 37 786 539 bf 0.490196 0.545098 0.615686 c 786 539 m 369 X s 1155 539 m 37 Y s 1155 576 m -369 X s 786 576 m -37 Y s 1 1 1 c black 1 1 1 c
 gsave  710 567 779 12 C 790.007 551.299 t 0 r /Helvetica-Bold findfont 28.5146 sf 0 0 m (Input variable: yybb.HP_l2) show NC gr  1 0 0 c 6 lw black 3 lw 1 0 0 c 1433 94 m -1 X s 1419 95 m -2 -1 d s 1405 96 m -3 -2 d s 1392 98 m -5 -4 d s 1378 99 m
 -6 -5 d s 1367 104 m -10 -10 d s 1356 108 m -14 -14 d s 1350 117 m -23 -23 d s 1337 119 m -25 -25 d s 1325 122 m -28 -28 d s 1317 129 m -35 -35 d s 1303 130 m -36 -36 d s 1296 138 m -44 -44 d s 1287 145 m -50 -51 d s 1269 141 m -48 -47 d s 1268 156
 m -62 -62 d s 1255 158 m -64 -64 d s 1255 173 m -79 -79 d s 1244 177 m -83 -83 d s 1229 177 m -83 -83 d s 1228 191 m -97 -97 d s 1216 195 m -100 -101 d s 1214 207 m -113 -113 d s 1203 212 m -117 -118 d s 1200 224 m -129 -130 d s 1200 239 m -144 -145
 d s 1193 247 m -6 -6 d s 1182 236 m -141 -142 d s 1173 242 m -147 -148 d s 1173 257 m -163 -163 d s 1162 261 m -3 -2 d s 1152 251 m -157 -157 d s 1146 260 m -166 -166 d s 1146 275 m -181 -181 d s 1146 290 m -196 -196 d s 1132 292 m -197 -198 d s
 1132 307 m -212 -213 d s 1132 322 m -205 -206 d s 923 112 m -10 -10 d s 906 94 m -1 X s 1132 337 m -205 -206 d s 1120 341 m -193 -195 d s 1118 354 m -178 -179 d s 929 163 m -2 -2 d s 1115 366 m -161 -162 d s 942 192 m -2 -2 d s 1105 371 m -137 -138
 d s 1093 374 m -125 -126 d s 1091 387 m -123 -124 d s 1091 402 m -96 -96 d s 993 304 m -12 -12 d s 981 291 m -13 -13 d s 1085 411 m -90 -90 d s 1077 419 m -82 -83 d s 1077 434 m -68 -69 d s 1008 364 m -13 -13 d s 1067 439 m -58 -59 d s 1064 451 m
 -28 -28 d s 1032 419 m -23 -23 d s 1064 466 m -14 -14 d s 1049 451 m -13 -13 d s 1013 415 m -4 -4 d s 1064 481 m -14 -14 d s 1051 484 m -1 -2 d s 6 lw 899 94 m 14 X 18 Y 14 X 51 Y 13 X 29 Y 14 X 26 Y 14 X 73 Y 13 X 13 Y 14 X 60 Y 14 X 51 Y 13 X 4 Y
 14 X 32 Y 14 X 33 Y 14 X -45 Y 13 X -28 Y 14 X -37 Y 14 X -8 Y 13 X -25 Y 14 X -49 Y 14 X -41 Y 13 X 10 Y 14 X -25 Y 14 X 11 Y 13 X -35 Y 14 X -17 Y 14 X -18 Y 27 X -21 Y 14 X -15 Y 13 X 4 Y 14 X -15 Y 14 X -1 Y 13 X -7 Y 14 X -5 Y 14 X -9 Y 13 X -4
 Y 14 X -6 Y 14 X -2 Y 13 X -1 Y 28 X -1 Y 14 X s black 3 lw 899 94 m 548 X s 950 107 m -13 Y s 961 100 m -6 Y s 972 100 m -6 Y s 983 100 m -6 Y s 995 100 m -6 Y s 1006 107 m -13 Y s 1017 100 m -6 Y s 1028 100 m -6 Y s 1040 100 m -6 Y s 1051 100 m -6
 Y s 1062 107 m -13 Y s 1074 100 m -6 Y s 1085 100 m -6 Y s 1096 100 m -6 Y s 1107 100 m -6 Y s 1119 107 m -13 Y s 1130 100 m -6 Y s 1141 100 m -6 Y s 1152 100 m -6 Y s 1164 100 m -6 Y s 1175 107 m -13 Y s 1186 100 m -6 Y s 1197 100 m -6 Y s 1209 100
 m -6 Y s 1220 100 m -6 Y s 1231 107 m -13 Y s 1242 100 m -6 Y s 1254 100 m -6 Y s 1265 100 m -6 Y s 1276 100 m -6 Y s 1287 107 m -13 Y s 1299 100 m -6 Y s 1310 100 m -6 Y s 1321 100 m -6 Y s 1333 100 m -6 Y s 1344 107 m -13 Y s 1355 100 m -6 Y s
 1366 100 m -6 Y s 1378 100 m -6 Y s 1389 100 m -6 Y s 1400 107 m -13 Y s 950 107 m -13 Y s 938 100 m -6 Y s 927 100 m -6 Y s 916 100 m -6 Y s 905 100 m -6 Y s 1400 107 m -13 Y s 1411 100 m -6 Y s 1423 100 m -6 Y s 1434 100 m -6 Y s 1445 100 m -6 Y s
 899 523 m 548 X s 950 509 m 14 Y s 961 516 m 7 Y s 972 516 m 7 Y s 983 516 m 7 Y s 995 516 m 7 Y s 1006 509 m 14 Y s 1017 516 m 7 Y s 1028 516 m 7 Y s 1040 516 m 7 Y s 1051 516 m 7 Y s 1062 509 m 14 Y s 1074 516 m 7 Y s 1085 516 m 7 Y s 1096 516 m 7
 Y s 1107 516 m 7 Y s 1119 509 m 14 Y s 1130 516 m 7 Y s 1141 516 m 7 Y s 1152 516 m 7 Y s 1164 516 m 7 Y s 1175 509 m 14 Y s 1186 516 m 7 Y s 1197 516 m 7 Y s 1209 516 m 7 Y s 1220 516 m 7 Y s 1231 509 m 14 Y s 1242 516 m 7 Y s 1254 516 m 7 Y s 1265
 516 m 7 Y s 1276 516 m 7 Y s 1287 509 m 14 Y s 1299 516 m 7 Y s 1310 516 m 7 Y s 1321 516 m 7 Y s 1333 516 m 7 Y s 1344 509 m 14 Y s 1355 516 m 7 Y s 1366 516 m 7 Y s 1378 516 m 7 Y s 1389 516 m 7 Y s 1400 509 m 14 Y s 950 509 m 14 Y s 938 516 m 7 Y
 s 927 516 m 7 Y s 916 516 m 7 Y s 905 516 m 7 Y s 1400 509 m 14 Y s 1411 516 m 7 Y s 1423 516 m 7 Y s 1434 516 m 7 Y s 1445 516 m 7 Y s 899 94 m 429 Y s 915 94 m -16 X s 907 107 m -8 X s 907 120 m -8 X s 907 133 m -8 X s 907 146 m -8 X s 915 159 m
 -16 X s 907 172 m -8 X s 907 185 m -8 X s 907 198 m -8 X s 907 211 m -8 X s 915 224 m -16 X s 907 237 m -8 X s 907 250 m -8 X s 907 263 m -8 X s 907 276 m -8 X s 915 289 m -16 X s 907 302 m -8 X s 907 315 m -8 X s 907 328 m -8 X s 907 341 m -8 X s
 915 355 m -16 X s 907 368 m -8 X s 907 381 m -8 X s 907 394 m -8 X s 907 407 m -8 X s 915 420 m -16 X s 907 433 m -8 X s 907 446 m -8 X s 907 459 m -8 X s 907 472 m -8 X s 915 485 m -16 X s 915 485 m -16 X s 907 498 m -8 X s 907 511 m -8 X s 1447 94
 m 429 Y s 1430 94 m 17 X s 1438 107 m 9 X s 1438 120 m 9 X s 1438 133 m 9 X s 1438 146 m 9 X s 1430 159 m 17 X s 1438 172 m 9 X s 1438 185 m 9 X s 1438 198 m 9 X s 1438 211 m 9 X s 1430 224 m 17 X s 1438 237 m 9 X s 1438 250 m 9 X s 1438 263 m 9 X s
 1438 276 m 9 X s 1430 289 m 17 X s 1438 302 m 9 X s 1438 315 m 9 X s 1438 328 m 9 X s 1438 341 m 9 X s 1430 355 m 17 X s 1438 368 m 9 X s 1438 381 m 9 X s 1438 394 m 9 X s 1438 407 m 9 X s 1430 420 m 17 X s 1438 433 m 9 X s 1438 446 m 9 X s 1438 459
 m 9 X s 1438 472 m 9 X s 1430 485 m 17 X s 1430 485 m 17 X s 1438 498 m 9 X s 1438 511 m 9 X s
 gsave  710 567 779 12 C 1474.92 91.2634 t 90 r /Helvetica-Bold findfont 19.9602 sf 0 0 m (U/O\255flow \(S,B\): \(0.0, 0.0\)% / \(0.0, 0.0\)%) show NC gr  0.490196 0.545098 0.615686 c 0.364706 0.419608 0.490196 c 369 37 786 539 bf 0.490196 0.545098
 0.615686 c 786 539 m 369 X s 1155 539 m 37 Y s 1155 576 m -369 X s 786 576 m -37 Y s 1 1 1 c black 1 1 1 c
 gsave  710 567 779 12 C 790.007 551.299 t 0 r /Helvetica-Bold findfont 28.5146 sf 0 0 m (Input variable: yybb.HP_l2) show NC gr  0.490196 0.545098 0.615686 c 0.941176 0.941176 0.941176 c 711 567 1534 12 bf black 1 1 0.992157 c 547 429 1655 94 bf
 black 547 429 1655 94 bl 0 0 0.933333 c 6 lw 0.49 0.6 0.82 c black 3 lw 0.49 0.6 0.82 c 1655 114 m 1 Y 14 X 9 Y 14 X 17 Y 13 X 49 Y 14 X 56 Y 14 X 80 Y 13 X 37 Y 14 X 46 Y 14 X 59 Y 13 X -9 Y 14 X 26 Y 14 X -10 Y 13 X -41 Y 14 X -21 Y 14 X -29 Y 13
 X -11 Y 14 X -35 Y 14 X -43 Y 13 X -9 Y 14 X -38 Y 14 X -28 Y 14 X -24 Y 13 X -15 Y 14 X -14 Y 14 X -8 Y 27 X -11 Y 14 X -12 Y 13 X 2 Y 14 X -15 Y 27 X -4 Y 14 X -3 Y 14 X -1 Y 27 X -1 Y 14 X 1 Y 13 X -1 Y 41 X f 6 lw 0 0 0.933333 c 0.49 0.6 0.82 c
 0 0 0.933333 c 1655 115 m 14 X 9 Y 14 X 17 Y 13 X 49 Y 14 X 56 Y 14 X 80 Y 13 X 37 Y 14 X 46 Y 14 X 59 Y 13 X -9 Y 14 X 26 Y 14 X -10 Y 13 X -41 Y 14 X -21 Y 14 X -29 Y 13 X -11 Y 14 X -35 Y 14 X -43 Y 13 X -9 Y 14 X -38 Y 14 X -28 Y 14 X -24 Y 13 X
 -15 Y 14 X -14 Y 14 X -8 Y 27 X -11 Y 14 X -12 Y 13 X 2 Y 14 X -15 Y 27 X -4 Y 14 X -3 Y 14 X -1 Y 27 X -1 Y 14 X 1 Y 13 X -1 Y 41 X s black 3 lw 1655 94 m 547 X s 1702 107 m -13 Y s 1714 100 m -6 Y s 1725 100 m -6 Y s 1737 100 m -6 Y s 1749 100 m
 -6 Y s 1761 107 m -13 Y s 1773 100 m -6 Y s 1785 100 m -6 Y s 1797 100 m -6 Y s 1808 100 m -6 Y s 1820 107 m -13 Y s 1832 100 m -6 Y s 1844 100 m -6 Y s 1856 100 m -6 Y s 1868 100 m -6 Y s 1879 107 m -13 Y s 1891 100 m -6 Y s 1903 100 m -6 Y s 1915
 100 m -6 Y s 1927 100 m -6 Y s 1939 107 m -13 Y s 1950 100 m -6 Y s 1962 100 m -6 Y s 1974 100 m -6 Y s 1986 100 m -6 Y s 1998 107 m -13 Y s 2010 100 m -6 Y s 2021 100 m -6 Y s 2033 100 m -6 Y s 2045 100 m -6 Y s 2057 107 m -13 Y s 2069 100 m -6 Y s
 2081 100 m -6 Y s 2092 100 m -6 Y s 2104 100 m -6 Y s 2116 107 m -13 Y s 2128 100 m -6 Y s 2140 100 m -6 Y s 2152 100 m -6 Y s 2163 100 m -6 Y s 2175 107 m -13 Y s 1702 107 m -13 Y s 1690 100 m -6 Y s 1678 100 m -6 Y s 1666 100 m -6 Y s 2175 107 m
 -13 Y s 2187 100 m -6 Y s 2199 100 m -6 Y s
 gsave  711 567 1534 12 C 1688 65.3603 t 0 r /Helvetica findfont 25.6631 sf 0 0 m (0.2) show NC gr 
 gsave  711 567 1534 12 C 1673.79 65.3603 t 0 r /Symbol findfont 25.6631 sf 0 0 m (-) show NC gr 
 gsave  711 567 1534 12 C 1747.68 65.3603 t 0 r /Helvetica findfont 25.6631 sf 0 0 m (0.1) show NC gr 
 gsave  711 567 1534 12 C 1736.31 65.3603 t 0 r /Symbol findfont 25.6631 sf 0 0 m (-) show NC gr 
 gsave  711 567 1534 12 C 1810.19 65.3603 t 0 r /Helvetica findfont 25.6631 sf 0 0 m (0) show NC gr 
 gsave  711 567 1534 12 C 1861.35 65.3603 t 0 r /Helvetica findfont 25.6631 sf 0 0 m (0.1) show NC gr 
 gsave  711 567 1534 12 C 1921.02 65.3603 t 0 r /Helvetica findfont 25.6631 sf 0 0 m (0.2) show NC gr 
 gsave  711 567 1534 12 C 1977.86 65.3603 t 0 r /Helvetica findfont 25.6631 sf 0 0 m (0.3) show NC gr 
 gsave  711 567 1534 12 C 2037.53 65.3603 t 0 r /Helvetica findfont 25.6631 sf 0 0 m (0.4) show NC gr 
 gsave  711 567 1534 12 C 2097.21 65.3603 t 0 r /Helvetica findfont 25.6631 sf 0 0 m (0.5) show NC gr 
 gsave  711 567 1534 12 C 2156.89 65.3603 t 0 r /Helvetica findfont 25.6631 sf 0 0 m (0.6) show NC gr 
 gsave  711 567 1534 12 C 2057.43 25.5758 t 0 r /Helvetica findfont 28.5146 sf 0 0 m (yybb.HY_l2) show NC gr  1655 523 m 547 X s 1702 509 m 14 Y s 1714 516 m 7 Y s 1725 516 m 7 Y s 1737 516 m 7 Y s 1749 516 m 7 Y s 1761 509 m 14 Y s 1773 516 m 7 Y s
 1785 516 m 7 Y s 1797 516 m 7 Y s 1808 516 m 7 Y s 1820 509 m 14 Y s 1832 516 m 7 Y s 1844 516 m 7 Y s 1856 516 m 7 Y s 1868 516 m 7 Y s 1879 509 m 14 Y s 1891 516 m 7 Y s 1903 516 m 7 Y s 1915 516 m 7 Y s 1927 516 m 7 Y s 1939 509 m 14 Y s 1950 516
 m 7 Y s 1962 516 m 7 Y s 1974 516 m 7 Y s 1986 516 m 7 Y s 1998 509 m 14 Y s 2010 516 m 7 Y s 2021 516 m 7 Y s 2033 516 m 7 Y s 2045 516 m 7 Y s 2057 509 m 14 Y s 2069 516 m 7 Y s 2081 516 m 7 Y s 2092 516 m 7 Y s 2104 516 m 7 Y s 2116 509 m 14 Y s
 2128 516 m 7 Y s 2140 516 m 7 Y s 2152 516 m 7 Y s 2163 516 m 7 Y s 2175 509 m 14 Y s 1702 509 m 14 Y s 1690 516 m 7 Y s 1678 516 m 7 Y s 1666 516 m 7 Y s 2175 509 m 14 Y s 2187 516 m 7 Y s 2199 516 m 7 Y s 1655 94 m 429 Y s 1671 114 m -16 X s 1663
 125 m -8 X s 1663 136 m -8 X s 1663 147 m -8 X s 1663 158 m -8 X s 1671 169 m -16 X s 1663 181 m -8 X s 1663 192 m -8 X s 1663 203 m -8 X s 1663 214 m -8 X s 1671 225 m -16 X s 1663 236 m -8 X s 1663 247 m -8 X s 1663 258 m -8 X s 1663 269 m -8 X s
 1671 280 m -16 X s 1663 292 m -8 X s 1663 303 m -8 X s 1663 314 m -8 X s 1663 325 m -8 X s 1671 336 m -16 X s 1663 347 m -8 X s 1663 358 m -8 X s 1663 369 m -8 X s 1663 380 m -8 X s 1671 391 m -16 X s 1663 402 m -8 X s 1663 414 m -8 X s 1663 425 m
 -8 X s 1663 436 m -8 X s 1671 447 m -16 X s 1663 458 m -8 X s 1663 469 m -8 X s 1663 480 m -8 X s 1663 491 m -8 X s 1671 502 m -16 X s 1671 114 m -16 X s 1663 103 m -8 X s 1671 502 m -16 X s 1663 513 m -8 X s
 gsave  711 567 1534 12 C 1631.16 105.145 t 0 r /Helvetica findfont 25.6631 sf 0 0 m (0) show NC gr 
 gsave  711 567 1534 12 C 1611.27 159.138 t 0 r /Helvetica findfont 25.6631 sf 0 0 m (0.5) show NC gr 
 gsave  711 567 1534 12 C 1634.01 215.973 t 0 r /Helvetica findfont 25.6631 sf 0 0 m (1) show NC gr 
 gsave  711 567 1534 12 C 1611.27 269.966 t 0 r /Helvetica findfont 25.6631 sf 0 0 m (1.5) show NC gr 
 gsave  711 567 1534 12 C 1631.16 326.801 t 0 r /Helvetica findfont 25.6631 sf 0 0 m (2) show NC gr 
 gsave  711 567 1534 12 C 1611.27 380.795 t 0 r /Helvetica findfont 25.6631 sf 0 0 m (2.5) show NC gr 
 gsave  711 567 1534 12 C 1631.16 437.63 t 0 r /Helvetica findfont 25.6631 sf 0 0 m (3) show NC gr 
 gsave  711 567 1534 12 C 1611.27 491.623 t 0 r /Helvetica findfont 25.6631 sf 0 0 m (3.5) show NC gr 
 gsave  711 567 1534 12 C 1557.28 434.788 t 90 r /Helvetica findfont 28.5146 sf 0 0 m (0.0231 ) show NC gr 
 gsave  711 567 1534 12 C 1543.07 431.946 t 90 r /Helvetica findfont 19.9602 sf 0 0 m ( ) show NC gr 
 gsave  711 567 1534 12 C 1557.28 420.579 t 90 r /Helvetica findfont 28.5146 sf 0 0 m (/) show NC gr 
 gsave  711 567 1534 12 C 1565.8 417.737 t 90 r /Helvetica findfont 19.9602 sf 0 0 m ( ) show NC gr 
 gsave  711 567 1534 12 C 1557.28 312.592 t 90 r /Helvetica findfont 28.5146 sf 0 0 m (\(1/N\) dN) show NC gr  2202 94 m 429 Y s 2186 114 m 16 X s 2194 125 m 8 X s 2194 136 m 8 X s 2194 147 m 8 X s 2194 158 m 8 X s 2186 169 m 16 X s 2194 181 m 8 X s
 2194 192 m 8 X s 2194 203 m 8 X s 2194 214 m 8 X s 2186 225 m 16 X s 2194 236 m 8 X s 2194 247 m 8 X s 2194 258 m 8 X s 2194 269 m 8 X s 2186 280 m 16 X s 2194 292 m 8 X s 2194 303 m 8 X s 2194 314 m 8 X s 2194 325 m 8 X s 2186 336 m 16 X s 2194 347
 m 8 X s 2194 358 m 8 X s 2194 369 m 8 X s 2194 380 m 8 X s 2186 391 m 16 X s 2194 402 m 8 X s 2194 414 m 8 X s 2194 425 m 8 X s 2194 436 m 8 X s 2186 447 m 16 X s 2194 458 m 8 X s 2194 469 m 8 X s 2194 480 m 8 X s 2194 491 m 8 X s 2186 502 m 16 X s
 2186 114 m 16 X s 2194 103 m 8 X s 2186 502 m 16 X s 2194 513 m 8 X s 0.490196 0.545098 0.615686 c 0.364706 0.419608 0.490196 c 369 37 1542 539 bf 0.490196 0.545098 0.615686 c 1542 539 m 369 X s 1911 539 m 37 Y s 1911 576 m -369 X s 1542 576 m -37 Y
 s 1 1 1 c black 1 1 1 c
 gsave  711 567 1534 12 C 1545.91 551.299 t 0 r /Helvetica-Bold findfont 28.5146 sf 0 0 m (Input variable: yybb.HY_l2) show NC gr  1 0 0 c 6 lw black 3 lw 1 0 0 c 2194 114 m s 2179 114 m s 2164 115 m -1 -1 d s 2149 114 m -1 X s 2135 116 m -2 -2 d s
 2122 118 m -4 -4 d s 2110 120 m -7 -6 d s 2093 119 m -5 -5 d s 2086 127 m -13 -13 d s 2073 129 m -15 -15 d s 2066 137 m -23 -23 d s 2053 139 m -25 -25 d s 2040 141 m -2 -1 d s 2038 139 m -25 -25 d s 2025 141 m -27 -27 d s 2023 155 m -40 -41 d s 2011
 158 m -44 -44 d s 1999 161 m -47 -47 d s 1997 174 m -60 -60 d s 1997 189 m -75 -75 d s 1993 200 m -86 -86 d s 1984 206 m -92 -92 d s 1984 221 m -107 -107 d s 1976 229 m -114 -115 d s 1967 235 m -120 -121 d s 1956 239 m -124 -125 d s 1956 254 m -139
 -140 d s 1956 270 m -154 -156 d s 1949 278 m -162 -164 d s 1943 286 m -171 -172 d s 1940 299 m -184 -185 d s 1929 303 m -188 -189 d s 1929 318 m -203 -204 d s 1918 322 m -207 -208 d s 1901 321 m -205 -207 d s 1901 336 m -220 -222 d s 1901 351 m -205
 -207 d s 1696 144 m -13 -13 d s 1682 130 m -13 -13 d s 1667 115 m -1 -1 d s 1894 358 m -184 -185 d s 1706 169 m -10 -9 d s 1888 368 m -178 -179 d s 1880 375 m -156 -157 d s 1861 371 m -137 -138 d s 1856 382 m -119 -120 d s 1725 249 m -1 -1 d s 1847
 387 m -96 -96 d s 1738 277 m -1 X s 1847 402 m -96 -96 d s 1845 415 m -94 -94 d s 1833 419 m -82 -83 d s 1833 434 m -14 -14 d s 1810 411 m -4 -4 d s 1805 405 m -13 -12 d s 1780 381 m -2 -2 d s 1769 370 m -4 -5 d s 1755 356 m -4 -5 d s 1829 445 m -10
 -10 d s 6 lw 1655 115 m 14 X 15 Y 14 X 14 Y 13 X 25 Y 14 X 33 Y 14 X 47 Y 13 X 28 Y 14 X 79 Y 14 X 14 Y 13 X 11 Y 14 X 24 Y 14 X 6 Y 13 X 34 Y 14 X -30 Y 14 X -33 Y 13 X -11 Y 14 X 4 Y 14 X -17 Y 13 X -38 Y 14 X 2 Y 14 X -23 Y 14 X -21 Y 13 X -43 Y
 14 X -6 Y 14 X -29 Y 13 X -39 Y 14 X -6 Y 14 X -16 Y 13 X 2 Y 14 X -2 Y 14 X -10 Y 13 X -2 Y 14 X -9 Y 14 X 2 Y 13 X -2 Y 14 X -2 Y 14 X -2 Y 13 X 1 Y 14 X -1 Y 27 X s black 3 lw 1655 94 m 547 X s 1702 107 m -13 Y s 1714 100 m -6 Y s 1725 100 m -6 Y
 s 1737 100 m -6 Y s 1749 100 m -6 Y s 1761 107 m -13 Y s 1773 100 m -6 Y s 1785 100 m -6 Y s 1797 100 m -6 Y s 1808 100 m -6 Y s 1820 107 m -13 Y s 1832 100 m -6 Y s 1844 100 m -6 Y s 1856 100 m -6 Y s 1868 100 m -6 Y s 1879 107 m -13 Y s 1891 100 m
 -6 Y s 1903 100 m -6 Y s 1915 100 m -6 Y s 1927 100 m -6 Y s 1939 107 m -13 Y s 1950 100 m -6 Y s 1962 100 m -6 Y s 1974 100 m -6 Y s 1986 100 m -6 Y s 1998 107 m -13 Y s 2010 100 m -6 Y s 2021 100 m -6 Y s 2033 100 m -6 Y s 2045 100 m -6 Y s 2057
 107 m -13 Y s 2069 100 m -6 Y s 2081 100 m -6 Y s 2092 100 m -6 Y s 2104 100 m -6 Y s 2116 107 m -13 Y s 2128 100 m -6 Y s 2140 100 m -6 Y s 2152 100 m -6 Y s 2163 100 m -6 Y s 2175 107 m -13 Y s 1702 107 m -13 Y s 1690 100 m -6 Y s 1678 100 m -6 Y
 s 1666 100 m -6 Y s 2175 107 m -13 Y s 2187 100 m -6 Y s 2199 100 m -6 Y s 1655 523 m 547 X s 1702 509 m 14 Y s 1714 516 m 7 Y s 1725 516 m 7 Y s 1737 516 m 7 Y s 1749 516 m 7 Y s 1761 509 m 14 Y s 1773 516 m 7 Y s 1785 516 m 7 Y s 1797 516 m 7 Y s
 1808 516 m 7 Y s 1820 509 m 14 Y s 1832 516 m 7 Y s 1844 516 m 7 Y s 1856 516 m 7 Y s 1868 516 m 7 Y s 1879 509 m 14 Y s 1891 516 m 7 Y s 1903 516 m 7 Y s 1915 516 m 7 Y s 1927 516 m 7 Y s 1939 509 m 14 Y s 1950 516 m 7 Y s 1962 516 m 7 Y s 1974 516
 m 7 Y s 1986 516 m 7 Y s 1998 509 m 14 Y s 2010 516 m 7 Y s 2021 516 m 7 Y s 2033 516 m 7 Y s 2045 516 m 7 Y s 2057 509 m 14 Y s 2069 516 m 7 Y s 2081 516 m 7 Y s 2092 516 m 7 Y s 2104 516 m 7 Y s 2116 509 m 14 Y s 2128 516 m 7 Y s 2140 516 m 7 Y s
 2152 516 m 7 Y s 2163 516 m 7 Y s 2175 509 m 14 Y s 1702 509 m 14 Y s 1690 516 m 7 Y s 1678 516 m 7 Y s 1666 516 m 7 Y s 2175 509 m 14 Y s 2187 516 m 7 Y s 2199 516 m 7 Y s 1655 94 m 429 Y s 1671 114 m -16 X s 1663 125 m -8 X s 1663 136 m -8 X s
 1663 147 m -8 X s 1663 158 m -8 X s 1671 169 m -16 X s 1663 181 m -8 X s 1663 192 m -8 X s 1663 203 m -8 X s 1663 214 m -8 X s 1671 225 m -16 X s 1663 236 m -8 X s 1663 247 m -8 X s 1663 258 m -8 X s 1663 269 m -8 X s 1671 280 m -16 X s 1663 292 m
 -8 X s 1663 303 m -8 X s 1663 314 m -8 X s 1663 325 m -8 X s 1671 336 m -16 X s 1663 347 m -8 X s 1663 358 m -8 X s 1663 369 m -8 X s 1663 380 m -8 X s 1671 391 m -16 X s 1663 402 m -8 X s 1663 414 m -8 X s 1663 425 m -8 X s 1663 436 m -8 X s 1671
 447 m -16 X s 1663 458 m -8 X s 1663 469 m -8 X s 1663 480 m -8 X s 1663 491 m -8 X s 1671 502 m -16 X s 1671 114 m -16 X s 1663 103 m -8 X s 1671 502 m -16 X s 1663 513 m -8 X s 2202 94 m 429 Y s 2186 114 m 16 X s 2194 125 m 8 X s 2194 136 m 8 X s
 2194 147 m 8 X s 2194 158 m 8 X s 2186 169 m 16 X s 2194 181 m 8 X s 2194 192 m 8 X s 2194 203 m 8 X s 2194 214 m 8 X s 2186 225 m 16 X s 2194 236 m 8 X s 2194 247 m 8 X s 2194 258 m 8 X s 2194 269 m 8 X s 2186 280 m 16 X s 2194 292 m 8 X s 2194 303
 m 8 X s 2194 314 m 8 X s 2194 325 m 8 X s 2186 336 m 16 X s 2194 347 m 8 X s 2194 358 m 8 X s 2194 369 m 8 X s 2194 380 m 8 X s 2186 391 m 16 X s 2194 402 m 8 X s 2194 414 m 8 X s 2194 425 m 8 X s 2194 436 m 8 X s 2186 447 m 16 X s 2194 458 m 8 X s
 2194 469 m 8 X s 2194 480 m 8 X s 2194 491 m 8 X s 2186 502 m 16 X s 2186 114 m 16 X s 2194 103 m 8 X s 2186 502 m 16 X s 2194 513 m 8 X s
 gsave  711 567 1534 12 C 2230.83 91.2634 t 90 r /Helvetica-Bold findfont 19.9602 sf 0 0 m (U/O\255flow \(S,B\): \(0.0, 0.0\)% / \(0.0, 0.0\)%) show NC gr  0.490196 0.545098 0.615686 c 0.364706 0.419608 0.490196 c 369 37 1542 539 bf 0.490196 0.545098
 0.615686 c 1542 539 m 369 X s 1911 539 m 37 Y s 1911 576 m -369 X s 1542 576 m -37 Y s 1 1 1 c black 1 1 1 c
 gsave  711 567 1534 12 C 1545.91 551.299 t 0 r /Helvetica-Bold findfont 28.5146 sf 0 0 m (Input variable: yybb.HY_l2) show NC gr 
 gr  gr showpage
end
%%EOF
