%!PS-Adobe-2.0 EPSF-2.0
%%BoundingBox:  0 0 567 296
%%Title: dataset_class_l2/plots/variables_id_c3.eps: Input variables (training sample)
%%Creator: ROOT Version 6.18/00
%%CreationDate: Sat Sep 14 12:36:54 2019
%%DocumentNeededResources: ProcSet (FontSetInit)
%%EndComments
%%BeginProlog
80 dict begin
/s {stroke} def /l {lineto} def /m {moveto} def /t {translate} def
/r {rotate} def /rl {roll}  def /R {repeat} def
/d {rlineto} def /rm {rmoveto} def /gr {grestore} def /f {eofill} def
/c {setrgbcolor} def /black {0 setgray} def /sd {setdash} def
/cl {closepath} def /sf {scalefont setfont} def /lw {setlinewidth} def
/box {m dup 0 exch d exch 0 d 0 exch neg d cl} def
/NC{systemdict begin initclip end}def/C{NC box clip newpath}def
/bl {box s} def /bf {gsave box gsave f grestore 1 lw [] 0 sd s grestore} def /Y { 0 exch d} def /X { 0 d} def 
/K {{pop pop 0 moveto} exch kshow} bind def
/ita {/ang 15 def gsave [1 0 ang dup sin exch cos div 1 0 0] concat} def 
/mp {newpath /y exch def /x exch def} def
/side {[w .77 mul w .23 mul] .385 w mul sd w 0 l currentpoint t -144 r} def
/mr {mp x y w2 0 360 arc} def /m24 {mr s} def /m20 {mr f} def
/mb {mp x y w2 add m w2 neg 0 d 0 w neg d w 0 d 0 w d cl} def
/mt {mp x y w2 add m w2 neg w neg d w 0 d cl} def
/w4 {w 4 div} def
/w6 {w 6 div} def
/w8 {w 8 div} def
/m21 {mb f} def /m25 {mb s} def /m22 {mt f} def /m26{mt s} def
/m23 {mp x y w2 sub m w2 w d w neg 0 d cl f} def
/m27 {mp x y w2 add m w3 neg w2 neg d w3 w2 neg d w3 w2 d cl s} def
/m28 {mp x w2 sub y w2 sub w3 add m w3 0 d  0 w3 neg d w3 0 d 0 w3 d w3 0 d  0 w3 d w3 neg 0 d 0 w3 d w3 neg 0 d 0 w3 neg d w3 neg 0 d cl s } def
/m29 {mp gsave x w2 sub y w2 add w3 sub m currentpoint t 4 {side} repeat cl fill gr} def
/m30 {mp gsave x w2 sub y w2 add w3 sub m currentpoint t 4 {side} repeat cl s gr} def
/m31 {mp x y w2 sub m 0 w d x w2 sub y m w 0 d x w2 sub y w2 add m w w neg d x w2 sub y w2 sub m w w d s} def
/m32 {mp x y w2 sub m w2 w d w neg 0 d cl s} def
/m33 {mp x y w2 add m w3 neg w2 neg d w3 w2 neg d w3 w2 d cl f} def
/m34 {mp x w2 sub y w2 sub w3 add m w3 0 d  0 w3 neg d w3 0 d 0 w3 d w3 0 d  0 w3 d w3 neg 0 d 0 w3 d w3 neg 0 d 0 w3 neg d w3 neg 0 d cl f } def
/m35 {mp x y w2 add m w2 neg w2 neg d w2 w2 neg d w2 w2 d w2 neg w2 d x y w2 sub m 0 w d x w2 sub y m w 0 d s} def
/m36 {mb x w2 sub y w2 add m w w neg d x w2 sub y w2 sub m w w d s} def
/m37 {mp x y m w4 neg w2 d w4 neg w2 neg d w2 0 d  w4 neg w2 neg d w2 0 d w4 neg w2 d w2 0 d w4 neg w2 d w4 neg w2 neg d cl s} def
/m38 {mp x w4 sub y w2 add m w4 neg w4 neg d 0 w2 neg d w4 w4 neg d w2 0 d w4 w4 d 0 w2 d w4 neg w4 d w2 neg 0 d x y w2 sub m 0 w d x w2 sub y m w 0 d cl s} def
/m39 {mp x y m w4 neg w2 d w4 neg w2 neg d w2 0 d  w4 neg w2 neg d w2 0 d w4 neg w2 d w2 0 d w4 neg w2 d w4 neg w2 neg d cl f} def
/m40 {mp x y m w4 w2 d w4 w4 neg d w2 neg w4 neg d w2 w4 neg d w4 neg w4 neg d w4 neg w2 d w4 neg w2 neg d w4 neg w4 d w2 w4 d w2 neg w4 d w4 w4 d w4 w2 neg d cl s} def
/m41 {mp x y m w4 w2 d w4 w4 neg d w2 neg w4 neg d w2 w4 neg d w4 neg w4 neg d w4 neg w2 d w4 neg w2 neg d w4 neg w4 d w2 w4 d w2 neg w4 d w4 w4 d w4 w2 neg d cl f} def
/m42 {mp x y w2 add m w8 neg w2 -3 4 div mul d w2 -3 4 div mul w8 neg d w2 3 4 div mul w8 neg d w8 w2 -3 4 div mul d w8 w2 3 4 div mul d w2 3 4 div mul w8 d w2 -3 4 div mul w8 d w8 neg w2 3 4 div mul d cl s} def
/m43 {mp x y w2 add m w8 neg w2 -3 4 div mul d w2 -3 4 div mul w8 neg d w2 3 4 div mul w8 neg d w8 w2 -3 4 div mul d w8 w2 3 4 div mul d w2 3 4 div mul w8 d w2 -3 4 div mul w8 d w8 neg w2 3 4 div mul d cl f} def
/m44 {mp x y m w6 neg w2 d w2 2 3 div mul 0 d w6 neg w2 neg d w2 w6 d 0 w2 -2 3 div mul d w2 neg w6 d w6 w2 neg d w2 -2 3 div mul 0 d w6 w2 d w2 neg w6 neg d 0 w2 2 3 div mul d w2 w6 neg d cl s} def
/m45 {mp x y m w6 neg w2 d w2 2 3 div mul 0 d w6 neg w2 neg d w2 w6 d 0 w2 -2 3 div mul d w2 neg w6 d w6 w2 neg d w2 -2 3 div mul 0 d w6 w2 d w2 neg w6 neg d 0 w2 2 3 div mul d w2 w6 neg d cl f} def
/m46 {mp x y w4 add m w4 neg w4 d w4 neg w4 neg d  w4 w4 neg d w4 neg w4 neg d w4 w4 neg d w4 w4 d w4 w4 neg d w4 w4 d w4 neg w4 d w4 w4 d w4 neg w4 d w4 neg w4 neg d cl s} def
/m47 {mp x y w4 add m w4 neg w4 d w4 neg w4 neg d w4 w4 neg d w4 neg w4 neg d  w4 w4 neg d w4 w4 d w4 w4 neg d w4 w4 d w4 neg w4 d w4 w4 d w4 neg w4 d w4 neg w4 neg d cl f} def
/m48 {mp x y w4 add m w4 neg w4 d w4 neg w4 neg d w4 w4 neg d  w4 neg w4 neg d w4 w4 neg d w4 w4 d w4 w4 neg d w4 w4 d w4 neg w4 d w4 w4 d w4 neg w4 d w4 neg w4 neg d  w4 w4 neg d w4 neg w4 neg d w4 neg w4 d w4 w4 d cl f} def
/m49 {mp x w2 sub w3 add y w2 sub w3 add m  0 w3 neg d w3 0 d 0 w3 d w3 0 d 0 w3 d w3 neg 0 d 0 w3 d w3 neg 0 d 0 w3 neg d w3 neg 0 d 0 w3 neg d w3 0 d 0 w3 d w3 0 d 0 w3 neg d w3 neg 0 d cl f } def
/m2 {mp x y w2 sub m 0 w d x w2 sub y m w 0 d s} def
/m5 {mp x w2 sub y w2 sub m w w d x w2 sub y w2 add m w w neg d s} def
%%IncludeResource: ProcSet (FontSetInit)
%%IncludeResource: font Times-Roman
%%IncludeResource: font Times-Italic
%%IncludeResource: font Times-Bold
%%IncludeResource: font Times-BoldItalic
%%IncludeResource: font Helvetica
%%IncludeResource: font Helvetica-Oblique
%%IncludeResource: font Helvetica-Bold
%%IncludeResource: font Helvetica-BoldOblique
%%IncludeResource: font Courier
%%IncludeResource: font Courier-Oblique
%%IncludeResource: font Courier-Bold
%%IncludeResource: font Courier-BoldOblique
%%IncludeResource: font Symbol
%%IncludeResource: font ZapfDingbats
/reEncode {exch findfont dup length dict begin {1 index /FID eq  {pop pop} {def} ifelse } forall /Encoding exch def currentdict end dup /FontName get exch definefont pop } def [/Times-Bold /Times-Italic /Times-BoldItalic /Helvetica /Helvetica-Oblique
 /Helvetica-Bold /Helvetica-BoldOblique /Courier /Courier-Oblique /Courier-Bold /Courier-BoldOblique /Times-Roman /AvantGarde-Book /AvantGarde-BookOblique /AvantGarde-Demi /AvantGarde-DemiOblique /Bookman-Demi /Bookman-DemiItalic /Bookman-Light
 /Bookman-LightItalic /Helvetica-Narrow /Helvetica-Narrow-Bold /Helvetica-Narrow-BoldOblique /Helvetica-Narrow-Oblique /NewCenturySchlbk-Roman /NewCenturySchlbk-Bold /NewCenturySchlbk-BoldItalic /NewCenturySchlbk-Italic /Palatino-Bold
 /Palatino-BoldItalic /Palatino-Italic /Palatino-Roman ] {ISOLatin1Encoding reEncode } forall
%%EndProlog
%%BeginSetup
%%EndSetup
newpath  gsave  .25 .25 scale  gsave  0 0 t 0.490196 0.545098 0.615686 c[  ] 0 sd 3 lw 0.941176 0.941176 0.941176 c 2268 1182 0 0 bf 0.490196 0.545098 0.615686 c 0.941176 0.941176 0.941176 c 710 567 23 603 bf black 1 1 0.992157 c 548 429 143 685 bf
 black 548 429 143 685 bl 0 0 0.933333 c 6 lw 0.49 0.6 0.82 c black 3 lw 0.49 0.6 0.82 c 143 685 m 390 Y 14 X -231 Y 14 X -48 Y 14 X -6 Y 13 X -11 Y 14 X -14 Y 14 X -12 Y 13 X 4 Y 14 X -6 Y 14 X 3 Y 13 X -5 Y 14 X -5 Y 14 X -2 Y 13 X 7 Y 14 X -7 Y 14
 X -4 Y 13 X 1 Y 14 X 4 Y 14 X -5 Y 13 X 2 Y 14 X -4 Y 14 X 3 Y 13 X 1 Y 14 X -11 Y 14 X -6 Y 13 X 13 Y 14 X -4 Y 41 X -8 Y 14 X 11 Y 13 X -8 Y 14 X -4 Y 14 X 2 Y 14 X 11 Y 13 X -10 Y 14 X 14 Y 14 X 9 Y 13 X 8 Y 14 X -70 Y 14 X -2 Y f 6 lw 0 0
 0.933333 c 0.49 0.6 0.82 c 0 0 0.933333 c 143 1075 m 14 X -231 Y 14 X -48 Y 14 X -6 Y 13 X -11 Y 14 X -14 Y 14 X -12 Y 13 X 4 Y 14 X -6 Y 14 X 3 Y 13 X -5 Y 14 X -5 Y 14 X -2 Y 13 X 7 Y 14 X -7 Y 14 X -4 Y 13 X 1 Y 14 X 4 Y 14 X -5 Y 13 X 2 Y 14 X
 -4 Y 14 X 3 Y 13 X 1 Y 14 X -11 Y 14 X -6 Y 13 X 13 Y 14 X -4 Y 41 X -8 Y 14 X 11 Y 13 X -8 Y 14 X -4 Y 14 X 2 Y 14 X 11 Y 13 X -10 Y 14 X 14 Y 14 X 9 Y 13 X 8 Y 14 X -70 Y 14 X s black 3 lw 143 685 m 548 X s 179 698 m -13 Y s 197 691 m -6 Y s 215
 691 m -6 Y s 232 691 m -6 Y s 250 698 m -13 Y s 268 691 m -6 Y s 286 691 m -6 Y s 304 691 m -6 Y s 321 698 m -13 Y s 339 691 m -6 Y s 357 691 m -6 Y s 375 691 m -6 Y s 393 698 m -13 Y s 410 691 m -6 Y s 428 691 m -6 Y s 446 691 m -6 Y s 464 698 m
 -13 Y s 482 691 m -6 Y s 499 691 m -6 Y s 517 691 m -6 Y s 535 698 m -13 Y s 553 691 m -6 Y s 570 691 m -6 Y s 588 691 m -6 Y s 606 698 m -13 Y s 624 691 m -6 Y s 642 691 m -6 Y s 659 691 m -6 Y s 677 698 m -13 Y s 179 698 m -13 Y s 161 691 m -6 Y s
 677 698 m -13 Y s
 gsave  710 567 23 603 C 167.663 656.444 t 0 r /Helvetica findfont 25.6631 sf 0 0 m (0.4) show NC gr 
 gsave  710 567 23 603 C 153.454 656.444 t 0 r /Symbol findfont 25.6631 sf 0 0 m (-) show NC gr 
 gsave  710 567 23 603 C 238.707 656.444 t 0 r /Helvetica findfont 25.6631 sf 0 0 m (0.2) show NC gr 
 gsave  710 567 23 603 C 224.498 656.444 t 0 r /Symbol findfont 25.6631 sf 0 0 m (-) show NC gr 
 gsave  710 567 23 603 C 312.592 656.444 t 0 r /Helvetica findfont 25.6631 sf 0 0 m (0) show NC gr 
 gsave  710 567 23 603 C 375.111 656.444 t 0 r /Helvetica findfont 25.6631 sf 0 0 m (0.2) show NC gr 
 gsave  710 567 23 603 C 446.155 656.444 t 0 r /Helvetica findfont 25.6631 sf 0 0 m (0.4) show NC gr 
 gsave  710 567 23 603 C 517.198 656.444 t 0 r /Helvetica findfont 25.6631 sf 0 0 m (0.6) show NC gr 
 gsave  710 567 23 603 C 588.242 656.444 t 0 r /Helvetica findfont 25.6631 sf 0 0 m (0.8) show NC gr 
 gsave  710 567 23 603 C 670.653 656.444 t 0 r /Helvetica findfont 25.6631 sf 0 0 m (1) show NC gr 
 gsave  710 567 23 603 C 579.717 613.818 t 0 r /Helvetica findfont 28.5146 sf 0 0 m (hh.H1_l2) show NC gr  143 1114 m 548 X s 179 1100 m 14 Y s 197 1107 m 7 Y s 215 1107 m 7 Y s 232 1107 m 7 Y s 250 1100 m 14 Y s 268 1107 m 7 Y s 286 1107 m 7 Y s 304
 1107 m 7 Y s 321 1100 m 14 Y s 339 1107 m 7 Y s 357 1107 m 7 Y s 375 1107 m 7 Y s 393 1100 m 14 Y s 410 1107 m 7 Y s 428 1107 m 7 Y s 446 1107 m 7 Y s 464 1100 m 14 Y s 482 1107 m 7 Y s 499 1107 m 7 Y s 517 1107 m 7 Y s 535 1100 m 14 Y s 553 1107 m
 7 Y s 570 1107 m 7 Y s 588 1107 m 7 Y s 606 1100 m 14 Y s 624 1107 m 7 Y s 642 1107 m 7 Y s 659 1107 m 7 Y s 677 1100 m 14 Y s 179 1100 m 14 Y s 161 1107 m 7 Y s 677 1100 m 14 Y s 143 685 m 429 Y s 160 685 m -17 X s 152 695 m -9 X s 152 706 m -9 X s
 152 716 m -9 X s 152 727 m -9 X s 160 737 m -17 X s 152 748 m -9 X s 152 758 m -9 X s 152 769 m -9 X s 152 779 m -9 X s 160 790 m -17 X s 152 800 m -9 X s 152 811 m -9 X s 152 821 m -9 X s 152 832 m -9 X s 160 842 m -17 X s 152 853 m -9 X s 152 863
 m -9 X s 152 874 m -9 X s 152 884 m -9 X s 160 895 m -17 X s 152 905 m -9 X s 152 916 m -9 X s 152 926 m -9 X s 152 937 m -9 X s 160 947 m -17 X s 152 958 m -9 X s 152 968 m -9 X s 152 979 m -9 X s 152 989 m -9 X s 160 1000 m -17 X s 152 1010 m -9 X
 s 152 1021 m -9 X s 152 1031 m -9 X s 152 1042 m -9 X s 160 1052 m -17 X s 152 1063 m -9 X s 152 1073 m -9 X s 152 1084 m -9 X s 152 1094 m -9 X s 160 1105 m -17 X s 160 1105 m -17 X s
 gsave  710 567 23 603 C 119.354 673.495 t 0 r /Helvetica findfont 25.6631 sf 0 0 m (0) show NC gr 
 gsave  710 567 23 603 C 99.4613 727.488 t 0 r /Helvetica findfont 25.6631 sf 0 0 m (0.5) show NC gr 
 gsave  710 567 23 603 C 122.195 778.64 t 0 r /Helvetica findfont 25.6631 sf 0 0 m (1) show NC gr 
 gsave  710 567 23 603 C 99.4613 832.633 t 0 r /Helvetica findfont 25.6631 sf 0 0 m (1.5) show NC gr 
 gsave  710 567 23 603 C 119.354 883.784 t 0 r /Helvetica findfont 25.6631 sf 0 0 m (2) show NC gr 
 gsave  710 567 23 603 C 99.4613 937.778 t 0 r /Helvetica findfont 25.6631 sf 0 0 m (2.5) show NC gr 
 gsave  710 567 23 603 C 119.354 988.929 t 0 r /Helvetica findfont 25.6631 sf 0 0 m (3) show NC gr 
 gsave  710 567 23 603 C 99.4613 1042.92 t 0 r /Helvetica findfont 25.6631 sf 0 0 m (3.5) show NC gr 
 gsave  710 567 23 603 C 119.354 1094.07 t 0 r /Helvetica findfont 25.6631 sf 0 0 m (4) show NC gr 
 gsave  710 567 23 603 C 45.468 1023.03 t 90 r /Helvetica findfont 28.5146 sf 0 0 m (0.0384 ) show NC gr 
 gsave  710 567 23 603 C 31.2593 1020.19 t 90 r /Helvetica findfont 19.9602 sf 0 0 m ( ) show NC gr 
 gsave  710 567 23 603 C 45.468 1008.82 t 90 r /Helvetica findfont 28.5146 sf 0 0 m (/) show NC gr 
 gsave  710 567 23 603 C 53.9933 1005.98 t 90 r /Helvetica findfont 19.9602 sf 0 0 m ( ) show NC gr 
 gsave  710 567 23 603 C 45.468 900.835 t 90 r /Helvetica findfont 28.5146 sf 0 0 m (\(1/N\) dN) show NC gr  691 685 m 429 Y s 674 685 m 17 X s 683 695 m 8 X s 683 706 m 8 X s 683 716 m 8 X s 683 727 m 8 X s 674 737 m 17 X s 683 748 m 8 X s 683 758 m
 8 X s 683 769 m 8 X s 683 779 m 8 X s 674 790 m 17 X s 683 800 m 8 X s 683 811 m 8 X s 683 821 m 8 X s 683 832 m 8 X s 674 842 m 17 X s 683 853 m 8 X s 683 863 m 8 X s 683 874 m 8 X s 683 884 m 8 X s 674 895 m 17 X s 683 905 m 8 X s 683 916 m 8 X s
 683 926 m 8 X s 683 937 m 8 X s 674 947 m 17 X s 683 958 m 8 X s 683 968 m 8 X s 683 979 m 8 X s 683 989 m 8 X s 674 1000 m 17 X s 683 1010 m 8 X s 683 1021 m 8 X s 683 1031 m 8 X s 683 1042 m 8 X s 674 1052 m 17 X s 683 1063 m 8 X s 683 1073 m 8 X
 s 683 1084 m 8 X s 683 1094 m 8 X s 674 1105 m 17 X s 674 1105 m 17 X s 0.490196 0.545098 0.615686 c 0.364706 0.419608 0.490196 c 335 38 30 1130 bf 0.490196 0.545098 0.615686 c 30 1130 m 335 X s 365 1130 m 38 Y s 365 1168 m -335 X s 30 1168 m -38 Y
 s 1 1 1 c black 1 1 1 c
 gsave  710 567 23 603 C 34.101 1142.38 t 0 r /Helvetica-Bold findfont 28.5146 sf 0 0 m (Input variable: hh.H1_l2) show NC gr  1 0 0 c 6 lw black 3 lw 1 0 0 c 682 690 m -5 -5 d s 677 700 m -15 -15 d s 677 715 m -31 -30 d s 677 731 m -46 -46 d s 677
 746 m -61 -61 d s 677 761 m -76 -76 d s 677 776 m -91 -91 d s 677 791 m -106 -106 d s 677 806 m -14 -13 d s 650 779 m -14 -14 d s 635 764 m -79 -79 d s 672 816 m -9 -8 d s 642 787 m -6 -7 d s 619 763 m -78 -78 d s 609 768 m -83 -83 d s 597 772 m -2
 -3 d s 582 757 m -1 -1 d s 567 742 m -56 -57 d s 567 757 m -71 -72 d s 551 756 m -70 -71 d s 533 753 m -7 -7 d s 520 740 m -54 -55 d s 508 743 m -58 -58 d s 493 742 m -8 -7 d s 483 733 m -48 -48 d s 472 736 m -52 -51 d s 462 741 m -4 -3 d s 455 735
 m -50 -50 d s 437 732 m -47 -47 d s 430 739 m -55 -54 d s 405 729 m -45 -44 d s 391 731 m -1 -1 d s 386 725 m -41 -40 d s 376 731 m -46 -46 d s 367 737 m -5 -5 d s 354 724 m -39 -39 d s 349 734 m -49 -49 d s 342 743 m -7 -8 d s 328 728 m -43 -43 d s
 320 735 m -50 -50 d s 308 738 m -53 -53 d s 294 740 m -55 -55 d s 281 741 m -14 -14 d s 264 724 m -40 -39 d s 269 745 m -2 -3 d s 253 729 m -44 -44 d s 253 744 m -59 -59 d s 241 746 m -2 -1 d s 235 741 m -56 -56 d s 219 740 m -55 -55 d s 212 748 m
 -63 -63 d s 198 749 m -55 -55 d s 198 764 m -55 -55 d s 185 766 m -42 -41 d s 184 780 m -41 -40 d s 166 778 m -23 -23 d s 157 784 m -14 -14 d s 157 799 m -14 -14 d s 157 814 m -14 -14 d s 157 829 m -14 -13 d s 157 845 m -14 -14 d s 157 860 m -14 -14
 d s 157 875 m -14 -14 d s 157 890 m -14 -14 d s 157 905 m -14 -13 d s 157 921 m -14 -14 d s 157 936 m -14 -14 d s 157 951 m -14 -14 d s 157 966 m -14 -14 d s 149 973 m -6 -6 d s 6 lw 143 973 m 14 X -195 Y 14 X 2 Y 14 X -16 Y 13 X -15 Y 14 X -9 Y 14
 X 1 Y 13 X 5 Y 14 X -22 Y 14 X 21 Y 13 X -4 Y 14 X -1 Y 14 X -5 Y 13 X -7 Y 14 X 15 Y 14 X -19 Y 13 X 13 Y 14 X -12 Y 14 X 6 Y 13 X -2 Y 14 X 10 Y 14 X -7 Y 13 X 3 Y 14 X 6 Y 14 X -8 Y 13 X 9 Y 14 X 1 Y 14 X -3 Y 13 X 13 Y 14 X 3 Y 14 X 1 Y 13 X -15
 Y 14 X 15 Y 14 X 15 Y 14 X -9 Y 13 X 1 Y 14 X 23 Y 14 X -8 Y 13 X 37 Y 14 X -126 Y 14 X s black 3 lw 143 685 m 548 X s 179 698 m -13 Y s 197 691 m -6 Y s 215 691 m -6 Y s 232 691 m -6 Y s 250 698 m -13 Y s 268 691 m -6 Y s 286 691 m -6 Y s 304 691 m
 -6 Y s 321 698 m -13 Y s 339 691 m -6 Y s 357 691 m -6 Y s 375 691 m -6 Y s 393 698 m -13 Y s 410 691 m -6 Y s 428 691 m -6 Y s 446 691 m -6 Y s 464 698 m -13 Y s 482 691 m -6 Y s 499 691 m -6 Y s 517 691 m -6 Y s 535 698 m -13 Y s 553 691 m -6 Y s
 570 691 m -6 Y s 588 691 m -6 Y s 606 698 m -13 Y s 624 691 m -6 Y s 642 691 m -6 Y s 659 691 m -6 Y s 677 698 m -13 Y s 179 698 m -13 Y s 161 691 m -6 Y s 677 698 m -13 Y s 143 1114 m 548 X s 179 1100 m 14 Y s 197 1107 m 7 Y s 215 1107 m 7 Y s 232
 1107 m 7 Y s 250 1100 m 14 Y s 268 1107 m 7 Y s 286 1107 m 7 Y s 304 1107 m 7 Y s 321 1100 m 14 Y s 339 1107 m 7 Y s 357 1107 m 7 Y s 375 1107 m 7 Y s 393 1100 m 14 Y s 410 1107 m 7 Y s 428 1107 m 7 Y s 446 1107 m 7 Y s 464 1100 m 14 Y s 482 1107 m
 7 Y s 499 1107 m 7 Y s 517 1107 m 7 Y s 535 1100 m 14 Y s 553 1107 m 7 Y s 570 1107 m 7 Y s 588 1107 m 7 Y s 606 1100 m 14 Y s 624 1107 m 7 Y s 642 1107 m 7 Y s 659 1107 m 7 Y s 677 1100 m 14 Y s 179 1100 m 14 Y s 161 1107 m 7 Y s 677 1100 m 14 Y s
 143 685 m 429 Y s 160 685 m -17 X s 152 695 m -9 X s 152 706 m -9 X s 152 716 m -9 X s 152 727 m -9 X s 160 737 m -17 X s 152 748 m -9 X s 152 758 m -9 X s 152 769 m -9 X s 152 779 m -9 X s 160 790 m -17 X s 152 800 m -9 X s 152 811 m -9 X s 152 821
 m -9 X s 152 832 m -9 X s 160 842 m -17 X s 152 853 m -9 X s 152 863 m -9 X s 152 874 m -9 X s 152 884 m -9 X s 160 895 m -17 X s 152 905 m -9 X s 152 916 m -9 X s 152 926 m -9 X s 152 937 m -9 X s 160 947 m -17 X s 152 958 m -9 X s 152 968 m -9 X s
 152 979 m -9 X s 152 989 m -9 X s 160 1000 m -17 X s 152 1010 m -9 X s 152 1021 m -9 X s 152 1031 m -9 X s 152 1042 m -9 X s 160 1052 m -17 X s 152 1063 m -9 X s 152 1073 m -9 X s 152 1084 m -9 X s 152 1094 m -9 X s 160 1105 m -17 X s 160 1105 m -17
 X s 691 685 m 429 Y s 674 685 m 17 X s 683 695 m 8 X s 683 706 m 8 X s 683 716 m 8 X s 683 727 m 8 X s 674 737 m 17 X s 683 748 m 8 X s 683 758 m 8 X s 683 769 m 8 X s 683 779 m 8 X s 674 790 m 17 X s 683 800 m 8 X s 683 811 m 8 X s 683 821 m 8 X s
 683 832 m 8 X s 674 842 m 17 X s 683 853 m 8 X s 683 863 m 8 X s 683 874 m 8 X s 683 884 m 8 X s 674 895 m 17 X s 683 905 m 8 X s 683 916 m 8 X s 683 926 m 8 X s 683 937 m 8 X s 674 947 m 17 X s 683 958 m 8 X s 683 968 m 8 X s 683 979 m 8 X s 683
 989 m 8 X s 674 1000 m 17 X s 683 1010 m 8 X s 683 1021 m 8 X s 683 1031 m 8 X s 683 1042 m 8 X s 674 1052 m 17 X s 683 1063 m 8 X s 683 1073 m 8 X s 683 1084 m 8 X s 683 1094 m 8 X s 674 1105 m 17 X s 674 1105 m 17 X s
 gsave  710 567 23 603 C 719.017 682.347 t 90 r /Helvetica-Bold findfont 19.9602 sf 0 0 m (U/O\255flow \(S,B\): \(0.0, 0.0\)% / \(0.0, 0.0\)%) show NC gr  0.490196 0.545098 0.615686 c 0.364706 0.419608 0.490196 c 335 38 30 1130 bf 0.490196 0.545098
 0.615686 c 30 1130 m 335 X s 365 1130 m 38 Y s 365 1168 m -335 X s 30 1168 m -38 Y s 1 1 1 c black 1 1 1 c
 gsave  710 567 23 603 C 34.101 1142.38 t 0 r /Helvetica-Bold findfont 28.5146 sf 0 0 m (Input variable: hh.H1_l2) show NC gr  0.490196 0.545098 0.615686 c 0.941176 0.941176 0.941176 c 710 567 779 603 bf black 1 1 0.992157 c 548 429 899 685 bf black
 548 429 899 685 bl 0 0 0.933333 c 6 lw 0.49 0.6 0.82 c black 3 lw 0.49 0.6 0.82 c 899 685 m 390 Y 14 X -150 Y 14 X -73 Y 13 X -27 Y 14 X -4 Y 14 X -14 Y 13 X -33 Y 14 X 16 Y 14 X -15 Y 13 X 5 Y 14 X -5 Y 14 X -10 Y 27 X 5 Y 14 X -5 Y 14 X -6 Y 13 X
 -3 Y 14 X 10 Y 14 X -14 Y 13 X 12 Y 14 X -10 Y 14 X 3 Y 27 X -10 Y 14 X -11 Y 13 X 18 Y 14 X -10 Y 14 X 8 Y 13 X 5 Y 14 X -23 Y 14 X 7 Y 13 X -10 Y 14 X 12 Y 14 X -6 Y 13 X 21 Y 14 X -21 Y 14 X 16 Y 13 X 8 Y 14 X -4 Y 14 X -71 Y 14 X -1 Y f 6 lw 0 0
 0.933333 c 0.49 0.6 0.82 c 0 0 0.933333 c 899 1075 m 14 X -150 Y 14 X -73 Y 13 X -27 Y 14 X -4 Y 14 X -14 Y 13 X -33 Y 14 X 16 Y 14 X -15 Y 13 X 5 Y 14 X -5 Y 14 X -10 Y 27 X 5 Y 14 X -5 Y 14 X -6 Y 13 X -3 Y 14 X 10 Y 14 X -14 Y 13 X 12 Y 14 X -10
 Y 14 X 3 Y 27 X -10 Y 14 X -11 Y 13 X 18 Y 14 X -10 Y 14 X 8 Y 13 X 5 Y 14 X -23 Y 14 X 7 Y 13 X -10 Y 14 X 12 Y 14 X -6 Y 13 X 21 Y 14 X -21 Y 14 X 16 Y 13 X 8 Y 14 X -4 Y 14 X -71 Y 14 X s black 3 lw 899 685 m 548 X s 935 698 m -13 Y s 949 691 m
 -6 Y s 963 691 m -6 Y s 978 691 m -6 Y s 992 691 m -6 Y s 1006 698 m -13 Y s 1020 691 m -6 Y s 1035 691 m -6 Y s 1049 691 m -6 Y s 1063 691 m -6 Y s 1077 698 m -13 Y s 1092 691 m -6 Y s 1106 691 m -6 Y s 1120 691 m -6 Y s 1134 691 m -6 Y s 1148 698
 m -13 Y s 1163 691 m -6 Y s 1177 691 m -6 Y s 1191 691 m -6 Y s 1205 691 m -6 Y s 1220 698 m -13 Y s 1234 691 m -6 Y s 1248 691 m -6 Y s 1262 691 m -6 Y s 1277 691 m -6 Y s 1291 698 m -13 Y s 1305 691 m -6 Y s 1319 691 m -6 Y s 1334 691 m -6 Y s
 1348 691 m -6 Y s 1362 698 m -13 Y s 1376 691 m -6 Y s 1390 691 m -6 Y s 1405 691 m -6 Y s 1419 691 m -6 Y s 1433 698 m -13 Y s 935 698 m -13 Y s 921 691 m -6 Y s 906 691 m -6 Y s 1433 698 m -13 Y s
 gsave  710 567 779 603 C 923.569 656.444 t 0 r /Helvetica findfont 25.6631 sf 0 0 m (0.1) show NC gr 
 gsave  710 567 779 603 C 912.202 656.444 t 0 r /Symbol findfont 25.6631 sf 0 0 m (-) show NC gr 
 gsave  710 567 779 603 C 986.087 656.444 t 0 r /Helvetica findfont 25.6631 sf 0 0 m (0.05) show NC gr 
 gsave  710 567 779 603 C 974.72 656.444 t 0 r /Symbol findfont 25.6631 sf 0 0 m (-) show NC gr 
 gsave  710 567 779 603 C 1068.5 656.444 t 0 r /Helvetica findfont 25.6631 sf 0 0 m (0) show NC gr 
 gsave  710 567 779 603 C 1122.49 656.444 t 0 r /Helvetica findfont 25.6631 sf 0 0 m (0.05) show NC gr 
 gsave  710 567 779 603 C 1202.06 656.444 t 0 r /Helvetica findfont 25.6631 sf 0 0 m (0.1) show NC gr 
 gsave  710 567 779 603 C 1264.58 656.444 t 0 r /Helvetica findfont 25.6631 sf 0 0 m (0.15) show NC gr 
 gsave  710 567 779 603 C 1344.15 656.444 t 0 r /Helvetica findfont 25.6631 sf 0 0 m (0.2) show NC gr 
 gsave  710 567 779 603 C 1406.67 656.444 t 0 r /Helvetica findfont 25.6631 sf 0 0 m (0.25) show NC gr 
 gsave  710 567 779 603 C 1332.78 613.818 t 0 r /Helvetica findfont 28.5146 sf 0 0 m (hh.HT_l2) show NC gr  899 1114 m 548 X s 935 1100 m 14 Y s 949 1107 m 7 Y s 963 1107 m 7 Y s 978 1107 m 7 Y s 992 1107 m 7 Y s 1006 1100 m 14 Y s 1020 1107 m 7 Y s
 1035 1107 m 7 Y s 1049 1107 m 7 Y s 1063 1107 m 7 Y s 1077 1100 m 14 Y s 1092 1107 m 7 Y s 1106 1107 m 7 Y s 1120 1107 m 7 Y s 1134 1107 m 7 Y s 1148 1100 m 14 Y s 1163 1107 m 7 Y s 1177 1107 m 7 Y s 1191 1107 m 7 Y s 1205 1107 m 7 Y s 1220 1100 m
 14 Y s 1234 1107 m 7 Y s 1248 1107 m 7 Y s 1262 1107 m 7 Y s 1277 1107 m 7 Y s 1291 1100 m 14 Y s 1305 1107 m 7 Y s 1319 1107 m 7 Y s 1334 1107 m 7 Y s 1348 1107 m 7 Y s 1362 1100 m 14 Y s 1376 1107 m 7 Y s 1390 1107 m 7 Y s 1405 1107 m 7 Y s 1419
 1107 m 7 Y s 1433 1100 m 14 Y s 935 1100 m 14 Y s 921 1107 m 7 Y s 906 1107 m 7 Y s 1433 1100 m 14 Y s 899 685 m 429 Y s 915 685 m -16 X s 907 702 m -8 X s 907 719 m -8 X s 907 736 m -8 X s 915 753 m -16 X s 907 770 m -8 X s 907 788 m -8 X s 907 805
 m -8 X s 915 822 m -16 X s 907 839 m -8 X s 907 856 m -8 X s 907 873 m -8 X s 915 890 m -16 X s 907 908 m -8 X s 907 925 m -8 X s 907 942 m -8 X s 915 959 m -16 X s 907 976 m -8 X s 907 993 m -8 X s 907 1011 m -8 X s 915 1028 m -16 X s 907 1045 m -8
 X s 907 1062 m -8 X s 907 1079 m -8 X s 915 1096 m -16 X s 915 1096 m -16 X s 907 1114 m -8 X s
 gsave  710 567 779 603 C 875.259 673.495 t 0 r /Helvetica findfont 25.6631 sf 0 0 m (0) show NC gr 
 gsave  710 567 779 603 C 875.259 744.539 t 0 r /Helvetica findfont 25.6631 sf 0 0 m (2) show NC gr 
 gsave  710 567 779 603 C 875.259 812.741 t 0 r /Helvetica findfont 25.6631 sf 0 0 m (4) show NC gr 
 gsave  710 567 779 603 C 875.259 880.943 t 0 r /Helvetica findfont 25.6631 sf 0 0 m (6) show NC gr 
 gsave  710 567 779 603 C 875.259 949.145 t 0 r /Helvetica findfont 25.6631 sf 0 0 m (8) show NC gr 
 gsave  710 567 779 603 C 861.05 1017.35 t 0 r /Helvetica findfont 25.6631 sf 0 0 m (10) show NC gr 
 gsave  710 567 779 603 C 861.05 1085.55 t 0 r /Helvetica findfont 25.6631 sf 0 0 m (12) show NC gr 
 gsave  710 567 779 603 C 801.374 1011.66 t 90 r /Helvetica findfont 28.5146 sf 0 0 m (0.00961 ) show NC gr 
 gsave  710 567 779 603 C 787.165 1008.82 t 90 r /Helvetica findfont 19.9602 sf 0 0 m ( ) show NC gr 
 gsave  710 567 779 603 C 801.374 997.454 t 90 r /Helvetica findfont 28.5146 sf 0 0 m (/) show NC gr 
 gsave  710 567 779 603 C 809.899 994.613 t 90 r /Helvetica findfont 19.9602 sf 0 0 m ( ) show NC gr 
 gsave  710 567 779 603 C 801.374 889.468 t 90 r /Helvetica findfont 28.5146 sf 0 0 m (\(1/N\) dN) show NC gr  1447 685 m 429 Y s 1430 685 m 17 X s 1438 702 m 9 X s 1438 719 m 9 X s 1438 736 m 9 X s 1430 753 m 17 X s 1438 770 m 9 X s 1438 788 m 9 X s
 1438 805 m 9 X s 1430 822 m 17 X s 1438 839 m 9 X s 1438 856 m 9 X s 1438 873 m 9 X s 1430 890 m 17 X s 1438 908 m 9 X s 1438 925 m 9 X s 1438 942 m 9 X s 1430 959 m 17 X s 1438 976 m 9 X s 1438 993 m 9 X s 1438 1011 m 9 X s 1430 1028 m 17 X s 1438
 1045 m 9 X s 1438 1062 m 9 X s 1438 1079 m 9 X s 1430 1096 m 17 X s 1430 1096 m 17 X s 1438 1114 m 9 X s 0.490196 0.545098 0.615686 c 0.364706 0.419608 0.490196 c 338 38 786 1130 bf 0.490196 0.545098 0.615686 c 786 1130 m 338 X s 1124 1130 m 38 Y s
 1124 1168 m -338 X s 786 1168 m -38 Y s 1 1 1 c black 1 1 1 c
 gsave  710 567 779 603 C 790.007 1142.38 t 0 r /Helvetica-Bold findfont 28.5146 sf 0 0 m (Input variable: hh.HT_l2) show NC gr  1 0 0 c 6 lw black 3 lw 1 0 0 c 1433 685 m -1 X s 1433 700 m -16 -15 d s 1433 715 m -31 -30 d s 1433 731 m -46 -46 d s
 1430 743 m -58 -58 d s 1419 747 m -62 -62 d s 1410 753 m -68 -68 d s 1405 764 m -78 -79 d s 1396 770 m -84 -85 d s 1378 767 m -81 -82 d s 1366 770 m -84 -85 d s 1364 783 m -97 -98 d s 1357 791 m -105 -106 d s 1337 786 m s 1323 772 m -86 -87 d s 1323
 787 m -102 -102 d s 1310 789 m s 1303 782 m -97 -97 d s 1286 780 m -4 -4 d s 1274 768 m -83 -83 d s 1269 778 m -93 -93 d s 1260 784 m -19 -19 d s 1241 765 m -80 -80 d s 1242 781 m -1 X s 1225 764 m -79 -79 d s 1214 768 m -83 -83 d s 1202 771 m -2 -1
 d s 1191 760 m -75 -75 d s 1177 762 m -76 -77 d s 1173 772 m -14 -13 d s 1157 757 m -71 -72 d s 1165 779 m -6 -5 d s 1134 749 m -63 -64 d s 1132 761 m -76 -76 d s 1127 771 m -9 -8 d s 1105 749 m -64 -64 d s 1105 764 m -79 -79 d s 1099 773 m -8 -7 d
 s 1081 756 m -71 -71 d s 1077 767 m -82 -82 d s 1064 769 m -1 Y s 1061 766 m -81 -81 d s 1050 770 m -85 -85 d s 1041 776 m -5 -5 d s 1034 769 m -12 -12 d s 1017 752 m -67 -67 d s 1009 759 m -74 -74 d s 1009 774 m -89 -89 d s 991 771 m -86 -86 d s
 981 777 m -82 -83 d s 974 784 m -75 -75 d s 963 788 m -64 -63 d s 954 795 m -55 -55 d s 954 809 m -55 -54 d s 936 807 m -37 -37 d s 920 806 m -21 -21 d s 913 814 m -14 -14 d s 913 829 m -14 -13 d s 913 845 m -14 -14 d s 913 860 m -14 -14 d s 913 875
 m -14 -14 d s 913 890 m -14 -14 d s 913 905 m -14 -13 d s 900 908 m -1 -1 d s 6 lw 899 908 m 14 X -102 Y 14 X 1 Y 13 X 2 Y 14 X -21 Y 14 X -4 Y 13 X -13 Y 14 X 4 Y 14 X -23 Y 13 X 17 Y 14 X 7 Y 14 X -10 Y 14 X 3 Y 13 X -13 Y 14 X 17 Y 14 X -25 Y 13
 X 23 Y 14 X -22 Y 14 X 8 Y 13 X 22 Y 14 X -17 Y 14 X -2 Y 13 X 11 Y 14 X -7 Y 14 X 1 Y 13 X 16 Y 14 X 3 Y 14 X -16 Y 13 X 12 Y 14 X 2 Y 14 X 7 Y 13 X -17 Y 14 X 14 Y 14 X 5 Y 13 X -21 Y 14 X -3 Y 14 X 3 Y 13 X -17 Y 14 X -10 Y 14 X -58 Y 14 X s
 black 3 lw 899 685 m 548 X s 935 698 m -13 Y s 949 691 m -6 Y s 963 691 m -6 Y s 978 691 m -6 Y s 992 691 m -6 Y s 1006 698 m -13 Y s 1020 691 m -6 Y s 1035 691 m -6 Y s 1049 691 m -6 Y s 1063 691 m -6 Y s 1077 698 m -13 Y s 1092 691 m -6 Y s 1106
 691 m -6 Y s 1120 691 m -6 Y s 1134 691 m -6 Y s 1148 698 m -13 Y s 1163 691 m -6 Y s 1177 691 m -6 Y s 1191 691 m -6 Y s 1205 691 m -6 Y s 1220 698 m -13 Y s 1234 691 m -6 Y s 1248 691 m -6 Y s 1262 691 m -6 Y s 1277 691 m -6 Y s 1291 698 m -13 Y s
 1305 691 m -6 Y s 1319 691 m -6 Y s 1334 691 m -6 Y s 1348 691 m -6 Y s 1362 698 m -13 Y s 1376 691 m -6 Y s 1390 691 m -6 Y s 1405 691 m -6 Y s 1419 691 m -6 Y s 1433 698 m -13 Y s 935 698 m -13 Y s 921 691 m -6 Y s 906 691 m -6 Y s 1433 698 m -13
 Y s 899 1114 m 548 X s 935 1100 m 14 Y s 949 1107 m 7 Y s 963 1107 m 7 Y s 978 1107 m 7 Y s 992 1107 m 7 Y s 1006 1100 m 14 Y s 1020 1107 m 7 Y s 1035 1107 m 7 Y s 1049 1107 m 7 Y s 1063 1107 m 7 Y s 1077 1100 m 14 Y s 1092 1107 m 7 Y s 1106 1107 m
 7 Y s 1120 1107 m 7 Y s 1134 1107 m 7 Y s 1148 1100 m 14 Y s 1163 1107 m 7 Y s 1177 1107 m 7 Y s 1191 1107 m 7 Y s 1205 1107 m 7 Y s 1220 1100 m 14 Y s 1234 1107 m 7 Y s 1248 1107 m 7 Y s 1262 1107 m 7 Y s 1277 1107 m 7 Y s 1291 1100 m 14 Y s 1305
 1107 m 7 Y s 1319 1107 m 7 Y s 1334 1107 m 7 Y s 1348 1107 m 7 Y s 1362 1100 m 14 Y s 1376 1107 m 7 Y s 1390 1107 m 7 Y s 1405 1107 m 7 Y s 1419 1107 m 7 Y s 1433 1100 m 14 Y s 935 1100 m 14 Y s 921 1107 m 7 Y s 906 1107 m 7 Y s 1433 1100 m 14 Y s
 899 685 m 429 Y s 915 685 m -16 X s 907 702 m -8 X s 907 719 m -8 X s 907 736 m -8 X s 915 753 m -16 X s 907 770 m -8 X s 907 788 m -8 X s 907 805 m -8 X s 915 822 m -16 X s 907 839 m -8 X s 907 856 m -8 X s 907 873 m -8 X s 915 890 m -16 X s 907
 908 m -8 X s 907 925 m -8 X s 907 942 m -8 X s 915 959 m -16 X s 907 976 m -8 X s 907 993 m -8 X s 907 1011 m -8 X s 915 1028 m -16 X s 907 1045 m -8 X s 907 1062 m -8 X s 907 1079 m -8 X s 915 1096 m -16 X s 915 1096 m -16 X s 907 1114 m -8 X s
 1447 685 m 429 Y s 1430 685 m 17 X s 1438 702 m 9 X s 1438 719 m 9 X s 1438 736 m 9 X s 1430 753 m 17 X s 1438 770 m 9 X s 1438 788 m 9 X s 1438 805 m 9 X s 1430 822 m 17 X s 1438 839 m 9 X s 1438 856 m 9 X s 1438 873 m 9 X s 1430 890 m 17 X s 1438
 908 m 9 X s 1438 925 m 9 X s 1438 942 m 9 X s 1430 959 m 17 X s 1438 976 m 9 X s 1438 993 m 9 X s 1438 1011 m 9 X s 1430 1028 m 17 X s 1438 1045 m 9 X s 1438 1062 m 9 X s 1438 1079 m 9 X s 1430 1096 m 17 X s 1430 1096 m 17 X s 1438 1114 m 9 X s
 gsave  710 567 779 603 C 1474.92 682.347 t 90 r /Helvetica-Bold findfont 19.9602 sf 0 0 m (U/O\255flow \(S,B\): \(0.0, 0.0\)% / \(0.0, 0.0\)%) show NC gr  0.490196 0.545098 0.615686 c 0.364706 0.419608 0.490196 c 338 38 786 1130 bf 0.490196 0.545098
 0.615686 c 786 1130 m 338 X s 1124 1130 m 38 Y s 1124 1168 m -338 X s 786 1168 m -38 Y s 1 1 1 c black 1 1 1 c
 gsave  710 567 779 603 C 790.007 1142.38 t 0 r /Helvetica-Bold findfont 28.5146 sf 0 0 m (Input variable: hh.HT_l2) show NC gr  0.490196 0.545098 0.615686 c 0.941176 0.941176 0.941176 c 711 567 1534 603 bf black 1 1 0.992157 c 547 429 1655 685 bf
 black 547 429 1655 685 bl 0 0 0.933333 c 6 lw 0.49 0.6 0.82 c black 3 lw 0.49 0.6 0.82 c 1655 685 m 390 Y 14 X -34 Y 14 X -43 Y 13 X -89 Y 14 X 30 Y 14 X -57 Y 13 X -9 Y 14 X -46 Y 14 X 17 Y 13 X -2 Y 14 X -12 Y 14 X -13 Y 13 X -6 Y 14 X 12 Y 14 X
 -12 Y 13 X -11 Y 14 X -1 Y 14 X 9 Y 13 X -4 Y 14 X -5 Y 14 X -18 Y 14 X 20 Y 13 X -25 Y 14 X 10 Y 14 X -7 Y 13 X 5 Y 14 X -15 Y 14 X 14 Y 27 X -20 Y 14 X 13 Y 13 X -22 Y 14 X 17 Y 27 X 16 Y 14 X -20 Y 14 X 11 Y 13 X 25 Y 14 X -7 Y 14 X -109 Y 13 X
 -2 Y f 6 lw 0 0 0.933333 c 0.49 0.6 0.82 c 0 0 0.933333 c 1655 1075 m 14 X -34 Y 14 X -43 Y 13 X -89 Y 14 X 30 Y 14 X -57 Y 13 X -9 Y 14 X -46 Y 14 X 17 Y 13 X -2 Y 14 X -12 Y 14 X -13 Y 13 X -6 Y 14 X 12 Y 14 X -12 Y 13 X -11 Y 14 X -1 Y 14 X 9 Y
 13 X -4 Y 14 X -5 Y 14 X -18 Y 14 X 20 Y 13 X -25 Y 14 X 10 Y 14 X -7 Y 13 X 5 Y 14 X -15 Y 14 X 14 Y 27 X -20 Y 14 X 13 Y 13 X -22 Y 14 X 17 Y 27 X 16 Y 14 X -20 Y 14 X 11 Y 13 X 25 Y 14 X -7 Y 14 X -109 Y 13 X -2 Y s black 3 lw 1655 685 m 547 X s
 1691 698 m -13 Y s 1705 691 m -6 Y s 1719 691 m -6 Y s 1734 691 m -6 Y s 1748 691 m -6 Y s 1762 698 m -13 Y s 1776 691 m -6 Y s 1791 691 m -6 Y s 1805 691 m -6 Y s 1819 691 m -6 Y s 1833 698 m -13 Y s 1847 691 m -6 Y s 1862 691 m -6 Y s 1876 691 m
 -6 Y s 1890 691 m -6 Y s 1904 698 m -13 Y s 1919 691 m -6 Y s 1933 691 m -6 Y s 1947 691 m -6 Y s 1961 691 m -6 Y s 1976 698 m -13 Y s 1990 691 m -6 Y s 2004 691 m -6 Y s 2018 691 m -6 Y s 2033 691 m -6 Y s 2047 698 m -13 Y s 2061 691 m -6 Y s 2075
 691 m -6 Y s 2089 691 m -6 Y s 2104 691 m -6 Y s 2118 698 m -13 Y s 2132 691 m -6 Y s 2146 691 m -6 Y s 2161 691 m -6 Y s 2175 691 m -6 Y s 2189 698 m -13 Y s 1691 698 m -13 Y s 1677 691 m -6 Y s 1662 691 m -6 Y s 2189 698 m -13 Y s
 gsave  711 567 1534 603 C 1679.47 656.444 t 0 r /Helvetica findfont 25.6631 sf 0 0 m (0.1) show NC gr 
 gsave  711 567 1534 603 C 1668.11 656.444 t 0 r /Symbol findfont 25.6631 sf 0 0 m (-) show NC gr 
 gsave  711 567 1534 603 C 1741.99 656.444 t 0 r /Helvetica findfont 25.6631 sf 0 0 m (0.05) show NC gr 
 gsave  711 567 1534 603 C 1730.63 656.444 t 0 r /Symbol findfont 25.6631 sf 0 0 m (-) show NC gr 
 gsave  711 567 1534 603 C 1824.4 656.444 t 0 r /Helvetica findfont 25.6631 sf 0 0 m (0) show NC gr 
 gsave  711 567 1534 603 C 1878.4 656.444 t 0 r /Helvetica findfont 25.6631 sf 0 0 m (0.05) show NC gr 
 gsave  711 567 1534 603 C 1957.97 656.444 t 0 r /Helvetica findfont 25.6631 sf 0 0 m (0.1) show NC gr 
 gsave  711 567 1534 603 C 2020.48 656.444 t 0 r /Helvetica findfont 25.6631 sf 0 0 m (0.15) show NC gr 
 gsave  711 567 1534 603 C 2100.05 656.444 t 0 r /Helvetica findfont 25.6631 sf 0 0 m (0.2) show NC gr 
 gsave  711 567 1534 603 C 2162.57 656.444 t 0 r /Helvetica findfont 25.6631 sf 0 0 m (0.25) show NC gr 
 gsave  711 567 1534 603 C 2088.69 613.818 t 0 r /Helvetica findfont 28.5146 sf 0 0 m (hh.HP_l2) show NC gr  1655 1114 m 547 X s 1691 1100 m 14 Y s 1705 1107 m 7 Y s 1719 1107 m 7 Y s 1734 1107 m 7 Y s 1748 1107 m 7 Y s 1762 1100 m 14 Y s 1776 1107 m
 7 Y s 1791 1107 m 7 Y s 1805 1107 m 7 Y s 1819 1107 m 7 Y s 1833 1100 m 14 Y s 1847 1107 m 7 Y s 1862 1107 m 7 Y s 1876 1107 m 7 Y s 1890 1107 m 7 Y s 1904 1100 m 14 Y s 1919 1107 m 7 Y s 1933 1107 m 7 Y s 1947 1107 m 7 Y s 1961 1107 m 7 Y s 1976
 1100 m 14 Y s 1990 1107 m 7 Y s 2004 1107 m 7 Y s 2018 1107 m 7 Y s 2033 1107 m 7 Y s 2047 1100 m 14 Y s 2061 1107 m 7 Y s 2075 1107 m 7 Y s 2089 1107 m 7 Y s 2104 1107 m 7 Y s 2118 1100 m 14 Y s 2132 1107 m 7 Y s 2146 1107 m 7 Y s 2161 1107 m 7 Y s
 2175 1107 m 7 Y s 2189 1100 m 14 Y s 1691 1100 m 14 Y s 1677 1107 m 7 Y s 1662 1107 m 7 Y s 2189 1100 m 14 Y s 1655 685 m 429 Y s 1671 685 m -16 X s 1663 695 m -8 X s 1663 706 m -8 X s 1663 716 m -8 X s 1663 726 m -8 X s 1671 737 m -16 X s 1663 747
 m -8 X s 1663 758 m -8 X s 1663 768 m -8 X s 1663 779 m -8 X s 1671 789 m -16 X s 1663 800 m -8 X s 1663 810 m -8 X s 1663 821 m -8 X s 1663 831 m -8 X s 1671 842 m -16 X s 1663 852 m -8 X s 1663 862 m -8 X s 1663 873 m -8 X s 1663 883 m -8 X s 1671
 894 m -16 X s 1663 904 m -8 X s 1663 915 m -8 X s 1663 925 m -8 X s 1663 936 m -8 X s 1671 946 m -16 X s 1663 957 m -8 X s 1663 967 m -8 X s 1663 978 m -8 X s 1663 988 m -8 X s 1671 999 m -16 X s 1663 1009 m -8 X s 1663 1019 m -8 X s 1663 1030 m -8
 X s 1663 1040 m -8 X s 1671 1051 m -16 X s 1663 1061 m -8 X s 1663 1072 m -8 X s 1663 1082 m -8 X s 1663 1093 m -8 X s 1671 1103 m -16 X s 1671 1103 m -16 X s
 gsave  711 567 1534 603 C 1631.16 673.495 t 0 r /Helvetica findfont 25.6631 sf 0 0 m (0) show NC gr 
 gsave  711 567 1534 603 C 1634.01 727.488 t 0 r /Helvetica findfont 25.6631 sf 0 0 m (1) show NC gr 
 gsave  711 567 1534 603 C 1631.16 778.64 t 0 r /Helvetica findfont 25.6631 sf 0 0 m (2) show NC gr 
 gsave  711 567 1534 603 C 1631.16 832.633 t 0 r /Helvetica findfont 25.6631 sf 0 0 m (3) show NC gr 
 gsave  711 567 1534 603 C 1631.16 883.784 t 0 r /Helvetica findfont 25.6631 sf 0 0 m (4) show NC gr 
 gsave  711 567 1534 603 C 1631.16 934.936 t 0 r /Helvetica findfont 25.6631 sf 0 0 m (5) show NC gr 
 gsave  711 567 1534 603 C 1631.16 988.929 t 0 r /Helvetica findfont 25.6631 sf 0 0 m (6) show NC gr 
 gsave  711 567 1534 603 C 1631.16 1040.08 t 0 r /Helvetica findfont 25.6631 sf 0 0 m (7) show NC gr 
 gsave  711 567 1534 603 C 1631.16 1094.07 t 0 r /Helvetica findfont 25.6631 sf 0 0 m (8) show NC gr 
 gsave  711 567 1534 603 C 1557.28 1011.66 t 90 r /Helvetica findfont 28.5146 sf 0 0 m (0.00961 ) show NC gr 
 gsave  711 567 1534 603 C 1543.07 1008.82 t 90 r /Helvetica findfont 19.9602 sf 0 0 m ( ) show NC gr 
 gsave  711 567 1534 603 C 1557.28 997.454 t 90 r /Helvetica findfont 28.5146 sf 0 0 m (/) show NC gr 
 gsave  711 567 1534 603 C 1565.8 994.613 t 90 r /Helvetica findfont 19.9602 sf 0 0 m ( ) show NC gr 
 gsave  711 567 1534 603 C 1557.28 889.468 t 90 r /Helvetica findfont 28.5146 sf 0 0 m (\(1/N\) dN) show NC gr  2202 685 m 429 Y s 2186 685 m 16 X s 2194 695 m 8 X s 2194 706 m 8 X s 2194 716 m 8 X s 2194 726 m 8 X s 2186 737 m 16 X s 2194 747 m 8 X
 s 2194 758 m 8 X s 2194 768 m 8 X s 2194 779 m 8 X s 2186 789 m 16 X s 2194 800 m 8 X s 2194 810 m 8 X s 2194 821 m 8 X s 2194 831 m 8 X s 2186 842 m 16 X s 2194 852 m 8 X s 2194 862 m 8 X s 2194 873 m 8 X s 2194 883 m 8 X s 2186 894 m 16 X s 2194
 904 m 8 X s 2194 915 m 8 X s 2194 925 m 8 X s 2194 936 m 8 X s 2186 946 m 16 X s 2194 957 m 8 X s 2194 967 m 8 X s 2194 978 m 8 X s 2194 988 m 8 X s 2186 999 m 16 X s 2194 1009 m 8 X s 2194 1019 m 8 X s 2194 1030 m 8 X s 2194 1040 m 8 X s 2186 1051
 m 16 X s 2194 1061 m 8 X s 2194 1072 m 8 X s 2194 1082 m 8 X s 2194 1093 m 8 X s 2186 1103 m 16 X s 2186 1103 m 16 X s 0.490196 0.545098 0.615686 c 0.364706 0.419608 0.490196 c 338 38 1542 1130 bf 0.490196 0.545098 0.615686 c 1542 1130 m 338 X s
 1880 1130 m 38 Y s 1880 1168 m -338 X s 1542 1168 m -38 Y s 1 1 1 c black 1 1 1 c
 gsave  711 567 1534 603 C 1545.91 1142.38 t 0 r /Helvetica-Bold findfont 28.5146 sf 0 0 m (Input variable: hh.HP_l2) show NC gr  1 0 0 c 6 lw black 3 lw 1 0 0 c 2189 685 m -1 X s 2189 700 m -16 -15 d s 2189 715 m -31 -30 d s 2189 731 m -46 -46 d s
 2189 746 m -61 -61 d s 2189 761 m -76 -76 d s 2189 776 m -91 -91 d s 2188 790 m -105 -105 d s 2175 793 m -107 -108 d s 2169 802 m -116 -117 d s 2161 809 m -123 -124 d s 2161 824 m -138 -139 d s 2155 834 m -7 -8 d s 2146 824 m -12 -12 d s 2131 809 m
 -123 -124 d s 2120 813 m -128 -128 d s 2114 822 m -137 -137 d s 2107 830 m -145 -145 d s 2093 832 m -1 Y s 2092 830 m -145 -145 d s 2079 833 m -13 -14 d s 2064 818 m -132 -133 d s 2071 839 m -5 -5 d s 2052 820 m -135 -135 d s 2052 836 m -14 -14 d s
 2038 822 m -136 -137 d s 2052 851 m -14 -14 d s 2021 820 m -10 -10 d s 2004 803 m -117 -118 d s 1996 809 m -124 -124 d s 1970 799 m -113 -114 d s 1966 810 m -124 -125 d s 1950 809 m -123 -124 d s 1935 809 m -123 -124 d s 1920 809 m -19 -19 d s 1888
 777 m -92 -92 d s 1908 812 m -7 -6 d s 1888 792 m -107 -107 d s 1885 804 m -11 -11 d s 1865 784 m -99 -99 d s 1860 795 m -109 -110 d s 1860 810 m -124 -125 d s 1860 825 m -13 -14 d s 1833 798 m -112 -113 d s 1847 827 m -1 Y s 1831 810 m -125 -125 d
 s 1819 814 m -128 -129 d s 1815 825 m -139 -140 d s 1806 831 m -145 -146 d s 1793 833 m -1 -1 d s 1779 819 m -124 -125 d s 1765 820 m -110 -111 d s 1765 835 m -110 -110 d s 1759 844 m -8 -8 d s 1751 836 m -96 -96 d s 1737 838 m -82 -83 d s 1737 853
 m -82 -83 d s 1734 865 m -10 -11 d s 1711 842 m -56 -57 d s 1710 856 m -55 -56 d s 1710 871 m -55 -55 d s 1707 883 m -11 -11 d s 1694 869 m -39 -38 d s 1683 874 m -28 -28 d s 1669 875 m -14 -14 d s 1662 883 m -7 -7 d s 6 lw 1655 883 m 14 X -8 Y 14 X
 -6 Y 13 X 14 Y 14 X -41 Y 14 X 23 Y 13 X -29 Y 14 X 8 Y 14 X -25 Y 27 X 14 Y 14 X -8 Y 13 X -15 Y 14 X -12 Y 14 X 29 Y 13 X -43 Y 14 X 20 Y 14 X -27 Y 13 X 35 Y 14 X -3 Y 41 X 1 Y 14 X -13 Y 14 X 12 Y 13 X -6 Y 14 X 17 Y 14 X 2 Y 13 X 29 Y 14 X -33
 Y 14 X 21 Y 13 X -9 Y 14 X 2 Y 14 X -10 Y 13 X -13 Y 14 X 15 Y 14 X 10 Y 13 X -32 Y 14 X -12 Y 14 X -105 Y 13 X s black 3 lw 1655 685 m 547 X s 1691 698 m -13 Y s 1705 691 m -6 Y s 1719 691 m -6 Y s 1734 691 m -6 Y s 1748 691 m -6 Y s 1762 698 m -13
 Y s 1776 691 m -6 Y s 1791 691 m -6 Y s 1805 691 m -6 Y s 1819 691 m -6 Y s 1833 698 m -13 Y s 1847 691 m -6 Y s 1862 691 m -6 Y s 1876 691 m -6 Y s 1890 691 m -6 Y s 1904 698 m -13 Y s 1919 691 m -6 Y s 1933 691 m -6 Y s 1947 691 m -6 Y s 1961 691
 m -6 Y s 1976 698 m -13 Y s 1990 691 m -6 Y s 2004 691 m -6 Y s 2018 691 m -6 Y s 2033 691 m -6 Y s 2047 698 m -13 Y s 2061 691 m -6 Y s 2075 691 m -6 Y s 2089 691 m -6 Y s 2104 691 m -6 Y s 2118 698 m -13 Y s 2132 691 m -6 Y s 2146 691 m -6 Y s
 2161 691 m -6 Y s 2175 691 m -6 Y s 2189 698 m -13 Y s 1691 698 m -13 Y s 1677 691 m -6 Y s 1662 691 m -6 Y s 2189 698 m -13 Y s 1655 1114 m 547 X s 1691 1100 m 14 Y s 1705 1107 m 7 Y s 1719 1107 m 7 Y s 1734 1107 m 7 Y s 1748 1107 m 7 Y s 1762 1100
 m 14 Y s 1776 1107 m 7 Y s 1791 1107 m 7 Y s 1805 1107 m 7 Y s 1819 1107 m 7 Y s 1833 1100 m 14 Y s 1847 1107 m 7 Y s 1862 1107 m 7 Y s 1876 1107 m 7 Y s 1890 1107 m 7 Y s 1904 1100 m 14 Y s 1919 1107 m 7 Y s 1933 1107 m 7 Y s 1947 1107 m 7 Y s 1961
 1107 m 7 Y s 1976 1100 m 14 Y s 1990 1107 m 7 Y s 2004 1107 m 7 Y s 2018 1107 m 7 Y s 2033 1107 m 7 Y s 2047 1100 m 14 Y s 2061 1107 m 7 Y s 2075 1107 m 7 Y s 2089 1107 m 7 Y s 2104 1107 m 7 Y s 2118 1100 m 14 Y s 2132 1107 m 7 Y s 2146 1107 m 7 Y s
 2161 1107 m 7 Y s 2175 1107 m 7 Y s 2189 1100 m 14 Y s 1691 1100 m 14 Y s 1677 1107 m 7 Y s 1662 1107 m 7 Y s 2189 1100 m 14 Y s 1655 685 m 429 Y s 1671 685 m -16 X s 1663 695 m -8 X s 1663 706 m -8 X s 1663 716 m -8 X s 1663 726 m -8 X s 1671 737 m
 -16 X s 1663 747 m -8 X s 1663 758 m -8 X s 1663 768 m -8 X s 1663 779 m -8 X s 1671 789 m -16 X s 1663 800 m -8 X s 1663 810 m -8 X s 1663 821 m -8 X s 1663 831 m -8 X s 1671 842 m -16 X s 1663 852 m -8 X s 1663 862 m -8 X s 1663 873 m -8 X s 1663
 883 m -8 X s 1671 894 m -16 X s 1663 904 m -8 X s 1663 915 m -8 X s 1663 925 m -8 X s 1663 936 m -8 X s 1671 946 m -16 X s 1663 957 m -8 X s 1663 967 m -8 X s 1663 978 m -8 X s 1663 988 m -8 X s 1671 999 m -16 X s 1663 1009 m -8 X s 1663 1019 m -8 X
 s 1663 1030 m -8 X s 1663 1040 m -8 X s 1671 1051 m -16 X s 1663 1061 m -8 X s 1663 1072 m -8 X s 1663 1082 m -8 X s 1663 1093 m -8 X s 1671 1103 m -16 X s 1671 1103 m -16 X s 2202 685 m 429 Y s 2186 685 m 16 X s 2194 695 m 8 X s 2194 706 m 8 X s
 2194 716 m 8 X s 2194 726 m 8 X s 2186 737 m 16 X s 2194 747 m 8 X s 2194 758 m 8 X s 2194 768 m 8 X s 2194 779 m 8 X s 2186 789 m 16 X s 2194 800 m 8 X s 2194 810 m 8 X s 2194 821 m 8 X s 2194 831 m 8 X s 2186 842 m 16 X s 2194 852 m 8 X s 2194 862
 m 8 X s 2194 873 m 8 X s 2194 883 m 8 X s 2186 894 m 16 X s 2194 904 m 8 X s 2194 915 m 8 X s 2194 925 m 8 X s 2194 936 m 8 X s 2186 946 m 16 X s 2194 957 m 8 X s 2194 967 m 8 X s 2194 978 m 8 X s 2194 988 m 8 X s 2186 999 m 16 X s 2194 1009 m 8 X s
 2194 1019 m 8 X s 2194 1030 m 8 X s 2194 1040 m 8 X s 2186 1051 m 16 X s 2194 1061 m 8 X s 2194 1072 m 8 X s 2194 1082 m 8 X s 2194 1093 m 8 X s 2186 1103 m 16 X s 2186 1103 m 16 X s
 gsave  711 567 1534 603 C 2230.83 682.347 t 90 r /Helvetica-Bold findfont 19.9602 sf 0 0 m (U/O\255flow \(S,B\): \(0.0, 0.0\)% / \(0.0, 0.0\)%) show NC gr  0.490196 0.545098 0.615686 c 0.364706 0.419608 0.490196 c 338 38 1542 1130 bf 0.490196
 0.545098 0.615686 c 1542 1130 m 338 X s 1880 1130 m 38 Y s 1880 1168 m -338 X s 1542 1168 m -38 Y s 1 1 1 c black 1 1 1 c
 gsave  711 567 1534 603 C 1545.91 1142.38 t 0 r /Helvetica-Bold findfont 28.5146 sf 0 0 m (Input variable: hh.HP_l2) show NC gr  0.490196 0.545098 0.615686 c 0.941176 0.941176 0.941176 c 710 567 23 12 bf black 1 1 0.992157 c 548 429 143 94 bf black
 548 429 143 94 bl 0 0 0.933333 c 6 lw 0.49 0.6 0.82 c black 3 lw 0.49 0.6 0.82 c 143 94 m 390 Y 14 X -231 Y 14 X -48 Y 14 X -7 Y 13 X -10 Y 14 X -14 Y 14 X -12 Y 13 X 4 Y 14 X -6 Y 14 X 3 Y 13 X -5 Y 14 X -5 Y 14 X -2 Y 13 X 7 Y 14 X -7 Y 14 X -5 Y
 13 X 2 Y 14 X 4 Y 14 X -6 Y 13 X 3 Y 14 X -4 Y 14 X 3 Y 13 X 1 Y 14 X -11 Y 14 X -7 Y 13 X 14 Y 14 X -4 Y 41 X -8 Y 14 X 11 Y 13 X -8 Y 14 X -4 Y 14 X 2 Y 14 X 11 Y 13 X -10 Y 14 X 14 Y 14 X 9 Y 13 X 8 Y 14 X -70 Y 14 X -2 Y f 6 lw 0 0 0.933333 c
 0.49 0.6 0.82 c 0 0 0.933333 c 143 484 m 14 X -231 Y 14 X -48 Y 14 X -7 Y 13 X -10 Y 14 X -14 Y 14 X -12 Y 13 X 4 Y 14 X -6 Y 14 X 3 Y 13 X -5 Y 14 X -5 Y 14 X -2 Y 13 X 7 Y 14 X -7 Y 14 X -5 Y 13 X 2 Y 14 X 4 Y 14 X -6 Y 13 X 3 Y 14 X -4 Y 14 X 3 Y
 13 X 1 Y 14 X -11 Y 14 X -7 Y 13 X 14 Y 14 X -4 Y 41 X -8 Y 14 X 11 Y 13 X -8 Y 14 X -4 Y 14 X 2 Y 14 X 11 Y 13 X -10 Y 14 X 14 Y 14 X 9 Y 13 X 8 Y 14 X -70 Y 14 X s black 3 lw 143 94 m 548 X s 179 107 m -13 Y s 193 100 m -6 Y s 208 100 m -6 Y s 222
 100 m -6 Y s 236 100 m -6 Y s 250 107 m -13 Y s 264 100 m -6 Y s 279 100 m -6 Y s 293 100 m -6 Y s 307 100 m -6 Y s 321 107 m -13 Y s 336 100 m -6 Y s 350 100 m -6 Y s 364 100 m -6 Y s 378 100 m -6 Y s 393 107 m -13 Y s 407 100 m -6 Y s 421 100 m -6
 Y s 435 100 m -6 Y s 450 100 m -6 Y s 464 107 m -13 Y s 478 100 m -6 Y s 492 100 m -6 Y s 506 100 m -6 Y s 521 100 m -6 Y s 535 107 m -13 Y s 549 100 m -6 Y s 563 100 m -6 Y s 578 100 m -6 Y s 592 100 m -6 Y s 606 107 m -13 Y s 620 100 m -6 Y s 635
 100 m -6 Y s 649 100 m -6 Y s 663 100 m -6 Y s 677 107 m -13 Y s 179 107 m -13 Y s 165 100 m -6 Y s 151 100 m -6 Y s 677 107 m -13 Y s
 gsave  710 567 23 12 C 167.663 65.3603 t 0 r /Helvetica findfont 25.6631 sf 0 0 m (0.1) show NC gr 
 gsave  710 567 23 12 C 156.296 65.3603 t 0 r /Symbol findfont 25.6631 sf 0 0 m (-) show NC gr 
 gsave  710 567 23 12 C 230.182 65.3603 t 0 r /Helvetica findfont 25.6631 sf 0 0 m (0.05) show NC gr 
 gsave  710 567 23 12 C 218.815 65.3603 t 0 r /Symbol findfont 25.6631 sf 0 0 m (-) show NC gr 
 gsave  710 567 23 12 C 312.592 65.3603 t 0 r /Helvetica findfont 25.6631 sf 0 0 m (0) show NC gr 
 gsave  710 567 23 12 C 366.586 65.3603 t 0 r /Helvetica findfont 25.6631 sf 0 0 m (0.05) show NC gr 
 gsave  710 567 23 12 C 446.155 65.3603 t 0 r /Helvetica findfont 25.6631 sf 0 0 m (0.1) show NC gr 
 gsave  710 567 23 12 C 508.673 65.3603 t 0 r /Helvetica findfont 25.6631 sf 0 0 m (0.15) show NC gr 
 gsave  710 567 23 12 C 588.242 65.3603 t 0 r /Helvetica findfont 25.6631 sf 0 0 m (0.2) show NC gr 
 gsave  710 567 23 12 C 650.761 65.3603 t 0 r /Helvetica findfont 25.6631 sf 0 0 m (0.25) show NC gr 
 gsave  710 567 23 12 C 574.034 22.734 t 0 r /Helvetica findfont 28.5146 sf 0 0 m (hh.HY_l2) show NC gr  143 523 m 548 X s 179 509 m 14 Y s 193 516 m 7 Y s 208 516 m 7 Y s 222 516 m 7 Y s 236 516 m 7 Y s 250 509 m 14 Y s 264 516 m 7 Y s 279 516 m 7 Y
 s 293 516 m 7 Y s 307 516 m 7 Y s 321 509 m 14 Y s 336 516 m 7 Y s 350 516 m 7 Y s 364 516 m 7 Y s 378 516 m 7 Y s 393 509 m 14 Y s 407 516 m 7 Y s 421 516 m 7 Y s 435 516 m 7 Y s 450 516 m 7 Y s 464 509 m 14 Y s 478 516 m 7 Y s 492 516 m 7 Y s 506
 516 m 7 Y s 521 516 m 7 Y s 535 509 m 14 Y s 549 516 m 7 Y s 563 516 m 7 Y s 578 516 m 7 Y s 592 516 m 7 Y s 606 509 m 14 Y s 620 516 m 7 Y s 635 516 m 7 Y s 649 516 m 7 Y s 663 516 m 7 Y s 677 509 m 14 Y s 179 509 m 14 Y s 165 516 m 7 Y s 151 516 m
 7 Y s 677 509 m 14 Y s 143 94 m 429 Y s 160 94 m -17 X s 152 107 m -9 X s 152 120 m -9 X s 152 133 m -9 X s 160 146 m -17 X s 152 159 m -9 X s 152 172 m -9 X s 152 185 m -9 X s 160 199 m -17 X s 152 212 m -9 X s 152 225 m -9 X s 152 238 m -9 X s 160
 251 m -17 X s 152 264 m -9 X s 152 277 m -9 X s 152 291 m -9 X s 160 304 m -17 X s 152 317 m -9 X s 152 330 m -9 X s 152 343 m -9 X s 160 356 m -17 X s 152 369 m -9 X s 152 382 m -9 X s 152 396 m -9 X s 160 409 m -17 X s 152 422 m -9 X s 152 435 m
 -9 X s 152 448 m -9 X s 160 461 m -17 X s 152 474 m -9 X s 152 488 m -9 X s 152 501 m -9 X s 160 514 m -17 X s 160 514 m -17 X s
 gsave  710 567 23 12 C 119.354 82.4108 t 0 r /Helvetica findfont 25.6631 sf 0 0 m (0) show NC gr 
 gsave  710 567 23 12 C 119.354 136.404 t 0 r /Helvetica findfont 25.6631 sf 0 0 m (2) show NC gr 
 gsave  710 567 23 12 C 119.354 187.556 t 0 r /Helvetica findfont 25.6631 sf 0 0 m (4) show NC gr 
 gsave  710 567 23 12 C 119.354 241.549 t 0 r /Helvetica findfont 25.6631 sf 0 0 m (6) show NC gr 
 gsave  710 567 23 12 C 119.354 292.7 t 0 r /Helvetica findfont 25.6631 sf 0 0 m (8) show NC gr 
 gsave  710 567 23 12 C 105.145 346.694 t 0 r /Helvetica findfont 25.6631 sf 0 0 m (10) show NC gr 
 gsave  710 567 23 12 C 105.145 397.845 t 0 r /Helvetica findfont 25.6631 sf 0 0 m (12) show NC gr 
 gsave  710 567 23 12 C 105.145 451.838 t 0 r /Helvetica findfont 25.6631 sf 0 0 m (14) show NC gr 
 gsave  710 567 23 12 C 105.145 502.99 t 0 r /Helvetica findfont 25.6631 sf 0 0 m (16) show NC gr 
 gsave  710 567 23 12 C 45.468 420.579 t 90 r /Helvetica findfont 28.5146 sf 0 0 m (0.00961 ) show NC gr 
 gsave  710 567 23 12 C 31.2593 417.737 t 90 r /Helvetica findfont 19.9602 sf 0 0 m ( ) show NC gr 
 gsave  710 567 23 12 C 45.468 406.37 t 90 r /Helvetica findfont 28.5146 sf 0 0 m (/) show NC gr 
 gsave  710 567 23 12 C 53.9933 403.529 t 90 r /Helvetica findfont 19.9602 sf 0 0 m ( ) show NC gr 
 gsave  710 567 23 12 C 45.468 298.384 t 90 r /Helvetica findfont 28.5146 sf 0 0 m (\(1/N\) dN) show NC gr  691 94 m 429 Y s 674 94 m 17 X s 683 107 m 8 X s 683 120 m 8 X s 683 133 m 8 X s 674 146 m 17 X s 683 159 m 8 X s 683 172 m 8 X s 683 185 m 8
 X s 674 199 m 17 X s 683 212 m 8 X s 683 225 m 8 X s 683 238 m 8 X s 674 251 m 17 X s 683 264 m 8 X s 683 277 m 8 X s 683 291 m 8 X s 674 304 m 17 X s 683 317 m 8 X s 683 330 m 8 X s 683 343 m 8 X s 674 356 m 17 X s 683 369 m 8 X s 683 382 m 8 X s
 683 396 m 8 X s 674 409 m 17 X s 683 422 m 8 X s 683 435 m 8 X s 683 448 m 8 X s 674 461 m 17 X s 683 474 m 8 X s 683 488 m 8 X s 683 501 m 8 X s 674 514 m 17 X s 674 514 m 17 X s 0.490196 0.545098 0.615686 c 0.364706 0.419608 0.490196 c 338 37 30
 539 bf 0.490196 0.545098 0.615686 c 30 539 m 338 X s 368 539 m 37 Y s 368 576 m -338 X s 30 576 m -37 Y s 1 1 1 c black 1 1 1 c
 gsave  710 567 23 12 C 34.101 551.299 t 0 r /Helvetica-Bold findfont 28.5146 sf 0 0 m (Input variable: hh.HY_l2) show NC gr  1 0 0 c 6 lw black 3 lw 1 0 0 c 682 99 m -5 -5 d s 677 109 m -15 -15 d s 677 124 m -31 -30 d s 677 139 m -46 -45 d s 677 155
 m -61 -61 d s 677 170 m -76 -76 d s 677 185 m -91 -91 d s 677 200 m -106 -106 d s 677 215 m -14 -13 d s 650 188 m -14 -14 d s 635 173 m -79 -79 d s 672 225 m -9 -8 d s 642 196 m -6 -7 d s 619 172 m -78 -78 d s 609 177 m -83 -83 d s 597 181 m -2 -3 d
 s 582 166 m -1 -2 d s 567 151 m -56 -57 d s 567 166 m -71 -72 d s 551 165 m -70 -71 d s 533 162 m -7 -7 d s 520 149 m -54 -55 d s 508 152 m -58 -58 d s 493 151 m -8 -7 d s 483 142 m -48 -48 d s 472 145 m -52 -51 d s 462 150 m -4 -3 d s 455 143 m -50
 -49 d s 437 141 m -47 -47 d s 430 148 m -55 -54 d s 405 138 m -45 -44 d s 391 140 m -1 -1 d s 386 134 m -41 -40 d s 376 140 m -46 -46 d s 367 146 m -5 -5 d s 354 133 m -39 -39 d s 349 143 m -49 -49 d s 342 152 m -7 -8 d s 328 137 m -43 -43 d s 320
 144 m -50 -50 d s 308 147 m -53 -53 d s 294 149 m -55 -55 d s 281 150 m -14 -14 d s 264 133 m -40 -39 d s 269 154 m -2 -3 d s 253 137 m -44 -43 d s 253 153 m -59 -59 d s 241 155 m -2 -1 d s 235 150 m -56 -56 d s 219 149 m -55 -55 d s 212 157 m -63
 -63 d s 198 158 m -55 -55 d s 198 173 m -55 -55 d s 185 175 m -42 -42 d s 184 189 m -41 -40 d s 166 187 m -23 -23 d s 157 193 m -14 -14 d s 157 208 m -14 -14 d s 157 223 m -14 -14 d s 157 238 m -14 -13 d s 157 254 m -14 -14 d s 157 269 m -14 -14 d s
 157 284 m -14 -14 d s 157 299 m -14 -14 d s 157 314 m -14 -13 d s 157 329 m -14 -13 d s 157 345 m -14 -14 d s 157 360 m -14 -14 d s 157 375 m -14 -14 d s 149 382 m -6 -6 d s 6 lw 143 382 m 14 X -195 Y 14 X 2 Y 14 X -16 Y 13 X -15 Y 14 X -9 Y 14 X 1
 Y 13 X 5 Y 14 X -22 Y 14 X 21 Y 13 X -4 Y 14 X -1 Y 14 X -5 Y 13 X -7 Y 14 X 15 Y 14 X -19 Y 13 X 13 Y 14 X -12 Y 14 X 6 Y 13 X -2 Y 14 X 10 Y 14 X -7 Y 13 X 2 Y 14 X 7 Y 14 X -8 Y 13 X 9 Y 14 X 1 Y 14 X -3 Y 13 X 13 Y 14 X 3 Y 14 X 1 Y 13 X -15 Y
 14 X 15 Y 14 X 15 Y 14 X -9 Y 13 X 1 Y 14 X 23 Y 14 X -8 Y 13 X 37 Y 14 X -126 Y 14 X s black 3 lw 143 94 m 548 X s 179 107 m -13 Y s 193 100 m -6 Y s 208 100 m -6 Y s 222 100 m -6 Y s 236 100 m -6 Y s 250 107 m -13 Y s 264 100 m -6 Y s 279 100 m -6
 Y s 293 100 m -6 Y s 307 100 m -6 Y s 321 107 m -13 Y s 336 100 m -6 Y s 350 100 m -6 Y s 364 100 m -6 Y s 378 100 m -6 Y s 393 107 m -13 Y s 407 100 m -6 Y s 421 100 m -6 Y s 435 100 m -6 Y s 450 100 m -6 Y s 464 107 m -13 Y s 478 100 m -6 Y s 492
 100 m -6 Y s 506 100 m -6 Y s 521 100 m -6 Y s 535 107 m -13 Y s 549 100 m -6 Y s 563 100 m -6 Y s 578 100 m -6 Y s 592 100 m -6 Y s 606 107 m -13 Y s 620 100 m -6 Y s 635 100 m -6 Y s 649 100 m -6 Y s 663 100 m -6 Y s 677 107 m -13 Y s 179 107 m
 -13 Y s 165 100 m -6 Y s 151 100 m -6 Y s 677 107 m -13 Y s 143 523 m 548 X s 179 509 m 14 Y s 193 516 m 7 Y s 208 516 m 7 Y s 222 516 m 7 Y s 236 516 m 7 Y s 250 509 m 14 Y s 264 516 m 7 Y s 279 516 m 7 Y s 293 516 m 7 Y s 307 516 m 7 Y s 321 509 m
 14 Y s 336 516 m 7 Y s 350 516 m 7 Y s 364 516 m 7 Y s 378 516 m 7 Y s 393 509 m 14 Y s 407 516 m 7 Y s 421 516 m 7 Y s 435 516 m 7 Y s 450 516 m 7 Y s 464 509 m 14 Y s 478 516 m 7 Y s 492 516 m 7 Y s 506 516 m 7 Y s 521 516 m 7 Y s 535 509 m 14 Y s
 549 516 m 7 Y s 563 516 m 7 Y s 578 516 m 7 Y s 592 516 m 7 Y s 606 509 m 14 Y s 620 516 m 7 Y s 635 516 m 7 Y s 649 516 m 7 Y s 663 516 m 7 Y s 677 509 m 14 Y s 179 509 m 14 Y s 165 516 m 7 Y s 151 516 m 7 Y s 677 509 m 14 Y s 143 94 m 429 Y s 160
 94 m -17 X s 152 107 m -9 X s 152 120 m -9 X s 152 133 m -9 X s 160 146 m -17 X s 152 159 m -9 X s 152 172 m -9 X s 152 185 m -9 X s 160 199 m -17 X s 152 212 m -9 X s 152 225 m -9 X s 152 238 m -9 X s 160 251 m -17 X s 152 264 m -9 X s 152 277 m -9
 X s 152 291 m -9 X s 160 304 m -17 X s 152 317 m -9 X s 152 330 m -9 X s 152 343 m -9 X s 160 356 m -17 X s 152 369 m -9 X s 152 382 m -9 X s 152 396 m -9 X s 160 409 m -17 X s 152 422 m -9 X s 152 435 m -9 X s 152 448 m -9 X s 160 461 m -17 X s 152
 474 m -9 X s 152 488 m -9 X s 152 501 m -9 X s 160 514 m -17 X s 160 514 m -17 X s 691 94 m 429 Y s 674 94 m 17 X s 683 107 m 8 X s 683 120 m 8 X s 683 133 m 8 X s 674 146 m 17 X s 683 159 m 8 X s 683 172 m 8 X s 683 185 m 8 X s 674 199 m 17 X s 683
 212 m 8 X s 683 225 m 8 X s 683 238 m 8 X s 674 251 m 17 X s 683 264 m 8 X s 683 277 m 8 X s 683 291 m 8 X s 674 304 m 17 X s 683 317 m 8 X s 683 330 m 8 X s 683 343 m 8 X s 674 356 m 17 X s 683 369 m 8 X s 683 382 m 8 X s 683 396 m 8 X s 674 409 m
 17 X s 683 422 m 8 X s 683 435 m 8 X s 683 448 m 8 X s 674 461 m 17 X s 683 474 m 8 X s 683 488 m 8 X s 683 501 m 8 X s 674 514 m 17 X s 674 514 m 17 X s
 gsave  710 567 23 12 C 719.017 91.2634 t 90 r /Helvetica-Bold findfont 19.9602 sf 0 0 m (U/O\255flow \(S,B\): \(0.0, 0.0\)% / \(0.0, 0.0\)%) show NC gr  0.490196 0.545098 0.615686 c 0.364706 0.419608 0.490196 c 338 37 30 539 bf 0.490196 0.545098
 0.615686 c 30 539 m 338 X s 368 539 m 37 Y s 368 576 m -338 X s 30 576 m -37 Y s 1 1 1 c black 1 1 1 c
 gsave  710 567 23 12 C 34.101 551.299 t 0 r /Helvetica-Bold findfont 28.5146 sf 0 0 m (Input variable: hh.HY_l2) show NC gr  0.490196 0.545098 0.615686 c 0.941176 0.941176 0.941176 c 710 567 779 12 bf 0.490196 0.545098 0.615686 c 0.941176 0.941176
 0.941176 c 711 567 1534 12 bf
 gr  gr showpage
end
%%EOF
