b1.pt
b2.pt
b1.phi
b2.phi
b1.eta
b2.eta
y1.pt
y2.pt
y1.eta
y2.eta
y1.phi
y2.phi
yy.pt
yy.eta
yy.phi
bb.pt
bb.eta
bb.phi
bb.dr
yy.dr
HT_l1
HT_l2
H1_l1
H1_l2
H1_l3
HS_l8
HY_l1
HY_l2
AddJ.N
Jet.N
AddBJ.N
AddJ.pt
bb.m
yy.m
