%!PS-Adobe-2.0 EPSF-2.0
%%BoundingBox:  0 0 567 296
%%Title: dataset/plots/variables_id_c2.eps: Input variables (training sample)
%%Creator: ROOT Version 6.18/00
%%CreationDate: Fri Sep 13 20:54:11 2019
%%DocumentNeededResources: ProcSet (FontSetInit)
%%EndComments
%%BeginProlog
80 dict begin
/s {stroke} def /l {lineto} def /m {moveto} def /t {translate} def
/r {rotate} def /rl {roll}  def /R {repeat} def
/d {rlineto} def /rm {rmoveto} def /gr {grestore} def /f {eofill} def
/c {setrgbcolor} def /black {0 setgray} def /sd {setdash} def
/cl {closepath} def /sf {scalefont setfont} def /lw {setlinewidth} def
/box {m dup 0 exch d exch 0 d 0 exch neg d cl} def
/NC{systemdict begin initclip end}def/C{NC box clip newpath}def
/bl {box s} def /bf {gsave box gsave f grestore 1 lw [] 0 sd s grestore} def /Y { 0 exch d} def /X { 0 d} def 
/K {{pop pop 0 moveto} exch kshow} bind def
/ita {/ang 15 def gsave [1 0 ang dup sin exch cos div 1 0 0] concat} def 
/mp {newpath /y exch def /x exch def} def
/side {[w .77 mul w .23 mul] .385 w mul sd w 0 l currentpoint t -144 r} def
/mr {mp x y w2 0 360 arc} def /m24 {mr s} def /m20 {mr f} def
/mb {mp x y w2 add m w2 neg 0 d 0 w neg d w 0 d 0 w d cl} def
/mt {mp x y w2 add m w2 neg w neg d w 0 d cl} def
/w4 {w 4 div} def
/w6 {w 6 div} def
/w8 {w 8 div} def
/m21 {mb f} def /m25 {mb s} def /m22 {mt f} def /m26{mt s} def
/m23 {mp x y w2 sub m w2 w d w neg 0 d cl f} def
/m27 {mp x y w2 add m w3 neg w2 neg d w3 w2 neg d w3 w2 d cl s} def
/m28 {mp x w2 sub y w2 sub w3 add m w3 0 d  0 w3 neg d w3 0 d 0 w3 d w3 0 d  0 w3 d w3 neg 0 d 0 w3 d w3 neg 0 d 0 w3 neg d w3 neg 0 d cl s } def
/m29 {mp gsave x w2 sub y w2 add w3 sub m currentpoint t 4 {side} repeat cl fill gr} def
/m30 {mp gsave x w2 sub y w2 add w3 sub m currentpoint t 4 {side} repeat cl s gr} def
/m31 {mp x y w2 sub m 0 w d x w2 sub y m w 0 d x w2 sub y w2 add m w w neg d x w2 sub y w2 sub m w w d s} def
/m32 {mp x y w2 sub m w2 w d w neg 0 d cl s} def
/m33 {mp x y w2 add m w3 neg w2 neg d w3 w2 neg d w3 w2 d cl f} def
/m34 {mp x w2 sub y w2 sub w3 add m w3 0 d  0 w3 neg d w3 0 d 0 w3 d w3 0 d  0 w3 d w3 neg 0 d 0 w3 d w3 neg 0 d 0 w3 neg d w3 neg 0 d cl f } def
/m35 {mp x y w2 add m w2 neg w2 neg d w2 w2 neg d w2 w2 d w2 neg w2 d x y w2 sub m 0 w d x w2 sub y m w 0 d s} def
/m36 {mb x w2 sub y w2 add m w w neg d x w2 sub y w2 sub m w w d s} def
/m37 {mp x y m w4 neg w2 d w4 neg w2 neg d w2 0 d  w4 neg w2 neg d w2 0 d w4 neg w2 d w2 0 d w4 neg w2 d w4 neg w2 neg d cl s} def
/m38 {mp x w4 sub y w2 add m w4 neg w4 neg d 0 w2 neg d w4 w4 neg d w2 0 d w4 w4 d 0 w2 d w4 neg w4 d w2 neg 0 d x y w2 sub m 0 w d x w2 sub y m w 0 d cl s} def
/m39 {mp x y m w4 neg w2 d w4 neg w2 neg d w2 0 d  w4 neg w2 neg d w2 0 d w4 neg w2 d w2 0 d w4 neg w2 d w4 neg w2 neg d cl f} def
/m40 {mp x y m w4 w2 d w4 w4 neg d w2 neg w4 neg d w2 w4 neg d w4 neg w4 neg d w4 neg w2 d w4 neg w2 neg d w4 neg w4 d w2 w4 d w2 neg w4 d w4 w4 d w4 w2 neg d cl s} def
/m41 {mp x y m w4 w2 d w4 w4 neg d w2 neg w4 neg d w2 w4 neg d w4 neg w4 neg d w4 neg w2 d w4 neg w2 neg d w4 neg w4 d w2 w4 d w2 neg w4 d w4 w4 d w4 w2 neg d cl f} def
/m42 {mp x y w2 add m w8 neg w2 -3 4 div mul d w2 -3 4 div mul w8 neg d w2 3 4 div mul w8 neg d w8 w2 -3 4 div mul d w8 w2 3 4 div mul d w2 3 4 div mul w8 d w2 -3 4 div mul w8 d w8 neg w2 3 4 div mul d cl s} def
/m43 {mp x y w2 add m w8 neg w2 -3 4 div mul d w2 -3 4 div mul w8 neg d w2 3 4 div mul w8 neg d w8 w2 -3 4 div mul d w8 w2 3 4 div mul d w2 3 4 div mul w8 d w2 -3 4 div mul w8 d w8 neg w2 3 4 div mul d cl f} def
/m44 {mp x y m w6 neg w2 d w2 2 3 div mul 0 d w6 neg w2 neg d w2 w6 d 0 w2 -2 3 div mul d w2 neg w6 d w6 w2 neg d w2 -2 3 div mul 0 d w6 w2 d w2 neg w6 neg d 0 w2 2 3 div mul d w2 w6 neg d cl s} def
/m45 {mp x y m w6 neg w2 d w2 2 3 div mul 0 d w6 neg w2 neg d w2 w6 d 0 w2 -2 3 div mul d w2 neg w6 d w6 w2 neg d w2 -2 3 div mul 0 d w6 w2 d w2 neg w6 neg d 0 w2 2 3 div mul d w2 w6 neg d cl f} def
/m46 {mp x y w4 add m w4 neg w4 d w4 neg w4 neg d  w4 w4 neg d w4 neg w4 neg d w4 w4 neg d w4 w4 d w4 w4 neg d w4 w4 d w4 neg w4 d w4 w4 d w4 neg w4 d w4 neg w4 neg d cl s} def
/m47 {mp x y w4 add m w4 neg w4 d w4 neg w4 neg d w4 w4 neg d w4 neg w4 neg d  w4 w4 neg d w4 w4 d w4 w4 neg d w4 w4 d w4 neg w4 d w4 w4 d w4 neg w4 d w4 neg w4 neg d cl f} def
/m48 {mp x y w4 add m w4 neg w4 d w4 neg w4 neg d w4 w4 neg d  w4 neg w4 neg d w4 w4 neg d w4 w4 d w4 w4 neg d w4 w4 d w4 neg w4 d w4 w4 d w4 neg w4 d w4 neg w4 neg d  w4 w4 neg d w4 neg w4 neg d w4 neg w4 d w4 w4 d cl f} def
/m49 {mp x w2 sub w3 add y w2 sub w3 add m  0 w3 neg d w3 0 d 0 w3 d w3 0 d 0 w3 d w3 neg 0 d 0 w3 d w3 neg 0 d 0 w3 neg d w3 neg 0 d 0 w3 neg d w3 0 d 0 w3 d w3 0 d 0 w3 neg d w3 neg 0 d cl f } def
/m2 {mp x y w2 sub m 0 w d x w2 sub y m w 0 d s} def
/m5 {mp x w2 sub y w2 sub m w w d x w2 sub y w2 add m w w neg d s} def
%%IncludeResource: ProcSet (FontSetInit)
%%IncludeResource: font Times-Roman
%%IncludeResource: font Times-Italic
%%IncludeResource: font Times-Bold
%%IncludeResource: font Times-BoldItalic
%%IncludeResource: font Helvetica
%%IncludeResource: font Helvetica-Oblique
%%IncludeResource: font Helvetica-Bold
%%IncludeResource: font Helvetica-BoldOblique
%%IncludeResource: font Courier
%%IncludeResource: font Courier-Oblique
%%IncludeResource: font Courier-Bold
%%IncludeResource: font Courier-BoldOblique
%%IncludeResource: font Symbol
%%IncludeResource: font ZapfDingbats
/reEncode {exch findfont dup length dict begin {1 index /FID eq  {pop pop} {def} ifelse } forall /Encoding exch def currentdict end dup /FontName get exch definefont pop } def [/Times-Bold /Times-Italic /Times-BoldItalic /Helvetica /Helvetica-Oblique
 /Helvetica-Bold /Helvetica-BoldOblique /Courier /Courier-Oblique /Courier-Bold /Courier-BoldOblique /Times-Roman /AvantGarde-Book /AvantGarde-BookOblique /AvantGarde-Demi /AvantGarde-DemiOblique /Bookman-Demi /Bookman-DemiItalic /Bookman-Light
 /Bookman-LightItalic /Helvetica-Narrow /Helvetica-Narrow-Bold /Helvetica-Narrow-BoldOblique /Helvetica-Narrow-Oblique /NewCenturySchlbk-Roman /NewCenturySchlbk-Bold /NewCenturySchlbk-BoldItalic /NewCenturySchlbk-Italic /Palatino-Bold
 /Palatino-BoldItalic /Palatino-Italic /Palatino-Roman ] {ISOLatin1Encoding reEncode } forall
%%EndProlog
%%BeginSetup
%%EndSetup
newpath  gsave  .25 .25 scale  gsave  0 0 t 0.490196 0.545098 0.615686 c[  ] 0 sd 3 lw 0.941176 0.941176 0.941176 c 2268 1182 0 0 bf 0.490196 0.545098 0.615686 c 0.941176 0.941176 0.941176 c 710 567 23 603 bf black 1 1 0.992157 c 548 429 143 685 bf
 black 548 429 143 685 bl 0 0 0.933333 c 6 lw 0.49 0.6 0.82 c black 3 lw 0.49 0.6 0.82 c 143 685 m 254 Y 14 X -126 Y 14 X -47 Y 14 X 18 Y 13 X -1 Y 14 X -17 Y 14 X -7 Y 13 X -4 Y 14 X -8 Y 14 X 9 Y 13 X -13 Y 14 X 17 Y 14 X -14 Y 13 X 12 Y 28 X 3 Y
 13 X -19 Y 14 X 9 Y 14 X 20 Y 13 X -28 Y 14 X -3 Y 14 X 6 Y 13 X -12 Y 14 X 33 Y 14 X -30 Y 13 X 13 Y 14 X -3 Y 14 X 1 Y 13 X -59 Y 14 X 57 Y 14 X -11 Y 13 X 1 Y 14 X 13 Y 14 X -4 Y 14 X -31 Y 13 X 8 Y 14 X -8 Y 14 X -17 Y 13 X -9 Y 14 X -3 Y 14 X f
 6 lw 0 0 0.933333 c 0.49 0.6 0.82 c 0 0 0.933333 c 143 939 m 14 X -126 Y 14 X -47 Y 14 X 18 Y 13 X -1 Y 14 X -17 Y 14 X -7 Y 13 X -4 Y 14 X -8 Y 14 X 9 Y 13 X -13 Y 14 X 17 Y 14 X -14 Y 13 X 12 Y 28 X 3 Y 13 X -19 Y 14 X 9 Y 14 X 20 Y 13 X -28 Y 14
 X -3 Y 14 X 6 Y 13 X -12 Y 14 X 33 Y 14 X -30 Y 13 X 13 Y 14 X -3 Y 14 X 1 Y 13 X -59 Y 14 X 57 Y 14 X -11 Y 13 X 1 Y 14 X 13 Y 14 X -4 Y 14 X -31 Y 13 X 8 Y 14 X -8 Y 14 X -17 Y 13 X -9 Y 14 X -3 Y 14 X s black 3 lw 143 685 m 548 X s 179 698 m -13
 Y s 197 691 m -6 Y s 215 691 m -6 Y s 232 691 m -6 Y s 250 698 m -13 Y s 268 691 m -6 Y s 286 691 m -6 Y s 304 691 m -6 Y s 321 698 m -13 Y s 339 691 m -6 Y s 357 691 m -6 Y s 375 691 m -6 Y s 393 698 m -13 Y s 410 691 m -6 Y s 428 691 m -6 Y s 446
 691 m -6 Y s 464 698 m -13 Y s 482 691 m -6 Y s 499 691 m -6 Y s 517 691 m -6 Y s 535 698 m -13 Y s 553 691 m -6 Y s 571 691 m -6 Y s 588 691 m -6 Y s 606 698 m -13 Y s 624 691 m -6 Y s 642 691 m -6 Y s 659 691 m -6 Y s 677 698 m -13 Y s 179 698 m
 -13 Y s 161 691 m -6 Y s 677 698 m -13 Y s
 gsave  710 567 23 603 C 167.663 656.444 t 0 r /Helvetica findfont 25.6631 sf 0 0 m (0.4) show NC gr 
 gsave  710 567 23 603 C 153.454 656.444 t 0 r /Symbol findfont 25.6631 sf 0 0 m (-) show NC gr 
 gsave  710 567 23 603 C 238.707 656.444 t 0 r /Helvetica findfont 25.6631 sf 0 0 m (0.2) show NC gr 
 gsave  710 567 23 603 C 224.498 656.444 t 0 r /Symbol findfont 25.6631 sf 0 0 m (-) show NC gr 
 gsave  710 567 23 603 C 312.592 656.444 t 0 r /Helvetica findfont 25.6631 sf 0 0 m (0) show NC gr 
 gsave  710 567 23 603 C 375.111 656.444 t 0 r /Helvetica findfont 25.6631 sf 0 0 m (0.2) show NC gr 
 gsave  710 567 23 603 C 446.155 656.444 t 0 r /Helvetica findfont 25.6631 sf 0 0 m (0.4) show NC gr 
 gsave  710 567 23 603 C 517.198 656.444 t 0 r /Helvetica findfont 25.6631 sf 0 0 m (0.6) show NC gr 
 gsave  710 567 23 603 C 588.242 656.444 t 0 r /Helvetica findfont 25.6631 sf 0 0 m (0.8) show NC gr 
 gsave  710 567 23 603 C 670.653 656.444 t 0 r /Helvetica findfont 25.6631 sf 0 0 m (1) show NC gr 
 gsave  710 567 23 603 C 576.875 613.818 t 0 r /Helvetica findfont 28.5146 sf 0 0 m (bb.H1_l2) show NC gr  143 1114 m 548 X s 179 1100 m 14 Y s 197 1107 m 7 Y s 215 1107 m 7 Y s 232 1107 m 7 Y s 250 1100 m 14 Y s 268 1107 m 7 Y s 286 1107 m 7 Y s 304
 1107 m 7 Y s 321 1100 m 14 Y s 339 1107 m 7 Y s 357 1107 m 7 Y s 375 1107 m 7 Y s 393 1100 m 14 Y s 410 1107 m 7 Y s 428 1107 m 7 Y s 446 1107 m 7 Y s 464 1100 m 14 Y s 482 1107 m 7 Y s 499 1107 m 7 Y s 517 1107 m 7 Y s 535 1100 m 14 Y s 553 1107 m
 7 Y s 571 1107 m 7 Y s 588 1107 m 7 Y s 606 1100 m 14 Y s 624 1107 m 7 Y s 642 1107 m 7 Y s 659 1107 m 7 Y s 677 1100 m 14 Y s 179 1100 m 14 Y s 161 1107 m 7 Y s 677 1100 m 14 Y s 143 685 m 429 Y s 160 685 m -17 X s 152 695 m -9 X s 152 705 m -9 X s
 152 715 m -9 X s 152 725 m -9 X s 160 735 m -17 X s 152 745 m -9 X s 152 755 m -9 X s 152 765 m -9 X s 152 775 m -9 X s 160 785 m -17 X s 152 795 m -9 X s 152 805 m -9 X s 152 815 m -9 X s 152 825 m -9 X s 160 835 m -17 X s 152 845 m -9 X s 152 855
 m -9 X s 152 865 m -9 X s 152 875 m -9 X s 160 885 m -17 X s 152 895 m -9 X s 152 905 m -9 X s 152 915 m -9 X s 152 925 m -9 X s 160 935 m -17 X s 152 945 m -9 X s 152 955 m -9 X s 152 965 m -9 X s 152 975 m -9 X s 160 985 m -17 X s 152 995 m -9 X s
 152 1005 m -9 X s 152 1015 m -9 X s 152 1025 m -9 X s 160 1035 m -17 X s 152 1045 m -9 X s 152 1055 m -9 X s 152 1065 m -9 X s 152 1075 m -9 X s 160 1085 m -17 X s 160 1085 m -17 X s 152 1095 m -9 X s 152 1105 m -9 X s
 gsave  710 567 23 603 C 119.354 673.495 t 0 r /Helvetica findfont 25.6631 sf 0 0 m (0) show NC gr 
 gsave  710 567 23 603 C 99.4613 724.646 t 0 r /Helvetica findfont 25.6631 sf 0 0 m (0.5) show NC gr 
 gsave  710 567 23 603 C 122.195 775.798 t 0 r /Helvetica findfont 25.6631 sf 0 0 m (1) show NC gr 
 gsave  710 567 23 603 C 99.4613 824.108 t 0 r /Helvetica findfont 25.6631 sf 0 0 m (1.5) show NC gr 
 gsave  710 567 23 603 C 119.354 875.259 t 0 r /Helvetica findfont 25.6631 sf 0 0 m (2) show NC gr 
 gsave  710 567 23 603 C 99.4613 926.411 t 0 r /Helvetica findfont 25.6631 sf 0 0 m (2.5) show NC gr 
 gsave  710 567 23 603 C 119.354 974.72 t 0 r /Helvetica findfont 25.6631 sf 0 0 m (3) show NC gr 
 gsave  710 567 23 603 C 99.4613 1025.87 t 0 r /Helvetica findfont 25.6631 sf 0 0 m (3.5) show NC gr 
 gsave  710 567 23 603 C 119.354 1074.18 t 0 r /Helvetica findfont 25.6631 sf 0 0 m (4) show NC gr 
 gsave  710 567 23 603 C 45.468 1023.03 t 90 r /Helvetica findfont 28.5146 sf 0 0 m (0.0384 ) show NC gr 
 gsave  710 567 23 603 C 31.2593 1020.19 t 90 r /Helvetica findfont 19.9602 sf 0 0 m ( ) show NC gr 
 gsave  710 567 23 603 C 45.468 1008.82 t 90 r /Helvetica findfont 28.5146 sf 0 0 m (/) show NC gr 
 gsave  710 567 23 603 C 53.9933 1005.98 t 90 r /Helvetica findfont 19.9602 sf 0 0 m ( ) show NC gr 
 gsave  710 567 23 603 C 45.468 900.835 t 90 r /Helvetica findfont 28.5146 sf 0 0 m (\(1/N\) dN) show NC gr  691 685 m 429 Y s 674 685 m 17 X s 683 695 m 8 X s 683 705 m 8 X s 683 715 m 8 X s 683 725 m 8 X s 674 735 m 17 X s 683 745 m 8 X s 683 755 m
 8 X s 683 765 m 8 X s 683 775 m 8 X s 674 785 m 17 X s 683 795 m 8 X s 683 805 m 8 X s 683 815 m 8 X s 683 825 m 8 X s 674 835 m 17 X s 683 845 m 8 X s 683 855 m 8 X s 683 865 m 8 X s 683 875 m 8 X s 674 885 m 17 X s 683 895 m 8 X s 683 905 m 8 X s
 683 915 m 8 X s 683 925 m 8 X s 674 935 m 17 X s 683 945 m 8 X s 683 955 m 8 X s 683 965 m 8 X s 683 975 m 8 X s 674 985 m 17 X s 683 995 m 8 X s 683 1005 m 8 X s 683 1015 m 8 X s 683 1025 m 8 X s 674 1035 m 17 X s 683 1045 m 8 X s 683 1055 m 8 X s
 683 1065 m 8 X s 683 1075 m 8 X s 674 1085 m 17 X s 674 1085 m 17 X s 683 1095 m 8 X s 683 1105 m 8 X s 0.490196 0.545098 0.615686 c 0.364706 0.419608 0.490196 c 335 38 30 1130 bf 0.490196 0.545098 0.615686 c 30 1130 m 335 X s 365 1130 m 38 Y s 365
 1168 m -335 X s 30 1168 m -38 Y s 1 1 1 c black 1 1 1 c
 gsave  710 567 23 603 C 34.101 1142.38 t 0 r /Helvetica-Bold findfont 28.5146 sf 0 0 m (Input variable: bb.H1_l2) show NC gr  1 0 0 c 6 lw black 3 lw 1 0 0 c 677 685 m s 677 700 m -15 -15 d s 670 708 m -7 -6 d s 658 697 m -12 -12 d s 650 703 m -19
 -18 d s 637 705 m -1 -1 d s 631 699 m -15 -14 d s 618 701 m -17 -16 d s 609 707 m -23 -22 d s 601 715 m -6 -6 d s 595 708 m -24 -23 d s 581 710 m -25 -25 d s 574 718 m -33 -33 d s 556 715 m -30 -30 d s 528 702 m -17 -17 d s 526 716 m -30 -31 d s 508
 712 m -27 -27 d s 495 715 m -29 -30 d s 480 715 m -30 -30 d s 472 721 m -37 -36 d s 468 733 m -48 -48 d s 445 725 m -40 -40 d s 444 739 m -13 -14 d s 418 713 m -28 -28 d s 444 754 m -13 -13 d s 417 727 m -42 -42 d s 442 767 m -11 -11 d s 417 742 m
 -14 -14 d s 395 720 m -35 -35 d s 417 757 m -14 -14 d s 390 730 m -45 -45 d s 417 772 m -14 -13 d s 390 745 m -60 -60 d s 417 788 m -14 -14 d s 383 753 m -7 -7 d s 371 741 m -56 -56 d s 405 790 m -2 -1 d s 362 748 m -62 -63 d s 362 763 m -13 -14 d s
 338 738 m -53 -53 d s 351 766 m -2 -2 d s 330 745 m -60 -60 d s 318 748 m -10 -10 d s 294 724 m -39 -39 d s 294 739 m -55 -54 d s 294 755 m -70 -70 d s 286 761 m -77 -76 d s 280 771 m -13 -14 d s 255 746 m -61 -61 d s 268 774 m -1 -1 d s 253 759 m
 -74 -74 d s 253 774 m -89 -89 d s 246 783 m -97 -98 d s 224 775 m -81 -81 d s 212 778 m -69 -69 d s 212 793 m -69 -68 d s 207 804 m -64 -64 d s 198 810 m -55 -55 d s 198 825 m -55 -55 d s 198 840 m -13 -13 d s 178 820 m -35 -35 d s 186 843 m -1 -1 d
 s 171 828 m -28 -28 d s 171 843 m -28 -27 d s 158 846 m -15 -15 d s 157 860 m -14 -14 d s 157 875 m -14 -14 d s 157 890 m -14 -14 d s 157 905 m -14 -13 d s 157 921 m -14 -14 d s 157 936 m -14 -14 d s 157 951 m -14 -14 d s 157 966 m -14 -14 d s 157
 981 m -14 -14 d s 157 996 m -14 -13 d s 157 1012 m -14 -14 d s 157 1027 m -14 -14 d s 157 1042 m -14 -14 d s 157 1057 m -14 -14 d s 157 1072 m -14 -13 d s 144 1075 m -1 -1 d s 6 lw 143 1075 m 14 X -229 Y 14 X -26 Y 14 X 23 Y 13 X -39 Y 14 X -29 Y 14
 X 1 Y 13 X 7 Y 14 X -37 Y 14 X 28 Y 13 X -13 Y 14 X -38 Y 14 X 25 Y 13 X -3 Y 14 X -7 Y 14 X 28 Y 13 X -25 Y 14 X 12 Y 14 X -33 Y 13 X 70 Y 14 X -77 Y 14 X 54 Y 13 X -42 Y 14 X 8 Y 14 X -18 Y 27 X -3 Y 14 X 5 Y 13 X -15 Y 14 X 12 Y 14 X 1 Y 13 X 3 Y
 14 X -10 Y 14 X 7 Y 14 X -14 Y 13 X -2 Y 14 X 6 Y 14 X -8 Y 13 X 11 Y 14 X -23 Y 14 X s black 3 lw 143 685 m 548 X s 179 698 m -13 Y s 197 691 m -6 Y s 215 691 m -6 Y s 232 691 m -6 Y s 250 698 m -13 Y s 268 691 m -6 Y s 286 691 m -6 Y s 304 691 m
 -6 Y s 321 698 m -13 Y s 339 691 m -6 Y s 357 691 m -6 Y s 375 691 m -6 Y s 393 698 m -13 Y s 410 691 m -6 Y s 428 691 m -6 Y s 446 691 m -6 Y s 464 698 m -13 Y s 482 691 m -6 Y s 499 691 m -6 Y s 517 691 m -6 Y s 535 698 m -13 Y s 553 691 m -6 Y s
 571 691 m -6 Y s 588 691 m -6 Y s 606 698 m -13 Y s 624 691 m -6 Y s 642 691 m -6 Y s 659 691 m -6 Y s 677 698 m -13 Y s 179 698 m -13 Y s 161 691 m -6 Y s 677 698 m -13 Y s 143 1114 m 548 X s 179 1100 m 14 Y s 197 1107 m 7 Y s 215 1107 m 7 Y s 232
 1107 m 7 Y s 250 1100 m 14 Y s 268 1107 m 7 Y s 286 1107 m 7 Y s 304 1107 m 7 Y s 321 1100 m 14 Y s 339 1107 m 7 Y s 357 1107 m 7 Y s 375 1107 m 7 Y s 393 1100 m 14 Y s 410 1107 m 7 Y s 428 1107 m 7 Y s 446 1107 m 7 Y s 464 1100 m 14 Y s 482 1107 m
 7 Y s 499 1107 m 7 Y s 517 1107 m 7 Y s 535 1100 m 14 Y s 553 1107 m 7 Y s 571 1107 m 7 Y s 588 1107 m 7 Y s 606 1100 m 14 Y s 624 1107 m 7 Y s 642 1107 m 7 Y s 659 1107 m 7 Y s 677 1100 m 14 Y s 179 1100 m 14 Y s 161 1107 m 7 Y s 677 1100 m 14 Y s
 143 685 m 429 Y s 160 685 m -17 X s 152 695 m -9 X s 152 705 m -9 X s 152 715 m -9 X s 152 725 m -9 X s 160 735 m -17 X s 152 745 m -9 X s 152 755 m -9 X s 152 765 m -9 X s 152 775 m -9 X s 160 785 m -17 X s 152 795 m -9 X s 152 805 m -9 X s 152 815
 m -9 X s 152 825 m -9 X s 160 835 m -17 X s 152 845 m -9 X s 152 855 m -9 X s 152 865 m -9 X s 152 875 m -9 X s 160 885 m -17 X s 152 895 m -9 X s 152 905 m -9 X s 152 915 m -9 X s 152 925 m -9 X s 160 935 m -17 X s 152 945 m -9 X s 152 955 m -9 X s
 152 965 m -9 X s 152 975 m -9 X s 160 985 m -17 X s 152 995 m -9 X s 152 1005 m -9 X s 152 1015 m -9 X s 152 1025 m -9 X s 160 1035 m -17 X s 152 1045 m -9 X s 152 1055 m -9 X s 152 1065 m -9 X s 152 1075 m -9 X s 160 1085 m -17 X s 160 1085 m -17 X
 s 152 1095 m -9 X s 152 1105 m -9 X s 691 685 m 429 Y s 674 685 m 17 X s 683 695 m 8 X s 683 705 m 8 X s 683 715 m 8 X s 683 725 m 8 X s 674 735 m 17 X s 683 745 m 8 X s 683 755 m 8 X s 683 765 m 8 X s 683 775 m 8 X s 674 785 m 17 X s 683 795 m 8 X
 s 683 805 m 8 X s 683 815 m 8 X s 683 825 m 8 X s 674 835 m 17 X s 683 845 m 8 X s 683 855 m 8 X s 683 865 m 8 X s 683 875 m 8 X s 674 885 m 17 X s 683 895 m 8 X s 683 905 m 8 X s 683 915 m 8 X s 683 925 m 8 X s 674 935 m 17 X s 683 945 m 8 X s 683
 955 m 8 X s 683 965 m 8 X s 683 975 m 8 X s 674 985 m 17 X s 683 995 m 8 X s 683 1005 m 8 X s 683 1015 m 8 X s 683 1025 m 8 X s 674 1035 m 17 X s 683 1045 m 8 X s 683 1055 m 8 X s 683 1065 m 8 X s 683 1075 m 8 X s 674 1085 m 17 X s 674 1085 m 17 X s
 683 1095 m 8 X s 683 1105 m 8 X s
 gsave  710 567 23 603 C 719.017 682.347 t 90 r /Helvetica-Bold findfont 19.9602 sf 0 0 m (U/O\255flow \(S,B\): \(0.0, 0.0\)% / \(0.0, 0.0\)%) show NC gr  0.490196 0.545098 0.615686 c 0.364706 0.419608 0.490196 c 335 38 30 1130 bf 0.490196 0.545098
 0.615686 c 30 1130 m 335 X s 365 1130 m 38 Y s 365 1168 m -335 X s 30 1168 m -38 Y s 1 1 1 c black 1 1 1 c
 gsave  710 567 23 603 C 34.101 1142.38 t 0 r /Helvetica-Bold findfont 28.5146 sf 0 0 m (Input variable: bb.H1_l2) show NC gr  0.490196 0.545098 0.615686 c 0.941176 0.941176 0.941176 c 710 567 779 603 bf black 1 1 0.992157 c 548 429 899 685 bf black
 548 429 899 685 bl 0 0 0.933333 c 6 lw 0.49 0.6 0.82 c black 3 lw 0.49 0.6 0.82 c 899 705 m 1 Y 14 X -1 Y 14 X 3 Y 13 X -3 Y 14 X 3 Y 14 X -3 Y 13 X 1 Y 14 X -1 Y 14 X 1 Y 13 X 3 Y 14 X 119 Y 14 X 248 Y 14 X -166 Y 13 X -77 Y 14 X 2 Y 14 X -11 Y 13
 X -16 Y 14 X -22 Y 14 X -11 Y 13 X 30 Y 14 X -33 Y 14 X -8 Y 13 X 9 Y 14 X -10 Y 14 X 1 Y 13 X -45 Y 14 X 52 Y 14 X -8 Y 13 X 8 Y 14 X -28 Y 14 X 6 Y 13 X -13 Y 14 X -7 Y 14 X -11 Y 13 X 10 Y 14 X -2 Y 14 X -12 Y 13 X -3 Y 14 X -3 Y 14 X -3 Y 14 X f
 6 lw 0 0 0.933333 c 0.49 0.6 0.82 c 0 0 0.933333 c 899 706 m 14 X -1 Y 14 X 3 Y 13 X -3 Y 14 X 3 Y 14 X -3 Y 13 X 1 Y 14 X -1 Y 14 X 1 Y 13 X 3 Y 14 X 119 Y 14 X 248 Y 14 X -166 Y 13 X -77 Y 14 X 2 Y 14 X -11 Y 13 X -16 Y 14 X -22 Y 14 X -11 Y 13 X
 30 Y 14 X -33 Y 14 X -8 Y 13 X 9 Y 14 X -10 Y 14 X 1 Y 13 X -45 Y 14 X 52 Y 14 X -8 Y 13 X 8 Y 14 X -28 Y 14 X 6 Y 13 X -13 Y 14 X -7 Y 14 X -11 Y 13 X 10 Y 14 X -2 Y 14 X -12 Y 13 X -3 Y 14 X -3 Y 14 X -3 Y 14 X s black 3 lw 899 685 m 548 X s 953
 698 m -13 Y s 967 691 m -6 Y s 980 691 m -6 Y s 994 691 m -6 Y s 1007 698 m -13 Y s 1021 691 m -6 Y s 1035 691 m -6 Y s 1048 691 m -6 Y s 1062 698 m -13 Y s 1075 691 m -6 Y s 1089 691 m -6 Y s 1102 691 m -6 Y s 1116 698 m -13 Y s 1129 691 m -6 Y s
 1143 691 m -6 Y s 1156 691 m -6 Y s 1170 698 m -13 Y s 1183 691 m -6 Y s 1197 691 m -6 Y s 1210 691 m -6 Y s 1224 698 m -13 Y s 1237 691 m -6 Y s 1251 691 m -6 Y s 1264 691 m -6 Y s 1278 698 m -13 Y s 1291 691 m -6 Y s 1305 691 m -6 Y s 1318 691 m
 -6 Y s 1332 698 m -13 Y s 1345 691 m -6 Y s 1359 691 m -6 Y s 1373 691 m -6 Y s 1386 698 m -13 Y s 1400 691 m -6 Y s 1413 691 m -6 Y s 1427 691 m -6 Y s 1440 698 m -13 Y s 953 698 m -13 Y s 940 691 m -6 Y s 926 691 m -6 Y s 913 691 m -6 Y s 1440 698
 m -13 Y s
 gsave  710 567 779 603 C 940.619 656.444 t 0 r /Helvetica findfont 25.6631 sf 0 0 m (0.8) show NC gr 
 gsave  710 567 779 603 C 926.411 656.444 t 0 r /Symbol findfont 25.6631 sf 0 0 m (-) show NC gr 
 gsave  710 567 779 603 C 994.612 656.444 t 0 r /Helvetica findfont 25.6631 sf 0 0 m (0.6) show NC gr 
 gsave  710 567 779 603 C 980.404 656.444 t 0 r /Symbol findfont 25.6631 sf 0 0 m (-) show NC gr 
 gsave  710 567 779 603 C 1048.61 656.444 t 0 r /Helvetica findfont 25.6631 sf 0 0 m (0.4) show NC gr 
 gsave  710 567 779 603 C 1034.4 656.444 t 0 r /Symbol findfont 25.6631 sf 0 0 m (-) show NC gr 
 gsave  710 567 779 603 C 1102.6 656.444 t 0 r /Helvetica findfont 25.6631 sf 0 0 m (0.2) show NC gr 
 gsave  710 567 779 603 C 1088.39 656.444 t 0 r /Symbol findfont 25.6631 sf 0 0 m (-) show NC gr 
 gsave  710 567 779 603 C 1159.43 656.444 t 0 r /Helvetica findfont 25.6631 sf 0 0 m (0) show NC gr 
 gsave  710 567 779 603 C 1204.9 656.444 t 0 r /Helvetica findfont 25.6631 sf 0 0 m (0.2) show NC gr 
 gsave  710 567 779 603 C 1258.9 656.444 t 0 r /Helvetica findfont 25.6631 sf 0 0 m (0.4) show NC gr 
 gsave  710 567 779 603 C 1312.89 656.444 t 0 r /Helvetica findfont 25.6631 sf 0 0 m (0.6) show NC gr 
 gsave  710 567 779 603 C 1366.88 656.444 t 0 r /Helvetica findfont 25.6631 sf 0 0 m (0.8) show NC gr 
 gsave  710 567 779 603 C 1432.24 656.444 t 0 r /Helvetica findfont 25.6631 sf 0 0 m (1) show NC gr 
 gsave  710 567 779 603 C 1332.78 613.818 t 0 r /Helvetica findfont 28.5146 sf 0 0 m (bb.H1_l3) show NC gr  899 1114 m 548 X s 953 1100 m 14 Y s 967 1107 m 7 Y s 980 1107 m 7 Y s 994 1107 m 7 Y s 1007 1100 m 14 Y s 1021 1107 m 7 Y s 1035 1107 m 7 Y s
 1048 1107 m 7 Y s 1062 1100 m 14 Y s 1075 1107 m 7 Y s 1089 1107 m 7 Y s 1102 1107 m 7 Y s 1116 1100 m 14 Y s 1129 1107 m 7 Y s 1143 1107 m 7 Y s 1156 1107 m 7 Y s 1170 1100 m 14 Y s 1183 1107 m 7 Y s 1197 1107 m 7 Y s 1210 1107 m 7 Y s 1224 1100 m
 14 Y s 1237 1107 m 7 Y s 1251 1107 m 7 Y s 1264 1107 m 7 Y s 1278 1100 m 14 Y s 1291 1107 m 7 Y s 1305 1107 m 7 Y s 1318 1107 m 7 Y s 1332 1100 m 14 Y s 1345 1107 m 7 Y s 1359 1107 m 7 Y s 1373 1107 m 7 Y s 1386 1100 m 14 Y s 1400 1107 m 7 Y s 1413
 1107 m 7 Y s 1427 1107 m 7 Y s 1440 1100 m 14 Y s 953 1100 m 14 Y s 940 1107 m 7 Y s 926 1107 m 7 Y s 913 1107 m 7 Y s 1440 1100 m 14 Y s 899 685 m 429 Y s 915 705 m -16 X s 907 716 m -8 X s 907 727 m -8 X s 907 738 m -8 X s 907 749 m -8 X s 915 760
 m -16 X s 907 771 m -8 X s 907 782 m -8 X s 907 793 m -8 X s 907 804 m -8 X s 915 815 m -16 X s 907 825 m -8 X s 907 836 m -8 X s 907 847 m -8 X s 907 858 m -8 X s 915 869 m -16 X s 907 880 m -8 X s 907 891 m -8 X s 907 902 m -8 X s 907 913 m -8 X s
 915 924 m -16 X s 907 935 m -8 X s 907 946 m -8 X s 907 956 m -8 X s 907 967 m -8 X s 915 978 m -16 X s 907 989 m -8 X s 907 1000 m -8 X s 907 1011 m -8 X s 907 1022 m -8 X s 915 1033 m -16 X s 907 1044 m -8 X s 907 1055 m -8 X s 907 1066 m -8 X s
 907 1077 m -8 X s 915 1087 m -16 X s 915 705 m -16 X s 907 694 m -8 X s 915 1087 m -16 X s 907 1098 m -8 X s 907 1109 m -8 X s
 gsave  710 567 779 603 C 875.259 696.229 t 0 r /Helvetica findfont 25.6631 sf 0 0 m (0) show NC gr 
 gsave  710 567 779 603 C 855.367 750.222 t 0 r /Helvetica findfont 25.6631 sf 0 0 m (0.5) show NC gr 
 gsave  710 567 779 603 C 878.101 804.215 t 0 r /Helvetica findfont 25.6631 sf 0 0 m (1) show NC gr 
 gsave  710 567 779 603 C 855.367 858.209 t 0 r /Helvetica findfont 25.6631 sf 0 0 m (1.5) show NC gr 
 gsave  710 567 779 603 C 875.259 915.044 t 0 r /Helvetica findfont 25.6631 sf 0 0 m (2) show NC gr 
 gsave  710 567 779 603 C 855.367 969.037 t 0 r /Helvetica findfont 25.6631 sf 0 0 m (2.5) show NC gr 
 gsave  710 567 779 603 C 875.259 1023.03 t 0 r /Helvetica findfont 25.6631 sf 0 0 m (3) show NC gr 
 gsave  710 567 779 603 C 855.367 1077.02 t 0 r /Helvetica findfont 25.6631 sf 0 0 m (3.5) show NC gr 
 gsave  710 567 779 603 C 801.374 1023.03 t 90 r /Helvetica findfont 28.5146 sf 0 0 m (0.0506 ) show NC gr 
 gsave  710 567 779 603 C 787.165 1020.19 t 90 r /Helvetica findfont 19.9602 sf 0 0 m ( ) show NC gr 
 gsave  710 567 779 603 C 801.374 1008.82 t 90 r /Helvetica findfont 28.5146 sf 0 0 m (/) show NC gr 
 gsave  710 567 779 603 C 809.899 1005.98 t 90 r /Helvetica findfont 19.9602 sf 0 0 m ( ) show NC gr 
 gsave  710 567 779 603 C 801.374 900.835 t 90 r /Helvetica findfont 28.5146 sf 0 0 m (\(1/N\) dN) show NC gr  1447 685 m 429 Y s 1430 705 m 17 X s 1438 716 m 9 X s 1438 727 m 9 X s 1438 738 m 9 X s 1438 749 m 9 X s 1430 760 m 17 X s 1438 771 m 9 X s
 1438 782 m 9 X s 1438 793 m 9 X s 1438 804 m 9 X s 1430 815 m 17 X s 1438 825 m 9 X s 1438 836 m 9 X s 1438 847 m 9 X s 1438 858 m 9 X s 1430 869 m 17 X s 1438 880 m 9 X s 1438 891 m 9 X s 1438 902 m 9 X s 1438 913 m 9 X s 1430 924 m 17 X s 1438 935
 m 9 X s 1438 946 m 9 X s 1438 956 m 9 X s 1438 967 m 9 X s 1430 978 m 17 X s 1438 989 m 9 X s 1438 1000 m 9 X s 1438 1011 m 9 X s 1438 1022 m 9 X s 1430 1033 m 17 X s 1438 1044 m 9 X s 1438 1055 m 9 X s 1438 1066 m 9 X s 1438 1077 m 9 X s 1430 1087
 m 17 X s 1430 705 m 17 X s 1438 694 m 9 X s 1430 1087 m 17 X s 1438 1098 m 9 X s 1438 1109 m 9 X s 0.490196 0.545098 0.615686 c 0.364706 0.419608 0.490196 c 335 38 786 1130 bf 0.490196 0.545098 0.615686 c 786 1130 m 335 X s 1121 1130 m 38 Y s 1121
 1168 m -335 X s 786 1168 m -38 Y s 1 1 1 c black 1 1 1 c
 gsave  710 567 779 603 C 790.007 1142.38 t 0 r /Helvetica-Bold findfont 28.5146 sf 0 0 m (Input variable: bb.H1_l3) show NC gr  1 0 0 c 6 lw black 3 lw 1 0 0 c 1438 705 m s 1423 706 m -1 Y s 1408 706 m -1 Y s 1393 706 m -1 Y s 1378 706 m -1 Y s 1365
 708 m -1 -1 d s 1364 707 m -1 -2 d s 1350 708 m -2 -3 d s 1335 708 m -2 -3 d s 1323 711 m -6 -6 d s 1311 714 m -1 -1 d s 1305 708 m -3 -3 d s 1296 714 m -9 -9 d s 1296 729 m -24 -24 d s 1296 745 m -39 -40 d s 1296 760 m -54 -55 d s 1296 775 m -69
 -70 d s 1296 790 m -84 -85 d s 1296 805 m -99 -100 d s 1296 820 m -114 -115 d s 1296 836 m -129 -131 d s 1296 851 m -27 -28 d s 1267 822 m -26 -26 d s 1233 787 m -19 -19 d s 1207 761 m -55 -56 d s 1296 866 m -27 -28 d s 1255 825 m -14 -14 d s 1220
 789 m -6 -6 d s 1200 770 m -63 -65 d s 1296 881 m -27 -27 d s 1200 785 m -13 -14 d s 1185 769 m -64 -64 d s 1296 896 m -27 -27 d s 1200 800 m -13 -14 d s 1173 772 m -67 -67 d s 1296 912 m -27 -28 d s 1189 804 m -2 -3 d s 1160 774 m -69 -69 d s 1296
 927 m -14 -14 d s 1278 909 m -9 -10 d s 1159 789 m -13 -14 d s 1136 766 m -60 -61 d s 1296 942 m -14 -14 d s 1149 793 m -3 -3 d s 1132 777 m -71 -72 d s 1296 957 m -14 -14 d s 1132 792 m -14 -14 d s 1115 775 m -69 -70 d s 1296 972 m -14 -13 d s 1123
 798 m -5 -5 d s 1101 776 m -70 -71 d s 1286 978 m -4 -4 d s 1091 781 m -55 -55 d s 1031 720 m -9 -8 d s 1022 711 m -6 -6 d s 1091 796 m -55 -55 d s 1009 713 m -8 -8 d s 1091 811 m -55 -55 d s 1005 725 m -10 -10 d s 994 713 m -8 -8 d s 1082 817 m -5
 -4 d s 1065 801 m -15 -16 d s 980 715 m -9 -10 d s 1064 814 m -14 -14 d s 959 708 m -3 -3 d s 1064 829 m -14 -14 d s 954 719 m -13 -14 d s 1064 844 m -14 -13 d s 933 713 m -7 -8 d s 1064 860 m -14 -14 d s 920 715 m -10 -10 d s 1064 875 m -14 -14 d s
 907 717 m -8 -8 d s 1064 890 m -14 -14 d s 1064 905 m -14 -14 d s 1063 920 m -13 -14 d s 6 lw 899 717 m 14 X -2 Y 14 X -2 Y 13 X 7 Y 14 X -12 Y 14 X 7 Y 13 X -2 Y 14 X 12 Y 14 X -14 Y 13 X 9 Y 14 X 51 Y 14 X 149 Y 14 X -119 Y 13 X 16 Y 14 X -41 Y 14
 X -1 Y 13 X 23 Y 14 X -32 Y 14 X 27 Y 13 X -19 Y 14 X -5 Y 14 X 35 Y 13 X -43 Y 14 X 28 Y 14 X -2 Y 13 X 38 Y 14 X -3 Y 14 X 87 Y 13 X 69 Y 14 X -270 Y 14 X 6 Y 13 X -6 Y 28 X -1 Y 13 X 1 Y 14 X -2 Y 55 X -1 Y 14 X s black 3 lw 899 685 m 548 X s 953
 698 m -13 Y s 967 691 m -6 Y s 980 691 m -6 Y s 994 691 m -6 Y s 1007 698 m -13 Y s 1021 691 m -6 Y s 1035 691 m -6 Y s 1048 691 m -6 Y s 1062 698 m -13 Y s 1075 691 m -6 Y s 1089 691 m -6 Y s 1102 691 m -6 Y s 1116 698 m -13 Y s 1129 691 m -6 Y s
 1143 691 m -6 Y s 1156 691 m -6 Y s 1170 698 m -13 Y s 1183 691 m -6 Y s 1197 691 m -6 Y s 1210 691 m -6 Y s 1224 698 m -13 Y s 1237 691 m -6 Y s 1251 691 m -6 Y s 1264 691 m -6 Y s 1278 698 m -13 Y s 1291 691 m -6 Y s 1305 691 m -6 Y s 1318 691 m
 -6 Y s 1332 698 m -13 Y s 1345 691 m -6 Y s 1359 691 m -6 Y s 1373 691 m -6 Y s 1386 698 m -13 Y s 1400 691 m -6 Y s 1413 691 m -6 Y s 1427 691 m -6 Y s 1440 698 m -13 Y s 953 698 m -13 Y s 940 691 m -6 Y s 926 691 m -6 Y s 913 691 m -6 Y s 1440 698
 m -13 Y s 899 1114 m 548 X s 953 1100 m 14 Y s 967 1107 m 7 Y s 980 1107 m 7 Y s 994 1107 m 7 Y s 1007 1100 m 14 Y s 1021 1107 m 7 Y s 1035 1107 m 7 Y s 1048 1107 m 7 Y s 1062 1100 m 14 Y s 1075 1107 m 7 Y s 1089 1107 m 7 Y s 1102 1107 m 7 Y s 1116
 1100 m 14 Y s 1129 1107 m 7 Y s 1143 1107 m 7 Y s 1156 1107 m 7 Y s 1170 1100 m 14 Y s 1183 1107 m 7 Y s 1197 1107 m 7 Y s 1210 1107 m 7 Y s 1224 1100 m 14 Y s 1237 1107 m 7 Y s 1251 1107 m 7 Y s 1264 1107 m 7 Y s 1278 1100 m 14 Y s 1291 1107 m 7 Y
 s 1305 1107 m 7 Y s 1318 1107 m 7 Y s 1332 1100 m 14 Y s 1345 1107 m 7 Y s 1359 1107 m 7 Y s 1373 1107 m 7 Y s 1386 1100 m 14 Y s 1400 1107 m 7 Y s 1413 1107 m 7 Y s 1427 1107 m 7 Y s 1440 1100 m 14 Y s 953 1100 m 14 Y s 940 1107 m 7 Y s 926 1107 m
 7 Y s 913 1107 m 7 Y s 1440 1100 m 14 Y s 899 685 m 429 Y s 915 705 m -16 X s 907 716 m -8 X s 907 727 m -8 X s 907 738 m -8 X s 907 749 m -8 X s 915 760 m -16 X s 907 771 m -8 X s 907 782 m -8 X s 907 793 m -8 X s 907 804 m -8 X s 915 815 m -16 X s
 907 825 m -8 X s 907 836 m -8 X s 907 847 m -8 X s 907 858 m -8 X s 915 869 m -16 X s 907 880 m -8 X s 907 891 m -8 X s 907 902 m -8 X s 907 913 m -8 X s 915 924 m -16 X s 907 935 m -8 X s 907 946 m -8 X s 907 956 m -8 X s 907 967 m -8 X s 915 978 m
 -16 X s 907 989 m -8 X s 907 1000 m -8 X s 907 1011 m -8 X s 907 1022 m -8 X s 915 1033 m -16 X s 907 1044 m -8 X s 907 1055 m -8 X s 907 1066 m -8 X s 907 1077 m -8 X s 915 1087 m -16 X s 915 705 m -16 X s 907 694 m -8 X s 915 1087 m -16 X s 907
 1098 m -8 X s 907 1109 m -8 X s 1447 685 m 429 Y s 1430 705 m 17 X s 1438 716 m 9 X s 1438 727 m 9 X s 1438 738 m 9 X s 1438 749 m 9 X s 1430 760 m 17 X s 1438 771 m 9 X s 1438 782 m 9 X s 1438 793 m 9 X s 1438 804 m 9 X s 1430 815 m 17 X s 1438 825
 m 9 X s 1438 836 m 9 X s 1438 847 m 9 X s 1438 858 m 9 X s 1430 869 m 17 X s 1438 880 m 9 X s 1438 891 m 9 X s 1438 902 m 9 X s 1438 913 m 9 X s 1430 924 m 17 X s 1438 935 m 9 X s 1438 946 m 9 X s 1438 956 m 9 X s 1438 967 m 9 X s 1430 978 m 17 X s
 1438 989 m 9 X s 1438 1000 m 9 X s 1438 1011 m 9 X s 1438 1022 m 9 X s 1430 1033 m 17 X s 1438 1044 m 9 X s 1438 1055 m 9 X s 1438 1066 m 9 X s 1438 1077 m 9 X s 1430 1087 m 17 X s 1430 705 m 17 X s 1438 694 m 9 X s 1430 1087 m 17 X s 1438 1098 m 9
 X s 1438 1109 m 9 X s
 gsave  710 567 779 603 C 1474.92 682.347 t 90 r /Helvetica-Bold findfont 19.9602 sf 0 0 m (U/O\255flow \(S,B\): \(0.0, 0.0\)% / \(0.0, 0.0\)%) show NC gr  0.490196 0.545098 0.615686 c 0.364706 0.419608 0.490196 c 335 38 786 1130 bf 0.490196 0.545098
 0.615686 c 786 1130 m 335 X s 1121 1130 m 38 Y s 1121 1168 m -335 X s 786 1168 m -38 Y s 1 1 1 c black 1 1 1 c
 gsave  710 567 779 603 C 790.007 1142.38 t 0 r /Helvetica-Bold findfont 28.5146 sf 0 0 m (Input variable: bb.H1_l3) show NC gr  0.490196 0.545098 0.615686 c 0.941176 0.941176 0.941176 c 711 567 1534 603 bf black 1 1 0.992157 c 547 429 1655 685 bf
 black 547 429 1655 685 bl 0 0 0.933333 c 6 lw 0.49 0.6 0.82 c black 3 lw 0.49 0.6 0.82 c 1655 685 m 390 Y 14 X -253 Y 14 X -16 Y 13 X -37 Y 14 X 7 Y 14 X -15 Y 13 X 2 Y 14 X -12 Y 14 X -9 Y 13 X 22 Y 14 X -29 Y 14 X -25 Y 13 X 46 Y 14 X -22 Y 14 X
 13 Y 13 X -6 Y 14 X -29 Y 14 X 28 Y 13 X 13 Y 14 X -9 Y 14 X 24 Y 14 X 50 Y 13 X -120 Y 28 X -5 Y 13 X 1 Y 14 X -5 Y 14 X 7 Y 13 X -1 Y 14 X -1 Y 14 X 1 Y 13 X -4 Y 14 X -3 Y 14 X 1 Y 13 X -3 Y 14 X 1 Y 14 X -1 Y 13 X -1 Y 41 X f 6 lw 0 0 0.933333 c
 0.49 0.6 0.82 c 0 0 0.933333 c 1655 1075 m 14 X -253 Y 14 X -16 Y 13 X -37 Y 14 X 7 Y 14 X -15 Y 13 X 2 Y 14 X -12 Y 14 X -9 Y 13 X 22 Y 14 X -29 Y 14 X -25 Y 13 X 46 Y 14 X -22 Y 14 X 13 Y 13 X -6 Y 14 X -29 Y 14 X 28 Y 13 X 13 Y 14 X -9 Y 14 X 24
 Y 14 X 50 Y 13 X -120 Y 28 X -5 Y 13 X 1 Y 14 X -5 Y 14 X 7 Y 13 X -1 Y 14 X -1 Y 14 X 1 Y 13 X -4 Y 14 X -3 Y 14 X 1 Y 13 X -3 Y 14 X 1 Y 14 X -1 Y 13 X -1 Y 41 X s black 3 lw 1655 685 m 547 X s 1666 698 m -13 Y s 1685 691 m -6 Y s 1703 691 m -6 Y
 s 1722 691 m -6 Y s 1741 698 m -13 Y s 1759 691 m -6 Y s 1778 691 m -6 Y s 1797 691 m -6 Y s 1815 698 m -13 Y s 1834 691 m -6 Y s 1853 691 m -6 Y s 1872 691 m -6 Y s 1890 698 m -13 Y s 1909 691 m -6 Y s 1928 691 m -6 Y s 1946 691 m -6 Y s 1965 698 m
 -13 Y s 1984 691 m -6 Y s 2002 691 m -6 Y s 2021 691 m -6 Y s 2040 698 m -13 Y s 2058 691 m -6 Y s 2077 691 m -6 Y s 2096 691 m -6 Y s 2114 698 m -13 Y s 2133 691 m -6 Y s 2152 691 m -6 Y s 2171 691 m -6 Y s 2189 698 m -13 Y s 1666 698 m -13 Y s
 2189 698 m -13 Y s
 gsave  711 567 1534 603 C 1653.9 656.444 t 0 r /Helvetica findfont 25.6631 sf 0 0 m (0.4) show NC gr 
 gsave  711 567 1534 603 C 1639.69 656.444 t 0 r /Symbol findfont 25.6631 sf 0 0 m (-) show NC gr 
 gsave  711 567 1534 603 C 1727.78 656.444 t 0 r /Helvetica findfont 25.6631 sf 0 0 m (0.2) show NC gr 
 gsave  711 567 1534 603 C 1713.58 656.444 t 0 r /Symbol findfont 25.6631 sf 0 0 m (-) show NC gr 
 gsave  711 567 1534 603 C 1804.51 656.444 t 0 r /Helvetica findfont 25.6631 sf 0 0 m (0) show NC gr 
 gsave  711 567 1534 603 C 1872.71 656.444 t 0 r /Helvetica findfont 25.6631 sf 0 0 m (0.2) show NC gr 
 gsave  711 567 1534 603 C 1946.6 656.444 t 0 r /Helvetica findfont 25.6631 sf 0 0 m (0.4) show NC gr 
 gsave  711 567 1534 603 C 2020.48 656.444 t 0 r /Helvetica findfont 25.6631 sf 0 0 m (0.6) show NC gr 
 gsave  711 567 1534 603 C 2097.21 656.444 t 0 r /Helvetica findfont 25.6631 sf 0 0 m (0.8) show NC gr 
 gsave  711 567 1534 603 C 2182.46 656.444 t 0 r /Helvetica findfont 25.6631 sf 0 0 m (1) show NC gr 
 gsave  711 567 1534 603 C 2088.69 613.818 t 0 r /Helvetica findfont 28.5146 sf 0 0 m (bb.H1_l4) show NC gr  1655 1114 m 547 X s 1666 1100 m 14 Y s 1685 1107 m 7 Y s 1703 1107 m 7 Y s 1722 1107 m 7 Y s 1741 1100 m 14 Y s 1759 1107 m 7 Y s 1778 1107 m
 7 Y s 1797 1107 m 7 Y s 1815 1100 m 14 Y s 1834 1107 m 7 Y s 1853 1107 m 7 Y s 1872 1107 m 7 Y s 1890 1100 m 14 Y s 1909 1107 m 7 Y s 1928 1107 m 7 Y s 1946 1107 m 7 Y s 1965 1100 m 14 Y s 1984 1107 m 7 Y s 2002 1107 m 7 Y s 2021 1107 m 7 Y s 2040
 1100 m 14 Y s 2058 1107 m 7 Y s 2077 1107 m 7 Y s 2096 1107 m 7 Y s 2114 1100 m 14 Y s 2133 1107 m 7 Y s 2152 1107 m 7 Y s 2171 1107 m 7 Y s 2189 1100 m 14 Y s 1666 1100 m 14 Y s 2189 1100 m 14 Y s 1655 685 m 429 Y s 1671 685 m -16 X s 1663 700 m -8
 X s 1663 714 m -8 X s 1663 729 m -8 X s 1663 744 m -8 X s 1671 759 m -16 X s 1663 774 m -8 X s 1663 789 m -8 X s 1663 804 m -8 X s 1663 819 m -8 X s 1671 834 m -16 X s 1663 848 m -8 X s 1663 863 m -8 X s 1663 878 m -8 X s 1663 893 m -8 X s 1671 908
 m -16 X s 1663 923 m -8 X s 1663 938 m -8 X s 1663 953 m -8 X s 1663 968 m -8 X s 1671 983 m -16 X s 1663 997 m -8 X s 1663 1012 m -8 X s 1663 1027 m -8 X s 1663 1042 m -8 X s 1671 1057 m -16 X s 1671 1057 m -16 X s 1663 1072 m -8 X s 1663 1087 m -8
 X s 1663 1102 m -8 X s
 gsave  711 567 1534 603 C 1631.16 673.495 t 0 r /Helvetica findfont 25.6631 sf 0 0 m (0) show NC gr 
 gsave  711 567 1534 603 C 1634.01 750.222 t 0 r /Helvetica findfont 25.6631 sf 0 0 m (1) show NC gr 
 gsave  711 567 1534 603 C 1631.16 824.108 t 0 r /Helvetica findfont 25.6631 sf 0 0 m (2) show NC gr 
 gsave  711 567 1534 603 C 1631.16 897.993 t 0 r /Helvetica findfont 25.6631 sf 0 0 m (3) show NC gr 
 gsave  711 567 1534 603 C 1631.16 971.879 t 0 r /Helvetica findfont 25.6631 sf 0 0 m (4) show NC gr 
 gsave  711 567 1534 603 C 1631.16 1045.76 t 0 r /Helvetica findfont 25.6631 sf 0 0 m (5) show NC gr 
 gsave  711 567 1534 603 C 1557.28 1023.03 t 90 r /Helvetica findfont 28.5146 sf 0 0 m (0.0366 ) show NC gr 
 gsave  711 567 1534 603 C 1543.07 1020.19 t 90 r /Helvetica findfont 19.9602 sf 0 0 m ( ) show NC gr 
 gsave  711 567 1534 603 C 1557.28 1008.82 t 90 r /Helvetica findfont 28.5146 sf 0 0 m (/) show NC gr 
 gsave  711 567 1534 603 C 1565.8 1005.98 t 90 r /Helvetica findfont 19.9602 sf 0 0 m ( ) show NC gr 
 gsave  711 567 1534 603 C 1557.28 900.835 t 90 r /Helvetica findfont 28.5146 sf 0 0 m (\(1/N\) dN) show NC gr  2202 685 m 429 Y s 2186 685 m 16 X s 2194 700 m 8 X s 2194 714 m 8 X s 2194 729 m 8 X s 2194 744 m 8 X s 2186 759 m 16 X s 2194 774 m 8 X
 s 2194 789 m 8 X s 2194 804 m 8 X s 2194 819 m 8 X s 2186 834 m 16 X s 2194 848 m 8 X s 2194 863 m 8 X s 2194 878 m 8 X s 2194 893 m 8 X s 2186 908 m 16 X s 2194 923 m 8 X s 2194 938 m 8 X s 2194 953 m 8 X s 2194 968 m 8 X s 2186 983 m 16 X s 2194
 997 m 8 X s 2194 1012 m 8 X s 2194 1027 m 8 X s 2194 1042 m 8 X s 2186 1057 m 16 X s 2186 1057 m 16 X s 2194 1072 m 8 X s 2194 1087 m 8 X s 2194 1102 m 8 X s 0.490196 0.545098 0.615686 c 0.364706 0.419608 0.490196 c 335 38 1542 1130 bf 0.490196
 0.545098 0.615686 c 1542 1130 m 335 X s 1877 1130 m 38 Y s 1877 1168 m -335 X s 1542 1168 m -38 Y s 1 1 1 c black 1 1 1 c
 gsave  711 567 1534 603 C 1545.91 1142.38 t 0 r /Helvetica-Bold findfont 28.5146 sf 0 0 m (Input variable: bb.H1_l4) show NC gr  1 0 0 c 6 lw black 3 lw 1 0 0 c 2189 685 m -1 X s 2180 691 m -7 -6 d s 2162 688 m -4 -3 d s 2148 689 m -5 -4 d s 2130
 686 m -2 -1 d s 2119 690 m -6 -5 d s 2104 691 m -6 -6 d s 2091 693 m -8 -8 d s 2070 687 m -2 -2 d s 2055 687 m -2 -2 d s 2041 688 m -3 -3 d s 2029 691 m -6 -6 d s 2010 687 m -2 -2 d s 1997 689 m -5 -4 d s 1984 692 m -1 Y s 1982 689 m -5 -4 d s 1970
 692 m -8 -7 d s 1962 700 m -15 -15 d s 1956 709 m -24 -24 d s 1956 724 m -39 -39 d s 1956 739 m -54 -54 d s 1956 754 m -69 -69 d s 1956 770 m -84 -85 d s 1956 785 m -13 -14 d s 1933 762 m -18 -19 d s 1914 743 m -57 -58 d s 1956 800 m -13 -14 d s
 1921 765 m -6 -6 d s 1900 743 m -58 -58 d s 1956 815 m -13 -14 d s 1888 746 m -61 -61 d s 1956 830 m -13 -13 d s 1876 750 m -2 -2 d s 1868 742 m -56 -57 d s 1956 845 m -13 -13 d s 1860 749 m -64 -64 d s 1956 861 m -13 -14 d s 1850 754 m -69 -69 d s
 1956 876 m -13 -14 d s 1843 762 m -10 -10 d s 1819 738 m -53 -53 d s 1819 753 m -13 -14 d s 1795 729 m -44 -44 d s 1779 728 m -43 -43 d s 1778 742 m -57 -57 d s 1778 757 m -13 -13 d s 1756 735 m -50 -50 d s 1768 762 m -3 -3 d s 1751 745 m -60 -60 d
 s 1741 750 m -4 -3 d s 1731 740 m -55 -55 d s 1724 748 m -63 -63 d s 1724 763 m -69 -69 d s 1710 765 m -55 -56 d s 1705 775 m -50 -50 d s 1694 779 m -39 -39 d s 1683 782 m -28 -27 d s 1683 798 m -28 -28 d s 1682 812 m -27 -27 d s 1669 814 m -14 -14
 d s 1669 829 m -14 -13 d s 1669 845 m -14 -14 d s 1669 860 m -14 -14 d s 1669 875 m -14 -14 d s 1669 890 m -14 -14 d s 1669 905 m -14 -13 d s 1669 921 m -14 -14 d s 1669 936 m -14 -14 d s 1669 951 m -14 -14 d s 1669 966 m -14 -14 d s 1669 981 m -14
 -14 d s 1669 996 m -14 -13 d s 1669 1012 m -14 -14 d s 1669 1027 m -14 -14 d s 1669 1042 m -14 -14 d s 1661 1049 m -6 -6 d s 6 lw 1655 1049 m 14 X -237 Y 14 X -33 Y 13 X -4 Y 14 X -11 Y 14 X -24 Y 13 X 10 Y 14 X -15 Y 14 X 27 Y 13 X -34 Y 14 X 1 Y
 14 X 26 Y 13 X -18 Y 14 X 25 Y 14 X -8 Y 13 X -12 Y 14 X 8 Y 14 X -7 Y 27 X 22 Y 14 X -3 Y 14 X 114 Y 13 X -176 Y 14 X -11 Y 14 X 3 Y 13 X -5 Y 14 X 1 Y 14 X 3 Y 13 X -3 Y 14 X -1 Y 27 X 6 Y 14 X -2 Y 14 X -1 Y 13 X -4 Y 14 X 3 Y 14 X -1 Y 27 X 3 Y
 14 X -6 Y 13 X s black 3 lw 1655 685 m 547 X s 1666 698 m -13 Y s 1685 691 m -6 Y s 1703 691 m -6 Y s 1722 691 m -6 Y s 1741 698 m -13 Y s 1759 691 m -6 Y s 1778 691 m -6 Y s 1797 691 m -6 Y s 1815 698 m -13 Y s 1834 691 m -6 Y s 1853 691 m -6 Y s
 1872 691 m -6 Y s 1890 698 m -13 Y s 1909 691 m -6 Y s 1928 691 m -6 Y s 1946 691 m -6 Y s 1965 698 m -13 Y s 1984 691 m -6 Y s 2002 691 m -6 Y s 2021 691 m -6 Y s 2040 698 m -13 Y s 2058 691 m -6 Y s 2077 691 m -6 Y s 2096 691 m -6 Y s 2114 698 m
 -13 Y s 2133 691 m -6 Y s 2152 691 m -6 Y s 2171 691 m -6 Y s 2189 698 m -13 Y s 1666 698 m -13 Y s 2189 698 m -13 Y s 1655 1114 m 547 X s 1666 1100 m 14 Y s 1685 1107 m 7 Y s 1703 1107 m 7 Y s 1722 1107 m 7 Y s 1741 1100 m 14 Y s 1759 1107 m 7 Y s
 1778 1107 m 7 Y s 1797 1107 m 7 Y s 1815 1100 m 14 Y s 1834 1107 m 7 Y s 1853 1107 m 7 Y s 1872 1107 m 7 Y s 1890 1100 m 14 Y s 1909 1107 m 7 Y s 1928 1107 m 7 Y s 1946 1107 m 7 Y s 1965 1100 m 14 Y s 1984 1107 m 7 Y s 2002 1107 m 7 Y s 2021 1107 m
 7 Y s 2040 1100 m 14 Y s 2058 1107 m 7 Y s 2077 1107 m 7 Y s 2096 1107 m 7 Y s 2114 1100 m 14 Y s 2133 1107 m 7 Y s 2152 1107 m 7 Y s 2171 1107 m 7 Y s 2189 1100 m 14 Y s 1666 1100 m 14 Y s 2189 1100 m 14 Y s 1655 685 m 429 Y s 1671 685 m -16 X s
 1663 700 m -8 X s 1663 714 m -8 X s 1663 729 m -8 X s 1663 744 m -8 X s 1671 759 m -16 X s 1663 774 m -8 X s 1663 789 m -8 X s 1663 804 m -8 X s 1663 819 m -8 X s 1671 834 m -16 X s 1663 848 m -8 X s 1663 863 m -8 X s 1663 878 m -8 X s 1663 893 m -8
 X s 1671 908 m -16 X s 1663 923 m -8 X s 1663 938 m -8 X s 1663 953 m -8 X s 1663 968 m -8 X s 1671 983 m -16 X s 1663 997 m -8 X s 1663 1012 m -8 X s 1663 1027 m -8 X s 1663 1042 m -8 X s 1671 1057 m -16 X s 1671 1057 m -16 X s 1663 1072 m -8 X s
 1663 1087 m -8 X s 1663 1102 m -8 X s 2202 685 m 429 Y s 2186 685 m 16 X s 2194 700 m 8 X s 2194 714 m 8 X s 2194 729 m 8 X s 2194 744 m 8 X s 2186 759 m 16 X s 2194 774 m 8 X s 2194 789 m 8 X s 2194 804 m 8 X s 2194 819 m 8 X s 2186 834 m 16 X s
 2194 848 m 8 X s 2194 863 m 8 X s 2194 878 m 8 X s 2194 893 m 8 X s 2186 908 m 16 X s 2194 923 m 8 X s 2194 938 m 8 X s 2194 953 m 8 X s 2194 968 m 8 X s 2186 983 m 16 X s 2194 997 m 8 X s 2194 1012 m 8 X s 2194 1027 m 8 X s 2194 1042 m 8 X s 2186
 1057 m 16 X s 2186 1057 m 16 X s 2194 1072 m 8 X s 2194 1087 m 8 X s 2194 1102 m 8 X s
 gsave  711 567 1534 603 C 2230.83 682.347 t 90 r /Helvetica-Bold findfont 19.9602 sf 0 0 m (U/O\255flow \(S,B\): \(0.0, 0.0\)% / \(0.0, 0.0\)%) show NC gr  0.490196 0.545098 0.615686 c 0.364706 0.419608 0.490196 c 335 38 1542 1130 bf 0.490196
 0.545098 0.615686 c 1542 1130 m 335 X s 1877 1130 m 38 Y s 1877 1168 m -335 X s 1542 1168 m -38 Y s 1 1 1 c black 1 1 1 c
 gsave  711 567 1534 603 C 1545.91 1142.38 t 0 r /Helvetica-Bold findfont 28.5146 sf 0 0 m (Input variable: bb.H1_l4) show NC gr  0.490196 0.545098 0.615686 c 0.941176 0.941176 0.941176 c 710 567 23 12 bf black 1 1 0.992157 c 548 429 143 94 bf black
 548 429 143 94 bl 0 0 0.933333 c 6 lw 0.49 0.6 0.82 c black 3 lw 0.49 0.6 0.82 c 143 114 m 1 Y 14 X -1 Y 55 X 2 Y 27 X -2 Y 41 X 3 Y 14 X 233 Y 14 X 29 Y 13 X -27 Y 14 X -123 Y 14 X 25 Y 13 X 1 Y 14 X -25 Y 14 X -18 Y 13 X 20 Y 14 X 12 Y 14 X -21 Y
 13 X 12 Y 14 X -1 Y 14 X 1 Y 13 X 36 Y 14 X 84 Y 14 X -87 Y 13 X -133 Y 14 X -8 Y 14 X -4 Y 13 X 5 Y 14 X -7 Y 14 X -4 Y 14 X 1 Y 13 X -2 Y 14 X 2 Y 14 X -3 Y 13 X 1 Y 14 X -2 Y 14 X f 6 lw 0 0 0.933333 c 0.49 0.6 0.82 c 0 0 0.933333 c 143 115 m 14
 X -1 Y 55 X 2 Y 27 X -2 Y 41 X 3 Y 14 X 233 Y 14 X 29 Y 13 X -27 Y 14 X -123 Y 14 X 25 Y 13 X 1 Y 14 X -25 Y 14 X -18 Y 13 X 20 Y 14 X 12 Y 14 X -21 Y 13 X 12 Y 14 X -1 Y 14 X 1 Y 13 X 36 Y 14 X 84 Y 14 X -87 Y 13 X -133 Y 14 X -8 Y 14 X -4 Y 13 X 5
 Y 14 X -7 Y 14 X -4 Y 14 X 1 Y 13 X -2 Y 14 X 2 Y 14 X -3 Y 13 X 1 Y 14 X -2 Y 14 X -20 Y s black 3 lw 143 94 m 548 X s 198 107 m -13 Y s 212 100 m -6 Y s 226 100 m -6 Y s 240 100 m -6 Y s 254 107 m -13 Y s 267 100 m -6 Y s 281 100 m -6 Y s 295 100
 m -6 Y s 309 107 m -13 Y s 323 100 m -6 Y s 336 100 m -6 Y s 350 100 m -6 Y s 364 107 m -13 Y s 378 100 m -6 Y s 391 100 m -6 Y s 405 100 m -6 Y s 419 107 m -13 Y s 433 100 m -6 Y s 447 100 m -6 Y s 460 100 m -6 Y s 474 107 m -13 Y s 488 100 m -6 Y
 s 502 100 m -6 Y s 516 100 m -6 Y s 529 107 m -13 Y s 543 100 m -6 Y s 557 100 m -6 Y s 571 100 m -6 Y s 584 107 m -13 Y s 598 100 m -6 Y s 612 100 m -6 Y s 626 100 m -6 Y s 640 107 m -13 Y s 198 107 m -13 Y s 185 100 m -6 Y s 171 100 m -6 Y s 157
 100 m -6 Y s 640 107 m -13 Y s 653 100 m -6 Y s 667 100 m -6 Y s 681 100 m -6 Y s
 gsave  710 567 23 12 C 184.714 65.3603 t 0 r /Helvetica findfont 25.6631 sf 0 0 m (0.8) show NC gr 
 gsave  710 567 23 12 C 170.505 65.3603 t 0 r /Symbol findfont 25.6631 sf 0 0 m (-) show NC gr 
 gsave  710 567 23 12 C 241.549 65.3603 t 0 r /Helvetica findfont 25.6631 sf 0 0 m (0.6) show NC gr 
 gsave  710 567 23 12 C 227.34 65.3603 t 0 r /Symbol findfont 25.6631 sf 0 0 m (-) show NC gr 
 gsave  710 567 23 12 C 295.542 65.3603 t 0 r /Helvetica findfont 25.6631 sf 0 0 m (0.4) show NC gr 
 gsave  710 567 23 12 C 281.333 65.3603 t 0 r /Symbol findfont 25.6631 sf 0 0 m (-) show NC gr 
 gsave  710 567 23 12 C 352.377 65.3603 t 0 r /Helvetica findfont 25.6631 sf 0 0 m (0.2) show NC gr 
 gsave  710 567 23 12 C 338.168 65.3603 t 0 r /Symbol findfont 25.6631 sf 0 0 m (-) show NC gr 
 gsave  710 567 23 12 C 409.212 65.3603 t 0 r /Helvetica findfont 25.6631 sf 0 0 m (0) show NC gr 
 gsave  710 567 23 12 C 454.68 65.3603 t 0 r /Helvetica findfont 25.6631 sf 0 0 m (0.2) show NC gr 
 gsave  710 567 23 12 C 511.515 65.3603 t 0 r /Helvetica findfont 25.6631 sf 0 0 m (0.4) show NC gr 
 gsave  710 567 23 12 C 565.508 65.3603 t 0 r /Helvetica findfont 25.6631 sf 0 0 m (0.6) show NC gr 
 gsave  710 567 23 12 C 622.343 65.3603 t 0 r /Helvetica findfont 25.6631 sf 0 0 m (0.8) show NC gr 
 gsave  710 567 23 12 C 576.875 22.734 t 0 r /Helvetica findfont 28.5146 sf 0 0 m (bb.H1_l5) show NC gr  143 523 m 548 X s 198 509 m 14 Y s 212 516 m 7 Y s 226 516 m 7 Y s 240 516 m 7 Y s 254 509 m 14 Y s 267 516 m 7 Y s 281 516 m 7 Y s 295 516 m 7 Y
 s 309 509 m 14 Y s 323 516 m 7 Y s 336 516 m 7 Y s 350 516 m 7 Y s 364 509 m 14 Y s 378 516 m 7 Y s 391 516 m 7 Y s 405 516 m 7 Y s 419 509 m 14 Y s 433 516 m 7 Y s 447 516 m 7 Y s 460 516 m 7 Y s 474 509 m 14 Y s 488 516 m 7 Y s 502 516 m 7 Y s 516
 516 m 7 Y s 529 509 m 14 Y s 543 516 m 7 Y s 557 516 m 7 Y s 571 516 m 7 Y s 584 509 m 14 Y s 598 516 m 7 Y s 612 516 m 7 Y s 626 516 m 7 Y s 640 509 m 14 Y s 198 509 m 14 Y s 185 516 m 7 Y s 171 516 m 7 Y s 157 516 m 7 Y s 640 509 m 14 Y s 653 516
 m 7 Y s 667 516 m 7 Y s 681 516 m 7 Y s 143 94 m 429 Y s 160 114 m -17 X s 152 128 m -9 X s 152 141 m -9 X s 152 154 m -9 X s 152 168 m -9 X s 160 181 m -17 X s 152 195 m -9 X s 152 208 m -9 X s 152 221 m -9 X s 152 235 m -9 X s 160 248 m -17 X s
 152 261 m -9 X s 152 275 m -9 X s 152 288 m -9 X s 152 302 m -9 X s 160 315 m -17 X s 152 328 m -9 X s 152 342 m -9 X s 152 355 m -9 X s 152 368 m -9 X s 160 382 m -17 X s 152 395 m -9 X s 152 408 m -9 X s 152 422 m -9 X s 152 435 m -9 X s 160 449 m
 -17 X s 152 462 m -9 X s 152 475 m -9 X s 152 489 m -9 X s 152 502 m -9 X s 160 515 m -17 X s 160 114 m -17 X s 152 101 m -9 X s 160 515 m -17 X s
 gsave  710 567 23 12 C 119.354 105.145 t 0 r /Helvetica findfont 25.6631 sf 0 0 m (0) show NC gr 
 gsave  710 567 23 12 C 99.4613 170.505 t 0 r /Helvetica findfont 25.6631 sf 0 0 m (0.5) show NC gr 
 gsave  710 567 23 12 C 122.195 238.707 t 0 r /Helvetica findfont 25.6631 sf 0 0 m (1) show NC gr 
 gsave  710 567 23 12 C 99.4613 304.067 t 0 r /Helvetica findfont 25.6631 sf 0 0 m (1.5) show NC gr 
 gsave  710 567 23 12 C 119.354 372.269 t 0 r /Helvetica findfont 25.6631 sf 0 0 m (2) show NC gr 
 gsave  710 567 23 12 C 99.4613 437.63 t 0 r /Helvetica findfont 25.6631 sf 0 0 m (2.5) show NC gr 
 gsave  710 567 23 12 C 119.354 505.832 t 0 r /Helvetica findfont 25.6631 sf 0 0 m (3) show NC gr 
 gsave  710 567 23 12 C 45.468 431.946 t 90 r /Helvetica findfont 28.5146 sf 0 0 m (0.0496 ) show NC gr 
 gsave  710 567 23 12 C 31.2593 429.104 t 90 r /Helvetica findfont 19.9602 sf 0 0 m ( ) show NC gr 
 gsave  710 567 23 12 C 45.468 417.737 t 90 r /Helvetica findfont 28.5146 sf 0 0 m (/) show NC gr 
 gsave  710 567 23 12 C 53.9933 414.896 t 90 r /Helvetica findfont 19.9602 sf 0 0 m ( ) show NC gr 
 gsave  710 567 23 12 C 45.468 309.751 t 90 r /Helvetica findfont 28.5146 sf 0 0 m (\(1/N\) dN) show NC gr  691 94 m 429 Y s 674 114 m 17 X s 683 128 m 8 X s 683 141 m 8 X s 683 154 m 8 X s 683 168 m 8 X s 674 181 m 17 X s 683 195 m 8 X s 683 208 m 8
 X s 683 221 m 8 X s 683 235 m 8 X s 674 248 m 17 X s 683 261 m 8 X s 683 275 m 8 X s 683 288 m 8 X s 683 302 m 8 X s 674 315 m 17 X s 683 328 m 8 X s 683 342 m 8 X s 683 355 m 8 X s 683 368 m 8 X s 674 382 m 17 X s 683 395 m 8 X s 683 408 m 8 X s
 683 422 m 8 X s 683 435 m 8 X s 674 449 m 17 X s 683 462 m 8 X s 683 475 m 8 X s 683 489 m 8 X s 683 502 m 8 X s 674 515 m 17 X s 674 114 m 17 X s 683 101 m 8 X s 674 515 m 17 X s 0.490196 0.545098 0.615686 c 0.364706 0.419608 0.490196 c 335 37 30
 539 bf 0.490196 0.545098 0.615686 c 30 539 m 335 X s 365 539 m 37 Y s 365 576 m -335 X s 30 576 m -37 Y s 1 1 1 c black 1 1 1 c
 gsave  710 567 23 12 C 34.101 551.299 t 0 r /Helvetica-Bold findfont 28.5146 sf 0 0 m (Input variable: bb.H1_l5) show NC gr  1 0 0 c 6 lw black 3 lw 1 0 0 c 682 114 m s 667 114 m s 652 115 m -1 Y s 637 114 m s 622 115 m -1 Y s 607 114 m s 592 114 m
 s 577 115 m -1 Y s 562 115 m -1 Y s 549 117 m -2 -3 d s 540 123 m -9 -9 d s 540 138 m -24 -24 d s 540 153 m -39 -39 d s 540 169 m -54 -55 d s 540 184 m -69 -70 d s 540 199 m -84 -85 d s 540 214 m -99 -100 d s 540 229 m -114 -115 d s 540 245 m -129
 -131 d s 532 252 m -136 -138 d s 526 261 m -145 -147 d s 522 272 m -37 -37 d s 478 228 m -6 -7 d s 462 212 m -96 -98 d s 513 278 m -28 -28 d s 458 223 m -107 -109 d s 513 293 m -14 -14 d s 495 275 m -10 -10 d s 450 230 m -6 -6 d s 435 215 m -99 -101
 d s 513 308 m -14 -14 d s 428 222 m -11 -10 d s 410 205 m -90 -91 d s 513 323 m -14 -13 d s 403 213 m -98 -99 d s 513 338 m -14 -13 d s 403 228 m -109 -110 d s 293 117 m -3 -3 d s 513 354 m -14 -14 d s 403 243 m -109 -110 d s 277 116 m -2 -2 d s 508
 364 m -9 -9 d s 403 259 m -13 -14 d s 385 240 m -9 -9 d s 363 218 m -69 -70 d s 267 121 m -7 -7 d s 394 264 m -4 -4 d s 362 232 m -68 -68 d s 257 127 m -4 -5 d s 251 120 m -6 -6 d s 362 248 m -68 -69 d s 236 120 m -6 -6 d s 362 263 m -68 -69 d s 219
 118 m -4 -4 d s 362 278 m -54 -55 d s 301 216 m -7 -7 d s 202 117 m -2 -3 d s 346 277 m -25 -25 d s 309 239 m -1 -1 d s 191 121 m -6 -7 d s 335 281 m -14 -14 d s 175 120 m -5 -6 d s 335 296 m -14 -14 d s 158 118 m -3 -4 d s 335 311 m -14 -14 d s 148
 123 m -5 -5 d s 335 326 m -14 -13 d s 335 342 m -14 -14 d s 335 357 m -14 -14 d s 335 372 m -14 -14 d s 335 387 m -14 -14 d s 335 402 m -14 -13 d s 335 417 m -14 -13 d s 335 433 m -14 -14 d s 335 448 m -14 -14 d s 335 463 m -14 -14 d s 335 478 m -14
 -14 d s 327 485 m -6 -5 d s 6 lw 143 123 m 14 X -5 Y 14 X 2 Y 14 X 1 Y 13 X -4 Y 14 X 1 Y 14 X 2 Y 27 X 7 Y 14 X -11 Y 13 X 1 Y 14 X 99 Y 14 X 23 Y 13 X 246 Y 14 X -208 Y 14 X 2 Y 13 X -61 Y 14 X 22 Y 14 X 24 Y 13 X -59 Y 14 X 17 Y 14 X -7 Y 13 X 15
 Y 14 X -18 Y 14 X 16 Y 13 X 47 Y 14 X 89 Y 14 X -92 Y 13 X -20 Y 14 X -135 Y 14 X -2 Y 27 X -1 Y 28 X 1 Y 13 X -1 Y 28 X 1 Y 13 X -1 Y 28 X -20 Y s black 3 lw 143 94 m 548 X s 198 107 m -13 Y s 212 100 m -6 Y s 226 100 m -6 Y s 240 100 m -6 Y s 254
 107 m -13 Y s 267 100 m -6 Y s 281 100 m -6 Y s 295 100 m -6 Y s 309 107 m -13 Y s 323 100 m -6 Y s 336 100 m -6 Y s 350 100 m -6 Y s 364 107 m -13 Y s 378 100 m -6 Y s 391 100 m -6 Y s 405 100 m -6 Y s 419 107 m -13 Y s 433 100 m -6 Y s 447 100 m
 -6 Y s 460 100 m -6 Y s 474 107 m -13 Y s 488 100 m -6 Y s 502 100 m -6 Y s 516 100 m -6 Y s 529 107 m -13 Y s 543 100 m -6 Y s 557 100 m -6 Y s 571 100 m -6 Y s 584 107 m -13 Y s 598 100 m -6 Y s 612 100 m -6 Y s 626 100 m -6 Y s 640 107 m -13 Y s
 198 107 m -13 Y s 185 100 m -6 Y s 171 100 m -6 Y s 157 100 m -6 Y s 640 107 m -13 Y s 653 100 m -6 Y s 667 100 m -6 Y s 681 100 m -6 Y s 143 523 m 548 X s 198 509 m 14 Y s 212 516 m 7 Y s 226 516 m 7 Y s 240 516 m 7 Y s 254 509 m 14 Y s 267 516 m 7
 Y s 281 516 m 7 Y s 295 516 m 7 Y s 309 509 m 14 Y s 323 516 m 7 Y s 336 516 m 7 Y s 350 516 m 7 Y s 364 509 m 14 Y s 378 516 m 7 Y s 391 516 m 7 Y s 405 516 m 7 Y s 419 509 m 14 Y s 433 516 m 7 Y s 447 516 m 7 Y s 460 516 m 7 Y s 474 509 m 14 Y s
 488 516 m 7 Y s 502 516 m 7 Y s 516 516 m 7 Y s 529 509 m 14 Y s 543 516 m 7 Y s 557 516 m 7 Y s 571 516 m 7 Y s 584 509 m 14 Y s 598 516 m 7 Y s 612 516 m 7 Y s 626 516 m 7 Y s 640 509 m 14 Y s 198 509 m 14 Y s 185 516 m 7 Y s 171 516 m 7 Y s 157
 516 m 7 Y s 640 509 m 14 Y s 653 516 m 7 Y s 667 516 m 7 Y s 681 516 m 7 Y s 143 94 m 429 Y s 160 114 m -17 X s 152 128 m -9 X s 152 141 m -9 X s 152 154 m -9 X s 152 168 m -9 X s 160 181 m -17 X s 152 195 m -9 X s 152 208 m -9 X s 152 221 m -9 X s
 152 235 m -9 X s 160 248 m -17 X s 152 261 m -9 X s 152 275 m -9 X s 152 288 m -9 X s 152 302 m -9 X s 160 315 m -17 X s 152 328 m -9 X s 152 342 m -9 X s 152 355 m -9 X s 152 368 m -9 X s 160 382 m -17 X s 152 395 m -9 X s 152 408 m -9 X s 152 422
 m -9 X s 152 435 m -9 X s 160 449 m -17 X s 152 462 m -9 X s 152 475 m -9 X s 152 489 m -9 X s 152 502 m -9 X s 160 515 m -17 X s 160 114 m -17 X s 152 101 m -9 X s 160 515 m -17 X s 691 94 m 429 Y s 674 114 m 17 X s 683 128 m 8 X s 683 141 m 8 X s
 683 154 m 8 X s 683 168 m 8 X s 674 181 m 17 X s 683 195 m 8 X s 683 208 m 8 X s 683 221 m 8 X s 683 235 m 8 X s 674 248 m 17 X s 683 261 m 8 X s 683 275 m 8 X s 683 288 m 8 X s 683 302 m 8 X s 674 315 m 17 X s 683 328 m 8 X s 683 342 m 8 X s 683
 355 m 8 X s 683 368 m 8 X s 674 382 m 17 X s 683 395 m 8 X s 683 408 m 8 X s 683 422 m 8 X s 683 435 m 8 X s 674 449 m 17 X s 683 462 m 8 X s 683 475 m 8 X s 683 489 m 8 X s 683 502 m 8 X s 674 515 m 17 X s 674 114 m 17 X s 683 101 m 8 X s 674 515 m
 17 X s
 gsave  710 567 23 12 C 719.017 91.2634 t 90 r /Helvetica-Bold findfont 19.9602 sf 0 0 m (U/O\255flow \(S,B\): \(0.0, 0.0\)% / \(0.0, 0.0\)%) show NC gr  0.490196 0.545098 0.615686 c 0.364706 0.419608 0.490196 c 335 37 30 539 bf 0.490196 0.545098
 0.615686 c 30 539 m 335 X s 365 539 m 37 Y s 365 576 m -335 X s 30 576 m -37 Y s 1 1 1 c black 1 1 1 c
 gsave  710 567 23 12 C 34.101 551.299 t 0 r /Helvetica-Bold findfont 28.5146 sf 0 0 m (Input variable: bb.H1_l5) show NC gr  0.490196 0.545098 0.615686 c 0.941176 0.941176 0.941176 c 710 567 779 12 bf black 1 1 0.992157 c 548 429 899 94 bf black 548
 429 899 94 bl 0 0 0.933333 c 6 lw 0.49 0.6 0.82 c black 3 lw 0.49 0.6 0.82 c 899 137 m 350 Y 14 X -83 Y 14 X -39 Y 13 X 6 Y 14 X 58 Y 14 X -83 Y 13 X -40 Y 14 X -22 Y 14 X 3 Y 13 X -18 Y 14 X 26 Y 14 X -53 Y 14 X 23 Y 13 X -18 Y 14 X 21 Y 14 X -30 Y
 13 X -12 Y 14 X 19 Y 14 X -6 Y 13 X -16 Y 14 X -23 Y 14 X -86 Y 13 X 114 Y 14 X -27 Y 14 X 14 Y 13 X 3 Y 14 X -17 Y 14 X -3 Y 13 X -6 Y 14 X 62 Y 14 X -72 Y 13 X 18 Y 14 X -1 Y 14 X -13 Y 13 X -36 Y 14 X 10 Y 14 X -25 Y 13 X 8 Y 14 X -6 Y 28 X f 6
 lw 0 0 0.933333 c 0.49 0.6 0.82 c 0 0 0.933333 c 899 487 m 14 X -83 Y 14 X -39 Y 13 X 6 Y 14 X 58 Y 14 X -83 Y 13 X -40 Y 14 X -22 Y 14 X 3 Y 13 X -18 Y 14 X 26 Y 14 X -53 Y 14 X 23 Y 13 X -18 Y 14 X 21 Y 14 X -30 Y 13 X -12 Y 14 X 19 Y 14 X -6 Y 13
 X -16 Y 14 X -23 Y 14 X -86 Y 13 X 114 Y 14 X -27 Y 14 X 14 Y 13 X 3 Y 14 X -17 Y 14 X -3 Y 13 X -6 Y 14 X 62 Y 14 X -72 Y 13 X 18 Y 14 X -1 Y 14 X -13 Y 13 X -36 Y 14 X 10 Y 14 X -25 Y 13 X 8 Y 14 X -6 Y 28 X s black 3 lw 899 94 m 548 X s 969 107 m
 -13 Y s 983 100 m -6 Y s 997 100 m -6 Y s 1010 100 m -6 Y s 1024 100 m -6 Y s 1038 107 m -13 Y s 1052 100 m -6 Y s 1066 100 m -6 Y s 1080 100 m -6 Y s 1094 100 m -6 Y s 1108 107 m -13 Y s 1121 100 m -6 Y s 1135 100 m -6 Y s 1149 100 m -6 Y s 1163
 100 m -6 Y s 1177 107 m -13 Y s 1191 100 m -6 Y s 1205 100 m -6 Y s 1219 100 m -6 Y s 1232 100 m -6 Y s 1246 107 m -13 Y s 1260 100 m -6 Y s 1274 100 m -6 Y s 1288 100 m -6 Y s 1302 100 m -6 Y s 1316 107 m -13 Y s 1330 100 m -6 Y s 1343 100 m -6 Y s
 1357 100 m -6 Y s 1371 100 m -6 Y s 1385 107 m -13 Y s 969 107 m -13 Y s 955 100 m -6 Y s 941 100 m -6 Y s 927 100 m -6 Y s 913 100 m -6 Y s 1385 107 m -13 Y s 1399 100 m -6 Y s 1413 100 m -6 Y s 1427 100 m -6 Y s 1441 100 m -6 Y s
 gsave  710 567 779 12 C 966.195 65.3603 t 0 r /Helvetica findfont 25.6631 sf 0 0 m (1) show NC gr 
 gsave  710 567 779 12 C 951.986 65.3603 t 0 r /Symbol findfont 25.6631 sf 0 0 m (-) show NC gr 
 gsave  710 567 779 12 C 1028.71 65.3603 t 0 r /Helvetica findfont 25.6631 sf 0 0 m (0) show NC gr 
 gsave  710 567 779 12 C 1099.76 65.3603 t 0 r /Helvetica findfont 25.6631 sf 0 0 m (1) show NC gr 
 gsave  710 567 779 12 C 1167.96 65.3603 t 0 r /Helvetica findfont 25.6631 sf 0 0 m (2) show NC gr 
 gsave  710 567 779 12 C 1236.16 65.3603 t 0 r /Helvetica findfont 25.6631 sf 0 0 m (3) show NC gr 
 gsave  710 567 779 12 C 1304.36 65.3603 t 0 r /Helvetica findfont 25.6631 sf 0 0 m (4) show NC gr 
 gsave  710 567 779 12 C 1375.41 65.3603 t 0 r /Helvetica findfont 25.6631 sf 0 0 m (5) show NC gr 
 gsave  710 567 779 12 C 1310.05 25.5758 t 0 r /Helvetica findfont 28.5146 sf 0 0 m (yybb.H1_l1) show NC gr  899 523 m 548 X s 969 509 m 14 Y s 983 516 m 7 Y s 997 516 m 7 Y s 1010 516 m 7 Y s 1024 516 m 7 Y s 1038 509 m 14 Y s 1052 516 m 7 Y s 1066
 516 m 7 Y s 1080 516 m 7 Y s 1094 516 m 7 Y s 1108 509 m 14 Y s 1121 516 m 7 Y s 1135 516 m 7 Y s 1149 516 m 7 Y s 1163 516 m 7 Y s 1177 509 m 14 Y s 1191 516 m 7 Y s 1205 516 m 7 Y s 1219 516 m 7 Y s 1232 516 m 7 Y s 1246 509 m 14 Y s 1260 516 m 7
 Y s 1274 516 m 7 Y s 1288 516 m 7 Y s 1302 516 m 7 Y s 1316 509 m 14 Y s 1330 516 m 7 Y s 1343 516 m 7 Y s 1357 516 m 7 Y s 1371 516 m 7 Y s 1385 509 m 14 Y s 969 509 m 14 Y s 955 516 m 7 Y s 941 516 m 7 Y s 927 516 m 7 Y s 913 516 m 7 Y s 1385 509
 m 14 Y s 1399 516 m 7 Y s 1413 516 m 7 Y s 1427 516 m 7 Y s 1441 516 m 7 Y s 899 94 m 429 Y s 915 137 m -16 X s 907 153 m -8 X s 907 170 m -8 X s 907 187 m -8 X s 907 203 m -8 X s 915 220 m -16 X s 907 237 m -8 X s 907 253 m -8 X s 907 270 m -8 X s
 907 286 m -8 X s 915 303 m -16 X s 907 320 m -8 X s 907 336 m -8 X s 907 353 m -8 X s 907 370 m -8 X s 915 386 m -16 X s 907 403 m -8 X s 907 419 m -8 X s 907 436 m -8 X s 907 453 m -8 X s 915 469 m -16 X s 915 137 m -16 X s 907 120 m -8 X s 907 103
 m -8 X s 915 469 m -16 X s 907 486 m -8 X s 907 503 m -8 X s 907 519 m -8 X s
 gsave  710 567 779 12 C 875.259 127.879 t 0 r /Helvetica findfont 25.6631 sf 0 0 m (0) show NC gr 
 gsave  710 567 779 12 C 858.208 210.29 t 0 r /Helvetica findfont 25.6631 sf 0 0 m (0.1) show NC gr 
 gsave  710 567 779 12 C 855.367 292.7 t 0 r /Helvetica findfont 25.6631 sf 0 0 m (0.2) show NC gr 
 gsave  710 567 779 12 C 855.367 375.111 t 0 r /Helvetica findfont 25.6631 sf 0 0 m (0.3) show NC gr 
 gsave  710 567 779 12 C 855.367 460.364 t 0 r /Helvetica findfont 25.6631 sf 0 0 m (0.4) show NC gr 
 gsave  710 567 779 12 C 801.374 446.155 t 90 r /Helvetica findfont 28.5146 sf 0 0 m (0.197 ) show NC gr 
 gsave  710 567 779 12 C 787.165 443.313 t 90 r /Helvetica findfont 19.9602 sf 0 0 m ( ) show NC gr 
 gsave  710 567 779 12 C 801.374 431.946 t 90 r /Helvetica findfont 28.5146 sf 0 0 m (/) show NC gr 
 gsave  710 567 779 12 C 809.899 429.104 t 90 r /Helvetica findfont 19.9602 sf 0 0 m ( ) show NC gr 
 gsave  710 567 779 12 C 801.374 323.96 t 90 r /Helvetica findfont 28.5146 sf 0 0 m (\(1/N\) dN) show NC gr  1447 94 m 429 Y s 1430 137 m 17 X s 1438 153 m 9 X s 1438 170 m 9 X s 1438 187 m 9 X s 1438 203 m 9 X s 1430 220 m 17 X s 1438 237 m 9 X s
 1438 253 m 9 X s 1438 270 m 9 X s 1438 286 m 9 X s 1430 303 m 17 X s 1438 320 m 9 X s 1438 336 m 9 X s 1438 353 m 9 X s 1438 370 m 9 X s 1430 386 m 17 X s 1438 403 m 9 X s 1438 419 m 9 X s 1438 436 m 9 X s 1438 453 m 9 X s 1430 469 m 17 X s 1430 137
 m 17 X s 1438 120 m 9 X s 1438 103 m 9 X s 1430 469 m 17 X s 1438 486 m 9 X s 1438 503 m 9 X s 1438 519 m 9 X s 0.490196 0.545098 0.615686 c 0.364706 0.419608 0.490196 c 363 37 786 539 bf 0.490196 0.545098 0.615686 c 786 539 m 363 X s 1149 539 m 37
 Y s 1149 576 m -363 X s 786 576 m -37 Y s 1 1 1 c black 1 1 1 c
 gsave  710 567 779 12 C 790.007 551.299 t 0 r /Helvetica-Bold findfont 28.5146 sf 0 0 m (Input variable: yybb.H1_l1) show NC gr  1 0 0 c 6 lw black 3 lw 1 0 0 c 1445 137 m s 1433 139 m -3 -2 d s 1425 147 m -10 -10 d s 1410 147 m -10 -10 d s 1403 155
 m -18 -18 d s 1392 159 m -22 -22 d s 1387 169 m -9 -9 d s 1374 156 m -19 -19 d s 1364 162 m -24 -25 d s 1354 166 m -29 -29 d s 1351 178 m -14 -14 d s 1333 160 m -23 -23 d s 1342 184 m -5 -4 d s 1322 164 m -28 -27 d s 1301 159 m -22 -22 d s 1296 169
 m -32 -32 d s 1296 184 m -47 -47 d s 1286 189 m -52 -52 d s 1282 200 m -13 -13 d s 1259 176 m -40 -39 d s 1282 216 m -13 -14 d s 1255 188 m -51 -51 d s 1282 231 m -13 -14 d s 1252 200 m -63 -63 d s 1241 205 m -13 -14 d s 1214 177 m -40 -40 d s 1241
 220 m -13 -14 d s 1207 185 m -48 -48 d s 1230 223 m -2 -2 d s 1200 194 m -56 -57 d s 1200 209 m -71 -72 d s 1200 224 m -86 -87 d s 1191 230 m -92 -93 d s 1187 241 m -14 -14 d s 1167 221 m -84 -84 d s 1187 256 m -14 -14 d s 1159 228 m -13 -14 d s
 1145 214 m -77 -77 d s 1187 271 m -14 -14 d s 1159 243 m -13 -13 d s 1126 210 m -73 -73 d s 1187 286 m -14 -14 d s 1148 247 m -2 -2 d s 1118 217 m -80 -80 d s 1181 295 m -8 -7 d s 1118 232 m -95 -95 d s 1113 243 m -8 -9 d s 1092 221 m -84 -84 d s
 1091 235 m -98 -98 d s 1086 246 m -108 -109 d s 1071 245 m -108 -108 d s 1064 253 m -116 -116 d s 1057 262 m -124 -125 d s 1050 270 m -132 -133 d s 1046 282 m -143 -145 d s 1031 281 m -132 -132 d s 1022 288 m -123 -124 d s 1022 303 m -13 -14 d s 996
 276 m -97 -97 d s 1022 318 m -13 -14 d s 995 291 m -96 -97 d s 995 306 m -96 -97 d s 995 321 m -96 -96 d s 995 336 m -14 -14 d s 974 315 m -75 -75 d s 995 351 m -14 -13 d s 968 324 m -69 -69 d s 995 367 m -14 -14 d s 968 339 m -69 -69 d s 995 382 m
 -14 -14 d s 968 354 m -69 -69 d s 995 397 m -14 -14 d s 968 369 m -69 -68 d s 995 412 m -14 -14 d s 954 371 m -55 -55 d s 983 415 m -2 -1 d s 954 386 m -55 -55 d s 954 401 m -55 -55 d s 944 406 m -4 -3 d s 940 402 m -41 -41 d s 927 404 m -28 -28 d s
 927 419 m -28 -27 d s 927 434 m -28 -27 d s 902 425 m -3 -3 d s 6 lw 899 425 m 14 X 10 Y 14 X -33 Y 13 X 4 Y 14 X -35 Y 14 X -56 Y 13 X 100 Y 14 X -139 Y 14 X 43 Y 13 X -38 Y 14 X 1 Y 14 X -20 Y 14 X -17 Y 13 X 1 Y 14 X -25 Y 14 X 22 Y 13 X -33 Y 14
 X 4 Y 14 X 33 Y 13 X -26 Y 14 X 74 Y 14 X -65 Y 13 X -45 Y 14 X -8 Y 14 X 46 Y 13 X -23 Y 14 X -24 Y 14 X 56 Y 13 X -43 Y 14 X -30 Y 14 X 5 Y 13 X -4 Y 14 X 24 Y 14 X -18 Y 13 X -10 Y 14 X 13 Y 14 X -14 Y 13 X -8 Y 28 X -10 Y 14 X s black 3 lw 899
 94 m 548 X s 969 107 m -13 Y s 983 100 m -6 Y s 997 100 m -6 Y s 1010 100 m -6 Y s 1024 100 m -6 Y s 1038 107 m -13 Y s 1052 100 m -6 Y s 1066 100 m -6 Y s 1080 100 m -6 Y s 1094 100 m -6 Y s 1108 107 m -13 Y s 1121 100 m -6 Y s 1135 100 m -6 Y s
 1149 100 m -6 Y s 1163 100 m -6 Y s 1177 107 m -13 Y s 1191 100 m -6 Y s 1205 100 m -6 Y s 1219 100 m -6 Y s 1232 100 m -6 Y s 1246 107 m -13 Y s 1260 100 m -6 Y s 1274 100 m -6 Y s 1288 100 m -6 Y s 1302 100 m -6 Y s 1316 107 m -13 Y s 1330 100 m
 -6 Y s 1343 100 m -6 Y s 1357 100 m -6 Y s 1371 100 m -6 Y s 1385 107 m -13 Y s 969 107 m -13 Y s 955 100 m -6 Y s 941 100 m -6 Y s 927 100 m -6 Y s 913 100 m -6 Y s 1385 107 m -13 Y s 1399 100 m -6 Y s 1413 100 m -6 Y s 1427 100 m -6 Y s 1441 100 m
 -6 Y s 899 523 m 548 X s 969 509 m 14 Y s 983 516 m 7 Y s 997 516 m 7 Y s 1010 516 m 7 Y s 1024 516 m 7 Y s 1038 509 m 14 Y s 1052 516 m 7 Y s 1066 516 m 7 Y s 1080 516 m 7 Y s 1094 516 m 7 Y s 1108 509 m 14 Y s 1121 516 m 7 Y s 1135 516 m 7 Y s
 1149 516 m 7 Y s 1163 516 m 7 Y s 1177 509 m 14 Y s 1191 516 m 7 Y s 1205 516 m 7 Y s 1219 516 m 7 Y s 1232 516 m 7 Y s 1246 509 m 14 Y s 1260 516 m 7 Y s 1274 516 m 7 Y s 1288 516 m 7 Y s 1302 516 m 7 Y s 1316 509 m 14 Y s 1330 516 m 7 Y s 1343 516
 m 7 Y s 1357 516 m 7 Y s 1371 516 m 7 Y s 1385 509 m 14 Y s 969 509 m 14 Y s 955 516 m 7 Y s 941 516 m 7 Y s 927 516 m 7 Y s 913 516 m 7 Y s 1385 509 m 14 Y s 1399 516 m 7 Y s 1413 516 m 7 Y s 1427 516 m 7 Y s 1441 516 m 7 Y s 899 94 m 429 Y s 915
 137 m -16 X s 907 153 m -8 X s 907 170 m -8 X s 907 187 m -8 X s 907 203 m -8 X s 915 220 m -16 X s 907 237 m -8 X s 907 253 m -8 X s 907 270 m -8 X s 907 286 m -8 X s 915 303 m -16 X s 907 320 m -8 X s 907 336 m -8 X s 907 353 m -8 X s 907 370 m -8
 X s 915 386 m -16 X s 907 403 m -8 X s 907 419 m -8 X s 907 436 m -8 X s 907 453 m -8 X s 915 469 m -16 X s 915 137 m -16 X s 907 120 m -8 X s 907 103 m -8 X s 915 469 m -16 X s 907 486 m -8 X s 907 503 m -8 X s 907 519 m -8 X s 1447 94 m 429 Y s
 1430 137 m 17 X s 1438 153 m 9 X s 1438 170 m 9 X s 1438 187 m 9 X s 1438 203 m 9 X s 1430 220 m 17 X s 1438 237 m 9 X s 1438 253 m 9 X s 1438 270 m 9 X s 1438 286 m 9 X s 1430 303 m 17 X s 1438 320 m 9 X s 1438 336 m 9 X s 1438 353 m 9 X s 1438 370
 m 9 X s 1430 386 m 17 X s 1438 403 m 9 X s 1438 419 m 9 X s 1438 436 m 9 X s 1438 453 m 9 X s 1430 469 m 17 X s 1430 137 m 17 X s 1438 120 m 9 X s 1438 103 m 9 X s 1430 469 m 17 X s 1438 486 m 9 X s 1438 503 m 9 X s 1438 519 m 9 X s
 gsave  710 567 779 12 C 1474.92 91.2634 t 90 r /Helvetica-Bold findfont 19.9602 sf 0 0 m (U/O\255flow \(S,B\): \(0.0, 0.0\)% / \(0.0, 0.0\)%) show NC gr  0.490196 0.545098 0.615686 c 0.364706 0.419608 0.490196 c 363 37 786 539 bf 0.490196 0.545098
 0.615686 c 786 539 m 363 X s 1149 539 m 37 Y s 1149 576 m -363 X s 786 576 m -37 Y s 1 1 1 c black 1 1 1 c
 gsave  710 567 779 12 C 790.007 551.299 t 0 r /Helvetica-Bold findfont 28.5146 sf 0 0 m (Input variable: yybb.H1_l1) show NC gr  0.490196 0.545098 0.615686 c 0.941176 0.941176 0.941176 c 711 567 1534 12 bf black 1 1 0.992157 c 547 429 1655 94 bf
 black 547 429 1655 94 bl 0 0 0.933333 c 6 lw 0.49 0.6 0.82 c black 3 lw 0.49 0.6 0.82 c 1655 119 m 17 Y 14 X 58 Y 14 X 59 Y 13 X -14 Y 14 X 84 Y 14 X 45 Y 13 X -86 Y 14 X 188 Y 14 X -4 Y 13 X -62 Y 14 X 50 Y 14 X -48 Y 13 X -60 Y 14 X -20 Y 14 X -70
 Y 13 X 10 Y 14 X -39 Y 27 X -29 Y 14 X -1 Y 14 X -20 Y 14 X 5 Y 13 X -3 Y 14 X -8 Y 14 X 3 Y 13 X -58 Y 14 X 20 Y 14 X 4 Y 13 X -2 Y 14 X -1 Y 14 X -21 Y 13 X 13 Y 28 X -3 Y 13 X -4 Y 14 X 3 Y 14 X -11 Y 13 X 8 Y 14 X -3 Y 27 X f 6 lw 0 0 0.933333 c
 0.49 0.6 0.82 c 0 0 0.933333 c 1655 136 m 14 X 58 Y 14 X 59 Y 13 X -14 Y 14 X 84 Y 14 X 45 Y 13 X -86 Y 14 X 188 Y 14 X -4 Y 13 X -62 Y 14 X 50 Y 14 X -48 Y 13 X -60 Y 14 X -20 Y 14 X -70 Y 13 X 10 Y 14 X -39 Y 27 X -29 Y 14 X -1 Y 14 X -20 Y 14 X 5
 Y 13 X -3 Y 14 X -8 Y 14 X 3 Y 13 X -58 Y 14 X 20 Y 14 X 4 Y 13 X -2 Y 14 X -1 Y 14 X -21 Y 13 X 13 Y 28 X -3 Y 13 X -4 Y 14 X 3 Y 14 X -11 Y 13 X 8 Y 14 X -3 Y 27 X -25 Y s black 3 lw 1655 94 m 547 X s 1728 107 m -13 Y s 1743 100 m -6 Y s 1758 100
 m -6 Y s 1772 100 m -6 Y s 1787 100 m -6 Y s 1802 107 m -13 Y s 1817 100 m -6 Y s 1832 100 m -6 Y s 1846 100 m -6 Y s 1861 100 m -6 Y s 1876 107 m -13 Y s 1891 100 m -6 Y s 1905 100 m -6 Y s 1920 100 m -6 Y s 1935 100 m -6 Y s 1950 107 m -13 Y s
 1964 100 m -6 Y s 1979 100 m -6 Y s 1994 100 m -6 Y s 2009 100 m -6 Y s 2024 107 m -13 Y s 2038 100 m -6 Y s 2053 100 m -6 Y s 2068 100 m -6 Y s 2083 100 m -6 Y s 2097 107 m -13 Y s 2112 100 m -6 Y s 2127 100 m -6 Y s 2142 100 m -6 Y s 2156 100 m -6
 Y s 2171 107 m -13 Y s 1728 107 m -13 Y s 1713 100 m -6 Y s 1699 100 m -6 Y s 1684 100 m -6 Y s 1669 100 m -6 Y s 2171 107 m -13 Y s 2186 100 m -6 Y s 2201 100 m -6 Y s
 gsave  711 567 1534 12 C 1727.78 65.3603 t 0 r /Helvetica findfont 25.6631 sf 0 0 m (1) show NC gr 
 gsave  711 567 1534 12 C 1713.58 65.3603 t 0 r /Symbol findfont 25.6631 sf 0 0 m (-) show NC gr 
 gsave  711 567 1534 12 C 1793.14 65.3603 t 0 r /Helvetica findfont 25.6631 sf 0 0 m (0) show NC gr 
 gsave  711 567 1534 12 C 1869.87 65.3603 t 0 r /Helvetica findfont 25.6631 sf 0 0 m (1) show NC gr 
 gsave  711 567 1534 12 C 1940.92 65.3603 t 0 r /Helvetica findfont 25.6631 sf 0 0 m (2) show NC gr 
 gsave  711 567 1534 12 C 2014.8 65.3603 t 0 r /Helvetica findfont 25.6631 sf 0 0 m (3) show NC gr 
 gsave  711 567 1534 12 C 2088.69 65.3603 t 0 r /Helvetica findfont 25.6631 sf 0 0 m (4) show NC gr 
 gsave  711 567 1534 12 C 2162.57 65.3603 t 0 r /Helvetica findfont 25.6631 sf 0 0 m (5) show NC gr 
 gsave  711 567 1534 12 C 2063.11 25.5758 t 0 r /Helvetica findfont 28.5146 sf 0 0 m (yybb.H1_l2) show NC gr  1655 523 m 547 X s 1728 509 m 14 Y s 1743 516 m 7 Y s 1758 516 m 7 Y s 1772 516 m 7 Y s 1787 516 m 7 Y s 1802 509 m 14 Y s 1817 516 m 7 Y s
 1832 516 m 7 Y s 1846 516 m 7 Y s 1861 516 m 7 Y s 1876 509 m 14 Y s 1891 516 m 7 Y s 1905 516 m 7 Y s 1920 516 m 7 Y s 1935 516 m 7 Y s 1950 509 m 14 Y s 1964 516 m 7 Y s 1979 516 m 7 Y s 1994 516 m 7 Y s 2009 516 m 7 Y s 2024 509 m 14 Y s 2038 516
 m 7 Y s 2053 516 m 7 Y s 2068 516 m 7 Y s 2083 516 m 7 Y s 2097 509 m 14 Y s 2112 516 m 7 Y s 2127 516 m 7 Y s 2142 516 m 7 Y s 2156 516 m 7 Y s 2171 509 m 14 Y s 1728 509 m 14 Y s 1713 516 m 7 Y s 1699 516 m 7 Y s 1684 516 m 7 Y s 1669 516 m 7 Y s
 2171 509 m 14 Y s 2186 516 m 7 Y s 2201 516 m 7 Y s 1655 94 m 429 Y s 1671 119 m -16 X s 1663 134 m -8 X s 1663 149 m -8 X s 1663 164 m -8 X s 1663 179 m -8 X s 1671 194 m -16 X s 1663 209 m -8 X s 1663 224 m -8 X s 1663 239 m -8 X s 1663 254 m -8 X
 s 1671 269 m -16 X s 1663 284 m -8 X s 1663 299 m -8 X s 1663 314 m -8 X s 1663 329 m -8 X s 1671 344 m -16 X s 1663 359 m -8 X s 1663 374 m -8 X s 1663 389 m -8 X s 1663 404 m -8 X s 1671 419 m -16 X s 1663 434 m -8 X s 1663 449 m -8 X s 1663 464 m
 -8 X s 1663 479 m -8 X s 1671 494 m -16 X s 1671 119 m -16 X s 1663 104 m -8 X s 1671 494 m -16 X s 1663 509 m -8 X s
 gsave  711 567 1534 12 C 1631.16 107.987 t 0 r /Helvetica findfont 25.6631 sf 0 0 m (0) show NC gr 
 gsave  711 567 1534 12 C 1614.11 184.714 t 0 r /Helvetica findfont 25.6631 sf 0 0 m (0.1) show NC gr 
 gsave  711 567 1534 12 C 1611.27 258.599 t 0 r /Helvetica findfont 25.6631 sf 0 0 m (0.2) show NC gr 
 gsave  711 567 1534 12 C 1611.27 335.327 t 0 r /Helvetica findfont 25.6631 sf 0 0 m (0.3) show NC gr 
 gsave  711 567 1534 12 C 1611.27 409.212 t 0 r /Helvetica findfont 25.6631 sf 0 0 m (0.4) show NC gr 
 gsave  711 567 1534 12 C 1611.27 483.098 t 0 r /Helvetica findfont 25.6631 sf 0 0 m (0.5) show NC gr 
 gsave  711 567 1534 12 C 1557.28 446.155 t 90 r /Helvetica findfont 28.5146 sf 0 0 m (0.185 ) show NC gr 
 gsave  711 567 1534 12 C 1543.07 443.313 t 90 r /Helvetica findfont 19.9602 sf 0 0 m ( ) show NC gr 
 gsave  711 567 1534 12 C 1557.28 431.946 t 90 r /Helvetica findfont 28.5146 sf 0 0 m (/) show NC gr 
 gsave  711 567 1534 12 C 1565.8 429.104 t 90 r /Helvetica findfont 19.9602 sf 0 0 m ( ) show NC gr 
 gsave  711 567 1534 12 C 1557.28 323.96 t 90 r /Helvetica findfont 28.5146 sf 0 0 m (\(1/N\) dN) show NC gr  2202 94 m 429 Y s 2186 119 m 16 X s 2194 134 m 8 X s 2194 149 m 8 X s 2194 164 m 8 X s 2194 179 m 8 X s 2186 194 m 16 X s 2194 209 m 8 X s
 2194 224 m 8 X s 2194 239 m 8 X s 2194 254 m 8 X s 2186 269 m 16 X s 2194 284 m 8 X s 2194 299 m 8 X s 2194 314 m 8 X s 2194 329 m 8 X s 2186 344 m 16 X s 2194 359 m 8 X s 2194 374 m 8 X s 2194 389 m 8 X s 2194 404 m 8 X s 2186 419 m 16 X s 2194 434
 m 8 X s 2194 449 m 8 X s 2194 464 m 8 X s 2194 479 m 8 X s 2186 494 m 16 X s 2186 119 m 16 X s 2194 104 m 8 X s 2186 494 m 16 X s 2194 509 m 8 X s 0.490196 0.545098 0.615686 c 0.364706 0.419608 0.490196 c 366 37 1542 539 bf 0.490196 0.545098
 0.615686 c 1542 539 m 366 X s 1908 539 m 37 Y s 1908 576 m -366 X s 1542 576 m -37 Y s 1 1 1 c black 1 1 1 c
 gsave  711 567 1534 12 C 1545.91 551.299 t 0 r /Helvetica-Bold findfont 28.5146 sf 0 0 m (Input variable: yybb.H1_l2) show NC gr  1 0 0 c 6 lw black 3 lw 1 0 0 c 2199 119 m cl s 2184 119 m s 2170 121 m -1 -2 d s 2161 127 m -7 -8 d s 2149 130 m -1 -2
 d s 2141 121 m -3 -2 d s 2124 120 m -1 -1 d s 2120 131 m -12 -12 d s 2102 128 m -9 -9 d s 2091 132 m -13 -13 d s 2079 135 m -16 -16 d s 2066 137 m -18 -18 d s 2055 142 m -3 -4 d s 2051 137 m -18 -18 d s 2038 140 m -20 -21 d s 2030 146 m -5 -5 d s
 2022 138 m -19 -19 d s 2011 143 m -23 -24 d s 2011 158 m -38 -39 d s 2011 173 m -14 -14 d s 1986 147 m -28 -28 d s 2003 180 m -6 -6 d s 1984 161 m -42 -42 d s 1976 168 m -49 -49 d s 1970 177 m -58 -58 d s 1967 190 m -24 -25 d s 1933 156 m -36 -37 d
 s 1943 181 m -1 Y s 1929 166 m -47 -47 d s 1923 176 m -56 -57 d s 1915 183 m -63 -64 d s 1915 198 m -78 -79 d s 1895 193 m -73 -74 d s 1888 201 m -81 -82 d s 1888 216 m -96 -97 d s 1888 231 m -111 -112 d s 1888 246 m -126 -127 d s 1888 261 m -141
 -142 d s 1888 277 m -157 -158 d s 1875 279 m -159 -160 d s 1860 279 m -159 -160 d s 1860 295 m -174 -176 d s 1860 310 m -189 -191 d s 1850 315 m -181 -183 d s 1658 121 m -2 -2 d s 1846 326 m -150 -151 d s 1692 170 m -9 -9 d s 1673 151 m -4 -4 d s
 1833 328 m -137 -138 d s 1833 343 m -137 -138 d s 1824 349 m -114 -115 d s 1704 229 m -8 -9 d s 1819 360 m -109 -111 d s 1819 375 m -109 -110 d s 1819 390 m -109 -110 d s 1819 405 m -95 -96 d s 1719 304 m -9 -9 d s 1819 420 m -54 -55 d s 1763 363 m
 -12 -12 d s 1728 328 m -4 -4 d s 1819 435 m -54 -55 d s 1819 451 m -54 -55 d s 1819 466 m -41 -41 d s 1778 424 m -13 -13 d s 1807 469 m -29 -29 d s 1796 472 m -18 -17 d s 1792 484 m -14 -14 d s 1779 486 m -1 -1 d s 6 lw 1655 121 m 14 X 30 Y 14 X 19
 Y 13 X 59 Y 14 X 75 Y 14 X 24 Y 13 X 9 Y 14 X 26 Y 14 X 61 Y 13 X 62 Y 14 X -14 Y 14 X -3 Y 13 X -120 Y 14 X -23 Y 14 X -11 Y 13 X -37 Y 14 X 1 Y 14 X -86 Y 13 X 6 Y 14 X -23 Y 14 X -20 Y 14 X 25 Y 13 X 9 Y 14 X -22 Y 14 X -21 Y 13 X 33 Y 14 X -42 Y
 14 X 8 Y 13 X -9 Y 14 X 5 Y 14 X -7 Y 13 X -3 Y 14 X -4 Y 14 X 3 Y 13 X -11 Y 14 X 1 Y 14 X 9 Y 13 X -9 Y 14 X -2 Y 27 X -25 Y s black 3 lw 1655 94 m 547 X s 1728 107 m -13 Y s 1743 100 m -6 Y s 1758 100 m -6 Y s 1772 100 m -6 Y s 1787 100 m -6 Y s
 1802 107 m -13 Y s 1817 100 m -6 Y s 1832 100 m -6 Y s 1846 100 m -6 Y s 1861 100 m -6 Y s 1876 107 m -13 Y s 1891 100 m -6 Y s 1905 100 m -6 Y s 1920 100 m -6 Y s 1935 100 m -6 Y s 1950 107 m -13 Y s 1964 100 m -6 Y s 1979 100 m -6 Y s 1994 100 m
 -6 Y s 2009 100 m -6 Y s 2024 107 m -13 Y s 2038 100 m -6 Y s 2053 100 m -6 Y s 2068 100 m -6 Y s 2083 100 m -6 Y s 2097 107 m -13 Y s 2112 100 m -6 Y s 2127 100 m -6 Y s 2142 100 m -6 Y s 2156 100 m -6 Y s 2171 107 m -13 Y s 1728 107 m -13 Y s 1713
 100 m -6 Y s 1699 100 m -6 Y s 1684 100 m -6 Y s 1669 100 m -6 Y s 2171 107 m -13 Y s 2186 100 m -6 Y s 2201 100 m -6 Y s 1655 523 m 547 X s 1728 509 m 14 Y s 1743 516 m 7 Y s 1758 516 m 7 Y s 1772 516 m 7 Y s 1787 516 m 7 Y s 1802 509 m 14 Y s 1817
 516 m 7 Y s 1832 516 m 7 Y s 1846 516 m 7 Y s 1861 516 m 7 Y s 1876 509 m 14 Y s 1891 516 m 7 Y s 1905 516 m 7 Y s 1920 516 m 7 Y s 1935 516 m 7 Y s 1950 509 m 14 Y s 1964 516 m 7 Y s 1979 516 m 7 Y s 1994 516 m 7 Y s 2009 516 m 7 Y s 2024 509 m 14
 Y s 2038 516 m 7 Y s 2053 516 m 7 Y s 2068 516 m 7 Y s 2083 516 m 7 Y s 2097 509 m 14 Y s 2112 516 m 7 Y s 2127 516 m 7 Y s 2142 516 m 7 Y s 2156 516 m 7 Y s 2171 509 m 14 Y s 1728 509 m 14 Y s 1713 516 m 7 Y s 1699 516 m 7 Y s 1684 516 m 7 Y s 1669
 516 m 7 Y s 2171 509 m 14 Y s 2186 516 m 7 Y s 2201 516 m 7 Y s 1655 94 m 429 Y s 1671 119 m -16 X s 1663 134 m -8 X s 1663 149 m -8 X s 1663 164 m -8 X s 1663 179 m -8 X s 1671 194 m -16 X s 1663 209 m -8 X s 1663 224 m -8 X s 1663 239 m -8 X s
 1663 254 m -8 X s 1671 269 m -16 X s 1663 284 m -8 X s 1663 299 m -8 X s 1663 314 m -8 X s 1663 329 m -8 X s 1671 344 m -16 X s 1663 359 m -8 X s 1663 374 m -8 X s 1663 389 m -8 X s 1663 404 m -8 X s 1671 419 m -16 X s 1663 434 m -8 X s 1663 449 m
 -8 X s 1663 464 m -8 X s 1663 479 m -8 X s 1671 494 m -16 X s 1671 119 m -16 X s 1663 104 m -8 X s 1671 494 m -16 X s 1663 509 m -8 X s 2202 94 m 429 Y s 2186 119 m 16 X s 2194 134 m 8 X s 2194 149 m 8 X s 2194 164 m 8 X s 2194 179 m 8 X s 2186 194
 m 16 X s 2194 209 m 8 X s 2194 224 m 8 X s 2194 239 m 8 X s 2194 254 m 8 X s 2186 269 m 16 X s 2194 284 m 8 X s 2194 299 m 8 X s 2194 314 m 8 X s 2194 329 m 8 X s 2186 344 m 16 X s 2194 359 m 8 X s 2194 374 m 8 X s 2194 389 m 8 X s 2194 404 m 8 X s
 2186 419 m 16 X s 2194 434 m 8 X s 2194 449 m 8 X s 2194 464 m 8 X s 2194 479 m 8 X s 2186 494 m 16 X s 2186 119 m 16 X s 2194 104 m 8 X s 2186 494 m 16 X s 2194 509 m 8 X s
 gsave  711 567 1534 12 C 2230.83 91.2634 t 90 r /Helvetica-Bold findfont 19.9602 sf 0 0 m (U/O\255flow \(S,B\): \(0.0, 0.0\)% / \(0.0, 0.0\)%) show NC gr  0.490196 0.545098 0.615686 c 0.364706 0.419608 0.490196 c 366 37 1542 539 bf 0.490196 0.545098
 0.615686 c 1542 539 m 366 X s 1908 539 m 37 Y s 1908 576 m -366 X s 1542 576 m -37 Y s 1 1 1 c black 1 1 1 c
 gsave  711 567 1534 12 C 1545.91 551.299 t 0 r /Helvetica-Bold findfont 28.5146 sf 0 0 m (Input variable: yybb.H1_l2) show NC gr 
 gr  gr showpage
end
%%EOF
