%!PS-Adobe-2.0 EPSF-2.0
%%BoundingBox:  0 0 567 296
%%Title: dataset/plots/variables_id_c4.eps: Input variables (training sample)
%%Creator: ROOT Version 6.18/00
%%CreationDate: Fri Sep 13 20:54:21 2019
%%DocumentNeededResources: ProcSet (FontSetInit)
%%EndComments
%%BeginProlog
80 dict begin
/s {stroke} def /l {lineto} def /m {moveto} def /t {translate} def
/r {rotate} def /rl {roll}  def /R {repeat} def
/d {rlineto} def /rm {rmoveto} def /gr {grestore} def /f {eofill} def
/c {setrgbcolor} def /black {0 setgray} def /sd {setdash} def
/cl {closepath} def /sf {scalefont setfont} def /lw {setlinewidth} def
/box {m dup 0 exch d exch 0 d 0 exch neg d cl} def
/NC{systemdict begin initclip end}def/C{NC box clip newpath}def
/bl {box s} def /bf {gsave box gsave f grestore 1 lw [] 0 sd s grestore} def /Y { 0 exch d} def /X { 0 d} def 
/K {{pop pop 0 moveto} exch kshow} bind def
/ita {/ang 15 def gsave [1 0 ang dup sin exch cos div 1 0 0] concat} def 
/mp {newpath /y exch def /x exch def} def
/side {[w .77 mul w .23 mul] .385 w mul sd w 0 l currentpoint t -144 r} def
/mr {mp x y w2 0 360 arc} def /m24 {mr s} def /m20 {mr f} def
/mb {mp x y w2 add m w2 neg 0 d 0 w neg d w 0 d 0 w d cl} def
/mt {mp x y w2 add m w2 neg w neg d w 0 d cl} def
/w4 {w 4 div} def
/w6 {w 6 div} def
/w8 {w 8 div} def
/m21 {mb f} def /m25 {mb s} def /m22 {mt f} def /m26{mt s} def
/m23 {mp x y w2 sub m w2 w d w neg 0 d cl f} def
/m27 {mp x y w2 add m w3 neg w2 neg d w3 w2 neg d w3 w2 d cl s} def
/m28 {mp x w2 sub y w2 sub w3 add m w3 0 d  0 w3 neg d w3 0 d 0 w3 d w3 0 d  0 w3 d w3 neg 0 d 0 w3 d w3 neg 0 d 0 w3 neg d w3 neg 0 d cl s } def
/m29 {mp gsave x w2 sub y w2 add w3 sub m currentpoint t 4 {side} repeat cl fill gr} def
/m30 {mp gsave x w2 sub y w2 add w3 sub m currentpoint t 4 {side} repeat cl s gr} def
/m31 {mp x y w2 sub m 0 w d x w2 sub y m w 0 d x w2 sub y w2 add m w w neg d x w2 sub y w2 sub m w w d s} def
/m32 {mp x y w2 sub m w2 w d w neg 0 d cl s} def
/m33 {mp x y w2 add m w3 neg w2 neg d w3 w2 neg d w3 w2 d cl f} def
/m34 {mp x w2 sub y w2 sub w3 add m w3 0 d  0 w3 neg d w3 0 d 0 w3 d w3 0 d  0 w3 d w3 neg 0 d 0 w3 d w3 neg 0 d 0 w3 neg d w3 neg 0 d cl f } def
/m35 {mp x y w2 add m w2 neg w2 neg d w2 w2 neg d w2 w2 d w2 neg w2 d x y w2 sub m 0 w d x w2 sub y m w 0 d s} def
/m36 {mb x w2 sub y w2 add m w w neg d x w2 sub y w2 sub m w w d s} def
/m37 {mp x y m w4 neg w2 d w4 neg w2 neg d w2 0 d  w4 neg w2 neg d w2 0 d w4 neg w2 d w2 0 d w4 neg w2 d w4 neg w2 neg d cl s} def
/m38 {mp x w4 sub y w2 add m w4 neg w4 neg d 0 w2 neg d w4 w4 neg d w2 0 d w4 w4 d 0 w2 d w4 neg w4 d w2 neg 0 d x y w2 sub m 0 w d x w2 sub y m w 0 d cl s} def
/m39 {mp x y m w4 neg w2 d w4 neg w2 neg d w2 0 d  w4 neg w2 neg d w2 0 d w4 neg w2 d w2 0 d w4 neg w2 d w4 neg w2 neg d cl f} def
/m40 {mp x y m w4 w2 d w4 w4 neg d w2 neg w4 neg d w2 w4 neg d w4 neg w4 neg d w4 neg w2 d w4 neg w2 neg d w4 neg w4 d w2 w4 d w2 neg w4 d w4 w4 d w4 w2 neg d cl s} def
/m41 {mp x y m w4 w2 d w4 w4 neg d w2 neg w4 neg d w2 w4 neg d w4 neg w4 neg d w4 neg w2 d w4 neg w2 neg d w4 neg w4 d w2 w4 d w2 neg w4 d w4 w4 d w4 w2 neg d cl f} def
/m42 {mp x y w2 add m w8 neg w2 -3 4 div mul d w2 -3 4 div mul w8 neg d w2 3 4 div mul w8 neg d w8 w2 -3 4 div mul d w8 w2 3 4 div mul d w2 3 4 div mul w8 d w2 -3 4 div mul w8 d w8 neg w2 3 4 div mul d cl s} def
/m43 {mp x y w2 add m w8 neg w2 -3 4 div mul d w2 -3 4 div mul w8 neg d w2 3 4 div mul w8 neg d w8 w2 -3 4 div mul d w8 w2 3 4 div mul d w2 3 4 div mul w8 d w2 -3 4 div mul w8 d w8 neg w2 3 4 div mul d cl f} def
/m44 {mp x y m w6 neg w2 d w2 2 3 div mul 0 d w6 neg w2 neg d w2 w6 d 0 w2 -2 3 div mul d w2 neg w6 d w6 w2 neg d w2 -2 3 div mul 0 d w6 w2 d w2 neg w6 neg d 0 w2 2 3 div mul d w2 w6 neg d cl s} def
/m45 {mp x y m w6 neg w2 d w2 2 3 div mul 0 d w6 neg w2 neg d w2 w6 d 0 w2 -2 3 div mul d w2 neg w6 d w6 w2 neg d w2 -2 3 div mul 0 d w6 w2 d w2 neg w6 neg d 0 w2 2 3 div mul d w2 w6 neg d cl f} def
/m46 {mp x y w4 add m w4 neg w4 d w4 neg w4 neg d  w4 w4 neg d w4 neg w4 neg d w4 w4 neg d w4 w4 d w4 w4 neg d w4 w4 d w4 neg w4 d w4 w4 d w4 neg w4 d w4 neg w4 neg d cl s} def
/m47 {mp x y w4 add m w4 neg w4 d w4 neg w4 neg d w4 w4 neg d w4 neg w4 neg d  w4 w4 neg d w4 w4 d w4 w4 neg d w4 w4 d w4 neg w4 d w4 w4 d w4 neg w4 d w4 neg w4 neg d cl f} def
/m48 {mp x y w4 add m w4 neg w4 d w4 neg w4 neg d w4 w4 neg d  w4 neg w4 neg d w4 w4 neg d w4 w4 d w4 w4 neg d w4 w4 d w4 neg w4 d w4 w4 d w4 neg w4 d w4 neg w4 neg d  w4 w4 neg d w4 neg w4 neg d w4 neg w4 d w4 w4 d cl f} def
/m49 {mp x w2 sub w3 add y w2 sub w3 add m  0 w3 neg d w3 0 d 0 w3 d w3 0 d 0 w3 d w3 neg 0 d 0 w3 d w3 neg 0 d 0 w3 neg d w3 neg 0 d 0 w3 neg d w3 0 d 0 w3 d w3 0 d 0 w3 neg d w3 neg 0 d cl f } def
/m2 {mp x y w2 sub m 0 w d x w2 sub y m w 0 d s} def
/m5 {mp x w2 sub y w2 sub m w w d x w2 sub y w2 add m w w neg d s} def
%%IncludeResource: ProcSet (FontSetInit)
%%IncludeResource: font Times-Roman
%%IncludeResource: font Times-Italic
%%IncludeResource: font Times-Bold
%%IncludeResource: font Times-BoldItalic
%%IncludeResource: font Helvetica
%%IncludeResource: font Helvetica-Oblique
%%IncludeResource: font Helvetica-Bold
%%IncludeResource: font Helvetica-BoldOblique
%%IncludeResource: font Courier
%%IncludeResource: font Courier-Oblique
%%IncludeResource: font Courier-Bold
%%IncludeResource: font Courier-BoldOblique
%%IncludeResource: font Symbol
%%IncludeResource: font ZapfDingbats
/reEncode {exch findfont dup length dict begin {1 index /FID eq  {pop pop} {def} ifelse } forall /Encoding exch def currentdict end dup /FontName get exch definefont pop } def [/Times-Bold /Times-Italic /Times-BoldItalic /Helvetica /Helvetica-Oblique
 /Helvetica-Bold /Helvetica-BoldOblique /Courier /Courier-Oblique /Courier-Bold /Courier-BoldOblique /Times-Roman /AvantGarde-Book /AvantGarde-BookOblique /AvantGarde-Demi /AvantGarde-DemiOblique /Bookman-Demi /Bookman-DemiItalic /Bookman-Light
 /Bookman-LightItalic /Helvetica-Narrow /Helvetica-Narrow-Bold /Helvetica-Narrow-BoldOblique /Helvetica-Narrow-Oblique /NewCenturySchlbk-Roman /NewCenturySchlbk-Bold /NewCenturySchlbk-BoldItalic /NewCenturySchlbk-Italic /Palatino-Bold
 /Palatino-BoldItalic /Palatino-Italic /Palatino-Roman ] {ISOLatin1Encoding reEncode } forall
%%EndProlog
%%BeginSetup
%%EndSetup
newpath  gsave  .25 .25 scale  gsave  0 0 t 0.490196 0.545098 0.615686 c[  ] 0 sd 3 lw 0.941176 0.941176 0.941176 c 2268 1182 0 0 bf 0.490196 0.545098 0.615686 c 0.941176 0.941176 0.941176 c 710 567 23 603 bf black 1 1 0.992157 c 548 429 143 685 bf
 black 548 429 143 685 bl 0 0 0.933333 c 6 lw 0.49 0.6 0.82 c black 3 lw 0.49 0.6 0.82 c 143 685 m 390 Y 14 X -260 Y 14 X 12 Y 14 X -29 Y 13 X -38 Y 14 X -10 Y 14 X 34 Y 13 X -67 Y 14 X 30 Y 14 X 8 Y 13 X -13 Y 14 X -1 Y 14 X 23 Y 13 X -28 Y 14 X 14
 Y 14 X -6 Y 13 X 17 Y 14 X -12 Y 14 X 14 Y 13 X 29 Y 14 X 1 Y 14 X 86 Y 13 X -175 Y 14 X -3 Y 14 X 5 Y 13 X -12 Y 14 X 3 Y 14 X 4 Y 13 X -4 Y 14 X 6 Y 14 X -5 Y 13 X 10 Y 14 X -7 Y 14 X 14 Y 14 X -12 Y 13 X -7 Y 14 X 3 Y 14 X 6 Y 13 X 3 Y 14 X -19 Y
 14 X -4 Y f 6 lw 0 0 0.933333 c 0.49 0.6 0.82 c 0 0 0.933333 c 143 1075 m 14 X -260 Y 14 X 12 Y 14 X -29 Y 13 X -38 Y 14 X -10 Y 14 X 34 Y 13 X -67 Y 14 X 30 Y 14 X 8 Y 13 X -13 Y 14 X -1 Y 14 X 23 Y 13 X -28 Y 14 X 14 Y 14 X -6 Y 13 X 17 Y 14 X -12
 Y 14 X 14 Y 13 X 29 Y 14 X 1 Y 14 X 86 Y 13 X -175 Y 14 X -3 Y 14 X 5 Y 13 X -12 Y 14 X 3 Y 14 X 4 Y 13 X -4 Y 14 X 6 Y 14 X -5 Y 13 X 10 Y 14 X -7 Y 14 X 14 Y 14 X -12 Y 13 X -7 Y 14 X 3 Y 14 X 6 Y 13 X 3 Y 14 X -19 Y 14 X -4 Y s black 3 lw 143 685
 m 548 X s 154 698 m -13 Y s 173 691 m -6 Y s 192 691 m -6 Y s 210 691 m -6 Y s 229 698 m -13 Y s 248 691 m -6 Y s 266 691 m -6 Y s 285 691 m -6 Y s 304 698 m -13 Y s 322 691 m -6 Y s 341 691 m -6 Y s 360 691 m -6 Y s 378 698 m -13 Y s 397 691 m -6 Y
 s 416 691 m -6 Y s 434 691 m -6 Y s 453 698 m -13 Y s 472 691 m -6 Y s 490 691 m -6 Y s 509 691 m -6 Y s 528 698 m -13 Y s 547 691 m -6 Y s 565 691 m -6 Y s 584 691 m -6 Y s 603 698 m -13 Y s 621 691 m -6 Y s 640 691 m -6 Y s 659 691 m -6 Y s 677
 698 m -13 Y s 154 698 m -13 Y s 677 698 m -13 Y s
 gsave  710 567 23 603 C 142.088 656.444 t 0 r /Helvetica findfont 25.6631 sf 0 0 m (0.4) show NC gr 
 gsave  710 567 23 603 C 127.879 656.444 t 0 r /Symbol findfont 25.6631 sf 0 0 m (-) show NC gr 
 gsave  710 567 23 603 C 215.973 656.444 t 0 r /Helvetica findfont 25.6631 sf 0 0 m (0.2) show NC gr 
 gsave  710 567 23 603 C 201.764 656.444 t 0 r /Symbol findfont 25.6631 sf 0 0 m (-) show NC gr 
 gsave  710 567 23 603 C 292.7 656.444 t 0 r /Helvetica findfont 25.6631 sf 0 0 m (0) show NC gr 
 gsave  710 567 23 603 C 360.902 656.444 t 0 r /Helvetica findfont 25.6631 sf 0 0 m (0.2) show NC gr 
 gsave  710 567 23 603 C 434.788 656.444 t 0 r /Helvetica findfont 25.6631 sf 0 0 m (0.4) show NC gr 
 gsave  710 567 23 603 C 508.673 656.444 t 0 r /Helvetica findfont 25.6631 sf 0 0 m (0.6) show NC gr 
 gsave  710 567 23 603 C 585.401 656.444 t 0 r /Helvetica findfont 25.6631 sf 0 0 m (0.8) show NC gr 
 gsave  710 567 23 603 C 670.653 656.444 t 0 r /Helvetica findfont 25.6631 sf 0 0 m (1) show NC gr 
 gsave  710 567 23 603 C 579.717 613.818 t 0 r /Helvetica findfont 28.5146 sf 0 0 m (hh.H1_l4) show NC gr  143 1114 m 548 X s 154 1100 m 14 Y s 173 1107 m 7 Y s 192 1107 m 7 Y s 210 1107 m 7 Y s 229 1100 m 14 Y s 248 1107 m 7 Y s 266 1107 m 7 Y s 285
 1107 m 7 Y s 304 1100 m 14 Y s 322 1107 m 7 Y s 341 1107 m 7 Y s 360 1107 m 7 Y s 378 1100 m 14 Y s 397 1107 m 7 Y s 416 1107 m 7 Y s 434 1107 m 7 Y s 453 1100 m 14 Y s 472 1107 m 7 Y s 490 1107 m 7 Y s 509 1107 m 7 Y s 528 1100 m 14 Y s 547 1107 m
 7 Y s 565 1107 m 7 Y s 584 1107 m 7 Y s 603 1100 m 14 Y s 621 1107 m 7 Y s 640 1107 m 7 Y s 659 1107 m 7 Y s 677 1100 m 14 Y s 154 1100 m 14 Y s 677 1100 m 14 Y s 143 685 m 429 Y s 160 685 m -17 X s 152 694 m -9 X s 152 703 m -9 X s 152 712 m -9 X s
 152 721 m -9 X s 160 730 m -17 X s 152 739 m -9 X s 152 748 m -9 X s 152 757 m -9 X s 152 766 m -9 X s 160 775 m -17 X s 152 784 m -9 X s 152 794 m -9 X s 152 803 m -9 X s 152 812 m -9 X s 160 821 m -17 X s 152 830 m -9 X s 152 839 m -9 X s 152 848
 m -9 X s 152 857 m -9 X s 160 866 m -17 X s 152 875 m -9 X s 152 884 m -9 X s 152 893 m -9 X s 152 902 m -9 X s 160 912 m -17 X s 152 921 m -9 X s 152 930 m -9 X s 152 939 m -9 X s 152 948 m -9 X s 160 957 m -17 X s 152 966 m -9 X s 152 975 m -9 X s
 152 984 m -9 X s 152 993 m -9 X s 160 1002 m -17 X s 152 1011 m -9 X s 152 1020 m -9 X s 152 1030 m -9 X s 152 1039 m -9 X s 160 1048 m -17 X s 152 1057 m -9 X s 152 1066 m -9 X s 152 1075 m -9 X s 152 1084 m -9 X s 160 1093 m -17 X s 160 1093 m -17
 X s 152 1102 m -9 X s 152 1111 m -9 X s
 gsave  710 567 23 603 C 119.354 673.495 t 0 r /Helvetica findfont 25.6631 sf 0 0 m (0) show NC gr 
 gsave  710 567 23 603 C 99.4613 718.963 t 0 r /Helvetica findfont 25.6631 sf 0 0 m (0.5) show NC gr 
 gsave  710 567 23 603 C 122.195 764.431 t 0 r /Helvetica findfont 25.6631 sf 0 0 m (1) show NC gr 
 gsave  710 567 23 603 C 99.4613 809.899 t 0 r /Helvetica findfont 25.6631 sf 0 0 m (1.5) show NC gr 
 gsave  710 567 23 603 C 119.354 855.367 t 0 r /Helvetica findfont 25.6631 sf 0 0 m (2) show NC gr 
 gsave  710 567 23 603 C 99.4613 900.835 t 0 r /Helvetica findfont 25.6631 sf 0 0 m (2.5) show NC gr 
 gsave  710 567 23 603 C 119.354 946.303 t 0 r /Helvetica findfont 25.6631 sf 0 0 m (3) show NC gr 
 gsave  710 567 23 603 C 99.4613 991.771 t 0 r /Helvetica findfont 25.6631 sf 0 0 m (3.5) show NC gr 
 gsave  710 567 23 603 C 119.354 1037.24 t 0 r /Helvetica findfont 25.6631 sf 0 0 m (4) show NC gr 
 gsave  710 567 23 603 C 99.4613 1082.71 t 0 r /Helvetica findfont 25.6631 sf 0 0 m (4.5) show NC gr 
 gsave  710 567 23 603 C 45.468 1023.03 t 90 r /Helvetica findfont 28.5146 sf 0 0 m (0.0366 ) show NC gr 
 gsave  710 567 23 603 C 31.2593 1020.19 t 90 r /Helvetica findfont 19.9602 sf 0 0 m ( ) show NC gr 
 gsave  710 567 23 603 C 45.468 1008.82 t 90 r /Helvetica findfont 28.5146 sf 0 0 m (/) show NC gr 
 gsave  710 567 23 603 C 53.9933 1005.98 t 90 r /Helvetica findfont 19.9602 sf 0 0 m ( ) show NC gr 
 gsave  710 567 23 603 C 45.468 900.835 t 90 r /Helvetica findfont 28.5146 sf 0 0 m (\(1/N\) dN) show NC gr  691 685 m 429 Y s 674 685 m 17 X s 683 694 m 8 X s 683 703 m 8 X s 683 712 m 8 X s 683 721 m 8 X s 674 730 m 17 X s 683 739 m 8 X s 683 748 m
 8 X s 683 757 m 8 X s 683 766 m 8 X s 674 775 m 17 X s 683 784 m 8 X s 683 794 m 8 X s 683 803 m 8 X s 683 812 m 8 X s 674 821 m 17 X s 683 830 m 8 X s 683 839 m 8 X s 683 848 m 8 X s 683 857 m 8 X s 674 866 m 17 X s 683 875 m 8 X s 683 884 m 8 X s
 683 893 m 8 X s 683 902 m 8 X s 674 912 m 17 X s 683 921 m 8 X s 683 930 m 8 X s 683 939 m 8 X s 683 948 m 8 X s 674 957 m 17 X s 683 966 m 8 X s 683 975 m 8 X s 683 984 m 8 X s 683 993 m 8 X s 674 1002 m 17 X s 683 1011 m 8 X s 683 1020 m 8 X s 683
 1030 m 8 X s 683 1039 m 8 X s 674 1048 m 17 X s 683 1057 m 8 X s 683 1066 m 8 X s 683 1075 m 8 X s 683 1084 m 8 X s 674 1093 m 17 X s 674 1093 m 17 X s 683 1102 m 8 X s 683 1111 m 8 X s 0.490196 0.545098 0.615686 c 0.364706 0.419608 0.490196 c 335
 38 30 1130 bf 0.490196 0.545098 0.615686 c 30 1130 m 335 X s 365 1130 m 38 Y s 365 1168 m -335 X s 30 1168 m -38 Y s 1 1 1 c black 1 1 1 c
 gsave  710 567 23 603 C 34.101 1142.38 t 0 r /Helvetica-Bold findfont 28.5146 sf 0 0 m (Input variable: hh.H1_l4) show NC gr  1 0 0 c 6 lw black 3 lw 1 0 0 c 677 685 m s 677 700 m -15 -15 d s 677 715 m -31 -30 d s 664 717 m -1 X s 661 715 m -30 -30
 d s 650 718 m -34 -33 d s 641 725 m -40 -40 d s 629 728 m -7 -7 d s 616 714 m -30 -29 d s 605 719 m -10 -10 d s 586 699 m -15 -14 d s 581 710 m -25 -25 d s 578 722 m -11 -11 d s 561 705 m -20 -20 d s 540 699 m -14 -14 d s 538 712 m -27 -27 d s 526
 715 m -30 -30 d s 506 711 m -25 -26 d s 485 705 m -19 -20 d s 481 716 m -9 -10 d s 471 705 m -21 -20 d s 458 707 m -23 -22 d s 444 709 m -24 -24 d s 444 724 m -39 -39 d s 444 739 m -54 -54 d s 444 754 m -27 -27 d s 417 727 m -42 -42 d s 444 770 m
 -27 -28 d s 403 728 m -43 -43 d s 444 785 m -13 -14 d s 428 768 m -11 -11 d s 403 743 m -58 -58 d s 444 800 m -13 -14 d s 390 745 m -60 -60 d s 444 815 m -13 -14 d s 390 760 m -28 -28 d s 357 727 m -42 -42 d s 444 830 m -13 -13 d s 390 775 m -14 -14
 d s 368 753 m -6 -5 d s 349 734 m -49 -49 d s 444 845 m -13 -13 d s 378 779 m -2 -2 d s 349 749 m -64 -64 d s 444 861 m -13 -14 d s 345 760 m -24 -23 d s 320 736 m -50 -51 d s 432 864 m -1 -2 d s 323 754 m -2 -2 d s 308 738 m -53 -53 d s 308 753 m
 -69 -68 d s 308 768 m -84 -83 d s 295 771 m -1 -1 d s 289 765 m -9 -9 d s 267 742 m -58 -57 d s 260 751 m -66 -66 d s 243 749 m -64 -64 d s 239 760 m -13 -13 d s 224 745 m -60 -60 d s 229 765 m -3 -3 d s 212 748 m -63 -63 d s 212 763 m -69 -69 d s
 212 778 m -69 -69 d s 198 780 m -55 -55 d s 191 788 m -48 -48 d s 185 796 m -42 -41 d s 179 806 m -36 -36 d s 171 813 m -28 -28 d s 165 822 m -22 -22 d s 157 829 m -14 -13 d s 157 845 m -14 -14 d s 157 860 m -14 -14 d s 157 875 m -14 -14 d s 157 890
 m -14 -14 d s 157 905 m -14 -13 d s 157 921 m -14 -14 d s 157 936 m -14 -14 d s 157 951 m -14 -14 d s 157 966 m -14 -14 d s 149 973 m -6 -6 d s 6 lw 143 973 m 14 X -151 Y 14 X -16 Y 14 X -18 Y 13 X -9 Y 14 X -34 Y 14 X 20 Y 13 X -16 Y 14 X 2 Y 14 X
 -9 Y 13 X 23 Y 14 X 6 Y 14 X -35 Y 13 X 18 Y 14 X 6 Y 14 X -33 Y 13 X 26 Y 14 X 26 Y 14 X -34 Y 13 X -18 Y 14 X 41 Y 14 X 96 Y 13 X -157 Y 14 X -2 Y 14 X 11 Y 13 X -11 Y 14 X 6 Y 14 X 4 Y 13 X -3 Y 14 X -13 Y 14 X 6 Y 13 X 17 Y 14 X -23 Y 14 X 20 Y
 14 X -5 Y 13 X 14 Y 14 X -3 Y 14 X -10 Y 13 X 2 Y 14 X -32 Y 14 X s black 3 lw 143 685 m 548 X s 154 698 m -13 Y s 173 691 m -6 Y s 192 691 m -6 Y s 210 691 m -6 Y s 229 698 m -13 Y s 248 691 m -6 Y s 266 691 m -6 Y s 285 691 m -6 Y s 304 698 m -13
 Y s 322 691 m -6 Y s 341 691 m -6 Y s 360 691 m -6 Y s 378 698 m -13 Y s 397 691 m -6 Y s 416 691 m -6 Y s 434 691 m -6 Y s 453 698 m -13 Y s 472 691 m -6 Y s 490 691 m -6 Y s 509 691 m -6 Y s 528 698 m -13 Y s 547 691 m -6 Y s 565 691 m -6 Y s 584
 691 m -6 Y s 603 698 m -13 Y s 621 691 m -6 Y s 640 691 m -6 Y s 659 691 m -6 Y s 677 698 m -13 Y s 154 698 m -13 Y s 677 698 m -13 Y s 143 1114 m 548 X s 154 1100 m 14 Y s 173 1107 m 7 Y s 192 1107 m 7 Y s 210 1107 m 7 Y s 229 1100 m 14 Y s 248
 1107 m 7 Y s 266 1107 m 7 Y s 285 1107 m 7 Y s 304 1100 m 14 Y s 322 1107 m 7 Y s 341 1107 m 7 Y s 360 1107 m 7 Y s 378 1100 m 14 Y s 397 1107 m 7 Y s 416 1107 m 7 Y s 434 1107 m 7 Y s 453 1100 m 14 Y s 472 1107 m 7 Y s 490 1107 m 7 Y s 509 1107 m 7
 Y s 528 1100 m 14 Y s 547 1107 m 7 Y s 565 1107 m 7 Y s 584 1107 m 7 Y s 603 1100 m 14 Y s 621 1107 m 7 Y s 640 1107 m 7 Y s 659 1107 m 7 Y s 677 1100 m 14 Y s 154 1100 m 14 Y s 677 1100 m 14 Y s 143 685 m 429 Y s 160 685 m -17 X s 152 694 m -9 X s
 152 703 m -9 X s 152 712 m -9 X s 152 721 m -9 X s 160 730 m -17 X s 152 739 m -9 X s 152 748 m -9 X s 152 757 m -9 X s 152 766 m -9 X s 160 775 m -17 X s 152 784 m -9 X s 152 794 m -9 X s 152 803 m -9 X s 152 812 m -9 X s 160 821 m -17 X s 152 830
 m -9 X s 152 839 m -9 X s 152 848 m -9 X s 152 857 m -9 X s 160 866 m -17 X s 152 875 m -9 X s 152 884 m -9 X s 152 893 m -9 X s 152 902 m -9 X s 160 912 m -17 X s 152 921 m -9 X s 152 930 m -9 X s 152 939 m -9 X s 152 948 m -9 X s 160 957 m -17 X s
 152 966 m -9 X s 152 975 m -9 X s 152 984 m -9 X s 152 993 m -9 X s 160 1002 m -17 X s 152 1011 m -9 X s 152 1020 m -9 X s 152 1030 m -9 X s 152 1039 m -9 X s 160 1048 m -17 X s 152 1057 m -9 X s 152 1066 m -9 X s 152 1075 m -9 X s 152 1084 m -9 X s
 160 1093 m -17 X s 160 1093 m -17 X s 152 1102 m -9 X s 152 1111 m -9 X s 691 685 m 429 Y s 674 685 m 17 X s 683 694 m 8 X s 683 703 m 8 X s 683 712 m 8 X s 683 721 m 8 X s 674 730 m 17 X s 683 739 m 8 X s 683 748 m 8 X s 683 757 m 8 X s 683 766 m 8
 X s 674 775 m 17 X s 683 784 m 8 X s 683 794 m 8 X s 683 803 m 8 X s 683 812 m 8 X s 674 821 m 17 X s 683 830 m 8 X s 683 839 m 8 X s 683 848 m 8 X s 683 857 m 8 X s 674 866 m 17 X s 683 875 m 8 X s 683 884 m 8 X s 683 893 m 8 X s 683 902 m 8 X s
 674 912 m 17 X s 683 921 m 8 X s 683 930 m 8 X s 683 939 m 8 X s 683 948 m 8 X s 674 957 m 17 X s 683 966 m 8 X s 683 975 m 8 X s 683 984 m 8 X s 683 993 m 8 X s 674 1002 m 17 X s 683 1011 m 8 X s 683 1020 m 8 X s 683 1030 m 8 X s 683 1039 m 8 X s
 674 1048 m 17 X s 683 1057 m 8 X s 683 1066 m 8 X s 683 1075 m 8 X s 683 1084 m 8 X s 674 1093 m 17 X s 674 1093 m 17 X s 683 1102 m 8 X s 683 1111 m 8 X s
 gsave  710 567 23 603 C 719.017 682.347 t 90 r /Helvetica-Bold findfont 19.9602 sf 0 0 m (U/O\255flow \(S,B\): \(0.0, 0.0\)% / \(0.0, 0.0\)%) show NC gr  0.490196 0.545098 0.615686 c 0.364706 0.419608 0.490196 c 335 38 30 1130 bf 0.490196 0.545098
 0.615686 c 30 1130 m 335 X s 365 1130 m 38 Y s 365 1168 m -335 X s 30 1168 m -38 Y s 1 1 1 c black 1 1 1 c
 gsave  710 567 23 603 C 34.101 1142.38 t 0 r /Helvetica-Bold findfont 28.5146 sf 0 0 m (Input variable: hh.H1_l4) show NC gr  0.490196 0.545098 0.615686 c 0.941176 0.941176 0.941176 c 710 567 779 603 bf black 1 1 0.992157 c 548 429 899 685 bf black
 548 429 899 685 bl 0 0 0.933333 c 6 lw 0.49 0.6 0.82 c black 3 lw 0.49 0.6 0.82 c 899 685 m 43 Y 14 X -12 Y 14 X -7 Y 13 X -8 Y 14 X 14 Y 14 X 17 Y 13 X -20 Y 14 X 11 Y 14 X -19 Y 13 X 14 Y 14 X -14 Y 14 X 157 Y 14 X 185 Y 13 X -28 Y 14 X -62 Y 14 X
 -103 Y 13 X 10 Y 14 X -51 Y 14 X 29 Y 13 X -4 Y 14 X 12 Y 14 X 3 Y 13 X 35 Y 14 X -30 Y 14 X -28 Y 13 X 187 Y 14 X 59 Y 14 X -106 Y 13 X -284 Y 14 X 1 Y 14 X -1 Y 68 X 2 Y 14 X -2 Y 55 X f 6 lw 0 0 0.933333 c 0.49 0.6 0.82 c 0 0 0.933333 c 899 728 m
 14 X -12 Y 14 X -7 Y 13 X -8 Y 14 X 14 Y 14 X 17 Y 13 X -20 Y 14 X 11 Y 14 X -19 Y 13 X 14 Y 14 X -14 Y 14 X 157 Y 14 X 185 Y 13 X -28 Y 14 X -62 Y 14 X -103 Y 13 X 10 Y 14 X -51 Y 14 X 29 Y 13 X -4 Y 14 X 12 Y 14 X 3 Y 13 X 35 Y 14 X -30 Y 14 X -28
 Y 13 X 187 Y 14 X 59 Y 14 X -106 Y 13 X -284 Y 14 X 1 Y 14 X -1 Y 68 X 2 Y 14 X -2 Y 55 X s black 3 lw 899 685 m 548 X s 953 698 m -13 Y s 966 691 m -6 Y s 979 691 m -6 Y s 993 691 m -6 Y s 1006 698 m -13 Y s 1019 691 m -6 Y s 1033 691 m -6 Y s 1046
 691 m -6 Y s 1059 698 m -13 Y s 1073 691 m -6 Y s 1086 691 m -6 Y s 1100 691 m -6 Y s 1113 698 m -13 Y s 1126 691 m -6 Y s 1140 691 m -6 Y s 1153 691 m -6 Y s 1166 698 m -13 Y s 1180 691 m -6 Y s 1193 691 m -6 Y s 1206 691 m -6 Y s 1220 698 m -13 Y
 s 1233 691 m -6 Y s 1246 691 m -6 Y s 1260 691 m -6 Y s 1273 698 m -13 Y s 1286 691 m -6 Y s 1300 691 m -6 Y s 1313 691 m -6 Y s 1326 698 m -13 Y s 1340 691 m -6 Y s 1353 691 m -6 Y s 1367 691 m -6 Y s 1380 698 m -13 Y s 1393 691 m -6 Y s 1407 691 m
 -6 Y s 1420 691 m -6 Y s 1433 698 m -13 Y s 953 698 m -13 Y s 939 691 m -6 Y s 926 691 m -6 Y s 913 691 m -6 Y s 1433 698 m -13 Y s
 gsave  710 567 779 603 C 940.619 656.444 t 0 r /Helvetica findfont 25.6631 sf 0 0 m (0.8) show NC gr 
 gsave  710 567 779 603 C 926.411 656.444 t 0 r /Symbol findfont 25.6631 sf 0 0 m (-) show NC gr 
 gsave  710 567 779 603 C 994.612 656.444 t 0 r /Helvetica findfont 25.6631 sf 0 0 m (0.6) show NC gr 
 gsave  710 567 779 603 C 980.404 656.444 t 0 r /Symbol findfont 25.6631 sf 0 0 m (-) show NC gr 
 gsave  710 567 779 603 C 1045.76 656.444 t 0 r /Helvetica findfont 25.6631 sf 0 0 m (0.4) show NC gr 
 gsave  710 567 779 603 C 1031.56 656.444 t 0 r /Symbol findfont 25.6631 sf 0 0 m (-) show NC gr 
 gsave  710 567 779 603 C 1099.76 656.444 t 0 r /Helvetica findfont 25.6631 sf 0 0 m (0.2) show NC gr 
 gsave  710 567 779 603 C 1085.55 656.444 t 0 r /Symbol findfont 25.6631 sf 0 0 m (-) show NC gr 
 gsave  710 567 779 603 C 1156.59 656.444 t 0 r /Helvetica findfont 25.6631 sf 0 0 m (0) show NC gr 
 gsave  710 567 779 603 C 1202.06 656.444 t 0 r /Helvetica findfont 25.6631 sf 0 0 m (0.2) show NC gr 
 gsave  710 567 779 603 C 1253.21 656.444 t 0 r /Helvetica findfont 25.6631 sf 0 0 m (0.4) show NC gr 
 gsave  710 567 779 603 C 1307.21 656.444 t 0 r /Helvetica findfont 25.6631 sf 0 0 m (0.6) show NC gr 
 gsave  710 567 779 603 C 1361.2 656.444 t 0 r /Helvetica findfont 25.6631 sf 0 0 m (0.8) show NC gr 
 gsave  710 567 779 603 C 1426.56 656.444 t 0 r /Helvetica findfont 25.6631 sf 0 0 m (1) show NC gr 
 gsave  710 567 779 603 C 1335.62 613.818 t 0 r /Helvetica findfont 28.5146 sf 0 0 m (hh.H1_l5) show NC gr  899 1114 m 548 X s 953 1100 m 14 Y s 966 1107 m 7 Y s 979 1107 m 7 Y s 993 1107 m 7 Y s 1006 1100 m 14 Y s 1019 1107 m 7 Y s 1033 1107 m 7 Y s
 1046 1107 m 7 Y s 1059 1100 m 14 Y s 1073 1107 m 7 Y s 1086 1107 m 7 Y s 1100 1107 m 7 Y s 1113 1100 m 14 Y s 1126 1107 m 7 Y s 1140 1107 m 7 Y s 1153 1107 m 7 Y s 1166 1100 m 14 Y s 1180 1107 m 7 Y s 1193 1107 m 7 Y s 1206 1107 m 7 Y s 1220 1100 m
 14 Y s 1233 1107 m 7 Y s 1246 1107 m 7 Y s 1260 1107 m 7 Y s 1273 1100 m 14 Y s 1286 1107 m 7 Y s 1300 1107 m 7 Y s 1313 1107 m 7 Y s 1326 1100 m 14 Y s 1340 1107 m 7 Y s 1353 1107 m 7 Y s 1367 1107 m 7 Y s 1380 1100 m 14 Y s 1393 1107 m 7 Y s 1407
 1107 m 7 Y s 1420 1107 m 7 Y s 1433 1100 m 14 Y s 953 1100 m 14 Y s 939 1107 m 7 Y s 926 1107 m 7 Y s 913 1107 m 7 Y s 1433 1100 m 14 Y s 899 685 m 429 Y s 915 685 m -16 X s 907 695 m -8 X s 907 706 m -8 X s 907 716 m -8 X s 915 727 m -16 X s 907
 737 m -8 X s 907 748 m -8 X s 907 758 m -8 X s 915 769 m -16 X s 907 780 m -8 X s 907 790 m -8 X s 907 801 m -8 X s 915 811 m -16 X s 907 822 m -8 X s 907 832 m -8 X s 907 843 m -8 X s 915 853 m -16 X s 907 864 m -8 X s 907 875 m -8 X s 907 885 m -8
 X s 915 896 m -16 X s 907 906 m -8 X s 907 917 m -8 X s 907 927 m -8 X s 915 938 m -16 X s 907 948 m -8 X s 907 959 m -8 X s 907 969 m -8 X s 915 980 m -16 X s 907 991 m -8 X s 907 1001 m -8 X s 907 1012 m -8 X s 915 1022 m -16 X s 907 1033 m -8 X s
 907 1043 m -8 X s 907 1054 m -8 X s 915 1064 m -16 X s 907 1075 m -8 X s 907 1085 m -8 X s 907 1096 m -8 X s 915 1107 m -16 X s 915 1107 m -16 X s
 gsave  710 567 779 603 C 875.259 673.495 t 0 r /Helvetica findfont 25.6631 sf 0 0 m (0) show NC gr 
 gsave  710 567 779 603 C 855.367 716.121 t 0 r /Helvetica findfont 25.6631 sf 0 0 m (0.2) show NC gr 
 gsave  710 567 779 603 C 855.367 758.747 t 0 r /Helvetica findfont 25.6631 sf 0 0 m (0.4) show NC gr 
 gsave  710 567 779 603 C 855.367 801.374 t 0 r /Helvetica findfont 25.6631 sf 0 0 m (0.6) show NC gr 
 gsave  710 567 779 603 C 855.367 844 t 0 r /Helvetica findfont 25.6631 sf 0 0 m (0.8) show NC gr 
 gsave  710 567 779 603 C 878.101 886.626 t 0 r /Helvetica findfont 25.6631 sf 0 0 m (1) show NC gr 
 gsave  710 567 779 603 C 855.367 929.252 t 0 r /Helvetica findfont 25.6631 sf 0 0 m (1.2) show NC gr 
 gsave  710 567 779 603 C 855.367 969.037 t 0 r /Helvetica findfont 25.6631 sf 0 0 m (1.4) show NC gr 
 gsave  710 567 779 603 C 855.367 1011.66 t 0 r /Helvetica findfont 25.6631 sf 0 0 m (1.6) show NC gr 
 gsave  710 567 779 603 C 855.367 1054.29 t 0 r /Helvetica findfont 25.6631 sf 0 0 m (1.8) show NC gr 
 gsave  710 567 779 603 C 875.259 1096.92 t 0 r /Helvetica findfont 25.6631 sf 0 0 m (2) show NC gr 
 gsave  710 567 779 603 C 801.374 1023.03 t 90 r /Helvetica findfont 28.5146 sf 0 0 m (0.0512 ) show NC gr 
 gsave  710 567 779 603 C 787.165 1020.19 t 90 r /Helvetica findfont 19.9602 sf 0 0 m ( ) show NC gr 
 gsave  710 567 779 603 C 801.374 1008.82 t 90 r /Helvetica findfont 28.5146 sf 0 0 m (/) show NC gr 
 gsave  710 567 779 603 C 809.899 1005.98 t 90 r /Helvetica findfont 19.9602 sf 0 0 m ( ) show NC gr 
 gsave  710 567 779 603 C 801.374 900.835 t 90 r /Helvetica findfont 28.5146 sf 0 0 m (\(1/N\) dN) show NC gr  1447 685 m 429 Y s 1430 685 m 17 X s 1438 695 m 9 X s 1438 706 m 9 X s 1438 716 m 9 X s 1430 727 m 17 X s 1438 737 m 9 X s 1438 748 m 9 X s
 1438 758 m 9 X s 1430 769 m 17 X s 1438 780 m 9 X s 1438 790 m 9 X s 1438 801 m 9 X s 1430 811 m 17 X s 1438 822 m 9 X s 1438 832 m 9 X s 1438 843 m 9 X s 1430 853 m 17 X s 1438 864 m 9 X s 1438 875 m 9 X s 1438 885 m 9 X s 1430 896 m 17 X s 1438
 906 m 9 X s 1438 917 m 9 X s 1438 927 m 9 X s 1430 938 m 17 X s 1438 948 m 9 X s 1438 959 m 9 X s 1438 969 m 9 X s 1430 980 m 17 X s 1438 991 m 9 X s 1438 1001 m 9 X s 1438 1012 m 9 X s 1430 1022 m 17 X s 1438 1033 m 9 X s 1438 1043 m 9 X s 1438
 1054 m 9 X s 1430 1064 m 17 X s 1438 1075 m 9 X s 1438 1085 m 9 X s 1438 1096 m 9 X s 1430 1107 m 17 X s 1430 1107 m 17 X s 0.490196 0.545098 0.615686 c 0.364706 0.419608 0.490196 c 335 38 786 1130 bf 0.490196 0.545098 0.615686 c 786 1130 m 335 X s
 1121 1130 m 38 Y s 1121 1168 m -335 X s 786 1168 m -38 Y s 1 1 1 c black 1 1 1 c
 gsave  710 567 779 603 C 790.007 1142.38 t 0 r /Helvetica-Bold findfont 28.5146 sf 0 0 m (Input variable: hh.H1_l5) show NC gr  1 0 0 c 6 lw black 3 lw 1 0 0 c 1433 685 m -1 X s 1433 700 m -16 -15 d s 1433 715 m -31 -30 d s 1420 717 m -1 X s 1404
 701 m -17 -16 d s 1392 704 m -20 -19 d s 1392 720 m -35 -35 d s 1389 732 m -47 -47 d s 1378 736 m -14 -14 d s 1352 709 m -1 X s 1344 702 m -17 -17 d s 1337 710 m -25 -25 d s 1329 717 m -32 -32 d s 1311 714 m -1 -1 d s 1303 706 m -7 -7 d s 1293 696 m
 -11 -11 d s 1282 700 m -15 -15 d s 1282 716 m -30 -31 d s 1282 731 m -45 -46 d s 1282 746 m -61 -61 d s 1282 761 m -76 -76 d s 1282 776 m -91 -91 d s 1282 792 m -106 -107 d s 1282 807 m -121 -122 d s 1282 822 m -136 -137 d s 1282 837 m -151 -152 d s
 1282 852 m -166 -167 d s 1282 867 m -181 -182 d s 1278 878 m -192 -193 d s 1269 884 m -198 -199 d s 1269 899 m -28 -27 d s 1230 860 m -2 -2 d s 1217 847 m -3 -3 d s 1202 832 m -146 -147 d s 1269 914 m -28 -27 d s 1200 845 m -159 -160 d s 1263 923 m
 -22 -21 d s 1200 861 m -164 -166 d s 1029 688 m -3 -3 d s 1255 931 m -14 -14 d s 1189 865 m -2 -3 d s 1173 848 m -123 -124 d s 1037 712 m -1 -1 d s 1022 697 m -12 -12 d s 1255 946 m -14 -14 d s 1172 863 m -122 -124 d s 1021 711 m -12 -13 d s 1007
 696 m -12 -11 d s 1255 961 m -14 -13 d s 1148 853 m -2 -2 d s 1134 839 m -84 -84 d s 995 700 m -15 -15 d s 1252 974 m -11 -11 d s 1118 839 m -68 -69 d s 982 702 m -17 -17 d s 1118 854 m -13 -14 d s 1099 835 m -49 -50 d s 959 694 m -9 -9 d s 1118 869
 m -13 -14 d s 1091 842 m -41 -42 d s 954 704 m -19 -19 d s 1118 884 m -13 -13 d s 1091 857 m -41 -42 d s 949 714 m -29 -29 d s 1118 899 m -13 -13 d s 1091 872 m -41 -41 d s 936 716 m -31 -31 d s 1118 915 m -13 -14 d s 1091 887 m -41 -41 d s 923 718
 m -10 -10 d s 909 704 m -10 -10 d s 1115 927 m -10 -11 d s 1091 902 m -41 -41 d s 1091 917 m -41 -41 d s 1091 933 m -41 -42 d s 1091 948 m -41 -42 d s 1091 963 m -41 -41 d s 1091 978 m -41 -41 d s 1091 993 m -27 -27 d s 1059 961 m -9 -9 d s 1091
 1009 m -27 -28 d s 1091 1024 m -27 -28 d s 1091 1039 m -27 -28 d s 1080 1043 m -16 -16 d s 6 lw 899 704 m 14 X 14 Y 14 X -2 Y 13 X -2 Y 14 X -20 Y 14 X 8 Y 27 X -6 Y 14 X 15 Y 13 X -23 Y 14 X 24 Y 14 X 249 Y 14 X 80 Y 13 X 2 Y 14 X -208 Y 14 X 92 Y
 13 X -89 Y 14 X 1 Y 14 X 14 Y 13 X 10 Y 14 X -15 Y 14 X 17 Y 13 X -33 Y 14 X 15 Y 14 X 13 Y 13 X 114 Y 14 X -51 Y 14 X -45 Y 13 X -182 Y 14 X 10 Y 14 X 8 Y 13 X 3 Y 14 X -15 Y 14 X 7 Y 13 X 28 Y 14 X -5 Y 14 X -31 Y 13 X 1 Y 14 X 15 Y 14 X -32 Y 14
 X s black 3 lw 899 685 m 548 X s 953 698 m -13 Y s 966 691 m -6 Y s 979 691 m -6 Y s 993 691 m -6 Y s 1006 698 m -13 Y s 1019 691 m -6 Y s 1033 691 m -6 Y s 1046 691 m -6 Y s 1059 698 m -13 Y s 1073 691 m -6 Y s 1086 691 m -6 Y s 1100 691 m -6 Y s
 1113 698 m -13 Y s 1126 691 m -6 Y s 1140 691 m -6 Y s 1153 691 m -6 Y s 1166 698 m -13 Y s 1180 691 m -6 Y s 1193 691 m -6 Y s 1206 691 m -6 Y s 1220 698 m -13 Y s 1233 691 m -6 Y s 1246 691 m -6 Y s 1260 691 m -6 Y s 1273 698 m -13 Y s 1286 691 m
 -6 Y s 1300 691 m -6 Y s 1313 691 m -6 Y s 1326 698 m -13 Y s 1340 691 m -6 Y s 1353 691 m -6 Y s 1367 691 m -6 Y s 1380 698 m -13 Y s 1393 691 m -6 Y s 1407 691 m -6 Y s 1420 691 m -6 Y s 1433 698 m -13 Y s 953 698 m -13 Y s 939 691 m -6 Y s 926
 691 m -6 Y s 913 691 m -6 Y s 1433 698 m -13 Y s 899 1114 m 548 X s 953 1100 m 14 Y s 966 1107 m 7 Y s 979 1107 m 7 Y s 993 1107 m 7 Y s 1006 1100 m 14 Y s 1019 1107 m 7 Y s 1033 1107 m 7 Y s 1046 1107 m 7 Y s 1059 1100 m 14 Y s 1073 1107 m 7 Y s
 1086 1107 m 7 Y s 1100 1107 m 7 Y s 1113 1100 m 14 Y s 1126 1107 m 7 Y s 1140 1107 m 7 Y s 1153 1107 m 7 Y s 1166 1100 m 14 Y s 1180 1107 m 7 Y s 1193 1107 m 7 Y s 1206 1107 m 7 Y s 1220 1100 m 14 Y s 1233 1107 m 7 Y s 1246 1107 m 7 Y s 1260 1107 m
 7 Y s 1273 1100 m 14 Y s 1286 1107 m 7 Y s 1300 1107 m 7 Y s 1313 1107 m 7 Y s 1326 1100 m 14 Y s 1340 1107 m 7 Y s 1353 1107 m 7 Y s 1367 1107 m 7 Y s 1380 1100 m 14 Y s 1393 1107 m 7 Y s 1407 1107 m 7 Y s 1420 1107 m 7 Y s 1433 1100 m 14 Y s 953
 1100 m 14 Y s 939 1107 m 7 Y s 926 1107 m 7 Y s 913 1107 m 7 Y s 1433 1100 m 14 Y s 899 685 m 429 Y s 915 685 m -16 X s 907 695 m -8 X s 907 706 m -8 X s 907 716 m -8 X s 915 727 m -16 X s 907 737 m -8 X s 907 748 m -8 X s 907 758 m -8 X s 915 769 m
 -16 X s 907 780 m -8 X s 907 790 m -8 X s 907 801 m -8 X s 915 811 m -16 X s 907 822 m -8 X s 907 832 m -8 X s 907 843 m -8 X s 915 853 m -16 X s 907 864 m -8 X s 907 875 m -8 X s 907 885 m -8 X s 915 896 m -16 X s 907 906 m -8 X s 907 917 m -8 X s
 907 927 m -8 X s 915 938 m -16 X s 907 948 m -8 X s 907 959 m -8 X s 907 969 m -8 X s 915 980 m -16 X s 907 991 m -8 X s 907 1001 m -8 X s 907 1012 m -8 X s 915 1022 m -16 X s 907 1033 m -8 X s 907 1043 m -8 X s 907 1054 m -8 X s 915 1064 m -16 X s
 907 1075 m -8 X s 907 1085 m -8 X s 907 1096 m -8 X s 915 1107 m -16 X s 915 1107 m -16 X s 1447 685 m 429 Y s 1430 685 m 17 X s 1438 695 m 9 X s 1438 706 m 9 X s 1438 716 m 9 X s 1430 727 m 17 X s 1438 737 m 9 X s 1438 748 m 9 X s 1438 758 m 9 X s
 1430 769 m 17 X s 1438 780 m 9 X s 1438 790 m 9 X s 1438 801 m 9 X s 1430 811 m 17 X s 1438 822 m 9 X s 1438 832 m 9 X s 1438 843 m 9 X s 1430 853 m 17 X s 1438 864 m 9 X s 1438 875 m 9 X s 1438 885 m 9 X s 1430 896 m 17 X s 1438 906 m 9 X s 1438
 917 m 9 X s 1438 927 m 9 X s 1430 938 m 17 X s 1438 948 m 9 X s 1438 959 m 9 X s 1438 969 m 9 X s 1430 980 m 17 X s 1438 991 m 9 X s 1438 1001 m 9 X s 1438 1012 m 9 X s 1430 1022 m 17 X s 1438 1033 m 9 X s 1438 1043 m 9 X s 1438 1054 m 9 X s 1430
 1064 m 17 X s 1438 1075 m 9 X s 1438 1085 m 9 X s 1438 1096 m 9 X s 1430 1107 m 17 X s 1430 1107 m 17 X s
 gsave  710 567 779 603 C 1474.92 682.347 t 90 r /Helvetica-Bold findfont 19.9602 sf 0 0 m (U/O\255flow \(S,B\): \(0.0, 0.0\)% / \(0.0, 0.0\)%) show NC gr  0.490196 0.545098 0.615686 c 0.364706 0.419608 0.490196 c 335 38 786 1130 bf 0.490196 0.545098
 0.615686 c 786 1130 m 335 X s 1121 1130 m 38 Y s 1121 1168 m -335 X s 786 1168 m -38 Y s 1 1 1 c black 1 1 1 c
 gsave  710 567 779 603 C 790.007 1142.38 t 0 r /Helvetica-Bold findfont 28.5146 sf 0 0 m (Input variable: hh.H1_l5) show NC gr  0.490196 0.545098 0.615686 c 0.941176 0.941176 0.941176 c 711 567 1534 603 bf black 1 1 0.992157 c 547 429 1655 685 bf
 black 547 429 1655 685 bl 0 0 0.933333 c 6 lw 0.49 0.6 0.82 c black 3 lw 0.49 0.6 0.82 c 1655 738 m 2 Y 14 X -2 Y 14 X 2 Y 13 X -6 Y 14 X 16 Y 14 X 6 Y 13 X -14 Y 14 X 5 Y 27 X 8 Y 28 X 16 Y 13 X -13 Y 14 X -7 Y 14 X 35 Y 13 X -81 Y 14 X 108 Y 14 X
 54 Y 13 X 3 Y 14 X 7 Y 14 X 100 Y 14 X -6 Y 13 X 70 Y 14 X -40 Y 14 X 12 Y 13 X 48 Y 14 X 18 Y 14 X -22 Y 13 X -45 Y 14 X -8 Y 14 X -3 Y 13 X -90 Y 14 X -44 Y 14 X -38 Y 13 X -68 Y 14 X -23 Y 68 X f 6 lw 0 0 0.933333 c 0.49 0.6 0.82 c 0 0 0.933333 c
 1655 740 m 14 X -2 Y 14 X 2 Y 13 X -6 Y 14 X 16 Y 14 X 6 Y 13 X -14 Y 14 X 5 Y 27 X 8 Y 28 X 16 Y 13 X -13 Y 14 X -7 Y 14 X 35 Y 13 X -81 Y 14 X 108 Y 14 X 54 Y 13 X 3 Y 14 X 7 Y 14 X 100 Y 14 X -6 Y 13 X 70 Y 14 X -40 Y 14 X 12 Y 13 X 48 Y 14 X 18
 Y 14 X -22 Y 13 X -45 Y 14 X -8 Y 14 X -3 Y 13 X -90 Y 14 X -44 Y 14 X -38 Y 13 X -68 Y 14 X -23 Y 68 X s black 3 lw 1655 685 m 547 X s 1703 698 m -13 Y s 1722 691 m -6 Y s 1741 691 m -6 Y s 1760 691 m -6 Y s 1779 691 m -6 Y s 1799 698 m -13 Y s
 1818 691 m -6 Y s 1837 691 m -6 Y s 1856 691 m -6 Y s 1875 691 m -6 Y s 1894 698 m -13 Y s 1913 691 m -6 Y s 1933 691 m -6 Y s 1952 691 m -6 Y s 1971 691 m -6 Y s 1990 698 m -13 Y s 2009 691 m -6 Y s 2028 691 m -6 Y s 2048 691 m -6 Y s 2067 691 m -6
 Y s 2086 698 m -13 Y s 2105 691 m -6 Y s 2124 691 m -6 Y s 2143 691 m -6 Y s 2162 691 m -6 Y s 2182 698 m -13 Y s 1703 698 m -13 Y s 1684 691 m -6 Y s 1664 691 m -6 Y s 2182 698 m -13 Y s 2201 691 m -6 Y s
 gsave  711 567 1534 603 C 1690.84 656.444 t 0 r /Helvetica findfont 25.6631 sf 0 0 m (0.2) show NC gr 
 gsave  711 567 1534 603 C 1676.63 656.444 t 0 r /Symbol findfont 25.6631 sf 0 0 m (-) show NC gr 
 gsave  711 567 1534 603 C 1784.62 656.444 t 0 r /Helvetica findfont 25.6631 sf 0 0 m (0.1) show NC gr 
 gsave  711 567 1534 603 C 1773.25 656.444 t 0 r /Symbol findfont 25.6631 sf 0 0 m (-) show NC gr 
 gsave  711 567 1534 603 C 1884.08 656.444 t 0 r /Helvetica findfont 25.6631 sf 0 0 m (0) show NC gr 
 gsave  711 567 1534 603 C 1972.17 656.444 t 0 r /Helvetica findfont 25.6631 sf 0 0 m (0.1) show NC gr 
 gsave  711 567 1534 603 C 2065.95 656.444 t 0 r /Helvetica findfont 25.6631 sf 0 0 m (0.2) show NC gr 
 gsave  711 567 1534 603 C 2162.57 656.444 t 0 r /Helvetica findfont 25.6631 sf 0 0 m (0.3) show NC gr 
 gsave  711 567 1534 603 C 2097.21 616.66 t 0 r /Helvetica findfont 28.5146 sf 0 0 m (yy.HT_l1) show NC gr  1655 1114 m 547 X s 1703 1100 m 14 Y s 1722 1107 m 7 Y s 1741 1107 m 7 Y s 1760 1107 m 7 Y s 1779 1107 m 7 Y s 1799 1100 m 14 Y s 1818 1107 m
 7 Y s 1837 1107 m 7 Y s 1856 1107 m 7 Y s 1875 1107 m 7 Y s 1894 1100 m 14 Y s 1913 1107 m 7 Y s 1933 1107 m 7 Y s 1952 1107 m 7 Y s 1971 1107 m 7 Y s 1990 1100 m 14 Y s 2009 1107 m 7 Y s 2028 1107 m 7 Y s 2048 1107 m 7 Y s 2067 1107 m 7 Y s 2086
 1100 m 14 Y s 2105 1107 m 7 Y s 2124 1107 m 7 Y s 2143 1107 m 7 Y s 2162 1107 m 7 Y s 2182 1100 m 14 Y s 1703 1100 m 14 Y s 1684 1107 m 7 Y s 1664 1107 m 7 Y s 2182 1100 m 14 Y s 2201 1107 m 7 Y s 1655 685 m 429 Y s 1671 738 m -16 X s 1663 750 m -8
 X s 1663 762 m -8 X s 1663 774 m -8 X s 1663 786 m -8 X s 1671 798 m -16 X s 1663 809 m -8 X s 1663 821 m -8 X s 1663 833 m -8 X s 1663 845 m -8 X s 1671 857 m -16 X s 1663 869 m -8 X s 1663 881 m -8 X s 1663 892 m -8 X s 1663 904 m -8 X s 1671 916
 m -16 X s 1663 928 m -8 X s 1663 940 m -8 X s 1663 952 m -8 X s 1663 964 m -8 X s 1671 976 m -16 X s 1663 987 m -8 X s 1663 999 m -8 X s 1663 1011 m -8 X s 1663 1023 m -8 X s 1671 1035 m -16 X s 1663 1047 m -8 X s 1663 1059 m -8 X s 1663 1070 m -8 X
 s 1663 1082 m -8 X s 1671 1094 m -16 X s 1671 738 m -16 X s 1663 726 m -8 X s 1663 714 m -8 X s 1663 703 m -8 X s 1663 691 m -8 X s 1671 1094 m -16 X s 1663 1106 m -8 X s
 gsave  711 567 1534 603 C 1631.16 727.488 t 0 r /Helvetica findfont 25.6631 sf 0 0 m (0) show NC gr 
 gsave  711 567 1534 603 C 1634.01 787.165 t 0 r /Helvetica findfont 25.6631 sf 0 0 m (1) show NC gr 
 gsave  711 567 1534 603 C 1631.16 846.842 t 0 r /Helvetica findfont 25.6631 sf 0 0 m (2) show NC gr 
 gsave  711 567 1534 603 C 1631.16 906.518 t 0 r /Helvetica findfont 25.6631 sf 0 0 m (3) show NC gr 
 gsave  711 567 1534 603 C 1631.16 966.195 t 0 r /Helvetica findfont 25.6631 sf 0 0 m (4) show NC gr 
 gsave  711 567 1534 603 C 1631.16 1025.87 t 0 r /Helvetica findfont 25.6631 sf 0 0 m (5) show NC gr 
 gsave  711 567 1534 603 C 1631.16 1085.55 t 0 r /Helvetica findfont 25.6631 sf 0 0 m (6) show NC gr 
 gsave  711 567 1534 603 C 1557.28 1023.03 t 90 r /Helvetica findfont 28.5146 sf 0 0 m (0.0143 ) show NC gr 
 gsave  711 567 1534 603 C 1543.07 1020.19 t 90 r /Helvetica findfont 19.9602 sf 0 0 m ( ) show NC gr 
 gsave  711 567 1534 603 C 1557.28 1008.82 t 90 r /Helvetica findfont 28.5146 sf 0 0 m (/) show NC gr 
 gsave  711 567 1534 603 C 1565.8 1005.98 t 90 r /Helvetica findfont 19.9602 sf 0 0 m ( ) show NC gr 
 gsave  711 567 1534 603 C 1557.28 900.835 t 90 r /Helvetica findfont 28.5146 sf 0 0 m (\(1/N\) dN) show NC gr  2202 685 m 429 Y s 2186 738 m 16 X s 2194 750 m 8 X s 2194 762 m 8 X s 2194 774 m 8 X s 2194 786 m 8 X s 2186 798 m 16 X s 2194 809 m 8 X
 s 2194 821 m 8 X s 2194 833 m 8 X s 2194 845 m 8 X s 2186 857 m 16 X s 2194 869 m 8 X s 2194 881 m 8 X s 2194 892 m 8 X s 2194 904 m 8 X s 2186 916 m 16 X s 2194 928 m 8 X s 2194 940 m 8 X s 2194 952 m 8 X s 2194 964 m 8 X s 2186 976 m 16 X s 2194
 987 m 8 X s 2194 999 m 8 X s 2194 1011 m 8 X s 2194 1023 m 8 X s 2186 1035 m 16 X s 2194 1047 m 8 X s 2194 1059 m 8 X s 2194 1070 m 8 X s 2194 1082 m 8 X s 2186 1094 m 16 X s 2186 738 m 16 X s 2194 726 m 8 X s 2194 714 m 8 X s 2194 703 m 8 X s 2194
 691 m 8 X s 2186 1094 m 16 X s 2194 1106 m 8 X s 0.490196 0.545098 0.615686 c 0.364706 0.419608 0.490196 c 329 38 1542 1130 bf 0.490196 0.545098 0.615686 c 1542 1130 m 329 X s 1871 1130 m 38 Y s 1871 1168 m -329 X s 1542 1168 m -38 Y s 1 1 1 c black
 1 1 1 c
 gsave  711 567 1534 603 C 1545.91 1142.38 t 0 r /Helvetica-Bold findfont 28.5146 sf 0 0 m (Input variable: yy.HT_l1) show NC gr  1 0 0 c 6 lw black 3 lw 1 0 0 c 2196 738 m s 2181 738 m s 2166 738 m s 2151 738 m s 2136 738 m s 2121 739 m -1 Y s 2120
 753 m -14 -15 d s 2107 754 m -16 -16 d s 2107 769 m -31 -31 d s 2107 784 m -46 -46 d s 2102 795 m -9 -9 d s 2087 780 m -41 -42 d s 2079 787 m -48 -49 d s 2066 789 m -51 -51 d s 2066 804 m -66 -66 d s 2057 810 m -72 -72 d s 2052 820 m -14 -13 d s
 2036 805 m -66 -67 d s 2052 836 m -14 -14 d s 2025 808 m -70 -70 d s 2052 851 m -14 -14 d s 2025 823 m -85 -85 d s 2052 866 m -14 -14 d s 2025 838 m -100 -100 d s 2052 881 m -14 -14 d s 2024 853 m -13 -13 d s 2007 836 m -97 -98 d s 2044 889 m -6 -6
 d s 1997 841 m -102 -103 d s 1996 855 m -12 -12 d s 1980 839 m -100 -101 d s 1970 844 m -105 -106 d s 1966 856 m -116 -118 d s 1956 861 m -121 -123 d s 1956 876 m -13 -14 d s 1934 854 m -114 -116 d s 1946 881 m -3 -4 d s 1925 860 m -121 -122 d s
 1915 865 m -126 -127 d s 1915 880 m -141 -142 d s 1904 884 m -16 -16 d s 1886 866 m -127 -128 d s 1901 897 m -13 -14 d s 1874 869 m -130 -131 d s 1874 884 m -41 -41 d s 1821 831 m -92 -93 d s 1870 895 m -10 -9 d s 1855 880 m -22 -22 d s 1819 844 m
 -105 -106 d s 1847 887 m -14 -14 d s 1819 860 m -120 -122 d s 1834 889 m -1 X s 1806 861 m -122 -123 d s 1806 876 m -28 -27 d s 1776 847 m -107 -109 d s 1806 891 m -28 -27 d s 1765 850 m -110 -110 d s 1806 906 m -14 -13 d s 1781 882 m -3 -3 d s 1765
 865 m -110 -110 d s 1806 922 m -14 -14 d s 1765 880 m -110 -110 d s 1806 937 m -14 -14 d s 1759 889 m -104 -104 d s 1806 952 m -14 -14 d s 1751 897 m -82 -83 d s 1660 805 m -5 -5 d s 1795 956 m -3 -3 d s 1751 912 m -14 -14 d s 1726 887 m -57 -58 d s
 1751 927 m -14 -13 d s 1724 900 m -28 -28 d s 1691 867 m -22 -22 d s 1751 942 m -14 -13 d s 1724 915 m -28 -28 d s 1680 871 m -11 -11 d s 1743 950 m -6 -6 d s 1724 930 m -14 -14 d s 1703 909 m -7 -6 d s 1713 934 m -3 -2 d s 6 lw 1655 805 m 14 X 66 Y
 14 X -4 Y 13 X 42 Y 14 X 25 Y 14 X -47 Y 13 X 63 Y 14 X -61 Y 14 X -42 Y 13 X 35 Y 14 X 74 Y 14 X -96 Y 13 X -29 Y 14 X 58 Y 14 X -9 Y 13 X 15 Y 14 X -29 Y 14 X 31 Y 13 X -13 Y 14 X -24 Y 14 X -6 Y 14 X 27 Y 13 X -25 Y 14 X -17 Y 14 X 16 Y 13 X -19
 Y 14 X 17 Y 14 X -48 Y 13 X 84 Y 14 X -79 Y 14 X -22 Y 13 X -8 Y 14 X 15 Y 14 X -42 Y 13 X -14 Y 14 X -1 Y 68 X s black 3 lw 1655 685 m 547 X s 1703 698 m -13 Y s 1722 691 m -6 Y s 1741 691 m -6 Y s 1760 691 m -6 Y s 1779 691 m -6 Y s 1799 698 m -13
 Y s 1818 691 m -6 Y s 1837 691 m -6 Y s 1856 691 m -6 Y s 1875 691 m -6 Y s 1894 698 m -13 Y s 1913 691 m -6 Y s 1933 691 m -6 Y s 1952 691 m -6 Y s 1971 691 m -6 Y s 1990 698 m -13 Y s 2009 691 m -6 Y s 2028 691 m -6 Y s 2048 691 m -6 Y s 2067 691
 m -6 Y s 2086 698 m -13 Y s 2105 691 m -6 Y s 2124 691 m -6 Y s 2143 691 m -6 Y s 2162 691 m -6 Y s 2182 698 m -13 Y s 1703 698 m -13 Y s 1684 691 m -6 Y s 1664 691 m -6 Y s 2182 698 m -13 Y s 2201 691 m -6 Y s 1655 1114 m 547 X s 1703 1100 m 14 Y s
 1722 1107 m 7 Y s 1741 1107 m 7 Y s 1760 1107 m 7 Y s 1779 1107 m 7 Y s 1799 1100 m 14 Y s 1818 1107 m 7 Y s 1837 1107 m 7 Y s 1856 1107 m 7 Y s 1875 1107 m 7 Y s 1894 1100 m 14 Y s 1913 1107 m 7 Y s 1933 1107 m 7 Y s 1952 1107 m 7 Y s 1971 1107 m 7
 Y s 1990 1100 m 14 Y s 2009 1107 m 7 Y s 2028 1107 m 7 Y s 2048 1107 m 7 Y s 2067 1107 m 7 Y s 2086 1100 m 14 Y s 2105 1107 m 7 Y s 2124 1107 m 7 Y s 2143 1107 m 7 Y s 2162 1107 m 7 Y s 2182 1100 m 14 Y s 1703 1100 m 14 Y s 1684 1107 m 7 Y s 1664
 1107 m 7 Y s 2182 1100 m 14 Y s 2201 1107 m 7 Y s 1655 685 m 429 Y s 1671 738 m -16 X s 1663 750 m -8 X s 1663 762 m -8 X s 1663 774 m -8 X s 1663 786 m -8 X s 1671 798 m -16 X s 1663 809 m -8 X s 1663 821 m -8 X s 1663 833 m -8 X s 1663 845 m -8 X
 s 1671 857 m -16 X s 1663 869 m -8 X s 1663 881 m -8 X s 1663 892 m -8 X s 1663 904 m -8 X s 1671 916 m -16 X s 1663 928 m -8 X s 1663 940 m -8 X s 1663 952 m -8 X s 1663 964 m -8 X s 1671 976 m -16 X s 1663 987 m -8 X s 1663 999 m -8 X s 1663 1011
 m -8 X s 1663 1023 m -8 X s 1671 1035 m -16 X s 1663 1047 m -8 X s 1663 1059 m -8 X s 1663 1070 m -8 X s 1663 1082 m -8 X s 1671 1094 m -16 X s 1671 738 m -16 X s 1663 726 m -8 X s 1663 714 m -8 X s 1663 703 m -8 X s 1663 691 m -8 X s 1671 1094 m
 -16 X s 1663 1106 m -8 X s 2202 685 m 429 Y s 2186 738 m 16 X s 2194 750 m 8 X s 2194 762 m 8 X s 2194 774 m 8 X s 2194 786 m 8 X s 2186 798 m 16 X s 2194 809 m 8 X s 2194 821 m 8 X s 2194 833 m 8 X s 2194 845 m 8 X s 2186 857 m 16 X s 2194 869 m 8
 X s 2194 881 m 8 X s 2194 892 m 8 X s 2194 904 m 8 X s 2186 916 m 16 X s 2194 928 m 8 X s 2194 940 m 8 X s 2194 952 m 8 X s 2194 964 m 8 X s 2186 976 m 16 X s 2194 987 m 8 X s 2194 999 m 8 X s 2194 1011 m 8 X s 2194 1023 m 8 X s 2186 1035 m 16 X s
 2194 1047 m 8 X s 2194 1059 m 8 X s 2194 1070 m 8 X s 2194 1082 m 8 X s 2186 1094 m 16 X s 2186 738 m 16 X s 2194 726 m 8 X s 2194 714 m 8 X s 2194 703 m 8 X s 2194 691 m 8 X s 2186 1094 m 16 X s 2194 1106 m 8 X s
 gsave  711 567 1534 603 C 2230.83 682.347 t 90 r /Helvetica-Bold findfont 19.9602 sf 0 0 m (U/O\255flow \(S,B\): \(0.0, 0.0\)% / \(0.0, 0.0\)%) show NC gr  0.490196 0.545098 0.615686 c 0.364706 0.419608 0.490196 c 329 38 1542 1130 bf 0.490196
 0.545098 0.615686 c 1542 1130 m 329 X s 1871 1130 m 38 Y s 1871 1168 m -329 X s 1542 1168 m -38 Y s 1 1 1 c black 1 1 1 c
 gsave  711 567 1534 603 C 1545.91 1142.38 t 0 r /Helvetica-Bold findfont 28.5146 sf 0 0 m (Input variable: yy.HT_l1) show NC gr  0.490196 0.545098 0.615686 c 0.941176 0.941176 0.941176 c 710 567 23 12 bf black 1 1 0.992157 c 548 429 143 94 bf black
 548 429 143 94 bl 0 0 0.933333 c 6 lw 0.49 0.6 0.82 c black 3 lw 0.49 0.6 0.82 c 143 94 m 28 X 59 Y 14 X 120 Y 13 X 13 Y 14 X 15 Y 14 X -8 Y 13 X 47 Y 14 X -18 Y 14 X -52 Y 13 X -25 Y 14 X -25 Y 14 X 65 Y 13 X 19 Y 14 X -76 Y 14 X 20 Y 13 X 24 Y 14
 X -43 Y 14 X -12 Y 13 X 9 Y 14 X 13 Y 14 X 4 Y 13 X -8 Y 14 X -9 Y 14 X -29 Y 13 X -15 Y 14 X 3 Y 14 X -22 Y 13 X -23 Y 14 X -1 Y 14 X 10 Y 13 X 6 Y 14 X -28 Y 14 X -6 Y 14 X -11 Y 27 X -13 Y 14 X -3 Y 41 X f 6 lw 0 0 0.933333 c 0.49 0.6 0.82 c 0 0
 0.933333 c 143 94 m 28 X 59 Y 14 X 120 Y 13 X 13 Y 14 X 15 Y 14 X -8 Y 13 X 47 Y 14 X -18 Y 14 X -52 Y 13 X -25 Y 14 X -25 Y 14 X 65 Y 13 X 19 Y 14 X -76 Y 14 X 20 Y 13 X 24 Y 14 X -43 Y 14 X -12 Y 13 X 9 Y 14 X 13 Y 14 X 4 Y 13 X -8 Y 14 X -9 Y 14
 X -29 Y 13 X -15 Y 14 X 3 Y 14 X -22 Y 13 X -23 Y 14 X -1 Y 14 X 10 Y 13 X 6 Y 14 X -28 Y 14 X -6 Y 14 X -11 Y 27 X -13 Y 14 X -3 Y 41 X s black 3 lw 143 94 m 548 X s 147 107 m -13 Y s 159 100 m -6 Y s 172 100 m -6 Y s 185 100 m -6 Y s 198 100 m -6
 Y s 210 107 m -13 Y s 223 100 m -6 Y s 236 100 m -6 Y s 249 100 m -6 Y s 261 100 m -6 Y s 274 107 m -13 Y s 287 100 m -6 Y s 300 100 m -6 Y s 312 100 m -6 Y s 325 100 m -6 Y s 338 107 m -13 Y s 351 100 m -6 Y s 363 100 m -6 Y s 376 100 m -6 Y s 389
 100 m -6 Y s 402 107 m -13 Y s 414 100 m -6 Y s 427 100 m -6 Y s 440 100 m -6 Y s 453 100 m -6 Y s 466 107 m -13 Y s 478 100 m -6 Y s 491 100 m -6 Y s 504 100 m -6 Y s 517 100 m -6 Y s 529 107 m -13 Y s 542 100 m -6 Y s 555 100 m -6 Y s 568 100 m -6
 Y s 580 100 m -6 Y s 593 107 m -13 Y s 606 100 m -6 Y s 619 100 m -6 Y s 631 100 m -6 Y s 644 100 m -6 Y s 657 107 m -13 Y s 147 107 m -13 Y s 657 107 m -13 Y s 670 100 m -6 Y s 682 100 m -6 Y s
 gsave  710 567 23 12 C 125.037 65.3603 t 0 r /Helvetica findfont 25.6631 sf 0 0 m (0.15) show NC gr 
 gsave  710 567 23 12 C 113.67 65.3603 t 0 r /Symbol findfont 25.6631 sf 0 0 m (-) show NC gr 
 gsave  710 567 23 12 C 198.923 65.3603 t 0 r /Helvetica findfont 25.6631 sf 0 0 m (0.1) show NC gr 
 gsave  710 567 23 12 C 187.555 65.3603 t 0 r /Symbol findfont 25.6631 sf 0 0 m (-) show NC gr 
 gsave  710 567 23 12 C 252.916 65.3603 t 0 r /Helvetica findfont 25.6631 sf 0 0 m (0.05) show NC gr 
 gsave  710 567 23 12 C 241.549 65.3603 t 0 r /Symbol findfont 25.6631 sf 0 0 m (-) show NC gr 
 gsave  710 567 23 12 C 326.801 65.3603 t 0 r /Helvetica findfont 25.6631 sf 0 0 m (0) show NC gr 
 gsave  710 567 23 12 C 375.111 65.3603 t 0 r /Helvetica findfont 25.6631 sf 0 0 m (0.05) show NC gr 
 gsave  710 567 23 12 C 446.155 65.3603 t 0 r /Helvetica findfont 25.6631 sf 0 0 m (0.1) show NC gr 
 gsave  710 567 23 12 C 502.99 65.3603 t 0 r /Helvetica findfont 25.6631 sf 0 0 m (0.15) show NC gr 
 gsave  710 567 23 12 C 574.034 65.3603 t 0 r /Helvetica findfont 25.6631 sf 0 0 m (0.2) show NC gr 
 gsave  710 567 23 12 C 630.869 65.3603 t 0 r /Helvetica findfont 25.6631 sf 0 0 m (0.25) show NC gr 
 gsave  710 567 23 12 C 579.717 25.5758 t 0 r /Helvetica findfont 28.5146 sf 0 0 m (yy.HT_l2) show NC gr  143 523 m 548 X s 147 509 m 14 Y s 159 516 m 7 Y s 172 516 m 7 Y s 185 516 m 7 Y s 198 516 m 7 Y s 210 509 m 14 Y s 223 516 m 7 Y s 236 516 m 7
 Y s 249 516 m 7 Y s 261 516 m 7 Y s 274 509 m 14 Y s 287 516 m 7 Y s 300 516 m 7 Y s 312 516 m 7 Y s 325 516 m 7 Y s 338 509 m 14 Y s 351 516 m 7 Y s 363 516 m 7 Y s 376 516 m 7 Y s 389 516 m 7 Y s 402 509 m 14 Y s 414 516 m 7 Y s 427 516 m 7 Y s
 440 516 m 7 Y s 453 516 m 7 Y s 466 509 m 14 Y s 478 516 m 7 Y s 491 516 m 7 Y s 504 516 m 7 Y s 517 516 m 7 Y s 529 509 m 14 Y s 542 516 m 7 Y s 555 516 m 7 Y s 568 516 m 7 Y s 580 516 m 7 Y s 593 509 m 14 Y s 606 516 m 7 Y s 619 516 m 7 Y s 631
 516 m 7 Y s 644 516 m 7 Y s 657 509 m 14 Y s 147 509 m 14 Y s 657 509 m 14 Y s 670 516 m 7 Y s 682 516 m 7 Y s 143 94 m 429 Y s 160 94 m -17 X s 152 103 m -9 X s 152 112 m -9 X s 152 121 m -9 X s 152 130 m -9 X s 160 139 m -17 X s 152 148 m -9 X s
 152 157 m -9 X s 152 167 m -9 X s 152 176 m -9 X s 160 185 m -17 X s 152 194 m -9 X s 152 203 m -9 X s 152 212 m -9 X s 152 221 m -9 X s 160 230 m -17 X s 152 240 m -9 X s 152 249 m -9 X s 152 258 m -9 X s 152 267 m -9 X s 160 276 m -17 X s 152 285
 m -9 X s 152 294 m -9 X s 152 303 m -9 X s 152 312 m -9 X s 160 322 m -17 X s 152 331 m -9 X s 152 340 m -9 X s 152 349 m -9 X s 152 358 m -9 X s 160 367 m -17 X s 152 376 m -9 X s 152 385 m -9 X s 152 395 m -9 X s 152 404 m -9 X s 160 413 m -17 X s
 152 422 m -9 X s 152 431 m -9 X s 152 440 m -9 X s 152 449 m -9 X s 160 458 m -17 X s 152 468 m -9 X s 152 477 m -9 X s 152 486 m -9 X s 152 495 m -9 X s 160 504 m -17 X s 160 504 m -17 X s 152 513 m -9 X s 152 522 m -9 X s
 gsave  710 567 23 12 C 119.354 82.4108 t 0 r /Helvetica findfont 25.6631 sf 0 0 m (0) show NC gr 
 gsave  710 567 23 12 C 122.195 127.879 t 0 r /Helvetica findfont 25.6631 sf 0 0 m (1) show NC gr 
 gsave  710 567 23 12 C 119.354 176.189 t 0 r /Helvetica findfont 25.6631 sf 0 0 m (2) show NC gr 
 gsave  710 567 23 12 C 119.354 221.657 t 0 r /Helvetica findfont 25.6631 sf 0 0 m (3) show NC gr 
 gsave  710 567 23 12 C 119.354 267.125 t 0 r /Helvetica findfont 25.6631 sf 0 0 m (4) show NC gr 
 gsave  710 567 23 12 C 119.354 312.592 t 0 r /Helvetica findfont 25.6631 sf 0 0 m (5) show NC gr 
 gsave  710 567 23 12 C 119.354 358.061 t 0 r /Helvetica findfont 25.6631 sf 0 0 m (6) show NC gr 
 gsave  710 567 23 12 C 119.354 403.529 t 0 r /Helvetica findfont 25.6631 sf 0 0 m (7) show NC gr 
 gsave  710 567 23 12 C 119.354 448.997 t 0 r /Helvetica findfont 25.6631 sf 0 0 m (8) show NC gr 
 gsave  710 567 23 12 C 119.354 494.465 t 0 r /Helvetica findfont 25.6631 sf 0 0 m (9) show NC gr 
 gsave  710 567 23 12 C 45.468 431.946 t 90 r /Helvetica findfont 28.5146 sf 0 0 m (0.0107 ) show NC gr 
 gsave  710 567 23 12 C 31.2593 429.104 t 90 r /Helvetica findfont 19.9602 sf 0 0 m ( ) show NC gr 
 gsave  710 567 23 12 C 45.468 417.737 t 90 r /Helvetica findfont 28.5146 sf 0 0 m (/) show NC gr 
 gsave  710 567 23 12 C 53.9933 414.896 t 90 r /Helvetica findfont 19.9602 sf 0 0 m ( ) show NC gr 
 gsave  710 567 23 12 C 45.468 309.751 t 90 r /Helvetica findfont 28.5146 sf 0 0 m (\(1/N\) dN) show NC gr  691 94 m 429 Y s 674 94 m 17 X s 683 103 m 8 X s 683 112 m 8 X s 683 121 m 8 X s 683 130 m 8 X s 674 139 m 17 X s 683 148 m 8 X s 683 157 m 8
 X s 683 167 m 8 X s 683 176 m 8 X s 674 185 m 17 X s 683 194 m 8 X s 683 203 m 8 X s 683 212 m 8 X s 683 221 m 8 X s 674 230 m 17 X s 683 240 m 8 X s 683 249 m 8 X s 683 258 m 8 X s 683 267 m 8 X s 674 276 m 17 X s 683 285 m 8 X s 683 294 m 8 X s
 683 303 m 8 X s 683 312 m 8 X s 674 322 m 17 X s 683 331 m 8 X s 683 340 m 8 X s 683 349 m 8 X s 683 358 m 8 X s 674 367 m 17 X s 683 376 m 8 X s 683 385 m 8 X s 683 395 m 8 X s 683 404 m 8 X s 674 413 m 17 X s 683 422 m 8 X s 683 431 m 8 X s 683
 440 m 8 X s 683 449 m 8 X s 674 458 m 17 X s 683 468 m 8 X s 683 477 m 8 X s 683 486 m 8 X s 683 495 m 8 X s 674 504 m 17 X s 674 504 m 17 X s 683 513 m 8 X s 683 522 m 8 X s 0.490196 0.545098 0.615686 c 0.364706 0.419608 0.490196 c 332 37 30 539 bf
 0.490196 0.545098 0.615686 c 30 539 m 332 X s 362 539 m 37 Y s 362 576 m -332 X s 30 576 m -37 Y s 1 1 1 c black 1 1 1 c
 gsave  710 567 23 12 C 34.101 551.299 t 0 r /Helvetica-Bold findfont 28.5146 sf 0 0 m (Input variable: yy.HT_l2) show NC gr  1 0 0 c 6 lw black 3 lw 1 0 0 c 677 94 m s 663 95 m -1 -1 d s 652 99 m -6 -5 d s 646 108 m -15 -14 d s 636 113 m -20 -19 d s
 631 124 m -30 -30 d s 622 130 m -36 -36 d s 612 134 m -41 -40 d s 609 146 m -14 -13 d s 590 128 m -34 -34 d s 607 160 m -12 -12 d s 581 134 m -40 -40 d s 581 149 m -55 -55 d s 581 164 m -14 -13 d s 564 148 m -53 -54 d s 570 168 m -3 -2 d s 544 143 m
 -48 -49 d s 540 153 m -59 -59 d s 540 169 m -74 -75 d s 526 170 m -76 -76 d s 526 185 m -13 -14 d s 512 170 m -77 -76 d s 526 200 m -13 -13 d s 499 173 m -79 -79 d s 522 211 m -9 -9 d s 499 188 m -14 -14 d s 472 161 m -67 -67 d s 494 198 m -9 -9 d s
 472 176 m -82 -82 d s 472 191 m -97 -97 d s 458 192 m -14 -14 d s 433 167 m -73 -73 d s 449 198 m -5 -4 d s 431 180 m -86 -86 d s 431 195 m -14 -14 d s 415 179 m -85 -85 d s 431 210 m -14 -14 d s 402 181 m -87 -87 d s 418 213 m -1 -1 d s 390 184 m
 -90 -90 d s 382 191 m -97 -97 d s 376 201 m -27 -28 d s 338 162 m -68 -68 d s 376 216 m -27 -28 d s 335 175 m -80 -81 d s 369 224 m -20 -20 d s 335 190 m -96 -96 d s 362 232 m -13 -13 d s 335 205 m -14 -14 d s 317 187 m -93 -93 d s 361 247 m -12 -13
 d s 335 220 m -14 -14 d s 308 193 m -99 -99 d s 308 208 m -114 -114 d s 308 223 m -129 -129 d s 308 238 m -137 -138 d s 164 94 m s 308 253 m -14 -14 d s 283 229 m -112 -113 d s 149 94 m s 308 268 m -14 -13 d s 280 241 m -109 -110 d s 308 284 m -14
 -14 d s 280 256 m -13 -14 d s 261 237 m -90 -91 d s 302 293 m -8 -8 d s 275 266 m -8 -9 d s 253 244 m -82 -83 d s 253 259 m -82 -83 d s 253 274 m -82 -83 d s 243 279 m -58 -59 d s 176 212 m -5 -5 d s 226 277 m -41 -41 d s 226 292 m -41 -41 d s 226
 307 m -41 -41 d s 226 322 m -41 -41 d s 226 338 m -41 -42 d s 226 353 m -41 -42 d s 226 368 m -41 -41 d s 226 383 m -41 -41 d s 217 390 m -32 -33 d s 212 400 m -27 -28 d s 212 415 m -27 -28 d s 212 430 m -27 -27 d s 212 445 m -27 -27 d s 212 460 m
 -27 -27 d s 212 476 m -27 -28 d s 205 484 m -7 -7 d s 194 473 m -9 -10 d s 6 lw 143 94 m 28 X 118 Y 14 X 261 Y 13 X 11 Y 14 X -94 Y 14 X -113 Y 13 X 2 Y 14 X -42 Y 14 X 29 Y 13 X -37 Y 14 X 64 Y 14 X -106 Y 13 X 34 Y 14 X -59 Y 14 X 85 Y 13 X -23 Y
 14 X -33 Y 14 X -10 Y 13 X -2 Y 14 X 34 Y 14 X -46 Y 13 X 31 Y 14 X -6 Y 14 X -33 Y 13 X 39 Y 14 X -28 Y 14 X 41 Y 13 X -42 Y 14 X -26 Y 14 X 5 Y 13 X 20 Y 14 X -40 Y 14 X 32 Y 14 X -26 Y 13 X -10 Y 14 X -16 Y 14 X -9 Y 13 X -5 Y 28 X s black 3 lw
 143 94 m 548 X s 147 107 m -13 Y s 159 100 m -6 Y s 172 100 m -6 Y s 185 100 m -6 Y s 198 100 m -6 Y s 210 107 m -13 Y s 223 100 m -6 Y s 236 100 m -6 Y s 249 100 m -6 Y s 261 100 m -6 Y s 274 107 m -13 Y s 287 100 m -6 Y s 300 100 m -6 Y s 312 100
 m -6 Y s 325 100 m -6 Y s 338 107 m -13 Y s 351 100 m -6 Y s 363 100 m -6 Y s 376 100 m -6 Y s 389 100 m -6 Y s 402 107 m -13 Y s 414 100 m -6 Y s 427 100 m -6 Y s 440 100 m -6 Y s 453 100 m -6 Y s 466 107 m -13 Y s 478 100 m -6 Y s 491 100 m -6 Y s
 504 100 m -6 Y s 517 100 m -6 Y s 529 107 m -13 Y s 542 100 m -6 Y s 555 100 m -6 Y s 568 100 m -6 Y s 580 100 m -6 Y s 593 107 m -13 Y s 606 100 m -6 Y s 619 100 m -6 Y s 631 100 m -6 Y s 644 100 m -6 Y s 657 107 m -13 Y s 147 107 m -13 Y s 657 107
 m -13 Y s 670 100 m -6 Y s 682 100 m -6 Y s 143 523 m 548 X s 147 509 m 14 Y s 159 516 m 7 Y s 172 516 m 7 Y s 185 516 m 7 Y s 198 516 m 7 Y s 210 509 m 14 Y s 223 516 m 7 Y s 236 516 m 7 Y s 249 516 m 7 Y s 261 516 m 7 Y s 274 509 m 14 Y s 287 516
 m 7 Y s 300 516 m 7 Y s 312 516 m 7 Y s 325 516 m 7 Y s 338 509 m 14 Y s 351 516 m 7 Y s 363 516 m 7 Y s 376 516 m 7 Y s 389 516 m 7 Y s 402 509 m 14 Y s 414 516 m 7 Y s 427 516 m 7 Y s 440 516 m 7 Y s 453 516 m 7 Y s 466 509 m 14 Y s 478 516 m 7 Y
 s 491 516 m 7 Y s 504 516 m 7 Y s 517 516 m 7 Y s 529 509 m 14 Y s 542 516 m 7 Y s 555 516 m 7 Y s 568 516 m 7 Y s 580 516 m 7 Y s 593 509 m 14 Y s 606 516 m 7 Y s 619 516 m 7 Y s 631 516 m 7 Y s 644 516 m 7 Y s 657 509 m 14 Y s 147 509 m 14 Y s 657
 509 m 14 Y s 670 516 m 7 Y s 682 516 m 7 Y s 143 94 m 429 Y s 160 94 m -17 X s 152 103 m -9 X s 152 112 m -9 X s 152 121 m -9 X s 152 130 m -9 X s 160 139 m -17 X s 152 148 m -9 X s 152 157 m -9 X s 152 167 m -9 X s 152 176 m -9 X s 160 185 m -17 X
 s 152 194 m -9 X s 152 203 m -9 X s 152 212 m -9 X s 152 221 m -9 X s 160 230 m -17 X s 152 240 m -9 X s 152 249 m -9 X s 152 258 m -9 X s 152 267 m -9 X s 160 276 m -17 X s 152 285 m -9 X s 152 294 m -9 X s 152 303 m -9 X s 152 312 m -9 X s 160 322
 m -17 X s 152 331 m -9 X s 152 340 m -9 X s 152 349 m -9 X s 152 358 m -9 X s 160 367 m -17 X s 152 376 m -9 X s 152 385 m -9 X s 152 395 m -9 X s 152 404 m -9 X s 160 413 m -17 X s 152 422 m -9 X s 152 431 m -9 X s 152 440 m -9 X s 152 449 m -9 X s
 160 458 m -17 X s 152 468 m -9 X s 152 477 m -9 X s 152 486 m -9 X s 152 495 m -9 X s 160 504 m -17 X s 160 504 m -17 X s 152 513 m -9 X s 152 522 m -9 X s 691 94 m 429 Y s 674 94 m 17 X s 683 103 m 8 X s 683 112 m 8 X s 683 121 m 8 X s 683 130 m 8
 X s 674 139 m 17 X s 683 148 m 8 X s 683 157 m 8 X s 683 167 m 8 X s 683 176 m 8 X s 674 185 m 17 X s 683 194 m 8 X s 683 203 m 8 X s 683 212 m 8 X s 683 221 m 8 X s 674 230 m 17 X s 683 240 m 8 X s 683 249 m 8 X s 683 258 m 8 X s 683 267 m 8 X s
 674 276 m 17 X s 683 285 m 8 X s 683 294 m 8 X s 683 303 m 8 X s 683 312 m 8 X s 674 322 m 17 X s 683 331 m 8 X s 683 340 m 8 X s 683 349 m 8 X s 683 358 m 8 X s 674 367 m 17 X s 683 376 m 8 X s 683 385 m 8 X s 683 395 m 8 X s 683 404 m 8 X s 674
 413 m 17 X s 683 422 m 8 X s 683 431 m 8 X s 683 440 m 8 X s 683 449 m 8 X s 674 458 m 17 X s 683 468 m 8 X s 683 477 m 8 X s 683 486 m 8 X s 683 495 m 8 X s 674 504 m 17 X s 674 504 m 17 X s 683 513 m 8 X s 683 522 m 8 X s
 gsave  710 567 23 12 C 719.017 91.2634 t 90 r /Helvetica-Bold findfont 19.9602 sf 0 0 m (U/O\255flow \(S,B\): \(0.0, 0.0\)% / \(0.0, 0.0\)%) show NC gr  0.490196 0.545098 0.615686 c 0.364706 0.419608 0.490196 c 332 37 30 539 bf 0.490196 0.545098
 0.615686 c 30 539 m 332 X s 362 539 m 37 Y s 362 576 m -332 X s 30 576 m -37 Y s 1 1 1 c black 1 1 1 c
 gsave  710 567 23 12 C 34.101 551.299 t 0 r /Helvetica-Bold findfont 28.5146 sf 0 0 m (Input variable: yy.HT_l2) show NC gr  0.490196 0.545098 0.615686 c 0.941176 0.941176 0.941176 c 710 567 779 12 bf black 1 1 0.992157 c 548 429 899 94 bf black 548
 429 899 94 bl 0 0 0.933333 c 6 lw 0.49 0.6 0.82 c black 3 lw 0.49 0.6 0.82 c 899 94 m 14 X 1 Y 14 X -1 Y 109 X 66 Y 14 X 324 Y 14 X -20 Y 13 X -55 Y 14 X 38 Y 14 X -88 Y 13 X -6 Y 14 X -55 Y 14 X -6 Y 13 X -39 Y 14 X 5 Y 14 X -48 Y 13 X -74 Y 14 X
 97 Y 14 X -49 Y 13 X -36 Y 14 X 9 Y 14 X 10 Y 13 X -29 Y 14 X 12 Y 14 X -19 Y 13 X -13 Y 14 X -2 Y 14 X 1 Y 13 X -14 Y 14 X 2 Y 14 X -3 Y 13 X -4 Y 14 X -4 Y 28 X f 6 lw 0 0 0.933333 c 0.49 0.6 0.82 c 0 0 0.933333 c 899 94 m 14 X 1 Y 14 X -1 Y 109 X
 66 Y 14 X 324 Y 14 X -20 Y 13 X -55 Y 14 X 38 Y 14 X -88 Y 13 X -6 Y 14 X -55 Y 14 X -6 Y 13 X -39 Y 14 X 5 Y 14 X -48 Y 13 X -74 Y 14 X 97 Y 14 X -49 Y 13 X -36 Y 14 X 9 Y 14 X 10 Y 13 X -29 Y 14 X 12 Y 14 X -19 Y 13 X -13 Y 14 X -2 Y 14 X 1 Y 13 X
 -14 Y 14 X 2 Y 14 X -3 Y 13 X -4 Y 14 X -4 Y 28 X s black 3 lw 899 94 m 548 X s 952 107 m -13 Y s 974 100 m -6 Y s 996 100 m -6 Y s 1017 100 m -6 Y s 1039 100 m -6 Y s 1061 107 m -13 Y s 1083 100 m -6 Y s 1104 100 m -6 Y s 1126 100 m -6 Y s 1148 100
 m -6 Y s 1170 107 m -13 Y s 1191 100 m -6 Y s 1213 100 m -6 Y s 1235 100 m -6 Y s 1257 100 m -6 Y s 1278 107 m -13 Y s 1300 100 m -6 Y s 1322 100 m -6 Y s 1344 100 m -6 Y s 1365 100 m -6 Y s 1387 107 m -13 Y s 952 107 m -13 Y s 930 100 m -6 Y s 909
 100 m -6 Y s 1387 107 m -13 Y s 1409 100 m -6 Y s 1431 100 m -6 Y s
 gsave  710 567 779 12 C 940.619 65.3603 t 0 r /Helvetica findfont 25.6631 sf 0 0 m (0.2) show NC gr 
 gsave  710 567 779 12 C 926.411 65.3603 t 0 r /Symbol findfont 25.6631 sf 0 0 m (-) show NC gr 
 gsave  710 567 779 12 C 1048.61 65.3603 t 0 r /Helvetica findfont 25.6631 sf 0 0 m (0.1) show NC gr 
 gsave  710 567 779 12 C 1037.24 65.3603 t 0 r /Symbol findfont 25.6631 sf 0 0 m (-) show NC gr 
 gsave  710 567 779 12 C 1159.43 65.3603 t 0 r /Helvetica findfont 25.6631 sf 0 0 m (0) show NC gr 
 gsave  710 567 779 12 C 1258.9 65.3603 t 0 r /Helvetica findfont 25.6631 sf 0 0 m (0.1) show NC gr 
 gsave  710 567 779 12 C 1369.72 65.3603 t 0 r /Helvetica findfont 25.6631 sf 0 0 m (0.2) show NC gr 
 gsave  710 567 779 12 C 1335.62 25.5758 t 0 r /Helvetica findfont 28.5146 sf 0 0 m (yy.HT_l3) show NC gr  899 523 m 548 X s 952 509 m 14 Y s 974 516 m 7 Y s 996 516 m 7 Y s 1017 516 m 7 Y s 1039 516 m 7 Y s 1061 509 m 14 Y s 1083 516 m 7 Y s 1104
 516 m 7 Y s 1126 516 m 7 Y s 1148 516 m 7 Y s 1170 509 m 14 Y s 1191 516 m 7 Y s 1213 516 m 7 Y s 1235 516 m 7 Y s 1257 516 m 7 Y s 1278 509 m 14 Y s 1300 516 m 7 Y s 1322 516 m 7 Y s 1344 516 m 7 Y s 1365 516 m 7 Y s 1387 509 m 14 Y s 952 509 m 14
 Y s 930 516 m 7 Y s 909 516 m 7 Y s 1387 509 m 14 Y s 1409 516 m 7 Y s 1431 516 m 7 Y s 899 94 m 429 Y s 915 94 m -16 X s 907 103 m -8 X s 907 112 m -8 X s 907 120 m -8 X s 907 129 m -8 X s 915 138 m -16 X s 907 147 m -8 X s 907 156 m -8 X s 907 165
 m -8 X s 907 174 m -8 X s 915 183 m -16 X s 907 192 m -8 X s 907 201 m -8 X s 907 210 m -8 X s 907 219 m -8 X s 915 228 m -16 X s 907 237 m -8 X s 907 246 m -8 X s 907 255 m -8 X s 907 264 m -8 X s 915 273 m -16 X s 907 282 m -8 X s 907 291 m -8 X s
 907 300 m -8 X s 907 309 m -8 X s 915 318 m -16 X s 907 327 m -8 X s 907 336 m -8 X s 907 345 m -8 X s 907 354 m -8 X s 915 363 m -16 X s 907 372 m -8 X s 907 381 m -8 X s 907 390 m -8 X s 907 399 m -8 X s 915 408 m -16 X s 907 417 m -8 X s 907 426
 m -8 X s 907 435 m -8 X s 907 444 m -8 X s 915 453 m -16 X s 907 462 m -8 X s 907 471 m -8 X s 907 480 m -8 X s 907 489 m -8 X s 915 498 m -16 X s 915 498 m -16 X s 907 507 m -8 X s 907 516 m -8 X s
 gsave  710 567 779 12 C 875.259 82.4108 t 0 r /Helvetica findfont 25.6631 sf 0 0 m (0) show NC gr 
 gsave  710 567 779 12 C 878.101 127.879 t 0 r /Helvetica findfont 25.6631 sf 0 0 m (1) show NC gr 
 gsave  710 567 779 12 C 875.259 173.347 t 0 r /Helvetica findfont 25.6631 sf 0 0 m (2) show NC gr 
 gsave  710 567 779 12 C 875.259 218.815 t 0 r /Helvetica findfont 25.6631 sf 0 0 m (3) show NC gr 
 gsave  710 567 779 12 C 875.259 264.283 t 0 r /Helvetica findfont 25.6631 sf 0 0 m (4) show NC gr 
 gsave  710 567 779 12 C 875.259 306.909 t 0 r /Helvetica findfont 25.6631 sf 0 0 m (5) show NC gr 
 gsave  710 567 779 12 C 875.259 352.377 t 0 r /Helvetica findfont 25.6631 sf 0 0 m (6) show NC gr 
 gsave  710 567 779 12 C 875.259 397.845 t 0 r /Helvetica findfont 25.6631 sf 0 0 m (7) show NC gr 
 gsave  710 567 779 12 C 875.259 443.313 t 0 r /Helvetica findfont 25.6631 sf 0 0 m (8) show NC gr 
 gsave  710 567 779 12 C 875.259 488.781 t 0 r /Helvetica findfont 25.6631 sf 0 0 m (9) show NC gr 
 gsave  710 567 779 12 C 801.374 431.946 t 90 r /Helvetica findfont 28.5146 sf 0 0 m (0.0126 ) show NC gr 
 gsave  710 567 779 12 C 787.165 429.104 t 90 r /Helvetica findfont 19.9602 sf 0 0 m ( ) show NC gr 
 gsave  710 567 779 12 C 801.374 417.737 t 90 r /Helvetica findfont 28.5146 sf 0 0 m (/) show NC gr 
 gsave  710 567 779 12 C 809.899 414.896 t 90 r /Helvetica findfont 19.9602 sf 0 0 m ( ) show NC gr 
 gsave  710 567 779 12 C 801.374 309.751 t 90 r /Helvetica findfont 28.5146 sf 0 0 m (\(1/N\) dN) show NC gr  1447 94 m 429 Y s 1430 94 m 17 X s 1438 103 m 9 X s 1438 112 m 9 X s 1438 120 m 9 X s 1438 129 m 9 X s 1430 138 m 17 X s 1438 147 m 9 X s
 1438 156 m 9 X s 1438 165 m 9 X s 1438 174 m 9 X s 1430 183 m 17 X s 1438 192 m 9 X s 1438 201 m 9 X s 1438 210 m 9 X s 1438 219 m 9 X s 1430 228 m 17 X s 1438 237 m 9 X s 1438 246 m 9 X s 1438 255 m 9 X s 1438 264 m 9 X s 1430 273 m 17 X s 1438 282
 m 9 X s 1438 291 m 9 X s 1438 300 m 9 X s 1438 309 m 9 X s 1430 318 m 17 X s 1438 327 m 9 X s 1438 336 m 9 X s 1438 345 m 9 X s 1438 354 m 9 X s 1430 363 m 17 X s 1438 372 m 9 X s 1438 381 m 9 X s 1438 390 m 9 X s 1438 399 m 9 X s 1430 408 m 17 X s
 1438 417 m 9 X s 1438 426 m 9 X s 1438 435 m 9 X s 1438 444 m 9 X s 1430 453 m 17 X s 1438 462 m 9 X s 1438 471 m 9 X s 1438 480 m 9 X s 1438 489 m 9 X s 1430 498 m 17 X s 1430 498 m 17 X s 1438 507 m 9 X s 1438 516 m 9 X s 0.490196 0.545098
 0.615686 c 0.364706 0.419608 0.490196 c 332 37 786 539 bf 0.490196 0.545098 0.615686 c 786 539 m 332 X s 1118 539 m 37 Y s 1118 576 m -332 X s 786 576 m -37 Y s 1 1 1 c black 1 1 1 c
 gsave  710 567 779 12 C 790.007 551.299 t 0 r /Helvetica-Bold findfont 28.5146 sf 0 0 m (Input variable: yy.HT_l3) show NC gr  1 0 0 c 6 lw black 3 lw 1 0 0 c 1432 94 m s 1417 94 m s 1404 95 m -2 -1 d s 1389 95 m -2 -1 d s 1372 94 m s 1357 94 m s
 1342 94 m s 1329 96 m -2 -2 d s 1317 99 m -5 -5 d s 1310 107 m -13 -13 d s 1300 112 m -18 -18 d s 1296 123 m -29 -29 d s 1296 138 m -44 -44 d s 1296 153 m -59 -59 d s 1296 169 m -75 -75 d s 1296 184 m -90 -90 d s 1296 199 m -105 -105 d s 1296 214 m
 -120 -120 d s 1296 229 m -135 -135 d s 1296 245 m -150 -151 d s 1296 260 m -165 -166 d s 1296 275 m -41 -41 d s 1254 233 m -138 -139 d s 1296 290 m -41 -41 d s 1241 235 m -140 -141 d s 1288 297 m -33 -33 d s 1241 250 m -155 -156 d s 1282 307 m -27
 -28 d s 1241 265 m -41 -41 d s 1196 220 m -125 -126 d s 1274 313 m -19 -19 d s 1232 271 m -18 -18 d s 1204 243 m -4 -4 d s 1173 212 m -117 -118 d s 1269 323 m -14 -13 d s 1228 282 m -14 -14 d s 1173 227 m -132 -133 d s 1269 338 m -14 -13 d s 1224
 293 m -10 -10 d s 1173 242 m -147 -148 d s 1269 354 m -14 -14 d s 1167 251 m -157 -157 d s 1269 369 m -14 -14 d s 1148 247 m -16 -16 d s 1126 226 m -90 -91 d s 1014 112 m -19 -18 d s 1269 384 m -14 -14 d s 1146 260 m -14 -14 d s 1118 232 m -68 -68 d
 s 1042 156 m -6 -6 d s 1009 122 m -29 -28 d s 1269 399 m -14 -14 d s 1139 269 m -7 -8 d s 1118 248 m -68 -69 d s 1002 130 m -7 -6 d s 983 111 m -18 -17 d s 1260 406 m -5 -5 d s 1105 249 m -55 -55 d s 981 125 m -31 -31 d s 1105 264 m -55 -55 d s 973
 132 m -5 -6 d s 963 122 m -28 -28 d s 1105 279 m -55 -55 d s 938 112 m -18 -18 d s 1105 295 m -14 -14 d s 1087 277 m -37 -38 d s 916 104 m -3 -2 d s 911 100 m -6 -6 d s 1105 310 m -14 -14 d s 1077 282 m -27 -27 d s 1105 325 m -14 -14 d s 1076 296 m
 -26 -26 d s 1095 331 m -4 -5 d s 1064 299 m -14 -14 d s 1059 310 m -9 -10 d s 6 lw 899 100 m 14 X 4 Y 14 X 8 Y 13 X 1 Y 14 X 9 Y 14 X 10 Y 13 X -21 Y 14 X 19 Y 14 X -18 Y 13 X 8 Y 14 X 36 Y 14 X 154 Y 14 X -14 Y 13 X -19 Y 14 X 54 Y 14 X -82 Y 13 X
 -23 Y 14 X 43 Y 14 X -22 Y 13 X 4 Y 14 X -39 Y 14 X 8 Y 13 X 23 Y 14 X 50 Y 14 X -22 Y 13 X -38 Y 14 X 173 Y 14 X -93 Y 13 X -16 Y 14 X -185 Y 14 X -13 Y 13 X -3 Y 14 X -2 Y 41 X 1 Y 27 X -1 Y 42 X s black 3 lw 899 94 m 548 X s 952 107 m -13 Y s 974
 100 m -6 Y s 996 100 m -6 Y s 1017 100 m -6 Y s 1039 100 m -6 Y s 1061 107 m -13 Y s 1083 100 m -6 Y s 1104 100 m -6 Y s 1126 100 m -6 Y s 1148 100 m -6 Y s 1170 107 m -13 Y s 1191 100 m -6 Y s 1213 100 m -6 Y s 1235 100 m -6 Y s 1257 100 m -6 Y s
 1278 107 m -13 Y s 1300 100 m -6 Y s 1322 100 m -6 Y s 1344 100 m -6 Y s 1365 100 m -6 Y s 1387 107 m -13 Y s 952 107 m -13 Y s 930 100 m -6 Y s 909 100 m -6 Y s 1387 107 m -13 Y s 1409 100 m -6 Y s 1431 100 m -6 Y s 899 523 m 548 X s 952 509 m 14 Y
 s 974 516 m 7 Y s 996 516 m 7 Y s 1017 516 m 7 Y s 1039 516 m 7 Y s 1061 509 m 14 Y s 1083 516 m 7 Y s 1104 516 m 7 Y s 1126 516 m 7 Y s 1148 516 m 7 Y s 1170 509 m 14 Y s 1191 516 m 7 Y s 1213 516 m 7 Y s 1235 516 m 7 Y s 1257 516 m 7 Y s 1278 509
 m 14 Y s 1300 516 m 7 Y s 1322 516 m 7 Y s 1344 516 m 7 Y s 1365 516 m 7 Y s 1387 509 m 14 Y s 952 509 m 14 Y s 930 516 m 7 Y s 909 516 m 7 Y s 1387 509 m 14 Y s 1409 516 m 7 Y s 1431 516 m 7 Y s 899 94 m 429 Y s 915 94 m -16 X s 907 103 m -8 X s
 907 112 m -8 X s 907 120 m -8 X s 907 129 m -8 X s 915 138 m -16 X s 907 147 m -8 X s 907 156 m -8 X s 907 165 m -8 X s 907 174 m -8 X s 915 183 m -16 X s 907 192 m -8 X s 907 201 m -8 X s 907 210 m -8 X s 907 219 m -8 X s 915 228 m -16 X s 907 237
 m -8 X s 907 246 m -8 X s 907 255 m -8 X s 907 264 m -8 X s 915 273 m -16 X s 907 282 m -8 X s 907 291 m -8 X s 907 300 m -8 X s 907 309 m -8 X s 915 318 m -16 X s 907 327 m -8 X s 907 336 m -8 X s 907 345 m -8 X s 907 354 m -8 X s 915 363 m -16 X s
 907 372 m -8 X s 907 381 m -8 X s 907 390 m -8 X s 907 399 m -8 X s 915 408 m -16 X s 907 417 m -8 X s 907 426 m -8 X s 907 435 m -8 X s 907 444 m -8 X s 915 453 m -16 X s 907 462 m -8 X s 907 471 m -8 X s 907 480 m -8 X s 907 489 m -8 X s 915 498 m
 -16 X s 915 498 m -16 X s 907 507 m -8 X s 907 516 m -8 X s 1447 94 m 429 Y s 1430 94 m 17 X s 1438 103 m 9 X s 1438 112 m 9 X s 1438 120 m 9 X s 1438 129 m 9 X s 1430 138 m 17 X s 1438 147 m 9 X s 1438 156 m 9 X s 1438 165 m 9 X s 1438 174 m 9 X s
 1430 183 m 17 X s 1438 192 m 9 X s 1438 201 m 9 X s 1438 210 m 9 X s 1438 219 m 9 X s 1430 228 m 17 X s 1438 237 m 9 X s 1438 246 m 9 X s 1438 255 m 9 X s 1438 264 m 9 X s 1430 273 m 17 X s 1438 282 m 9 X s 1438 291 m 9 X s 1438 300 m 9 X s 1438 309
 m 9 X s 1430 318 m 17 X s 1438 327 m 9 X s 1438 336 m 9 X s 1438 345 m 9 X s 1438 354 m 9 X s 1430 363 m 17 X s 1438 372 m 9 X s 1438 381 m 9 X s 1438 390 m 9 X s 1438 399 m 9 X s 1430 408 m 17 X s 1438 417 m 9 X s 1438 426 m 9 X s 1438 435 m 9 X s
 1438 444 m 9 X s 1430 453 m 17 X s 1438 462 m 9 X s 1438 471 m 9 X s 1438 480 m 9 X s 1438 489 m 9 X s 1430 498 m 17 X s 1430 498 m 17 X s 1438 507 m 9 X s 1438 516 m 9 X s
 gsave  710 567 779 12 C 1474.92 91.2634 t 90 r /Helvetica-Bold findfont 19.9602 sf 0 0 m (U/O\255flow \(S,B\): \(0.0, 0.0\)% / \(0.0, 0.0\)%) show NC gr  0.490196 0.545098 0.615686 c 0.364706 0.419608 0.490196 c 332 37 786 539 bf 0.490196 0.545098
 0.615686 c 786 539 m 332 X s 1118 539 m 37 Y s 1118 576 m -332 X s 786 576 m -37 Y s 1 1 1 c black 1 1 1 c
 gsave  710 567 779 12 C 790.007 551.299 t 0 r /Helvetica-Bold findfont 28.5146 sf 0 0 m (Input variable: yy.HT_l3) show NC gr  0.490196 0.545098 0.615686 c 0.941176 0.941176 0.941176 c 711 567 1534 12 bf black 1 1 0.992157 c 547 429 1655 94 bf black
 547 429 1655 94 bl 0 0 0.933333 c 6 lw 0.49 0.6 0.82 c black 3 lw 0.49 0.6 0.82 c 1655 94 m 329 Y 14 X 43 Y 14 X 18 Y 13 X -48 Y 14 X 30 Y 14 X -76 Y 13 X -52 Y 14 X -27 Y 14 X -21 Y 13 X 68 Y 14 X -102 Y 14 X 66 Y 13 X -49 Y 14 X -66 Y 14 X 21 Y 13
 X 85 Y 14 X -54 Y 14 X -72 Y 13 X 76 Y 14 X 42 Y 14 X -23 Y 14 X -34 Y 13 X -130 Y 14 X -1 Y 14 X -4 Y 13 X -6 Y 14 X 4 Y 14 X -3 Y 13 X -7 Y 14 X -1 Y 14 X 6 Y 13 X -3 Y 14 X -4 Y 14 X -2 Y 13 X -1 Y 14 X 1 Y 14 X -3 Y 54 X f 6 lw 0 0 0.933333 c
 0.49 0.6 0.82 c 0 0 0.933333 c 1655 423 m 14 X 43 Y 14 X 18 Y 13 X -48 Y 14 X 30 Y 14 X -76 Y 13 X -52 Y 14 X -27 Y 14 X -21 Y 13 X 68 Y 14 X -102 Y 14 X 66 Y 13 X -49 Y 14 X -66 Y 14 X 21 Y 13 X 85 Y 14 X -54 Y 14 X -72 Y 13 X 76 Y 14 X 42 Y 14 X
 -23 Y 14 X -34 Y 13 X -130 Y 14 X -1 Y 14 X -4 Y 13 X -6 Y 14 X 4 Y 14 X -3 Y 13 X -7 Y 14 X -1 Y 14 X 6 Y 13 X -3 Y 14 X -4 Y 14 X -2 Y 13 X -1 Y 14 X 1 Y 14 X -3 Y 54 X s black 3 lw 1655 94 m 547 X s 1666 107 m -13 Y s 1681 100 m -6 Y s 1696 100 m
 -6 Y s 1711 100 m -6 Y s 1726 100 m -6 Y s 1741 107 m -13 Y s 1756 100 m -6 Y s 1771 100 m -6 Y s 1786 100 m -6 Y s 1801 100 m -6 Y s 1817 107 m -13 Y s 1832 100 m -6 Y s 1847 100 m -6 Y s 1862 100 m -6 Y s 1877 100 m -6 Y s 1892 107 m -13 Y s 1907
 100 m -6 Y s 1922 100 m -6 Y s 1937 100 m -6 Y s 1952 100 m -6 Y s 1967 107 m -13 Y s 1982 100 m -6 Y s 1997 100 m -6 Y s 2012 100 m -6 Y s 2027 100 m -6 Y s 2042 107 m -13 Y s 2057 100 m -6 Y s 2072 100 m -6 Y s 2087 100 m -6 Y s 2103 100 m -6 Y s
 2118 107 m -13 Y s 2133 100 m -6 Y s 2148 100 m -6 Y s 2163 100 m -6 Y s 2178 100 m -6 Y s 2193 107 m -13 Y s 1666 107 m -13 Y s 2193 107 m -13 Y s
 gsave  711 567 1534 12 C 1653.9 65.3603 t 0 r /Helvetica findfont 25.6631 sf 0 0 m (0.1) show NC gr 
 gsave  711 567 1534 12 C 1642.53 65.3603 t 0 r /Symbol findfont 25.6631 sf 0 0 m (-) show NC gr 
 gsave  711 567 1534 12 C 1719.26 65.3603 t 0 r /Helvetica findfont 25.6631 sf 0 0 m (0.05) show NC gr 
 gsave  711 567 1534 12 C 1707.89 65.3603 t 0 r /Symbol findfont 25.6631 sf 0 0 m (-) show NC gr 
 gsave  711 567 1534 12 C 1807.35 65.3603 t 0 r /Helvetica findfont 25.6631 sf 0 0 m (0) show NC gr 
 gsave  711 567 1534 12 C 1864.19 65.3603 t 0 r /Helvetica findfont 25.6631 sf 0 0 m (0.05) show NC gr 
 gsave  711 567 1534 12 C 1949.44 65.3603 t 0 r /Helvetica findfont 25.6631 sf 0 0 m (0.1) show NC gr 
 gsave  711 567 1534 12 C 2014.8 65.3603 t 0 r /Helvetica findfont 25.6631 sf 0 0 m (0.15) show NC gr 
 gsave  711 567 1534 12 C 2100.05 65.3603 t 0 r /Helvetica findfont 25.6631 sf 0 0 m (0.2) show NC gr 
 gsave  711 567 1534 12 C 2165.41 65.3603 t 0 r /Helvetica findfont 25.6631 sf 0 0 m (0.25) show NC gr 
 gsave  711 567 1534 12 C 2091.53 25.5758 t 0 r /Helvetica findfont 28.5146 sf 0 0 m (yy.HT_l4) show NC gr  1655 523 m 547 X s 1666 509 m 14 Y s 1681 516 m 7 Y s 1696 516 m 7 Y s 1711 516 m 7 Y s 1726 516 m 7 Y s 1741 509 m 14 Y s 1756 516 m 7 Y s
 1771 516 m 7 Y s 1786 516 m 7 Y s 1801 516 m 7 Y s 1817 509 m 14 Y s 1832 516 m 7 Y s 1847 516 m 7 Y s 1862 516 m 7 Y s 1877 516 m 7 Y s 1892 509 m 14 Y s 1907 516 m 7 Y s 1922 516 m 7 Y s 1937 516 m 7 Y s 1952 516 m 7 Y s 1967 509 m 14 Y s 1982 516
 m 7 Y s 1997 516 m 7 Y s 2012 516 m 7 Y s 2027 516 m 7 Y s 2042 509 m 14 Y s 2057 516 m 7 Y s 2072 516 m 7 Y s 2087 516 m 7 Y s 2103 516 m 7 Y s 2118 509 m 14 Y s 2133 516 m 7 Y s 2148 516 m 7 Y s 2163 516 m 7 Y s 2178 516 m 7 Y s 2193 509 m 14 Y s
 1666 509 m 14 Y s 2193 509 m 14 Y s 1655 94 m 429 Y s 1671 94 m -16 X s 1663 103 m -8 X s 1663 112 m -8 X s 1663 122 m -8 X s 1663 131 m -8 X s 1671 141 m -16 X s 1663 150 m -8 X s 1663 160 m -8 X s 1663 169 m -8 X s 1663 179 m -8 X s 1671 188 m -16
 X s 1663 198 m -8 X s 1663 207 m -8 X s 1663 217 m -8 X s 1663 226 m -8 X s 1671 236 m -16 X s 1663 245 m -8 X s 1663 254 m -8 X s 1663 264 m -8 X s 1663 273 m -8 X s 1671 283 m -16 X s 1663 292 m -8 X s 1663 302 m -8 X s 1663 311 m -8 X s 1663 321
 m -8 X s 1671 330 m -16 X s 1663 340 m -8 X s 1663 349 m -8 X s 1663 359 m -8 X s 1663 368 m -8 X s 1671 378 m -16 X s 1663 387 m -8 X s 1663 396 m -8 X s 1663 406 m -8 X s 1663 415 m -8 X s 1671 425 m -16 X s 1663 434 m -8 X s 1663 444 m -8 X s
 1663 453 m -8 X s 1663 463 m -8 X s 1671 472 m -16 X s 1663 482 m -8 X s 1663 491 m -8 X s 1663 501 m -8 X s 1663 510 m -8 X s 1671 520 m -16 X s 1671 520 m -16 X s
 gsave  711 567 1534 12 C 1631.16 82.4108 t 0 r /Helvetica findfont 25.6631 sf 0 0 m (0) show NC gr 
 gsave  711 567 1534 12 C 1634.01 130.721 t 0 r /Helvetica findfont 25.6631 sf 0 0 m (1) show NC gr 
 gsave  711 567 1534 12 C 1631.16 179.03 t 0 r /Helvetica findfont 25.6631 sf 0 0 m (2) show NC gr 
 gsave  711 567 1534 12 C 1631.16 224.498 t 0 r /Helvetica findfont 25.6631 sf 0 0 m (3) show NC gr 
 gsave  711 567 1534 12 C 1631.16 272.808 t 0 r /Helvetica findfont 25.6631 sf 0 0 m (4) show NC gr 
 gsave  711 567 1534 12 C 1631.16 321.118 t 0 r /Helvetica findfont 25.6631 sf 0 0 m (5) show NC gr 
 gsave  711 567 1534 12 C 1631.16 366.586 t 0 r /Helvetica findfont 25.6631 sf 0 0 m (6) show NC gr 
 gsave  711 567 1534 12 C 1631.16 414.896 t 0 r /Helvetica findfont 25.6631 sf 0 0 m (7) show NC gr 
 gsave  711 567 1534 12 C 1631.16 463.205 t 0 r /Helvetica findfont 25.6631 sf 0 0 m (8) show NC gr 
 gsave  711 567 1534 12 C 1631.16 508.673 t 0 r /Helvetica findfont 25.6631 sf 0 0 m (9) show NC gr 
 gsave  711 567 1534 12 C 1557.28 414.896 t 90 r /Helvetica findfont 28.5146 sf 0 0 m (0.00909 ) show NC gr 
 gsave  711 567 1534 12 C 1543.07 412.054 t 90 r /Helvetica findfont 19.9602 sf 0 0 m ( ) show NC gr 
 gsave  711 567 1534 12 C 1557.28 400.687 t 90 r /Helvetica findfont 28.5146 sf 0 0 m (/) show NC gr 
 gsave  711 567 1534 12 C 1565.8 397.845 t 90 r /Helvetica findfont 19.9602 sf 0 0 m ( ) show NC gr 
 gsave  711 567 1534 12 C 1557.28 292.7 t 90 r /Helvetica findfont 28.5146 sf 0 0 m (\(1/N\) dN) show NC gr  2202 94 m 429 Y s 2186 94 m 16 X s 2194 103 m 8 X s 2194 112 m 8 X s 2194 122 m 8 X s 2194 131 m 8 X s 2186 141 m 16 X s 2194 150 m 8 X s
 2194 160 m 8 X s 2194 169 m 8 X s 2194 179 m 8 X s 2186 188 m 16 X s 2194 198 m 8 X s 2194 207 m 8 X s 2194 217 m 8 X s 2194 226 m 8 X s 2186 236 m 16 X s 2194 245 m 8 X s 2194 254 m 8 X s 2194 264 m 8 X s 2194 273 m 8 X s 2186 283 m 16 X s 2194 292
 m 8 X s 2194 302 m 8 X s 2194 311 m 8 X s 2194 321 m 8 X s 2186 330 m 16 X s 2194 340 m 8 X s 2194 349 m 8 X s 2194 359 m 8 X s 2194 368 m 8 X s 2186 378 m 16 X s 2194 387 m 8 X s 2194 396 m 8 X s 2194 406 m 8 X s 2194 415 m 8 X s 2186 425 m 16 X s
 2194 434 m 8 X s 2194 444 m 8 X s 2194 453 m 8 X s 2194 463 m 8 X s 2186 472 m 16 X s 2194 482 m 8 X s 2194 491 m 8 X s 2194 501 m 8 X s 2194 510 m 8 X s 2186 520 m 16 X s 2186 520 m 16 X s 0.490196 0.545098 0.615686 c 0.364706 0.419608 0.490196 c
 335 37 1542 539 bf 0.490196 0.545098 0.615686 c 1542 539 m 335 X s 1877 539 m 37 Y s 1877 576 m -335 X s 1542 576 m -37 Y s 1 1 1 c black 1 1 1 c
 gsave  711 567 1534 12 C 1545.91 551.299 t 0 r /Helvetica-Bold findfont 28.5146 sf 0 0 m (Input variable: yy.HT_l4) show NC gr  1 0 0 c 6 lw black 3 lw 1 0 0 c 2191 96 m -3 -2 d s 2178 98 m -5 -4 d s 2161 97 m -3 -3 d s 2150 100 m -7 -6 d s 2134 100
 m -6 -6 d s 2134 115 m -14 -14 d s 2116 96 m -3 -2 d s 2121 117 m -1 -1 d s 2107 102 m -9 -8 d s 2096 107 m -13 -13 d s 2091 117 m -12 -12 d s 2076 101 m -8 -7 d s 2066 107 m -13 -13 d s 2062 118 m -24 -24 d s 2052 123 m -14 -14 d s 2036 107 m -13
 -13 d s 2052 138 m -14 -13 d s 2021 107 m -13 -13 d s 2043 144 m -5 -4 d s 2007 109 m -15 -15 d s 1997 114 m -20 -20 d s 1984 115 m -22 -21 d s 1972 118 m -25 -24 d s 1970 132 m -38 -38 d s 1963 140 m -46 -46 d s 1956 148 m -54 -54 d s 1956 163 m
 -69 -69 d s 1956 178 m -84 -84 d s 1956 194 m -99 -100 d s 1956 209 m -114 -115 d s 1956 224 m -129 -130 d s 1956 239 m -144 -145 d s 1956 254 m -160 -160 d s 1956 270 m -175 -176 d s 1956 285 m -82 -83 d s 1870 198 m -10 -10 d s 1851 179 m -85 -85
 d s 1956 300 m -82 -83 d s 1847 190 m -96 -96 d s 1956 315 m -82 -83 d s 1847 205 m -111 -111 d s 1956 330 m -68 -69 d s 1884 258 m -10 -10 d s 1847 220 m -126 -126 d s 1943 332 m -55 -55 d s 1847 235 m -141 -141 d s 1943 347 m -42 -41 d s 1901 305
 m -13 -13 d s 1847 250 m -156 -156 d s 1943 362 m -42 -41 d s 1840 259 m -164 -165 d s 1943 377 m -42 -41 d s 1833 267 m -27 -28 d s 1803 237 m -142 -143 d s 1943 392 m -42 -41 d s 1827 276 m -8 -8 d s 1808 257 m -2 -2 d s 1792 241 m -137 -138 d s
 1943 408 m -14 -14 d s 1919 384 m -4 -4 d s 1902 367 m -1 -1 d s 1792 256 m -137 -138 d s 1943 423 m -14 -14 d s 1787 266 m -9 -9 d s 1765 244 m -110 -111 d s 1943 438 m -14 -14 d s 1765 259 m -110 -110 d s 1943 453 m -14 -14 d s 1765 274 m -110
 -110 d s 1943 468 m -14 -13 d s 1765 289 m -14 -14 d s 1741 266 m -86 -87 d s 1938 479 m -9 -9 d s 1758 297 m -7 -6 d s 1737 277 m -82 -83 d s 1737 292 m -82 -83 d s 1737 307 m -82 -82 d s 1737 322 m -82 -82 d s 1737 338 m -82 -83 d s 1737 353 m -13
 -14 d s 1715 330 m -60 -60 d s 1737 368 m -13 -14 d s 1710 340 m -55 -55 d s 1737 383 m -13 -14 d s 1710 356 m -55 -55 d s 1737 398 m -13 -13 d s 1693 354 m -38 -38 d s 1737 414 m -13 -14 d s 1683 358 m -28 -27 d s 1731 423 m -7 -8 d s 1683 374 m
 -28 -28 d s 1683 389 m -28 -28 d s 1683 404 m -28 -28 d s 1683 419 m -28 -27 d s 1683 434 m -28 -27 d s 1683 450 m -28 -28 d s 1680 462 m -11 -11 d s 1658 440 m -3 -3 d s 6 lw 1655 440 m 14 X 22 Y 14 X -108 Y 13 X 2 Y 14 X -26 Y 14 X 93 Y 13 X -157
 Y 14 X 31 Y 14 X -54 Y 13 X 23 Y 14 X -29 Y 14 X 20 Y 13 X 19 Y 14 X -17 Y 14 X -80 Y 13 X 19 Y 14 X 60 Y 14 X 47 Y 13 X 62 Y 14 X 17 Y 14 X 95 Y 14 X -147 Y 13 X -192 Y 14 X -22 Y 14 X -3 Y 13 X -6 Y 14 X -2 Y 27 X 37 Y 14 X -26 Y 14 X -17 Y 13 X
 16 Y 14 X -10 Y 14 X -11 Y 13 X 21 Y 14 X -17 Y 27 X -5 Y 14 X 3 Y 14 X -2 Y 13 X s black 3 lw 1655 94 m 547 X s 1666 107 m -13 Y s 1681 100 m -6 Y s 1696 100 m -6 Y s 1711 100 m -6 Y s 1726 100 m -6 Y s 1741 107 m -13 Y s 1756 100 m -6 Y s 1771 100
 m -6 Y s 1786 100 m -6 Y s 1801 100 m -6 Y s 1817 107 m -13 Y s 1832 100 m -6 Y s 1847 100 m -6 Y s 1862 100 m -6 Y s 1877 100 m -6 Y s 1892 107 m -13 Y s 1907 100 m -6 Y s 1922 100 m -6 Y s 1937 100 m -6 Y s 1952 100 m -6 Y s 1967 107 m -13 Y s
 1982 100 m -6 Y s 1997 100 m -6 Y s 2012 100 m -6 Y s 2027 100 m -6 Y s 2042 107 m -13 Y s 2057 100 m -6 Y s 2072 100 m -6 Y s 2087 100 m -6 Y s 2103 100 m -6 Y s 2118 107 m -13 Y s 2133 100 m -6 Y s 2148 100 m -6 Y s 2163 100 m -6 Y s 2178 100 m -6
 Y s 2193 107 m -13 Y s 1666 107 m -13 Y s 2193 107 m -13 Y s 1655 523 m 547 X s 1666 509 m 14 Y s 1681 516 m 7 Y s 1696 516 m 7 Y s 1711 516 m 7 Y s 1726 516 m 7 Y s 1741 509 m 14 Y s 1756 516 m 7 Y s 1771 516 m 7 Y s 1786 516 m 7 Y s 1801 516 m 7 Y
 s 1817 509 m 14 Y s 1832 516 m 7 Y s 1847 516 m 7 Y s 1862 516 m 7 Y s 1877 516 m 7 Y s 1892 509 m 14 Y s 1907 516 m 7 Y s 1922 516 m 7 Y s 1937 516 m 7 Y s 1952 516 m 7 Y s 1967 509 m 14 Y s 1982 516 m 7 Y s 1997 516 m 7 Y s 2012 516 m 7 Y s 2027
 516 m 7 Y s 2042 509 m 14 Y s 2057 516 m 7 Y s 2072 516 m 7 Y s 2087 516 m 7 Y s 2103 516 m 7 Y s 2118 509 m 14 Y s 2133 516 m 7 Y s 2148 516 m 7 Y s 2163 516 m 7 Y s 2178 516 m 7 Y s 2193 509 m 14 Y s 1666 509 m 14 Y s 2193 509 m 14 Y s 1655 94 m
 429 Y s 1671 94 m -16 X s 1663 103 m -8 X s 1663 112 m -8 X s 1663 122 m -8 X s 1663 131 m -8 X s 1671 141 m -16 X s 1663 150 m -8 X s 1663 160 m -8 X s 1663 169 m -8 X s 1663 179 m -8 X s 1671 188 m -16 X s 1663 198 m -8 X s 1663 207 m -8 X s 1663
 217 m -8 X s 1663 226 m -8 X s 1671 236 m -16 X s 1663 245 m -8 X s 1663 254 m -8 X s 1663 264 m -8 X s 1663 273 m -8 X s 1671 283 m -16 X s 1663 292 m -8 X s 1663 302 m -8 X s 1663 311 m -8 X s 1663 321 m -8 X s 1671 330 m -16 X s 1663 340 m -8 X s
 1663 349 m -8 X s 1663 359 m -8 X s 1663 368 m -8 X s 1671 378 m -16 X s 1663 387 m -8 X s 1663 396 m -8 X s 1663 406 m -8 X s 1663 415 m -8 X s 1671 425 m -16 X s 1663 434 m -8 X s 1663 444 m -8 X s 1663 453 m -8 X s 1663 463 m -8 X s 1671 472 m
 -16 X s 1663 482 m -8 X s 1663 491 m -8 X s 1663 501 m -8 X s 1663 510 m -8 X s 1671 520 m -16 X s 1671 520 m -16 X s 2202 94 m 429 Y s 2186 94 m 16 X s 2194 103 m 8 X s 2194 112 m 8 X s 2194 122 m 8 X s 2194 131 m 8 X s 2186 141 m 16 X s 2194 150 m
 8 X s 2194 160 m 8 X s 2194 169 m 8 X s 2194 179 m 8 X s 2186 188 m 16 X s 2194 198 m 8 X s 2194 207 m 8 X s 2194 217 m 8 X s 2194 226 m 8 X s 2186 236 m 16 X s 2194 245 m 8 X s 2194 254 m 8 X s 2194 264 m 8 X s 2194 273 m 8 X s 2186 283 m 16 X s
 2194 292 m 8 X s 2194 302 m 8 X s 2194 311 m 8 X s 2194 321 m 8 X s 2186 330 m 16 X s 2194 340 m 8 X s 2194 349 m 8 X s 2194 359 m 8 X s 2194 368 m 8 X s 2186 378 m 16 X s 2194 387 m 8 X s 2194 396 m 8 X s 2194 406 m 8 X s 2194 415 m 8 X s 2186 425
 m 16 X s 2194 434 m 8 X s 2194 444 m 8 X s 2194 453 m 8 X s 2194 463 m 8 X s 2186 472 m 16 X s 2194 482 m 8 X s 2194 491 m 8 X s 2194 501 m 8 X s 2194 510 m 8 X s 2186 520 m 16 X s 2186 520 m 16 X s
 gsave  711 567 1534 12 C 2230.83 91.2634 t 90 r /Helvetica-Bold findfont 19.9602 sf 0 0 m (U/O\255flow \(S,B\): \(0.0, 0.0\)% / \(0.0, 0.0\)%) show NC gr  0.490196 0.545098 0.615686 c 0.364706 0.419608 0.490196 c 335 37 1542 539 bf 0.490196 0.545098
 0.615686 c 1542 539 m 335 X s 1877 539 m 37 Y s 1877 576 m -335 X s 1542 576 m -37 Y s 1 1 1 c black 1 1 1 c
 gsave  711 567 1534 12 C 1545.91 551.299 t 0 r /Helvetica-Bold findfont 28.5146 sf 0 0 m (Input variable: yy.HT_l4) show NC gr 
 gr  gr showpage
end
%%EOF
