%!PS-Adobe-2.0 EPSF-2.0
%%BoundingBox:  0 0 567 296
%%Title: dataset/plots/variables_id_c8.eps: Input variables (training sample)
%%Creator: ROOT Version 6.18/00
%%CreationDate: Fri Sep 13 20:54:43 2019
%%DocumentNeededResources: ProcSet (FontSetInit)
%%EndComments
%%BeginProlog
80 dict begin
/s {stroke} def /l {lineto} def /m {moveto} def /t {translate} def
/r {rotate} def /rl {roll}  def /R {repeat} def
/d {rlineto} def /rm {rmoveto} def /gr {grestore} def /f {eofill} def
/c {setrgbcolor} def /black {0 setgray} def /sd {setdash} def
/cl {closepath} def /sf {scalefont setfont} def /lw {setlinewidth} def
/box {m dup 0 exch d exch 0 d 0 exch neg d cl} def
/NC{systemdict begin initclip end}def/C{NC box clip newpath}def
/bl {box s} def /bf {gsave box gsave f grestore 1 lw [] 0 sd s grestore} def /Y { 0 exch d} def /X { 0 d} def 
/K {{pop pop 0 moveto} exch kshow} bind def
/ita {/ang 15 def gsave [1 0 ang dup sin exch cos div 1 0 0] concat} def 
/mp {newpath /y exch def /x exch def} def
/side {[w .77 mul w .23 mul] .385 w mul sd w 0 l currentpoint t -144 r} def
/mr {mp x y w2 0 360 arc} def /m24 {mr s} def /m20 {mr f} def
/mb {mp x y w2 add m w2 neg 0 d 0 w neg d w 0 d 0 w d cl} def
/mt {mp x y w2 add m w2 neg w neg d w 0 d cl} def
/w4 {w 4 div} def
/w6 {w 6 div} def
/w8 {w 8 div} def
/m21 {mb f} def /m25 {mb s} def /m22 {mt f} def /m26{mt s} def
/m23 {mp x y w2 sub m w2 w d w neg 0 d cl f} def
/m27 {mp x y w2 add m w3 neg w2 neg d w3 w2 neg d w3 w2 d cl s} def
/m28 {mp x w2 sub y w2 sub w3 add m w3 0 d  0 w3 neg d w3 0 d 0 w3 d w3 0 d  0 w3 d w3 neg 0 d 0 w3 d w3 neg 0 d 0 w3 neg d w3 neg 0 d cl s } def
/m29 {mp gsave x w2 sub y w2 add w3 sub m currentpoint t 4 {side} repeat cl fill gr} def
/m30 {mp gsave x w2 sub y w2 add w3 sub m currentpoint t 4 {side} repeat cl s gr} def
/m31 {mp x y w2 sub m 0 w d x w2 sub y m w 0 d x w2 sub y w2 add m w w neg d x w2 sub y w2 sub m w w d s} def
/m32 {mp x y w2 sub m w2 w d w neg 0 d cl s} def
/m33 {mp x y w2 add m w3 neg w2 neg d w3 w2 neg d w3 w2 d cl f} def
/m34 {mp x w2 sub y w2 sub w3 add m w3 0 d  0 w3 neg d w3 0 d 0 w3 d w3 0 d  0 w3 d w3 neg 0 d 0 w3 d w3 neg 0 d 0 w3 neg d w3 neg 0 d cl f } def
/m35 {mp x y w2 add m w2 neg w2 neg d w2 w2 neg d w2 w2 d w2 neg w2 d x y w2 sub m 0 w d x w2 sub y m w 0 d s} def
/m36 {mb x w2 sub y w2 add m w w neg d x w2 sub y w2 sub m w w d s} def
/m37 {mp x y m w4 neg w2 d w4 neg w2 neg d w2 0 d  w4 neg w2 neg d w2 0 d w4 neg w2 d w2 0 d w4 neg w2 d w4 neg w2 neg d cl s} def
/m38 {mp x w4 sub y w2 add m w4 neg w4 neg d 0 w2 neg d w4 w4 neg d w2 0 d w4 w4 d 0 w2 d w4 neg w4 d w2 neg 0 d x y w2 sub m 0 w d x w2 sub y m w 0 d cl s} def
/m39 {mp x y m w4 neg w2 d w4 neg w2 neg d w2 0 d  w4 neg w2 neg d w2 0 d w4 neg w2 d w2 0 d w4 neg w2 d w4 neg w2 neg d cl f} def
/m40 {mp x y m w4 w2 d w4 w4 neg d w2 neg w4 neg d w2 w4 neg d w4 neg w4 neg d w4 neg w2 d w4 neg w2 neg d w4 neg w4 d w2 w4 d w2 neg w4 d w4 w4 d w4 w2 neg d cl s} def
/m41 {mp x y m w4 w2 d w4 w4 neg d w2 neg w4 neg d w2 w4 neg d w4 neg w4 neg d w4 neg w2 d w4 neg w2 neg d w4 neg w4 d w2 w4 d w2 neg w4 d w4 w4 d w4 w2 neg d cl f} def
/m42 {mp x y w2 add m w8 neg w2 -3 4 div mul d w2 -3 4 div mul w8 neg d w2 3 4 div mul w8 neg d w8 w2 -3 4 div mul d w8 w2 3 4 div mul d w2 3 4 div mul w8 d w2 -3 4 div mul w8 d w8 neg w2 3 4 div mul d cl s} def
/m43 {mp x y w2 add m w8 neg w2 -3 4 div mul d w2 -3 4 div mul w8 neg d w2 3 4 div mul w8 neg d w8 w2 -3 4 div mul d w8 w2 3 4 div mul d w2 3 4 div mul w8 d w2 -3 4 div mul w8 d w8 neg w2 3 4 div mul d cl f} def
/m44 {mp x y m w6 neg w2 d w2 2 3 div mul 0 d w6 neg w2 neg d w2 w6 d 0 w2 -2 3 div mul d w2 neg w6 d w6 w2 neg d w2 -2 3 div mul 0 d w6 w2 d w2 neg w6 neg d 0 w2 2 3 div mul d w2 w6 neg d cl s} def
/m45 {mp x y m w6 neg w2 d w2 2 3 div mul 0 d w6 neg w2 neg d w2 w6 d 0 w2 -2 3 div mul d w2 neg w6 d w6 w2 neg d w2 -2 3 div mul 0 d w6 w2 d w2 neg w6 neg d 0 w2 2 3 div mul d w2 w6 neg d cl f} def
/m46 {mp x y w4 add m w4 neg w4 d w4 neg w4 neg d  w4 w4 neg d w4 neg w4 neg d w4 w4 neg d w4 w4 d w4 w4 neg d w4 w4 d w4 neg w4 d w4 w4 d w4 neg w4 d w4 neg w4 neg d cl s} def
/m47 {mp x y w4 add m w4 neg w4 d w4 neg w4 neg d w4 w4 neg d w4 neg w4 neg d  w4 w4 neg d w4 w4 d w4 w4 neg d w4 w4 d w4 neg w4 d w4 w4 d w4 neg w4 d w4 neg w4 neg d cl f} def
/m48 {mp x y w4 add m w4 neg w4 d w4 neg w4 neg d w4 w4 neg d  w4 neg w4 neg d w4 w4 neg d w4 w4 d w4 w4 neg d w4 w4 d w4 neg w4 d w4 w4 d w4 neg w4 d w4 neg w4 neg d  w4 w4 neg d w4 neg w4 neg d w4 neg w4 d w4 w4 d cl f} def
/m49 {mp x w2 sub w3 add y w2 sub w3 add m  0 w3 neg d w3 0 d 0 w3 d w3 0 d 0 w3 d w3 neg 0 d 0 w3 d w3 neg 0 d 0 w3 neg d w3 neg 0 d 0 w3 neg d w3 0 d 0 w3 d w3 0 d 0 w3 neg d w3 neg 0 d cl f } def
/m2 {mp x y w2 sub m 0 w d x w2 sub y m w 0 d s} def
/m5 {mp x w2 sub y w2 sub m w w d x w2 sub y w2 add m w w neg d s} def
%%IncludeResource: ProcSet (FontSetInit)
%%IncludeResource: font Times-Roman
%%IncludeResource: font Times-Italic
%%IncludeResource: font Times-Bold
%%IncludeResource: font Times-BoldItalic
%%IncludeResource: font Helvetica
%%IncludeResource: font Helvetica-Oblique
%%IncludeResource: font Helvetica-Bold
%%IncludeResource: font Helvetica-BoldOblique
%%IncludeResource: font Courier
%%IncludeResource: font Courier-Oblique
%%IncludeResource: font Courier-Bold
%%IncludeResource: font Courier-BoldOblique
%%IncludeResource: font Symbol
%%IncludeResource: font ZapfDingbats
/reEncode {exch findfont dup length dict begin {1 index /FID eq  {pop pop} {def} ifelse } forall /Encoding exch def currentdict end dup /FontName get exch definefont pop } def [/Times-Bold /Times-Italic /Times-BoldItalic /Helvetica /Helvetica-Oblique
 /Helvetica-Bold /Helvetica-BoldOblique /Courier /Courier-Oblique /Courier-Bold /Courier-BoldOblique /Times-Roman /AvantGarde-Book /AvantGarde-BookOblique /AvantGarde-Demi /AvantGarde-DemiOblique /Bookman-Demi /Bookman-DemiItalic /Bookman-Light
 /Bookman-LightItalic /Helvetica-Narrow /Helvetica-Narrow-Bold /Helvetica-Narrow-BoldOblique /Helvetica-Narrow-Oblique /NewCenturySchlbk-Roman /NewCenturySchlbk-Bold /NewCenturySchlbk-BoldItalic /NewCenturySchlbk-Italic /Palatino-Bold
 /Palatino-BoldItalic /Palatino-Italic /Palatino-Roman ] {ISOLatin1Encoding reEncode } forall
%%EndProlog
%%BeginSetup
%%EndSetup
newpath  gsave  .25 .25 scale  gsave  0 0 t 0.490196 0.545098 0.615686 c[  ] 0 sd 3 lw 0.941176 0.941176 0.941176 c 2268 1182 0 0 bf 0.490196 0.545098 0.615686 c 0.941176 0.941176 0.941176 c 710 567 23 603 bf black 1 1 0.992157 c 548 429 143 685 bf
 black 548 429 143 685 bl 0 0 0.933333 c 6 lw 0.49 0.6 0.82 c black 3 lw 0.49 0.6 0.82 c 143 685 m 14 X 1 Y 14 X -1 Y 109 X 28 Y 14 X 362 Y 14 X -100 Y 13 X 60 Y 14 X -88 Y 14 X 1 Y 13 X -18 Y 14 X -29 Y 14 X -47 Y 13 X 2 Y 14 X -3 Y 14 X -61 Y 13 X
 -81 Y 14 X 89 Y 14 X -24 Y 13 X -18 Y 14 X -34 Y 14 X 35 Y 13 X -20 Y 14 X -14 Y 14 X -12 Y 13 X -4 Y 14 X 1 Y 14 X -8 Y 14 X -5 Y 13 X -1 Y 14 X -6 Y 14 X -2 Y 13 X -2 Y 14 X -1 Y 14 X f 6 lw 0 0 0.933333 c 0.49 0.6 0.82 c 0 0 0.933333 c 143 685 m
 14 X 1 Y 14 X -1 Y 109 X 28 Y 14 X 362 Y 14 X -100 Y 13 X 60 Y 14 X -88 Y 14 X 1 Y 13 X -18 Y 14 X -29 Y 14 X -47 Y 13 X 2 Y 14 X -3 Y 14 X -61 Y 13 X -81 Y 14 X 89 Y 14 X -24 Y 13 X -18 Y 14 X -34 Y 14 X 35 Y 13 X -20 Y 14 X -14 Y 14 X -12 Y 13 X
 -4 Y 14 X 1 Y 14 X -8 Y 14 X -5 Y 13 X -1 Y 14 X -6 Y 14 X -2 Y 13 X -2 Y 14 X -1 Y 14 X s black 3 lw 143 685 m 548 X s 196 698 m -13 Y s 218 691 m -6 Y s 240 691 m -6 Y s 262 691 m -6 Y s 284 691 m -6 Y s 305 698 m -13 Y s 327 691 m -6 Y s 349 691
 m -6 Y s 371 691 m -6 Y s 393 691 m -6 Y s 414 698 m -13 Y s 436 691 m -6 Y s 458 691 m -6 Y s 480 691 m -6 Y s 502 691 m -6 Y s 523 698 m -13 Y s 545 691 m -6 Y s 567 691 m -6 Y s 589 691 m -6 Y s 611 691 m -6 Y s 633 698 m -13 Y s 196 698 m -13 Y
 s 174 691 m -6 Y s 153 691 m -6 Y s 633 698 m -13 Y s 654 691 m -6 Y s 676 691 m -6 Y s
 gsave  710 567 23 603 C 184.714 656.444 t 0 r /Helvetica findfont 25.6631 sf 0 0 m (0.2) show NC gr 
 gsave  710 567 23 603 C 170.505 656.444 t 0 r /Symbol findfont 25.6631 sf 0 0 m (-) show NC gr 
 gsave  710 567 23 603 C 292.7 656.444 t 0 r /Helvetica findfont 25.6631 sf 0 0 m (0.1) show NC gr 
 gsave  710 567 23 603 C 281.333 656.444 t 0 r /Symbol findfont 25.6631 sf 0 0 m (-) show NC gr 
 gsave  710 567 23 603 C 403.529 656.444 t 0 r /Helvetica findfont 25.6631 sf 0 0 m (0) show NC gr 
 gsave  710 567 23 603 C 505.832 656.444 t 0 r /Helvetica findfont 25.6631 sf 0 0 m (0.1) show NC gr 
 gsave  710 567 23 603 C 613.818 656.444 t 0 r /Helvetica findfont 25.6631 sf 0 0 m (0.2) show NC gr 
 gsave  710 567 23 603 C 579.717 616.66 t 0 r /Helvetica findfont 28.5146 sf 0 0 m (yy.HP_l3) show NC gr  143 1114 m 548 X s 196 1100 m 14 Y s 218 1107 m 7 Y s 240 1107 m 7 Y s 262 1107 m 7 Y s 284 1107 m 7 Y s 305 1100 m 14 Y s 327 1107 m 7 Y s 349
 1107 m 7 Y s 371 1107 m 7 Y s 393 1107 m 7 Y s 414 1100 m 14 Y s 436 1107 m 7 Y s 458 1107 m 7 Y s 480 1107 m 7 Y s 502 1107 m 7 Y s 523 1100 m 14 Y s 545 1107 m 7 Y s 567 1107 m 7 Y s 589 1107 m 7 Y s 611 1107 m 7 Y s 633 1100 m 14 Y s 196 1100 m
 14 Y s 174 1107 m 7 Y s 153 1107 m 7 Y s 633 1100 m 14 Y s 654 1107 m 7 Y s 676 1107 m 7 Y s 143 685 m 429 Y s 160 685 m -17 X s 152 705 m -9 X s 152 726 m -9 X s 152 747 m -9 X s 160 768 m -17 X s 152 788 m -9 X s 152 809 m -9 X s 152 830 m -9 X s
 160 851 m -17 X s 152 871 m -9 X s 152 892 m -9 X s 152 913 m -9 X s 160 934 m -17 X s 152 954 m -9 X s 152 975 m -9 X s 152 996 m -9 X s 160 1017 m -17 X s 152 1037 m -9 X s 152 1058 m -9 X s 152 1079 m -9 X s 160 1100 m -17 X s 160 1100 m -17 X s
 gsave  710 567 23 603 C 119.354 673.495 t 0 r /Helvetica findfont 25.6631 sf 0 0 m (0) show NC gr 
 gsave  710 567 23 603 C 119.354 758.747 t 0 r /Helvetica findfont 25.6631 sf 0 0 m (2) show NC gr 
 gsave  710 567 23 603 C 119.354 841.158 t 0 r /Helvetica findfont 25.6631 sf 0 0 m (4) show NC gr 
 gsave  710 567 23 603 C 119.354 923.569 t 0 r /Helvetica findfont 25.6631 sf 0 0 m (6) show NC gr 
 gsave  710 567 23 603 C 119.354 1005.98 t 0 r /Helvetica findfont 25.6631 sf 0 0 m (8) show NC gr 
 gsave  710 567 23 603 C 105.145 1088.39 t 0 r /Helvetica findfont 25.6631 sf 0 0 m (10) show NC gr 
 gsave  710 567 23 603 C 45.468 1023.03 t 90 r /Helvetica findfont 28.5146 sf 0 0 m (0.0125 ) show NC gr 
 gsave  710 567 23 603 C 31.2593 1020.19 t 90 r /Helvetica findfont 19.9602 sf 0 0 m ( ) show NC gr 
 gsave  710 567 23 603 C 45.468 1008.82 t 90 r /Helvetica findfont 28.5146 sf 0 0 m (/) show NC gr 
 gsave  710 567 23 603 C 53.9933 1005.98 t 90 r /Helvetica findfont 19.9602 sf 0 0 m ( ) show NC gr 
 gsave  710 567 23 603 C 45.468 900.835 t 90 r /Helvetica findfont 28.5146 sf 0 0 m (\(1/N\) dN) show NC gr  691 685 m 429 Y s 674 685 m 17 X s 683 705 m 8 X s 683 726 m 8 X s 683 747 m 8 X s 674 768 m 17 X s 683 788 m 8 X s 683 809 m 8 X s 683 830 m
 8 X s 674 851 m 17 X s 683 871 m 8 X s 683 892 m 8 X s 683 913 m 8 X s 674 934 m 17 X s 683 954 m 8 X s 683 975 m 8 X s 683 996 m 8 X s 674 1017 m 17 X s 683 1037 m 8 X s 683 1058 m 8 X s 683 1079 m 8 X s 674 1100 m 17 X s 674 1100 m 17 X s 0.490196
 0.545098 0.615686 c 0.364706 0.419608 0.490196 c 335 38 30 1130 bf 0.490196 0.545098 0.615686 c 30 1130 m 335 X s 365 1130 m 38 Y s 365 1168 m -335 X s 30 1168 m -38 Y s 1 1 1 c black 1 1 1 c
 gsave  710 567 23 603 C 34.101 1142.38 t 0 r /Helvetica-Bold findfont 28.5146 sf 0 0 m (Input variable: yy.HP_l3) show NC gr  1 0 0 c 6 lw black 3 lw 1 0 0 c 677 685 m s 663 686 m -1 -1 d s 646 685 m s 633 686 m -2 -1 d s 616 685 m s 602 685 m -1 X
 s 586 685 m s 573 687 m -2 -2 d s 559 688 m -3 -3 d s 554 698 m -13 -13 d s 543 702 m -17 -17 d s 540 714 m -29 -29 d s 540 729 m -44 -44 d s 540 745 m -59 -60 d s 540 760 m -74 -75 d s 540 775 m -90 -90 d s 540 790 m -105 -105 d s 540 805 m -120
 -120 d s 540 820 m -135 -135 d s 540 836 m -150 -151 d s 540 851 m -165 -166 d s 533 859 m -173 -174 d s 526 867 m -41 -41 d s 481 822 m -136 -137 d s 526 883 m -41 -42 d s 472 827 m -142 -142 d s 526 898 m -27 -28 d s 461 832 m -146 -147 d s 526
 913 m -27 -28 d s 458 844 m -27 -27 d s 428 814 m -128 -129 d s 515 916 m -2 -2 d s 507 908 m -8 -7 d s 458 859 m -14 -14 d s 437 838 m -6 -6 d s 417 818 m -132 -133 d s 417 833 m -137 -138 d s 276 691 m -6 -6 d s 406 837 m -126 -126 d s 267 697 m
 -12 -12 d s 403 850 m -13 -14 d s 387 834 m -93 -95 d s 290 735 m -10 -9 d s 267 712 m -28 -27 d s 392 853 m -2 -2 d s 376 837 m -82 -82 d s 267 727 m -14 -14 d s 251 712 m -27 -27 d s 376 853 m -41 -42 d s 324 800 m -30 -30 d s 255 730 m -2 -1 d s
 238 714 m -29 -29 d s 366 858 m -31 -32 d s 321 813 m -27 -28 d s 220 711 m -8 -9 d s 209 699 m -15 -14 d s 362 869 m -27 -27 d s 321 828 m -27 -28 d s 198 704 m -19 -19 d s 351 873 m -16 -16 d s 315 837 m -21 -22 d s 187 708 m -2 -3 d s 175 696 m
 -11 -11 d s 349 886 m -14 -14 d s 308 844 m -14 -13 d s 162 698 m -5 -5 d s 155 690 m -6 -5 d s 349 901 m -14 -14 d s 295 847 m -1 -1 d s 341 908 m -6 -6 d s 6 lw 143 690 m 14 X 8 Y 14 X -2 Y 14 X 12 Y 13 X -9 Y 14 X 12 Y 14 X 3 Y 13 X -2 Y 14 X 18
 Y 14 X -39 Y 13 X 44 Y 14 X 112 Y 14 X -10 Y 13 X -37 Y 14 X 108 Y 14 X -35 Y 13 X -15 Y 14 X -24 Y 14 X 19 Y 13 X -16 Y 14 X -23 Y 14 X 24 Y 13 X 22 Y 14 X -28 Y 14 X -10 Y 13 X 34 Y 14 X 52 Y 14 X 8 Y 13 X -57 Y 14 X -157 Y 14 X -14 Y 13 X -1 Y 14
 X -2 Y 41 X 1 Y 14 X -1 Y 14 X 1 Y 13 X -1 Y 28 X s black 3 lw 143 685 m 548 X s 196 698 m -13 Y s 218 691 m -6 Y s 240 691 m -6 Y s 262 691 m -6 Y s 284 691 m -6 Y s 305 698 m -13 Y s 327 691 m -6 Y s 349 691 m -6 Y s 371 691 m -6 Y s 393 691 m -6
 Y s 414 698 m -13 Y s 436 691 m -6 Y s 458 691 m -6 Y s 480 691 m -6 Y s 502 691 m -6 Y s 523 698 m -13 Y s 545 691 m -6 Y s 567 691 m -6 Y s 589 691 m -6 Y s 611 691 m -6 Y s 633 698 m -13 Y s 196 698 m -13 Y s 174 691 m -6 Y s 153 691 m -6 Y s 633
 698 m -13 Y s 654 691 m -6 Y s 676 691 m -6 Y s 143 1114 m 548 X s 196 1100 m 14 Y s 218 1107 m 7 Y s 240 1107 m 7 Y s 262 1107 m 7 Y s 284 1107 m 7 Y s 305 1100 m 14 Y s 327 1107 m 7 Y s 349 1107 m 7 Y s 371 1107 m 7 Y s 393 1107 m 7 Y s 414 1100 m
 14 Y s 436 1107 m 7 Y s 458 1107 m 7 Y s 480 1107 m 7 Y s 502 1107 m 7 Y s 523 1100 m 14 Y s 545 1107 m 7 Y s 567 1107 m 7 Y s 589 1107 m 7 Y s 611 1107 m 7 Y s 633 1100 m 14 Y s 196 1100 m 14 Y s 174 1107 m 7 Y s 153 1107 m 7 Y s 633 1100 m 14 Y s
 654 1107 m 7 Y s 676 1107 m 7 Y s 143 685 m 429 Y s 160 685 m -17 X s 152 705 m -9 X s 152 726 m -9 X s 152 747 m -9 X s 160 768 m -17 X s 152 788 m -9 X s 152 809 m -9 X s 152 830 m -9 X s 160 851 m -17 X s 152 871 m -9 X s 152 892 m -9 X s 152 913
 m -9 X s 160 934 m -17 X s 152 954 m -9 X s 152 975 m -9 X s 152 996 m -9 X s 160 1017 m -17 X s 152 1037 m -9 X s 152 1058 m -9 X s 152 1079 m -9 X s 160 1100 m -17 X s 160 1100 m -17 X s 691 685 m 429 Y s 674 685 m 17 X s 683 705 m 8 X s 683 726 m
 8 X s 683 747 m 8 X s 674 768 m 17 X s 683 788 m 8 X s 683 809 m 8 X s 683 830 m 8 X s 674 851 m 17 X s 683 871 m 8 X s 683 892 m 8 X s 683 913 m 8 X s 674 934 m 17 X s 683 954 m 8 X s 683 975 m 8 X s 683 996 m 8 X s 674 1017 m 17 X s 683 1037 m 8 X
 s 683 1058 m 8 X s 683 1079 m 8 X s 674 1100 m 17 X s 674 1100 m 17 X s
 gsave  710 567 23 603 C 719.017 682.347 t 90 r /Helvetica-Bold findfont 19.9602 sf 0 0 m (U/O\255flow \(S,B\): \(0.0, 0.0\)% / \(0.0, 0.0\)%) show NC gr  0.490196 0.545098 0.615686 c 0.364706 0.419608 0.490196 c 335 38 30 1130 bf 0.490196 0.545098
 0.615686 c 30 1130 m 335 X s 365 1130 m 38 Y s 365 1168 m -335 X s 30 1168 m -38 Y s 1 1 1 c black 1 1 1 c
 gsave  710 567 23 603 C 34.101 1142.38 t 0 r /Helvetica-Bold findfont 28.5146 sf 0 0 m (Input variable: yy.HP_l3) show NC gr  0.490196 0.545098 0.615686 c 0.941176 0.941176 0.941176 c 710 567 779 603 bf black 1 1 0.992157 c 548 429 899 685 bf black
 548 429 899 685 bl 0 0 0.933333 c 6 lw 0.49 0.6 0.82 c black 3 lw 0.49 0.6 0.82 c 899 685 m 390 Y 14 X -7 Y 14 X -31 Y 13 X -1 Y 14 X -34 Y 14 X -22 Y 13 X 29 Y 14 X -56 Y 14 X -34 Y 13 X 33 Y 14 X -66 Y 14 X 44 Y 14 X -55 Y 13 X -55 Y 14 X 47 Y 14
 X -16 Y 13 X -78 Y 14 X 133 Y 14 X -22 Y 13 X 52 Y 14 X -113 Y 14 X 13 Y 13 X -118 Y 14 X -5 Y 27 X -20 Y 14 X 6 Y 14 X 4 Y 13 X -9 Y 14 X -2 Y 14 X 7 Y 13 X -7 Y 14 X -4 Y 14 X 1 Y 13 X -3 Y 14 X 4 Y 14 X -4 Y 13 X -1 Y 42 X f 6 lw 0 0 0.933333 c
 0.49 0.6 0.82 c 0 0 0.933333 c 899 1075 m 14 X -7 Y 14 X -31 Y 13 X -1 Y 14 X -34 Y 14 X -22 Y 13 X 29 Y 14 X -56 Y 14 X -34 Y 13 X 33 Y 14 X -66 Y 14 X 44 Y 14 X -55 Y 13 X -55 Y 14 X 47 Y 14 X -16 Y 13 X -78 Y 14 X 133 Y 14 X -22 Y 13 X 52 Y 14 X
 -113 Y 14 X 13 Y 13 X -118 Y 14 X -5 Y 27 X -20 Y 14 X 6 Y 14 X 4 Y 13 X -9 Y 14 X -2 Y 14 X 7 Y 13 X -7 Y 14 X -4 Y 14 X 1 Y 13 X -3 Y 14 X 4 Y 14 X -4 Y 13 X -1 Y 42 X s black 3 lw 899 685 m 548 X s 910 698 m -13 Y s 925 691 m -6 Y s 940 691 m -6
 Y s 955 691 m -6 Y s 970 691 m -6 Y s 985 698 m -13 Y s 1000 691 m -6 Y s 1015 691 m -6 Y s 1031 691 m -6 Y s 1046 691 m -6 Y s 1061 698 m -13 Y s 1076 691 m -6 Y s 1091 691 m -6 Y s 1106 691 m -6 Y s 1121 691 m -6 Y s 1136 698 m -13 Y s 1151 691 m
 -6 Y s 1166 691 m -6 Y s 1181 691 m -6 Y s 1196 691 m -6 Y s 1211 698 m -13 Y s 1226 691 m -6 Y s 1241 691 m -6 Y s 1256 691 m -6 Y s 1271 691 m -6 Y s 1286 698 m -13 Y s 1301 691 m -6 Y s 1317 691 m -6 Y s 1332 691 m -6 Y s 1347 691 m -6 Y s 1362
 698 m -13 Y s 1377 691 m -6 Y s 1392 691 m -6 Y s 1407 691 m -6 Y s 1422 691 m -6 Y s 1437 698 m -13 Y s 910 698 m -13 Y s 1437 698 m -13 Y s
 gsave  710 567 779 603 C 897.993 656.444 t 0 r /Helvetica findfont 25.6631 sf 0 0 m (0.1) show NC gr 
 gsave  710 567 779 603 C 886.626 656.444 t 0 r /Symbol findfont 25.6631 sf 0 0 m (-) show NC gr 
 gsave  710 567 779 603 C 963.353 656.444 t 0 r /Helvetica findfont 25.6631 sf 0 0 m (0.05) show NC gr 
 gsave  710 567 779 603 C 951.986 656.444 t 0 r /Symbol findfont 25.6631 sf 0 0 m (-) show NC gr 
 gsave  710 567 779 603 C 1051.45 656.444 t 0 r /Helvetica findfont 25.6631 sf 0 0 m (0) show NC gr 
 gsave  710 567 779 603 C 1108.28 656.444 t 0 r /Helvetica findfont 25.6631 sf 0 0 m (0.05) show NC gr 
 gsave  710 567 779 603 C 1193.54 656.444 t 0 r /Helvetica findfont 25.6631 sf 0 0 m (0.1) show NC gr 
 gsave  710 567 779 603 C 1258.9 656.444 t 0 r /Helvetica findfont 25.6631 sf 0 0 m (0.15) show NC gr 
 gsave  710 567 779 603 C 1344.15 656.444 t 0 r /Helvetica findfont 25.6631 sf 0 0 m (0.2) show NC gr 
 gsave  710 567 779 603 C 1409.51 656.444 t 0 r /Helvetica findfont 25.6631 sf 0 0 m (0.25) show NC gr 
 gsave  710 567 779 603 C 1335.62 616.66 t 0 r /Helvetica findfont 28.5146 sf 0 0 m (yy.HP_l4) show NC gr  899 1114 m 548 X s 910 1100 m 14 Y s 925 1107 m 7 Y s 940 1107 m 7 Y s 955 1107 m 7 Y s 970 1107 m 7 Y s 985 1100 m 14 Y s 1000 1107 m 7 Y s
 1015 1107 m 7 Y s 1031 1107 m 7 Y s 1046 1107 m 7 Y s 1061 1100 m 14 Y s 1076 1107 m 7 Y s 1091 1107 m 7 Y s 1106 1107 m 7 Y s 1121 1107 m 7 Y s 1136 1100 m 14 Y s 1151 1107 m 7 Y s 1166 1107 m 7 Y s 1181 1107 m 7 Y s 1196 1107 m 7 Y s 1211 1100 m
 14 Y s 1226 1107 m 7 Y s 1241 1107 m 7 Y s 1256 1107 m 7 Y s 1271 1107 m 7 Y s 1286 1100 m 14 Y s 1301 1107 m 7 Y s 1317 1107 m 7 Y s 1332 1107 m 7 Y s 1347 1107 m 7 Y s 1362 1100 m 14 Y s 1377 1107 m 7 Y s 1392 1107 m 7 Y s 1407 1107 m 7 Y s 1422
 1107 m 7 Y s 1437 1100 m 14 Y s 910 1100 m 14 Y s 1437 1100 m 14 Y s 899 685 m 429 Y s 915 685 m -16 X s 907 695 m -8 X s 907 705 m -8 X s 907 715 m -8 X s 907 725 m -8 X s 915 735 m -16 X s 907 745 m -8 X s 907 755 m -8 X s 907 765 m -8 X s 907 775
 m -8 X s 915 785 m -16 X s 907 795 m -8 X s 907 805 m -8 X s 907 816 m -8 X s 907 826 m -8 X s 915 836 m -16 X s 907 846 m -8 X s 907 856 m -8 X s 907 866 m -8 X s 907 876 m -8 X s 915 886 m -16 X s 907 896 m -8 X s 907 906 m -8 X s 907 916 m -8 X s
 907 926 m -8 X s 915 936 m -16 X s 907 946 m -8 X s 907 957 m -8 X s 907 967 m -8 X s 907 977 m -8 X s 915 987 m -16 X s 907 997 m -8 X s 907 1007 m -8 X s 907 1017 m -8 X s 907 1027 m -8 X s 915 1037 m -16 X s 907 1047 m -8 X s 907 1057 m -8 X s
 907 1067 m -8 X s 907 1077 m -8 X s 915 1087 m -16 X s 915 1087 m -16 X s 907 1097 m -8 X s 907 1108 m -8 X s
 gsave  710 567 779 603 C 875.259 673.495 t 0 r /Helvetica findfont 25.6631 sf 0 0 m (0) show NC gr 
 gsave  710 567 779 603 C 878.101 724.646 t 0 r /Helvetica findfont 25.6631 sf 0 0 m (1) show NC gr 
 gsave  710 567 779 603 C 875.259 775.798 t 0 r /Helvetica findfont 25.6631 sf 0 0 m (2) show NC gr 
 gsave  710 567 779 603 C 875.259 826.949 t 0 r /Helvetica findfont 25.6631 sf 0 0 m (3) show NC gr 
 gsave  710 567 779 603 C 875.259 875.259 t 0 r /Helvetica findfont 25.6631 sf 0 0 m (4) show NC gr 
 gsave  710 567 779 603 C 875.259 926.411 t 0 r /Helvetica findfont 25.6631 sf 0 0 m (5) show NC gr 
 gsave  710 567 779 603 C 875.259 977.562 t 0 r /Helvetica findfont 25.6631 sf 0 0 m (6) show NC gr 
 gsave  710 567 779 603 C 875.259 1025.87 t 0 r /Helvetica findfont 25.6631 sf 0 0 m (7) show NC gr 
 gsave  710 567 779 603 C 875.259 1077.02 t 0 r /Helvetica findfont 25.6631 sf 0 0 m (8) show NC gr 
 gsave  710 567 779 603 C 801.374 1005.98 t 90 r /Helvetica findfont 28.5146 sf 0 0 m (0.00909 ) show NC gr 
 gsave  710 567 779 603 C 787.165 1003.14 t 90 r /Helvetica findfont 19.9602 sf 0 0 m ( ) show NC gr 
 gsave  710 567 779 603 C 801.374 991.771 t 90 r /Helvetica findfont 28.5146 sf 0 0 m (/) show NC gr 
 gsave  710 567 779 603 C 809.899 988.929 t 90 r /Helvetica findfont 19.9602 sf 0 0 m ( ) show NC gr 
 gsave  710 567 779 603 C 801.374 883.784 t 90 r /Helvetica findfont 28.5146 sf 0 0 m (\(1/N\) dN) show NC gr  1447 685 m 429 Y s 1430 685 m 17 X s 1438 695 m 9 X s 1438 705 m 9 X s 1438 715 m 9 X s 1438 725 m 9 X s 1430 735 m 17 X s 1438 745 m 9 X s
 1438 755 m 9 X s 1438 765 m 9 X s 1438 775 m 9 X s 1430 785 m 17 X s 1438 795 m 9 X s 1438 805 m 9 X s 1438 816 m 9 X s 1438 826 m 9 X s 1430 836 m 17 X s 1438 846 m 9 X s 1438 856 m 9 X s 1438 866 m 9 X s 1438 876 m 9 X s 1430 886 m 17 X s 1438 896
 m 9 X s 1438 906 m 9 X s 1438 916 m 9 X s 1438 926 m 9 X s 1430 936 m 17 X s 1438 946 m 9 X s 1438 957 m 9 X s 1438 967 m 9 X s 1438 977 m 9 X s 1430 987 m 17 X s 1438 997 m 9 X s 1438 1007 m 9 X s 1438 1017 m 9 X s 1438 1027 m 9 X s 1430 1037 m 17
 X s 1438 1047 m 9 X s 1438 1057 m 9 X s 1438 1067 m 9 X s 1438 1077 m 9 X s 1430 1087 m 17 X s 1430 1087 m 17 X s 1438 1097 m 9 X s 1438 1108 m 9 X s 0.490196 0.545098 0.615686 c 0.364706 0.419608 0.490196 c 335 38 786 1130 bf 0.490196 0.545098
 0.615686 c 786 1130 m 335 X s 1121 1130 m 38 Y s 1121 1168 m -335 X s 786 1168 m -38 Y s 1 1 1 c black 1 1 1 c
 gsave  710 567 779 603 C 790.007 1142.38 t 0 r /Helvetica-Bold findfont 28.5146 sf 0 0 m (Input variable: yy.HP_l4) show NC gr  1 0 0 c 6 lw black 3 lw 1 0 0 c 1435 687 m -3 -2 d s 1422 689 m -5 -4 d s 1405 688 m -3 -3 d s 1395 692 m -8 -7 d s 1384
 697 m -12 -12 d s 1373 701 m -16 -16 d s 1352 695 m -10 -10 d s 1337 695 m -10 -10 d s 1335 708 m -12 -12 d s 1323 696 m -11 -11 d s 1310 698 m -13 -13 d s 1298 701 m -16 -16 d s 1296 714 m -14 -14 d s 1282 700 m -15 -15 d s 1288 722 m -6 -6 d s
 1269 702 m -17 -17 d s 1269 717 m -14 -14 d s 1250 698 m -13 -13 d s 1257 721 m -2 -3 d s 1241 705 m -20 -20 d s 1235 713 m -7 -7 d s 1226 705 m -20 -20 d s 1214 707 m -23 -22 d s 1214 723 m -38 -38 d s 1207 730 m -46 -45 d s 1200 739 m -54 -54 d s
 1200 754 m -69 -69 d s 1200 770 m -84 -85 d s 1200 785 m -99 -100 d s 1200 800 m -114 -115 d s 1200 815 m -129 -130 d s 1200 830 m -144 -145 d s 1200 845 m -159 -160 d s 1200 861 m -174 -176 d s 1200 876 m -190 -191 d s 1200 891 m -205 -206 d s 1200
 906 m -13 -14 d s 1184 889 m -66 -65 d s 1113 818 m -8 -8 d s 1096 801 m -116 -116 d s 1200 921 m -13 -13 d s 1173 894 m -55 -55 d s 1091 811 m -126 -126 d s 1173 909 m -55 -55 d s 1091 826 m -141 -141 d s 1173 924 m -55 -55 d s 1085 835 m -150 -150
 d s 1173 939 m -55 -55 d s 1077 843 m -157 -158 d s 1173 955 m -55 -56 d s 1077 858 m -172 -173 d s 1171 968 m -12 -12 d s 1155 952 m -37 -37 d s 1077 873 m -178 -179 d s 1146 957 m -28 -27 d s 1077 889 m -13 -14 d s 1051 862 m -1 -1 d s 1041 852 m
 -142 -143 d s 1146 973 m -28 -28 d s 1077 904 m -13 -14 d s 1036 862 m -137 -137 d s 1146 988 m -28 -28 d s 1077 919 m -13 -14 d s 1036 878 m -137 -138 d s 1132 989 m -14 -14 d s 1024 881 m -125 -126 d s 1124 996 m -6 -5 d s 1007 878 m -108 -108 d s
 995 882 m -96 -97 d s 995 897 m -96 -97 d s 995 912 m -96 -96 d s 983 915 m -84 -84 d s 981 929 m -82 -83 d s 981 944 m -82 -83 d s 981 959 m -82 -83 d s 981 974 m -13 -14 d s 958 950 m -59 -58 d s 981 989 m -13 -13 d s 954 962 m -27 -28 d s 913 921
 m -14 -14 d s 981 1005 m -13 -14 d s 954 977 m -27 -27 d s 913 936 m -14 -14 d s 980 1019 m -12 -13 d s 954 992 m -27 -27 d s 913 951 m -14 -14 d s 954 1007 m -14 -13 d s 929 982 m -2 -2 d s 913 966 m -14 -14 d s 944 1012 m -4 -3 d s 913 981 m -14
 -14 d s 913 996 m -14 -13 d s 913 1012 m -14 -14 d s 913 1027 m -14 -14 d s 913 1042 m -14 -14 d s 908 1052 m -9 -9 d s 6 lw 899 1052 m 14 X -133 Y 14 X 63 Y 13 X 30 Y 14 X -62 Y 14 X 69 Y 13 X -104 Y 14 X -37 Y 14 X 2 Y 13 X 1 Y 14 X -29 Y 14 X 10
 Y 14 X 57 Y 13 X -84 Y 14 X -34 Y 14 X 17 Y 13 X 178 Y 14 X -8 Y 14 X -36 Y 13 X 16 Y 14 X -79 Y 14 X 32 Y 13 X -191 Y 14 X -25 Y 14 X 8 Y 13 X -15 Y 14 X 23 Y 14 X -21 Y 13 X 22 Y 14 X -21 Y 14 X -5 Y 13 X 12 Y 14 X -14 Y 14 X 1 Y 13 X 6 Y 14 X -4
 Y 14 X -5 Y 13 X -6 Y 14 X 3 Y 14 X -2 Y 14 X -2 Y s black 3 lw 899 685 m 548 X s 910 698 m -13 Y s 925 691 m -6 Y s 940 691 m -6 Y s 955 691 m -6 Y s 970 691 m -6 Y s 985 698 m -13 Y s 1000 691 m -6 Y s 1015 691 m -6 Y s 1031 691 m -6 Y s 1046 691
 m -6 Y s 1061 698 m -13 Y s 1076 691 m -6 Y s 1091 691 m -6 Y s 1106 691 m -6 Y s 1121 691 m -6 Y s 1136 698 m -13 Y s 1151 691 m -6 Y s 1166 691 m -6 Y s 1181 691 m -6 Y s 1196 691 m -6 Y s 1211 698 m -13 Y s 1226 691 m -6 Y s 1241 691 m -6 Y s
 1256 691 m -6 Y s 1271 691 m -6 Y s 1286 698 m -13 Y s 1301 691 m -6 Y s 1317 691 m -6 Y s 1332 691 m -6 Y s 1347 691 m -6 Y s 1362 698 m -13 Y s 1377 691 m -6 Y s 1392 691 m -6 Y s 1407 691 m -6 Y s 1422 691 m -6 Y s 1437 698 m -13 Y s 910 698 m
 -13 Y s 1437 698 m -13 Y s 899 1114 m 548 X s 910 1100 m 14 Y s 925 1107 m 7 Y s 940 1107 m 7 Y s 955 1107 m 7 Y s 970 1107 m 7 Y s 985 1100 m 14 Y s 1000 1107 m 7 Y s 1015 1107 m 7 Y s 1031 1107 m 7 Y s 1046 1107 m 7 Y s 1061 1100 m 14 Y s 1076
 1107 m 7 Y s 1091 1107 m 7 Y s 1106 1107 m 7 Y s 1121 1107 m 7 Y s 1136 1100 m 14 Y s 1151 1107 m 7 Y s 1166 1107 m 7 Y s 1181 1107 m 7 Y s 1196 1107 m 7 Y s 1211 1100 m 14 Y s 1226 1107 m 7 Y s 1241 1107 m 7 Y s 1256 1107 m 7 Y s 1271 1107 m 7 Y s
 1286 1100 m 14 Y s 1301 1107 m 7 Y s 1317 1107 m 7 Y s 1332 1107 m 7 Y s 1347 1107 m 7 Y s 1362 1100 m 14 Y s 1377 1107 m 7 Y s 1392 1107 m 7 Y s 1407 1107 m 7 Y s 1422 1107 m 7 Y s 1437 1100 m 14 Y s 910 1100 m 14 Y s 1437 1100 m 14 Y s 899 685 m
 429 Y s 915 685 m -16 X s 907 695 m -8 X s 907 705 m -8 X s 907 715 m -8 X s 907 725 m -8 X s 915 735 m -16 X s 907 745 m -8 X s 907 755 m -8 X s 907 765 m -8 X s 907 775 m -8 X s 915 785 m -16 X s 907 795 m -8 X s 907 805 m -8 X s 907 816 m -8 X s
 907 826 m -8 X s 915 836 m -16 X s 907 846 m -8 X s 907 856 m -8 X s 907 866 m -8 X s 907 876 m -8 X s 915 886 m -16 X s 907 896 m -8 X s 907 906 m -8 X s 907 916 m -8 X s 907 926 m -8 X s 915 936 m -16 X s 907 946 m -8 X s 907 957 m -8 X s 907 967
 m -8 X s 907 977 m -8 X s 915 987 m -16 X s 907 997 m -8 X s 907 1007 m -8 X s 907 1017 m -8 X s 907 1027 m -8 X s 915 1037 m -16 X s 907 1047 m -8 X s 907 1057 m -8 X s 907 1067 m -8 X s 907 1077 m -8 X s 915 1087 m -16 X s 915 1087 m -16 X s 907
 1097 m -8 X s 907 1108 m -8 X s 1447 685 m 429 Y s 1430 685 m 17 X s 1438 695 m 9 X s 1438 705 m 9 X s 1438 715 m 9 X s 1438 725 m 9 X s 1430 735 m 17 X s 1438 745 m 9 X s 1438 755 m 9 X s 1438 765 m 9 X s 1438 775 m 9 X s 1430 785 m 17 X s 1438 795
 m 9 X s 1438 805 m 9 X s 1438 816 m 9 X s 1438 826 m 9 X s 1430 836 m 17 X s 1438 846 m 9 X s 1438 856 m 9 X s 1438 866 m 9 X s 1438 876 m 9 X s 1430 886 m 17 X s 1438 896 m 9 X s 1438 906 m 9 X s 1438 916 m 9 X s 1438 926 m 9 X s 1430 936 m 17 X s
 1438 946 m 9 X s 1438 957 m 9 X s 1438 967 m 9 X s 1438 977 m 9 X s 1430 987 m 17 X s 1438 997 m 9 X s 1438 1007 m 9 X s 1438 1017 m 9 X s 1438 1027 m 9 X s 1430 1037 m 17 X s 1438 1047 m 9 X s 1438 1057 m 9 X s 1438 1067 m 9 X s 1438 1077 m 9 X s
 1430 1087 m 17 X s 1430 1087 m 17 X s 1438 1097 m 9 X s 1438 1108 m 9 X s
 gsave  710 567 779 603 C 1474.92 682.347 t 90 r /Helvetica-Bold findfont 19.9602 sf 0 0 m (U/O\255flow \(S,B\): \(0.0, 0.0\)% / \(0.0, 0.0\)%) show NC gr  0.490196 0.545098 0.615686 c 0.364706 0.419608 0.490196 c 335 38 786 1130 bf 0.490196 0.545098
 0.615686 c 786 1130 m 335 X s 1121 1130 m 38 Y s 1121 1168 m -335 X s 786 1168 m -38 Y s 1 1 1 c black 1 1 1 c
 gsave  710 567 779 603 C 790.007 1142.38 t 0 r /Helvetica-Bold findfont 28.5146 sf 0 0 m (Input variable: yy.HP_l4) show NC gr  0.490196 0.545098 0.615686 c 0.941176 0.941176 0.941176 c 711 567 1534 603 bf black 1 1 0.992157 c 547 429 1655 685 bf
 black 547 429 1655 685 bl 0 0 0.933333 c 6 lw 0.49 0.6 0.82 c black 3 lw 0.49 0.6 0.82 c 1655 685 m 41 X 1 Y 14 X -1 Y 96 X 134 Y 13 X 154 Y 14 X -14 Y 14 X -17 Y 13 X 60 Y 14 X -142 Y 14 X 74 Y 13 X -49 Y 14 X 96 Y 14 X -59 Y 14 X -5 Y 13 X -14 Y
 14 X 25 Y 14 X 46 Y 13 X 10 Y 14 X 41 Y 14 X -196 Y 13 X -131 Y 14 X -5 Y 14 X 1 Y 13 X 1 Y 14 X -5 Y 14 X -1 Y 27 X -3 Y 14 X 1 Y 13 X -2 Y 41 X f 6 lw 0 0 0.933333 c 0.49 0.6 0.82 c 0 0 0.933333 c 1655 685 m 41 X 1 Y 14 X -1 Y 96 X 134 Y 13 X 154
 Y 14 X -14 Y 14 X -17 Y 13 X 60 Y 14 X -142 Y 14 X 74 Y 13 X -49 Y 14 X 96 Y 14 X -59 Y 14 X -5 Y 13 X -14 Y 14 X 25 Y 14 X 46 Y 13 X 10 Y 14 X 41 Y 14 X -196 Y 13 X -131 Y 14 X -5 Y 14 X 1 Y 13 X 1 Y 14 X -5 Y 14 X -1 Y 27 X -3 Y 14 X 1 Y 13 X -2 Y
 41 X s black 3 lw 1655 685 m 547 X s 1707 698 m -13 Y s 1718 691 m -6 Y s 1730 691 m -6 Y s 1741 691 m -6 Y s 1752 691 m -6 Y s 1763 698 m -13 Y s 1775 691 m -6 Y s 1786 691 m -6 Y s 1797 691 m -6 Y s 1808 691 m -6 Y s 1819 698 m -13 Y s 1831 691 m
 -6 Y s 1842 691 m -6 Y s 1853 691 m -6 Y s 1864 691 m -6 Y s 1876 698 m -13 Y s 1887 691 m -6 Y s 1898 691 m -6 Y s 1909 691 m -6 Y s 1920 691 m -6 Y s 1932 698 m -13 Y s 1943 691 m -6 Y s 1954 691 m -6 Y s 1965 691 m -6 Y s 1977 691 m -6 Y s 1988
 698 m -13 Y s 1999 691 m -6 Y s 2010 691 m -6 Y s 2021 691 m -6 Y s 2033 691 m -6 Y s 2044 698 m -13 Y s 2055 691 m -6 Y s 2066 691 m -6 Y s 2078 691 m -6 Y s 2089 691 m -6 Y s 2100 698 m -13 Y s 2111 691 m -6 Y s 2122 691 m -6 Y s 2134 691 m -6 Y s
 2145 691 m -6 Y s 2156 698 m -13 Y s 1707 698 m -13 Y s 1696 691 m -6 Y s 1685 691 m -6 Y s 1674 691 m -6 Y s 1662 691 m -6 Y s 2156 698 m -13 Y s 2167 691 m -6 Y s 2179 691 m -6 Y s 2190 691 m -6 Y s 2201 691 m -6 Y s
 gsave  711 567 1534 603 C 1693.68 656.444 t 0 r /Helvetica findfont 25.6631 sf 0 0 m (0.2) show NC gr 
 gsave  711 567 1534 603 C 1679.47 656.444 t 0 r /Symbol findfont 25.6631 sf 0 0 m (-) show NC gr 
 gsave  711 567 1534 603 C 1741.99 656.444 t 0 r /Helvetica findfont 25.6631 sf 0 0 m (0.15) show NC gr 
 gsave  711 567 1534 603 C 1730.63 656.444 t 0 r /Symbol findfont 25.6631 sf 0 0 m (-) show NC gr 
 gsave  711 567 1534 603 C 1807.35 656.444 t 0 r /Helvetica findfont 25.6631 sf 0 0 m (0.1) show NC gr 
 gsave  711 567 1534 603 C 1795.99 656.444 t 0 r /Symbol findfont 25.6631 sf 0 0 m (-) show NC gr 
 gsave  711 567 1534 603 C 1852.82 656.444 t 0 r /Helvetica findfont 25.6631 sf 0 0 m (0.05) show NC gr 
 gsave  711 567 1534 603 C 1841.45 656.444 t 0 r /Symbol findfont 25.6631 sf 0 0 m (-) show NC gr 
 gsave  711 567 1534 603 C 1921.02 656.444 t 0 r /Helvetica findfont 25.6631 sf 0 0 m (0) show NC gr 
 gsave  711 567 1534 603 C 1960.81 656.444 t 0 r /Helvetica findfont 25.6631 sf 0 0 m (0.05) show NC gr 
 gsave  711 567 1534 603 C 2026.17 656.444 t 0 r /Helvetica findfont 25.6631 sf 0 0 m (0.1) show NC gr 
 gsave  711 567 1534 603 C 2071.64 656.444 t 0 r /Helvetica findfont 25.6631 sf 0 0 m (0.15) show NC gr 
 gsave  711 567 1534 603 C 2137 656.444 t 0 r /Helvetica findfont 25.6631 sf 0 0 m (0.2) show NC gr 
 gsave  711 567 1534 603 C 2091.53 616.66 t 0 r /Helvetica findfont 28.5146 sf 0 0 m (yy.HP_l5) show NC gr  1655 1114 m 547 X s 1707 1100 m 14 Y s 1718 1107 m 7 Y s 1730 1107 m 7 Y s 1741 1107 m 7 Y s 1752 1107 m 7 Y s 1763 1100 m 14 Y s 1775 1107 m
 7 Y s 1786 1107 m 7 Y s 1797 1107 m 7 Y s 1808 1107 m 7 Y s 1819 1100 m 14 Y s 1831 1107 m 7 Y s 1842 1107 m 7 Y s 1853 1107 m 7 Y s 1864 1107 m 7 Y s 1876 1100 m 14 Y s 1887 1107 m 7 Y s 1898 1107 m 7 Y s 1909 1107 m 7 Y s 1920 1107 m 7 Y s 1932
 1100 m 14 Y s 1943 1107 m 7 Y s 1954 1107 m 7 Y s 1965 1107 m 7 Y s 1977 1107 m 7 Y s 1988 1100 m 14 Y s 1999 1107 m 7 Y s 2010 1107 m 7 Y s 2021 1107 m 7 Y s 2033 1107 m 7 Y s 2044 1100 m 14 Y s 2055 1107 m 7 Y s 2066 1107 m 7 Y s 2078 1107 m 7 Y s
 2089 1107 m 7 Y s 2100 1100 m 14 Y s 2111 1107 m 7 Y s 2122 1107 m 7 Y s 2134 1107 m 7 Y s 2145 1107 m 7 Y s 2156 1100 m 14 Y s 1707 1100 m 14 Y s 1696 1107 m 7 Y s 1685 1107 m 7 Y s 1674 1107 m 7 Y s 1662 1107 m 7 Y s 2156 1100 m 14 Y s 2167 1107 m
 7 Y s 2179 1107 m 7 Y s 2190 1107 m 7 Y s 2201 1107 m 7 Y s 1655 685 m 429 Y s 1671 685 m -16 X s 1663 695 m -8 X s 1663 705 m -8 X s 1663 716 m -8 X s 1663 726 m -8 X s 1671 737 m -16 X s 1663 747 m -8 X s 1663 757 m -8 X s 1663 768 m -8 X s 1663
 778 m -8 X s 1671 789 m -16 X s 1663 799 m -8 X s 1663 809 m -8 X s 1663 820 m -8 X s 1663 830 m -8 X s 1671 841 m -16 X s 1663 851 m -8 X s 1663 861 m -8 X s 1663 872 m -8 X s 1663 882 m -8 X s 1671 892 m -16 X s 1663 903 m -8 X s 1663 913 m -8 X s
 1663 924 m -8 X s 1663 934 m -8 X s 1671 944 m -16 X s 1663 955 m -8 X s 1663 965 m -8 X s 1663 976 m -8 X s 1663 986 m -8 X s 1671 996 m -16 X s 1663 1007 m -8 X s 1663 1017 m -8 X s 1663 1028 m -8 X s 1663 1038 m -8 X s 1671 1048 m -16 X s 1663
 1059 m -8 X s 1663 1069 m -8 X s 1663 1080 m -8 X s 1663 1090 m -8 X s 1671 1100 m -16 X s 1671 1100 m -16 X s 1663 1111 m -8 X s
 gsave  711 567 1534 603 C 1631.16 673.495 t 0 r /Helvetica findfont 25.6631 sf 0 0 m (0) show NC gr 
 gsave  711 567 1534 603 C 1634.01 727.488 t 0 r /Helvetica findfont 25.6631 sf 0 0 m (1) show NC gr 
 gsave  711 567 1534 603 C 1631.16 778.64 t 0 r /Helvetica findfont 25.6631 sf 0 0 m (2) show NC gr 
 gsave  711 567 1534 603 C 1631.16 829.791 t 0 r /Helvetica findfont 25.6631 sf 0 0 m (3) show NC gr 
 gsave  711 567 1534 603 C 1631.16 883.784 t 0 r /Helvetica findfont 25.6631 sf 0 0 m (4) show NC gr 
 gsave  711 567 1534 603 C 1631.16 934.936 t 0 r /Helvetica findfont 25.6631 sf 0 0 m (5) show NC gr 
 gsave  711 567 1534 603 C 1631.16 986.087 t 0 r /Helvetica findfont 25.6631 sf 0 0 m (6) show NC gr 
 gsave  711 567 1534 603 C 1631.16 1037.24 t 0 r /Helvetica findfont 25.6631 sf 0 0 m (7) show NC gr 
 gsave  711 567 1534 603 C 1631.16 1091.23 t 0 r /Helvetica findfont 25.6631 sf 0 0 m (8) show NC gr 
 gsave  711 567 1534 603 C 1557.28 1023.03 t 90 r /Helvetica findfont 28.5146 sf 0 0 m (0.0122 ) show NC gr 
 gsave  711 567 1534 603 C 1543.07 1020.19 t 90 r /Helvetica findfont 19.9602 sf 0 0 m ( ) show NC gr 
 gsave  711 567 1534 603 C 1557.28 1008.82 t 90 r /Helvetica findfont 28.5146 sf 0 0 m (/) show NC gr 
 gsave  711 567 1534 603 C 1565.8 1005.98 t 90 r /Helvetica findfont 19.9602 sf 0 0 m ( ) show NC gr 
 gsave  711 567 1534 603 C 1557.28 900.835 t 90 r /Helvetica findfont 28.5146 sf 0 0 m (\(1/N\) dN) show NC gr  2202 685 m 429 Y s 2186 685 m 16 X s 2194 695 m 8 X s 2194 705 m 8 X s 2194 716 m 8 X s 2194 726 m 8 X s 2186 737 m 16 X s 2194 747 m 8 X
 s 2194 757 m 8 X s 2194 768 m 8 X s 2194 778 m 8 X s 2186 789 m 16 X s 2194 799 m 8 X s 2194 809 m 8 X s 2194 820 m 8 X s 2194 830 m 8 X s 2186 841 m 16 X s 2194 851 m 8 X s 2194 861 m 8 X s 2194 872 m 8 X s 2194 882 m 8 X s 2186 892 m 16 X s 2194
 903 m 8 X s 2194 913 m 8 X s 2194 924 m 8 X s 2194 934 m 8 X s 2186 944 m 16 X s 2194 955 m 8 X s 2194 965 m 8 X s 2194 976 m 8 X s 2194 986 m 8 X s 2186 996 m 16 X s 2194 1007 m 8 X s 2194 1017 m 8 X s 2194 1028 m 8 X s 2194 1038 m 8 X s 2186 1048
 m 16 X s 2194 1059 m 8 X s 2194 1069 m 8 X s 2194 1080 m 8 X s 2194 1090 m 8 X s 2186 1100 m 16 X s 2186 1100 m 16 X s 2194 1111 m 8 X s 0.490196 0.545098 0.615686 c 0.364706 0.419608 0.490196 c 335 38 1542 1130 bf 0.490196 0.545098 0.615686 c 1542
 1130 m 335 X s 1877 1130 m 38 Y s 1877 1168 m -335 X s 1542 1168 m -38 Y s 1 1 1 c black 1 1 1 c
 gsave  711 567 1534 603 C 1545.91 1142.38 t 0 r /Helvetica-Bold findfont 28.5146 sf 0 0 m (Input variable: yy.HP_l5) show NC gr  1 0 0 c 6 lw black 3 lw 1 0 0 c 2188 685 m s 2173 685 m s 2158 685 m s 2143 685 m s 2130 686 m -2 -1 d s 2113 685 m s
 2098 685 m s 2085 686 m -2 -1 d s 2068 685 m s 2053 685 m s 2052 699 m -14 -14 d s 2052 714 m -29 -29 d s 2052 729 m -44 -44 d s 2052 745 m -60 -60 d s 2052 760 m -75 -75 d s 2052 775 m -90 -90 d s 2052 790 m -105 -105 d s 2052 805 m -120 -120 d s
 2052 820 m -135 -135 d s 2052 836 m -150 -151 d s 2052 851 m -165 -166 d s 2052 866 m -180 -181 d s 2041 870 m -3 -3 d s 2035 865 m -178 -180 d s 2025 869 m -183 -184 d s 2025 884 m -198 -199 d s 2025 899 m -213 -214 d s 2025 914 m -229 -229 d s
 2025 930 m -219 -221 d s 1804 707 m -12 -12 d s 1790 693 m -9 -8 d s 2025 945 m -41 -42 d s 1960 879 m -45 -44 d s 1913 832 m -107 -108 d s 1778 697 m -12 -12 d s 2025 960 m -41 -41 d s 1956 891 m -41 -41 d s 1901 836 m -68 -69 d s 1829 763 m -23
 -24 d s 1772 706 m -7 -8 d s 1757 690 m -6 -5 d s 2023 973 m -39 -39 d s 1956 906 m -13 -14 d s 1936 886 m -21 -21 d s 1901 851 m -68 -69 d s 1807 756 m -1 -1 d s 1747 696 m -11 -11 d s 2011 977 m -14 -14 d s 1997 963 m -13 -14 d s 1923 888 m -8 -8
 d s 1901 866 m -68 -69 d s 1725 688 m -4 -3 d s 2011 992 m -14 -14 d s 1901 881 m -68 -68 d s 1715 693 m -9 -8 d s 2011 1007 m -14 -14 d s 1901 897 m -68 -69 d s 1707 701 m -11 -11 d s 1693 686 m -2 -1 d s 2011 1022 m -14 -14 d s 1901 912 m -68 -69
 d s 1677 686 m -1 -1 d s 2001 1027 m -4 -4 d s 1901 927 m -68 -69 d s 1667 690 m -6 -5 d s 1901 942 m -68 -69 d s 1901 957 m -68 -68 d s 1901 973 m -13 -14 d s 1887 958 m -54 -54 d s 1901 988 m -13 -14 d s 1874 960 m -41 -41 d s 1901 1003 m -13 -14
 d s 1874 975 m -27 -27 d s 1840 941 m -7 -7 d s 1901 1018 m -13 -14 d s 1874 991 m -14 -14 d s 1855 971 m -8 -8 d s 1901 1033 m -13 -13 d s 1874 1006 m -14 -14 d s 1901 1048 m -13 -13 d s 1874 1021 m -14 -14 d s 1901 1064 m -13 -14 d s 1871 1033 m
 -11 -11 d s 1897 1075 m -9 -10 d s 6 lw 1655 690 m 14 X -4 Y 27 X 15 Y 14 X -8 Y 14 X -5 Y 13 X 8 Y 14 X -6 Y 14 X 16 Y 13 X -13 Y 14 X 14 Y 14 X 49 Y 13 X 7 Y 14 X 178 Y 14 X 30 Y 13 X 62 Y 14 X -75 Y 14 X 117 Y 13 X -243 Y 14 X 56 Y 14 X -2 Y 14 X
 20 Y 13 X -27 Y 14 X 10 Y 14 X 74 Y 13 X 64 Y 14 X -54 Y 14 X -108 Y 13 X 5 Y 14 X -185 Y 27 X 1 Y 14 X -1 Y 27 X 1 Y 14 X -1 Y 68 X s black 3 lw 1655 685 m 547 X s 1707 698 m -13 Y s 1718 691 m -6 Y s 1730 691 m -6 Y s 1741 691 m -6 Y s 1752 691 m
 -6 Y s 1763 698 m -13 Y s 1775 691 m -6 Y s 1786 691 m -6 Y s 1797 691 m -6 Y s 1808 691 m -6 Y s 1819 698 m -13 Y s 1831 691 m -6 Y s 1842 691 m -6 Y s 1853 691 m -6 Y s 1864 691 m -6 Y s 1876 698 m -13 Y s 1887 691 m -6 Y s 1898 691 m -6 Y s 1909
 691 m -6 Y s 1920 691 m -6 Y s 1932 698 m -13 Y s 1943 691 m -6 Y s 1954 691 m -6 Y s 1965 691 m -6 Y s 1977 691 m -6 Y s 1988 698 m -13 Y s 1999 691 m -6 Y s 2010 691 m -6 Y s 2021 691 m -6 Y s 2033 691 m -6 Y s 2044 698 m -13 Y s 2055 691 m -6 Y s
 2066 691 m -6 Y s 2078 691 m -6 Y s 2089 691 m -6 Y s 2100 698 m -13 Y s 2111 691 m -6 Y s 2122 691 m -6 Y s 2134 691 m -6 Y s 2145 691 m -6 Y s 2156 698 m -13 Y s 1707 698 m -13 Y s 1696 691 m -6 Y s 1685 691 m -6 Y s 1674 691 m -6 Y s 1662 691 m
 -6 Y s 2156 698 m -13 Y s 2167 691 m -6 Y s 2179 691 m -6 Y s 2190 691 m -6 Y s 2201 691 m -6 Y s 1655 1114 m 547 X s 1707 1100 m 14 Y s 1718 1107 m 7 Y s 1730 1107 m 7 Y s 1741 1107 m 7 Y s 1752 1107 m 7 Y s 1763 1100 m 14 Y s 1775 1107 m 7 Y s
 1786 1107 m 7 Y s 1797 1107 m 7 Y s 1808 1107 m 7 Y s 1819 1100 m 14 Y s 1831 1107 m 7 Y s 1842 1107 m 7 Y s 1853 1107 m 7 Y s 1864 1107 m 7 Y s 1876 1100 m 14 Y s 1887 1107 m 7 Y s 1898 1107 m 7 Y s 1909 1107 m 7 Y s 1920 1107 m 7 Y s 1932 1100 m
 14 Y s 1943 1107 m 7 Y s 1954 1107 m 7 Y s 1965 1107 m 7 Y s 1977 1107 m 7 Y s 1988 1100 m 14 Y s 1999 1107 m 7 Y s 2010 1107 m 7 Y s 2021 1107 m 7 Y s 2033 1107 m 7 Y s 2044 1100 m 14 Y s 2055 1107 m 7 Y s 2066 1107 m 7 Y s 2078 1107 m 7 Y s 2089
 1107 m 7 Y s 2100 1100 m 14 Y s 2111 1107 m 7 Y s 2122 1107 m 7 Y s 2134 1107 m 7 Y s 2145 1107 m 7 Y s 2156 1100 m 14 Y s 1707 1100 m 14 Y s 1696 1107 m 7 Y s 1685 1107 m 7 Y s 1674 1107 m 7 Y s 1662 1107 m 7 Y s 2156 1100 m 14 Y s 2167 1107 m 7 Y
 s 2179 1107 m 7 Y s 2190 1107 m 7 Y s 2201 1107 m 7 Y s 1655 685 m 429 Y s 1671 685 m -16 X s 1663 695 m -8 X s 1663 705 m -8 X s 1663 716 m -8 X s 1663 726 m -8 X s 1671 737 m -16 X s 1663 747 m -8 X s 1663 757 m -8 X s 1663 768 m -8 X s 1663 778 m
 -8 X s 1671 789 m -16 X s 1663 799 m -8 X s 1663 809 m -8 X s 1663 820 m -8 X s 1663 830 m -8 X s 1671 841 m -16 X s 1663 851 m -8 X s 1663 861 m -8 X s 1663 872 m -8 X s 1663 882 m -8 X s 1671 892 m -16 X s 1663 903 m -8 X s 1663 913 m -8 X s 1663
 924 m -8 X s 1663 934 m -8 X s 1671 944 m -16 X s 1663 955 m -8 X s 1663 965 m -8 X s 1663 976 m -8 X s 1663 986 m -8 X s 1671 996 m -16 X s 1663 1007 m -8 X s 1663 1017 m -8 X s 1663 1028 m -8 X s 1663 1038 m -8 X s 1671 1048 m -16 X s 1663 1059 m
 -8 X s 1663 1069 m -8 X s 1663 1080 m -8 X s 1663 1090 m -8 X s 1671 1100 m -16 X s 1671 1100 m -16 X s 1663 1111 m -8 X s 2202 685 m 429 Y s 2186 685 m 16 X s 2194 695 m 8 X s 2194 705 m 8 X s 2194 716 m 8 X s 2194 726 m 8 X s 2186 737 m 16 X s
 2194 747 m 8 X s 2194 757 m 8 X s 2194 768 m 8 X s 2194 778 m 8 X s 2186 789 m 16 X s 2194 799 m 8 X s 2194 809 m 8 X s 2194 820 m 8 X s 2194 830 m 8 X s 2186 841 m 16 X s 2194 851 m 8 X s 2194 861 m 8 X s 2194 872 m 8 X s 2194 882 m 8 X s 2186 892
 m 16 X s 2194 903 m 8 X s 2194 913 m 8 X s 2194 924 m 8 X s 2194 934 m 8 X s 2186 944 m 16 X s 2194 955 m 8 X s 2194 965 m 8 X s 2194 976 m 8 X s 2194 986 m 8 X s 2186 996 m 16 X s 2194 1007 m 8 X s 2194 1017 m 8 X s 2194 1028 m 8 X s 2194 1038 m 8
 X s 2186 1048 m 16 X s 2194 1059 m 8 X s 2194 1069 m 8 X s 2194 1080 m 8 X s 2194 1090 m 8 X s 2186 1100 m 16 X s 2186 1100 m 16 X s 2194 1111 m 8 X s
 gsave  711 567 1534 603 C 2230.83 682.347 t 90 r /Helvetica-Bold findfont 19.9602 sf 0 0 m (U/O\255flow \(S,B\): \(0.0, 0.0\)% / \(0.0, 0.0\)%) show NC gr  0.490196 0.545098 0.615686 c 0.364706 0.419608 0.490196 c 335 38 1542 1130 bf 0.490196
 0.545098 0.615686 c 1542 1130 m 335 X s 1877 1130 m 38 Y s 1877 1168 m -335 X s 1542 1168 m -38 Y s 1 1 1 c black 1 1 1 c
 gsave  711 567 1534 603 C 1545.91 1142.38 t 0 r /Helvetica-Bold findfont 28.5146 sf 0 0 m (Input variable: yy.HP_l5) show NC gr  0.490196 0.545098 0.615686 c 0.941176 0.941176 0.941176 c 710 567 23 12 bf black 1 1 0.992157 c 548 429 143 94 bf black
 548 429 143 94 bl 0 0 0.933333 c 6 lw 0.49 0.6 0.82 c black 3 lw 0.49 0.6 0.82 c 143 94 m 28 X 13 Y 14 X -12 Y 13 X 2 Y 14 X 6 Y 14 X 17 Y 13 X -19 Y 14 X 1 Y 27 X 20 Y 14 X -9 Y 14 X -2 Y 13 X 28 Y 14 X 2 Y 14 X -13 Y 13 X 10 Y 14 X 20 Y 14 X 1 Y
 13 X 68 Y 14 X -8 Y 14 X 55 Y 13 X 78 Y 14 X -23 Y 14 X 76 Y 13 X 24 Y 14 X -73 Y 14 X 54 Y 13 X -37 Y 14 X 111 Y 14 X -73 Y 13 X -29 Y 14 X 33 Y 14 X -20 Y 14 X 15 Y 13 X -54 Y 14 X -77 Y 14 X -56 Y 13 X -94 Y 14 X -35 Y 14 X f 6 lw 0 0 0.933333 c
 0.49 0.6 0.82 c 0 0 0.933333 c 143 94 m 28 X 13 Y 14 X -12 Y 13 X 2 Y 14 X 6 Y 14 X 17 Y 13 X -19 Y 14 X 1 Y 27 X 20 Y 14 X -9 Y 14 X -2 Y 13 X 28 Y 14 X 2 Y 14 X -13 Y 13 X 10 Y 14 X 20 Y 14 X 1 Y 13 X 68 Y 14 X -8 Y 14 X 55 Y 13 X 78 Y 14 X -23 Y
 14 X 76 Y 13 X 24 Y 14 X -73 Y 14 X 54 Y 13 X -37 Y 14 X 111 Y 14 X -73 Y 13 X -29 Y 14 X 33 Y 14 X -20 Y 14 X 15 Y 13 X -54 Y 14 X -77 Y 14 X -56 Y 13 X -94 Y 14 X -35 Y 14 X s black 3 lw 143 94 m 548 X s 197 107 m -13 Y s 218 100 m -6 Y s 240 100
 m -6 Y s 261 100 m -6 Y s 283 100 m -6 Y s 304 107 m -13 Y s 325 100 m -6 Y s 347 100 m -6 Y s 368 100 m -6 Y s 390 100 m -6 Y s 411 107 m -13 Y s 433 100 m -6 Y s 454 100 m -6 Y s 476 100 m -6 Y s 497 100 m -6 Y s 518 107 m -13 Y s 540 100 m -6 Y s
 561 100 m -6 Y s 583 100 m -6 Y s 604 100 m -6 Y s 626 107 m -13 Y s 197 107 m -13 Y s 175 100 m -6 Y s 154 100 m -6 Y s 626 107 m -13 Y s 647 100 m -6 Y s 669 100 m -6 Y s 690 100 m -6 Y s
 gsave  710 567 23 12 C 184.714 65.3603 t 0 r /Helvetica findfont 25.6631 sf 0 0 m (0.2) show NC gr 
 gsave  710 567 23 12 C 170.505 65.3603 t 0 r /Symbol findfont 25.6631 sf 0 0 m (-) show NC gr 
 gsave  710 567 23 12 C 289.858 65.3603 t 0 r /Helvetica findfont 25.6631 sf 0 0 m (0.1) show NC gr 
 gsave  710 567 23 12 C 278.492 65.3603 t 0 r /Symbol findfont 25.6631 sf 0 0 m (-) show NC gr 
 gsave  710 567 23 12 C 400.687 65.3603 t 0 r /Helvetica findfont 25.6631 sf 0 0 m (0) show NC gr 
 gsave  710 567 23 12 C 500.148 65.3603 t 0 r /Helvetica findfont 25.6631 sf 0 0 m (0.1) show NC gr 
 gsave  710 567 23 12 C 608.135 65.3603 t 0 r /Helvetica findfont 25.6631 sf 0 0 m (0.2) show NC gr 
 gsave  710 567 23 12 C 579.717 22.734 t 0 r /Helvetica findfont 28.5146 sf 0 0 m (bb.HP_l1) show NC gr  143 523 m 548 X s 197 509 m 14 Y s 218 516 m 7 Y s 240 516 m 7 Y s 261 516 m 7 Y s 283 516 m 7 Y s 304 509 m 14 Y s 325 516 m 7 Y s 347 516 m 7 Y
 s 368 516 m 7 Y s 390 516 m 7 Y s 411 509 m 14 Y s 433 516 m 7 Y s 454 516 m 7 Y s 476 516 m 7 Y s 497 516 m 7 Y s 518 509 m 14 Y s 540 516 m 7 Y s 561 516 m 7 Y s 583 516 m 7 Y s 604 516 m 7 Y s 626 509 m 14 Y s 197 509 m 14 Y s 175 516 m 7 Y s 154
 516 m 7 Y s 626 509 m 14 Y s 647 516 m 7 Y s 669 516 m 7 Y s 690 516 m 7 Y s 143 94 m 429 Y s 160 94 m -17 X s 152 107 m -9 X s 152 121 m -9 X s 152 135 m -9 X s 152 149 m -9 X s 160 163 m -17 X s 152 177 m -9 X s 152 191 m -9 X s 152 204 m -9 X s
 152 218 m -9 X s 160 232 m -17 X s 152 246 m -9 X s 152 260 m -9 X s 152 274 m -9 X s 152 288 m -9 X s 160 301 m -17 X s 152 315 m -9 X s 152 329 m -9 X s 152 343 m -9 X s 152 357 m -9 X s 160 371 m -17 X s 152 385 m -9 X s 152 398 m -9 X s 152 412
 m -9 X s 152 426 m -9 X s 160 440 m -17 X s 152 454 m -9 X s 152 468 m -9 X s 152 482 m -9 X s 152 495 m -9 X s 160 509 m -17 X s 160 509 m -17 X s
 gsave  710 567 23 12 C 119.354 82.4108 t 0 r /Helvetica findfont 25.6631 sf 0 0 m (0) show NC gr 
 gsave  710 567 23 12 C 122.195 153.455 t 0 r /Helvetica findfont 25.6631 sf 0 0 m (1) show NC gr 
 gsave  710 567 23 12 C 119.354 221.657 t 0 r /Helvetica findfont 25.6631 sf 0 0 m (2) show NC gr 
 gsave  710 567 23 12 C 119.354 292.7 t 0 r /Helvetica findfont 25.6631 sf 0 0 m (3) show NC gr 
 gsave  710 567 23 12 C 119.354 360.902 t 0 r /Helvetica findfont 25.6631 sf 0 0 m (4) show NC gr 
 gsave  710 567 23 12 C 119.354 429.104 t 0 r /Helvetica findfont 25.6631 sf 0 0 m (5) show NC gr 
 gsave  710 567 23 12 C 119.354 500.148 t 0 r /Helvetica findfont 25.6631 sf 0 0 m (6) show NC gr 
 gsave  710 567 23 12 C 45.468 431.946 t 90 r /Helvetica findfont 28.5146 sf 0 0 m (0.0128 ) show NC gr 
 gsave  710 567 23 12 C 31.2593 429.104 t 90 r /Helvetica findfont 19.9602 sf 0 0 m ( ) show NC gr 
 gsave  710 567 23 12 C 45.468 417.737 t 90 r /Helvetica findfont 28.5146 sf 0 0 m (/) show NC gr 
 gsave  710 567 23 12 C 53.9933 414.896 t 90 r /Helvetica findfont 19.9602 sf 0 0 m ( ) show NC gr 
 gsave  710 567 23 12 C 45.468 309.751 t 90 r /Helvetica findfont 28.5146 sf 0 0 m (\(1/N\) dN) show NC gr  691 94 m 429 Y s 674 94 m 17 X s 683 107 m 8 X s 683 121 m 8 X s 683 135 m 8 X s 683 149 m 8 X s 674 163 m 17 X s 683 177 m 8 X s 683 191 m 8
 X s 683 204 m 8 X s 683 218 m 8 X s 674 232 m 17 X s 683 246 m 8 X s 683 260 m 8 X s 683 274 m 8 X s 683 288 m 8 X s 674 301 m 17 X s 683 315 m 8 X s 683 329 m 8 X s 683 343 m 8 X s 683 357 m 8 X s 674 371 m 17 X s 683 385 m 8 X s 683 398 m 8 X s
 683 412 m 8 X s 683 426 m 8 X s 674 440 m 17 X s 683 454 m 8 X s 683 468 m 8 X s 683 482 m 8 X s 683 495 m 8 X s 674 509 m 17 X s 674 509 m 17 X s 0.490196 0.545098 0.615686 c 0.364706 0.419608 0.490196 c 335 37 30 539 bf 0.490196 0.545098 0.615686
 c 30 539 m 335 X s 365 539 m 37 Y s 365 576 m -335 X s 30 576 m -37 Y s 1 1 1 c black 1 1 1 c
 gsave  710 567 23 12 C 34.101 551.299 t 0 r /Helvetica-Bold findfont 28.5146 sf 0 0 m (Input variable: bb.HP_l1) show NC gr  1 0 0 c 6 lw black 3 lw 1 0 0 c 677 94 m s 663 95 m -1 -1 d s 663 110 m -17 -16 d s 654 116 m -23 -22 d s 650 127 m -34 -33
 d s 650 142 m -49 -48 d s 638 146 m -2 -2 d s 627 134 m -41 -40 d s 622 145 m -51 -51 d s 622 160 m -66 -66 d s 622 175 m -81 -81 d s 609 177 m -83 -83 d s 602 185 m -35 -34 d s 566 149 m -55 -55 d s 595 193 m -28 -27 d s 554 152 m -58 -58 d s 595
 209 m -28 -28 d s 554 167 m -73 -73 d s 595 224 m -28 -28 d s 554 182 m -88 -88 d s 595 239 m -28 -28 d s 554 198 m -104 -104 d s 595 254 m -28 -27 d s 545 204 m -110 -110 d s 595 269 m -14 -13 d s 540 214 m -120 -120 d s 595 284 m -14 -13 d s 540
 229 m -135 -135 d s 595 300 m -14 -14 d s 527 231 m -137 -137 d s 595 315 m -14 -14 d s 526 246 m -27 -28 d s 495 214 m -120 -120 d s 595 330 m -14 -14 d s 526 261 m -27 -27 d s 485 220 m -125 -126 d s 518 268 m -5 -5 d s 512 262 m -13 -13 d s 485
 235 m -41 -41 d s 435 184 m -90 -90 d s 485 250 m -13 -14 d s 469 234 m -25 -25 d s 431 195 m -101 -101 d s 485 265 m -13 -13 d s 457 237 m -13 -13 d s 431 210 m -116 -116 d s 485 281 m -13 -14 d s 431 225 m -131 -131 d s 485 296 m -13 -14 d s 431
 241 m -146 -147 d s 485 311 m -13 -14 d s 431 256 m -161 -162 d s 474 314 m -2 -2 d s 427 267 m -172 -173 d s 417 272 m -178 -178 d s 409 279 m -185 -185 d s 403 289 m -27 -28 d s 372 258 m -163 -164 d s 403 304 m -27 -27 d s 362 263 m -168 -169 d s
 390 306 m -14 -14 d s 350 266 m -171 -172 d s 387 318 m -11 -11 d s 349 279 m -14 -13 d s 321 252 m -157 -158 d s 349 295 m -14 -14 d s 321 267 m -13 -14 d s 301 246 m -48 -48 d s 250 195 m -101 -101 d s 349 310 m -14 -14 d s 321 282 m -13 -14 d s
 294 255 m -41 -42 d s 239 200 m -96 -97 d s 349 325 m -14 -14 d s 321 297 m -13 -13 d s 294 270 m -41 -41 d s 234 209 m -91 -91 d s 349 340 m -14 -14 d s 313 304 m -5 -5 d s 294 285 m -41 -41 d s 222 213 m -37 -38 d s 182 172 m -25 -25 d s 149 140 m
 -6 -7 d s 349 355 m -14 -13 d s 294 300 m -41 -41 d s 212 218 m -14 -14 d s 198 203 m -13 -13 d s 168 174 m -11 -12 d s 349 371 m -14 -14 d s 294 315 m -27 -27 d s 257 278 m -4 -4 d s 212 233 m -14 -14 d s 349 386 m -14 -14 d s 281 317 m -1 X s 274
 310 m -7 -7 d s 212 248 m -14 -14 d s 212 263 m -14 -14 d s 202 269 m -4 -4 d s 6 lw 143 140 m 14 X 34 Y 14 X -2 Y 14 X 31 Y 13 X 66 Y 14 X -56 Y 14 X -4 Y 13 X -14 Y 14 X 83 Y 14 X 32 Y 13 X 7 Y 14 X -71 Y 14 X 58 Y 13 X -53 Y 14 X 136 Y 14 X -121
 Y 13 X -8 Y 14 X 60 Y 14 X -14 Y 13 X -25 Y 14 X -12 Y 14 X -83 Y 13 X 53 Y 14 X -3 Y 14 X 80 Y 13 X -100 Y 14 X 48 Y 14 X 6 Y 13 X -37 Y 14 X -27 Y 14 X -55 Y 13 X 91 Y 14 X 90 Y 14 X -145 Y 14 X -10 Y 13 X -41 Y 14 X 12 Y 14 X -30 Y 13 X -21 Y 14
 X -1 Y 14 X s black 3 lw 143 94 m 548 X s 197 107 m -13 Y s 218 100 m -6 Y s 240 100 m -6 Y s 261 100 m -6 Y s 283 100 m -6 Y s 304 107 m -13 Y s 325 100 m -6 Y s 347 100 m -6 Y s 368 100 m -6 Y s 390 100 m -6 Y s 411 107 m -13 Y s 433 100 m -6 Y s
 454 100 m -6 Y s 476 100 m -6 Y s 497 100 m -6 Y s 518 107 m -13 Y s 540 100 m -6 Y s 561 100 m -6 Y s 583 100 m -6 Y s 604 100 m -6 Y s 626 107 m -13 Y s 197 107 m -13 Y s 175 100 m -6 Y s 154 100 m -6 Y s 626 107 m -13 Y s 647 100 m -6 Y s 669 100
 m -6 Y s 690 100 m -6 Y s 143 523 m 548 X s 197 509 m 14 Y s 218 516 m 7 Y s 240 516 m 7 Y s 261 516 m 7 Y s 283 516 m 7 Y s 304 509 m 14 Y s 325 516 m 7 Y s 347 516 m 7 Y s 368 516 m 7 Y s 390 516 m 7 Y s 411 509 m 14 Y s 433 516 m 7 Y s 454 516 m
 7 Y s 476 516 m 7 Y s 497 516 m 7 Y s 518 509 m 14 Y s 540 516 m 7 Y s 561 516 m 7 Y s 583 516 m 7 Y s 604 516 m 7 Y s 626 509 m 14 Y s 197 509 m 14 Y s 175 516 m 7 Y s 154 516 m 7 Y s 626 509 m 14 Y s 647 516 m 7 Y s 669 516 m 7 Y s 690 516 m 7 Y s
 143 94 m 429 Y s 160 94 m -17 X s 152 107 m -9 X s 152 121 m -9 X s 152 135 m -9 X s 152 149 m -9 X s 160 163 m -17 X s 152 177 m -9 X s 152 191 m -9 X s 152 204 m -9 X s 152 218 m -9 X s 160 232 m -17 X s 152 246 m -9 X s 152 260 m -9 X s 152 274 m
 -9 X s 152 288 m -9 X s 160 301 m -17 X s 152 315 m -9 X s 152 329 m -9 X s 152 343 m -9 X s 152 357 m -9 X s 160 371 m -17 X s 152 385 m -9 X s 152 398 m -9 X s 152 412 m -9 X s 152 426 m -9 X s 160 440 m -17 X s 152 454 m -9 X s 152 468 m -9 X s
 152 482 m -9 X s 152 495 m -9 X s 160 509 m -17 X s 160 509 m -17 X s 691 94 m 429 Y s 674 94 m 17 X s 683 107 m 8 X s 683 121 m 8 X s 683 135 m 8 X s 683 149 m 8 X s 674 163 m 17 X s 683 177 m 8 X s 683 191 m 8 X s 683 204 m 8 X s 683 218 m 8 X s
 674 232 m 17 X s 683 246 m 8 X s 683 260 m 8 X s 683 274 m 8 X s 683 288 m 8 X s 674 301 m 17 X s 683 315 m 8 X s 683 329 m 8 X s 683 343 m 8 X s 683 357 m 8 X s 674 371 m 17 X s 683 385 m 8 X s 683 398 m 8 X s 683 412 m 8 X s 683 426 m 8 X s 674
 440 m 17 X s 683 454 m 8 X s 683 468 m 8 X s 683 482 m 8 X s 683 495 m 8 X s 674 509 m 17 X s 674 509 m 17 X s
 gsave  710 567 23 12 C 719.017 91.2634 t 90 r /Helvetica-Bold findfont 19.9602 sf 0 0 m (U/O\255flow \(S,B\): \(0.0, 0.0\)% / \(0.0, 0.0\)%) show NC gr  0.490196 0.545098 0.615686 c 0.364706 0.419608 0.490196 c 335 37 30 539 bf 0.490196 0.545098
 0.615686 c 30 539 m 335 X s 365 539 m 37 Y s 365 576 m -335 X s 30 576 m -37 Y s 1 1 1 c black 1 1 1 c
 gsave  710 567 23 12 C 34.101 551.299 t 0 r /Helvetica-Bold findfont 28.5146 sf 0 0 m (Input variable: bb.HP_l1) show NC gr  0.490196 0.545098 0.615686 c 0.941176 0.941176 0.941176 c 710 567 779 12 bf black 1 1 0.992157 c 548 429 899 94 bf black 548
 429 899 94 bl 0 0 0.933333 c 6 lw 0.49 0.6 0.82 c black 3 lw 0.49 0.6 0.82 c 899 94 m 150 Y 14 X 34 Y 14 X -25 Y 13 X 69 Y 14 X -52 Y 14 X 61 Y 13 X -25 Y 14 X 21 Y 14 X -45 Y 13 X 61 Y 14 X -106 Y 14 X 52 Y 14 X -7 Y 13 X 8 Y 14 X -19 Y 14 X 48 Y
 13 X -60 Y 14 X 19 Y 14 X -19 Y 13 X 1 Y 14 X -37 Y 14 X 73 Y 13 X -35 Y 14 X -31 Y 14 X -90 Y 13 X 91 Y 14 X -40 Y 14 X 7 Y 13 X -9 Y 14 X 4 Y 14 X -27 Y 13 X 26 Y 14 X -35 Y 14 X -7 Y 13 X -7 Y 14 X -14 Y 14 X -17 Y 13 X -12 Y 14 X -5 Y 14 X -1 Y
 14 X f 6 lw 0 0 0.933333 c 0.49 0.6 0.82 c 0 0 0.933333 c 899 244 m 14 X 34 Y 14 X -25 Y 13 X 69 Y 14 X -52 Y 14 X 61 Y 13 X -25 Y 14 X 21 Y 14 X -45 Y 13 X 61 Y 14 X -106 Y 14 X 52 Y 14 X -7 Y 13 X 8 Y 14 X -19 Y 14 X 48 Y 13 X -60 Y 14 X 19 Y 14 X
 -19 Y 13 X 1 Y 14 X -37 Y 14 X 73 Y 13 X -35 Y 14 X -31 Y 14 X -90 Y 13 X 91 Y 14 X -40 Y 14 X 7 Y 13 X -9 Y 14 X 4 Y 14 X -27 Y 13 X 26 Y 14 X -35 Y 14 X -7 Y 13 X -7 Y 14 X -14 Y 14 X -17 Y 13 X -12 Y 14 X -5 Y 14 X -1 Y 14 X s black 3 lw 899 94 m
 548 X s 935 107 m -13 Y s 949 100 m -6 Y s 964 100 m -6 Y s 978 100 m -6 Y s 992 100 m -6 Y s 1006 107 m -13 Y s 1021 100 m -6 Y s 1035 100 m -6 Y s 1049 100 m -6 Y s 1063 100 m -6 Y s 1078 107 m -13 Y s 1092 100 m -6 Y s 1106 100 m -6 Y s 1120 100
 m -6 Y s 1135 100 m -6 Y s 1149 107 m -13 Y s 1163 100 m -6 Y s 1177 100 m -6 Y s 1192 100 m -6 Y s 1206 100 m -6 Y s 1220 107 m -13 Y s 1234 100 m -6 Y s 1249 100 m -6 Y s 1263 100 m -6 Y s 1277 100 m -6 Y s 1291 107 m -13 Y s 1306 100 m -6 Y s
 1320 100 m -6 Y s 1334 100 m -6 Y s 1348 100 m -6 Y s 1363 107 m -13 Y s 1377 100 m -6 Y s 1391 100 m -6 Y s 1405 100 m -6 Y s 1420 100 m -6 Y s 1434 107 m -13 Y s 935 107 m -13 Y s 921 100 m -6 Y s 906 100 m -6 Y s 1434 107 m -13 Y s
 gsave  710 567 779 12 C 923.569 65.3603 t 0 r /Helvetica findfont 25.6631 sf 0 0 m (0.1) show NC gr 
 gsave  710 567 779 12 C 912.202 65.3603 t 0 r /Symbol findfont 25.6631 sf 0 0 m (-) show NC gr 
 gsave  710 567 779 12 C 986.087 65.3603 t 0 r /Helvetica findfont 25.6631 sf 0 0 m (0.05) show NC gr 
 gsave  710 567 779 12 C 974.72 65.3603 t 0 r /Symbol findfont 25.6631 sf 0 0 m (-) show NC gr 
 gsave  710 567 779 12 C 1068.5 65.3603 t 0 r /Helvetica findfont 25.6631 sf 0 0 m (0) show NC gr 
 gsave  710 567 779 12 C 1122.49 65.3603 t 0 r /Helvetica findfont 25.6631 sf 0 0 m (0.05) show NC gr 
 gsave  710 567 779 12 C 1202.06 65.3603 t 0 r /Helvetica findfont 25.6631 sf 0 0 m (0.1) show NC gr 
 gsave  710 567 779 12 C 1264.58 65.3603 t 0 r /Helvetica findfont 25.6631 sf 0 0 m (0.15) show NC gr 
 gsave  710 567 779 12 C 1344.15 65.3603 t 0 r /Helvetica findfont 25.6631 sf 0 0 m (0.2) show NC gr 
 gsave  710 567 779 12 C 1406.67 65.3603 t 0 r /Helvetica findfont 25.6631 sf 0 0 m (0.25) show NC gr 
 gsave  710 567 779 12 C 1329.94 22.734 t 0 r /Helvetica findfont 28.5146 sf 0 0 m (bb.HP_l2) show NC gr  899 523 m 548 X s 935 509 m 14 Y s 949 516 m 7 Y s 964 516 m 7 Y s 978 516 m 7 Y s 992 516 m 7 Y s 1006 509 m 14 Y s 1021 516 m 7 Y s 1035 516 m
 7 Y s 1049 516 m 7 Y s 1063 516 m 7 Y s 1078 509 m 14 Y s 1092 516 m 7 Y s 1106 516 m 7 Y s 1120 516 m 7 Y s 1135 516 m 7 Y s 1149 509 m 14 Y s 1163 516 m 7 Y s 1177 516 m 7 Y s 1192 516 m 7 Y s 1206 516 m 7 Y s 1220 509 m 14 Y s 1234 516 m 7 Y s
 1249 516 m 7 Y s 1263 516 m 7 Y s 1277 516 m 7 Y s 1291 509 m 14 Y s 1306 516 m 7 Y s 1320 516 m 7 Y s 1334 516 m 7 Y s 1348 516 m 7 Y s 1363 509 m 14 Y s 1377 516 m 7 Y s 1391 516 m 7 Y s 1405 516 m 7 Y s 1420 516 m 7 Y s 1434 509 m 14 Y s 935 509
 m 14 Y s 921 516 m 7 Y s 906 516 m 7 Y s 1434 509 m 14 Y s 899 94 m 429 Y s 915 94 m -16 X s 907 104 m -8 X s 907 114 m -8 X s 907 125 m -8 X s 907 135 m -8 X s 915 146 m -16 X s 907 156 m -8 X s 907 167 m -8 X s 907 177 m -8 X s 907 188 m -8 X s
 915 198 m -16 X s 907 209 m -8 X s 907 219 m -8 X s 907 229 m -8 X s 907 240 m -8 X s 915 250 m -16 X s 907 261 m -8 X s 907 271 m -8 X s 907 282 m -8 X s 907 292 m -8 X s 915 303 m -16 X s 907 313 m -8 X s 907 324 m -8 X s 907 334 m -8 X s 907 344
 m -8 X s 915 355 m -16 X s 907 365 m -8 X s 907 376 m -8 X s 907 386 m -8 X s 907 397 m -8 X s 915 407 m -16 X s 907 418 m -8 X s 907 428 m -8 X s 907 438 m -8 X s 907 449 m -8 X s 915 459 m -16 X s 907 470 m -8 X s 907 480 m -8 X s 907 491 m -8 X s
 907 501 m -8 X s 915 512 m -16 X s 915 512 m -16 X s 907 522 m -8 X s
 gsave  710 567 779 12 C 875.259 82.4108 t 0 r /Helvetica findfont 25.6631 sf 0 0 m (0) show NC gr 
 gsave  710 567 779 12 C 878.101 136.404 t 0 r /Helvetica findfont 25.6631 sf 0 0 m (1) show NC gr 
 gsave  710 567 779 12 C 875.259 187.556 t 0 r /Helvetica findfont 25.6631 sf 0 0 m (2) show NC gr 
 gsave  710 567 779 12 C 875.259 241.549 t 0 r /Helvetica findfont 25.6631 sf 0 0 m (3) show NC gr 
 gsave  710 567 779 12 C 875.259 292.7 t 0 r /Helvetica findfont 25.6631 sf 0 0 m (4) show NC gr 
 gsave  710 567 779 12 C 875.259 343.852 t 0 r /Helvetica findfont 25.6631 sf 0 0 m (5) show NC gr 
 gsave  710 567 779 12 C 875.259 397.845 t 0 r /Helvetica findfont 25.6631 sf 0 0 m (6) show NC gr 
 gsave  710 567 779 12 C 875.259 448.997 t 0 r /Helvetica findfont 25.6631 sf 0 0 m (7) show NC gr 
 gsave  710 567 779 12 C 875.259 502.99 t 0 r /Helvetica findfont 25.6631 sf 0 0 m (8) show NC gr 
 gsave  710 567 779 12 C 801.374 414.896 t 90 r /Helvetica findfont 28.5146 sf 0 0 m (0.00959 ) show NC gr 
 gsave  710 567 779 12 C 787.165 412.054 t 90 r /Helvetica findfont 19.9602 sf 0 0 m ( ) show NC gr 
 gsave  710 567 779 12 C 801.374 400.687 t 90 r /Helvetica findfont 28.5146 sf 0 0 m (/) show NC gr 
 gsave  710 567 779 12 C 809.899 397.845 t 90 r /Helvetica findfont 19.9602 sf 0 0 m ( ) show NC gr 
 gsave  710 567 779 12 C 801.374 292.7 t 90 r /Helvetica findfont 28.5146 sf 0 0 m (\(1/N\) dN) show NC gr  1447 94 m 429 Y s 1430 94 m 17 X s 1438 104 m 9 X s 1438 114 m 9 X s 1438 125 m 9 X s 1438 135 m 9 X s 1430 146 m 17 X s 1438 156 m 9 X s 1438
 167 m 9 X s 1438 177 m 9 X s 1438 188 m 9 X s 1430 198 m 17 X s 1438 209 m 9 X s 1438 219 m 9 X s 1438 229 m 9 X s 1438 240 m 9 X s 1430 250 m 17 X s 1438 261 m 9 X s 1438 271 m 9 X s 1438 282 m 9 X s 1438 292 m 9 X s 1430 303 m 17 X s 1438 313 m 9
 X s 1438 324 m 9 X s 1438 334 m 9 X s 1438 344 m 9 X s 1430 355 m 17 X s 1438 365 m 9 X s 1438 376 m 9 X s 1438 386 m 9 X s 1438 397 m 9 X s 1430 407 m 17 X s 1438 418 m 9 X s 1438 428 m 9 X s 1438 438 m 9 X s 1438 449 m 9 X s 1430 459 m 17 X s 1438
 470 m 9 X s 1438 480 m 9 X s 1438 491 m 9 X s 1438 501 m 9 X s 1430 512 m 17 X s 1430 512 m 17 X s 1438 522 m 9 X s 0.490196 0.545098 0.615686 c 0.364706 0.419608 0.490196 c 338 37 786 539 bf 0.490196 0.545098 0.615686 c 786 539 m 338 X s 1124 539 m
 37 Y s 1124 576 m -338 X s 786 576 m -37 Y s 1 1 1 c black 1 1 1 c
 gsave  710 567 779 12 C 790.007 551.299 t 0 r /Helvetica-Bold findfont 28.5146 sf 0 0 m (Input variable: bb.HP_l2) show NC gr  1 0 0 c 6 lw black 3 lw 1 0 0 c 1434 95 m -2 -1 d s 1429 106 m -12 -12 d s 1419 110 m -17 -16 d s 1416 122 m -11 -10 d s
 1395 102 m -8 -8 d s 1385 107 m -13 -13 d s 1378 115 m -21 -21 d s 1378 130 m -36 -36 d s 1372 139 m -8 -8 d s 1354 121 m -27 -27 d s 1351 133 m -39 -39 d s 1351 148 m -54 -54 d s 1351 163 m -14 -14 d s 1326 138 m -44 -44 d s 1351 178 m -14 -14 d s
 1322 149 m -55 -55 d s 1310 152 m -14 -14 d s 1282 125 m -30 -31 d s 1297 155 m -1 -2 d s 1282 140 m -45 -46 d s 1282 155 m -61 -61 d s 1270 158 m -1 -2 d s 1255 143 m -49 -49 d s 1255 158 m -64 -64 d s 1255 173 m -79 -79 d s 1246 179 m -5 -5 d s
 1231 164 m -3 -3 d s 1215 148 m -54 -54 d s 1214 162 m -68 -68 d s 1214 177 m -83 -83 d s 1207 185 m -91 -91 d s 1200 194 m -99 -100 d s 1200 209 m -114 -115 d s 1200 224 m -13 -14 d s 1173 196 m -102 -102 d s 1197 235 m -10 -10 d s 1173 212 m -117
 -118 d s 1173 227 m -132 -133 d s 1161 230 m -135 -136 d s 1159 243 m -13 -13 d s 1137 221 m -32 -33 d s 1100 183 m -90 -89 d s 1159 259 m -13 -14 d s 1132 231 m -27 -27 d s 1091 190 m -96 -96 d s 1153 267 m -7 -7 d s 1132 246 m -27 -27 d s 1091 205
 m -111 -111 d s 1130 260 m -25 -26 d s 1091 220 m -126 -126 d s 1118 263 m -13 -14 d s 1091 235 m -141 -141 d s 1118 278 m -13 -14 d s 1091 250 m -156 -156 d s 1118 293 m -13 -14 d s 1091 266 m -14 -14 d s 1068 243 m -148 -149 d s 1118 308 m -13 -13
 d s 1079 269 m -2 -2 d s 1064 253 m -159 -159 d s 1108 313 m -3 -3 d s 1064 268 m -165 -165 d s 1056 276 m -6 -6 d s 1045 265 m -146 -147 d s 1036 271 m -137 -138 d s 1036 286 m -137 -137 d s 1036 302 m -137 -138 d s 1036 317 m -137 -138 d s 1036
 332 m -137 -138 d s 1022 333 m -123 -124 d s 1022 349 m -13 -14 d s 1000 326 m -101 -101 d s 1022 364 m -13 -14 d s 995 336 m -96 -96 d s 1022 379 m -13 -14 d s 995 351 m -68 -68 d s 925 281 m -26 -26 d s 1022 394 m -13 -14 d s 995 367 m -68 -69 d s
 913 284 m -14 -14 d s 1013 400 m -4 -4 d s 995 382 m -68 -69 d s 913 299 m -14 -14 d s 995 397 m -55 -55 d s 938 339 m -11 -11 d s 913 314 m -14 -13 d s 995 412 m -14 -14 d s 981 397 m -41 -40 d s 913 329 m -14 -13 d s 995 427 m -14 -13 d s 968 400
 m -14 -14 d s 944 376 m -4 -4 d s 913 345 m -14 -14 d s 986 434 m -5 -5 d s 968 415 m -14 -14 d s 903 350 m -4 -4 d s 968 430 m -14 -14 d s 968 445 m -14 -13 d s 968 460 m -14 -13 d s 968 476 m -14 -14 d s 960 484 m -6 -7 d s 6 lw 899 350 m 14 X -69
 Y 14 X 58 Y 13 X 37 Y 14 X 108 Y 14 X -87 Y 13 X 37 Y 14 X -108 Y 14 X 74 Y 13 X -68 Y 14 X -67 Y 14 X 11 Y 14 X -33 Y 13 X 26 Y 14 X -86 Y 14 X 130 Y 13 X -53 Y 14 X -39 Y 14 X 46 Y 13 X -37 Y 14 X -34 Y 14 X 39 Y 13 X -50 Y 14 X -37 Y 14 X 16 Y 13
 X 15 Y 14 X -37 Y 14 X 16 Y 13 X -34 Y 14 X 31 Y 14 X -6 Y 13 X -11 Y 14 X 41 Y 14 X -58 Y 13 X 18 Y 14 X -32 Y 14 X -5 Y 13 X 20 Y 14 X -16 Y 14 X -11 Y 14 X s black 3 lw 899 94 m 548 X s 935 107 m -13 Y s 949 100 m -6 Y s 964 100 m -6 Y s 978 100
 m -6 Y s 992 100 m -6 Y s 1006 107 m -13 Y s 1021 100 m -6 Y s 1035 100 m -6 Y s 1049 100 m -6 Y s 1063 100 m -6 Y s 1078 107 m -13 Y s 1092 100 m -6 Y s 1106 100 m -6 Y s 1120 100 m -6 Y s 1135 100 m -6 Y s 1149 107 m -13 Y s 1163 100 m -6 Y s 1177
 100 m -6 Y s 1192 100 m -6 Y s 1206 100 m -6 Y s 1220 107 m -13 Y s 1234 100 m -6 Y s 1249 100 m -6 Y s 1263 100 m -6 Y s 1277 100 m -6 Y s 1291 107 m -13 Y s 1306 100 m -6 Y s 1320 100 m -6 Y s 1334 100 m -6 Y s 1348 100 m -6 Y s 1363 107 m -13 Y s
 1377 100 m -6 Y s 1391 100 m -6 Y s 1405 100 m -6 Y s 1420 100 m -6 Y s 1434 107 m -13 Y s 935 107 m -13 Y s 921 100 m -6 Y s 906 100 m -6 Y s 1434 107 m -13 Y s 899 523 m 548 X s 935 509 m 14 Y s 949 516 m 7 Y s 964 516 m 7 Y s 978 516 m 7 Y s 992
 516 m 7 Y s 1006 509 m 14 Y s 1021 516 m 7 Y s 1035 516 m 7 Y s 1049 516 m 7 Y s 1063 516 m 7 Y s 1078 509 m 14 Y s 1092 516 m 7 Y s 1106 516 m 7 Y s 1120 516 m 7 Y s 1135 516 m 7 Y s 1149 509 m 14 Y s 1163 516 m 7 Y s 1177 516 m 7 Y s 1192 516 m 7
 Y s 1206 516 m 7 Y s 1220 509 m 14 Y s 1234 516 m 7 Y s 1249 516 m 7 Y s 1263 516 m 7 Y s 1277 516 m 7 Y s 1291 509 m 14 Y s 1306 516 m 7 Y s 1320 516 m 7 Y s 1334 516 m 7 Y s 1348 516 m 7 Y s 1363 509 m 14 Y s 1377 516 m 7 Y s 1391 516 m 7 Y s 1405
 516 m 7 Y s 1420 516 m 7 Y s 1434 509 m 14 Y s 935 509 m 14 Y s 921 516 m 7 Y s 906 516 m 7 Y s 1434 509 m 14 Y s 899 94 m 429 Y s 915 94 m -16 X s 907 104 m -8 X s 907 114 m -8 X s 907 125 m -8 X s 907 135 m -8 X s 915 146 m -16 X s 907 156 m -8 X
 s 907 167 m -8 X s 907 177 m -8 X s 907 188 m -8 X s 915 198 m -16 X s 907 209 m -8 X s 907 219 m -8 X s 907 229 m -8 X s 907 240 m -8 X s 915 250 m -16 X s 907 261 m -8 X s 907 271 m -8 X s 907 282 m -8 X s 907 292 m -8 X s 915 303 m -16 X s 907
 313 m -8 X s 907 324 m -8 X s 907 334 m -8 X s 907 344 m -8 X s 915 355 m -16 X s 907 365 m -8 X s 907 376 m -8 X s 907 386 m -8 X s 907 397 m -8 X s 915 407 m -16 X s 907 418 m -8 X s 907 428 m -8 X s 907 438 m -8 X s 907 449 m -8 X s 915 459 m -16
 X s 907 470 m -8 X s 907 480 m -8 X s 907 491 m -8 X s 907 501 m -8 X s 915 512 m -16 X s 915 512 m -16 X s 907 522 m -8 X s 1447 94 m 429 Y s 1430 94 m 17 X s 1438 104 m 9 X s 1438 114 m 9 X s 1438 125 m 9 X s 1438 135 m 9 X s 1430 146 m 17 X s
 1438 156 m 9 X s 1438 167 m 9 X s 1438 177 m 9 X s 1438 188 m 9 X s 1430 198 m 17 X s 1438 209 m 9 X s 1438 219 m 9 X s 1438 229 m 9 X s 1438 240 m 9 X s 1430 250 m 17 X s 1438 261 m 9 X s 1438 271 m 9 X s 1438 282 m 9 X s 1438 292 m 9 X s 1430 303
 m 17 X s 1438 313 m 9 X s 1438 324 m 9 X s 1438 334 m 9 X s 1438 344 m 9 X s 1430 355 m 17 X s 1438 365 m 9 X s 1438 376 m 9 X s 1438 386 m 9 X s 1438 397 m 9 X s 1430 407 m 17 X s 1438 418 m 9 X s 1438 428 m 9 X s 1438 438 m 9 X s 1438 449 m 9 X s
 1430 459 m 17 X s 1438 470 m 9 X s 1438 480 m 9 X s 1438 491 m 9 X s 1438 501 m 9 X s 1430 512 m 17 X s 1430 512 m 17 X s 1438 522 m 9 X s
 gsave  710 567 779 12 C 1474.92 91.2634 t 90 r /Helvetica-Bold findfont 19.9602 sf 0 0 m (U/O\255flow \(S,B\): \(0.0, 0.0\)% / \(0.0, 0.0\)%) show NC gr  0.490196 0.545098 0.615686 c 0.364706 0.419608 0.490196 c 338 37 786 539 bf 0.490196 0.545098
 0.615686 c 786 539 m 338 X s 1124 539 m 37 Y s 1124 576 m -338 X s 786 576 m -37 Y s 1 1 1 c black 1 1 1 c
 gsave  710 567 779 12 C 790.007 551.299 t 0 r /Helvetica-Bold findfont 28.5146 sf 0 0 m (Input variable: bb.HP_l2) show NC gr  0.490196 0.545098 0.615686 c 0.941176 0.941176 0.941176 c 711 567 1534 12 bf black 1 1 0.992157 c 547 429 1655 94 bf black
 547 429 1655 94 bl 0 0 0.933333 c 6 lw 0.49 0.6 0.82 c black 3 lw 0.49 0.6 0.82 c 1655 94 m 55 X 2 Y 14 X 4 Y 13 X -6 Y 28 X 1 Y 13 X -1 Y 14 X 22 Y 14 X 336 Y 13 X 32 Y 14 X -74 Y 14 X 28 Y 13 X -9 Y 14 X 3 Y 14 X -65 Y 13 X -67 Y 14 X 28 Y 14 X
 -75 Y 14 X -2 Y 13 X 16 Y 14 X -116 Y 14 X 90 Y 13 X -20 Y 14 X 20 Y 14 X -66 Y 13 X -1 Y 14 X -15 Y 14 X -18 Y 13 X -3 Y 28 X -13 Y 13 X -8 Y 14 X -6 Y 14 X -6 Y 13 X -8 Y 14 X -1 Y 14 X -2 Y 13 X f 6 lw 0 0 0.933333 c 0.49 0.6 0.82 c 0 0 0.933333
 c 1655 94 m 55 X 2 Y 14 X 4 Y 13 X -6 Y 28 X 1 Y 13 X -1 Y 14 X 22 Y 14 X 336 Y 13 X 32 Y 14 X -74 Y 14 X 28 Y 13 X -9 Y 14 X 3 Y 14 X -65 Y 13 X -67 Y 14 X 28 Y 14 X -75 Y 14 X -2 Y 13 X 16 Y 14 X -116 Y 14 X 90 Y 13 X -20 Y 14 X 20 Y 14 X -66 Y 13
 X -1 Y 14 X -15 Y 14 X -18 Y 13 X -3 Y 28 X -13 Y 13 X -8 Y 14 X -6 Y 14 X -6 Y 13 X -8 Y 14 X -1 Y 14 X -2 Y 13 X s black 3 lw 1655 94 m 547 X s 1709 107 m -13 Y s 1731 100 m -6 Y s 1752 100 m -6 Y s 1774 100 m -6 Y s 1796 100 m -6 Y s 1818 107 m
 -13 Y s 1840 100 m -6 Y s 1861 100 m -6 Y s 1883 100 m -6 Y s 1905 100 m -6 Y s 1927 107 m -13 Y s 1949 100 m -6 Y s 1970 100 m -6 Y s 1992 100 m -6 Y s 2014 100 m -6 Y s 2036 107 m -13 Y s 2058 100 m -6 Y s 2079 100 m -6 Y s 2101 100 m -6 Y s 2123
 100 m -6 Y s 2145 107 m -13 Y s 1709 107 m -13 Y s 1687 100 m -6 Y s 1665 100 m -6 Y s 2145 107 m -13 Y s 2167 100 m -6 Y s 2188 100 m -6 Y s
 gsave  711 567 1534 12 C 1696.52 65.3603 t 0 r /Helvetica findfont 25.6631 sf 0 0 m (0.2) show NC gr 
 gsave  711 567 1534 12 C 1682.32 65.3603 t 0 r /Symbol findfont 25.6631 sf 0 0 m (-) show NC gr 
 gsave  711 567 1534 12 C 1804.51 65.3603 t 0 r /Helvetica findfont 25.6631 sf 0 0 m (0.1) show NC gr 
 gsave  711 567 1534 12 C 1793.14 65.3603 t 0 r /Symbol findfont 25.6631 sf 0 0 m (-) show NC gr 
 gsave  711 567 1534 12 C 1918.18 65.3603 t 0 r /Helvetica findfont 25.6631 sf 0 0 m (0) show NC gr 
 gsave  711 567 1534 12 C 2017.64 65.3603 t 0 r /Helvetica findfont 25.6631 sf 0 0 m (0.1) show NC gr 
 gsave  711 567 1534 12 C 2125.63 65.3603 t 0 r /Helvetica findfont 25.6631 sf 0 0 m (0.2) show NC gr 
 gsave  711 567 1534 12 C 2085.84 22.734 t 0 r /Helvetica findfont 28.5146 sf 0 0 m (bb.HP_l3) show NC gr  1655 523 m 547 X s 1709 509 m 14 Y s 1731 516 m 7 Y s 1752 516 m 7 Y s 1774 516 m 7 Y s 1796 516 m 7 Y s 1818 509 m 14 Y s 1840 516 m 7 Y s
 1861 516 m 7 Y s 1883 516 m 7 Y s 1905 516 m 7 Y s 1927 509 m 14 Y s 1949 516 m 7 Y s 1970 516 m 7 Y s 1992 516 m 7 Y s 2014 516 m 7 Y s 2036 509 m 14 Y s 2058 516 m 7 Y s 2079 516 m 7 Y s 2101 516 m 7 Y s 2123 516 m 7 Y s 2145 509 m 14 Y s 1709 509
 m 14 Y s 1687 516 m 7 Y s 1665 516 m 7 Y s 2145 509 m 14 Y s 2167 516 m 7 Y s 2188 516 m 7 Y s 1655 94 m 429 Y s 1671 94 m -16 X s 1663 104 m -8 X s 1663 115 m -8 X s 1663 126 m -8 X s 1663 136 m -8 X s 1671 147 m -16 X s 1663 158 m -8 X s 1663 168
 m -8 X s 1663 179 m -8 X s 1663 190 m -8 X s 1671 200 m -16 X s 1663 211 m -8 X s 1663 222 m -8 X s 1663 232 m -8 X s 1663 243 m -8 X s 1671 254 m -16 X s 1663 264 m -8 X s 1663 275 m -8 X s 1663 286 m -8 X s 1663 296 m -8 X s 1671 307 m -16 X s
 1663 318 m -8 X s 1663 328 m -8 X s 1663 339 m -8 X s 1663 350 m -8 X s 1671 361 m -16 X s 1663 371 m -8 X s 1663 382 m -8 X s 1663 393 m -8 X s 1663 403 m -8 X s 1671 414 m -16 X s 1663 425 m -8 X s 1663 435 m -8 X s 1663 446 m -8 X s 1663 457 m -8
 X s 1671 467 m -16 X s 1663 478 m -8 X s 1663 489 m -8 X s 1663 499 m -8 X s 1663 510 m -8 X s 1671 521 m -16 X s 1671 521 m -16 X s
 gsave  711 567 1534 12 C 1631.16 82.4108 t 0 r /Helvetica findfont 25.6631 sf 0 0 m (0) show NC gr 
 gsave  711 567 1534 12 C 1634.01 136.404 t 0 r /Helvetica findfont 25.6631 sf 0 0 m (1) show NC gr 
 gsave  711 567 1534 12 C 1631.16 190.397 t 0 r /Helvetica findfont 25.6631 sf 0 0 m (2) show NC gr 
 gsave  711 567 1534 12 C 1631.16 244.391 t 0 r /Helvetica findfont 25.6631 sf 0 0 m (3) show NC gr 
 gsave  711 567 1534 12 C 1631.16 298.384 t 0 r /Helvetica findfont 25.6631 sf 0 0 m (4) show NC gr 
 gsave  711 567 1534 12 C 1631.16 349.535 t 0 r /Helvetica findfont 25.6631 sf 0 0 m (5) show NC gr 
 gsave  711 567 1534 12 C 1631.16 403.529 t 0 r /Helvetica findfont 25.6631 sf 0 0 m (6) show NC gr 
 gsave  711 567 1534 12 C 1631.16 457.522 t 0 r /Helvetica findfont 25.6631 sf 0 0 m (7) show NC gr 
 gsave  711 567 1534 12 C 1631.16 511.515 t 0 r /Helvetica findfont 25.6631 sf 0 0 m (8) show NC gr 
 gsave  711 567 1534 12 C 1557.28 431.946 t 90 r /Helvetica findfont 28.5146 sf 0 0 m (0.0125 ) show NC gr 
 gsave  711 567 1534 12 C 1543.07 429.104 t 90 r /Helvetica findfont 19.9602 sf 0 0 m ( ) show NC gr 
 gsave  711 567 1534 12 C 1557.28 417.737 t 90 r /Helvetica findfont 28.5146 sf 0 0 m (/) show NC gr 
 gsave  711 567 1534 12 C 1565.8 414.896 t 90 r /Helvetica findfont 19.9602 sf 0 0 m ( ) show NC gr 
 gsave  711 567 1534 12 C 1557.28 309.751 t 90 r /Helvetica findfont 28.5146 sf 0 0 m (\(1/N\) dN) show NC gr  2202 94 m 429 Y s 2186 94 m 16 X s 2194 104 m 8 X s 2194 115 m 8 X s 2194 126 m 8 X s 2194 136 m 8 X s 2186 147 m 16 X s 2194 158 m 8 X s
 2194 168 m 8 X s 2194 179 m 8 X s 2194 190 m 8 X s 2186 200 m 16 X s 2194 211 m 8 X s 2194 222 m 8 X s 2194 232 m 8 X s 2194 243 m 8 X s 2186 254 m 16 X s 2194 264 m 8 X s 2194 275 m 8 X s 2194 286 m 8 X s 2194 296 m 8 X s 2186 307 m 16 X s 2194 318
 m 8 X s 2194 328 m 8 X s 2194 339 m 8 X s 2194 350 m 8 X s 2186 361 m 16 X s 2194 371 m 8 X s 2194 382 m 8 X s 2194 393 m 8 X s 2194 403 m 8 X s 2186 414 m 16 X s 2194 425 m 8 X s 2194 435 m 8 X s 2194 446 m 8 X s 2194 457 m 8 X s 2186 467 m 16 X s
 2194 478 m 8 X s 2194 489 m 8 X s 2194 499 m 8 X s 2194 510 m 8 X s 2186 521 m 16 X s 2186 521 m 16 X s 0.490196 0.545098 0.615686 c 0.364706 0.419608 0.490196 c 338 37 1542 539 bf 0.490196 0.545098 0.615686 c 1542 539 m 338 X s 1880 539 m 37 Y s
 1880 576 m -338 X s 1542 576 m -37 Y s 1 1 1 c black 1 1 1 c
 gsave  711 567 1534 12 C 1545.91 551.299 t 0 r /Helvetica-Bold findfont 28.5146 sf 0 0 m (Input variable: bb.HP_l3) show NC gr  1 0 0 c 6 lw black 3 lw 1 0 0 c 2189 94 m -1 X s 2174 94 m -1 X s 2159 94 m -1 X s 2144 94 m -1 X s 2128 94 m s 2115 96 m
 -2 -2 d s 2100 96 m -2 -2 d s 2088 99 m -5 -5 d s 2079 105 m -11 -11 d s 2059 100 m -6 -6 d s 2052 108 m -14 -14 d s 2052 123 m -29 -29 d s 2052 138 m -44 -44 d s 2052 153 m -60 -59 d s 2052 169 m -75 -75 d s 2052 184 m -90 -90 d s 2052 199 m -105
 -105 d s 2052 214 m -120 -120 d s 2052 229 m -135 -135 d s 2052 245 m -150 -151 d s 2052 260 m -165 -166 d s 2052 275 m -180 -181 d s 2052 290 m -195 -196 d s 2052 305 m -210 -211 d s 2052 320 m -225 -226 d s 2052 336 m -240 -242 d s 2051 350 m -67
 -68 d s 1970 269 m -174 -175 d s 2038 352 m -54 -55 d s 1970 283 m -27 -27 d s 1933 246 m -152 -152 d s 2027 356 m -16 -16 d s 2002 330 m -18 -18 d s 1970 299 m -27 -28 d s 1928 256 m -27 -26 d s 1897 225 m -91 -92 d s 1795 122 m -3 -3 d s 1783 110
 m -17 -16 d s 2025 369 m -14 -14 d s 1997 341 m -13 -13 d s 1970 314 m -27 -28 d s 1915 259 m -14 -14 d s 1888 231 m -82 -83 d s 1778 121 m -13 -14 d s 1760 103 m -9 -9 d s 2025 384 m -14 -14 d s 1997 356 m -13 -13 d s 1965 324 m -22 -23 d s 1915
 274 m -14 -14 d s 1888 246 m -82 -82 d s 1769 126 m -4 -4 d s 1751 108 m -15 -14 d s 2012 387 m -1 -2 d s 1997 372 m -13 -14 d s 1956 330 m -13 -13 d s 1915 289 m -14 -14 d s 1888 261 m -14 -13 d s 1867 241 m -61 -62 d s 1751 124 m -14 -14 d s 1737
 110 m -16 -16 d s 1997 387 m -13 -14 d s 1944 334 m -1 -2 d s 1915 304 m -14 -14 d s 1888 277 m -14 -14 d s 1860 249 m -54 -55 d s 1751 139 m -14 -14 d s 1720 107 m -14 -13 d s 1997 402 m -13 -14 d s 1910 314 m -9 -8 d s 1888 292 m -14 -14 d s 1860
 264 m -54 -55 d s 1742 145 m -5 -5 d s 1701 104 m -10 -10 d s 1997 417 m -13 -14 d s 1888 307 m -14 -14 d s 1860 279 m -54 -55 d s 1683 101 m -7 -7 d s 1888 322 m -14 -14 d s 1860 295 m -54 -56 d s 1671 104 m -10 -10 d s 1888 337 m -14 -13 d s 1860
 310 m -27 -28 d s 1822 271 m -16 -16 d s 1657 104 m -2 -1 d s 1888 353 m -14 -14 d s 1855 320 m -22 -23 d s 1819 284 m -13 -14 d s 1876 356 m -2 -2 d s 1847 326 m -14 -13 d s 1819 299 m -13 -14 d s 1847 342 m -14 -14 d s 1819 314 m -13 -14 d s 1844
 354 m -11 -11 d s 1819 329 m -13 -14 d s 1819 344 m -13 -13 d s 1809 349 m -3 -3 d s 6 lw 1655 104 m 28 X -3 Y 13 X 3 Y 14 X 3 Y 14 X 3 Y 13 X 35 Y 14 X -42 Y 14 X 23 Y 13 X -16 Y 14 X 12 Y 14 X 227 Y 13 X -78 Y 14 X 83 Y 14 X -34 Y 13 X -79 Y 14 X
 115 Y 14 X -131 Y 13 X 89 Y 14 X -58 Y 14 X -10 Y 14 X 88 Y 13 X -10 Y 14 X -55 Y 14 X 148 Y 13 X -87 Y 14 X 57 Y 14 X -31 Y 13 X -6 Y 14 X -250 Y 14 X 6 Y 13 X -7 Y 14 X -3 Y 27 X -2 Y 82 X s black 3 lw 1655 94 m 547 X s 1709 107 m -13 Y s 1731 100
 m -6 Y s 1752 100 m -6 Y s 1774 100 m -6 Y s 1796 100 m -6 Y s 1818 107 m -13 Y s 1840 100 m -6 Y s 1861 100 m -6 Y s 1883 100 m -6 Y s 1905 100 m -6 Y s 1927 107 m -13 Y s 1949 100 m -6 Y s 1970 100 m -6 Y s 1992 100 m -6 Y s 2014 100 m -6 Y s 2036
 107 m -13 Y s 2058 100 m -6 Y s 2079 100 m -6 Y s 2101 100 m -6 Y s 2123 100 m -6 Y s 2145 107 m -13 Y s 1709 107 m -13 Y s 1687 100 m -6 Y s 1665 100 m -6 Y s 2145 107 m -13 Y s 2167 100 m -6 Y s 2188 100 m -6 Y s 1655 523 m 547 X s 1709 509 m 14 Y
 s 1731 516 m 7 Y s 1752 516 m 7 Y s 1774 516 m 7 Y s 1796 516 m 7 Y s 1818 509 m 14 Y s 1840 516 m 7 Y s 1861 516 m 7 Y s 1883 516 m 7 Y s 1905 516 m 7 Y s 1927 509 m 14 Y s 1949 516 m 7 Y s 1970 516 m 7 Y s 1992 516 m 7 Y s 2014 516 m 7 Y s 2036
 509 m 14 Y s 2058 516 m 7 Y s 2079 516 m 7 Y s 2101 516 m 7 Y s 2123 516 m 7 Y s 2145 509 m 14 Y s 1709 509 m 14 Y s 1687 516 m 7 Y s 1665 516 m 7 Y s 2145 509 m 14 Y s 2167 516 m 7 Y s 2188 516 m 7 Y s 1655 94 m 429 Y s 1671 94 m -16 X s 1663 104 m
 -8 X s 1663 115 m -8 X s 1663 126 m -8 X s 1663 136 m -8 X s 1671 147 m -16 X s 1663 158 m -8 X s 1663 168 m -8 X s 1663 179 m -8 X s 1663 190 m -8 X s 1671 200 m -16 X s 1663 211 m -8 X s 1663 222 m -8 X s 1663 232 m -8 X s 1663 243 m -8 X s 1671
 254 m -16 X s 1663 264 m -8 X s 1663 275 m -8 X s 1663 286 m -8 X s 1663 296 m -8 X s 1671 307 m -16 X s 1663 318 m -8 X s 1663 328 m -8 X s 1663 339 m -8 X s 1663 350 m -8 X s 1671 361 m -16 X s 1663 371 m -8 X s 1663 382 m -8 X s 1663 393 m -8 X s
 1663 403 m -8 X s 1671 414 m -16 X s 1663 425 m -8 X s 1663 435 m -8 X s 1663 446 m -8 X s 1663 457 m -8 X s 1671 467 m -16 X s 1663 478 m -8 X s 1663 489 m -8 X s 1663 499 m -8 X s 1663 510 m -8 X s 1671 521 m -16 X s 1671 521 m -16 X s 2202 94 m
 429 Y s 2186 94 m 16 X s 2194 104 m 8 X s 2194 115 m 8 X s 2194 126 m 8 X s 2194 136 m 8 X s 2186 147 m 16 X s 2194 158 m 8 X s 2194 168 m 8 X s 2194 179 m 8 X s 2194 190 m 8 X s 2186 200 m 16 X s 2194 211 m 8 X s 2194 222 m 8 X s 2194 232 m 8 X s
 2194 243 m 8 X s 2186 254 m 16 X s 2194 264 m 8 X s 2194 275 m 8 X s 2194 286 m 8 X s 2194 296 m 8 X s 2186 307 m 16 X s 2194 318 m 8 X s 2194 328 m 8 X s 2194 339 m 8 X s 2194 350 m 8 X s 2186 361 m 16 X s 2194 371 m 8 X s 2194 382 m 8 X s 2194 393
 m 8 X s 2194 403 m 8 X s 2186 414 m 16 X s 2194 425 m 8 X s 2194 435 m 8 X s 2194 446 m 8 X s 2194 457 m 8 X s 2186 467 m 16 X s 2194 478 m 8 X s 2194 489 m 8 X s 2194 499 m 8 X s 2194 510 m 8 X s 2186 521 m 16 X s 2186 521 m 16 X s
 gsave  711 567 1534 12 C 2230.83 91.2634 t 90 r /Helvetica-Bold findfont 19.9602 sf 0 0 m (U/O\255flow \(S,B\): \(0.0, 0.0\)% / \(0.0, 0.0\)%) show NC gr  0.490196 0.545098 0.615686 c 0.364706 0.419608 0.490196 c 338 37 1542 539 bf 0.490196 0.545098
 0.615686 c 1542 539 m 338 X s 1880 539 m 37 Y s 1880 576 m -338 X s 1542 576 m -37 Y s 1 1 1 c black 1 1 1 c
 gsave  711 567 1534 12 C 1545.91 551.299 t 0 r /Helvetica-Bold findfont 28.5146 sf 0 0 m (Input variable: bb.HP_l3) show NC gr 
 gr  gr showpage
end
%%EOF
