%!PS-Adobe-2.0 EPSF-2.0
%%BoundingBox:  0 0 567 296
%%Title: dataset/plots/variables_id_c9.eps: Input variables (training sample)
%%Creator: ROOT Version 6.18/00
%%CreationDate: Fri Sep 13 20:54:48 2019
%%DocumentNeededResources: ProcSet (FontSetInit)
%%EndComments
%%BeginProlog
80 dict begin
/s {stroke} def /l {lineto} def /m {moveto} def /t {translate} def
/r {rotate} def /rl {roll}  def /R {repeat} def
/d {rlineto} def /rm {rmoveto} def /gr {grestore} def /f {eofill} def
/c {setrgbcolor} def /black {0 setgray} def /sd {setdash} def
/cl {closepath} def /sf {scalefont setfont} def /lw {setlinewidth} def
/box {m dup 0 exch d exch 0 d 0 exch neg d cl} def
/NC{systemdict begin initclip end}def/C{NC box clip newpath}def
/bl {box s} def /bf {gsave box gsave f grestore 1 lw [] 0 sd s grestore} def /Y { 0 exch d} def /X { 0 d} def 
/K {{pop pop 0 moveto} exch kshow} bind def
/ita {/ang 15 def gsave [1 0 ang dup sin exch cos div 1 0 0] concat} def 
/mp {newpath /y exch def /x exch def} def
/side {[w .77 mul w .23 mul] .385 w mul sd w 0 l currentpoint t -144 r} def
/mr {mp x y w2 0 360 arc} def /m24 {mr s} def /m20 {mr f} def
/mb {mp x y w2 add m w2 neg 0 d 0 w neg d w 0 d 0 w d cl} def
/mt {mp x y w2 add m w2 neg w neg d w 0 d cl} def
/w4 {w 4 div} def
/w6 {w 6 div} def
/w8 {w 8 div} def
/m21 {mb f} def /m25 {mb s} def /m22 {mt f} def /m26{mt s} def
/m23 {mp x y w2 sub m w2 w d w neg 0 d cl f} def
/m27 {mp x y w2 add m w3 neg w2 neg d w3 w2 neg d w3 w2 d cl s} def
/m28 {mp x w2 sub y w2 sub w3 add m w3 0 d  0 w3 neg d w3 0 d 0 w3 d w3 0 d  0 w3 d w3 neg 0 d 0 w3 d w3 neg 0 d 0 w3 neg d w3 neg 0 d cl s } def
/m29 {mp gsave x w2 sub y w2 add w3 sub m currentpoint t 4 {side} repeat cl fill gr} def
/m30 {mp gsave x w2 sub y w2 add w3 sub m currentpoint t 4 {side} repeat cl s gr} def
/m31 {mp x y w2 sub m 0 w d x w2 sub y m w 0 d x w2 sub y w2 add m w w neg d x w2 sub y w2 sub m w w d s} def
/m32 {mp x y w2 sub m w2 w d w neg 0 d cl s} def
/m33 {mp x y w2 add m w3 neg w2 neg d w3 w2 neg d w3 w2 d cl f} def
/m34 {mp x w2 sub y w2 sub w3 add m w3 0 d  0 w3 neg d w3 0 d 0 w3 d w3 0 d  0 w3 d w3 neg 0 d 0 w3 d w3 neg 0 d 0 w3 neg d w3 neg 0 d cl f } def
/m35 {mp x y w2 add m w2 neg w2 neg d w2 w2 neg d w2 w2 d w2 neg w2 d x y w2 sub m 0 w d x w2 sub y m w 0 d s} def
/m36 {mb x w2 sub y w2 add m w w neg d x w2 sub y w2 sub m w w d s} def
/m37 {mp x y m w4 neg w2 d w4 neg w2 neg d w2 0 d  w4 neg w2 neg d w2 0 d w4 neg w2 d w2 0 d w4 neg w2 d w4 neg w2 neg d cl s} def
/m38 {mp x w4 sub y w2 add m w4 neg w4 neg d 0 w2 neg d w4 w4 neg d w2 0 d w4 w4 d 0 w2 d w4 neg w4 d w2 neg 0 d x y w2 sub m 0 w d x w2 sub y m w 0 d cl s} def
/m39 {mp x y m w4 neg w2 d w4 neg w2 neg d w2 0 d  w4 neg w2 neg d w2 0 d w4 neg w2 d w2 0 d w4 neg w2 d w4 neg w2 neg d cl f} def
/m40 {mp x y m w4 w2 d w4 w4 neg d w2 neg w4 neg d w2 w4 neg d w4 neg w4 neg d w4 neg w2 d w4 neg w2 neg d w4 neg w4 d w2 w4 d w2 neg w4 d w4 w4 d w4 w2 neg d cl s} def
/m41 {mp x y m w4 w2 d w4 w4 neg d w2 neg w4 neg d w2 w4 neg d w4 neg w4 neg d w4 neg w2 d w4 neg w2 neg d w4 neg w4 d w2 w4 d w2 neg w4 d w4 w4 d w4 w2 neg d cl f} def
/m42 {mp x y w2 add m w8 neg w2 -3 4 div mul d w2 -3 4 div mul w8 neg d w2 3 4 div mul w8 neg d w8 w2 -3 4 div mul d w8 w2 3 4 div mul d w2 3 4 div mul w8 d w2 -3 4 div mul w8 d w8 neg w2 3 4 div mul d cl s} def
/m43 {mp x y w2 add m w8 neg w2 -3 4 div mul d w2 -3 4 div mul w8 neg d w2 3 4 div mul w8 neg d w8 w2 -3 4 div mul d w8 w2 3 4 div mul d w2 3 4 div mul w8 d w2 -3 4 div mul w8 d w8 neg w2 3 4 div mul d cl f} def
/m44 {mp x y m w6 neg w2 d w2 2 3 div mul 0 d w6 neg w2 neg d w2 w6 d 0 w2 -2 3 div mul d w2 neg w6 d w6 w2 neg d w2 -2 3 div mul 0 d w6 w2 d w2 neg w6 neg d 0 w2 2 3 div mul d w2 w6 neg d cl s} def
/m45 {mp x y m w6 neg w2 d w2 2 3 div mul 0 d w6 neg w2 neg d w2 w6 d 0 w2 -2 3 div mul d w2 neg w6 d w6 w2 neg d w2 -2 3 div mul 0 d w6 w2 d w2 neg w6 neg d 0 w2 2 3 div mul d w2 w6 neg d cl f} def
/m46 {mp x y w4 add m w4 neg w4 d w4 neg w4 neg d  w4 w4 neg d w4 neg w4 neg d w4 w4 neg d w4 w4 d w4 w4 neg d w4 w4 d w4 neg w4 d w4 w4 d w4 neg w4 d w4 neg w4 neg d cl s} def
/m47 {mp x y w4 add m w4 neg w4 d w4 neg w4 neg d w4 w4 neg d w4 neg w4 neg d  w4 w4 neg d w4 w4 d w4 w4 neg d w4 w4 d w4 neg w4 d w4 w4 d w4 neg w4 d w4 neg w4 neg d cl f} def
/m48 {mp x y w4 add m w4 neg w4 d w4 neg w4 neg d w4 w4 neg d  w4 neg w4 neg d w4 w4 neg d w4 w4 d w4 w4 neg d w4 w4 d w4 neg w4 d w4 w4 d w4 neg w4 d w4 neg w4 neg d  w4 w4 neg d w4 neg w4 neg d w4 neg w4 d w4 w4 d cl f} def
/m49 {mp x w2 sub w3 add y w2 sub w3 add m  0 w3 neg d w3 0 d 0 w3 d w3 0 d 0 w3 d w3 neg 0 d 0 w3 d w3 neg 0 d 0 w3 neg d w3 neg 0 d 0 w3 neg d w3 0 d 0 w3 d w3 0 d 0 w3 neg d w3 neg 0 d cl f } def
/m2 {mp x y w2 sub m 0 w d x w2 sub y m w 0 d s} def
/m5 {mp x w2 sub y w2 sub m w w d x w2 sub y w2 add m w w neg d s} def
%%IncludeResource: ProcSet (FontSetInit)
%%IncludeResource: font Times-Roman
%%IncludeResource: font Times-Italic
%%IncludeResource: font Times-Bold
%%IncludeResource: font Times-BoldItalic
%%IncludeResource: font Helvetica
%%IncludeResource: font Helvetica-Oblique
%%IncludeResource: font Helvetica-Bold
%%IncludeResource: font Helvetica-BoldOblique
%%IncludeResource: font Courier
%%IncludeResource: font Courier-Oblique
%%IncludeResource: font Courier-Bold
%%IncludeResource: font Courier-BoldOblique
%%IncludeResource: font Symbol
%%IncludeResource: font ZapfDingbats
/reEncode {exch findfont dup length dict begin {1 index /FID eq  {pop pop} {def} ifelse } forall /Encoding exch def currentdict end dup /FontName get exch definefont pop } def [/Times-Bold /Times-Italic /Times-BoldItalic /Helvetica /Helvetica-Oblique
 /Helvetica-Bold /Helvetica-BoldOblique /Courier /Courier-Oblique /Courier-Bold /Courier-BoldOblique /Times-Roman /AvantGarde-Book /AvantGarde-BookOblique /AvantGarde-Demi /AvantGarde-DemiOblique /Bookman-Demi /Bookman-DemiItalic /Bookman-Light
 /Bookman-LightItalic /Helvetica-Narrow /Helvetica-Narrow-Bold /Helvetica-Narrow-BoldOblique /Helvetica-Narrow-Oblique /NewCenturySchlbk-Roman /NewCenturySchlbk-Bold /NewCenturySchlbk-BoldItalic /NewCenturySchlbk-Italic /Palatino-Bold
 /Palatino-BoldItalic /Palatino-Italic /Palatino-Roman ] {ISOLatin1Encoding reEncode } forall
%%EndProlog
%%BeginSetup
%%EndSetup
newpath  gsave  .25 .25 scale  gsave  0 0 t 0.490196 0.545098 0.615686 c[  ] 0 sd 3 lw 0.941176 0.941176 0.941176 c 2268 1182 0 0 bf 0.490196 0.545098 0.615686 c 0.941176 0.941176 0.941176 c 710 567 23 603 bf black 1 1 0.992157 c 548 429 143 685 bf
 black 548 429 143 685 bl 0 0 0.933333 c 6 lw 0.49 0.6 0.82 c black 3 lw 0.49 0.6 0.82 c 143 685 m 323 Y 14 X -60 Y 14 X 62 Y 14 X -48 Y 13 X -54 Y 14 X 36 Y 14 X -51 Y 13 X 18 Y 14 X -18 Y 14 X 31 Y 13 X -36 Y 14 X -131 Y 14 X 153 Y 13 X -89 Y 14 X
 8 Y 14 X 21 Y 13 X -23 Y 14 X 52 Y 14 X -11 Y 13 X -49 Y 14 X -30 Y 14 X 11 Y 13 X -81 Y 14 X -21 Y 14 X 10 Y 13 X 5 Y 14 X -8 Y 14 X 1 Y 13 X -4 Y 14 X -3 Y 14 X -5 Y 13 X 1 Y 14 X -3 Y 14 X -5 Y 14 X -1 Y 41 X -1 Y 41 X f 6 lw 0 0 0.933333 c 0.49
 0.6 0.82 c 0 0 0.933333 c 143 1008 m 14 X -60 Y 14 X 62 Y 14 X -48 Y 13 X -54 Y 14 X 36 Y 14 X -51 Y 13 X 18 Y 14 X -18 Y 14 X 31 Y 13 X -36 Y 14 X -131 Y 14 X 153 Y 13 X -89 Y 14 X 8 Y 14 X 21 Y 13 X -23 Y 14 X 52 Y 14 X -11 Y 13 X -49 Y 14 X -30 Y
 14 X 11 Y 13 X -81 Y 14 X -21 Y 14 X 10 Y 13 X 5 Y 14 X -8 Y 14 X 1 Y 13 X -4 Y 14 X -3 Y 14 X -5 Y 13 X 1 Y 14 X -3 Y 14 X -5 Y 14 X -1 Y 41 X -1 Y 41 X s black 3 lw 143 685 m 548 X s 154 698 m -13 Y s 169 691 m -6 Y s 184 691 m -6 Y s 199 691 m -6
 Y s 214 691 m -6 Y s 229 698 m -13 Y s 244 691 m -6 Y s 259 691 m -6 Y s 274 691 m -6 Y s 289 691 m -6 Y s 304 698 m -13 Y s 319 691 m -6 Y s 334 691 m -6 Y s 349 691 m -6 Y s 364 691 m -6 Y s 379 698 m -13 Y s 394 691 m -6 Y s 409 691 m -6 Y s 424
 691 m -6 Y s 439 691 m -6 Y s 454 698 m -13 Y s 469 691 m -6 Y s 484 691 m -6 Y s 499 691 m -6 Y s 514 691 m -6 Y s 529 698 m -13 Y s 544 691 m -6 Y s 559 691 m -6 Y s 574 691 m -6 Y s 589 691 m -6 Y s 604 698 m -13 Y s 619 691 m -6 Y s 634 691 m -6
 Y s 649 691 m -6 Y s 664 691 m -6 Y s 679 698 m -13 Y s 154 698 m -13 Y s 679 698 m -13 Y s
 gsave  710 567 23 603 C 142.088 656.444 t 0 r /Helvetica findfont 25.6631 sf 0 0 m (0.1) show NC gr 
 gsave  710 567 23 603 C 130.721 656.444 t 0 r /Symbol findfont 25.6631 sf 0 0 m (-) show NC gr 
 gsave  710 567 23 603 C 207.448 656.444 t 0 r /Helvetica findfont 25.6631 sf 0 0 m (0.05) show NC gr 
 gsave  710 567 23 603 C 196.081 656.444 t 0 r /Symbol findfont 25.6631 sf 0 0 m (-) show NC gr 
 gsave  710 567 23 603 C 295.542 656.444 t 0 r /Helvetica findfont 25.6631 sf 0 0 m (0) show NC gr 
 gsave  710 567 23 603 C 352.377 656.444 t 0 r /Helvetica findfont 25.6631 sf 0 0 m (0.05) show NC gr 
 gsave  710 567 23 603 C 434.788 656.444 t 0 r /Helvetica findfont 25.6631 sf 0 0 m (0.1) show NC gr 
 gsave  710 567 23 603 C 502.99 656.444 t 0 r /Helvetica findfont 25.6631 sf 0 0 m (0.15) show NC gr 
 gsave  710 567 23 603 C 585.401 656.444 t 0 r /Helvetica findfont 25.6631 sf 0 0 m (0.2) show NC gr 
 gsave  710 567 23 603 C 653.603 656.444 t 0 r /Helvetica findfont 25.6631 sf 0 0 m (0.25) show NC gr 
 gsave  710 567 23 603 C 574.034 613.818 t 0 r /Helvetica findfont 28.5146 sf 0 0 m (bb.HP_l4) show NC gr  143 1114 m 548 X s 154 1100 m 14 Y s 169 1107 m 7 Y s 184 1107 m 7 Y s 199 1107 m 7 Y s 214 1107 m 7 Y s 229 1100 m 14 Y s 244 1107 m 7 Y s 259
 1107 m 7 Y s 274 1107 m 7 Y s 289 1107 m 7 Y s 304 1100 m 14 Y s 319 1107 m 7 Y s 334 1107 m 7 Y s 349 1107 m 7 Y s 364 1107 m 7 Y s 379 1100 m 14 Y s 394 1107 m 7 Y s 409 1107 m 7 Y s 424 1107 m 7 Y s 439 1107 m 7 Y s 454 1100 m 14 Y s 469 1107 m 7
 Y s 484 1107 m 7 Y s 499 1107 m 7 Y s 514 1107 m 7 Y s 529 1100 m 14 Y s 544 1107 m 7 Y s 559 1107 m 7 Y s 574 1107 m 7 Y s 589 1107 m 7 Y s 604 1100 m 14 Y s 619 1107 m 7 Y s 634 1107 m 7 Y s 649 1107 m 7 Y s 664 1107 m 7 Y s 679 1100 m 14 Y s 154
 1100 m 14 Y s 679 1100 m 14 Y s 143 685 m 429 Y s 160 685 m -17 X s 152 706 m -9 X s 152 726 m -9 X s 152 747 m -9 X s 160 768 m -17 X s 152 789 m -9 X s 152 810 m -9 X s 152 831 m -9 X s 160 852 m -17 X s 152 873 m -9 X s 152 894 m -9 X s 152 915 m
 -9 X s 160 936 m -17 X s 152 956 m -9 X s 152 977 m -9 X s 152 998 m -9 X s 160 1019 m -17 X s 152 1040 m -9 X s 152 1061 m -9 X s 152 1082 m -9 X s 160 1103 m -17 X s 160 1103 m -17 X s
 gsave  710 567 23 603 C 119.354 673.495 t 0 r /Helvetica findfont 25.6631 sf 0 0 m (0) show NC gr 
 gsave  710 567 23 603 C 119.354 758.747 t 0 r /Helvetica findfont 25.6631 sf 0 0 m (2) show NC gr 
 gsave  710 567 23 603 C 119.354 841.158 t 0 r /Helvetica findfont 25.6631 sf 0 0 m (4) show NC gr 
 gsave  710 567 23 603 C 119.354 926.411 t 0 r /Helvetica findfont 25.6631 sf 0 0 m (6) show NC gr 
 gsave  710 567 23 603 C 119.354 1008.82 t 0 r /Helvetica findfont 25.6631 sf 0 0 m (8) show NC gr 
 gsave  710 567 23 603 C 105.145 1094.07 t 0 r /Helvetica findfont 25.6631 sf 0 0 m (10) show NC gr 
 gsave  710 567 23 603 C 45.468 1005.98 t 90 r /Helvetica findfont 28.5146 sf 0 0 m (0.00912 ) show NC gr 
 gsave  710 567 23 603 C 31.2593 1003.14 t 90 r /Helvetica findfont 19.9602 sf 0 0 m ( ) show NC gr 
 gsave  710 567 23 603 C 45.468 991.771 t 90 r /Helvetica findfont 28.5146 sf 0 0 m (/) show NC gr 
 gsave  710 567 23 603 C 53.9933 988.929 t 90 r /Helvetica findfont 19.9602 sf 0 0 m ( ) show NC gr 
 gsave  710 567 23 603 C 45.468 883.784 t 90 r /Helvetica findfont 28.5146 sf 0 0 m (\(1/N\) dN) show NC gr  691 685 m 429 Y s 674 685 m 17 X s 683 706 m 8 X s 683 726 m 8 X s 683 747 m 8 X s 674 768 m 17 X s 683 789 m 8 X s 683 810 m 8 X s 683 831 m
 8 X s 674 852 m 17 X s 683 873 m 8 X s 683 894 m 8 X s 683 915 m 8 X s 674 936 m 17 X s 683 956 m 8 X s 683 977 m 8 X s 683 998 m 8 X s 674 1019 m 17 X s 683 1040 m 8 X s 683 1061 m 8 X s 683 1082 m 8 X s 674 1103 m 17 X s 674 1103 m 17 X s 0.490196
 0.545098 0.615686 c 0.364706 0.419608 0.490196 c 338 38 30 1130 bf 0.490196 0.545098 0.615686 c 30 1130 m 338 X s 368 1130 m 38 Y s 368 1168 m -338 X s 30 1168 m -38 Y s 1 1 1 c black 1 1 1 c
 gsave  710 567 23 603 C 34.101 1142.38 t 0 r /Helvetica-Bold findfont 28.5146 sf 0 0 m (Input variable: bb.HP_l4) show NC gr  1 0 0 c 6 lw black 3 lw 1 0 0 c 678 686 m -1 -1 d s 677 685 m s 663 686 m -1 -1 d s 656 695 m -10 -10 d s 638 692 m -7 -7 d
 s 620 689 m -4 -4 d s 605 688 m -4 -3 d s 595 693 m -9 -8 d s 582 696 m -1 -1 d s 575 689 m -4 -4 d s 567 696 m -11 -11 d s 558 702 m -4 -4 d s 553 697 m -12 -12 d s 540 699 m -14 -14 d s 530 704 m -4 -4 d s 513 687 m -2 -2 d s 513 702 m -17 -17 d s
 501 705 m -2 -2 d s 485 689 m -4 -4 d s 481 700 m -9 -9 d s 470 689 m -4 -4 d s 458 692 m -8 -7 d s 458 707 m -23 -22 d s 458 723 m -38 -38 d s 446 726 m -41 -41 d s 444 739 m -54 -54 d s 444 754 m -69 -69 d s 444 770 m -84 -85 d s 444 785 m -99
 -100 d s 444 800 m -114 -115 d s 444 815 m -13 -14 d s 421 791 m -106 -106 d s 444 830 m -13 -13 d s 417 803 m -117 -118 d s 444 845 m -13 -13 d s 417 818 m -132 -133 d s 444 861 m -13 -14 d s 417 833 m -14 -14 d s 398 814 m -128 -129 d s 434 866 m
 -3 -4 d s 410 841 m -7 -6 d s 390 821 m -135 -136 d s 390 836 m -151 -151 d s 390 851 m -166 -166 d s 390 866 m -181 -181 d s 390 881 m -196 -196 d s 390 897 m -28 -28 d s 357 863 m -178 -178 d s 390 912 m -28 -28 d s 349 871 m -185 -186 d s 383 920
 m -21 -21 d s 342 879 m -7 -7 d s 327 864 m -33 -33 d s 281 818 m -132 -133 d s 371 923 m -9 -8 d s 318 870 m -10 -10 d s 296 848 m -2 -2 d s 280 832 m -137 -138 d s 273 840 m -130 -131 d s 267 849 m -124 -124 d s 267 864 m -28 -28 d s 237 834 m -94
 -94 d s 267 879 m -28 -28 d s 226 838 m -83 -83 d s 256 883 m -17 -16 d s 226 853 m -83 -83 d s 253 896 m -14 -14 d s 226 868 m -83 -83 d s 241 899 m -2 -2 d s 220 878 m -77 -78 d s 212 885 m -69 -69 d s 212 900 m -69 -69 d s 212 915 m -69 -69 d s
 207 925 m -64 -64 d s 198 932 m -55 -56 d s 188 937 m -45 -45 d s 185 948 m -42 -41 d s 175 953 m -32 -31 d s 171 965 m -14 -14 d s 149 942 m -6 -5 d s 171 980 m -14 -14 d s 171 995 m -14 -14 d s 171 1010 m -14 -14 d s 171 1025 m -14 -13 d s 171
 1041 m -14 -14 d s 171 1056 m -14 -14 d s 171 1071 m -14 -14 d s 159 1075 m -2 -3 d s 6 lw 143 942 m 14 X 133 Y 14 X -122 Y 14 X -16 Y 13 X -12 Y 14 X -47 Y 14 X -44 Y 13 X 65 Y 14 X -16 Y 14 X -43 Y 13 X -22 Y 14 X 30 Y 14 X 22 Y 13 X -6 Y 14 X 15
 Y 14 X -16 Y 13 X 60 Y 14 X -3 Y 14 X -106 Y 13 X 27 Y 14 X -50 Y 14 X 75 Y 13 X -140 Y 14 X -37 Y 14 X 11 Y 13 X -11 Y 14 X 16 Y 14 X -18 Y 13 X 17 Y 14 X -7 Y 14 X 5 Y 13 X -13 Y 14 X 7 Y 14 X -8 Y 14 X 1 Y 13 X 1 Y 14 X 2 Y 14 X 3 Y 13 X -10 Y 14
 X 1 Y 14 X s black 3 lw 143 685 m 548 X s 154 698 m -13 Y s 169 691 m -6 Y s 184 691 m -6 Y s 199 691 m -6 Y s 214 691 m -6 Y s 229 698 m -13 Y s 244 691 m -6 Y s 259 691 m -6 Y s 274 691 m -6 Y s 289 691 m -6 Y s 304 698 m -13 Y s 319 691 m -6 Y s
 334 691 m -6 Y s 349 691 m -6 Y s 364 691 m -6 Y s 379 698 m -13 Y s 394 691 m -6 Y s 409 691 m -6 Y s 424 691 m -6 Y s 439 691 m -6 Y s 454 698 m -13 Y s 469 691 m -6 Y s 484 691 m -6 Y s 499 691 m -6 Y s 514 691 m -6 Y s 529 698 m -13 Y s 544 691
 m -6 Y s 559 691 m -6 Y s 574 691 m -6 Y s 589 691 m -6 Y s 604 698 m -13 Y s 619 691 m -6 Y s 634 691 m -6 Y s 649 691 m -6 Y s 664 691 m -6 Y s 679 698 m -13 Y s 154 698 m -13 Y s 679 698 m -13 Y s 143 1114 m 548 X s 154 1100 m 14 Y s 169 1107 m 7
 Y s 184 1107 m 7 Y s 199 1107 m 7 Y s 214 1107 m 7 Y s 229 1100 m 14 Y s 244 1107 m 7 Y s 259 1107 m 7 Y s 274 1107 m 7 Y s 289 1107 m 7 Y s 304 1100 m 14 Y s 319 1107 m 7 Y s 334 1107 m 7 Y s 349 1107 m 7 Y s 364 1107 m 7 Y s 379 1100 m 14 Y s 394
 1107 m 7 Y s 409 1107 m 7 Y s 424 1107 m 7 Y s 439 1107 m 7 Y s 454 1100 m 14 Y s 469 1107 m 7 Y s 484 1107 m 7 Y s 499 1107 m 7 Y s 514 1107 m 7 Y s 529 1100 m 14 Y s 544 1107 m 7 Y s 559 1107 m 7 Y s 574 1107 m 7 Y s 589 1107 m 7 Y s 604 1100 m 14
 Y s 619 1107 m 7 Y s 634 1107 m 7 Y s 649 1107 m 7 Y s 664 1107 m 7 Y s 679 1100 m 14 Y s 154 1100 m 14 Y s 679 1100 m 14 Y s 143 685 m 429 Y s 160 685 m -17 X s 152 706 m -9 X s 152 726 m -9 X s 152 747 m -9 X s 160 768 m -17 X s 152 789 m -9 X s
 152 810 m -9 X s 152 831 m -9 X s 160 852 m -17 X s 152 873 m -9 X s 152 894 m -9 X s 152 915 m -9 X s 160 936 m -17 X s 152 956 m -9 X s 152 977 m -9 X s 152 998 m -9 X s 160 1019 m -17 X s 152 1040 m -9 X s 152 1061 m -9 X s 152 1082 m -9 X s 160
 1103 m -17 X s 160 1103 m -17 X s 691 685 m 429 Y s 674 685 m 17 X s 683 706 m 8 X s 683 726 m 8 X s 683 747 m 8 X s 674 768 m 17 X s 683 789 m 8 X s 683 810 m 8 X s 683 831 m 8 X s 674 852 m 17 X s 683 873 m 8 X s 683 894 m 8 X s 683 915 m 8 X s
 674 936 m 17 X s 683 956 m 8 X s 683 977 m 8 X s 683 998 m 8 X s 674 1019 m 17 X s 683 1040 m 8 X s 683 1061 m 8 X s 683 1082 m 8 X s 674 1103 m 17 X s 674 1103 m 17 X s
 gsave  710 567 23 603 C 719.017 682.347 t 90 r /Helvetica-Bold findfont 19.9602 sf 0 0 m (U/O\255flow \(S,B\): \(0.0, 0.0\)% / \(0.0, 0.0\)%) show NC gr  0.490196 0.545098 0.615686 c 0.364706 0.419608 0.490196 c 338 38 30 1130 bf 0.490196 0.545098
 0.615686 c 30 1130 m 338 X s 368 1130 m 38 Y s 368 1168 m -338 X s 30 1168 m -38 Y s 1 1 1 c black 1 1 1 c
 gsave  710 567 23 603 C 34.101 1142.38 t 0 r /Helvetica-Bold findfont 28.5146 sf 0 0 m (Input variable: bb.HP_l4) show NC gr  0.490196 0.545098 0.615686 c 0.941176 0.941176 0.941176 c 710 567 779 603 bf black 1 1 0.992157 c 548 429 899 685 bf black
 548 429 899 685 bl 0 0 0.933333 c 6 lw 0.49 0.6 0.82 c black 3 lw 0.49 0.6 0.82 c 899 706 m 96 X 3 Y 14 X -4 Y 13 X 4 Y 14 X -3 Y 14 X 98 Y 14 X 182 Y 13 X 91 Y 14 X -75 Y 14 X 36 Y 13 X -90 Y 14 X 16 Y 14 X 27 Y 13 X -84 Y 14 X 115 Y 14 X -107 Y 13
 X 63 Y 14 X 50 Y 14 X -92 Y 13 X 20 Y 14 X 48 Y 14 X -152 Y 13 X -120 Y 14 X -9 Y 14 X -2 Y 13 X -2 Y 14 X -8 Y 14 X 2 Y 27 X -6 Y 14 X 1 Y 13 X -1 Y 14 X -1 Y 28 X f 6 lw 0 0 0.933333 c 0.49 0.6 0.82 c 0 0 0.933333 c 899 706 m 96 X 3 Y 14 X -4 Y 13
 X 4 Y 14 X -3 Y 14 X 98 Y 14 X 182 Y 13 X 91 Y 14 X -75 Y 14 X 36 Y 13 X -90 Y 14 X 16 Y 14 X 27 Y 13 X -84 Y 14 X 115 Y 14 X -107 Y 13 X 63 Y 14 X 50 Y 14 X -92 Y 13 X 20 Y 14 X 48 Y 14 X -152 Y 13 X -120 Y 14 X -9 Y 14 X -2 Y 13 X -2 Y 14 X -8 Y
 14 X 2 Y 27 X -6 Y 14 X 1 Y 13 X -1 Y 14 X -1 Y 28 X s black 3 lw 899 685 m 548 X s 953 698 m -13 Y s 965 691 m -6 Y s 976 691 m -6 Y s 987 691 m -6 Y s 998 691 m -6 Y s 1009 698 m -13 Y s 1021 691 m -6 Y s 1032 691 m -6 Y s 1043 691 m -6 Y s 1054
 691 m -6 Y s 1066 698 m -13 Y s 1077 691 m -6 Y s 1088 691 m -6 Y s 1099 691 m -6 Y s 1111 691 m -6 Y s 1122 698 m -13 Y s 1133 691 m -6 Y s 1144 691 m -6 Y s 1155 691 m -6 Y s 1167 691 m -6 Y s 1178 698 m -13 Y s 1189 691 m -6 Y s 1200 691 m -6 Y s
 1212 691 m -6 Y s 1223 691 m -6 Y s 1234 698 m -13 Y s 1245 691 m -6 Y s 1256 691 m -6 Y s 1268 691 m -6 Y s 1279 691 m -6 Y s 1290 698 m -13 Y s 1301 691 m -6 Y s 1313 691 m -6 Y s 1324 691 m -6 Y s 1335 691 m -6 Y s 1346 698 m -13 Y s 1357 691 m
 -6 Y s 1369 691 m -6 Y s 1380 691 m -6 Y s 1391 691 m -6 Y s 1402 698 m -13 Y s 953 698 m -13 Y s 942 691 m -6 Y s 931 691 m -6 Y s 920 691 m -6 Y s 908 691 m -6 Y s 1402 698 m -13 Y s 1414 691 m -6 Y s 1425 691 m -6 Y s 1436 691 m -6 Y s
 gsave  710 567 779 603 C 940.619 656.444 t 0 r /Helvetica findfont 25.6631 sf 0 0 m (0.2) show NC gr 
 gsave  710 567 779 603 C 926.411 656.444 t 0 r /Symbol findfont 25.6631 sf 0 0 m (-) show NC gr 
 gsave  710 567 779 603 C 988.929 656.444 t 0 r /Helvetica findfont 25.6631 sf 0 0 m (0.15) show NC gr 
 gsave  710 567 779 603 C 977.562 656.444 t 0 r /Symbol findfont 25.6631 sf 0 0 m (-) show NC gr 
 gsave  710 567 779 603 C 1051.45 656.444 t 0 r /Helvetica findfont 25.6631 sf 0 0 m (0.1) show NC gr 
 gsave  710 567 779 603 C 1040.08 656.444 t 0 r /Symbol findfont 25.6631 sf 0 0 m (-) show NC gr 
 gsave  710 567 779 603 C 1099.76 656.444 t 0 r /Helvetica findfont 25.6631 sf 0 0 m (0.05) show NC gr 
 gsave  710 567 779 603 C 1088.39 656.444 t 0 r /Symbol findfont 25.6631 sf 0 0 m (-) show NC gr 
 gsave  710 567 779 603 C 1167.96 656.444 t 0 r /Helvetica findfont 25.6631 sf 0 0 m (0) show NC gr 
 gsave  710 567 779 603 C 1207.74 656.444 t 0 r /Helvetica findfont 25.6631 sf 0 0 m (0.05) show NC gr 
 gsave  710 567 779 603 C 1270.26 656.444 t 0 r /Helvetica findfont 25.6631 sf 0 0 m (0.1) show NC gr 
 gsave  710 567 779 603 C 1318.57 656.444 t 0 r /Helvetica findfont 25.6631 sf 0 0 m (0.15) show NC gr 
 gsave  710 567 779 603 C 1383.93 656.444 t 0 r /Helvetica findfont 25.6631 sf 0 0 m (0.2) show NC gr 
 gsave  710 567 779 603 C 1329.94 613.818 t 0 r /Helvetica findfont 28.5146 sf 0 0 m (bb.HP_l5) show NC gr  899 1114 m 548 X s 953 1100 m 14 Y s 965 1107 m 7 Y s 976 1107 m 7 Y s 987 1107 m 7 Y s 998 1107 m 7 Y s 1009 1100 m 14 Y s 1021 1107 m 7 Y s
 1032 1107 m 7 Y s 1043 1107 m 7 Y s 1054 1107 m 7 Y s 1066 1100 m 14 Y s 1077 1107 m 7 Y s 1088 1107 m 7 Y s 1099 1107 m 7 Y s 1111 1107 m 7 Y s 1122 1100 m 14 Y s 1133 1107 m 7 Y s 1144 1107 m 7 Y s 1155 1107 m 7 Y s 1167 1107 m 7 Y s 1178 1100 m
 14 Y s 1189 1107 m 7 Y s 1200 1107 m 7 Y s 1212 1107 m 7 Y s 1223 1107 m 7 Y s 1234 1100 m 14 Y s 1245 1107 m 7 Y s 1256 1107 m 7 Y s 1268 1107 m 7 Y s 1279 1107 m 7 Y s 1290 1100 m 14 Y s 1301 1107 m 7 Y s 1313 1107 m 7 Y s 1324 1107 m 7 Y s 1335
 1107 m 7 Y s 1346 1100 m 14 Y s 1357 1107 m 7 Y s 1369 1107 m 7 Y s 1380 1107 m 7 Y s 1391 1107 m 7 Y s 1402 1100 m 14 Y s 953 1100 m 14 Y s 942 1107 m 7 Y s 931 1107 m 7 Y s 920 1107 m 7 Y s 908 1107 m 7 Y s 1402 1100 m 14 Y s 1414 1107 m 7 Y s
 1425 1107 m 7 Y s 1436 1107 m 7 Y s 899 685 m 429 Y s 915 706 m -16 X s 907 717 m -8 X s 907 728 m -8 X s 907 739 m -8 X s 907 750 m -8 X s 915 761 m -16 X s 907 772 m -8 X s 907 783 m -8 X s 907 794 m -8 X s 907 805 m -8 X s 915 816 m -16 X s 907
 827 m -8 X s 907 838 m -8 X s 907 849 m -8 X s 907 860 m -8 X s 915 871 m -16 X s 907 882 m -8 X s 907 893 m -8 X s 907 904 m -8 X s 907 915 m -8 X s 915 926 m -16 X s 907 937 m -8 X s 907 948 m -8 X s 907 959 m -8 X s 907 970 m -8 X s 915 981 m -16
 X s 907 992 m -8 X s 907 1003 m -8 X s 907 1014 m -8 X s 907 1025 m -8 X s 915 1036 m -16 X s 907 1047 m -8 X s 907 1058 m -8 X s 907 1069 m -8 X s 907 1080 m -8 X s 915 1091 m -16 X s 915 706 m -16 X s 907 695 m -8 X s 915 1091 m -16 X s 907 1102 m
 -8 X s 907 1113 m -8 X s
 gsave  710 567 779 603 C 875.259 696.229 t 0 r /Helvetica findfont 25.6631 sf 0 0 m (0) show NC gr 
 gsave  710 567 779 603 C 878.101 750.222 t 0 r /Helvetica findfont 25.6631 sf 0 0 m (1) show NC gr 
 gsave  710 567 779 603 C 875.259 807.057 t 0 r /Helvetica findfont 25.6631 sf 0 0 m (2) show NC gr 
 gsave  710 567 779 603 C 875.259 861.05 t 0 r /Helvetica findfont 25.6631 sf 0 0 m (3) show NC gr 
 gsave  710 567 779 603 C 875.259 915.044 t 0 r /Helvetica findfont 25.6631 sf 0 0 m (4) show NC gr 
 gsave  710 567 779 603 C 875.259 971.879 t 0 r /Helvetica findfont 25.6631 sf 0 0 m (5) show NC gr 
 gsave  710 567 779 603 C 875.259 1025.87 t 0 r /Helvetica findfont 25.6631 sf 0 0 m (6) show NC gr 
 gsave  710 567 779 603 C 875.259 1079.86 t 0 r /Helvetica findfont 25.6631 sf 0 0 m (7) show NC gr 
 gsave  710 567 779 603 C 801.374 1023.03 t 90 r /Helvetica findfont 28.5146 sf 0 0 m (0.0122 ) show NC gr 
 gsave  710 567 779 603 C 787.165 1020.19 t 90 r /Helvetica findfont 19.9602 sf 0 0 m ( ) show NC gr 
 gsave  710 567 779 603 C 801.374 1008.82 t 90 r /Helvetica findfont 28.5146 sf 0 0 m (/) show NC gr 
 gsave  710 567 779 603 C 809.899 1005.98 t 90 r /Helvetica findfont 19.9602 sf 0 0 m ( ) show NC gr 
 gsave  710 567 779 603 C 801.374 900.835 t 90 r /Helvetica findfont 28.5146 sf 0 0 m (\(1/N\) dN) show NC gr  1447 685 m 429 Y s 1430 706 m 17 X s 1438 717 m 9 X s 1438 728 m 9 X s 1438 739 m 9 X s 1438 750 m 9 X s 1430 761 m 17 X s 1438 772 m 9 X s
 1438 783 m 9 X s 1438 794 m 9 X s 1438 805 m 9 X s 1430 816 m 17 X s 1438 827 m 9 X s 1438 838 m 9 X s 1438 849 m 9 X s 1438 860 m 9 X s 1430 871 m 17 X s 1438 882 m 9 X s 1438 893 m 9 X s 1438 904 m 9 X s 1438 915 m 9 X s 1430 926 m 17 X s 1438 937
 m 9 X s 1438 948 m 9 X s 1438 959 m 9 X s 1438 970 m 9 X s 1430 981 m 17 X s 1438 992 m 9 X s 1438 1003 m 9 X s 1438 1014 m 9 X s 1438 1025 m 9 X s 1430 1036 m 17 X s 1438 1047 m 9 X s 1438 1058 m 9 X s 1438 1069 m 9 X s 1438 1080 m 9 X s 1430 1091
 m 17 X s 1430 706 m 17 X s 1438 695 m 9 X s 1430 1091 m 17 X s 1438 1102 m 9 X s 1438 1113 m 9 X s 0.490196 0.545098 0.615686 c 0.364706 0.419608 0.490196 c 338 38 786 1130 bf 0.490196 0.545098 0.615686 c 786 1130 m 338 X s 1124 1130 m 38 Y s 1124
 1168 m -338 X s 786 1168 m -38 Y s 1 1 1 c black 1 1 1 c
 gsave  710 567 779 603 C 790.007 1142.38 t 0 r /Helvetica-Bold findfont 28.5146 sf 0 0 m (Input variable: bb.HP_l5) show NC gr  1 0 0 c 6 lw black 3 lw 1 0 0 c 1438 706 m s 1423 706 m s 1408 706 m s 1393 706 m s 1378 706 m s 1363 706 m s 1348 706 m
 s 1333 706 m s 1318 706 m s 1303 706 m s 1296 714 m -8 -8 d s 1296 729 m -23 -23 d s 1296 745 m -39 -39 d s 1296 760 m -54 -54 d s 1296 775 m -69 -69 d s 1296 790 m -84 -84 d s 1296 805 m -99 -99 d s 1296 820 m -114 -114 d s 1296 836 m -129 -130 d s
 1296 851 m -144 -145 d s 1296 866 m -159 -160 d s 1285 870 m -163 -164 d s 1282 883 m -175 -177 d s 1282 898 m -190 -192 d s 1282 913 m -205 -207 d s 1279 925 m -217 -219 d s 1269 930 m -223 -224 d s 1269 945 m -205 -207 d s 1062 736 m -12 -12 d s
 1048 722 m -17 -16 d s 1269 960 m -205 -207 d s 1026 715 m -4 -3 d s 1022 711 m -6 -5 d s 1269 975 m -41 -41 d s 1216 922 m -29 -30 d s 1182 888 m -118 -120 d s 1009 713 m -8 -7 d s 1256 977 m -28 -28 d s 1214 935 m -14 -14 d s 1197 918 m -10 -10 d
 s 1173 894 m -109 -110 d s 1009 729 m -14 -14 d s 989 709 m -3 -3 d s 1255 992 m -14 -14 d s 1228 964 m s 1214 950 m -14 -13 d s 1173 909 m -109 -110 d s 998 733 m -3 -3 d s 974 709 m -3 -3 d s 1255 1007 m -14 -14 d s 1214 966 m -14 -14 d s 1173 924
 m -109 -110 d s 960 710 m -4 -4 d s 1254 1021 m -13 -13 d s 1214 980 m -14 -13 d s 1173 939 m -96 -96 d s 1071 837 m -7 -8 d s 946 711 m -5 -5 d s 1167 948 m -90 -90 d s 932 712 m -6 -6 d s 1159 956 m -82 -83 d s 921 716 m -8 -8 d s 912 707 m -1 -1
 d s 1159 971 m -82 -82 d s 1159 986 m -82 -82 d s 1149 991 m -72 -72 d s 1145 1002 m -68 -68 d s 1132 1004 m -55 -55 d s 1132 1020 m -55 -56 d s 1132 1035 m -27 -28 d s 1099 1002 m -22 -22 d s 1129 1047 m -11 -11 d s 1116 1034 m -11 -12 d s 1091
 1009 m -14 -14 d s 1091 1024 m -14 -14 d s 1091 1039 m -14 -14 d s 1091 1054 m -14 -14 d s 1079 1057 m -2 -1 d s 6 lw 899 707 m 14 X 9 Y 14 X -4 Y 13 X -1 Y 14 X -1 Y 14 X -1 Y 27 X 24 Y 14 X -22 Y 13 X 4 Y 14 X 7 Y 14 X 14 Y 14 X 101 Y 13 X 220 Y
 14 X -55 Y 14 X 32 Y 13 X 13 Y 14 X -45 Y 14 X -11 Y 13 X -43 Y 14 X -60 Y 14 X 30 Y 13 X 62 Y 14 X -58 Y 14 X 42 Y 13 X 57 Y 14 X -44 Y 14 X -52 Y 13 X -55 Y 14 X -164 Y 151 X s black 3 lw 899 685 m 548 X s 953 698 m -13 Y s 965 691 m -6 Y s 976
 691 m -6 Y s 987 691 m -6 Y s 998 691 m -6 Y s 1009 698 m -13 Y s 1021 691 m -6 Y s 1032 691 m -6 Y s 1043 691 m -6 Y s 1054 691 m -6 Y s 1066 698 m -13 Y s 1077 691 m -6 Y s 1088 691 m -6 Y s 1099 691 m -6 Y s 1111 691 m -6 Y s 1122 698 m -13 Y s
 1133 691 m -6 Y s 1144 691 m -6 Y s 1155 691 m -6 Y s 1167 691 m -6 Y s 1178 698 m -13 Y s 1189 691 m -6 Y s 1200 691 m -6 Y s 1212 691 m -6 Y s 1223 691 m -6 Y s 1234 698 m -13 Y s 1245 691 m -6 Y s 1256 691 m -6 Y s 1268 691 m -6 Y s 1279 691 m -6
 Y s 1290 698 m -13 Y s 1301 691 m -6 Y s 1313 691 m -6 Y s 1324 691 m -6 Y s 1335 691 m -6 Y s 1346 698 m -13 Y s 1357 691 m -6 Y s 1369 691 m -6 Y s 1380 691 m -6 Y s 1391 691 m -6 Y s 1402 698 m -13 Y s 953 698 m -13 Y s 942 691 m -6 Y s 931 691 m
 -6 Y s 920 691 m -6 Y s 908 691 m -6 Y s 1402 698 m -13 Y s 1414 691 m -6 Y s 1425 691 m -6 Y s 1436 691 m -6 Y s 899 1114 m 548 X s 953 1100 m 14 Y s 965 1107 m 7 Y s 976 1107 m 7 Y s 987 1107 m 7 Y s 998 1107 m 7 Y s 1009 1100 m 14 Y s 1021 1107 m
 7 Y s 1032 1107 m 7 Y s 1043 1107 m 7 Y s 1054 1107 m 7 Y s 1066 1100 m 14 Y s 1077 1107 m 7 Y s 1088 1107 m 7 Y s 1099 1107 m 7 Y s 1111 1107 m 7 Y s 1122 1100 m 14 Y s 1133 1107 m 7 Y s 1144 1107 m 7 Y s 1155 1107 m 7 Y s 1167 1107 m 7 Y s 1178
 1100 m 14 Y s 1189 1107 m 7 Y s 1200 1107 m 7 Y s 1212 1107 m 7 Y s 1223 1107 m 7 Y s 1234 1100 m 14 Y s 1245 1107 m 7 Y s 1256 1107 m 7 Y s 1268 1107 m 7 Y s 1279 1107 m 7 Y s 1290 1100 m 14 Y s 1301 1107 m 7 Y s 1313 1107 m 7 Y s 1324 1107 m 7 Y s
 1335 1107 m 7 Y s 1346 1100 m 14 Y s 1357 1107 m 7 Y s 1369 1107 m 7 Y s 1380 1107 m 7 Y s 1391 1107 m 7 Y s 1402 1100 m 14 Y s 953 1100 m 14 Y s 942 1107 m 7 Y s 931 1107 m 7 Y s 920 1107 m 7 Y s 908 1107 m 7 Y s 1402 1100 m 14 Y s 1414 1107 m 7 Y
 s 1425 1107 m 7 Y s 1436 1107 m 7 Y s 899 685 m 429 Y s 915 706 m -16 X s 907 717 m -8 X s 907 728 m -8 X s 907 739 m -8 X s 907 750 m -8 X s 915 761 m -16 X s 907 772 m -8 X s 907 783 m -8 X s 907 794 m -8 X s 907 805 m -8 X s 915 816 m -16 X s 907
 827 m -8 X s 907 838 m -8 X s 907 849 m -8 X s 907 860 m -8 X s 915 871 m -16 X s 907 882 m -8 X s 907 893 m -8 X s 907 904 m -8 X s 907 915 m -8 X s 915 926 m -16 X s 907 937 m -8 X s 907 948 m -8 X s 907 959 m -8 X s 907 970 m -8 X s 915 981 m -16
 X s 907 992 m -8 X s 907 1003 m -8 X s 907 1014 m -8 X s 907 1025 m -8 X s 915 1036 m -16 X s 907 1047 m -8 X s 907 1058 m -8 X s 907 1069 m -8 X s 907 1080 m -8 X s 915 1091 m -16 X s 915 706 m -16 X s 907 695 m -8 X s 915 1091 m -16 X s 907 1102 m
 -8 X s 907 1113 m -8 X s 1447 685 m 429 Y s 1430 706 m 17 X s 1438 717 m 9 X s 1438 728 m 9 X s 1438 739 m 9 X s 1438 750 m 9 X s 1430 761 m 17 X s 1438 772 m 9 X s 1438 783 m 9 X s 1438 794 m 9 X s 1438 805 m 9 X s 1430 816 m 17 X s 1438 827 m 9 X
 s 1438 838 m 9 X s 1438 849 m 9 X s 1438 860 m 9 X s 1430 871 m 17 X s 1438 882 m 9 X s 1438 893 m 9 X s 1438 904 m 9 X s 1438 915 m 9 X s 1430 926 m 17 X s 1438 937 m 9 X s 1438 948 m 9 X s 1438 959 m 9 X s 1438 970 m 9 X s 1430 981 m 17 X s 1438
 992 m 9 X s 1438 1003 m 9 X s 1438 1014 m 9 X s 1438 1025 m 9 X s 1430 1036 m 17 X s 1438 1047 m 9 X s 1438 1058 m 9 X s 1438 1069 m 9 X s 1438 1080 m 9 X s 1430 1091 m 17 X s 1430 706 m 17 X s 1438 695 m 9 X s 1430 1091 m 17 X s 1438 1102 m 9 X s
 1438 1113 m 9 X s
 gsave  710 567 779 603 C 1474.92 682.347 t 90 r /Helvetica-Bold findfont 19.9602 sf 0 0 m (U/O\255flow \(S,B\): \(0.0, 0.0\)% / \(0.0, 0.0\)%) show NC gr  0.490196 0.545098 0.615686 c 0.364706 0.419608 0.490196 c 338 38 786 1130 bf 0.490196 0.545098
 0.615686 c 786 1130 m 338 X s 1124 1130 m 38 Y s 1124 1168 m -338 X s 786 1168 m -38 Y s 1 1 1 c black 1 1 1 c
 gsave  710 567 779 603 C 790.007 1142.38 t 0 r /Helvetica-Bold findfont 28.5146 sf 0 0 m (Input variable: bb.HP_l5) show NC gr  0.490196 0.545098 0.615686 c 0.941176 0.941176 0.941176 c 711 567 1534 603 bf black 1 1 0.992157 c 547 429 1655 685 bf
 black 547 429 1655 685 bl 0 0 0.933333 c 6 lw 0.49 0.6 0.82 c black 3 lw 0.49 0.6 0.82 c 1655 685 m 28 X 5 Y 13 X 15 Y 14 X 60 Y 14 X 134 Y 13 X 109 Y 14 X 66 Y 14 X -117 Y 13 X -41 Y 14 X -80 Y 14 X 87 Y 13 X -39 Y 14 X -20 Y 14 X -59 Y 13 X 93 Y
 14 X -48 Y 14 X 41 Y 13 X -71 Y 14 X 17 Y 14 X 8 Y 14 X -63 Y 13 X 53 Y 14 X 13 Y 14 X -142 Y 13 X 108 Y 14 X -15 Y 14 X -3 Y 13 X 3 Y 14 X 29 Y 14 X -73 Y 13 X 45 Y 14 X -4 Y 14 X -9 Y 13 X -81 Y 14 X -3 Y 14 X 12 Y 13 X -29 Y 14 X -1 Y 27 X f 6 lw
 0 0 0.933333 c 0.49 0.6 0.82 c 0 0 0.933333 c 1655 685 m 28 X 5 Y 13 X 15 Y 14 X 60 Y 14 X 134 Y 13 X 109 Y 14 X 66 Y 14 X -117 Y 13 X -41 Y 14 X -80 Y 14 X 87 Y 13 X -39 Y 14 X -20 Y 14 X -59 Y 13 X 93 Y 14 X -48 Y 14 X 41 Y 13 X -71 Y 14 X 17 Y 14
 X 8 Y 14 X -63 Y 13 X 53 Y 14 X 13 Y 14 X -142 Y 13 X 108 Y 14 X -15 Y 14 X -3 Y 13 X 3 Y 14 X 29 Y 14 X -73 Y 13 X 45 Y 14 X -4 Y 14 X -9 Y 13 X -81 Y 14 X -3 Y 14 X 12 Y 13 X -29 Y 14 X -1 Y 27 X s black 3 lw 1655 685 m 547 X s 1676 698 m -13 Y s
 1695 691 m -6 Y s 1713 691 m -6 Y s 1732 691 m -6 Y s 1751 691 m -6 Y s 1769 698 m -13 Y s 1788 691 m -6 Y s 1807 691 m -6 Y s 1826 691 m -6 Y s 1844 691 m -6 Y s 1863 698 m -13 Y s 1882 691 m -6 Y s 1900 691 m -6 Y s 1919 691 m -6 Y s 1938 691 m -6
 Y s 1956 698 m -13 Y s 1975 691 m -6 Y s 1994 691 m -6 Y s 2013 691 m -6 Y s 2031 691 m -6 Y s 2050 698 m -13 Y s 2069 691 m -6 Y s 2087 691 m -6 Y s 2106 691 m -6 Y s 2125 691 m -6 Y s 2144 698 m -13 Y s 1676 698 m -13 Y s 1657 691 m -6 Y s 2144
 698 m -13 Y s 2162 691 m -6 Y s 2181 691 m -6 Y s 2200 691 m -6 Y s
 gsave  711 567 1534 603 C 1662.42 656.444 t 0 r /Helvetica findfont 25.6631 sf 0 0 m (0.2) show NC gr 
 gsave  711 567 1534 603 C 1648.21 656.444 t 0 r /Symbol findfont 25.6631 sf 0 0 m (-) show NC gr 
 gsave  711 567 1534 603 C 1756.2 656.444 t 0 r /Helvetica findfont 25.6631 sf 0 0 m (0.1) show NC gr 
 gsave  711 567 1534 603 C 1744.83 656.444 t 0 r /Symbol findfont 25.6631 sf 0 0 m (-) show NC gr 
 gsave  711 567 1534 603 C 1852.82 656.444 t 0 r /Helvetica findfont 25.6631 sf 0 0 m (0) show NC gr 
 gsave  711 567 1534 603 C 1938.07 656.444 t 0 r /Helvetica findfont 25.6631 sf 0 0 m (0.1) show NC gr 
 gsave  711 567 1534 603 C 2031.85 656.444 t 0 r /Helvetica findfont 25.6631 sf 0 0 m (0.2) show NC gr 
 gsave  711 567 1534 603 C 2125.63 656.444 t 0 r /Helvetica findfont 25.6631 sf 0 0 m (0.3) show NC gr 
 gsave  711 567 1534 603 C 2063.11 616.66 t 0 r /Helvetica findfont 28.5146 sf 0 0 m (yybb.HP_l1) show NC gr  1655 1114 m 547 X s 1676 1100 m 14 Y s 1695 1107 m 7 Y s 1713 1107 m 7 Y s 1732 1107 m 7 Y s 1751 1107 m 7 Y s 1769 1100 m 14 Y s 1788 1107
 m 7 Y s 1807 1107 m 7 Y s 1826 1107 m 7 Y s 1844 1107 m 7 Y s 1863 1100 m 14 Y s 1882 1107 m 7 Y s 1900 1107 m 7 Y s 1919 1107 m 7 Y s 1938 1107 m 7 Y s 1956 1100 m 14 Y s 1975 1107 m 7 Y s 1994 1107 m 7 Y s 2013 1107 m 7 Y s 2031 1107 m 7 Y s 2050
 1100 m 14 Y s 2069 1107 m 7 Y s 2087 1107 m 7 Y s 2106 1107 m 7 Y s 2125 1107 m 7 Y s 2144 1100 m 14 Y s 1676 1100 m 14 Y s 1657 1107 m 7 Y s 2144 1100 m 14 Y s 2162 1107 m 7 Y s 2181 1107 m 7 Y s 2200 1107 m 7 Y s 1655 685 m 429 Y s 1671 685 m -16
 X s 1663 699 m -8 X s 1663 714 m -8 X s 1663 728 m -8 X s 1663 743 m -8 X s 1671 757 m -16 X s 1663 772 m -8 X s 1663 787 m -8 X s 1663 801 m -8 X s 1663 816 m -8 X s 1671 830 m -16 X s 1663 845 m -8 X s 1663 859 m -8 X s 1663 874 m -8 X s 1663 889
 m -8 X s 1671 903 m -16 X s 1663 918 m -8 X s 1663 932 m -8 X s 1663 947 m -8 X s 1663 961 m -8 X s 1671 976 m -16 X s 1663 990 m -8 X s 1663 1005 m -8 X s 1663 1020 m -8 X s 1663 1034 m -8 X s 1671 1049 m -16 X s 1671 1049 m -16 X s 1663 1063 m -8
 X s 1663 1078 m -8 X s 1663 1092 m -8 X s 1663 1107 m -8 X s
 gsave  711 567 1534 603 C 1631.16 673.495 t 0 r /Helvetica findfont 25.6631 sf 0 0 m (0) show NC gr 
 gsave  711 567 1534 603 C 1634.01 747.38 t 0 r /Helvetica findfont 25.6631 sf 0 0 m (1) show NC gr 
 gsave  711 567 1534 603 C 1631.16 821.266 t 0 r /Helvetica findfont 25.6631 sf 0 0 m (2) show NC gr 
 gsave  711 567 1534 603 C 1631.16 892.31 t 0 r /Helvetica findfont 25.6631 sf 0 0 m (3) show NC gr 
 gsave  711 567 1534 603 C 1631.16 966.195 t 0 r /Helvetica findfont 25.6631 sf 0 0 m (4) show NC gr 
 gsave  711 567 1534 603 C 1631.16 1040.08 t 0 r /Helvetica findfont 25.6631 sf 0 0 m (5) show NC gr 
 gsave  711 567 1534 603 C 1557.28 1023.03 t 90 r /Helvetica findfont 28.5146 sf 0 0 m (0.0146 ) show NC gr 
 gsave  711 567 1534 603 C 1543.07 1020.19 t 90 r /Helvetica findfont 19.9602 sf 0 0 m ( ) show NC gr 
 gsave  711 567 1534 603 C 1557.28 1008.82 t 90 r /Helvetica findfont 28.5146 sf 0 0 m (/) show NC gr 
 gsave  711 567 1534 603 C 1565.8 1005.98 t 90 r /Helvetica findfont 19.9602 sf 0 0 m ( ) show NC gr 
 gsave  711 567 1534 603 C 1557.28 900.835 t 90 r /Helvetica findfont 28.5146 sf 0 0 m (\(1/N\) dN) show NC gr  2202 685 m 429 Y s 2186 685 m 16 X s 2194 699 m 8 X s 2194 714 m 8 X s 2194 728 m 8 X s 2194 743 m 8 X s 2186 757 m 16 X s 2194 772 m 8 X
 s 2194 787 m 8 X s 2194 801 m 8 X s 2194 816 m 8 X s 2186 830 m 16 X s 2194 845 m 8 X s 2194 859 m 8 X s 2194 874 m 8 X s 2194 889 m 8 X s 2186 903 m 16 X s 2194 918 m 8 X s 2194 932 m 8 X s 2194 947 m 8 X s 2194 961 m 8 X s 2186 976 m 16 X s 2194
 990 m 8 X s 2194 1005 m 8 X s 2194 1020 m 8 X s 2194 1034 m 8 X s 2186 1049 m 16 X s 2186 1049 m 16 X s 2194 1063 m 8 X s 2194 1078 m 8 X s 2194 1092 m 8 X s 2194 1107 m 8 X s 0.490196 0.545098 0.615686 c 0.364706 0.419608 0.490196 c 366 38 1542
 1130 bf 0.490196 0.545098 0.615686 c 1542 1130 m 366 X s 1908 1130 m 38 Y s 1908 1168 m -366 X s 1542 1168 m -38 Y s 1 1 1 c black 1 1 1 c
 gsave  711 567 1534 603 C 1545.91 1142.38 t 0 r /Helvetica-Bold findfont 28.5146 sf 0 0 m (Input variable: yybb.HP_l1) show NC gr  1 0 0 c 6 lw black 3 lw 1 0 0 c 2189 685 m -1 X s 2185 697 m -12 -12 d s 2165 691 m -7 -6 d s 2161 703 m -18 -18 d s
 2155 712 m -27 -27 d s 2148 720 m -35 -35 d s 2145 732 m -47 -47 d s 2134 736 m -51 -51 d s 2120 738 m -52 -53 d s 2120 753 m -67 -68 d s 2118 766 m -11 -12 d s 2105 753 m -67 -68 d s 2082 745 m -59 -60 d s 2079 757 m -71 -72 d s 2079 772 m -87 -87
 d s 2079 787 m -13 -13 d s 2062 770 m -85 -85 d s 2074 797 m -8 -8 d s 2052 775 m -90 -90 d s 2052 790 m -105 -105 d s 2052 805 m -120 -120 d s 2052 820 m -135 -135 d s 2052 836 m -14 -14 d s 2025 808 m -123 -123 d s 2052 851 m -14 -14 d s 2025 823
 m -138 -138 d s 2022 836 m -150 -151 d s 2011 840 m -27 -28 d s 1976 804 m -6 -5 d s 1966 794 m -109 -109 d s 1997 841 m -13 -14 d s 1956 800 m -114 -115 d s 1997 856 m -13 -13 d s 1956 815 m -129 -130 d s 1997 872 m -13 -14 d s 1953 827 m -24 -24 d
 s 1928 802 m -116 -117 d s 1997 887 m -13 -14 d s 1943 832 m -14 -14 d s 1915 804 m -119 -119 d s 1986 890 m -2 -2 d s 1943 847 m -14 -14 d s 1915 819 m -134 -134 d s 1941 860 m -12 -12 d s 1915 835 m -41 -42 d s 1864 783 m -98 -98 d s 1915 850 m
 -41 -42 d s 1860 795 m -109 -110 d s 1913 862 m -39 -38 d s 1860 810 m -124 -125 d s 1889 854 m -1 -1 d s 1878 842 m -4 -3 d s 1860 825 m -139 -140 d s 1860 840 m -150 -151 d s 1706 685 m s 1860 855 m -150 -151 d s 1696 690 m -5 -5 d s 1860 871 m
 -150 -152 d s 1683 692 m -1 Y s 1676 685 m s 1860 886 m -27 -28 d s 1832 857 m -108 -109 d s 1718 742 m -8 -8 d s 1661 685 m s 1860 901 m -27 -28 d s 1813 853 m -89 -90 d s 1860 916 m -13 -14 d s 1838 894 m -5 -5 d s 1806 861 m -82 -83 d s 1860 931
 m -13 -14 d s 1806 876 m -69 -69 d s 1737 807 m -13 -14 d s 1848 934 m -1 -1 d s 1806 891 m -69 -69 d s 1803 904 m -66 -66 d s 1792 908 m -14 -14 d s 1770 886 m -33 -33 d s 1792 923 m -14 -14 d s 1765 896 m -28 -28 d s 1792 938 m -14 -14 d s 1765
 911 m -28 -28 d s 1765 926 m -28 -28 d s 1765 941 m -28 -27 d s 1765 956 m -28 -27 d s 1765 971 m -28 -27 d s 1765 987 m -28 -28 d s 1765 1002 m -28 -28 d s 1765 1017 m -14 -14 d s 1765 1032 m -14 -14 d s 1765 1047 m -14 -13 d s 1765 1063 m -14 -14
 d s 1762 1075 m -11 -11 d s 6 lw 1655 685 m 28 X 7 Y 13 X -7 Y 14 X 57 Y 14 X 65 Y 13 X 182 Y 14 X 86 Y 14 X -189 Y 13 X 52 Y 14 X -34 Y 14 X -51 Y 13 X 4 Y 14 X 37 Y 14 X 40 Y 13 X -151 Y 14 X 59 Y 14 X 12 Y 13 X 8 Y 14 X -60 Y 14 X 58 Y 14 X -33 Y
 13 X -33 Y 14 X 10 Y 14 X 86 Y 13 X -49 Y 14 X -5 Y 14 X -28 Y 13 X 44 Y 14 X -82 Y 14 X 27 Y 13 X -52 Y 14 X 8 Y 14 X 13 Y 13 X -29 Y 14 X -5 Y 14 X -20 Y 13 X -21 Y 14 X 6 Y 14 X -12 Y 13 X s black 3 lw 1655 685 m 547 X s 1676 698 m -13 Y s 1695
 691 m -6 Y s 1713 691 m -6 Y s 1732 691 m -6 Y s 1751 691 m -6 Y s 1769 698 m -13 Y s 1788 691 m -6 Y s 1807 691 m -6 Y s 1826 691 m -6 Y s 1844 691 m -6 Y s 1863 698 m -13 Y s 1882 691 m -6 Y s 1900 691 m -6 Y s 1919 691 m -6 Y s 1938 691 m -6 Y s
 1956 698 m -13 Y s 1975 691 m -6 Y s 1994 691 m -6 Y s 2013 691 m -6 Y s 2031 691 m -6 Y s 2050 698 m -13 Y s 2069 691 m -6 Y s 2087 691 m -6 Y s 2106 691 m -6 Y s 2125 691 m -6 Y s 2144 698 m -13 Y s 1676 698 m -13 Y s 1657 691 m -6 Y s 2144 698 m
 -13 Y s 2162 691 m -6 Y s 2181 691 m -6 Y s 2200 691 m -6 Y s 1655 1114 m 547 X s 1676 1100 m 14 Y s 1695 1107 m 7 Y s 1713 1107 m 7 Y s 1732 1107 m 7 Y s 1751 1107 m 7 Y s 1769 1100 m 14 Y s 1788 1107 m 7 Y s 1807 1107 m 7 Y s 1826 1107 m 7 Y s
 1844 1107 m 7 Y s 1863 1100 m 14 Y s 1882 1107 m 7 Y s 1900 1107 m 7 Y s 1919 1107 m 7 Y s 1938 1107 m 7 Y s 1956 1100 m 14 Y s 1975 1107 m 7 Y s 1994 1107 m 7 Y s 2013 1107 m 7 Y s 2031 1107 m 7 Y s 2050 1100 m 14 Y s 2069 1107 m 7 Y s 2087 1107 m
 7 Y s 2106 1107 m 7 Y s 2125 1107 m 7 Y s 2144 1100 m 14 Y s 1676 1100 m 14 Y s 1657 1107 m 7 Y s 2144 1100 m 14 Y s 2162 1107 m 7 Y s 2181 1107 m 7 Y s 2200 1107 m 7 Y s 1655 685 m 429 Y s 1671 685 m -16 X s 1663 699 m -8 X s 1663 714 m -8 X s 1663
 728 m -8 X s 1663 743 m -8 X s 1671 757 m -16 X s 1663 772 m -8 X s 1663 787 m -8 X s 1663 801 m -8 X s 1663 816 m -8 X s 1671 830 m -16 X s 1663 845 m -8 X s 1663 859 m -8 X s 1663 874 m -8 X s 1663 889 m -8 X s 1671 903 m -16 X s 1663 918 m -8 X s
 1663 932 m -8 X s 1663 947 m -8 X s 1663 961 m -8 X s 1671 976 m -16 X s 1663 990 m -8 X s 1663 1005 m -8 X s 1663 1020 m -8 X s 1663 1034 m -8 X s 1671 1049 m -16 X s 1671 1049 m -16 X s 1663 1063 m -8 X s 1663 1078 m -8 X s 1663 1092 m -8 X s 1663
 1107 m -8 X s 2202 685 m 429 Y s 2186 685 m 16 X s 2194 699 m 8 X s 2194 714 m 8 X s 2194 728 m 8 X s 2194 743 m 8 X s 2186 757 m 16 X s 2194 772 m 8 X s 2194 787 m 8 X s 2194 801 m 8 X s 2194 816 m 8 X s 2186 830 m 16 X s 2194 845 m 8 X s 2194 859
 m 8 X s 2194 874 m 8 X s 2194 889 m 8 X s 2186 903 m 16 X s 2194 918 m 8 X s 2194 932 m 8 X s 2194 947 m 8 X s 2194 961 m 8 X s 2186 976 m 16 X s 2194 990 m 8 X s 2194 1005 m 8 X s 2194 1020 m 8 X s 2194 1034 m 8 X s 2186 1049 m 16 X s 2186 1049 m
 16 X s 2194 1063 m 8 X s 2194 1078 m 8 X s 2194 1092 m 8 X s 2194 1107 m 8 X s
 gsave  711 567 1534 603 C 2230.83 682.347 t 90 r /Helvetica-Bold findfont 19.9602 sf 0 0 m (U/O\255flow \(S,B\): \(0.0, 0.0\)% / \(0.0, 0.0\)%) show NC gr  0.490196 0.545098 0.615686 c 0.364706 0.419608 0.490196 c 366 38 1542 1130 bf 0.490196
 0.545098 0.615686 c 1542 1130 m 366 X s 1908 1130 m 38 Y s 1908 1168 m -366 X s 1542 1168 m -38 Y s 1 1 1 c black 1 1 1 c
 gsave  711 567 1534 603 C 1545.91 1142.38 t 0 r /Helvetica-Bold findfont 28.5146 sf 0 0 m (Input variable: yybb.HP_l1) show NC gr  0.490196 0.545098 0.615686 c 0.941176 0.941176 0.941176 c 710 567 23 12 bf black 1 1 0.992157 c 548 429 143 94 bf
 black 548 429 143 94 bl 0 0 0.933333 c 6 lw 0.49 0.6 0.82 c black 3 lw 0.49 0.6 0.82 c 143 115 m -1 Y 14 X 17 Y 14 X 13 Y 14 X 50 Y 13 X 40 Y 14 X 57 Y 14 X 23 Y 13 X 43 Y 14 X 23 Y 14 X -58 Y 13 X 34 Y 14 X -4 Y 14 X 5 Y 13 X -17 Y 14 X -59 Y 14 X
 -12 Y 13 X 43 Y 14 X -35 Y 14 X -30 Y 13 X -12 Y 14 X -34 Y 27 X -8 Y 14 X -28 Y 14 X 28 Y 13 X -16 Y 14 X -29 Y 14 X -5 Y 13 X -8 Y 14 X 1 Y 14 X -2 Y 13 X -3 Y 14 X -12 Y 14 X 2 Y 14 X -4 Y 13 X 1 Y 14 X -2 Y 14 X -1 Y 41 X f 6 lw 0 0 0.933333 c
 0.49 0.6 0.82 c 0 0 0.933333 c 143 114 m 14 X 17 Y 14 X 13 Y 14 X 50 Y 13 X 40 Y 14 X 57 Y 14 X 23 Y 13 X 43 Y 14 X 23 Y 14 X -58 Y 13 X 34 Y 14 X -4 Y 14 X 5 Y 13 X -17 Y 14 X -59 Y 14 X -12 Y 13 X 43 Y 14 X -35 Y 14 X -30 Y 13 X -12 Y 14 X -34 Y
 27 X -8 Y 14 X -28 Y 14 X 28 Y 13 X -16 Y 14 X -29 Y 14 X -5 Y 13 X -8 Y 14 X 1 Y 14 X -2 Y 13 X -3 Y 14 X -12 Y 14 X 2 Y 14 X -4 Y 13 X 1 Y 14 X -2 Y 14 X -1 Y 41 X s black 3 lw 143 94 m 548 X s 189 107 m -13 Y s 200 100 m -6 Y s 212 100 m -6 Y s
 223 100 m -6 Y s 235 100 m -6 Y s 246 107 m -13 Y s 258 100 m -6 Y s 269 100 m -6 Y s 281 100 m -6 Y s 292 100 m -6 Y s 304 107 m -13 Y s 315 100 m -6 Y s 327 100 m -6 Y s 338 100 m -6 Y s 350 100 m -6 Y s 362 107 m -13 Y s 373 100 m -6 Y s 385 100
 m -6 Y s 396 100 m -6 Y s 408 100 m -6 Y s 419 107 m -13 Y s 431 100 m -6 Y s 442 100 m -6 Y s 454 100 m -6 Y s 465 100 m -6 Y s 477 107 m -13 Y s 488 100 m -6 Y s 500 100 m -6 Y s 511 100 m -6 Y s 523 100 m -6 Y s 534 107 m -13 Y s 546 100 m -6 Y s
 558 100 m -6 Y s 569 100 m -6 Y s 581 100 m -6 Y s 592 107 m -13 Y s 604 100 m -6 Y s 615 100 m -6 Y s 627 100 m -6 Y s 638 100 m -6 Y s 650 107 m -13 Y s 189 107 m -13 Y s 177 100 m -6 Y s 165 100 m -6 Y s 154 100 m -6 Y s 650 107 m -13 Y s 661 100
 m -6 Y s 673 100 m -6 Y s 684 100 m -6 Y s
 gsave  710 567 23 12 C 176.189 65.3603 t 0 r /Helvetica findfont 25.6631 sf 0 0 m (0.1) show NC gr 
 gsave  710 567 23 12 C 164.822 65.3603 t 0 r /Symbol findfont 25.6631 sf 0 0 m (-) show NC gr 
 gsave  710 567 23 12 C 224.498 65.3603 t 0 r /Helvetica findfont 25.6631 sf 0 0 m (0.05) show NC gr 
 gsave  710 567 23 12 C 213.131 65.3603 t 0 r /Symbol findfont 25.6631 sf 0 0 m (-) show NC gr 
 gsave  710 567 23 12 C 292.7 65.3603 t 0 r /Helvetica findfont 25.6631 sf 0 0 m (0) show NC gr 
 gsave  710 567 23 12 C 335.327 65.3603 t 0 r /Helvetica findfont 25.6631 sf 0 0 m (0.05) show NC gr 
 gsave  710 567 23 12 C 400.687 65.3603 t 0 r /Helvetica findfont 25.6631 sf 0 0 m (0.1) show NC gr 
 gsave  710 567 23 12 C 448.997 65.3603 t 0 r /Helvetica findfont 25.6631 sf 0 0 m (0.15) show NC gr 
 gsave  710 567 23 12 C 517.198 65.3603 t 0 r /Helvetica findfont 25.6631 sf 0 0 m (0.2) show NC gr 
 gsave  710 567 23 12 C 565.508 65.3603 t 0 r /Helvetica findfont 25.6631 sf 0 0 m (0.25) show NC gr 
 gsave  710 567 23 12 C 630.869 65.3603 t 0 r /Helvetica findfont 25.6631 sf 0 0 m (0.3) show NC gr 
 gsave  710 567 23 12 C 548.458 25.5758 t 0 r /Helvetica findfont 28.5146 sf 0 0 m (yybb.HP_l2) show NC gr  143 523 m 548 X s 189 509 m 14 Y s 200 516 m 7 Y s 212 516 m 7 Y s 223 516 m 7 Y s 235 516 m 7 Y s 246 509 m 14 Y s 258 516 m 7 Y s 269 516 m
 7 Y s 281 516 m 7 Y s 292 516 m 7 Y s 304 509 m 14 Y s 315 516 m 7 Y s 327 516 m 7 Y s 338 516 m 7 Y s 350 516 m 7 Y s 362 509 m 14 Y s 373 516 m 7 Y s 385 516 m 7 Y s 396 516 m 7 Y s 408 516 m 7 Y s 419 509 m 14 Y s 431 516 m 7 Y s 442 516 m 7 Y s
 454 516 m 7 Y s 465 516 m 7 Y s 477 509 m 14 Y s 488 516 m 7 Y s 500 516 m 7 Y s 511 516 m 7 Y s 523 516 m 7 Y s 534 509 m 14 Y s 546 516 m 7 Y s 558 516 m 7 Y s 569 516 m 7 Y s 581 516 m 7 Y s 592 509 m 14 Y s 604 516 m 7 Y s 615 516 m 7 Y s 627
 516 m 7 Y s 638 516 m 7 Y s 650 509 m 14 Y s 189 509 m 14 Y s 177 516 m 7 Y s 165 516 m 7 Y s 154 516 m 7 Y s 650 509 m 14 Y s 661 516 m 7 Y s 673 516 m 7 Y s 684 516 m 7 Y s 143 94 m 429 Y s 160 115 m -17 X s 152 124 m -9 X s 152 133 m -9 X s 152
 142 m -9 X s 152 151 m -9 X s 160 160 m -17 X s 152 169 m -9 X s 152 178 m -9 X s 152 187 m -9 X s 152 196 m -9 X s 160 205 m -17 X s 152 214 m -9 X s 152 223 m -9 X s 152 232 m -9 X s 152 241 m -9 X s 160 250 m -17 X s 152 259 m -9 X s 152 268 m -9
 X s 152 277 m -9 X s 152 286 m -9 X s 160 296 m -17 X s 152 305 m -9 X s 152 314 m -9 X s 152 323 m -9 X s 152 332 m -9 X s 160 341 m -17 X s 152 350 m -9 X s 152 359 m -9 X s 152 368 m -9 X s 152 377 m -9 X s 160 386 m -17 X s 152 395 m -9 X s 152
 404 m -9 X s 152 413 m -9 X s 152 422 m -9 X s 160 431 m -17 X s 152 440 m -9 X s 152 449 m -9 X s 152 458 m -9 X s 152 467 m -9 X s 160 476 m -17 X s 152 485 m -9 X s 152 494 m -9 X s 152 503 m -9 X s 152 512 m -9 X s 160 522 m -17 X s 160 115 m
 -17 X s 152 106 m -9 X s 152 97 m -9 X s 160 522 m -17 X s
 gsave  710 567 23 12 C 119.354 105.145 t 0 r /Helvetica findfont 25.6631 sf 0 0 m (0) show NC gr 
 gsave  710 567 23 12 C 122.195 150.613 t 0 r /Helvetica findfont 25.6631 sf 0 0 m (1) show NC gr 
 gsave  710 567 23 12 C 119.354 196.081 t 0 r /Helvetica findfont 25.6631 sf 0 0 m (2) show NC gr 
 gsave  710 567 23 12 C 119.354 241.549 t 0 r /Helvetica findfont 25.6631 sf 0 0 m (3) show NC gr 
 gsave  710 567 23 12 C 119.354 284.175 t 0 r /Helvetica findfont 25.6631 sf 0 0 m (4) show NC gr 
 gsave  710 567 23 12 C 119.354 329.643 t 0 r /Helvetica findfont 25.6631 sf 0 0 m (5) show NC gr 
 gsave  710 567 23 12 C 119.354 375.111 t 0 r /Helvetica findfont 25.6631 sf 0 0 m (6) show NC gr 
 gsave  710 567 23 12 C 119.354 420.579 t 0 r /Helvetica findfont 25.6631 sf 0 0 m (7) show NC gr 
 gsave  710 567 23 12 C 119.354 466.047 t 0 r /Helvetica findfont 25.6631 sf 0 0 m (8) show NC gr 
 gsave  710 567 23 12 C 119.354 511.515 t 0 r /Helvetica findfont 25.6631 sf 0 0 m (9) show NC gr 
 gsave  710 567 23 12 C 45.468 431.946 t 90 r /Helvetica findfont 28.5146 sf 0 0 m (0.0119 ) show NC gr 
 gsave  710 567 23 12 C 31.2593 429.104 t 90 r /Helvetica findfont 19.9602 sf 0 0 m ( ) show NC gr 
 gsave  710 567 23 12 C 45.468 417.737 t 90 r /Helvetica findfont 28.5146 sf 0 0 m (/) show NC gr 
 gsave  710 567 23 12 C 53.9933 414.896 t 90 r /Helvetica findfont 19.9602 sf 0 0 m ( ) show NC gr 
 gsave  710 567 23 12 C 45.468 309.751 t 90 r /Helvetica findfont 28.5146 sf 0 0 m (\(1/N\) dN) show NC gr  691 94 m 429 Y s 674 115 m 17 X s 683 124 m 8 X s 683 133 m 8 X s 683 142 m 8 X s 683 151 m 8 X s 674 160 m 17 X s 683 169 m 8 X s 683 178 m 8
 X s 683 187 m 8 X s 683 196 m 8 X s 674 205 m 17 X s 683 214 m 8 X s 683 223 m 8 X s 683 232 m 8 X s 683 241 m 8 X s 674 250 m 17 X s 683 259 m 8 X s 683 268 m 8 X s 683 277 m 8 X s 683 286 m 8 X s 674 296 m 17 X s 683 305 m 8 X s 683 314 m 8 X s
 683 323 m 8 X s 683 332 m 8 X s 674 341 m 17 X s 683 350 m 8 X s 683 359 m 8 X s 683 368 m 8 X s 683 377 m 8 X s 674 386 m 17 X s 683 395 m 8 X s 683 404 m 8 X s 683 413 m 8 X s 683 422 m 8 X s 674 431 m 17 X s 683 440 m 8 X s 683 449 m 8 X s 683
 458 m 8 X s 683 467 m 8 X s 674 476 m 17 X s 683 485 m 8 X s 683 494 m 8 X s 683 503 m 8 X s 683 512 m 8 X s 674 522 m 17 X s 674 115 m 17 X s 683 106 m 8 X s 683 97 m 8 X s 674 522 m 17 X s 0.490196 0.545098 0.615686 c 0.364706 0.419608 0.490196 c
 369 37 30 539 bf 0.490196 0.545098 0.615686 c 30 539 m 369 X s 399 539 m 37 Y s 399 576 m -369 X s 30 576 m -37 Y s 1 1 1 c black 1 1 1 c
 gsave  710 567 23 12 C 34.101 551.299 t 0 r /Helvetica-Bold findfont 28.5146 sf 0 0 m (Input variable: yybb.HP_l2) show NC gr  1 0 0 c 6 lw black 3 lw 1 0 0 c 683 115 m s 667 115 m s 654 116 m -2 -1 d s 648 125 m -11 -10 d s 625 117 m -3 -2 d s 611
 118 m -4 -3 d s 601 124 m -9 -9 d s 586 124 m -9 -9 d s 576 128 m -14 -13 d s 567 135 m -20 -20 d s 554 138 m -22 -23 d s 543 141 m -26 -26 d s 540 153 m -38 -38 d s 540 169 m -14 -14 d s 520 149 m -7 -8 d s 510 138 m -23 -23 d s 532 175 m -6 -5 d s
 499 143 m -28 -28 d s 490 149 m -34 -34 d s 485 159 m -44 -44 d s 485 174 m -59 -59 d s 485 189 m -74 -74 d s 474 193 m -2 -2 d s 470 189 m -74 -74 d s 458 192 m -77 -77 d s 452 201 m -8 -7 d s 441 190 m -75 -75 d s 431 195 m -80 -80 d s 420 199 m
 -84 -84 d s 417 212 m -96 -97 d s 417 227 m -111 -112 d s 391 216 m -100 -101 d s 390 230 m -114 -115 d s 390 245 m -130 -130 d s 388 258 m -12 -12 d s 375 245 m -130 -130 d s 362 248 m -132 -133 d s 362 263 m -147 -148 d s 362 278 m -162 -163 d s
 362 293 m -177 -178 d s 343 289 m -173 -174 d s 335 296 m -164 -165 d s 160 120 m -5 -5 d s 335 311 m -123 -124 d s 207 182 m -9 -9 d s 146 120 m -3 -2 d s 325 316 m -113 -114 d s 321 328 m -109 -110 d s 321 343 m -109 -110 d s 321 358 m -27 -27 d s
 292 329 m -80 -81 d s 321 373 m -27 -27 d s 280 332 m -41 -41 d s 228 279 m -16 -16 d s 308 375 m -14 -14 d s 280 347 m -41 -41 d s 226 292 m -14 -14 d s 303 385 m -9 -9 d s 280 362 m -27 -27 d s 251 333 m -12 -12 d s 226 307 m -14 -14 d s 280 378 m
 -27 -28 d s 221 318 m -9 -9 d s 280 393 m -13 -14 d s 265 377 m -12 -12 d s 280 408 m -13 -14 d s 280 423 m -13 -14 d s 280 438 m -13 -13 d s 280 453 m -13 -13 d s 280 469 m -13 -14 d s 280 484 m -13 -14 d s 267 485 m s 6 lw 143 120 m 28 X 26 Y 14 X
 12 Y 13 X 24 Y 14 X 136 Y 14 X -39 Y 13 X 54 Y 14 X 44 Y 14 X 108 Y 13 X -156 Y 14 X 56 Y 14 X -11 Y 13 X -58 Y 14 X -27 Y 14 X 5 Y 13 X -49 Y 14 X 13 Y 14 X -42 Y 13 X 11 Y 14 X -28 Y 14 X -9 Y 13 X 11 Y 14 X -12 Y 14 X 4 Y 13 X -44 Y 14 X -11 Y 14
 X 11 Y 13 X 26 Y 14 X -34 Y 14 X -3 Y 13 X -10 Y 14 X -4 Y 28 X -6 Y 13 X -1 Y 14 X 8 Y 14 X -9 Y 13 X -1 Y 28 X s black 3 lw 143 94 m 548 X s 189 107 m -13 Y s 200 100 m -6 Y s 212 100 m -6 Y s 223 100 m -6 Y s 235 100 m -6 Y s 246 107 m -13 Y s
 258 100 m -6 Y s 269 100 m -6 Y s 281 100 m -6 Y s 292 100 m -6 Y s 304 107 m -13 Y s 315 100 m -6 Y s 327 100 m -6 Y s 338 100 m -6 Y s 350 100 m -6 Y s 362 107 m -13 Y s 373 100 m -6 Y s 385 100 m -6 Y s 396 100 m -6 Y s 408 100 m -6 Y s 419 107 m
 -13 Y s 431 100 m -6 Y s 442 100 m -6 Y s 454 100 m -6 Y s 465 100 m -6 Y s 477 107 m -13 Y s 488 100 m -6 Y s 500 100 m -6 Y s 511 100 m -6 Y s 523 100 m -6 Y s 534 107 m -13 Y s 546 100 m -6 Y s 558 100 m -6 Y s 569 100 m -6 Y s 581 100 m -6 Y s
 592 107 m -13 Y s 604 100 m -6 Y s 615 100 m -6 Y s 627 100 m -6 Y s 638 100 m -6 Y s 650 107 m -13 Y s 189 107 m -13 Y s 177 100 m -6 Y s 165 100 m -6 Y s 154 100 m -6 Y s 650 107 m -13 Y s 661 100 m -6 Y s 673 100 m -6 Y s 684 100 m -6 Y s 143 523
 m 548 X s 189 509 m 14 Y s 200 516 m 7 Y s 212 516 m 7 Y s 223 516 m 7 Y s 235 516 m 7 Y s 246 509 m 14 Y s 258 516 m 7 Y s 269 516 m 7 Y s 281 516 m 7 Y s 292 516 m 7 Y s 304 509 m 14 Y s 315 516 m 7 Y s 327 516 m 7 Y s 338 516 m 7 Y s 350 516 m 7
 Y s 362 509 m 14 Y s 373 516 m 7 Y s 385 516 m 7 Y s 396 516 m 7 Y s 408 516 m 7 Y s 419 509 m 14 Y s 431 516 m 7 Y s 442 516 m 7 Y s 454 516 m 7 Y s 465 516 m 7 Y s 477 509 m 14 Y s 488 516 m 7 Y s 500 516 m 7 Y s 511 516 m 7 Y s 523 516 m 7 Y s
 534 509 m 14 Y s 546 516 m 7 Y s 558 516 m 7 Y s 569 516 m 7 Y s 581 516 m 7 Y s 592 509 m 14 Y s 604 516 m 7 Y s 615 516 m 7 Y s 627 516 m 7 Y s 638 516 m 7 Y s 650 509 m 14 Y s 189 509 m 14 Y s 177 516 m 7 Y s 165 516 m 7 Y s 154 516 m 7 Y s 650
 509 m 14 Y s 661 516 m 7 Y s 673 516 m 7 Y s 684 516 m 7 Y s 143 94 m 429 Y s 160 115 m -17 X s 152 124 m -9 X s 152 133 m -9 X s 152 142 m -9 X s 152 151 m -9 X s 160 160 m -17 X s 152 169 m -9 X s 152 178 m -9 X s 152 187 m -9 X s 152 196 m -9 X s
 160 205 m -17 X s 152 214 m -9 X s 152 223 m -9 X s 152 232 m -9 X s 152 241 m -9 X s 160 250 m -17 X s 152 259 m -9 X s 152 268 m -9 X s 152 277 m -9 X s 152 286 m -9 X s 160 296 m -17 X s 152 305 m -9 X s 152 314 m -9 X s 152 323 m -9 X s 152 332
 m -9 X s 160 341 m -17 X s 152 350 m -9 X s 152 359 m -9 X s 152 368 m -9 X s 152 377 m -9 X s 160 386 m -17 X s 152 395 m -9 X s 152 404 m -9 X s 152 413 m -9 X s 152 422 m -9 X s 160 431 m -17 X s 152 440 m -9 X s 152 449 m -9 X s 152 458 m -9 X s
 152 467 m -9 X s 160 476 m -17 X s 152 485 m -9 X s 152 494 m -9 X s 152 503 m -9 X s 152 512 m -9 X s 160 522 m -17 X s 160 115 m -17 X s 152 106 m -9 X s 152 97 m -9 X s 160 522 m -17 X s 691 94 m 429 Y s 674 115 m 17 X s 683 124 m 8 X s 683 133 m
 8 X s 683 142 m 8 X s 683 151 m 8 X s 674 160 m 17 X s 683 169 m 8 X s 683 178 m 8 X s 683 187 m 8 X s 683 196 m 8 X s 674 205 m 17 X s 683 214 m 8 X s 683 223 m 8 X s 683 232 m 8 X s 683 241 m 8 X s 674 250 m 17 X s 683 259 m 8 X s 683 268 m 8 X s
 683 277 m 8 X s 683 286 m 8 X s 674 296 m 17 X s 683 305 m 8 X s 683 314 m 8 X s 683 323 m 8 X s 683 332 m 8 X s 674 341 m 17 X s 683 350 m 8 X s 683 359 m 8 X s 683 368 m 8 X s 683 377 m 8 X s 674 386 m 17 X s 683 395 m 8 X s 683 404 m 8 X s 683
 413 m 8 X s 683 422 m 8 X s 674 431 m 17 X s 683 440 m 8 X s 683 449 m 8 X s 683 458 m 8 X s 683 467 m 8 X s 674 476 m 17 X s 683 485 m 8 X s 683 494 m 8 X s 683 503 m 8 X s 683 512 m 8 X s 674 522 m 17 X s 674 115 m 17 X s 683 106 m 8 X s 683 97 m
 8 X s 674 522 m 17 X s
 gsave  710 567 23 12 C 719.017 91.2634 t 90 r /Helvetica-Bold findfont 19.9602 sf 0 0 m (U/O\255flow \(S,B\): \(0.0, 0.0\)% / \(0.0, 0.0\)%) show NC gr  0.490196 0.545098 0.615686 c 0.364706 0.419608 0.490196 c 369 37 30 539 bf 0.490196 0.545098
 0.615686 c 30 539 m 369 X s 399 539 m 37 Y s 399 576 m -369 X s 30 576 m -37 Y s 1 1 1 c black 1 1 1 c
 gsave  710 567 23 12 C 34.101 551.299 t 0 r /Helvetica-Bold findfont 28.5146 sf 0 0 m (Input variable: yybb.HP_l2) show NC gr  0.490196 0.545098 0.615686 c 0.941176 0.941176 0.941176 c 710 567 779 12 bf black 1 1 0.992157 c 548 429 899 94 bf black
 548 429 899 94 bl 0 0 0.933333 c 6 lw 0.49 0.6 0.82 c black 3 lw 0.49 0.6 0.82 c 899 120 m 28 X 1 Y 27 X 4 Y 14 X 7 Y 13 X 9 Y 14 X 10 Y 14 X 47 Y 13 X 65 Y 14 X 27 Y 14 X 75 Y 14 X 42 Y 13 X 19 Y 14 X -5 Y 14 X 37 Y 13 X 28 Y 14 X -62 Y 14 X -38 Y
 13 X -65 Y 14 X 56 Y 14 X -114 Y 13 X 14 Y 14 X -63 Y 14 X -35 Y 13 X -4 Y 14 X -19 Y 14 X -6 Y 13 X -6 Y 14 X -9 Y 14 X -7 Y 13 X -5 Y 14 X 4 Y 14 X -13 Y 13 X 8 Y 14 X -2 Y 69 X f 6 lw 0 0 0.933333 c 0.49 0.6 0.82 c 0 0 0.933333 c 899 120 m 28 X 1
 Y 27 X 4 Y 14 X 7 Y 13 X 9 Y 14 X 10 Y 14 X 47 Y 13 X 65 Y 14 X 27 Y 14 X 75 Y 14 X 42 Y 13 X 19 Y 14 X -5 Y 14 X 37 Y 13 X 28 Y 14 X -62 Y 14 X -38 Y 13 X -65 Y 14 X 56 Y 14 X -114 Y 13 X 14 Y 14 X -63 Y 14 X -35 Y 13 X -4 Y 14 X -19 Y 14 X -6 Y 13
 X -6 Y 14 X -9 Y 14 X -7 Y 13 X -5 Y 14 X 4 Y 14 X -13 Y 13 X 8 Y 14 X -2 Y 69 X s black 3 lw 899 94 m 548 X s 921 107 m -13 Y s 932 100 m -6 Y s 943 100 m -6 Y s 954 100 m -6 Y s 965 100 m -6 Y s 976 107 m -13 Y s 987 100 m -6 Y s 998 100 m -6 Y s
 1009 100 m -6 Y s 1020 100 m -6 Y s 1031 107 m -13 Y s 1042 100 m -6 Y s 1053 100 m -6 Y s 1064 100 m -6 Y s 1075 100 m -6 Y s 1086 107 m -13 Y s 1097 100 m -6 Y s 1108 100 m -6 Y s 1119 100 m -6 Y s 1130 100 m -6 Y s 1141 107 m -13 Y s 1152 100 m
 -6 Y s 1162 100 m -6 Y s 1173 100 m -6 Y s 1184 100 m -6 Y s 1195 107 m -13 Y s 1206 100 m -6 Y s 1217 100 m -6 Y s 1228 100 m -6 Y s 1239 100 m -6 Y s 1250 107 m -13 Y s 1261 100 m -6 Y s 1272 100 m -6 Y s 1283 100 m -6 Y s 1294 100 m -6 Y s 1305
 107 m -13 Y s 1316 100 m -6 Y s 1327 100 m -6 Y s 1338 100 m -6 Y s 1349 100 m -6 Y s 1360 107 m -13 Y s 1371 100 m -6 Y s 1382 100 m -6 Y s 1393 100 m -6 Y s 1404 100 m -6 Y s 1415 107 m -13 Y s 921 107 m -13 Y s 910 100 m -6 Y s 1415 107 m -13 Y s
 1426 100 m -6 Y s 1437 100 m -6 Y s
 gsave  710 567 779 12 C 909.36 65.3603 t 0 r /Helvetica findfont 25.6631 sf 0 0 m (0.2) show NC gr 
 gsave  710 567 779 12 C 895.151 65.3603 t 0 r /Symbol findfont 25.6631 sf 0 0 m (-) show NC gr 
 gsave  710 567 779 12 C 954.828 65.3603 t 0 r /Helvetica findfont 25.6631 sf 0 0 m (0.15) show NC gr 
 gsave  710 567 779 12 C 943.461 65.3603 t 0 r /Symbol findfont 25.6631 sf 0 0 m (-) show NC gr 
 gsave  710 567 779 12 C 1017.35 65.3603 t 0 r /Helvetica findfont 25.6631 sf 0 0 m (0.1) show NC gr 
 gsave  710 567 779 12 C 1005.98 65.3603 t 0 r /Symbol findfont 25.6631 sf 0 0 m (-) show NC gr 
 gsave  710 567 779 12 C 1065.66 65.3603 t 0 r /Helvetica findfont 25.6631 sf 0 0 m (0.05) show NC gr 
 gsave  710 567 779 12 C 1054.29 65.3603 t 0 r /Symbol findfont 25.6631 sf 0 0 m (-) show NC gr 
 gsave  710 567 779 12 C 1131.02 65.3603 t 0 r /Helvetica findfont 25.6631 sf 0 0 m (0) show NC gr 
 gsave  710 567 779 12 C 1167.96 65.3603 t 0 r /Helvetica findfont 25.6631 sf 0 0 m (0.05) show NC gr 
 gsave  710 567 779 12 C 1230.48 65.3603 t 0 r /Helvetica findfont 25.6631 sf 0 0 m (0.1) show NC gr 
 gsave  710 567 779 12 C 1278.79 65.3603 t 0 r /Helvetica findfont 25.6631 sf 0 0 m (0.15) show NC gr 
 gsave  710 567 779 12 C 1341.31 65.3603 t 0 r /Helvetica findfont 25.6631 sf 0 0 m (0.2) show NC gr 
 gsave  710 567 779 12 C 1386.77 65.3603 t 0 r /Helvetica findfont 25.6631 sf 0 0 m (0.25) show NC gr 
 gsave  710 567 779 12 C 1304.36 25.5758 t 0 r /Helvetica findfont 28.5146 sf 0 0 m (yybb.HP_l3) show NC gr  899 523 m 548 X s 921 509 m 14 Y s 932 516 m 7 Y s 943 516 m 7 Y s 954 516 m 7 Y s 965 516 m 7 Y s 976 509 m 14 Y s 987 516 m 7 Y s 998 516 m
 7 Y s 1009 516 m 7 Y s 1020 516 m 7 Y s 1031 509 m 14 Y s 1042 516 m 7 Y s 1053 516 m 7 Y s 1064 516 m 7 Y s 1075 516 m 7 Y s 1086 509 m 14 Y s 1097 516 m 7 Y s 1108 516 m 7 Y s 1119 516 m 7 Y s 1130 516 m 7 Y s 1141 509 m 14 Y s 1152 516 m 7 Y s
 1162 516 m 7 Y s 1173 516 m 7 Y s 1184 516 m 7 Y s 1195 509 m 14 Y s 1206 516 m 7 Y s 1217 516 m 7 Y s 1228 516 m 7 Y s 1239 516 m 7 Y s 1250 509 m 14 Y s 1261 516 m 7 Y s 1272 516 m 7 Y s 1283 516 m 7 Y s 1294 516 m 7 Y s 1305 509 m 14 Y s 1316 516
 m 7 Y s 1327 516 m 7 Y s 1338 516 m 7 Y s 1349 516 m 7 Y s 1360 509 m 14 Y s 1371 516 m 7 Y s 1382 516 m 7 Y s 1393 516 m 7 Y s 1404 516 m 7 Y s 1415 509 m 14 Y s 921 509 m 14 Y s 910 516 m 7 Y s 1415 509 m 14 Y s 1426 516 m 7 Y s 1437 516 m 7 Y s
 899 94 m 429 Y s 915 120 m -16 X s 907 130 m -8 X s 907 140 m -8 X s 907 150 m -8 X s 907 159 m -8 X s 915 169 m -16 X s 907 179 m -8 X s 907 189 m -8 X s 907 199 m -8 X s 907 209 m -8 X s 915 219 m -16 X s 907 229 m -8 X s 907 239 m -8 X s 907 248
 m -8 X s 907 258 m -8 X s 915 268 m -16 X s 907 278 m -8 X s 907 288 m -8 X s 907 298 m -8 X s 907 308 m -8 X s 915 318 m -16 X s 907 327 m -8 X s 907 337 m -8 X s 907 347 m -8 X s 907 357 m -8 X s 915 367 m -16 X s 907 377 m -8 X s 907 387 m -8 X s
 907 397 m -8 X s 907 407 m -8 X s 915 416 m -16 X s 907 426 m -8 X s 907 436 m -8 X s 907 446 m -8 X s 907 456 m -8 X s 915 466 m -16 X s 907 476 m -8 X s 907 486 m -8 X s 907 495 m -8 X s 907 505 m -8 X s 915 515 m -16 X s 915 120 m -16 X s 907 110
 m -8 X s 907 100 m -8 X s 915 515 m -16 X s
 gsave  710 567 779 12 C 875.259 110.828 t 0 r /Helvetica findfont 25.6631 sf 0 0 m (0) show NC gr 
 gsave  710 567 779 12 C 878.101 159.138 t 0 r /Helvetica findfont 25.6631 sf 0 0 m (1) show NC gr 
 gsave  710 567 779 12 C 875.259 207.448 t 0 r /Helvetica findfont 25.6631 sf 0 0 m (2) show NC gr 
 gsave  710 567 779 12 C 875.259 258.599 t 0 r /Helvetica findfont 25.6631 sf 0 0 m (3) show NC gr 
 gsave  710 567 779 12 C 875.259 306.909 t 0 r /Helvetica findfont 25.6631 sf 0 0 m (4) show NC gr 
 gsave  710 567 779 12 C 875.259 358.061 t 0 r /Helvetica findfont 25.6631 sf 0 0 m (5) show NC gr 
 gsave  710 567 779 12 C 875.259 406.37 t 0 r /Helvetica findfont 25.6631 sf 0 0 m (6) show NC gr 
 gsave  710 567 779 12 C 875.259 454.68 t 0 r /Helvetica findfont 25.6631 sf 0 0 m (7) show NC gr 
 gsave  710 567 779 12 C 875.259 505.832 t 0 r /Helvetica findfont 25.6631 sf 0 0 m (8) show NC gr 
 gsave  710 567 779 12 C 801.374 431.946 t 90 r /Helvetica findfont 28.5146 sf 0 0 m (0.0125 ) show NC gr 
 gsave  710 567 779 12 C 787.165 429.104 t 90 r /Helvetica findfont 19.9602 sf 0 0 m ( ) show NC gr 
 gsave  710 567 779 12 C 801.374 417.737 t 90 r /Helvetica findfont 28.5146 sf 0 0 m (/) show NC gr 
 gsave  710 567 779 12 C 809.899 414.896 t 90 r /Helvetica findfont 19.9602 sf 0 0 m ( ) show NC gr 
 gsave  710 567 779 12 C 801.374 309.751 t 90 r /Helvetica findfont 28.5146 sf 0 0 m (\(1/N\) dN) show NC gr  1447 94 m 429 Y s 1430 120 m 17 X s 1438 130 m 9 X s 1438 140 m 9 X s 1438 150 m 9 X s 1438 159 m 9 X s 1430 169 m 17 X s 1438 179 m 9 X s
 1438 189 m 9 X s 1438 199 m 9 X s 1438 209 m 9 X s 1430 219 m 17 X s 1438 229 m 9 X s 1438 239 m 9 X s 1438 248 m 9 X s 1438 258 m 9 X s 1430 268 m 17 X s 1438 278 m 9 X s 1438 288 m 9 X s 1438 298 m 9 X s 1438 308 m 9 X s 1430 318 m 17 X s 1438 327
 m 9 X s 1438 337 m 9 X s 1438 347 m 9 X s 1438 357 m 9 X s 1430 367 m 17 X s 1438 377 m 9 X s 1438 387 m 9 X s 1438 397 m 9 X s 1438 407 m 9 X s 1430 416 m 17 X s 1438 426 m 9 X s 1438 436 m 9 X s 1438 446 m 9 X s 1438 456 m 9 X s 1430 466 m 17 X s
 1438 476 m 9 X s 1438 486 m 9 X s 1438 495 m 9 X s 1438 505 m 9 X s 1430 515 m 17 X s 1430 120 m 17 X s 1438 110 m 9 X s 1438 100 m 9 X s 1430 515 m 17 X s 0.490196 0.545098 0.615686 c 0.364706 0.419608 0.490196 c 369 37 786 539 bf 0.490196 0.545098
 0.615686 c 786 539 m 369 X s 1155 539 m 37 Y s 1155 576 m -369 X s 786 576 m -37 Y s 1 1 1 c black 1 1 1 c
 gsave  710 567 779 12 C 790.007 551.299 t 0 r /Helvetica-Bold findfont 28.5146 sf 0 0 m (Input variable: yybb.HP_l3) show NC gr  1 0 0 c 6 lw black 3 lw 1 0 0 c 1444 120 m s 1429 120 m s 1413 120 m s 1405 127 m -7 -7 d s 1393 129 m -1 -1 d s 1383
 120 m s 1370 121 m -2 -1 d s 1357 124 m -4 -4 d s 1344 126 m -6 -6 d s 1331 128 m -8 -8 d s 1323 135 m -15 -15 d s 1317 145 m -7 -8 d s 1303 130 m -10 -10 d s 1296 138 m -18 -18 d s 1296 153 m -33 -33 d s 1284 157 m -36 -37 d s 1282 170 m -49 -50 d
 s 1282 185 m -65 -65 d s 1282 200 m -80 -80 d s 1274 207 m -5 -5 d s 1262 195 m -75 -75 d s 1255 203 m -83 -83 d s 1255 218 m -98 -98 d s 1247 226 m -105 -106 d s 1241 235 m -114 -115 d s 1241 250 m -129 -130 d s 1235 259 m -138 -139 d s 1228 267 m
 -146 -147 d s 1228 282 m -161 -162 d s 1228 297 m -176 -177 d s 1219 304 m -182 -184 d s 1214 314 m -192 -194 d s 1214 329 m -208 -209 d s 1200 330 m -205 -206 d s 994 123 m -3 -3 d s 1192 338 m -197 -199 d s 976 120 m s 1182 342 m -146 -147 d s
 1029 188 m -7 -6 d s 1016 175 m -7 -7 d s 998 157 m -3 -3 d s 961 120 m s 1173 348 m -123 -124 d s 1049 223 m -13 -12 d s 946 120 m s 1173 363 m -123 -124 d s 937 126 m -6 -6 d s 1173 379 m -14 -14 d s 1151 357 m -101 -102 d s 916 120 m s 1173 394 m
 -14 -14 d s 1146 366 m -69 -69 d s 1075 295 m -25 -25 d s 901 120 m cl s 1160 396 m -1 -1 d s 1146 381 m -69 -68 d s 1064 299 m -14 -14 d s 1146 397 m -69 -69 d s 1064 314 m -14 -14 d s 1146 412 m -14 -14 d s 1118 384 m -41 -41 d s 1064 329 m -14
 -14 d s 1142 424 m -10 -11 d s 1118 399 m -41 -41 d s 1054 335 m -4 -4 d s 1118 415 m -41 -42 d s 1118 430 m -13 -14 d s 1101 412 m -10 -10 d s 1077 389 m s 1110 437 m -5 -6 d s 6 lw 899 120 m 28 X 6 Y 13 X -6 Y 41 X 3 Y 14 X 34 Y 14 X 18 Y 13 X 13
 Y 14 X 35 Y 14 X 112 Y 14 X -40 Y 13 X 94 Y 14 X 23 Y 14 X 25 Y 13 X -54 Y 14 X 41 Y 14 X -67 Y 13 X 39 Y 14 X -54 Y 14 X -4 Y 13 X -8 Y 14 X -26 Y 14 X -45 Y 13 X -33 Y 14 X -31 Y 14 X 12 Y 13 X -50 Y 14 X -27 Y 14 X 15 Y 13 X -17 Y 14 X -2 Y 14 X
 -2 Y 13 X -3 Y 14 X -1 Y 14 X 9 Y 13 X -9 Y 42 X s black 3 lw 899 94 m 548 X s 921 107 m -13 Y s 932 100 m -6 Y s 943 100 m -6 Y s 954 100 m -6 Y s 965 100 m -6 Y s 976 107 m -13 Y s 987 100 m -6 Y s 998 100 m -6 Y s 1009 100 m -6 Y s 1020 100 m -6
 Y s 1031 107 m -13 Y s 1042 100 m -6 Y s 1053 100 m -6 Y s 1064 100 m -6 Y s 1075 100 m -6 Y s 1086 107 m -13 Y s 1097 100 m -6 Y s 1108 100 m -6 Y s 1119 100 m -6 Y s 1130 100 m -6 Y s 1141 107 m -13 Y s 1152 100 m -6 Y s 1162 100 m -6 Y s 1173 100
 m -6 Y s 1184 100 m -6 Y s 1195 107 m -13 Y s 1206 100 m -6 Y s 1217 100 m -6 Y s 1228 100 m -6 Y s 1239 100 m -6 Y s 1250 107 m -13 Y s 1261 100 m -6 Y s 1272 100 m -6 Y s 1283 100 m -6 Y s 1294 100 m -6 Y s 1305 107 m -13 Y s 1316 100 m -6 Y s
 1327 100 m -6 Y s 1338 100 m -6 Y s 1349 100 m -6 Y s 1360 107 m -13 Y s 1371 100 m -6 Y s 1382 100 m -6 Y s 1393 100 m -6 Y s 1404 100 m -6 Y s 1415 107 m -13 Y s 921 107 m -13 Y s 910 100 m -6 Y s 1415 107 m -13 Y s 1426 100 m -6 Y s 1437 100 m -6
 Y s 899 523 m 548 X s 921 509 m 14 Y s 932 516 m 7 Y s 943 516 m 7 Y s 954 516 m 7 Y s 965 516 m 7 Y s 976 509 m 14 Y s 987 516 m 7 Y s 998 516 m 7 Y s 1009 516 m 7 Y s 1020 516 m 7 Y s 1031 509 m 14 Y s 1042 516 m 7 Y s 1053 516 m 7 Y s 1064 516 m
 7 Y s 1075 516 m 7 Y s 1086 509 m 14 Y s 1097 516 m 7 Y s 1108 516 m 7 Y s 1119 516 m 7 Y s 1130 516 m 7 Y s 1141 509 m 14 Y s 1152 516 m 7 Y s 1162 516 m 7 Y s 1173 516 m 7 Y s 1184 516 m 7 Y s 1195 509 m 14 Y s 1206 516 m 7 Y s 1217 516 m 7 Y s
 1228 516 m 7 Y s 1239 516 m 7 Y s 1250 509 m 14 Y s 1261 516 m 7 Y s 1272 516 m 7 Y s 1283 516 m 7 Y s 1294 516 m 7 Y s 1305 509 m 14 Y s 1316 516 m 7 Y s 1327 516 m 7 Y s 1338 516 m 7 Y s 1349 516 m 7 Y s 1360 509 m 14 Y s 1371 516 m 7 Y s 1382 516
 m 7 Y s 1393 516 m 7 Y s 1404 516 m 7 Y s 1415 509 m 14 Y s 921 509 m 14 Y s 910 516 m 7 Y s 1415 509 m 14 Y s 1426 516 m 7 Y s 1437 516 m 7 Y s 899 94 m 429 Y s 915 120 m -16 X s 907 130 m -8 X s 907 140 m -8 X s 907 150 m -8 X s 907 159 m -8 X s
 915 169 m -16 X s 907 179 m -8 X s 907 189 m -8 X s 907 199 m -8 X s 907 209 m -8 X s 915 219 m -16 X s 907 229 m -8 X s 907 239 m -8 X s 907 248 m -8 X s 907 258 m -8 X s 915 268 m -16 X s 907 278 m -8 X s 907 288 m -8 X s 907 298 m -8 X s 907 308
 m -8 X s 915 318 m -16 X s 907 327 m -8 X s 907 337 m -8 X s 907 347 m -8 X s 907 357 m -8 X s 915 367 m -16 X s 907 377 m -8 X s 907 387 m -8 X s 907 397 m -8 X s 907 407 m -8 X s 915 416 m -16 X s 907 426 m -8 X s 907 436 m -8 X s 907 446 m -8 X s
 907 456 m -8 X s 915 466 m -16 X s 907 476 m -8 X s 907 486 m -8 X s 907 495 m -8 X s 907 505 m -8 X s 915 515 m -16 X s 915 120 m -16 X s 907 110 m -8 X s 907 100 m -8 X s 915 515 m -16 X s 1447 94 m 429 Y s 1430 120 m 17 X s 1438 130 m 9 X s 1438
 140 m 9 X s 1438 150 m 9 X s 1438 159 m 9 X s 1430 169 m 17 X s 1438 179 m 9 X s 1438 189 m 9 X s 1438 199 m 9 X s 1438 209 m 9 X s 1430 219 m 17 X s 1438 229 m 9 X s 1438 239 m 9 X s 1438 248 m 9 X s 1438 258 m 9 X s 1430 268 m 17 X s 1438 278 m 9
 X s 1438 288 m 9 X s 1438 298 m 9 X s 1438 308 m 9 X s 1430 318 m 17 X s 1438 327 m 9 X s 1438 337 m 9 X s 1438 347 m 9 X s 1438 357 m 9 X s 1430 367 m 17 X s 1438 377 m 9 X s 1438 387 m 9 X s 1438 397 m 9 X s 1438 407 m 9 X s 1430 416 m 17 X s 1438
 426 m 9 X s 1438 436 m 9 X s 1438 446 m 9 X s 1438 456 m 9 X s 1430 466 m 17 X s 1438 476 m 9 X s 1438 486 m 9 X s 1438 495 m 9 X s 1438 505 m 9 X s 1430 515 m 17 X s 1430 120 m 17 X s 1438 110 m 9 X s 1438 100 m 9 X s 1430 515 m 17 X s
 gsave  710 567 779 12 C 1474.92 91.2634 t 90 r /Helvetica-Bold findfont 19.9602 sf 0 0 m (U/O\255flow \(S,B\): \(0.0, 0.0\)% / \(0.0, 0.0\)%) show NC gr  0.490196 0.545098 0.615686 c 0.364706 0.419608 0.490196 c 369 37 786 539 bf 0.490196 0.545098
 0.615686 c 786 539 m 369 X s 1155 539 m 37 Y s 1155 576 m -369 X s 786 576 m -37 Y s 1 1 1 c black 1 1 1 c
 gsave  710 567 779 12 C 790.007 551.299 t 0 r /Helvetica-Bold findfont 28.5146 sf 0 0 m (Input variable: yybb.HP_l3) show NC gr  0.490196 0.545098 0.615686 c 0.941176 0.941176 0.941176 c 711 567 1534 12 bf black 1 1 0.992157 c 547 429 1655 94 bf
 black 547 429 1655 94 bl 0 0 0.933333 c 6 lw 0.49 0.6 0.82 c black 3 lw 0.49 0.6 0.82 c 1655 114 m 9 Y 14 X 5 Y 14 X 67 Y 13 X -6 Y 14 X 15 Y 14 X 103 Y 13 X 67 Y 14 X 19 Y 14 X 1 Y 13 X 62 Y 14 X -43 Y 14 X 46 Y 13 X -57 Y 14 X -109 Y 14 X 65 Y 13
 X -83 Y 14 X 23 Y 14 X -68 Y 13 X 28 Y 14 X -63 Y 14 X -28 Y 14 X -3 Y 13 X -3 Y 14 X -27 Y 14 X 11 Y 13 X -22 Y 14 X 6 Y 14 X -8 Y 13 X 1 Y 14 X -5 Y 14 X 1 Y 27 X -4 Y 27 X 2 Y 14 X -2 Y 68 X f 6 lw 0 0 0.933333 c 0.49 0.6 0.82 c 0 0 0.933333 c
 1655 123 m 14 X 5 Y 14 X 67 Y 13 X -6 Y 14 X 15 Y 14 X 103 Y 13 X 67 Y 14 X 19 Y 14 X 1 Y 13 X 62 Y 14 X -43 Y 14 X 46 Y 13 X -57 Y 14 X -109 Y 14 X 65 Y 13 X -83 Y 14 X 23 Y 14 X -68 Y 13 X 28 Y 14 X -63 Y 14 X -28 Y 14 X -3 Y 13 X -3 Y 14 X -27 Y
 14 X 11 Y 13 X -22 Y 14 X 6 Y 14 X -8 Y 13 X 1 Y 14 X -5 Y 14 X 1 Y 27 X -4 Y 27 X 2 Y 14 X -2 Y 68 X s black 3 lw 1655 94 m 547 X s 1690 107 m -13 Y s 1704 100 m -6 Y s 1719 100 m -6 Y s 1733 100 m -6 Y s 1747 100 m -6 Y s 1761 107 m -13 Y s 1775
 100 m -6 Y s 1789 100 m -6 Y s 1803 100 m -6 Y s 1818 100 m -6 Y s 1832 107 m -13 Y s 1846 100 m -6 Y s 1860 100 m -6 Y s 1874 100 m -6 Y s 1888 100 m -6 Y s 1903 107 m -13 Y s 1917 100 m -6 Y s 1931 100 m -6 Y s 1945 100 m -6 Y s 1959 100 m -6 Y s
 1973 107 m -13 Y s 1988 100 m -6 Y s 2002 100 m -6 Y s 2016 100 m -6 Y s 2030 100 m -6 Y s 2044 107 m -13 Y s 2058 100 m -6 Y s 2073 100 m -6 Y s 2087 100 m -6 Y s 2101 100 m -6 Y s 2115 107 m -13 Y s 2129 100 m -6 Y s 2143 100 m -6 Y s 2158 100 m
 -6 Y s 2172 100 m -6 Y s 2186 107 m -13 Y s 1690 107 m -13 Y s 1676 100 m -6 Y s 1662 100 m -6 Y s 2186 107 m -13 Y s 2200 100 m -6 Y s
 gsave  711 567 1534 12 C 1676.63 65.3603 t 0 r /Helvetica findfont 25.6631 sf 0 0 m (0.1) show NC gr 
 gsave  711 567 1534 12 C 1665.27 65.3603 t 0 r /Symbol findfont 25.6631 sf 0 0 m (-) show NC gr 
 gsave  711 567 1534 12 C 1739.15 65.3603 t 0 r /Helvetica findfont 25.6631 sf 0 0 m (0.05) show NC gr 
 gsave  711 567 1534 12 C 1727.78 65.3603 t 0 r /Symbol findfont 25.6631 sf 0 0 m (-) show NC gr 
 gsave  711 567 1534 12 C 1821.56 65.3603 t 0 r /Helvetica findfont 25.6631 sf 0 0 m (0) show NC gr 
 gsave  711 567 1534 12 C 1875.56 65.3603 t 0 r /Helvetica findfont 25.6631 sf 0 0 m (0.05) show NC gr 
 gsave  711 567 1534 12 C 1955.12 65.3603 t 0 r /Helvetica findfont 25.6631 sf 0 0 m (0.1) show NC gr 
 gsave  711 567 1534 12 C 2017.64 65.3603 t 0 r /Helvetica findfont 25.6631 sf 0 0 m (0.15) show NC gr 
 gsave  711 567 1534 12 C 2097.21 65.3603 t 0 r /Helvetica findfont 25.6631 sf 0 0 m (0.2) show NC gr 
 gsave  711 567 1534 12 C 2159.73 65.3603 t 0 r /Helvetica findfont 25.6631 sf 0 0 m (0.25) show NC gr 
 gsave  711 567 1534 12 C 2060.27 25.5758 t 0 r /Helvetica findfont 28.5146 sf 0 0 m (yybb.HP_l4) show NC gr  1655 523 m 547 X s 1690 509 m 14 Y s 1704 516 m 7 Y s 1719 516 m 7 Y s 1733 516 m 7 Y s 1747 516 m 7 Y s 1761 509 m 14 Y s 1775 516 m 7 Y s
 1789 516 m 7 Y s 1803 516 m 7 Y s 1818 516 m 7 Y s 1832 509 m 14 Y s 1846 516 m 7 Y s 1860 516 m 7 Y s 1874 516 m 7 Y s 1888 516 m 7 Y s 1903 509 m 14 Y s 1917 516 m 7 Y s 1931 516 m 7 Y s 1945 516 m 7 Y s 1959 516 m 7 Y s 1973 509 m 14 Y s 1988 516
 m 7 Y s 2002 516 m 7 Y s 2016 516 m 7 Y s 2030 516 m 7 Y s 2044 509 m 14 Y s 2058 516 m 7 Y s 2073 516 m 7 Y s 2087 516 m 7 Y s 2101 516 m 7 Y s 2115 509 m 14 Y s 2129 516 m 7 Y s 2143 516 m 7 Y s 2158 516 m 7 Y s 2172 516 m 7 Y s 2186 509 m 14 Y s
 1690 509 m 14 Y s 1676 516 m 7 Y s 1662 516 m 7 Y s 2186 509 m 14 Y s 2200 516 m 7 Y s 1655 94 m 429 Y s 1671 114 m -16 X s 1663 133 m -8 X s 1663 152 m -8 X s 1663 171 m -8 X s 1671 190 m -16 X s 1663 209 m -8 X s 1663 227 m -8 X s 1663 246 m -8 X
 s 1671 265 m -16 X s 1663 284 m -8 X s 1663 303 m -8 X s 1663 322 m -8 X s 1671 341 m -16 X s 1663 360 m -8 X s 1663 378 m -8 X s 1663 397 m -8 X s 1671 416 m -16 X s 1663 435 m -8 X s 1663 454 m -8 X s 1663 473 m -8 X s 1671 492 m -16 X s 1671 114
 m -16 X s 1663 95 m -8 X s 1671 492 m -16 X s 1663 511 m -8 X s
 gsave  711 567 1534 12 C 1631.16 105.145 t 0 r /Helvetica findfont 25.6631 sf 0 0 m (0) show NC gr 
 gsave  711 567 1534 12 C 1631.16 179.03 t 0 r /Helvetica findfont 25.6631 sf 0 0 m (2) show NC gr 
 gsave  711 567 1534 12 C 1631.16 255.758 t 0 r /Helvetica findfont 25.6631 sf 0 0 m (4) show NC gr 
 gsave  711 567 1534 12 C 1631.16 329.643 t 0 r /Helvetica findfont 25.6631 sf 0 0 m (6) show NC gr 
 gsave  711 567 1534 12 C 1631.16 406.37 t 0 r /Helvetica findfont 25.6631 sf 0 0 m (8) show NC gr 
 gsave  711 567 1534 12 C 1616.96 483.098 t 0 r /Helvetica findfont 25.6631 sf 0 0 m (10) show NC gr 
 gsave  711 567 1534 12 C 1557.28 414.896 t 90 r /Helvetica findfont 28.5146 sf 0 0 m (0.00966 ) show NC gr 
 gsave  711 567 1534 12 C 1543.07 412.054 t 90 r /Helvetica findfont 19.9602 sf 0 0 m ( ) show NC gr 
 gsave  711 567 1534 12 C 1557.28 400.687 t 90 r /Helvetica findfont 28.5146 sf 0 0 m (/) show NC gr 
 gsave  711 567 1534 12 C 1565.8 397.845 t 90 r /Helvetica findfont 19.9602 sf 0 0 m ( ) show NC gr 
 gsave  711 567 1534 12 C 1557.28 292.7 t 90 r /Helvetica findfont 28.5146 sf 0 0 m (\(1/N\) dN) show NC gr  2202 94 m 429 Y s 2186 114 m 16 X s 2194 133 m 8 X s 2194 152 m 8 X s 2194 171 m 8 X s 2186 190 m 16 X s 2194 209 m 8 X s 2194 227 m 8 X s
 2194 246 m 8 X s 2186 265 m 16 X s 2194 284 m 8 X s 2194 303 m 8 X s 2194 322 m 8 X s 2186 341 m 16 X s 2194 360 m 8 X s 2194 378 m 8 X s 2194 397 m 8 X s 2186 416 m 16 X s 2194 435 m 8 X s 2194 454 m 8 X s 2194 473 m 8 X s 2186 492 m 16 X s 2186
 114 m 16 X s 2194 95 m 8 X s 2186 492 m 16 X s 2194 511 m 8 X s 0.490196 0.545098 0.615686 c 0.364706 0.419608 0.490196 c 369 37 1542 539 bf 0.490196 0.545098 0.615686 c 1542 539 m 369 X s 1911 539 m 37 Y s 1911 576 m -369 X s 1542 576 m -37 Y s 1 1
 1 c black 1 1 1 c
 gsave  711 567 1534 12 C 1545.91 551.299 t 0 r /Helvetica-Bold findfont 28.5146 sf 0 0 m (Input variable: yybb.HP_l4) show NC gr  1 0 0 c 6 lw black 3 lw 1 0 0 c 2194 114 m s 2179 114 m s 2164 114 m s 2149 114 m s 2134 114 m s 2118 114 m s 2107 117
 m -4 -3 d s 2093 119 m -5 -5 d s 2079 120 m -6 -6 d s 2073 130 m -15 -16 d s 2054 125 m -11 -11 d s 2038 125 m -10 -11 d s 2038 140 m -13 -14 d s 2024 125 m -11 -11 d s 2031 148 m -6 -7 d s 2011 127 m -13 -13 d s 2002 134 m -19 -20 d s 1997 144 m
 -29 -30 d s 1992 154 m -39 -40 d s 1982 159 m -44 -45 d s 1970 162 m -48 -48 d s 1970 177 m -63 -63 d s 1970 192 m -78 -78 d s 1960 198 m -83 -84 d s 1945 198 m -83 -84 d s 1943 210 m -14 -14 d s 1923 190 m -76 -76 d s 1933 216 m -4 -4 d s 1915 198
 m -83 -84 d s 1915 213 m -98 -99 d s 1915 228 m -113 -114 d s 1915 243 m -128 -129 d s 1915 259 m -143 -145 d s 1915 274 m -158 -160 d s 1915 289 m -173 -175 d s 1912 301 m -11 -11 d s 1896 285 m -169 -171 d s 1888 292 m -177 -178 d s 1885 305 m
 -189 -191 d s 1874 308 m -14 -13 d s 1854 288 m -173 -174 d s 1874 324 m -14 -14 d s 1847 296 m -164 -165 d s 1670 118 m -1 -1 d s 1669 117 m -3 -3 d s 1874 339 m -14 -14 d s 1845 309 m -149 -149 d s 1687 150 m -4 -4 d s 1872 352 m -12 -12 d s 1825
 304 m -101 -102 d s 1718 197 m -22 -22 d s 1819 314 m -95 -96 d s 1704 197 m -8 -7 d s 1819 329 m -82 -82 d s 1735 244 m -11 -11 d s 1815 340 m -78 -78 d s 1806 346 m -69 -69 d s 1806 361 m -69 -69 d s 1792 363 m -55 -56 d s 1792 378 m -41 -42 d s
 1737 322 m s 1792 393 m -41 -42 d s 1792 408 m -41 -41 d s 1792 423 m -27 -27 d s 1752 383 m -1 -1 d s 1792 438 m -27 -27 d s 1792 453 m -27 -27 d s 1792 469 m -27 -28 d s 1786 478 m -21 -22 d s 1778 485 m -13 -14 d s 6 lw 1655 117 m 14 X 1 Y 14 X
 32 Y 13 X 47 Y 28 X 47 Y 13 X 78 Y 14 X 61 Y 14 X 102 Y 13 X -7 Y 14 X -115 Y 14 X -23 Y 13 X -36 Y 14 X 5 Y 14 X -21 Y 13 X 64 Y 14 X -47 Y 14 X -20 Y 13 X 16 Y 14 X -111 Y 14 X 26 Y 14 X -18 Y 27 X -39 Y 14 X -5 Y 13 X -20 Y 14 X -9 Y 14 X 23 Y 13
 X -24 Y 14 X 1 Y 14 X 5 Y 13 X -10 Y 14 X -2 Y 14 X -4 Y 95 X s black 3 lw 1655 94 m 547 X s 1690 107 m -13 Y s 1704 100 m -6 Y s 1719 100 m -6 Y s 1733 100 m -6 Y s 1747 100 m -6 Y s 1761 107 m -13 Y s 1775 100 m -6 Y s 1789 100 m -6 Y s 1803 100 m
 -6 Y s 1818 100 m -6 Y s 1832 107 m -13 Y s 1846 100 m -6 Y s 1860 100 m -6 Y s 1874 100 m -6 Y s 1888 100 m -6 Y s 1903 107 m -13 Y s 1917 100 m -6 Y s 1931 100 m -6 Y s 1945 100 m -6 Y s 1959 100 m -6 Y s 1973 107 m -13 Y s 1988 100 m -6 Y s 2002
 100 m -6 Y s 2016 100 m -6 Y s 2030 100 m -6 Y s 2044 107 m -13 Y s 2058 100 m -6 Y s 2073 100 m -6 Y s 2087 100 m -6 Y s 2101 100 m -6 Y s 2115 107 m -13 Y s 2129 100 m -6 Y s 2143 100 m -6 Y s 2158 100 m -6 Y s 2172 100 m -6 Y s 2186 107 m -13 Y s
 1690 107 m -13 Y s 1676 100 m -6 Y s 1662 100 m -6 Y s 2186 107 m -13 Y s 2200 100 m -6 Y s 1655 523 m 547 X s 1690 509 m 14 Y s 1704 516 m 7 Y s 1719 516 m 7 Y s 1733 516 m 7 Y s 1747 516 m 7 Y s 1761 509 m 14 Y s 1775 516 m 7 Y s 1789 516 m 7 Y s
 1803 516 m 7 Y s 1818 516 m 7 Y s 1832 509 m 14 Y s 1846 516 m 7 Y s 1860 516 m 7 Y s 1874 516 m 7 Y s 1888 516 m 7 Y s 1903 509 m 14 Y s 1917 516 m 7 Y s 1931 516 m 7 Y s 1945 516 m 7 Y s 1959 516 m 7 Y s 1973 509 m 14 Y s 1988 516 m 7 Y s 2002 516
 m 7 Y s 2016 516 m 7 Y s 2030 516 m 7 Y s 2044 509 m 14 Y s 2058 516 m 7 Y s 2073 516 m 7 Y s 2087 516 m 7 Y s 2101 516 m 7 Y s 2115 509 m 14 Y s 2129 516 m 7 Y s 2143 516 m 7 Y s 2158 516 m 7 Y s 2172 516 m 7 Y s 2186 509 m 14 Y s 1690 509 m 14 Y s
 1676 516 m 7 Y s 1662 516 m 7 Y s 2186 509 m 14 Y s 2200 516 m 7 Y s 1655 94 m 429 Y s 1671 114 m -16 X s 1663 133 m -8 X s 1663 152 m -8 X s 1663 171 m -8 X s 1671 190 m -16 X s 1663 209 m -8 X s 1663 227 m -8 X s 1663 246 m -8 X s 1671 265 m -16 X
 s 1663 284 m -8 X s 1663 303 m -8 X s 1663 322 m -8 X s 1671 341 m -16 X s 1663 360 m -8 X s 1663 378 m -8 X s 1663 397 m -8 X s 1671 416 m -16 X s 1663 435 m -8 X s 1663 454 m -8 X s 1663 473 m -8 X s 1671 492 m -16 X s 1671 114 m -16 X s 1663 95 m
 -8 X s 1671 492 m -16 X s 1663 511 m -8 X s 2202 94 m 429 Y s 2186 114 m 16 X s 2194 133 m 8 X s 2194 152 m 8 X s 2194 171 m 8 X s 2186 190 m 16 X s 2194 209 m 8 X s 2194 227 m 8 X s 2194 246 m 8 X s 2186 265 m 16 X s 2194 284 m 8 X s 2194 303 m 8 X
 s 2194 322 m 8 X s 2186 341 m 16 X s 2194 360 m 8 X s 2194 378 m 8 X s 2194 397 m 8 X s 2186 416 m 16 X s 2194 435 m 8 X s 2194 454 m 8 X s 2194 473 m 8 X s 2186 492 m 16 X s 2186 114 m 16 X s 2194 95 m 8 X s 2186 492 m 16 X s 2194 511 m 8 X s
 gsave  711 567 1534 12 C 2230.83 91.2634 t 90 r /Helvetica-Bold findfont 19.9602 sf 0 0 m (U/O\255flow \(S,B\): \(0.0, 0.0\)% / \(0.0, 0.0\)%) show NC gr  0.490196 0.545098 0.615686 c 0.364706 0.419608 0.490196 c 369 37 1542 539 bf 0.490196 0.545098
 0.615686 c 1542 539 m 369 X s 1911 539 m 37 Y s 1911 576 m -369 X s 1542 576 m -37 Y s 1 1 1 c black 1 1 1 c
 gsave  711 567 1534 12 C 1545.91 551.299 t 0 r /Helvetica-Bold findfont 28.5146 sf 0 0 m (Input variable: yybb.HP_l4) show NC gr 
 gr  gr showpage
end
%%EOF
