%!PS-Adobe-2.0 EPSF-2.0
%%BoundingBox:  0 0 567 296
%%Title: dataset/plots/variables_id_c10.eps: Input variables (training sample)
%%Creator: ROOT Version 6.18/00
%%CreationDate: Fri Sep 13 20:54:54 2019
%%DocumentNeededResources: ProcSet (FontSetInit)
%%EndComments
%%BeginProlog
80 dict begin
/s {stroke} def /l {lineto} def /m {moveto} def /t {translate} def
/r {rotate} def /rl {roll}  def /R {repeat} def
/d {rlineto} def /rm {rmoveto} def /gr {grestore} def /f {eofill} def
/c {setrgbcolor} def /black {0 setgray} def /sd {setdash} def
/cl {closepath} def /sf {scalefont setfont} def /lw {setlinewidth} def
/box {m dup 0 exch d exch 0 d 0 exch neg d cl} def
/NC{systemdict begin initclip end}def/C{NC box clip newpath}def
/bl {box s} def /bf {gsave box gsave f grestore 1 lw [] 0 sd s grestore} def /Y { 0 exch d} def /X { 0 d} def 
/K {{pop pop 0 moveto} exch kshow} bind def
/ita {/ang 15 def gsave [1 0 ang dup sin exch cos div 1 0 0] concat} def 
/mp {newpath /y exch def /x exch def} def
/side {[w .77 mul w .23 mul] .385 w mul sd w 0 l currentpoint t -144 r} def
/mr {mp x y w2 0 360 arc} def /m24 {mr s} def /m20 {mr f} def
/mb {mp x y w2 add m w2 neg 0 d 0 w neg d w 0 d 0 w d cl} def
/mt {mp x y w2 add m w2 neg w neg d w 0 d cl} def
/w4 {w 4 div} def
/w6 {w 6 div} def
/w8 {w 8 div} def
/m21 {mb f} def /m25 {mb s} def /m22 {mt f} def /m26{mt s} def
/m23 {mp x y w2 sub m w2 w d w neg 0 d cl f} def
/m27 {mp x y w2 add m w3 neg w2 neg d w3 w2 neg d w3 w2 d cl s} def
/m28 {mp x w2 sub y w2 sub w3 add m w3 0 d  0 w3 neg d w3 0 d 0 w3 d w3 0 d  0 w3 d w3 neg 0 d 0 w3 d w3 neg 0 d 0 w3 neg d w3 neg 0 d cl s } def
/m29 {mp gsave x w2 sub y w2 add w3 sub m currentpoint t 4 {side} repeat cl fill gr} def
/m30 {mp gsave x w2 sub y w2 add w3 sub m currentpoint t 4 {side} repeat cl s gr} def
/m31 {mp x y w2 sub m 0 w d x w2 sub y m w 0 d x w2 sub y w2 add m w w neg d x w2 sub y w2 sub m w w d s} def
/m32 {mp x y w2 sub m w2 w d w neg 0 d cl s} def
/m33 {mp x y w2 add m w3 neg w2 neg d w3 w2 neg d w3 w2 d cl f} def
/m34 {mp x w2 sub y w2 sub w3 add m w3 0 d  0 w3 neg d w3 0 d 0 w3 d w3 0 d  0 w3 d w3 neg 0 d 0 w3 d w3 neg 0 d 0 w3 neg d w3 neg 0 d cl f } def
/m35 {mp x y w2 add m w2 neg w2 neg d w2 w2 neg d w2 w2 d w2 neg w2 d x y w2 sub m 0 w d x w2 sub y m w 0 d s} def
/m36 {mb x w2 sub y w2 add m w w neg d x w2 sub y w2 sub m w w d s} def
/m37 {mp x y m w4 neg w2 d w4 neg w2 neg d w2 0 d  w4 neg w2 neg d w2 0 d w4 neg w2 d w2 0 d w4 neg w2 d w4 neg w2 neg d cl s} def
/m38 {mp x w4 sub y w2 add m w4 neg w4 neg d 0 w2 neg d w4 w4 neg d w2 0 d w4 w4 d 0 w2 d w4 neg w4 d w2 neg 0 d x y w2 sub m 0 w d x w2 sub y m w 0 d cl s} def
/m39 {mp x y m w4 neg w2 d w4 neg w2 neg d w2 0 d  w4 neg w2 neg d w2 0 d w4 neg w2 d w2 0 d w4 neg w2 d w4 neg w2 neg d cl f} def
/m40 {mp x y m w4 w2 d w4 w4 neg d w2 neg w4 neg d w2 w4 neg d w4 neg w4 neg d w4 neg w2 d w4 neg w2 neg d w4 neg w4 d w2 w4 d w2 neg w4 d w4 w4 d w4 w2 neg d cl s} def
/m41 {mp x y m w4 w2 d w4 w4 neg d w2 neg w4 neg d w2 w4 neg d w4 neg w4 neg d w4 neg w2 d w4 neg w2 neg d w4 neg w4 d w2 w4 d w2 neg w4 d w4 w4 d w4 w2 neg d cl f} def
/m42 {mp x y w2 add m w8 neg w2 -3 4 div mul d w2 -3 4 div mul w8 neg d w2 3 4 div mul w8 neg d w8 w2 -3 4 div mul d w8 w2 3 4 div mul d w2 3 4 div mul w8 d w2 -3 4 div mul w8 d w8 neg w2 3 4 div mul d cl s} def
/m43 {mp x y w2 add m w8 neg w2 -3 4 div mul d w2 -3 4 div mul w8 neg d w2 3 4 div mul w8 neg d w8 w2 -3 4 div mul d w8 w2 3 4 div mul d w2 3 4 div mul w8 d w2 -3 4 div mul w8 d w8 neg w2 3 4 div mul d cl f} def
/m44 {mp x y m w6 neg w2 d w2 2 3 div mul 0 d w6 neg w2 neg d w2 w6 d 0 w2 -2 3 div mul d w2 neg w6 d w6 w2 neg d w2 -2 3 div mul 0 d w6 w2 d w2 neg w6 neg d 0 w2 2 3 div mul d w2 w6 neg d cl s} def
/m45 {mp x y m w6 neg w2 d w2 2 3 div mul 0 d w6 neg w2 neg d w2 w6 d 0 w2 -2 3 div mul d w2 neg w6 d w6 w2 neg d w2 -2 3 div mul 0 d w6 w2 d w2 neg w6 neg d 0 w2 2 3 div mul d w2 w6 neg d cl f} def
/m46 {mp x y w4 add m w4 neg w4 d w4 neg w4 neg d  w4 w4 neg d w4 neg w4 neg d w4 w4 neg d w4 w4 d w4 w4 neg d w4 w4 d w4 neg w4 d w4 w4 d w4 neg w4 d w4 neg w4 neg d cl s} def
/m47 {mp x y w4 add m w4 neg w4 d w4 neg w4 neg d w4 w4 neg d w4 neg w4 neg d  w4 w4 neg d w4 w4 d w4 w4 neg d w4 w4 d w4 neg w4 d w4 w4 d w4 neg w4 d w4 neg w4 neg d cl f} def
/m48 {mp x y w4 add m w4 neg w4 d w4 neg w4 neg d w4 w4 neg d  w4 neg w4 neg d w4 w4 neg d w4 w4 d w4 w4 neg d w4 w4 d w4 neg w4 d w4 w4 d w4 neg w4 d w4 neg w4 neg d  w4 w4 neg d w4 neg w4 neg d w4 neg w4 d w4 w4 d cl f} def
/m49 {mp x w2 sub w3 add y w2 sub w3 add m  0 w3 neg d w3 0 d 0 w3 d w3 0 d 0 w3 d w3 neg 0 d 0 w3 d w3 neg 0 d 0 w3 neg d w3 neg 0 d 0 w3 neg d w3 0 d 0 w3 d w3 0 d 0 w3 neg d w3 neg 0 d cl f } def
/m2 {mp x y w2 sub m 0 w d x w2 sub y m w 0 d s} def
/m5 {mp x w2 sub y w2 sub m w w d x w2 sub y w2 add m w w neg d s} def
%%IncludeResource: ProcSet (FontSetInit)
%%IncludeResource: font Times-Roman
%%IncludeResource: font Times-Italic
%%IncludeResource: font Times-Bold
%%IncludeResource: font Times-BoldItalic
%%IncludeResource: font Helvetica
%%IncludeResource: font Helvetica-Oblique
%%IncludeResource: font Helvetica-Bold
%%IncludeResource: font Helvetica-BoldOblique
%%IncludeResource: font Courier
%%IncludeResource: font Courier-Oblique
%%IncludeResource: font Courier-Bold
%%IncludeResource: font Courier-BoldOblique
%%IncludeResource: font Symbol
%%IncludeResource: font ZapfDingbats
/reEncode {exch findfont dup length dict begin {1 index /FID eq  {pop pop} {def} ifelse } forall /Encoding exch def currentdict end dup /FontName get exch definefont pop } def [/Times-Bold /Times-Italic /Times-BoldItalic /Helvetica /Helvetica-Oblique
 /Helvetica-Bold /Helvetica-BoldOblique /Courier /Courier-Oblique /Courier-Bold /Courier-BoldOblique /Times-Roman /AvantGarde-Book /AvantGarde-BookOblique /AvantGarde-Demi /AvantGarde-DemiOblique /Bookman-Demi /Bookman-DemiItalic /Bookman-Light
 /Bookman-LightItalic /Helvetica-Narrow /Helvetica-Narrow-Bold /Helvetica-Narrow-BoldOblique /Helvetica-Narrow-Oblique /NewCenturySchlbk-Roman /NewCenturySchlbk-Bold /NewCenturySchlbk-BoldItalic /NewCenturySchlbk-Italic /Palatino-Bold
 /Palatino-BoldItalic /Palatino-Italic /Palatino-Roman ] {ISOLatin1Encoding reEncode } forall
%%EndProlog
%%BeginSetup
%%EndSetup
newpath  gsave  .25 .25 scale  gsave  0 0 t 0.490196 0.545098 0.615686 c[  ] 0 sd 3 lw 0.941176 0.941176 0.941176 c 2268 1182 0 0 bf 0.490196 0.545098 0.615686 c 0.941176 0.941176 0.941176 c 710 567 23 603 bf black 1 1 0.992157 c 548 429 143 685 bf
 black 548 429 143 685 bl 0 0 0.933333 c 6 lw 0.49 0.6 0.82 c black 3 lw 0.49 0.6 0.82 c 143 705 m 42 X 1 Y 27 X 1 Y 14 X 1 Y 13 X 3 Y 14 X 3 Y 14 X 4 Y 13 X 16 Y 14 X 38 Y 14 X 28 Y 13 X 24 Y 14 X 52 Y 14 X 93 Y 13 X 8 Y 14 X -4 Y 14 X -13 Y 13 X 18
 Y 14 X -24 Y 14 X -60 Y 13 X -37 Y 14 X 7 Y 14 X -29 Y 13 X -21 Y 14 X -5 Y 14 X -12 Y 13 X -49 Y 14 X -14 Y 14 X -23 Y 13 X -1 Y 14 X 1 Y 14 X -5 Y 14 X -1 Y 13 X 1 Y 14 X -1 Y 55 X f 6 lw 0 0 0.933333 c 0.49 0.6 0.82 c 0 0 0.933333 c 143 705 m 42
 X 1 Y 27 X 1 Y 14 X 1 Y 13 X 3 Y 14 X 3 Y 14 X 4 Y 13 X 16 Y 14 X 38 Y 14 X 28 Y 13 X 24 Y 14 X 52 Y 14 X 93 Y 13 X 8 Y 14 X -4 Y 14 X -13 Y 13 X 18 Y 14 X -24 Y 14 X -60 Y 13 X -37 Y 14 X 7 Y 14 X -29 Y 13 X -21 Y 14 X -5 Y 14 X -12 Y 13 X -49 Y 14
 X -14 Y 14 X -23 Y 13 X -1 Y 14 X 1 Y 14 X -5 Y 14 X -1 Y 13 X 1 Y 14 X -1 Y 55 X s black 3 lw 143 685 m 548 X s 163 698 m -13 Y s 175 691 m -6 Y s 188 691 m -6 Y s 201 691 m -6 Y s 213 691 m -6 Y s 226 698 m -13 Y s 239 691 m -6 Y s 252 691 m -6 Y
 s 264 691 m -6 Y s 277 691 m -6 Y s 290 698 m -13 Y s 302 691 m -6 Y s 315 691 m -6 Y s 328 691 m -6 Y s 341 691 m -6 Y s 353 698 m -13 Y s 366 691 m -6 Y s 379 691 m -6 Y s 392 691 m -6 Y s 404 691 m -6 Y s 417 698 m -13 Y s 430 691 m -6 Y s 442
 691 m -6 Y s 455 691 m -6 Y s 468 691 m -6 Y s 481 698 m -13 Y s 493 691 m -6 Y s 506 691 m -6 Y s 519 691 m -6 Y s 531 691 m -6 Y s 544 698 m -13 Y s 557 691 m -6 Y s 570 691 m -6 Y s 582 691 m -6 Y s 595 691 m -6 Y s 608 698 m -13 Y s 620 691 m -6
 Y s 633 691 m -6 Y s 646 691 m -6 Y s 659 691 m -6 Y s 671 698 m -13 Y s 163 698 m -13 Y s 150 691 m -6 Y s 671 698 m -13 Y s 684 691 m -6 Y s
 gsave  710 567 23 603 C 150.613 656.444 t 0 r /Helvetica findfont 25.6631 sf 0 0 m (0.2) show NC gr 
 gsave  710 567 23 603 C 136.404 656.444 t 0 r /Symbol findfont 25.6631 sf 0 0 m (-) show NC gr 
 gsave  710 567 23 603 C 204.606 656.444 t 0 r /Helvetica findfont 25.6631 sf 0 0 m (0.15) show NC gr 
 gsave  710 567 23 603 C 193.239 656.444 t 0 r /Symbol findfont 25.6631 sf 0 0 m (-) show NC gr 
 gsave  710 567 23 603 C 275.65 656.444 t 0 r /Helvetica findfont 25.6631 sf 0 0 m (0.1) show NC gr 
 gsave  710 567 23 603 C 264.283 656.444 t 0 r /Symbol findfont 25.6631 sf 0 0 m (-) show NC gr 
 gsave  710 567 23 603 C 332.485 656.444 t 0 r /Helvetica findfont 25.6631 sf 0 0 m (0.05) show NC gr 
 gsave  710 567 23 603 C 321.118 656.444 t 0 r /Symbol findfont 25.6631 sf 0 0 m (-) show NC gr 
 gsave  710 567 23 603 C 406.37 656.444 t 0 r /Helvetica findfont 25.6631 sf 0 0 m (0) show NC gr 
 gsave  710 567 23 603 C 454.68 656.444 t 0 r /Helvetica findfont 25.6631 sf 0 0 m (0.05) show NC gr 
 gsave  710 567 23 603 C 525.724 656.444 t 0 r /Helvetica findfont 25.6631 sf 0 0 m (0.1) show NC gr 
 gsave  710 567 23 603 C 579.717 656.444 t 0 r /Helvetica findfont 25.6631 sf 0 0 m (0.15) show NC gr 
 gsave  710 567 23 603 C 653.603 656.444 t 0 r /Helvetica findfont 25.6631 sf 0 0 m (0.2) show NC gr 
 gsave  710 567 23 603 C 548.458 616.66 t 0 r /Helvetica findfont 28.5146 sf 0 0 m (yybb.HP_l5) show NC gr  143 1114 m 548 X s 163 1100 m 14 Y s 175 1107 m 7 Y s 188 1107 m 7 Y s 201 1107 m 7 Y s 213 1107 m 7 Y s 226 1100 m 14 Y s 239 1107 m 7 Y s
 252 1107 m 7 Y s 264 1107 m 7 Y s 277 1107 m 7 Y s 290 1100 m 14 Y s 302 1107 m 7 Y s 315 1107 m 7 Y s 328 1107 m 7 Y s 341 1107 m 7 Y s 353 1100 m 14 Y s 366 1107 m 7 Y s 379 1107 m 7 Y s 392 1107 m 7 Y s 404 1107 m 7 Y s 417 1100 m 14 Y s 430 1107
 m 7 Y s 442 1107 m 7 Y s 455 1107 m 7 Y s 468 1107 m 7 Y s 481 1100 m 14 Y s 493 1107 m 7 Y s 506 1107 m 7 Y s 519 1107 m 7 Y s 531 1107 m 7 Y s 544 1100 m 14 Y s 557 1107 m 7 Y s 570 1107 m 7 Y s 582 1107 m 7 Y s 595 1107 m 7 Y s 608 1100 m 14 Y s
 620 1107 m 7 Y s 633 1107 m 7 Y s 646 1107 m 7 Y s 659 1107 m 7 Y s 671 1100 m 14 Y s 163 1100 m 14 Y s 150 1107 m 7 Y s 671 1100 m 14 Y s 684 1107 m 7 Y s 143 685 m 429 Y s 160 705 m -17 X s 152 722 m -9 X s 152 739 m -9 X s 152 755 m -9 X s 160
 772 m -17 X s 152 789 m -9 X s 152 806 m -9 X s 152 822 m -9 X s 160 839 m -17 X s 152 856 m -9 X s 152 872 m -9 X s 152 889 m -9 X s 160 906 m -17 X s 152 923 m -9 X s 152 939 m -9 X s 152 956 m -9 X s 160 973 m -17 X s 152 989 m -9 X s 152 1006 m
 -9 X s 152 1023 m -9 X s 160 1040 m -17 X s 152 1056 m -9 X s 152 1073 m -9 X s 152 1090 m -9 X s 160 1106 m -17 X s 160 705 m -17 X s 152 689 m -9 X s 160 1106 m -17 X s
 gsave  710 567 23 603 C 119.354 696.229 t 0 r /Helvetica findfont 25.6631 sf 0 0 m (0) show NC gr 
 gsave  710 567 23 603 C 119.354 761.589 t 0 r /Helvetica findfont 25.6631 sf 0 0 m (2) show NC gr 
 gsave  710 567 23 603 C 119.354 829.791 t 0 r /Helvetica findfont 25.6631 sf 0 0 m (4) show NC gr 
 gsave  710 567 23 603 C 119.354 895.151 t 0 r /Helvetica findfont 25.6631 sf 0 0 m (6) show NC gr 
 gsave  710 567 23 603 C 119.354 963.353 t 0 r /Helvetica findfont 25.6631 sf 0 0 m (8) show NC gr 
 gsave  710 567 23 603 C 105.145 1028.71 t 0 r /Helvetica findfont 25.6631 sf 0 0 m (10) show NC gr 
 gsave  710 567 23 603 C 105.145 1096.92 t 0 r /Helvetica findfont 25.6631 sf 0 0 m (12) show NC gr 
 gsave  710 567 23 603 C 45.468 1023.03 t 90 r /Helvetica findfont 28.5146 sf 0 0 m (0.0108 ) show NC gr 
 gsave  710 567 23 603 C 31.2593 1020.19 t 90 r /Helvetica findfont 19.9602 sf 0 0 m ( ) show NC gr 
 gsave  710 567 23 603 C 45.468 1008.82 t 90 r /Helvetica findfont 28.5146 sf 0 0 m (/) show NC gr 
 gsave  710 567 23 603 C 53.9933 1005.98 t 90 r /Helvetica findfont 19.9602 sf 0 0 m ( ) show NC gr 
 gsave  710 567 23 603 C 45.468 900.835 t 90 r /Helvetica findfont 28.5146 sf 0 0 m (\(1/N\) dN) show NC gr  691 685 m 429 Y s 674 705 m 17 X s 683 722 m 8 X s 683 739 m 8 X s 683 755 m 8 X s 674 772 m 17 X s 683 789 m 8 X s 683 806 m 8 X s 683 822 m
 8 X s 674 839 m 17 X s 683 856 m 8 X s 683 872 m 8 X s 683 889 m 8 X s 674 906 m 17 X s 683 923 m 8 X s 683 939 m 8 X s 683 956 m 8 X s 674 973 m 17 X s 683 989 m 8 X s 683 1006 m 8 X s 683 1023 m 8 X s 674 1040 m 17 X s 683 1056 m 8 X s 683 1073 m
 8 X s 683 1090 m 8 X s 674 1106 m 17 X s 674 705 m 17 X s 683 689 m 8 X s 674 1106 m 17 X s 0.490196 0.545098 0.615686 c 0.364706 0.419608 0.490196 c 369 38 30 1130 bf 0.490196 0.545098 0.615686 c 30 1130 m 369 X s 399 1130 m 38 Y s 399 1168 m -369
 X s 30 1168 m -38 Y s 1 1 1 c black 1 1 1 c
 gsave  710 567 23 603 C 34.101 1142.38 t 0 r /Helvetica-Bold findfont 28.5146 sf 0 0 m (Input variable: yybb.HP_l5) show NC gr  1 0 0 c 6 lw black 3 lw 1 0 0 c 682 705 m s 668 707 m -1 -2 d s 652 705 m s 637 705 m s 623 707 m -1 -2 d s 613 712 m -6
 -7 d s 595 709 m -3 -4 d s 587 716 m -10 -11 d s 572 716 m -11 -11 d s 567 727 m -21 -22 d s 555 729 m -24 -24 d s 545 734 m -29 -29 d s 540 745 m -39 -40 d s 535 755 m -49 -50 d s 526 761 m -55 -56 d s 526 776 m -70 -71 d s 522 787 m -81 -82 d s
 513 793 m -14 -14 d s 488 768 m -62 -63 d s 513 808 m -14 -14 d s 485 781 m -74 -76 d s 505 815 m -6 -5 d s 485 796 m -89 -91 d s 482 808 m -101 -103 d s 472 812 m -106 -107 d s 472 827 m -122 -122 d s 472 843 m -137 -138 d s 472 858 m -152 -153 d s
 472 873 m -167 -168 d s 459 875 m -169 -170 d s 458 890 m -183 -185 d s 456 903 m -162 -164 d s 282 728 m -15 -16 d s 262 707 m -2 -2 d s 431 892 m -137 -137 d s 268 729 m -1 -2 d s 245 705 m s 425 902 m -104 -105 d s 311 787 m -3 -3 d s 295 771 m
 -1 -1 d s 230 705 m s 417 909 m -82 -83 d s 323 814 m -2 -1 d s 215 705 m s 417 924 m -68 -69 d s 341 847 m -6 -5 d s 204 710 m -4 -5 d s 417 939 m -68 -68 d s 185 705 m s 417 955 m -55 -56 d s 361 898 m -12 -12 d s 170 705 m s 417 970 m -55 -55 d s
 155 705 m s 417 985 m -41 -41 d s 376 944 m -14 -14 d s 405 988 m -29 -29 d s 403 1002 m -27 -28 d s 403 1017 m -27 -28 d s 403 1032 m -27 -28 d s 391 1034 m -15 -14 d s 390 1048 m -14 -13 d s 390 1064 m -14 -14 d s 387 1076 m -11 -11 d s 6 lw 143
 705 m 55 X 5 Y 14 X -5 Y 41 X 2 Y 14 X 22 Y 13 X -1 Y 14 X 43 Y 14 X 16 Y 13 X 27 Y 14 X 33 Y 14 X 51 Y 13 X 46 Y 14 X 132 Y 14 X -42 Y 13 X -46 Y 14 X -86 Y 14 X -10 Y 13 X 11 Y 14 X -28 Y 14 X -67 Y 13 X -40 Y 14 X 47 Y 14 X -28 Y 13 X -32 Y 14 X
 -21 Y 14 X -5 Y 13 X -13 Y 28 X -7 Y 14 X 3 Y 13 X -5 Y 14 X -2 Y 27 X 2 Y 14 X -2 Y 14 X s black 3 lw 143 685 m 548 X s 163 698 m -13 Y s 175 691 m -6 Y s 188 691 m -6 Y s 201 691 m -6 Y s 213 691 m -6 Y s 226 698 m -13 Y s 239 691 m -6 Y s 252 691
 m -6 Y s 264 691 m -6 Y s 277 691 m -6 Y s 290 698 m -13 Y s 302 691 m -6 Y s 315 691 m -6 Y s 328 691 m -6 Y s 341 691 m -6 Y s 353 698 m -13 Y s 366 691 m -6 Y s 379 691 m -6 Y s 392 691 m -6 Y s 404 691 m -6 Y s 417 698 m -13 Y s 430 691 m -6 Y s
 442 691 m -6 Y s 455 691 m -6 Y s 468 691 m -6 Y s 481 698 m -13 Y s 493 691 m -6 Y s 506 691 m -6 Y s 519 691 m -6 Y s 531 691 m -6 Y s 544 698 m -13 Y s 557 691 m -6 Y s 570 691 m -6 Y s 582 691 m -6 Y s 595 691 m -6 Y s 608 698 m -13 Y s 620 691
 m -6 Y s 633 691 m -6 Y s 646 691 m -6 Y s 659 691 m -6 Y s 671 698 m -13 Y s 163 698 m -13 Y s 150 691 m -6 Y s 671 698 m -13 Y s 684 691 m -6 Y s 143 1114 m 548 X s 163 1100 m 14 Y s 175 1107 m 7 Y s 188 1107 m 7 Y s 201 1107 m 7 Y s 213 1107 m 7
 Y s 226 1100 m 14 Y s 239 1107 m 7 Y s 252 1107 m 7 Y s 264 1107 m 7 Y s 277 1107 m 7 Y s 290 1100 m 14 Y s 302 1107 m 7 Y s 315 1107 m 7 Y s 328 1107 m 7 Y s 341 1107 m 7 Y s 353 1100 m 14 Y s 366 1107 m 7 Y s 379 1107 m 7 Y s 392 1107 m 7 Y s 404
 1107 m 7 Y s 417 1100 m 14 Y s 430 1107 m 7 Y s 442 1107 m 7 Y s 455 1107 m 7 Y s 468 1107 m 7 Y s 481 1100 m 14 Y s 493 1107 m 7 Y s 506 1107 m 7 Y s 519 1107 m 7 Y s 531 1107 m 7 Y s 544 1100 m 14 Y s 557 1107 m 7 Y s 570 1107 m 7 Y s 582 1107 m 7
 Y s 595 1107 m 7 Y s 608 1100 m 14 Y s 620 1107 m 7 Y s 633 1107 m 7 Y s 646 1107 m 7 Y s 659 1107 m 7 Y s 671 1100 m 14 Y s 163 1100 m 14 Y s 150 1107 m 7 Y s 671 1100 m 14 Y s 684 1107 m 7 Y s 143 685 m 429 Y s 160 705 m -17 X s 152 722 m -9 X s
 152 739 m -9 X s 152 755 m -9 X s 160 772 m -17 X s 152 789 m -9 X s 152 806 m -9 X s 152 822 m -9 X s 160 839 m -17 X s 152 856 m -9 X s 152 872 m -9 X s 152 889 m -9 X s 160 906 m -17 X s 152 923 m -9 X s 152 939 m -9 X s 152 956 m -9 X s 160 973
 m -17 X s 152 989 m -9 X s 152 1006 m -9 X s 152 1023 m -9 X s 160 1040 m -17 X s 152 1056 m -9 X s 152 1073 m -9 X s 152 1090 m -9 X s 160 1106 m -17 X s 160 705 m -17 X s 152 689 m -9 X s 160 1106 m -17 X s 691 685 m 429 Y s 674 705 m 17 X s 683
 722 m 8 X s 683 739 m 8 X s 683 755 m 8 X s 674 772 m 17 X s 683 789 m 8 X s 683 806 m 8 X s 683 822 m 8 X s 674 839 m 17 X s 683 856 m 8 X s 683 872 m 8 X s 683 889 m 8 X s 674 906 m 17 X s 683 923 m 8 X s 683 939 m 8 X s 683 956 m 8 X s 674 973 m
 17 X s 683 989 m 8 X s 683 1006 m 8 X s 683 1023 m 8 X s 674 1040 m 17 X s 683 1056 m 8 X s 683 1073 m 8 X s 683 1090 m 8 X s 674 1106 m 17 X s 674 705 m 17 X s 683 689 m 8 X s 674 1106 m 17 X s
 gsave  710 567 23 603 C 719.017 682.347 t 90 r /Helvetica-Bold findfont 19.9602 sf 0 0 m (U/O\255flow \(S,B\): \(0.0, 0.0\)% / \(0.0, 0.0\)%) show NC gr  0.490196 0.545098 0.615686 c 0.364706 0.419608 0.490196 c 369 38 30 1130 bf 0.490196 0.545098
 0.615686 c 30 1130 m 369 X s 399 1130 m 38 Y s 399 1168 m -369 X s 30 1168 m -38 Y s 1 1 1 c black 1 1 1 c
 gsave  710 567 23 603 C 34.101 1142.38 t 0 r /Helvetica-Bold findfont 28.5146 sf 0 0 m (Input variable: yybb.HP_l5) show NC gr  0.490196 0.545098 0.615686 c 0.941176 0.941176 0.941176 c 710 567 779 603 bf black 1 1 0.992157 c 548 429 899 685 bf
 black 548 429 899 685 bl 0 0 0.933333 c 6 lw 0.49 0.6 0.82 c black 3 lw 0.49 0.6 0.82 c 899 685 m 390 Y 14 X -38 Y 14 X -124 Y 13 X 30 Y 14 X -15 Y 14 X -49 Y 13 X 5 Y 14 X 49 Y 14 X -90 Y 13 X 8 Y 14 X -12 Y 14 X 11 Y 14 X -22 Y 13 X 20 Y 14 X 17 Y
 14 X -18 Y 13 X 62 Y 14 X -77 Y 14 X -50 Y 13 X 46 Y 14 X 7 Y 14 X -9 Y 13 X 15 Y 14 X -29 Y 14 X 40 Y 13 X -2 Y 14 X -156 Y 14 X 127 Y 13 X 3 Y 14 X 1 Y 14 X -1 Y 13 X -1 Y 14 X -9 Y 14 X -10 Y 13 X -49 Y 14 X 10 Y 14 X -46 Y 13 X -20 Y 14 X -10 Y
 14 X -4 Y 14 X f 6 lw 0 0 0.933333 c 0.49 0.6 0.82 c 0 0 0.933333 c 899 1075 m 14 X -38 Y 14 X -124 Y 13 X 30 Y 14 X -15 Y 14 X -49 Y 13 X 5 Y 14 X 49 Y 14 X -90 Y 13 X 8 Y 14 X -12 Y 14 X 11 Y 14 X -22 Y 13 X 20 Y 14 X 17 Y 14 X -18 Y 13 X 62 Y 14
 X -77 Y 14 X -50 Y 13 X 46 Y 14 X 7 Y 14 X -9 Y 13 X 15 Y 14 X -29 Y 14 X 40 Y 13 X -2 Y 14 X -156 Y 14 X 127 Y 13 X 3 Y 14 X 1 Y 14 X -1 Y 13 X -1 Y 14 X -9 Y 14 X -10 Y 13 X -49 Y 14 X 10 Y 14 X -46 Y 13 X -20 Y 14 X -10 Y 14 X -4 Y 14 X s black 3
 lw 899 685 m 548 X s 953 698 m -13 Y s 974 691 m -6 Y s 995 691 m -6 Y s 1017 691 m -6 Y s 1038 691 m -6 Y s 1060 698 m -13 Y s 1081 691 m -6 Y s 1102 691 m -6 Y s 1124 691 m -6 Y s 1145 691 m -6 Y s 1166 698 m -13 Y s 1188 691 m -6 Y s 1209 691 m
 -6 Y s 1230 691 m -6 Y s 1252 691 m -6 Y s 1273 698 m -13 Y s 1294 691 m -6 Y s 1316 691 m -6 Y s 1337 691 m -6 Y s 1359 691 m -6 Y s 1380 698 m -13 Y s 953 698 m -13 Y s 931 691 m -6 Y s 910 691 m -6 Y s 1380 698 m -13 Y s 1401 691 m -6 Y s 1423
 691 m -6 Y s 1444 691 m -6 Y s
 gsave  710 567 779 603 C 940.619 656.444 t 0 r /Helvetica findfont 25.6631 sf 0 0 m (0.2) show NC gr 
 gsave  710 567 779 603 C 926.411 656.444 t 0 r /Symbol findfont 25.6631 sf 0 0 m (-) show NC gr 
 gsave  710 567 779 603 C 1045.76 656.444 t 0 r /Helvetica findfont 25.6631 sf 0 0 m (0.1) show NC gr 
 gsave  710 567 779 603 C 1034.4 656.444 t 0 r /Symbol findfont 25.6631 sf 0 0 m (-) show NC gr 
 gsave  710 567 779 603 C 1156.59 656.444 t 0 r /Helvetica findfont 25.6631 sf 0 0 m (0) show NC gr 
 gsave  710 567 779 603 C 1256.05 656.444 t 0 r /Helvetica findfont 25.6631 sf 0 0 m (0.1) show NC gr 
 gsave  710 567 779 603 C 1361.2 656.444 t 0 r /Helvetica findfont 25.6631 sf 0 0 m (0.2) show NC gr 
 gsave  710 567 779 603 C 1335.62 613.818 t 0 r /Helvetica findfont 28.5146 sf 0 0 m (hh.HP_l1) show NC gr  899 1114 m 548 X s 953 1100 m 14 Y s 974 1107 m 7 Y s 995 1107 m 7 Y s 1017 1107 m 7 Y s 1038 1107 m 7 Y s 1060 1100 m 14 Y s 1081 1107 m 7 Y
 s 1102 1107 m 7 Y s 1124 1107 m 7 Y s 1145 1107 m 7 Y s 1166 1100 m 14 Y s 1188 1107 m 7 Y s 1209 1107 m 7 Y s 1230 1107 m 7 Y s 1252 1107 m 7 Y s 1273 1100 m 14 Y s 1294 1107 m 7 Y s 1316 1107 m 7 Y s 1337 1107 m 7 Y s 1359 1107 m 7 Y s 1380 1100 m
 14 Y s 953 1100 m 14 Y s 931 1107 m 7 Y s 910 1107 m 7 Y s 1380 1100 m 14 Y s 1401 1107 m 7 Y s 1423 1107 m 7 Y s 1444 1107 m 7 Y s 899 685 m 429 Y s 915 685 m -16 X s 907 700 m -8 X s 907 716 m -8 X s 907 731 m -8 X s 907 747 m -8 X s 915 763 m -16
 X s 907 778 m -8 X s 907 794 m -8 X s 907 809 m -8 X s 907 825 m -8 X s 915 840 m -16 X s 907 856 m -8 X s 907 872 m -8 X s 907 887 m -8 X s 907 903 m -8 X s 915 918 m -16 X s 907 934 m -8 X s 907 950 m -8 X s 907 965 m -8 X s 907 981 m -8 X s 915
 996 m -16 X s 907 1012 m -8 X s 907 1027 m -8 X s 907 1043 m -8 X s 907 1059 m -8 X s 915 1074 m -16 X s 915 1074 m -16 X s 907 1090 m -8 X s 907 1105 m -8 X s
 gsave  710 567 779 603 C 875.259 673.495 t 0 r /Helvetica findfont 25.6631 sf 0 0 m (0) show NC gr 
 gsave  710 567 779 603 C 878.101 753.064 t 0 r /Helvetica findfont 25.6631 sf 0 0 m (1) show NC gr 
 gsave  710 567 779 603 C 875.259 829.791 t 0 r /Helvetica findfont 25.6631 sf 0 0 m (2) show NC gr 
 gsave  710 567 779 603 C 875.259 909.36 t 0 r /Helvetica findfont 25.6631 sf 0 0 m (3) show NC gr 
 gsave  710 567 779 603 C 875.259 986.087 t 0 r /Helvetica findfont 25.6631 sf 0 0 m (4) show NC gr 
 gsave  710 567 779 603 C 875.259 1065.66 t 0 r /Helvetica findfont 25.6631 sf 0 0 m (5) show NC gr 
 gsave  710 567 779 603 C 801.374 1023.03 t 90 r /Helvetica findfont 28.5146 sf 0 0 m (0.0128 ) show NC gr 
 gsave  710 567 779 603 C 787.165 1020.19 t 90 r /Helvetica findfont 19.9602 sf 0 0 m ( ) show NC gr 
 gsave  710 567 779 603 C 801.374 1008.82 t 90 r /Helvetica findfont 28.5146 sf 0 0 m (/) show NC gr 
 gsave  710 567 779 603 C 809.899 1005.98 t 90 r /Helvetica findfont 19.9602 sf 0 0 m ( ) show NC gr 
 gsave  710 567 779 603 C 801.374 900.835 t 90 r /Helvetica findfont 28.5146 sf 0 0 m (\(1/N\) dN) show NC gr  1447 685 m 429 Y s 1430 685 m 17 X s 1438 700 m 9 X s 1438 716 m 9 X s 1438 731 m 9 X s 1438 747 m 9 X s 1430 763 m 17 X s 1438 778 m 9 X s
 1438 794 m 9 X s 1438 809 m 9 X s 1438 825 m 9 X s 1430 840 m 17 X s 1438 856 m 9 X s 1438 872 m 9 X s 1438 887 m 9 X s 1438 903 m 9 X s 1430 918 m 17 X s 1438 934 m 9 X s 1438 950 m 9 X s 1438 965 m 9 X s 1438 981 m 9 X s 1430 996 m 17 X s 1438
 1012 m 9 X s 1438 1027 m 9 X s 1438 1043 m 9 X s 1438 1059 m 9 X s 1430 1074 m 17 X s 1430 1074 m 17 X s 1438 1090 m 9 X s 1438 1105 m 9 X s 0.490196 0.545098 0.615686 c 0.364706 0.419608 0.490196 c 335 38 786 1130 bf 0.490196 0.545098 0.615686 c
 786 1130 m 335 X s 1121 1130 m 38 Y s 1121 1168 m -335 X s 786 1168 m -38 Y s 1 1 1 c black 1 1 1 c
 gsave  710 567 779 603 C 790.007 1142.38 t 0 r /Helvetica-Bold findfont 28.5146 sf 0 0 m (Input variable: hh.HP_l1) show NC gr  1 0 0 c 6 lw black 3 lw 1 0 0 c 1434 686 m -2 -1 d s 1433 700 m -16 -15 d s 1433 715 m -31 -30 d s 1433 731 m -46 -46 d s
 1433 746 m -61 -61 d s 1433 761 m -76 -76 d s 1433 776 m -91 -91 d s 1433 791 m -106 -106 d s 1433 806 m -121 -121 d s 1433 822 m -136 -137 d s 1433 837 m -151 -152 d s 1433 852 m -166 -167 d s 1433 867 m -181 -182 d s 1433 882 m -196 -197 d s 1424
 888 m -203 -203 d s 1419 899 m -213 -214 d s 1419 914 m -228 -229 d s 1419 929 m -68 -69 d s 1347 856 m -65 -64 d s 1279 788 m -103 -103 d s 1419 944 m -14 -13 d s 1396 921 m -18 -18 d s 1372 897 m -21 -21 d s 1337 862 m -55 -55 d s 1269 793 m -108
 -108 d s 1419 960 m -14 -14 d s 1381 922 m -3 -4 d s 1364 905 m -13 -14 d s 1337 877 m -55 -55 d s 1269 808 m -123 -123 d s 1419 975 m -14 -14 d s 1364 920 m -13 -14 d s 1337 892 m -55 -55 d s 1260 814 m -129 -129 d s 1415 985 m -10 -9 d s 1364 935
 m -13 -14 d s 1337 907 m -27 -27 d s 1304 874 m -22 -22 d s 1255 825 m -14 -14 d s 1233 802 m -19 -19 d s 1203 773 m -3 -3 d s 1187 756 m -71 -71 d s 1363 949 m -12 -13 d s 1337 923 m -27 -28 d s 1296 881 m -14 -14 d s 1253 837 m -12 -11 d s 1228
 812 m -14 -13 d s 1173 757 m -72 -72 d s 1333 934 m -23 -24 d s 1296 896 m -14 -13 d s 1228 827 m -14 -13 d s 1173 772 m -87 -87 d s 1323 939 m -13 -14 d s 1296 912 m -14 -14 d s 1228 843 m -14 -14 d s 1173 788 m -102 -103 d s 1323 954 m -13 -13 d s
 1292 922 m -10 -9 d s 1228 858 m -14 -14 d s 1173 803 m -27 -28 d s 1142 772 m -86 -87 d s 1323 969 m -13 -13 d s 1228 873 m -14 -14 d s 1173 818 m -27 -28 d s 1132 777 m -91 -92 d s 1310 971 m s 1221 881 m -7 -7 d s 1173 833 m -27 -27 d s 1132 792
 m -106 -107 d s 1165 841 m -6 -6 d s 1150 826 m -4 -5 d s 1132 807 m -122 -122 d s 1121 811 m -30 -30 d s 1089 779 m -94 -94 d s 1118 824 m -27 -28 d s 1077 782 m -13 -14 d s 1063 768 m -83 -83 d s 1118 839 m -13 -14 d s 1101 821 m -10 -10 d s 1077
 797 m -13 -13 d s 1050 770 m -85 -85 d s 1114 850 m -9 -10 d s 1077 813 m -13 -14 d s 1050 785 m -14 -14 d s 1027 762 m -77 -77 d s 1077 828 m -13 -14 d s 1050 800 m -14 -14 d s 1022 773 m -87 -88 d s 1077 843 m -13 -14 d s 1046 811 m -10 -9 d s
 1022 788 m -102 -103 d s 1077 858 m -13 -14 d s 1022 803 m -27 -28 d s 995 775 m -90 -90 d s 1077 873 m -13 -13 d s 1022 818 m -13 -14 d s 995 791 m s 981 777 m -82 -83 d s 1072 884 m -8 -9 d s 1012 823 m -3 -3 d s 981 792 m -82 -83 d s 981 807 m
 -82 -82 d s 981 822 m -13 -13 d s 963 804 m -36 -37 d s 915 756 m -16 -16 d s 969 825 m -1 -1 d s 944 800 m -17 -18 d s 913 769 m -14 -14 d s 940 811 m -13 -13 d s 913 784 m -14 -14 d s 940 827 m -13 -14 d s 913 799 m -14 -14 d s 940 842 m -13 -14 d
 s 913 814 m -14 -14 d s 931 847 m -4 -4 d s 913 829 m -14 -13 d s 913 845 m -14 -14 d s 913 860 m -14 -14 d s 913 875 m -14 -14 d s 913 890 m -14 -14 d s 913 905 m -14 -13 d s 902 910 m -3 -3 d s 6 lw 899 910 m 14 X -154 Y 14 X 91 Y 13 X -47 Y 14 X
 4 Y 14 X 21 Y 13 X -50 Y 14 X 16 Y 14 X 32 Y 13 X -61 Y 14 X 49 Y 14 X -43 Y 14 X 116 Y 13 X -105 Y 14 X 42 Y 14 X 29 Y 13 X -39 Y 14 X -39 Y 14 X 54 Y 13 X 15 Y 14 X -85 Y 14 X -1 Y 13 X 18 Y 14 X 108 Y 14 X -79 Y 13 X 35 Y 14 X -23 Y 14 X -26 Y 13
 X 134 Y 14 X -48 Y 14 X 97 Y 13 X -37 Y 14 X -78 Y 14 X 93 Y 13 X -52 Y 14 X 25 Y 14 X -1 Y 13 X 64 Y 14 X -97 Y 14 X -202 Y 14 X s black 3 lw 899 685 m 548 X s 953 698 m -13 Y s 974 691 m -6 Y s 995 691 m -6 Y s 1017 691 m -6 Y s 1038 691 m -6 Y s
 1060 698 m -13 Y s 1081 691 m -6 Y s 1102 691 m -6 Y s 1124 691 m -6 Y s 1145 691 m -6 Y s 1166 698 m -13 Y s 1188 691 m -6 Y s 1209 691 m -6 Y s 1230 691 m -6 Y s 1252 691 m -6 Y s 1273 698 m -13 Y s 1294 691 m -6 Y s 1316 691 m -6 Y s 1337 691 m
 -6 Y s 1359 691 m -6 Y s 1380 698 m -13 Y s 953 698 m -13 Y s 931 691 m -6 Y s 910 691 m -6 Y s 1380 698 m -13 Y s 1401 691 m -6 Y s 1423 691 m -6 Y s 1444 691 m -6 Y s 899 1114 m 548 X s 953 1100 m 14 Y s 974 1107 m 7 Y s 995 1107 m 7 Y s 1017 1107
 m 7 Y s 1038 1107 m 7 Y s 1060 1100 m 14 Y s 1081 1107 m 7 Y s 1102 1107 m 7 Y s 1124 1107 m 7 Y s 1145 1107 m 7 Y s 1166 1100 m 14 Y s 1188 1107 m 7 Y s 1209 1107 m 7 Y s 1230 1107 m 7 Y s 1252 1107 m 7 Y s 1273 1100 m 14 Y s 1294 1107 m 7 Y s 1316
 1107 m 7 Y s 1337 1107 m 7 Y s 1359 1107 m 7 Y s 1380 1100 m 14 Y s 953 1100 m 14 Y s 931 1107 m 7 Y s 910 1107 m 7 Y s 1380 1100 m 14 Y s 1401 1107 m 7 Y s 1423 1107 m 7 Y s 1444 1107 m 7 Y s 899 685 m 429 Y s 915 685 m -16 X s 907 700 m -8 X s 907
 716 m -8 X s 907 731 m -8 X s 907 747 m -8 X s 915 763 m -16 X s 907 778 m -8 X s 907 794 m -8 X s 907 809 m -8 X s 907 825 m -8 X s 915 840 m -16 X s 907 856 m -8 X s 907 872 m -8 X s 907 887 m -8 X s 907 903 m -8 X s 915 918 m -16 X s 907 934 m -8
 X s 907 950 m -8 X s 907 965 m -8 X s 907 981 m -8 X s 915 996 m -16 X s 907 1012 m -8 X s 907 1027 m -8 X s 907 1043 m -8 X s 907 1059 m -8 X s 915 1074 m -16 X s 915 1074 m -16 X s 907 1090 m -8 X s 907 1105 m -8 X s 1447 685 m 429 Y s 1430 685 m
 17 X s 1438 700 m 9 X s 1438 716 m 9 X s 1438 731 m 9 X s 1438 747 m 9 X s 1430 763 m 17 X s 1438 778 m 9 X s 1438 794 m 9 X s 1438 809 m 9 X s 1438 825 m 9 X s 1430 840 m 17 X s 1438 856 m 9 X s 1438 872 m 9 X s 1438 887 m 9 X s 1438 903 m 9 X s
 1430 918 m 17 X s 1438 934 m 9 X s 1438 950 m 9 X s 1438 965 m 9 X s 1438 981 m 9 X s 1430 996 m 17 X s 1438 1012 m 9 X s 1438 1027 m 9 X s 1438 1043 m 9 X s 1438 1059 m 9 X s 1430 1074 m 17 X s 1430 1074 m 17 X s 1438 1090 m 9 X s 1438 1105 m 9 X s
 gsave  710 567 779 603 C 1474.92 682.347 t 90 r /Helvetica-Bold findfont 19.9602 sf 0 0 m (U/O\255flow \(S,B\): \(0.0, 0.0\)% / \(0.0, 0.0\)%) show NC gr  0.490196 0.545098 0.615686 c 0.364706 0.419608 0.490196 c 335 38 786 1130 bf 0.490196 0.545098
 0.615686 c 786 1130 m 335 X s 1121 1130 m 38 Y s 1121 1168 m -335 X s 786 1168 m -38 Y s 1 1 1 c black 1 1 1 c
 gsave  710 567 779 603 C 790.007 1142.38 t 0 r /Helvetica-Bold findfont 28.5146 sf 0 0 m (Input variable: hh.HP_l1) show NC gr  0.490196 0.545098 0.615686 c 0.941176 0.941176 0.941176 c 711 567 1534 603 bf black 1 1 0.992157 c 547 429 1655 685 bf
 black 547 429 1655 685 bl 0 0 0.933333 c 6 lw 0.49 0.6 0.82 c black 3 lw 0.49 0.6 0.82 c 1655 685 m 376 Y 14 X 14 Y 14 X -122 Y 13 X 5 Y 14 X -9 Y 14 X -81 Y 27 X -133 Y 14 X 117 Y 13 X -38 Y 14 X 34 Y 14 X -12 Y 13 X -49 Y 14 X 28 Y 14 X -12 Y 13 X
 -16 Y 14 X 26 Y 14 X 65 Y 13 X -71 Y 14 X -10 Y 14 X -19 Y 14 X 69 Y 13 X -54 Y 14 X -11 Y 14 X -21 Y 13 X 71 Y 14 X -66 Y 14 X 32 Y 13 X -11 Y 14 X -60 Y 14 X 25 Y 13 X -18 Y 14 X 33 Y 14 X 16 Y 13 X 13 Y 14 X -20 Y 14 X 28 Y 13 X 2 Y 14 X -15 Y 14
 X -98 Y 13 X -8 Y f 6 lw 0 0 0.933333 c 0.49 0.6 0.82 c 0 0 0.933333 c 1655 1061 m 14 X 14 Y 14 X -122 Y 13 X 5 Y 14 X -9 Y 14 X -81 Y 27 X -133 Y 14 X 117 Y 13 X -38 Y 14 X 34 Y 14 X -12 Y 13 X -49 Y 14 X 28 Y 14 X -12 Y 13 X -16 Y 14 X 26 Y 14 X
 65 Y 13 X -71 Y 14 X -10 Y 14 X -19 Y 14 X 69 Y 13 X -54 Y 14 X -11 Y 14 X -21 Y 13 X 71 Y 14 X -66 Y 14 X 32 Y 13 X -11 Y 14 X -60 Y 14 X 25 Y 13 X -18 Y 14 X 33 Y 14 X 16 Y 13 X 13 Y 14 X -20 Y 14 X 28 Y 13 X 2 Y 14 X -15 Y 14 X -98 Y 13 X s black
 3 lw 1655 685 m 547 X s 1691 698 m -13 Y s 1705 691 m -6 Y s 1719 691 m -6 Y s 1734 691 m -6 Y s 1748 691 m -6 Y s 1762 698 m -13 Y s 1776 691 m -6 Y s 1791 691 m -6 Y s 1805 691 m -6 Y s 1819 691 m -6 Y s 1833 698 m -13 Y s 1847 691 m -6 Y s 1862
 691 m -6 Y s 1876 691 m -6 Y s 1890 691 m -6 Y s 1904 698 m -13 Y s 1919 691 m -6 Y s 1933 691 m -6 Y s 1947 691 m -6 Y s 1961 691 m -6 Y s 1976 698 m -13 Y s 1990 691 m -6 Y s 2004 691 m -6 Y s 2018 691 m -6 Y s 2033 691 m -6 Y s 2047 698 m -13 Y s
 2061 691 m -6 Y s 2075 691 m -6 Y s 2090 691 m -6 Y s 2104 691 m -6 Y s 2118 698 m -13 Y s 2132 691 m -6 Y s 2147 691 m -6 Y s 2161 691 m -6 Y s 2175 691 m -6 Y s 2189 698 m -13 Y s 1691 698 m -13 Y s 1677 691 m -6 Y s 1662 691 m -6 Y s 2189 698 m
 -13 Y s
 gsave  711 567 1534 603 C 1679.47 656.444 t 0 r /Helvetica findfont 25.6631 sf 0 0 m (0.1) show NC gr 
 gsave  711 567 1534 603 C 1668.11 656.444 t 0 r /Symbol findfont 25.6631 sf 0 0 m (-) show NC gr 
 gsave  711 567 1534 603 C 1741.99 656.444 t 0 r /Helvetica findfont 25.6631 sf 0 0 m (0.05) show NC gr 
 gsave  711 567 1534 603 C 1730.63 656.444 t 0 r /Symbol findfont 25.6631 sf 0 0 m (-) show NC gr 
 gsave  711 567 1534 603 C 1824.4 656.444 t 0 r /Helvetica findfont 25.6631 sf 0 0 m (0) show NC gr 
 gsave  711 567 1534 603 C 1878.4 656.444 t 0 r /Helvetica findfont 25.6631 sf 0 0 m (0.05) show NC gr 
 gsave  711 567 1534 603 C 1957.97 656.444 t 0 r /Helvetica findfont 25.6631 sf 0 0 m (0.1) show NC gr 
 gsave  711 567 1534 603 C 2020.48 656.444 t 0 r /Helvetica findfont 25.6631 sf 0 0 m (0.15) show NC gr 
 gsave  711 567 1534 603 C 2100.05 656.444 t 0 r /Helvetica findfont 25.6631 sf 0 0 m (0.2) show NC gr 
 gsave  711 567 1534 603 C 2162.57 656.444 t 0 r /Helvetica findfont 25.6631 sf 0 0 m (0.25) show NC gr 
 gsave  711 567 1534 603 C 2088.69 613.818 t 0 r /Helvetica findfont 28.5146 sf 0 0 m (hh.HP_l2) show NC gr  1655 1114 m 547 X s 1691 1100 m 14 Y s 1705 1107 m 7 Y s 1719 1107 m 7 Y s 1734 1107 m 7 Y s 1748 1107 m 7 Y s 1762 1100 m 14 Y s 1776 1107 m
 7 Y s 1791 1107 m 7 Y s 1805 1107 m 7 Y s 1819 1107 m 7 Y s 1833 1100 m 14 Y s 1847 1107 m 7 Y s 1862 1107 m 7 Y s 1876 1107 m 7 Y s 1890 1107 m 7 Y s 1904 1100 m 14 Y s 1919 1107 m 7 Y s 1933 1107 m 7 Y s 1947 1107 m 7 Y s 1961 1107 m 7 Y s 1976
 1100 m 14 Y s 1990 1107 m 7 Y s 2004 1107 m 7 Y s 2018 1107 m 7 Y s 2033 1107 m 7 Y s 2047 1100 m 14 Y s 2061 1107 m 7 Y s 2075 1107 m 7 Y s 2090 1107 m 7 Y s 2104 1107 m 7 Y s 2118 1100 m 14 Y s 2132 1107 m 7 Y s 2147 1107 m 7 Y s 2161 1107 m 7 Y s
 2175 1107 m 7 Y s 2189 1100 m 14 Y s 1691 1100 m 14 Y s 1677 1107 m 7 Y s 1662 1107 m 7 Y s 2189 1100 m 14 Y s 1655 685 m 429 Y s 1671 685 m -16 X s 1663 695 m -8 X s 1663 706 m -8 X s 1663 716 m -8 X s 1663 727 m -8 X s 1671 737 m -16 X s 1663 748
 m -8 X s 1663 758 m -8 X s 1663 769 m -8 X s 1663 780 m -8 X s 1671 790 m -16 X s 1663 801 m -8 X s 1663 811 m -8 X s 1663 822 m -8 X s 1663 832 m -8 X s 1671 843 m -16 X s 1663 853 m -8 X s 1663 864 m -8 X s 1663 875 m -8 X s 1663 885 m -8 X s 1671
 896 m -16 X s 1663 906 m -8 X s 1663 917 m -8 X s 1663 927 m -8 X s 1663 938 m -8 X s 1671 948 m -16 X s 1663 959 m -8 X s 1663 970 m -8 X s 1663 980 m -8 X s 1663 991 m -8 X s 1671 1001 m -16 X s 1663 1012 m -8 X s 1663 1022 m -8 X s 1663 1033 m -8
 X s 1663 1043 m -8 X s 1671 1054 m -16 X s 1663 1064 m -8 X s 1663 1075 m -8 X s 1663 1086 m -8 X s 1663 1096 m -8 X s 1671 1107 m -16 X s 1671 1107 m -16 X s
 gsave  711 567 1534 603 C 1631.16 673.495 t 0 r /Helvetica findfont 25.6631 sf 0 0 m (0) show NC gr 
 gsave  711 567 1534 603 C 1634.01 727.488 t 0 r /Helvetica findfont 25.6631 sf 0 0 m (1) show NC gr 
 gsave  711 567 1534 603 C 1631.16 781.481 t 0 r /Helvetica findfont 25.6631 sf 0 0 m (2) show NC gr 
 gsave  711 567 1534 603 C 1631.16 832.633 t 0 r /Helvetica findfont 25.6631 sf 0 0 m (3) show NC gr 
 gsave  711 567 1534 603 C 1631.16 886.626 t 0 r /Helvetica findfont 25.6631 sf 0 0 m (4) show NC gr 
 gsave  711 567 1534 603 C 1631.16 937.778 t 0 r /Helvetica findfont 25.6631 sf 0 0 m (5) show NC gr 
 gsave  711 567 1534 603 C 1631.16 991.771 t 0 r /Helvetica findfont 25.6631 sf 0 0 m (6) show NC gr 
 gsave  711 567 1534 603 C 1631.16 1042.92 t 0 r /Helvetica findfont 25.6631 sf 0 0 m (7) show NC gr 
 gsave  711 567 1534 603 C 1631.16 1096.92 t 0 r /Helvetica findfont 25.6631 sf 0 0 m (8) show NC gr 
 gsave  711 567 1534 603 C 1557.28 1011.66 t 90 r /Helvetica findfont 28.5146 sf 0 0 m (0.00961 ) show NC gr 
 gsave  711 567 1534 603 C 1543.07 1008.82 t 90 r /Helvetica findfont 19.9602 sf 0 0 m ( ) show NC gr 
 gsave  711 567 1534 603 C 1557.28 997.454 t 90 r /Helvetica findfont 28.5146 sf 0 0 m (/) show NC gr 
 gsave  711 567 1534 603 C 1565.8 994.613 t 90 r /Helvetica findfont 19.9602 sf 0 0 m ( ) show NC gr 
 gsave  711 567 1534 603 C 1557.28 889.468 t 90 r /Helvetica findfont 28.5146 sf 0 0 m (\(1/N\) dN) show NC gr  2202 685 m 429 Y s 2186 685 m 16 X s 2194 695 m 8 X s 2194 706 m 8 X s 2194 716 m 8 X s 2194 727 m 8 X s 2186 737 m 16 X s 2194 748 m 8 X
 s 2194 758 m 8 X s 2194 769 m 8 X s 2194 780 m 8 X s 2186 790 m 16 X s 2194 801 m 8 X s 2194 811 m 8 X s 2194 822 m 8 X s 2194 832 m 8 X s 2186 843 m 16 X s 2194 853 m 8 X s 2194 864 m 8 X s 2194 875 m 8 X s 2194 885 m 8 X s 2186 896 m 16 X s 2194
 906 m 8 X s 2194 917 m 8 X s 2194 927 m 8 X s 2194 938 m 8 X s 2186 948 m 16 X s 2194 959 m 8 X s 2194 970 m 8 X s 2194 980 m 8 X s 2194 991 m 8 X s 2186 1001 m 16 X s 2194 1012 m 8 X s 2194 1022 m 8 X s 2194 1033 m 8 X s 2194 1043 m 8 X s 2186 1054
 m 16 X s 2194 1064 m 8 X s 2194 1075 m 8 X s 2194 1086 m 8 X s 2194 1096 m 8 X s 2186 1107 m 16 X s 2186 1107 m 16 X s 0.490196 0.545098 0.615686 c 0.364706 0.419608 0.490196 c 338 38 1542 1130 bf 0.490196 0.545098 0.615686 c 1542 1130 m 338 X s
 1880 1130 m 38 Y s 1880 1168 m -338 X s 1542 1168 m -38 Y s 1 1 1 c black 1 1 1 c
 gsave  711 567 1534 603 C 1545.91 1142.38 t 0 r /Helvetica-Bold findfont 28.5146 sf 0 0 m (Input variable: hh.HP_l2) show NC gr  1 0 0 c 6 lw black 3 lw 1 0 0 c 2190 686 m -2 -1 d s 2189 700 m -16 -15 d s 2189 715 m -31 -30 d s 2189 731 m -46 -46 d
 s 2189 746 m -61 -61 d s 2189 761 m -76 -76 d s 2189 776 m -91 -91 d s 2189 791 m -106 -106 d s 2189 806 m -121 -121 d s 2178 811 m -125 -126 d s 2165 812 m -127 -127 d s 2161 824 m -138 -139 d s 2149 827 m -1 -1 d s 2144 822 m -24 -24 d s 2114 792
 m -106 -107 d s 2107 800 m -115 -115 d s 2107 815 m -130 -130 d s 2107 830 m -28 -28 d s 2066 789 m -104 -104 d s 2093 831 m -14 -13 d s 2054 792 m -107 -107 d s 2093 847 m -14 -14 d s 2052 805 m -120 -120 d s 2052 820 m -135 -135 d s 2052 836 m -55
 -55 d s 1997 780 m -95 -95 d s 2030 829 m -33 -33 d s 1984 782 m -97 -97 d s 2025 838 m -14 -13 d s 2009 823 m -12 -12 d s 1982 796 m -110 -111 d s 2018 847 m -7 -7 d s 1970 799 m -55 -56 d s 1915 743 m -58 -58 d s 1970 814 m -55 -55 d s 1901 745 m
 -59 -60 d s 1970 829 m -27 -28 d s 1933 792 m -18 -18 d s 1901 760 m -74 -75 d s 1959 833 m -3 -3 d s 1948 822 m -5 -5 d s 1929 803 m -14 -14 d s 1901 775 m -27 -27 d s 1868 742 m -56 -57 d s 1929 818 m -14 -14 d s 1901 790 m -27 -27 d s 1860 749 m
 -64 -64 d s 1929 833 m -14 -14 d s 1901 806 m -27 -28 d s 1860 764 m -79 -79 d s 1929 848 m -14 -13 d s 1901 821 m -13 -14 d s 1882 802 m -8 -9 d s 1860 779 m -13 -13 d s 1844 763 m -78 -78 d s 1929 863 m -14 -13 d s 1901 836 m -13 -14 d s 1860 794
 m -13 -13 d s 1833 767 m -82 -82 d s 1929 879 m -14 -14 d s 1901 851 m -13 -14 d s 1833 782 m -97 -97 d s 1920 885 m -5 -5 d s 1833 797 m -14 -13 d s 1807 771 m -86 -86 d s 1833 813 m -14 -14 d s 1806 785 m -100 -100 d s 1833 828 m -14 -14 d s 1806
 800 m -115 -115 d s 1833 843 m -14 -14 d s 1806 815 m -130 -130 d s 1833 858 m -14 -14 d s 1806 831 m -145 -146 d s 1821 861 m -2 -1 d s 1806 846 m -151 -152 d s 1796 851 m -141 -142 d s 1782 852 m -4 -3 d s 1775 845 m -120 -120 d s 1765 850 m -110
 -110 d s 1758 858 m -103 -103 d s 1739 854 m -15 -15 d s 1711 826 m -56 -56 d s 1737 868 m -13 -14 d s 1708 838 m -53 -53 d s 1737 883 m -13 -14 d s 1696 842 m -41 -42 d s 1737 898 m -13 -13 d s 1696 857 m -27 -28 d s 1658 819 m -3 -3 d s 1737 914 m
 -13 -14 d s 1696 872 m -27 -27 d s 1728 920 m -4 -5 d s 1696 887 m -27 -27 d s 1696 903 m -13 -14 d s 1674 880 m -5 -5 d s 1696 918 m -13 -14 d s 1696 933 m -13 -14 d s 1691 942 m -8 -8 d s 6 lw 1655 819 m 14 X 61 Y 14 X 62 Y 13 X -104 Y 14 X -12 Y
 14 X 94 Y 13 X -66 Y 14 X 4 Y 14 X -13 Y 13 X 7 Y 14 X -1 Y 14 X -80 Y 13 X 90 Y 14 X -98 Y 14 X 31 Y 13 X -52 Y 14 X 60 Y 14 X 49 Y 13 X -108 Y 14 X 142 Y 14 X -93 Y 14 X 30 Y 13 X 11 Y 14 X -37 Y 14 X -16 Y 13 X 43 Y 14 X 24 Y 14 X -18 Y 13 X 7 Y
 14 X -44 Y 14 X -3 Y 13 X 59 Y 14 X -18 Y 14 X -38 Y 13 X 21 Y 14 X 9 Y 14 X 5 Y 13 X -15 Y 14 X -1 Y 14 X -125 Y 13 X s black 3 lw 1655 685 m 547 X s 1691 698 m -13 Y s 1705 691 m -6 Y s 1719 691 m -6 Y s 1734 691 m -6 Y s 1748 691 m -6 Y s 1762
 698 m -13 Y s 1776 691 m -6 Y s 1791 691 m -6 Y s 1805 691 m -6 Y s 1819 691 m -6 Y s 1833 698 m -13 Y s 1847 691 m -6 Y s 1862 691 m -6 Y s 1876 691 m -6 Y s 1890 691 m -6 Y s 1904 698 m -13 Y s 1919 691 m -6 Y s 1933 691 m -6 Y s 1947 691 m -6 Y s
 1961 691 m -6 Y s 1976 698 m -13 Y s 1990 691 m -6 Y s 2004 691 m -6 Y s 2018 691 m -6 Y s 2033 691 m -6 Y s 2047 698 m -13 Y s 2061 691 m -6 Y s 2075 691 m -6 Y s 2090 691 m -6 Y s 2104 691 m -6 Y s 2118 698 m -13 Y s 2132 691 m -6 Y s 2147 691 m
 -6 Y s 2161 691 m -6 Y s 2175 691 m -6 Y s 2189 698 m -13 Y s 1691 698 m -13 Y s 1677 691 m -6 Y s 1662 691 m -6 Y s 2189 698 m -13 Y s 1655 1114 m 547 X s 1691 1100 m 14 Y s 1705 1107 m 7 Y s 1719 1107 m 7 Y s 1734 1107 m 7 Y s 1748 1107 m 7 Y s
 1762 1100 m 14 Y s 1776 1107 m 7 Y s 1791 1107 m 7 Y s 1805 1107 m 7 Y s 1819 1107 m 7 Y s 1833 1100 m 14 Y s 1847 1107 m 7 Y s 1862 1107 m 7 Y s 1876 1107 m 7 Y s 1890 1107 m 7 Y s 1904 1100 m 14 Y s 1919 1107 m 7 Y s 1933 1107 m 7 Y s 1947 1107 m
 7 Y s 1961 1107 m 7 Y s 1976 1100 m 14 Y s 1990 1107 m 7 Y s 2004 1107 m 7 Y s 2018 1107 m 7 Y s 2033 1107 m 7 Y s 2047 1100 m 14 Y s 2061 1107 m 7 Y s 2075 1107 m 7 Y s 2090 1107 m 7 Y s 2104 1107 m 7 Y s 2118 1100 m 14 Y s 2132 1107 m 7 Y s 2147
 1107 m 7 Y s 2161 1107 m 7 Y s 2175 1107 m 7 Y s 2189 1100 m 14 Y s 1691 1100 m 14 Y s 1677 1107 m 7 Y s 1662 1107 m 7 Y s 2189 1100 m 14 Y s 1655 685 m 429 Y s 1671 685 m -16 X s 1663 695 m -8 X s 1663 706 m -8 X s 1663 716 m -8 X s 1663 727 m -8 X
 s 1671 737 m -16 X s 1663 748 m -8 X s 1663 758 m -8 X s 1663 769 m -8 X s 1663 780 m -8 X s 1671 790 m -16 X s 1663 801 m -8 X s 1663 811 m -8 X s 1663 822 m -8 X s 1663 832 m -8 X s 1671 843 m -16 X s 1663 853 m -8 X s 1663 864 m -8 X s 1663 875 m
 -8 X s 1663 885 m -8 X s 1671 896 m -16 X s 1663 906 m -8 X s 1663 917 m -8 X s 1663 927 m -8 X s 1663 938 m -8 X s 1671 948 m -16 X s 1663 959 m -8 X s 1663 970 m -8 X s 1663 980 m -8 X s 1663 991 m -8 X s 1671 1001 m -16 X s 1663 1012 m -8 X s
 1663 1022 m -8 X s 1663 1033 m -8 X s 1663 1043 m -8 X s 1671 1054 m -16 X s 1663 1064 m -8 X s 1663 1075 m -8 X s 1663 1086 m -8 X s 1663 1096 m -8 X s 1671 1107 m -16 X s 1671 1107 m -16 X s 2202 685 m 429 Y s 2186 685 m 16 X s 2194 695 m 8 X s
 2194 706 m 8 X s 2194 716 m 8 X s 2194 727 m 8 X s 2186 737 m 16 X s 2194 748 m 8 X s 2194 758 m 8 X s 2194 769 m 8 X s 2194 780 m 8 X s 2186 790 m 16 X s 2194 801 m 8 X s 2194 811 m 8 X s 2194 822 m 8 X s 2194 832 m 8 X s 2186 843 m 16 X s 2194 853
 m 8 X s 2194 864 m 8 X s 2194 875 m 8 X s 2194 885 m 8 X s 2186 896 m 16 X s 2194 906 m 8 X s 2194 917 m 8 X s 2194 927 m 8 X s 2194 938 m 8 X s 2186 948 m 16 X s 2194 959 m 8 X s 2194 970 m 8 X s 2194 980 m 8 X s 2194 991 m 8 X s 2186 1001 m 16 X s
 2194 1012 m 8 X s 2194 1022 m 8 X s 2194 1033 m 8 X s 2194 1043 m 8 X s 2186 1054 m 16 X s 2194 1064 m 8 X s 2194 1075 m 8 X s 2194 1086 m 8 X s 2194 1096 m 8 X s 2186 1107 m 16 X s 2186 1107 m 16 X s
 gsave  711 567 1534 603 C 2230.83 682.347 t 90 r /Helvetica-Bold findfont 19.9602 sf 0 0 m (U/O\255flow \(S,B\): \(0.0, 0.0\)% / \(0.0, 0.0\)%) show NC gr  0.490196 0.545098 0.615686 c 0.364706 0.419608 0.490196 c 338 38 1542 1130 bf 0.490196
 0.545098 0.615686 c 1542 1130 m 338 X s 1880 1130 m 38 Y s 1880 1168 m -338 X s 1542 1168 m -38 Y s 1 1 1 c black 1 1 1 c
 gsave  711 567 1534 603 C 1545.91 1142.38 t 0 r /Helvetica-Bold findfont 28.5146 sf 0 0 m (Input variable: hh.HP_l2) show NC gr  0.490196 0.545098 0.615686 c 0.941176 0.941176 0.941176 c 710 567 23 12 bf black 1 1 0.992157 c 548 429 143 94 bf black
 548 429 143 94 bl 0 0 0.933333 c 6 lw 0.49 0.6 0.82 c black 3 lw 0.49 0.6 0.82 c 143 94 m 84 Y 14 X -32 Y 14 X 35 Y 14 X -4 Y 13 X -15 Y 14 X -16 Y 14 X 9 Y 13 X 8 Y 14 X -32 Y 14 X 15 Y 13 X 30 Y 14 X 242 Y 14 X -183 Y 13 X 126 Y 14 X -49 Y 14 X 25
 Y 13 X -51 Y 14 X 43 Y 14 X -97 Y 13 X 31 Y 14 X -9 Y 14 X 25 Y 13 X -13 Y 14 X 116 Y 14 X -48 Y 13 X 36 Y 14 X 26 Y 14 X 88 Y 13 X -297 Y 14 X -91 Y 14 X 6 Y 13 X -6 Y 14 X 1 Y 14 X -2 Y 14 X -1 Y 41 X 3 Y 13 X -3 Y 28 X f 6 lw 0 0 0.933333 c 0.49
 0.6 0.82 c 0 0 0.933333 c 143 178 m 14 X -32 Y 14 X 35 Y 14 X -4 Y 13 X -15 Y 14 X -16 Y 14 X 9 Y 13 X 8 Y 14 X -32 Y 14 X 15 Y 13 X 30 Y 14 X 242 Y 14 X -183 Y 13 X 126 Y 14 X -49 Y 14 X 25 Y 13 X -51 Y 14 X 43 Y 14 X -97 Y 13 X 31 Y 14 X -9 Y 14 X
 25 Y 13 X -13 Y 14 X 116 Y 14 X -48 Y 13 X 36 Y 14 X 26 Y 14 X 88 Y 13 X -297 Y 14 X -91 Y 14 X 6 Y 13 X -6 Y 14 X 1 Y 14 X -2 Y 14 X -1 Y 41 X 3 Y 13 X -3 Y 28 X s black 3 lw 143 94 m 548 X s 197 107 m -13 Y s 218 100 m -6 Y s 240 100 m -6 Y s 261
 100 m -6 Y s 282 100 m -6 Y s 304 107 m -13 Y s 325 100 m -6 Y s 346 100 m -6 Y s 368 100 m -6 Y s 389 100 m -6 Y s 411 107 m -13 Y s 432 100 m -6 Y s 453 100 m -6 Y s 475 100 m -6 Y s 496 100 m -6 Y s 517 107 m -13 Y s 539 100 m -6 Y s 560 100 m -6
 Y s 582 100 m -6 Y s 603 100 m -6 Y s 624 107 m -13 Y s 197 107 m -13 Y s 175 100 m -6 Y s 154 100 m -6 Y s 624 107 m -13 Y s 646 100 m -6 Y s 667 100 m -6 Y s 689 100 m -6 Y s
 gsave  710 567 23 12 C 184.714 65.3603 t 0 r /Helvetica findfont 25.6631 sf 0 0 m (0.2) show NC gr 
 gsave  710 567 23 12 C 170.505 65.3603 t 0 r /Symbol findfont 25.6631 sf 0 0 m (-) show NC gr 
 gsave  710 567 23 12 C 289.858 65.3603 t 0 r /Helvetica findfont 25.6631 sf 0 0 m (0.1) show NC gr 
 gsave  710 567 23 12 C 278.492 65.3603 t 0 r /Symbol findfont 25.6631 sf 0 0 m (-) show NC gr 
 gsave  710 567 23 12 C 400.687 65.3603 t 0 r /Helvetica findfont 25.6631 sf 0 0 m (0) show NC gr 
 gsave  710 567 23 12 C 500.148 65.3603 t 0 r /Helvetica findfont 25.6631 sf 0 0 m (0.1) show NC gr 
 gsave  710 567 23 12 C 605.293 65.3603 t 0 r /Helvetica findfont 25.6631 sf 0 0 m (0.2) show NC gr 
 gsave  710 567 23 12 C 576.875 22.734 t 0 r /Helvetica findfont 28.5146 sf 0 0 m (hh.HP_l3) show NC gr  143 523 m 548 X s 197 509 m 14 Y s 218 516 m 7 Y s 240 516 m 7 Y s 261 516 m 7 Y s 282 516 m 7 Y s 304 509 m 14 Y s 325 516 m 7 Y s 346 516 m 7 Y
 s 368 516 m 7 Y s 389 516 m 7 Y s 411 509 m 14 Y s 432 516 m 7 Y s 453 516 m 7 Y s 475 516 m 7 Y s 496 516 m 7 Y s 517 509 m 14 Y s 539 516 m 7 Y s 560 516 m 7 Y s 582 516 m 7 Y s 603 516 m 7 Y s 624 509 m 14 Y s 197 509 m 14 Y s 175 516 m 7 Y s 154
 516 m 7 Y s 624 509 m 14 Y s 646 516 m 7 Y s 667 516 m 7 Y s 689 516 m 7 Y s 143 94 m 429 Y s 160 94 m -17 X s 152 106 m -9 X s 152 118 m -9 X s 152 130 m -9 X s 152 143 m -9 X s 160 155 m -17 X s 152 167 m -9 X s 152 179 m -9 X s 152 192 m -9 X s
 152 204 m -9 X s 160 216 m -17 X s 152 228 m -9 X s 152 241 m -9 X s 152 253 m -9 X s 152 265 m -9 X s 160 278 m -17 X s 152 290 m -9 X s 152 302 m -9 X s 152 314 m -9 X s 152 327 m -9 X s 160 339 m -17 X s 152 351 m -9 X s 152 363 m -9 X s 152 376
 m -9 X s 152 388 m -9 X s 160 400 m -17 X s 152 412 m -9 X s 152 425 m -9 X s 152 437 m -9 X s 152 449 m -9 X s 160 461 m -17 X s 160 461 m -17 X s 152 474 m -9 X s 152 486 m -9 X s 152 498 m -9 X s 152 511 m -9 X s
 gsave  710 567 23 12 C 119.354 82.4108 t 0 r /Helvetica findfont 25.6631 sf 0 0 m (0) show NC gr 
 gsave  710 567 23 12 C 122.195 144.929 t 0 r /Helvetica findfont 25.6631 sf 0 0 m (1) show NC gr 
 gsave  710 567 23 12 C 119.354 207.448 t 0 r /Helvetica findfont 25.6631 sf 0 0 m (2) show NC gr 
 gsave  710 567 23 12 C 119.354 267.125 t 0 r /Helvetica findfont 25.6631 sf 0 0 m (3) show NC gr 
 gsave  710 567 23 12 C 119.354 329.643 t 0 r /Helvetica findfont 25.6631 sf 0 0 m (4) show NC gr 
 gsave  710 567 23 12 C 119.354 389.32 t 0 r /Helvetica findfont 25.6631 sf 0 0 m (5) show NC gr 
 gsave  710 567 23 12 C 119.354 451.838 t 0 r /Helvetica findfont 25.6631 sf 0 0 m (6) show NC gr 
 gsave  710 567 23 12 C 45.468 431.946 t 90 r /Helvetica findfont 28.5146 sf 0 0 m (0.0128 ) show NC gr 
 gsave  710 567 23 12 C 31.2593 429.104 t 90 r /Helvetica findfont 19.9602 sf 0 0 m ( ) show NC gr 
 gsave  710 567 23 12 C 45.468 417.737 t 90 r /Helvetica findfont 28.5146 sf 0 0 m (/) show NC gr 
 gsave  710 567 23 12 C 53.9933 414.896 t 90 r /Helvetica findfont 19.9602 sf 0 0 m ( ) show NC gr 
 gsave  710 567 23 12 C 45.468 309.751 t 90 r /Helvetica findfont 28.5146 sf 0 0 m (\(1/N\) dN) show NC gr  691 94 m 429 Y s 674 94 m 17 X s 683 106 m 8 X s 683 118 m 8 X s 683 130 m 8 X s 683 143 m 8 X s 674 155 m 17 X s 683 167 m 8 X s 683 179 m 8
 X s 683 192 m 8 X s 683 204 m 8 X s 674 216 m 17 X s 683 228 m 8 X s 683 241 m 8 X s 683 253 m 8 X s 683 265 m 8 X s 674 278 m 17 X s 683 290 m 8 X s 683 302 m 8 X s 683 314 m 8 X s 683 327 m 8 X s 674 339 m 17 X s 683 351 m 8 X s 683 363 m 8 X s
 683 376 m 8 X s 683 388 m 8 X s 674 400 m 17 X s 683 412 m 8 X s 683 425 m 8 X s 683 437 m 8 X s 683 449 m 8 X s 674 461 m 17 X s 674 461 m 17 X s 683 474 m 8 X s 683 486 m 8 X s 683 498 m 8 X s 683 511 m 8 X s 0.490196 0.545098 0.615686 c 0.364706
 0.419608 0.490196 c 338 37 30 539 bf 0.490196 0.545098 0.615686 c 30 539 m 338 X s 368 539 m 37 Y s 368 576 m -338 X s 30 576 m -37 Y s 1 1 1 c black 1 1 1 c
 gsave  710 567 23 12 C 34.101 551.299 t 0 r /Helvetica-Bold findfont 28.5146 sf 0 0 m (Input variable: hh.HP_l3) show NC gr  1 0 0 c 6 lw black 3 lw 1 0 0 c 678 95 m -1 -1 d s 677 109 m -15 -15 d s 668 115 m -22 -21 d s 663 126 m -32 -32 d s 663 140
 m -47 -46 d s 650 142 m -49 -48 d s 650 157 m -64 -63 d s 646 169 m -10 -10 d s 625 148 m -3 -3 d s 619 141 m -48 -47 d s 609 146 m -53 -52 d s 606 159 m -65 -65 d s 595 163 m -69 -69 d s 595 178 m -14 -14 d s 573 156 m -62 -62 d s 595 193 m -14 -13
 d s 565 164 m -69 -70 d s 586 199 m -5 -4 d s 554 167 m -73 -73 d s 548 177 m -82 -83 d s 540 184 m -90 -90 d s 540 199 m -105 -105 d s 540 214 m -120 -120 d s 527 216 m -122 -122 d s 526 231 m -136 -137 d s 526 246 m -151 -152 d s 526 261 m -166
 -167 d s 526 276 m -181 -182 d s 520 285 m -190 -191 d s 513 293 m -198 -199 d s 513 308 m -41 -41 d s 463 258 m -163 -164 d s 513 323 m -41 -41 d s 458 268 m -173 -174 d s 513 338 m -41 -41 d s 458 283 m -27 -27 d s 422 247 m -32 -33 d s 381 206 m
 -111 -112 d s 513 354 m -41 -42 d s 458 299 m -27 -28 d s 417 257 m -27 -27 d s 376 216 m -121 -122 d s 511 368 m -26 -27 d s 475 330 m -3 -2 d s 452 308 m -21 -22 d s 417 272 m -14 -13 d s 402 258 m -12 -13 d s 376 231 m -96 -96 d s 275 129 m -8 -8
 d s 260 114 m -7 -7 d s 249 103 m -10 -9 d s 499 370 m -14 -14 d s 444 315 m -13 -14 d s 417 288 m -14 -14 d s 376 246 m -96 -96 d s 239 108 m -15 -14 d s 499 385 m -14 -13 d s 444 330 m -13 -13 d s 417 303 m -14 -14 d s 376 261 m -96 -96 d s 239
 124 m -30 -30 d s 489 390 m -4 -3 d s 413 313 m -10 -9 d s 376 277 m -14 -14 d s 350 251 m -56 -57 d s 290 190 m -10 -10 d s 228 127 m -34 -33 d s 376 292 m -14 -14 d s 349 264 m -55 -55 d s 218 132 m -6 -6 d s 207 121 m -28 -27 d s 376 307 m -14
 -14 d s 336 266 m -42 -42 d s 198 128 m -13 -14 d s 184 113 m -20 -19 d s 369 315 m -7 -7 d s 335 281 m -41 -42 d s 198 143 m -13 -14 d s 171 116 m -22 -22 d s 335 296 m -41 -41 d s 186 146 m -1 -2 d s 171 131 m -28 -28 d s 335 311 m -41 -41 d s 171
 146 m -28 -28 d s 335 326 m -41 -41 d s 171 161 m -14 -14 d s 145 135 m -2 -2 d s 335 342 m -14 -14 d s 319 326 m -25 -26 d s 335 357 m -14 -14 d s 308 329 m -14 -14 d s 329 366 m -8 -8 d s 308 344 m -14 -13 d s 308 360 m -14 -14 d s 297 364 m -3 -3
 d s 6 lw 143 135 m 14 X 27 Y 14 X -49 Y 14 X 33 Y 13 X -25 Y 14 X 11 Y 14 X -5 Y 13 X -24 Y 14 X 11 Y 14 X 15 Y 13 X 61 Y 14 X 174 Y 14 X -38 Y 13 X 40 Y 14 X -100 Y 14 X -15 Y 13 X 64 Y 14 X -109 Y 14 X 52 Y 13 X 55 Y 14 X -66 Y 14 X 83 Y 13 X -22
 Y 14 X -50 Y 14 X 72 Y 13 X 60 Y 14 X -22 Y 14 X -83 Y 13 X -69 Y 14 X -39 Y 14 X -13 Y 13 X -8 Y 14 X 43 Y 14 X -40 Y 14 X -18 Y 13 X 7 Y 14 X 21 Y 14 X -29 Y 13 X -25 Y 14 X -20 Y 14 X s black 3 lw 143 94 m 548 X s 197 107 m -13 Y s 218 100 m -6 Y
 s 240 100 m -6 Y s 261 100 m -6 Y s 282 100 m -6 Y s 304 107 m -13 Y s 325 100 m -6 Y s 346 100 m -6 Y s 368 100 m -6 Y s 389 100 m -6 Y s 411 107 m -13 Y s 432 100 m -6 Y s 453 100 m -6 Y s 475 100 m -6 Y s 496 100 m -6 Y s 517 107 m -13 Y s 539
 100 m -6 Y s 560 100 m -6 Y s 582 100 m -6 Y s 603 100 m -6 Y s 624 107 m -13 Y s 197 107 m -13 Y s 175 100 m -6 Y s 154 100 m -6 Y s 624 107 m -13 Y s 646 100 m -6 Y s 667 100 m -6 Y s 689 100 m -6 Y s 143 523 m 548 X s 197 509 m 14 Y s 218 516 m 7
 Y s 240 516 m 7 Y s 261 516 m 7 Y s 282 516 m 7 Y s 304 509 m 14 Y s 325 516 m 7 Y s 346 516 m 7 Y s 368 516 m 7 Y s 389 516 m 7 Y s 411 509 m 14 Y s 432 516 m 7 Y s 453 516 m 7 Y s 475 516 m 7 Y s 496 516 m 7 Y s 517 509 m 14 Y s 539 516 m 7 Y s
 560 516 m 7 Y s 582 516 m 7 Y s 603 516 m 7 Y s 624 509 m 14 Y s 197 509 m 14 Y s 175 516 m 7 Y s 154 516 m 7 Y s 624 509 m 14 Y s 646 516 m 7 Y s 667 516 m 7 Y s 689 516 m 7 Y s 143 94 m 429 Y s 160 94 m -17 X s 152 106 m -9 X s 152 118 m -9 X s
 152 130 m -9 X s 152 143 m -9 X s 160 155 m -17 X s 152 167 m -9 X s 152 179 m -9 X s 152 192 m -9 X s 152 204 m -9 X s 160 216 m -17 X s 152 228 m -9 X s 152 241 m -9 X s 152 253 m -9 X s 152 265 m -9 X s 160 278 m -17 X s 152 290 m -9 X s 152 302
 m -9 X s 152 314 m -9 X s 152 327 m -9 X s 160 339 m -17 X s 152 351 m -9 X s 152 363 m -9 X s 152 376 m -9 X s 152 388 m -9 X s 160 400 m -17 X s 152 412 m -9 X s 152 425 m -9 X s 152 437 m -9 X s 152 449 m -9 X s 160 461 m -17 X s 160 461 m -17 X
 s 152 474 m -9 X s 152 486 m -9 X s 152 498 m -9 X s 152 511 m -9 X s 691 94 m 429 Y s 674 94 m 17 X s 683 106 m 8 X s 683 118 m 8 X s 683 130 m 8 X s 683 143 m 8 X s 674 155 m 17 X s 683 167 m 8 X s 683 179 m 8 X s 683 192 m 8 X s 683 204 m 8 X s
 674 216 m 17 X s 683 228 m 8 X s 683 241 m 8 X s 683 253 m 8 X s 683 265 m 8 X s 674 278 m 17 X s 683 290 m 8 X s 683 302 m 8 X s 683 314 m 8 X s 683 327 m 8 X s 674 339 m 17 X s 683 351 m 8 X s 683 363 m 8 X s 683 376 m 8 X s 683 388 m 8 X s 674
 400 m 17 X s 683 412 m 8 X s 683 425 m 8 X s 683 437 m 8 X s 683 449 m 8 X s 674 461 m 17 X s 674 461 m 17 X s 683 474 m 8 X s 683 486 m 8 X s 683 498 m 8 X s 683 511 m 8 X s
 gsave  710 567 23 12 C 719.017 91.2634 t 90 r /Helvetica-Bold findfont 19.9602 sf 0 0 m (U/O\255flow \(S,B\): \(0.0, 0.0\)% / \(0.0, 0.0\)%) show NC gr  0.490196 0.545098 0.615686 c 0.364706 0.419608 0.490196 c 338 37 30 539 bf 0.490196 0.545098
 0.615686 c 30 539 m 338 X s 368 539 m 37 Y s 368 576 m -338 X s 30 576 m -37 Y s 1 1 1 c black 1 1 1 c
 gsave  710 567 23 12 C 34.101 551.299 t 0 r /Helvetica-Bold findfont 28.5146 sf 0 0 m (Input variable: hh.HP_l3) show NC gr  0.490196 0.545098 0.615686 c 0.941176 0.941176 0.941176 c 710 567 779 12 bf black 1 1 0.992157 c 548 429 899 94 bf black 548
 429 899 94 bl 0 0 0.933333 c 6 lw 0.49 0.6 0.82 c black 3 lw 0.49 0.6 0.82 c 899 94 m 390 Y 14 X -126 Y 14 X -47 Y 13 X 11 Y 14 X -75 Y 14 X -17 Y 13 X 42 Y 14 X -53 Y 14 X -62 Y 13 X 58 Y 14 X -23 Y 14 X -6 Y 14 X 51 Y 13 X -48 Y 14 X 25 Y 14 X -20
 Y 13 X 45 Y 14 X -35 Y 14 X 35 Y 13 X 45 Y 14 X 16 Y 14 X -29 Y 13 X -156 Y 14 X 13 Y 14 X -10 Y 13 X -4 Y 14 X 3 Y 14 X 1 Y 13 X -1 Y 14 X 5 Y 14 X -3 Y 13 X 9 Y 14 X -7 Y 14 X 19 Y 13 X -23 Y 14 X -7 Y 14 X 6 Y 13 X 12 Y 14 X -4 Y 14 X -26 Y 14 X
 -4 Y f 6 lw 0 0 0.933333 c 0.49 0.6 0.82 c 0 0 0.933333 c 899 484 m 14 X -126 Y 14 X -47 Y 13 X 11 Y 14 X -75 Y 14 X -17 Y 13 X 42 Y 14 X -53 Y 14 X -62 Y 13 X 58 Y 14 X -23 Y 14 X -6 Y 14 X 51 Y 13 X -48 Y 14 X 25 Y 14 X -20 Y 13 X 45 Y 14 X -35 Y
 14 X 35 Y 13 X 45 Y 14 X 16 Y 14 X -29 Y 13 X -156 Y 14 X 13 Y 14 X -10 Y 13 X -4 Y 14 X 3 Y 14 X 1 Y 13 X -1 Y 14 X 5 Y 14 X -3 Y 13 X 9 Y 14 X -7 Y 14 X 19 Y 13 X -23 Y 14 X -7 Y 14 X 6 Y 13 X 12 Y 14 X -4 Y 14 X -26 Y 14 X s black 3 lw 899 94 m
 548 X s 910 107 m -13 Y s 925 100 m -6 Y s 940 100 m -6 Y s 955 100 m -6 Y s 970 100 m -6 Y s 985 107 m -13 Y s 1000 100 m -6 Y s 1015 100 m -6 Y s 1030 100 m -6 Y s 1045 100 m -6 Y s 1060 107 m -13 Y s 1075 100 m -6 Y s 1090 100 m -6 Y s 1104 100 m
 -6 Y s 1119 100 m -6 Y s 1134 107 m -13 Y s 1149 100 m -6 Y s 1164 100 m -6 Y s 1179 100 m -6 Y s 1194 100 m -6 Y s 1209 107 m -13 Y s 1224 100 m -6 Y s 1239 100 m -6 Y s 1254 100 m -6 Y s 1269 100 m -6 Y s 1284 107 m -13 Y s 1299 100 m -6 Y s 1314
 100 m -6 Y s 1329 100 m -6 Y s 1344 100 m -6 Y s 1359 107 m -13 Y s 1374 100 m -6 Y s 1389 100 m -6 Y s 1404 100 m -6 Y s 1419 100 m -6 Y s 1433 107 m -13 Y s 910 107 m -13 Y s 1433 107 m -13 Y s
 gsave  710 567 779 12 C 897.993 65.3603 t 0 r /Helvetica findfont 25.6631 sf 0 0 m (0.1) show NC gr 
 gsave  710 567 779 12 C 886.626 65.3603 t 0 r /Symbol findfont 25.6631 sf 0 0 m (-) show NC gr 
 gsave  710 567 779 12 C 963.353 65.3603 t 0 r /Helvetica findfont 25.6631 sf 0 0 m (0.05) show NC gr 
 gsave  710 567 779 12 C 951.986 65.3603 t 0 r /Symbol findfont 25.6631 sf 0 0 m (-) show NC gr 
 gsave  710 567 779 12 C 1048.61 65.3603 t 0 r /Helvetica findfont 25.6631 sf 0 0 m (0) show NC gr 
 gsave  710 567 779 12 C 1108.28 65.3603 t 0 r /Helvetica findfont 25.6631 sf 0 0 m (0.05) show NC gr 
 gsave  710 567 779 12 C 1190.69 65.3603 t 0 r /Helvetica findfont 25.6631 sf 0 0 m (0.1) show NC gr 
 gsave  710 567 779 12 C 1256.05 65.3603 t 0 r /Helvetica findfont 25.6631 sf 0 0 m (0.15) show NC gr 
 gsave  710 567 779 12 C 1341.31 65.3603 t 0 r /Helvetica findfont 25.6631 sf 0 0 m (0.2) show NC gr 
 gsave  710 567 779 12 C 1406.67 65.3603 t 0 r /Helvetica findfont 25.6631 sf 0 0 m (0.25) show NC gr 
 gsave  710 567 779 12 C 1332.78 22.734 t 0 r /Helvetica findfont 28.5146 sf 0 0 m (hh.HP_l4) show NC gr  899 523 m 548 X s 910 509 m 14 Y s 925 516 m 7 Y s 940 516 m 7 Y s 955 516 m 7 Y s 970 516 m 7 Y s 985 509 m 14 Y s 1000 516 m 7 Y s 1015 516 m
 7 Y s 1030 516 m 7 Y s 1045 516 m 7 Y s 1060 509 m 14 Y s 1075 516 m 7 Y s 1090 516 m 7 Y s 1104 516 m 7 Y s 1119 516 m 7 Y s 1134 509 m 14 Y s 1149 516 m 7 Y s 1164 516 m 7 Y s 1179 516 m 7 Y s 1194 516 m 7 Y s 1209 509 m 14 Y s 1224 516 m 7 Y s
 1239 516 m 7 Y s 1254 516 m 7 Y s 1269 516 m 7 Y s 1284 509 m 14 Y s 1299 516 m 7 Y s 1314 516 m 7 Y s 1329 516 m 7 Y s 1344 516 m 7 Y s 1359 509 m 14 Y s 1374 516 m 7 Y s 1389 516 m 7 Y s 1404 516 m 7 Y s 1419 516 m 7 Y s 1433 509 m 14 Y s 910 509
 m 14 Y s 1433 509 m 14 Y s 899 94 m 429 Y s 915 94 m -16 X s 907 112 m -8 X s 907 130 m -8 X s 907 148 m -8 X s 915 166 m -16 X s 907 184 m -8 X s 907 202 m -8 X s 907 221 m -8 X s 915 239 m -16 X s 907 257 m -8 X s 907 275 m -8 X s 907 293 m -8 X s
 915 311 m -16 X s 907 330 m -8 X s 907 348 m -8 X s 907 366 m -8 X s 915 384 m -16 X s 907 402 m -8 X s 907 420 m -8 X s 907 439 m -8 X s 915 457 m -16 X s 915 457 m -16 X s 907 475 m -8 X s 907 493 m -8 X s 907 511 m -8 X s
 gsave  710 567 779 12 C 875.259 82.4108 t 0 r /Helvetica findfont 25.6631 sf 0 0 m (0) show NC gr 
 gsave  710 567 779 12 C 875.259 156.296 t 0 r /Helvetica findfont 25.6631 sf 0 0 m (2) show NC gr 
 gsave  710 567 779 12 C 875.259 230.182 t 0 r /Helvetica findfont 25.6631 sf 0 0 m (4) show NC gr 
 gsave  710 567 779 12 C 875.259 301.226 t 0 r /Helvetica findfont 25.6631 sf 0 0 m (6) show NC gr 
 gsave  710 567 779 12 C 875.259 375.111 t 0 r /Helvetica findfont 25.6631 sf 0 0 m (8) show NC gr 
 gsave  710 567 779 12 C 861.05 446.155 t 0 r /Helvetica findfont 25.6631 sf 0 0 m (10) show NC gr 
 gsave  710 567 779 12 C 801.374 414.896 t 90 r /Helvetica findfont 28.5146 sf 0 0 m (0.00915 ) show NC gr 
 gsave  710 567 779 12 C 787.165 412.054 t 90 r /Helvetica findfont 19.9602 sf 0 0 m ( ) show NC gr 
 gsave  710 567 779 12 C 801.374 400.687 t 90 r /Helvetica findfont 28.5146 sf 0 0 m (/) show NC gr 
 gsave  710 567 779 12 C 809.899 397.845 t 90 r /Helvetica findfont 19.9602 sf 0 0 m ( ) show NC gr 
 gsave  710 567 779 12 C 801.374 292.7 t 90 r /Helvetica findfont 28.5146 sf 0 0 m (\(1/N\) dN) show NC gr  1447 94 m 429 Y s 1430 94 m 17 X s 1438 112 m 9 X s 1438 130 m 9 X s 1438 148 m 9 X s 1430 166 m 17 X s 1438 184 m 9 X s 1438 202 m 9 X s 1438
 221 m 9 X s 1430 239 m 17 X s 1438 257 m 9 X s 1438 275 m 9 X s 1438 293 m 9 X s 1430 311 m 17 X s 1438 330 m 9 X s 1438 348 m 9 X s 1438 366 m 9 X s 1430 384 m 17 X s 1438 402 m 9 X s 1438 420 m 9 X s 1438 439 m 9 X s 1430 457 m 17 X s 1430 457 m
 17 X s 1438 475 m 9 X s 1438 493 m 9 X s 1438 511 m 9 X s 0.490196 0.545098 0.615686 c 0.364706 0.419608 0.490196 c 338 37 786 539 bf 0.490196 0.545098 0.615686 c 786 539 m 338 X s 1124 539 m 37 Y s 1124 576 m -338 X s 786 576 m -37 Y s 1 1 1 c
 black 1 1 1 c
 gsave  710 567 779 12 C 790.007 551.299 t 0 r /Helvetica-Bold findfont 28.5146 sf 0 0 m (Input variable: hh.HP_l4) show NC gr  1 0 0 c 6 lw black 3 lw 1 0 0 c 1433 94 m -1 X s 1433 109 m -16 -15 d s 1422 113 m -20 -19 d s 1419 126 m -32 -32 d s 1406
 127 m -34 -33 d s 1394 131 m -37 -37 d s 1392 144 m -50 -50 d s 1364 131 m -13 -14 d s 1337 104 m -10 -10 d s 1364 146 m -13 -13 d s 1337 119 m -25 -25 d s 1357 155 m -6 -7 d s 1337 134 m -40 -40 d s 1337 149 m -27 -27 d s 1309 121 m -27 -27 d s
 1330 157 m -7 -6 d s 1314 141 m -4 -4 d s 1296 123 m -29 -29 d s 1282 125 m -30 -31 d s 1282 140 m -45 -46 d s 1282 155 m -13 -14 d s 1265 138 m -44 -44 d s 1269 157 m -1 Y s 1255 143 m -49 -49 d s 1247 150 m -6 -6 d s 1228 130 m -14 -14 d s 1206
 108 m -15 -14 d s 1218 136 m -4 -4 d s 1200 118 m -24 -24 d s 1200 133 m -39 -39 d s 1200 148 m -54 -54 d s 1200 163 m -69 -69 d s 1200 178 m -84 -84 d s 1200 194 m -99 -100 d s 1200 209 m -114 -115 d s 1200 224 m -129 -130 d s 1200 239 m -144 -145
 d s 1187 241 m -14 -14 d s 1170 224 m -11 -11 d s 1151 205 m -110 -111 d s 1187 256 m -14 -14 d s 1146 214 m -28 -27 d s 1113 181 m -87 -87 d s 1179 263 m -6 -6 d s 1146 230 m -14 -14 d s 1127 211 m -9 -9 d s 1105 188 m -95 -94 d s 1146 245 m -14
 -14 d s 1105 204 m -110 -110 d s 1146 260 m -14 -14 d s 1105 219 m -125 -125 d s 1135 265 m -3 -4 d s 1105 234 m -14 -14 d s 1080 209 m -3 -3 d s 1077 206 m -112 -112 d s 1099 243 m -8 -8 d s 1064 208 m -114 -114 d s 1064 223 m -129 -129 d s 1064
 238 m -42 -41 d s 1018 192 m -98 -98 d s 1059 249 m -37 -37 d s 1009 198 m -104 -104 d s 1043 248 m -7 -7 d s 1028 233 m -6 -6 d s 1009 213 m -110 -110 d s 1009 229 m -110 -111 d s 1009 244 m -110 -111 d s 1003 253 m -104 -104 d s 987 252 m -88 -88
 d s 981 262 m -82 -83 d s 980 275 m -81 -81 d s 962 272 m -63 -63 d s 950 276 m -51 -51 d s 940 281 m -41 -41 d s 940 296 m -13 -13 d s 919 274 m -20 -19 d s 933 304 m -6 -6 d s 909 280 m -10 -10 d s 6 lw 899 280 m 14 X -6 Y 14 X 30 Y 13 X -28 Y 14
 X -4 Y 14 X 3 Y 13 X -23 Y 14 X 1 Y 14 X -61 Y 13 X 41 Y 14 X 15 Y 14 X 1 Y 14 X -43 Y 13 X 3 Y 14 X 34 Y 14 X -62 Y 13 X 30 Y 14 X 54 Y 14 X -60 Y 13 X 19 Y 14 X 39 Y 14 X -24 Y 13 X -131 Y 14 X 28 Y 14 X -7 Y 13 X 21 Y 14 X -12 Y 14 X 19 Y 13 X
 -33 Y 14 X -3 Y 14 X 20 Y 13 X 16 Y 14 X -54 Y 14 X 52 Y 13 X -25 Y 14 X 15 Y 14 X -14 Y 13 X -4 Y 14 X -14 Y 14 X -19 Y 14 X s black 3 lw 899 94 m 548 X s 910 107 m -13 Y s 925 100 m -6 Y s 940 100 m -6 Y s 955 100 m -6 Y s 970 100 m -6 Y s 985 107
 m -13 Y s 1000 100 m -6 Y s 1015 100 m -6 Y s 1030 100 m -6 Y s 1045 100 m -6 Y s 1060 107 m -13 Y s 1075 100 m -6 Y s 1090 100 m -6 Y s 1104 100 m -6 Y s 1119 100 m -6 Y s 1134 107 m -13 Y s 1149 100 m -6 Y s 1164 100 m -6 Y s 1179 100 m -6 Y s
 1194 100 m -6 Y s 1209 107 m -13 Y s 1224 100 m -6 Y s 1239 100 m -6 Y s 1254 100 m -6 Y s 1269 100 m -6 Y s 1284 107 m -13 Y s 1299 100 m -6 Y s 1314 100 m -6 Y s 1329 100 m -6 Y s 1344 100 m -6 Y s 1359 107 m -13 Y s 1374 100 m -6 Y s 1389 100 m
 -6 Y s 1404 100 m -6 Y s 1419 100 m -6 Y s 1433 107 m -13 Y s 910 107 m -13 Y s 1433 107 m -13 Y s 899 523 m 548 X s 910 509 m 14 Y s 925 516 m 7 Y s 940 516 m 7 Y s 955 516 m 7 Y s 970 516 m 7 Y s 985 509 m 14 Y s 1000 516 m 7 Y s 1015 516 m 7 Y s
 1030 516 m 7 Y s 1045 516 m 7 Y s 1060 509 m 14 Y s 1075 516 m 7 Y s 1090 516 m 7 Y s 1104 516 m 7 Y s 1119 516 m 7 Y s 1134 509 m 14 Y s 1149 516 m 7 Y s 1164 516 m 7 Y s 1179 516 m 7 Y s 1194 516 m 7 Y s 1209 509 m 14 Y s 1224 516 m 7 Y s 1239 516
 m 7 Y s 1254 516 m 7 Y s 1269 516 m 7 Y s 1284 509 m 14 Y s 1299 516 m 7 Y s 1314 516 m 7 Y s 1329 516 m 7 Y s 1344 516 m 7 Y s 1359 509 m 14 Y s 1374 516 m 7 Y s 1389 516 m 7 Y s 1404 516 m 7 Y s 1419 516 m 7 Y s 1433 509 m 14 Y s 910 509 m 14 Y s
 1433 509 m 14 Y s 899 94 m 429 Y s 915 94 m -16 X s 907 112 m -8 X s 907 130 m -8 X s 907 148 m -8 X s 915 166 m -16 X s 907 184 m -8 X s 907 202 m -8 X s 907 221 m -8 X s 915 239 m -16 X s 907 257 m -8 X s 907 275 m -8 X s 907 293 m -8 X s 915 311
 m -16 X s 907 330 m -8 X s 907 348 m -8 X s 907 366 m -8 X s 915 384 m -16 X s 907 402 m -8 X s 907 420 m -8 X s 907 439 m -8 X s 915 457 m -16 X s 915 457 m -16 X s 907 475 m -8 X s 907 493 m -8 X s 907 511 m -8 X s 1447 94 m 429 Y s 1430 94 m 17 X
 s 1438 112 m 9 X s 1438 130 m 9 X s 1438 148 m 9 X s 1430 166 m 17 X s 1438 184 m 9 X s 1438 202 m 9 X s 1438 221 m 9 X s 1430 239 m 17 X s 1438 257 m 9 X s 1438 275 m 9 X s 1438 293 m 9 X s 1430 311 m 17 X s 1438 330 m 9 X s 1438 348 m 9 X s 1438
 366 m 9 X s 1430 384 m 17 X s 1438 402 m 9 X s 1438 420 m 9 X s 1438 439 m 9 X s 1430 457 m 17 X s 1430 457 m 17 X s 1438 475 m 9 X s 1438 493 m 9 X s 1438 511 m 9 X s
 gsave  710 567 779 12 C 1474.92 91.2634 t 90 r /Helvetica-Bold findfont 19.9602 sf 0 0 m (U/O\255flow \(S,B\): \(0.0, 0.0\)% / \(0.0, 0.0\)%) show NC gr  0.490196 0.545098 0.615686 c 0.364706 0.419608 0.490196 c 338 37 786 539 bf 0.490196 0.545098
 0.615686 c 786 539 m 338 X s 1124 539 m 37 Y s 1124 576 m -338 X s 786 576 m -37 Y s 1 1 1 c black 1 1 1 c
 gsave  710 567 779 12 C 790.007 551.299 t 0 r /Helvetica-Bold findfont 28.5146 sf 0 0 m (Input variable: hh.HP_l4) show NC gr  0.490196 0.545098 0.615686 c 0.941176 0.941176 0.941176 c 711 567 1534 12 bf black 1 1 0.992157 c 547 429 1655 94 bf black
 547 429 1655 94 bl 0 0 0.933333 c 6 lw 0.49 0.6 0.82 c black 3 lw 0.49 0.6 0.82 c 1655 94 m 34 Y 14 X 7 Y 14 X -21 Y 13 X -4 Y 14 X 8 Y 14 X 24 Y 13 X -17 Y 14 X 3 Y 14 X -7 Y 13 X 10 Y 14 X -21 Y 14 X 67 Y 13 X 145 Y 14 X 143 Y 14 X 19 Y 13 X -171
 Y 14 X -26 Y 14 X -41 Y 13 X 11 Y 14 X 4 Y 14 X 17 Y 27 X 44 Y 14 X -106 Y 14 X 149 Y 13 X 117 Y 14 X -126 Y 14 X -11 Y 13 X -251 Y 96 X 2 Y 14 X -2 Y 54 X f 6 lw 0 0 0.933333 c 0.49 0.6 0.82 c 0 0 0.933333 c 1655 128 m 14 X 7 Y 14 X -21 Y 13 X -4 Y
 14 X 8 Y 14 X 24 Y 13 X -17 Y 14 X 3 Y 14 X -7 Y 13 X 10 Y 14 X -21 Y 14 X 67 Y 13 X 145 Y 14 X 143 Y 14 X 19 Y 13 X -171 Y 14 X -26 Y 14 X -41 Y 13 X 11 Y 14 X 4 Y 14 X 17 Y 27 X 44 Y 14 X -106 Y 14 X 149 Y 13 X 117 Y 14 X -126 Y 14 X -11 Y 13 X
 -251 Y 96 X 2 Y 14 X -2 Y 54 X s black 3 lw 1655 94 m 547 X s 1709 107 m -13 Y s 1730 100 m -6 Y s 1751 100 m -6 Y s 1773 100 m -6 Y s 1794 100 m -6 Y s 1816 107 m -13 Y s 1837 100 m -6 Y s 1858 100 m -6 Y s 1880 100 m -6 Y s 1901 100 m -6 Y s 1923
 107 m -13 Y s 1944 100 m -6 Y s 1966 100 m -6 Y s 1987 100 m -6 Y s 2008 100 m -6 Y s 2030 107 m -13 Y s 2051 100 m -6 Y s 2073 100 m -6 Y s 2094 100 m -6 Y s 2116 100 m -6 Y s 2137 107 m -13 Y s 1709 107 m -13 Y s 1687 100 m -6 Y s 1666 100 m -6 Y
 s 2137 107 m -13 Y s 2158 100 m -6 Y s 2180 100 m -6 Y s 2201 100 m -6 Y s
 gsave  711 567 1534 12 C 1696.52 65.3603 t 0 r /Helvetica findfont 25.6631 sf 0 0 m (0.2) show NC gr 
 gsave  711 567 1534 12 C 1682.32 65.3603 t 0 r /Symbol findfont 25.6631 sf 0 0 m (-) show NC gr 
 gsave  711 567 1534 12 C 1801.67 65.3603 t 0 r /Helvetica findfont 25.6631 sf 0 0 m (0.1) show NC gr 
 gsave  711 567 1534 12 C 1790.3 65.3603 t 0 r /Symbol findfont 25.6631 sf 0 0 m (-) show NC gr 
 gsave  711 567 1534 12 C 1912.5 65.3603 t 0 r /Helvetica findfont 25.6631 sf 0 0 m (0) show NC gr 
 gsave  711 567 1534 12 C 2011.96 65.3603 t 0 r /Helvetica findfont 25.6631 sf 0 0 m (0.1) show NC gr 
 gsave  711 567 1534 12 C 2117.1 65.3603 t 0 r /Helvetica findfont 25.6631 sf 0 0 m (0.2) show NC gr 
 gsave  711 567 1534 12 C 2088.69 22.734 t 0 r /Helvetica findfont 28.5146 sf 0 0 m (hh.HP_l5) show NC gr  1655 523 m 547 X s 1709 509 m 14 Y s 1730 516 m 7 Y s 1751 516 m 7 Y s 1773 516 m 7 Y s 1794 516 m 7 Y s 1816 509 m 14 Y s 1837 516 m 7 Y s
 1858 516 m 7 Y s 1880 516 m 7 Y s 1901 516 m 7 Y s 1923 509 m 14 Y s 1944 516 m 7 Y s 1966 516 m 7 Y s 1987 516 m 7 Y s 2008 516 m 7 Y s 2030 509 m 14 Y s 2051 516 m 7 Y s 2073 516 m 7 Y s 2094 516 m 7 Y s 2116 516 m 7 Y s 2137 509 m 14 Y s 1709 509
 m 14 Y s 1687 516 m 7 Y s 1666 516 m 7 Y s 2137 509 m 14 Y s 2158 516 m 7 Y s 2180 516 m 7 Y s 2201 516 m 7 Y s 1655 94 m 429 Y s 1671 94 m -16 X s 1663 104 m -8 X s 1663 115 m -8 X s 1663 126 m -8 X s 1663 136 m -8 X s 1671 147 m -16 X s 1663 158 m
 -8 X s 1663 169 m -8 X s 1663 179 m -8 X s 1663 190 m -8 X s 1671 201 m -16 X s 1663 211 m -8 X s 1663 222 m -8 X s 1663 233 m -8 X s 1663 244 m -8 X s 1671 254 m -16 X s 1663 265 m -8 X s 1663 276 m -8 X s 1663 287 m -8 X s 1663 297 m -8 X s 1671
 308 m -16 X s 1663 319 m -8 X s 1663 329 m -8 X s 1663 340 m -8 X s 1663 351 m -8 X s 1671 362 m -16 X s 1663 372 m -8 X s 1663 383 m -8 X s 1663 394 m -8 X s 1663 404 m -8 X s 1671 415 m -16 X s 1663 426 m -8 X s 1663 437 m -8 X s 1663 447 m -8 X s
 1663 458 m -8 X s 1671 469 m -16 X s 1663 480 m -8 X s 1663 490 m -8 X s 1663 501 m -8 X s 1663 512 m -8 X s 1671 522 m -16 X s 1671 522 m -16 X s
 gsave  711 567 1534 12 C 1631.16 82.4108 t 0 r /Helvetica findfont 25.6631 sf 0 0 m (0) show NC gr 
 gsave  711 567 1534 12 C 1634.01 136.404 t 0 r /Helvetica findfont 25.6631 sf 0 0 m (1) show NC gr 
 gsave  711 567 1534 12 C 1631.16 190.397 t 0 r /Helvetica findfont 25.6631 sf 0 0 m (2) show NC gr 
 gsave  711 567 1534 12 C 1631.16 244.391 t 0 r /Helvetica findfont 25.6631 sf 0 0 m (3) show NC gr 
 gsave  711 567 1534 12 C 1631.16 298.384 t 0 r /Helvetica findfont 25.6631 sf 0 0 m (4) show NC gr 
 gsave  711 567 1534 12 C 1631.16 352.377 t 0 r /Helvetica findfont 25.6631 sf 0 0 m (5) show NC gr 
 gsave  711 567 1534 12 C 1631.16 406.37 t 0 r /Helvetica findfont 25.6631 sf 0 0 m (6) show NC gr 
 gsave  711 567 1534 12 C 1631.16 457.522 t 0 r /Helvetica findfont 25.6631 sf 0 0 m (7) show NC gr 
 gsave  711 567 1534 12 C 1631.16 511.515 t 0 r /Helvetica findfont 25.6631 sf 0 0 m (8) show NC gr 
 gsave  711 567 1534 12 C 1557.28 431.946 t 90 r /Helvetica findfont 28.5146 sf 0 0 m (0.0128 ) show NC gr 
 gsave  711 567 1534 12 C 1543.07 429.104 t 90 r /Helvetica findfont 19.9602 sf 0 0 m ( ) show NC gr 
 gsave  711 567 1534 12 C 1557.28 417.737 t 90 r /Helvetica findfont 28.5146 sf 0 0 m (/) show NC gr 
 gsave  711 567 1534 12 C 1565.8 414.896 t 90 r /Helvetica findfont 19.9602 sf 0 0 m ( ) show NC gr 
 gsave  711 567 1534 12 C 1557.28 309.751 t 90 r /Helvetica findfont 28.5146 sf 0 0 m (\(1/N\) dN) show NC gr  2202 94 m 429 Y s 2186 94 m 16 X s 2194 104 m 8 X s 2194 115 m 8 X s 2194 126 m 8 X s 2194 136 m 8 X s 2186 147 m 16 X s 2194 158 m 8 X s
 2194 169 m 8 X s 2194 179 m 8 X s 2194 190 m 8 X s 2186 201 m 16 X s 2194 211 m 8 X s 2194 222 m 8 X s 2194 233 m 8 X s 2194 244 m 8 X s 2186 254 m 16 X s 2194 265 m 8 X s 2194 276 m 8 X s 2194 287 m 8 X s 2194 297 m 8 X s 2186 308 m 16 X s 2194 319
 m 8 X s 2194 329 m 8 X s 2194 340 m 8 X s 2194 351 m 8 X s 2186 362 m 16 X s 2194 372 m 8 X s 2194 383 m 8 X s 2194 394 m 8 X s 2194 404 m 8 X s 2186 415 m 16 X s 2194 426 m 8 X s 2194 437 m 8 X s 2194 447 m 8 X s 2194 458 m 8 X s 2186 469 m 16 X s
 2194 480 m 8 X s 2194 490 m 8 X s 2194 501 m 8 X s 2194 512 m 8 X s 2186 522 m 16 X s 2186 522 m 16 X s 0.490196 0.545098 0.615686 c 0.364706 0.419608 0.490196 c 338 37 1542 539 bf 0.490196 0.545098 0.615686 c 1542 539 m 338 X s 1880 539 m 37 Y s
 1880 576 m -338 X s 1542 576 m -37 Y s 1 1 1 c black 1 1 1 c
 gsave  711 567 1534 12 C 1545.91 551.299 t 0 r /Helvetica-Bold findfont 28.5146 sf 0 0 m (Input variable: hh.HP_l5) show NC gr  1 0 0 c 6 lw black 3 lw 1 0 0 c 2190 95 m -2 -1 d s 2178 99 m -5 -5 d s 2172 108 m -14 -14 d s 2150 100 m -7 -6 d s 2148
 113 m -20 -19 d s 2148 128 m -35 -34 d s 2138 134 m -4 -4 d s 2130 126 m -32 -32 d s 2119 130 m -12 -13 d s 2097 108 m -14 -14 d s 2093 119 m -25 -25 d s 2088 129 m -35 -35 d s 2079 135 m -41 -41 d s 2059 130 m -7 -7 d s 2045 116 m -22 -22 d s 2038
 125 m -30 -31 d s 2038 140 m -46 -46 d s 2038 155 m -61 -61 d s 2038 170 m -76 -76 d s 2038 185 m -91 -91 d s 2038 200 m -106 -106 d s 2025 202 m -108 -108 d s 2025 217 m -123 -123 d s 2025 232 m -138 -138 d s 2019 241 m -147 -147 d s 2011 249 m
 -154 -155 d s 2011 264 m -169 -170 d s 2011 279 m -184 -185 d s 2011 294 m -14 -13 d s 1993 276 m -181 -182 d s 2011 310 m -14 -14 d s 1984 282 m -188 -188 d s 2011 325 m -14 -14 d s 1982 296 m -176 -178 d s 1798 111 m -6 -7 d s 1785 97 m -4 -3 d s
 2011 340 m -14 -14 d s 1970 299 m -164 -166 d s 1778 106 m -12 -12 d s 2011 355 m -14 -14 d s 1964 308 m -158 -160 d s 1774 117 m -23 -23 d s 2011 370 m -14 -14 d s 1933 292 m -18 -18 d s 1914 272 m -108 -108 d s 1764 122 m -13 -14 d s 1740 98 m -4
 -4 d s 2011 385 m -14 -13 d s 1929 303 m -14 -14 d s 1901 275 m -95 -96 d s 1737 110 m -16 -16 d s 2011 401 m -14 -14 d s 1929 318 m -14 -14 d s 1901 290 m -95 -96 d s 1724 112 m -1 Y s 1717 105 m -11 -11 d s 2011 416 m -14 -14 d s 1917 321 m -2 -2
 d s 1901 306 m -13 -14 d s 1883 287 m -64 -64 d s 1811 215 m -5 -6 d s 1710 113 m -19 -19 d s 2003 423 m -6 -6 d s 1901 321 m -13 -14 d s 1874 293 m -55 -55 d s 1704 122 m -28 -28 d s 1874 308 m -55 -55 d s 1685 117 m -24 -23 d s 1874 324 m -41 -42
 d s 1820 269 m -1 -1 d s 1674 122 m -5 -5 d s 1662 110 m -7 -7 d s 1874 339 m -41 -42 d s 1874 354 m -41 -41 d s 1874 369 m -41 -41 d s 1874 384 m -41 -41 d s 1874 399 m -41 -41 d s 1860 401 m -27 -28 d s 1860 416 m -13 -14 d s 1845 401 m -12 -12 d
 s 1860 431 m -13 -14 d s 1860 446 m -13 -13 d s 1860 462 m -13 -14 d s 1857 474 m -10 -11 d s 6 lw 1655 110 m 14 X 12 Y 14 X -5 Y 13 X 5 Y 14 X -17 Y 14 X 7 Y 13 X -14 Y 14 X 24 Y 14 X -5 Y 13 X -20 Y 14 X 14 Y 14 X 104 Y 13 X 54 Y 14 X 132 Y 14 X
 73 Y 13 X -74 Y 14 X -113 Y 14 X 34 Y 13 X -49 Y 14 X 49 Y 14 X -29 Y 14 X 9 Y 13 X 7 Y 14 X -12 Y 14 X -20 Y 13 X 147 Y 14 X -182 Y 14 X -39 Y 13 X -86 Y 14 X 14 Y 14 X 5 Y 13 X -6 Y 14 X -21 Y 14 X 22 Y 13 X -4 Y 14 X 8 Y 14 X -34 Y 13 X 8 Y 14 X
 -9 Y 14 X -4 Y 13 X s black 3 lw 1655 94 m 547 X s 1709 107 m -13 Y s 1730 100 m -6 Y s 1751 100 m -6 Y s 1773 100 m -6 Y s 1794 100 m -6 Y s 1816 107 m -13 Y s 1837 100 m -6 Y s 1858 100 m -6 Y s 1880 100 m -6 Y s 1901 100 m -6 Y s 1923 107 m -13 Y
 s 1944 100 m -6 Y s 1966 100 m -6 Y s 1987 100 m -6 Y s 2008 100 m -6 Y s 2030 107 m -13 Y s 2051 100 m -6 Y s 2073 100 m -6 Y s 2094 100 m -6 Y s 2116 100 m -6 Y s 2137 107 m -13 Y s 1709 107 m -13 Y s 1687 100 m -6 Y s 1666 100 m -6 Y s 2137 107 m
 -13 Y s 2158 100 m -6 Y s 2180 100 m -6 Y s 2201 100 m -6 Y s 1655 523 m 547 X s 1709 509 m 14 Y s 1730 516 m 7 Y s 1751 516 m 7 Y s 1773 516 m 7 Y s 1794 516 m 7 Y s 1816 509 m 14 Y s 1837 516 m 7 Y s 1858 516 m 7 Y s 1880 516 m 7 Y s 1901 516 m 7
 Y s 1923 509 m 14 Y s 1944 516 m 7 Y s 1966 516 m 7 Y s 1987 516 m 7 Y s 2008 516 m 7 Y s 2030 509 m 14 Y s 2051 516 m 7 Y s 2073 516 m 7 Y s 2094 516 m 7 Y s 2116 516 m 7 Y s 2137 509 m 14 Y s 1709 509 m 14 Y s 1687 516 m 7 Y s 1666 516 m 7 Y s
 2137 509 m 14 Y s 2158 516 m 7 Y s 2180 516 m 7 Y s 2201 516 m 7 Y s 1655 94 m 429 Y s 1671 94 m -16 X s 1663 104 m -8 X s 1663 115 m -8 X s 1663 126 m -8 X s 1663 136 m -8 X s 1671 147 m -16 X s 1663 158 m -8 X s 1663 169 m -8 X s 1663 179 m -8 X s
 1663 190 m -8 X s 1671 201 m -16 X s 1663 211 m -8 X s 1663 222 m -8 X s 1663 233 m -8 X s 1663 244 m -8 X s 1671 254 m -16 X s 1663 265 m -8 X s 1663 276 m -8 X s 1663 287 m -8 X s 1663 297 m -8 X s 1671 308 m -16 X s 1663 319 m -8 X s 1663 329 m
 -8 X s 1663 340 m -8 X s 1663 351 m -8 X s 1671 362 m -16 X s 1663 372 m -8 X s 1663 383 m -8 X s 1663 394 m -8 X s 1663 404 m -8 X s 1671 415 m -16 X s 1663 426 m -8 X s 1663 437 m -8 X s 1663 447 m -8 X s 1663 458 m -8 X s 1671 469 m -16 X s 1663
 480 m -8 X s 1663 490 m -8 X s 1663 501 m -8 X s 1663 512 m -8 X s 1671 522 m -16 X s 1671 522 m -16 X s 2202 94 m 429 Y s 2186 94 m 16 X s 2194 104 m 8 X s 2194 115 m 8 X s 2194 126 m 8 X s 2194 136 m 8 X s 2186 147 m 16 X s 2194 158 m 8 X s 2194
 169 m 8 X s 2194 179 m 8 X s 2194 190 m 8 X s 2186 201 m 16 X s 2194 211 m 8 X s 2194 222 m 8 X s 2194 233 m 8 X s 2194 244 m 8 X s 2186 254 m 16 X s 2194 265 m 8 X s 2194 276 m 8 X s 2194 287 m 8 X s 2194 297 m 8 X s 2186 308 m 16 X s 2194 319 m 8
 X s 2194 329 m 8 X s 2194 340 m 8 X s 2194 351 m 8 X s 2186 362 m 16 X s 2194 372 m 8 X s 2194 383 m 8 X s 2194 394 m 8 X s 2194 404 m 8 X s 2186 415 m 16 X s 2194 426 m 8 X s 2194 437 m 8 X s 2194 447 m 8 X s 2194 458 m 8 X s 2186 469 m 16 X s 2194
 480 m 8 X s 2194 490 m 8 X s 2194 501 m 8 X s 2194 512 m 8 X s 2186 522 m 16 X s 2186 522 m 16 X s
 gsave  711 567 1534 12 C 2230.83 91.2634 t 90 r /Helvetica-Bold findfont 19.9602 sf 0 0 m (U/O\255flow \(S,B\): \(0.0, 0.0\)% / \(0.0, 0.0\)%) show NC gr  0.490196 0.545098 0.615686 c 0.364706 0.419608 0.490196 c 338 37 1542 539 bf 0.490196 0.545098
 0.615686 c 1542 539 m 338 X s 1880 539 m 37 Y s 1880 576 m -338 X s 1542 576 m -37 Y s 1 1 1 c black 1 1 1 c
 gsave  711 567 1534 12 C 1545.91 551.299 t 0 r /Helvetica-Bold findfont 28.5146 sf 0 0 m (Input variable: hh.HP_l5) show NC gr 
 gr  gr showpage
end
%%EOF
