%!PS-Adobe-2.0 EPSF-2.0
%%BoundingBox:  0 0 567 296
%%Title: dataset/plots/variables_id_c3.eps: Input variables (training sample)
%%Creator: ROOT Version 6.18/00
%%CreationDate: Fri Sep 13 20:54:16 2019
%%DocumentNeededResources: ProcSet (FontSetInit)
%%EndComments
%%BeginProlog
80 dict begin
/s {stroke} def /l {lineto} def /m {moveto} def /t {translate} def
/r {rotate} def /rl {roll}  def /R {repeat} def
/d {rlineto} def /rm {rmoveto} def /gr {grestore} def /f {eofill} def
/c {setrgbcolor} def /black {0 setgray} def /sd {setdash} def
/cl {closepath} def /sf {scalefont setfont} def /lw {setlinewidth} def
/box {m dup 0 exch d exch 0 d 0 exch neg d cl} def
/NC{systemdict begin initclip end}def/C{NC box clip newpath}def
/bl {box s} def /bf {gsave box gsave f grestore 1 lw [] 0 sd s grestore} def /Y { 0 exch d} def /X { 0 d} def 
/K {{pop pop 0 moveto} exch kshow} bind def
/ita {/ang 15 def gsave [1 0 ang dup sin exch cos div 1 0 0] concat} def 
/mp {newpath /y exch def /x exch def} def
/side {[w .77 mul w .23 mul] .385 w mul sd w 0 l currentpoint t -144 r} def
/mr {mp x y w2 0 360 arc} def /m24 {mr s} def /m20 {mr f} def
/mb {mp x y w2 add m w2 neg 0 d 0 w neg d w 0 d 0 w d cl} def
/mt {mp x y w2 add m w2 neg w neg d w 0 d cl} def
/w4 {w 4 div} def
/w6 {w 6 div} def
/w8 {w 8 div} def
/m21 {mb f} def /m25 {mb s} def /m22 {mt f} def /m26{mt s} def
/m23 {mp x y w2 sub m w2 w d w neg 0 d cl f} def
/m27 {mp x y w2 add m w3 neg w2 neg d w3 w2 neg d w3 w2 d cl s} def
/m28 {mp x w2 sub y w2 sub w3 add m w3 0 d  0 w3 neg d w3 0 d 0 w3 d w3 0 d  0 w3 d w3 neg 0 d 0 w3 d w3 neg 0 d 0 w3 neg d w3 neg 0 d cl s } def
/m29 {mp gsave x w2 sub y w2 add w3 sub m currentpoint t 4 {side} repeat cl fill gr} def
/m30 {mp gsave x w2 sub y w2 add w3 sub m currentpoint t 4 {side} repeat cl s gr} def
/m31 {mp x y w2 sub m 0 w d x w2 sub y m w 0 d x w2 sub y w2 add m w w neg d x w2 sub y w2 sub m w w d s} def
/m32 {mp x y w2 sub m w2 w d w neg 0 d cl s} def
/m33 {mp x y w2 add m w3 neg w2 neg d w3 w2 neg d w3 w2 d cl f} def
/m34 {mp x w2 sub y w2 sub w3 add m w3 0 d  0 w3 neg d w3 0 d 0 w3 d w3 0 d  0 w3 d w3 neg 0 d 0 w3 d w3 neg 0 d 0 w3 neg d w3 neg 0 d cl f } def
/m35 {mp x y w2 add m w2 neg w2 neg d w2 w2 neg d w2 w2 d w2 neg w2 d x y w2 sub m 0 w d x w2 sub y m w 0 d s} def
/m36 {mb x w2 sub y w2 add m w w neg d x w2 sub y w2 sub m w w d s} def
/m37 {mp x y m w4 neg w2 d w4 neg w2 neg d w2 0 d  w4 neg w2 neg d w2 0 d w4 neg w2 d w2 0 d w4 neg w2 d w4 neg w2 neg d cl s} def
/m38 {mp x w4 sub y w2 add m w4 neg w4 neg d 0 w2 neg d w4 w4 neg d w2 0 d w4 w4 d 0 w2 d w4 neg w4 d w2 neg 0 d x y w2 sub m 0 w d x w2 sub y m w 0 d cl s} def
/m39 {mp x y m w4 neg w2 d w4 neg w2 neg d w2 0 d  w4 neg w2 neg d w2 0 d w4 neg w2 d w2 0 d w4 neg w2 d w4 neg w2 neg d cl f} def
/m40 {mp x y m w4 w2 d w4 w4 neg d w2 neg w4 neg d w2 w4 neg d w4 neg w4 neg d w4 neg w2 d w4 neg w2 neg d w4 neg w4 d w2 w4 d w2 neg w4 d w4 w4 d w4 w2 neg d cl s} def
/m41 {mp x y m w4 w2 d w4 w4 neg d w2 neg w4 neg d w2 w4 neg d w4 neg w4 neg d w4 neg w2 d w4 neg w2 neg d w4 neg w4 d w2 w4 d w2 neg w4 d w4 w4 d w4 w2 neg d cl f} def
/m42 {mp x y w2 add m w8 neg w2 -3 4 div mul d w2 -3 4 div mul w8 neg d w2 3 4 div mul w8 neg d w8 w2 -3 4 div mul d w8 w2 3 4 div mul d w2 3 4 div mul w8 d w2 -3 4 div mul w8 d w8 neg w2 3 4 div mul d cl s} def
/m43 {mp x y w2 add m w8 neg w2 -3 4 div mul d w2 -3 4 div mul w8 neg d w2 3 4 div mul w8 neg d w8 w2 -3 4 div mul d w8 w2 3 4 div mul d w2 3 4 div mul w8 d w2 -3 4 div mul w8 d w8 neg w2 3 4 div mul d cl f} def
/m44 {mp x y m w6 neg w2 d w2 2 3 div mul 0 d w6 neg w2 neg d w2 w6 d 0 w2 -2 3 div mul d w2 neg w6 d w6 w2 neg d w2 -2 3 div mul 0 d w6 w2 d w2 neg w6 neg d 0 w2 2 3 div mul d w2 w6 neg d cl s} def
/m45 {mp x y m w6 neg w2 d w2 2 3 div mul 0 d w6 neg w2 neg d w2 w6 d 0 w2 -2 3 div mul d w2 neg w6 d w6 w2 neg d w2 -2 3 div mul 0 d w6 w2 d w2 neg w6 neg d 0 w2 2 3 div mul d w2 w6 neg d cl f} def
/m46 {mp x y w4 add m w4 neg w4 d w4 neg w4 neg d  w4 w4 neg d w4 neg w4 neg d w4 w4 neg d w4 w4 d w4 w4 neg d w4 w4 d w4 neg w4 d w4 w4 d w4 neg w4 d w4 neg w4 neg d cl s} def
/m47 {mp x y w4 add m w4 neg w4 d w4 neg w4 neg d w4 w4 neg d w4 neg w4 neg d  w4 w4 neg d w4 w4 d w4 w4 neg d w4 w4 d w4 neg w4 d w4 w4 d w4 neg w4 d w4 neg w4 neg d cl f} def
/m48 {mp x y w4 add m w4 neg w4 d w4 neg w4 neg d w4 w4 neg d  w4 neg w4 neg d w4 w4 neg d w4 w4 d w4 w4 neg d w4 w4 d w4 neg w4 d w4 w4 d w4 neg w4 d w4 neg w4 neg d  w4 w4 neg d w4 neg w4 neg d w4 neg w4 d w4 w4 d cl f} def
/m49 {mp x w2 sub w3 add y w2 sub w3 add m  0 w3 neg d w3 0 d 0 w3 d w3 0 d 0 w3 d w3 neg 0 d 0 w3 d w3 neg 0 d 0 w3 neg d w3 neg 0 d 0 w3 neg d w3 0 d 0 w3 d w3 0 d 0 w3 neg d w3 neg 0 d cl f } def
/m2 {mp x y w2 sub m 0 w d x w2 sub y m w 0 d s} def
/m5 {mp x w2 sub y w2 sub m w w d x w2 sub y w2 add m w w neg d s} def
%%IncludeResource: ProcSet (FontSetInit)
%%IncludeResource: font Times-Roman
%%IncludeResource: font Times-Italic
%%IncludeResource: font Times-Bold
%%IncludeResource: font Times-BoldItalic
%%IncludeResource: font Helvetica
%%IncludeResource: font Helvetica-Oblique
%%IncludeResource: font Helvetica-Bold
%%IncludeResource: font Helvetica-BoldOblique
%%IncludeResource: font Courier
%%IncludeResource: font Courier-Oblique
%%IncludeResource: font Courier-Bold
%%IncludeResource: font Courier-BoldOblique
%%IncludeResource: font Symbol
%%IncludeResource: font ZapfDingbats
/reEncode {exch findfont dup length dict begin {1 index /FID eq  {pop pop} {def} ifelse } forall /Encoding exch def currentdict end dup /FontName get exch definefont pop } def [/Times-Bold /Times-Italic /Times-BoldItalic /Helvetica /Helvetica-Oblique
 /Helvetica-Bold /Helvetica-BoldOblique /Courier /Courier-Oblique /Courier-Bold /Courier-BoldOblique /Times-Roman /AvantGarde-Book /AvantGarde-BookOblique /AvantGarde-Demi /AvantGarde-DemiOblique /Bookman-Demi /Bookman-DemiItalic /Bookman-Light
 /Bookman-LightItalic /Helvetica-Narrow /Helvetica-Narrow-Bold /Helvetica-Narrow-BoldOblique /Helvetica-Narrow-Oblique /NewCenturySchlbk-Roman /NewCenturySchlbk-Bold /NewCenturySchlbk-BoldItalic /NewCenturySchlbk-Italic /Palatino-Bold
 /Palatino-BoldItalic /Palatino-Italic /Palatino-Roman ] {ISOLatin1Encoding reEncode } forall
%%EndProlog
%%BeginSetup
%%EndSetup
newpath  gsave  .25 .25 scale  gsave  0 0 t 0.490196 0.545098 0.615686 c[  ] 0 sd 3 lw 0.941176 0.941176 0.941176 c 2268 1182 0 0 bf 0.490196 0.545098 0.615686 c 0.941176 0.941176 0.941176 c 710 567 23 603 bf black 1 1 0.992157 c 548 429 143 685 bf
 black 548 429 143 685 bl 0 0 0.933333 c 6 lw 0.49 0.6 0.82 c black 3 lw 0.49 0.6 0.82 c 143 711 m 7 Y 14 X 37 Y 14 X 32 Y 14 X 73 Y 13 X 64 Y 28 X 35 Y 13 X 118 Y 14 X -52 Y 14 X 50 Y 13 X -99 Y 14 X 55 Y 14 X -32 Y 13 X -77 Y 14 X -76 Y 14 X 38 Y
 13 X -50 Y 14 X -58 Y 14 X -6 Y 13 X -12 Y 14 X -13 Y 14 X -2 Y 13 X -1 Y 14 X -9 Y 14 X -24 Y 13 X 21 Y 14 X -19 Y 14 X 8 Y 13 X -4 Y 28 X -2 Y 13 X -1 Y 28 X 3 Y 14 X -3 Y 13 X -7 Y 14 X 6 Y 14 X 2 Y 13 X -2 Y 28 X f 6 lw 0 0 0.933333 c 0.49 0.6
 0.82 c 0 0 0.933333 c 143 718 m 14 X 37 Y 14 X 32 Y 14 X 73 Y 13 X 64 Y 28 X 35 Y 13 X 118 Y 14 X -52 Y 14 X 50 Y 13 X -99 Y 14 X 55 Y 14 X -32 Y 13 X -77 Y 14 X -76 Y 14 X 38 Y 13 X -50 Y 14 X -58 Y 14 X -6 Y 13 X -12 Y 14 X -13 Y 14 X -2 Y 13 X -1
 Y 14 X -9 Y 14 X -24 Y 13 X 21 Y 14 X -19 Y 14 X 8 Y 13 X -4 Y 28 X -2 Y 13 X -1 Y 28 X 3 Y 14 X -3 Y 13 X -7 Y 14 X 6 Y 14 X 2 Y 13 X -2 Y 28 X s black 3 lw 143 685 m 548 X s 228 698 m -13 Y s 245 691 m -6 Y s 262 691 m -6 Y s 278 691 m -6 Y s 295
 691 m -6 Y s 312 698 m -13 Y s 329 691 m -6 Y s 346 691 m -6 Y s 363 691 m -6 Y s 380 691 m -6 Y s 397 698 m -13 Y s 414 691 m -6 Y s 431 691 m -6 Y s 448 691 m -6 Y s 465 691 m -6 Y s 482 698 m -13 Y s 499 691 m -6 Y s 516 691 m -6 Y s 533 691 m -6
 Y s 550 691 m -6 Y s 567 698 m -13 Y s 583 691 m -6 Y s 600 691 m -6 Y s 617 691 m -6 Y s 634 691 m -6 Y s 651 698 m -13 Y s 228 698 m -13 Y s 211 691 m -6 Y s 194 691 m -6 Y s 177 691 m -6 Y s 160 691 m -6 Y s 651 698 m -13 Y s 668 691 m -6 Y s 685
 691 m -6 Y s
 gsave  710 567 23 603 C 227.34 656.444 t 0 r /Helvetica findfont 25.6631 sf 0 0 m (1) show NC gr 
 gsave  710 567 23 603 C 213.131 656.444 t 0 r /Symbol findfont 25.6631 sf 0 0 m (-) show NC gr 
 gsave  710 567 23 603 C 301.225 656.444 t 0 r /Helvetica findfont 25.6631 sf 0 0 m (0) show NC gr 
 gsave  710 567 23 603 C 389.32 656.444 t 0 r /Helvetica findfont 25.6631 sf 0 0 m (1) show NC gr 
 gsave  710 567 23 603 C 471.73 656.444 t 0 r /Helvetica findfont 25.6631 sf 0 0 m (2) show NC gr 
 gsave  710 567 23 603 C 556.983 656.444 t 0 r /Helvetica findfont 25.6631 sf 0 0 m (3) show NC gr 
 gsave  710 567 23 603 C 642.236 656.444 t 0 r /Helvetica findfont 25.6631 sf 0 0 m (4) show NC gr 
 gsave  710 567 23 603 C 551.299 616.66 t 0 r /Helvetica findfont 28.5146 sf 0 0 m (yybb.H1_l3) show NC gr  143 1114 m 548 X s 228 1100 m 14 Y s 245 1107 m 7 Y s 262 1107 m 7 Y s 278 1107 m 7 Y s 295 1107 m 7 Y s 312 1100 m 14 Y s 329 1107 m 7 Y s
 346 1107 m 7 Y s 363 1107 m 7 Y s 380 1107 m 7 Y s 397 1100 m 14 Y s 414 1107 m 7 Y s 431 1107 m 7 Y s 448 1107 m 7 Y s 465 1107 m 7 Y s 482 1100 m 14 Y s 499 1107 m 7 Y s 516 1107 m 7 Y s 533 1107 m 7 Y s 550 1107 m 7 Y s 567 1100 m 14 Y s 583 1107
 m 7 Y s 600 1107 m 7 Y s 617 1107 m 7 Y s 634 1107 m 7 Y s 651 1100 m 14 Y s 228 1100 m 14 Y s 211 1107 m 7 Y s 194 1107 m 7 Y s 177 1107 m 7 Y s 160 1107 m 7 Y s 651 1100 m 14 Y s 668 1107 m 7 Y s 685 1107 m 7 Y s 143 685 m 429 Y s 160 711 m -17 X
 s 152 723 m -9 X s 152 736 m -9 X s 152 748 m -9 X s 152 761 m -9 X s 160 773 m -17 X s 152 785 m -9 X s 152 798 m -9 X s 152 810 m -9 X s 152 823 m -9 X s 160 835 m -17 X s 152 847 m -9 X s 152 860 m -9 X s 152 872 m -9 X s 152 884 m -9 X s 160 897
 m -17 X s 152 909 m -9 X s 152 922 m -9 X s 152 934 m -9 X s 152 946 m -9 X s 160 959 m -17 X s 152 971 m -9 X s 152 983 m -9 X s 152 996 m -9 X s 152 1008 m -9 X s 160 1021 m -17 X s 152 1033 m -9 X s 152 1045 m -9 X s 152 1058 m -9 X s 152 1070 m
 -9 X s 160 1083 m -17 X s 160 711 m -17 X s 152 699 m -9 X s 152 686 m -9 X s 160 1083 m -17 X s 152 1095 m -9 X s 152 1107 m -9 X s
 gsave  710 567 23 603 C 119.354 701.912 t 0 r /Helvetica findfont 25.6631 sf 0 0 m (0) show NC gr 
 gsave  710 567 23 603 C 102.303 764.431 t 0 r /Helvetica findfont 25.6631 sf 0 0 m (0.1) show NC gr 
 gsave  710 567 23 603 C 99.4613 824.108 t 0 r /Helvetica findfont 25.6631 sf 0 0 m (0.2) show NC gr 
 gsave  710 567 23 603 C 99.4613 886.626 t 0 r /Helvetica findfont 25.6631 sf 0 0 m (0.3) show NC gr 
 gsave  710 567 23 603 C 99.4613 949.145 t 0 r /Helvetica findfont 25.6631 sf 0 0 m (0.4) show NC gr 
 gsave  710 567 23 603 C 99.4613 1011.66 t 0 r /Helvetica findfont 25.6631 sf 0 0 m (0.5) show NC gr 
 gsave  710 567 23 603 C 99.4613 1071.34 t 0 r /Helvetica findfont 25.6631 sf 0 0 m (0.6) show NC gr 
 gsave  710 567 23 603 C 45.468 1042.92 t 90 r /Helvetica findfont 28.5146 sf 0 0 m (0.161 ) show NC gr 
 gsave  710 567 23 603 C 31.2593 1040.08 t 90 r /Helvetica findfont 19.9602 sf 0 0 m ( ) show NC gr 
 gsave  710 567 23 603 C 45.468 1028.71 t 90 r /Helvetica findfont 28.5146 sf 0 0 m (/) show NC gr 
 gsave  710 567 23 603 C 53.9933 1025.87 t 90 r /Helvetica findfont 19.9602 sf 0 0 m ( ) show NC gr 
 gsave  710 567 23 603 C 45.468 920.727 t 90 r /Helvetica findfont 28.5146 sf 0 0 m (\(1/N\) dN) show NC gr  691 685 m 429 Y s 674 711 m 17 X s 683 723 m 8 X s 683 736 m 8 X s 683 748 m 8 X s 683 761 m 8 X s 674 773 m 17 X s 683 785 m 8 X s 683 798 m
 8 X s 683 810 m 8 X s 683 823 m 8 X s 674 835 m 17 X s 683 847 m 8 X s 683 860 m 8 X s 683 872 m 8 X s 683 884 m 8 X s 674 897 m 17 X s 683 909 m 8 X s 683 922 m 8 X s 683 934 m 8 X s 683 946 m 8 X s 674 959 m 17 X s 683 971 m 8 X s 683 983 m 8 X s
 683 996 m 8 X s 683 1008 m 8 X s 674 1021 m 17 X s 683 1033 m 8 X s 683 1045 m 8 X s 683 1058 m 8 X s 683 1070 m 8 X s 674 1083 m 17 X s 674 711 m 17 X s 683 699 m 8 X s 683 686 m 8 X s 674 1083 m 17 X s 683 1095 m 8 X s 683 1107 m 8 X s 0.490196
 0.545098 0.615686 c 0.364706 0.419608 0.490196 c 366 38 30 1130 bf 0.490196 0.545098 0.615686 c 30 1130 m 366 X s 396 1130 m 38 Y s 396 1168 m -366 X s 30 1168 m -38 Y s 1 1 1 c black 1 1 1 c
 gsave  710 567 23 603 C 34.101 1142.38 t 0 r /Helvetica-Bold findfont 28.5146 sf 0 0 m (Input variable: yybb.H1_l3) show NC gr  1 0 0 c 6 lw black 3 lw 1 0 0 c 688 711 m s 673 711 m s 659 713 m -1 -2 d s 650 718 m -7 -7 d s 627 711 m s 612 711 m s
 597 711 m s 582 711 m s 567 711 m s 556 715 m -4 -4 d s 542 716 m -5 -5 d s 529 719 m -7 -8 d s 520 724 m -13 -13 d s 510 729 m -18 -18 d s 499 734 m -22 -23 d s 486 735 m -24 -24 d s 485 750 m -38 -39 d s 485 765 m -13 -13 d s 471 751 m -39 -40 d s
 475 770 m -3 -3 d s 450 745 m -34 -34 d s 444 754 m -43 -43 d s 444 770 m -58 -59 d s 444 785 m -73 -74 d s 444 800 m -88 -89 d s 444 815 m -103 -104 d s 431 817 m -105 -106 d s 431 832 m -120 -121 d s 431 847 m -135 -136 d s 431 862 m -14 -14 d s
 407 839 m -17 -18 d s 389 821 m -108 -110 d s 424 870 m -7 -7 d s 397 843 m -7 -7 d s 376 822 m -110 -111 d s 376 837 m -125 -126 d s 376 853 m -140 -142 d s 376 868 m -156 -157 d s 376 883 m -171 -172 d s 376 898 m -14 -14 d s 356 878 m -166 -167 d
 s 376 913 m -14 -14 d s 349 886 m -174 -175 d s 376 928 m -14 -13 d s 349 901 m -189 -190 d s 364 932 m -2 -2 d s 349 916 m -192 -193 d s 145 711 m s 340 922 m -5 -5 d s 327 909 m -142 -143 d s 321 919 m -123 -124 d s 196 792 m -11 -11 d s 321 934 m
 -109 -110 d s 204 815 m -6 -5 d s 320 948 m -108 -109 d s 308 951 m -28 -28 d s 272 915 m -60 -61 d s 307 965 m -27 -27 d s 267 924 m -28 -27 d s 226 883 m -14 -14 d s 287 960 m -7 -7 d s 267 940 m -28 -28 d s 226 898 m -14 -13 d s 267 955 m -28 -28
 d s 267 970 m -28 -28 d s 267 985 m -28 -27 d s 267 1000 m -28 -27 d s 267 1016 m -28 -28 d s 267 1031 m -14 -14 d s 249 1013 m -10 -10 d s 264 1044 m -11 -12 d s 6 lw 143 711 m 14 X 27 Y 14 X 13 Y 14 X 41 Y 13 X 23 Y 14 X 84 Y 14 X -16 Y 13 X 130 Y
 14 X 31 Y 14 X -129 Y 13 X 45 Y 14 X 5 Y 14 X -17 Y 13 X -39 Y 14 X 13 Y 14 X -44 Y 13 X 54 Y 14 X -111 Y 14 X 22 Y 13 X -4 Y 14 X 31 Y 14 X -53 Y 13 X -72 Y 14 X 6 Y 14 X 19 Y 13 X -35 Y 14 X -6 Y 14 X -5 Y 13 X -5 Y 14 X -3 Y 14 X -1 Y 13 X -4 Y
 69 X 7 Y 14 X -5 Y 13 X -2 Y 28 X s black 3 lw 143 685 m 548 X s 228 698 m -13 Y s 245 691 m -6 Y s 262 691 m -6 Y s 278 691 m -6 Y s 295 691 m -6 Y s 312 698 m -13 Y s 329 691 m -6 Y s 346 691 m -6 Y s 363 691 m -6 Y s 380 691 m -6 Y s 397 698 m
 -13 Y s 414 691 m -6 Y s 431 691 m -6 Y s 448 691 m -6 Y s 465 691 m -6 Y s 482 698 m -13 Y s 499 691 m -6 Y s 516 691 m -6 Y s 533 691 m -6 Y s 550 691 m -6 Y s 567 698 m -13 Y s 583 691 m -6 Y s 600 691 m -6 Y s 617 691 m -6 Y s 634 691 m -6 Y s
 651 698 m -13 Y s 228 698 m -13 Y s 211 691 m -6 Y s 194 691 m -6 Y s 177 691 m -6 Y s 160 691 m -6 Y s 651 698 m -13 Y s 668 691 m -6 Y s 685 691 m -6 Y s 143 1114 m 548 X s 228 1100 m 14 Y s 245 1107 m 7 Y s 262 1107 m 7 Y s 278 1107 m 7 Y s 295
 1107 m 7 Y s 312 1100 m 14 Y s 329 1107 m 7 Y s 346 1107 m 7 Y s 363 1107 m 7 Y s 380 1107 m 7 Y s 397 1100 m 14 Y s 414 1107 m 7 Y s 431 1107 m 7 Y s 448 1107 m 7 Y s 465 1107 m 7 Y s 482 1100 m 14 Y s 499 1107 m 7 Y s 516 1107 m 7 Y s 533 1107 m 7
 Y s 550 1107 m 7 Y s 567 1100 m 14 Y s 583 1107 m 7 Y s 600 1107 m 7 Y s 617 1107 m 7 Y s 634 1107 m 7 Y s 651 1100 m 14 Y s 228 1100 m 14 Y s 211 1107 m 7 Y s 194 1107 m 7 Y s 177 1107 m 7 Y s 160 1107 m 7 Y s 651 1100 m 14 Y s 668 1107 m 7 Y s 685
 1107 m 7 Y s 143 685 m 429 Y s 160 711 m -17 X s 152 723 m -9 X s 152 736 m -9 X s 152 748 m -9 X s 152 761 m -9 X s 160 773 m -17 X s 152 785 m -9 X s 152 798 m -9 X s 152 810 m -9 X s 152 823 m -9 X s 160 835 m -17 X s 152 847 m -9 X s 152 860 m
 -9 X s 152 872 m -9 X s 152 884 m -9 X s 160 897 m -17 X s 152 909 m -9 X s 152 922 m -9 X s 152 934 m -9 X s 152 946 m -9 X s 160 959 m -17 X s 152 971 m -9 X s 152 983 m -9 X s 152 996 m -9 X s 152 1008 m -9 X s 160 1021 m -17 X s 152 1033 m -9 X
 s 152 1045 m -9 X s 152 1058 m -9 X s 152 1070 m -9 X s 160 1083 m -17 X s 160 711 m -17 X s 152 699 m -9 X s 152 686 m -9 X s 160 1083 m -17 X s 152 1095 m -9 X s 152 1107 m -9 X s 691 685 m 429 Y s 674 711 m 17 X s 683 723 m 8 X s 683 736 m 8 X s
 683 748 m 8 X s 683 761 m 8 X s 674 773 m 17 X s 683 785 m 8 X s 683 798 m 8 X s 683 810 m 8 X s 683 823 m 8 X s 674 835 m 17 X s 683 847 m 8 X s 683 860 m 8 X s 683 872 m 8 X s 683 884 m 8 X s 674 897 m 17 X s 683 909 m 8 X s 683 922 m 8 X s 683
 934 m 8 X s 683 946 m 8 X s 674 959 m 17 X s 683 971 m 8 X s 683 983 m 8 X s 683 996 m 8 X s 683 1008 m 8 X s 674 1021 m 17 X s 683 1033 m 8 X s 683 1045 m 8 X s 683 1058 m 8 X s 683 1070 m 8 X s 674 1083 m 17 X s 674 711 m 17 X s 683 699 m 8 X s
 683 686 m 8 X s 674 1083 m 17 X s 683 1095 m 8 X s 683 1107 m 8 X s
 gsave  710 567 23 603 C 719.017 682.347 t 90 r /Helvetica-Bold findfont 19.9602 sf 0 0 m (U/O\255flow \(S,B\): \(0.0, 0.0\)% / \(0.0, 0.0\)%) show NC gr  0.490196 0.545098 0.615686 c 0.364706 0.419608 0.490196 c 366 38 30 1130 bf 0.490196 0.545098
 0.615686 c 30 1130 m 366 X s 396 1130 m 38 Y s 396 1168 m -366 X s 30 1168 m -38 Y s 1 1 1 c black 1 1 1 c
 gsave  710 567 23 603 C 34.101 1142.38 t 0 r /Helvetica-Bold findfont 28.5146 sf 0 0 m (Input variable: yybb.H1_l3) show NC gr  0.490196 0.545098 0.615686 c 0.941176 0.941176 0.941176 c 710 567 779 603 bf black 1 1 0.992157 c 548 429 899 685 bf
 black 548 429 899 685 bl 0 0 0.933333 c 6 lw 0.49 0.6 0.82 c black 3 lw 0.49 0.6 0.82 c 899 711 m 4 Y 14 X 37 Y 14 X -18 Y 13 X 48 Y 14 X 54 Y 14 X 82 Y 13 X 51 Y 14 X 8 Y 14 X 42 Y 13 X 48 Y 14 X -15 Y 14 X 11 Y 14 X -7 Y 13 X -93 Y 14 X 25 Y 14 X
 -40 Y 13 X -52 Y 14 X -78 Y 14 X 1 Y 13 X -21 Y 14 X -48 Y 14 X 12 Y 13 X -2 Y 14 X -32 Y 14 X 3 Y 13 X 1 Y 14 X -6 Y 14 X -11 Y 13 X -1 Y 14 X 3 Y 14 X -12 Y 13 X 6 Y 41 X 1 Y 14 X -1 Y 27 X 2 Y 14 X -2 Y 28 X f 6 lw 0 0 0.933333 c 0.49 0.6 0.82 c
 0 0 0.933333 c 899 715 m 14 X 37 Y 14 X -18 Y 13 X 48 Y 14 X 54 Y 14 X 82 Y 13 X 51 Y 14 X 8 Y 14 X 42 Y 13 X 48 Y 14 X -15 Y 14 X 11 Y 14 X -7 Y 13 X -93 Y 14 X 25 Y 14 X -40 Y 13 X -52 Y 14 X -78 Y 14 X 1 Y 13 X -21 Y 14 X -48 Y 14 X 12 Y 13 X -2
 Y 14 X -32 Y 14 X 3 Y 13 X 1 Y 14 X -6 Y 14 X -11 Y 13 X -1 Y 14 X 3 Y 14 X -12 Y 13 X 6 Y 41 X 1 Y 14 X -1 Y 27 X 2 Y 14 X -2 Y 28 X s black 3 lw 899 685 m 548 X s 988 698 m -13 Y s 1007 691 m -6 Y s 1026 691 m -6 Y s 1044 691 m -6 Y s 1063 691 m
 -6 Y s 1082 698 m -13 Y s 1101 691 m -6 Y s 1120 691 m -6 Y s 1138 691 m -6 Y s 1157 691 m -6 Y s 1176 698 m -13 Y s 1195 691 m -6 Y s 1213 691 m -6 Y s 1232 691 m -6 Y s 1251 691 m -6 Y s 1270 698 m -13 Y s 1289 691 m -6 Y s 1307 691 m -6 Y s 1326
 691 m -6 Y s 1345 691 m -6 Y s 1364 698 m -13 Y s 988 698 m -13 Y s 969 691 m -6 Y s 950 691 m -6 Y s 932 691 m -6 Y s 913 691 m -6 Y s 1364 698 m -13 Y s 1383 691 m -6 Y s 1401 691 m -6 Y s 1420 691 m -6 Y s 1439 691 m -6 Y s
 gsave  710 567 779 603 C 986.087 656.444 t 0 r /Helvetica findfont 25.6631 sf 0 0 m (1) show NC gr 
 gsave  710 567 779 603 C 971.879 656.444 t 0 r /Symbol findfont 25.6631 sf 0 0 m (-) show NC gr 
 gsave  710 567 779 603 C 1071.34 656.444 t 0 r /Helvetica findfont 25.6631 sf 0 0 m (0) show NC gr 
 gsave  710 567 779 603 C 1167.96 656.444 t 0 r /Helvetica findfont 25.6631 sf 0 0 m (1) show NC gr 
 gsave  710 567 779 603 C 1258.9 656.444 t 0 r /Helvetica findfont 25.6631 sf 0 0 m (2) show NC gr 
 gsave  710 567 779 603 C 1352.67 656.444 t 0 r /Helvetica findfont 25.6631 sf 0 0 m (3) show NC gr 
 gsave  710 567 779 603 C 1307.21 616.66 t 0 r /Helvetica findfont 28.5146 sf 0 0 m (yybb.H1_l4) show NC gr  899 1114 m 548 X s 988 1100 m 14 Y s 1007 1107 m 7 Y s 1026 1107 m 7 Y s 1044 1107 m 7 Y s 1063 1107 m 7 Y s 1082 1100 m 14 Y s 1101 1107 m 7
 Y s 1120 1107 m 7 Y s 1138 1107 m 7 Y s 1157 1107 m 7 Y s 1176 1100 m 14 Y s 1195 1107 m 7 Y s 1213 1107 m 7 Y s 1232 1107 m 7 Y s 1251 1107 m 7 Y s 1270 1100 m 14 Y s 1289 1107 m 7 Y s 1307 1107 m 7 Y s 1326 1107 m 7 Y s 1345 1107 m 7 Y s 1364 1100
 m 14 Y s 988 1100 m 14 Y s 969 1107 m 7 Y s 950 1107 m 7 Y s 932 1107 m 7 Y s 913 1107 m 7 Y s 1364 1100 m 14 Y s 1383 1107 m 7 Y s 1401 1107 m 7 Y s 1420 1107 m 7 Y s 1439 1107 m 7 Y s 899 685 m 429 Y s 915 711 m -16 X s 907 723 m -8 X s 907 735 m
 -8 X s 907 747 m -8 X s 907 759 m -8 X s 915 771 m -16 X s 907 784 m -8 X s 907 796 m -8 X s 907 808 m -8 X s 907 820 m -8 X s 915 832 m -16 X s 907 845 m -8 X s 907 857 m -8 X s 907 869 m -8 X s 907 881 m -8 X s 915 893 m -16 X s 907 906 m -8 X s
 907 918 m -8 X s 907 930 m -8 X s 907 942 m -8 X s 915 954 m -16 X s 907 967 m -8 X s 907 979 m -8 X s 907 991 m -8 X s 907 1003 m -8 X s 915 1015 m -16 X s 907 1028 m -8 X s 907 1040 m -8 X s 907 1052 m -8 X s 907 1064 m -8 X s 915 1076 m -16 X s
 915 711 m -16 X s 907 698 m -8 X s 907 686 m -8 X s 915 1076 m -16 X s 907 1089 m -8 X s 907 1101 m -8 X s 907 1113 m -8 X s
 gsave  710 567 779 603 C 875.259 701.912 t 0 r /Helvetica findfont 25.6631 sf 0 0 m (0) show NC gr 
 gsave  710 567 779 603 C 858.208 761.589 t 0 r /Helvetica findfont 25.6631 sf 0 0 m (0.1) show NC gr 
 gsave  710 567 779 603 C 855.367 821.266 t 0 r /Helvetica findfont 25.6631 sf 0 0 m (0.2) show NC gr 
 gsave  710 567 779 603 C 855.367 883.784 t 0 r /Helvetica findfont 25.6631 sf 0 0 m (0.3) show NC gr 
 gsave  710 567 779 603 C 855.367 943.461 t 0 r /Helvetica findfont 25.6631 sf 0 0 m (0.4) show NC gr 
 gsave  710 567 779 603 C 855.367 1005.98 t 0 r /Helvetica findfont 25.6631 sf 0 0 m (0.5) show NC gr 
 gsave  710 567 779 603 C 855.367 1065.66 t 0 r /Helvetica findfont 25.6631 sf 0 0 m (0.6) show NC gr 
 gsave  710 567 779 603 C 801.374 1037.24 t 90 r /Helvetica findfont 28.5146 sf 0 0 m (0.146 ) show NC gr 
 gsave  710 567 779 603 C 787.165 1034.4 t 90 r /Helvetica findfont 19.9602 sf 0 0 m ( ) show NC gr 
 gsave  710 567 779 603 C 801.374 1023.03 t 90 r /Helvetica findfont 28.5146 sf 0 0 m (/) show NC gr 
 gsave  710 567 779 603 C 809.899 1020.19 t 90 r /Helvetica findfont 19.9602 sf 0 0 m ( ) show NC gr 
 gsave  710 567 779 603 C 801.374 915.044 t 90 r /Helvetica findfont 28.5146 sf 0 0 m (\(1/N\) dN) show NC gr  1447 685 m 429 Y s 1430 711 m 17 X s 1438 723 m 9 X s 1438 735 m 9 X s 1438 747 m 9 X s 1438 759 m 9 X s 1430 771 m 17 X s 1438 784 m 9 X s
 1438 796 m 9 X s 1438 808 m 9 X s 1438 820 m 9 X s 1430 832 m 17 X s 1438 845 m 9 X s 1438 857 m 9 X s 1438 869 m 9 X s 1438 881 m 9 X s 1430 893 m 17 X s 1438 906 m 9 X s 1438 918 m 9 X s 1438 930 m 9 X s 1438 942 m 9 X s 1430 954 m 17 X s 1438 967
 m 9 X s 1438 979 m 9 X s 1438 991 m 9 X s 1438 1003 m 9 X s 1430 1015 m 17 X s 1438 1028 m 9 X s 1438 1040 m 9 X s 1438 1052 m 9 X s 1438 1064 m 9 X s 1430 1076 m 17 X s 1430 711 m 17 X s 1438 698 m 9 X s 1438 686 m 9 X s 1430 1076 m 17 X s 1438
 1089 m 9 X s 1438 1101 m 9 X s 1438 1113 m 9 X s 0.490196 0.545098 0.615686 c 0.364706 0.419608 0.490196 c 366 38 786 1130 bf 0.490196 0.545098 0.615686 c 786 1130 m 366 X s 1152 1130 m 38 Y s 1152 1168 m -366 X s 786 1168 m -38 Y s 1 1 1 c black 1
 1 1 c
 gsave  710 567 779 603 C 790.007 1142.38 t 0 r /Helvetica-Bold findfont 28.5146 sf 0 0 m (Input variable: yybb.H1_l4) show NC gr  1 0 0 c 6 lw black 3 lw 1 0 0 c 1443 711 m s 1428 711 m s 1413 711 m s 1398 711 m s 1383 711 m s 1370 712 m -2 -1 d s
 1355 713 m -2 -2 d s 1346 719 m -8 -8 d s 1326 714 m -3 -3 d s 1320 723 m -10 -10 d s 1309 712 m -2 -1 d s 1296 714 m -4 -3 d s 1285 718 m -8 -7 d s 1282 731 m -20 -20 d s 1271 734 m -2 -2 d s 1266 729 m -11 -11 d s 1254 717 m -7 -6 d s 1241 720 m
 -9 -9 d s 1241 735 m -24 -24 d s 1228 737 m -26 -26 d s 1221 745 m -34 -34 d s 1214 753 m -42 -42 d s 1214 768 m -57 -57 d s 1214 783 m -72 -72 d s 1214 799 m -14 -14 d s 1190 774 m -63 -63 d s 1214 814 m -14 -14 d s 1187 786 m -75 -75 d s 1206 821
 m -6 -6 d s 1187 801 m -91 -90 d s 1179 809 m -98 -98 d s 1173 818 m -107 -107 d s 1173 833 m -122 -122 d s 1173 848 m -137 -137 d s 1173 863 m -152 -152 d s 1173 879 m -167 -168 d s 1173 894 m -182 -183 d s 1159 895 m -13 -14 d s 1135 871 m -159
 -160 d s 1150 901 m -4 -4 d s 1132 883 m -171 -172 d s 1132 898 m -186 -187 d s 1132 913 m -14 -14 d s 1113 894 m -182 -183 d s 1132 928 m -14 -13 d s 1105 901 m -178 -179 d s 918 713 m -2 -2 d s 1128 940 m -10 -10 d s 1105 916 m -165 -165 d s 935
 746 m -8 -9 d s 902 713 m -2 -2 d s 1105 931 m -165 -165 d s 1105 946 m -165 -165 d s 1093 950 m -139 -140 d s 947 803 m -7 -7 d s 1082 954 m -114 -115 d s 1066 953 m -71 -71 d s 990 877 m -22 -23 d s 1064 966 m -69 -69 d s 981 883 m -13 -14 d s
 1064 981 m -69 -69 d s 981 898 m -13 -13 d s 1064 996 m -55 -55 d s 1003 936 m -8 -9 d s 981 914 m -13 -14 d s 1064 1011 m -42 -41 d s 973 921 m -5 -6 d s 1061 1025 m -39 -40 d s 1050 1028 m -28 -28 d s 1050 1043 m -28 -27 d s 1050 1058 m -14 -13 d
 s 1024 1032 m -2 -1 d s 1050 1074 m -14 -14 d s 1038 1077 m -2 -2 d s 6 lw 899 713 m 28 X 33 Y 13 X 57 Y 14 X 22 Y 14 X 96 Y 13 X -44 Y 14 X 59 Y 14 X 20 Y 13 X 76 Y 14 X 45 Y 14 X -52 Y 14 X -72 Y 13 X 1 Y 14 X -4 Y 14 X -56 Y 13 X 46 Y 14 X -69 Y
 14 X 30 Y 13 X -7 Y 14 X -85 Y 14 X -35 Y 13 X 47 Y 14 X -76 Y 14 X -8 Y 13 X -20 Y 14 X 12 Y 14 X 5 Y 13 X -16 Y 14 X -6 Y 14 X 11 Y 13 X -9 Y 14 X 5 Y 14 X -6 Y 13 X -1 Y 14 X -1 Y 69 X s black 3 lw 899 685 m 548 X s 988 698 m -13 Y s 1007 691 m
 -6 Y s 1026 691 m -6 Y s 1044 691 m -6 Y s 1063 691 m -6 Y s 1082 698 m -13 Y s 1101 691 m -6 Y s 1120 691 m -6 Y s 1138 691 m -6 Y s 1157 691 m -6 Y s 1176 698 m -13 Y s 1195 691 m -6 Y s 1213 691 m -6 Y s 1232 691 m -6 Y s 1251 691 m -6 Y s 1270
 698 m -13 Y s 1289 691 m -6 Y s 1307 691 m -6 Y s 1326 691 m -6 Y s 1345 691 m -6 Y s 1364 698 m -13 Y s 988 698 m -13 Y s 969 691 m -6 Y s 950 691 m -6 Y s 932 691 m -6 Y s 913 691 m -6 Y s 1364 698 m -13 Y s 1383 691 m -6 Y s 1401 691 m -6 Y s
 1420 691 m -6 Y s 1439 691 m -6 Y s 899 1114 m 548 X s 988 1100 m 14 Y s 1007 1107 m 7 Y s 1026 1107 m 7 Y s 1044 1107 m 7 Y s 1063 1107 m 7 Y s 1082 1100 m 14 Y s 1101 1107 m 7 Y s 1120 1107 m 7 Y s 1138 1107 m 7 Y s 1157 1107 m 7 Y s 1176 1100 m
 14 Y s 1195 1107 m 7 Y s 1213 1107 m 7 Y s 1232 1107 m 7 Y s 1251 1107 m 7 Y s 1270 1100 m 14 Y s 1289 1107 m 7 Y s 1307 1107 m 7 Y s 1326 1107 m 7 Y s 1345 1107 m 7 Y s 1364 1100 m 14 Y s 988 1100 m 14 Y s 969 1107 m 7 Y s 950 1107 m 7 Y s 932 1107
 m 7 Y s 913 1107 m 7 Y s 1364 1100 m 14 Y s 1383 1107 m 7 Y s 1401 1107 m 7 Y s 1420 1107 m 7 Y s 1439 1107 m 7 Y s 899 685 m 429 Y s 915 711 m -16 X s 907 723 m -8 X s 907 735 m -8 X s 907 747 m -8 X s 907 759 m -8 X s 915 771 m -16 X s 907 784 m
 -8 X s 907 796 m -8 X s 907 808 m -8 X s 907 820 m -8 X s 915 832 m -16 X s 907 845 m -8 X s 907 857 m -8 X s 907 869 m -8 X s 907 881 m -8 X s 915 893 m -16 X s 907 906 m -8 X s 907 918 m -8 X s 907 930 m -8 X s 907 942 m -8 X s 915 954 m -16 X s
 907 967 m -8 X s 907 979 m -8 X s 907 991 m -8 X s 907 1003 m -8 X s 915 1015 m -16 X s 907 1028 m -8 X s 907 1040 m -8 X s 907 1052 m -8 X s 907 1064 m -8 X s 915 1076 m -16 X s 915 711 m -16 X s 907 698 m -8 X s 907 686 m -8 X s 915 1076 m -16 X s
 907 1089 m -8 X s 907 1101 m -8 X s 907 1113 m -8 X s 1447 685 m 429 Y s 1430 711 m 17 X s 1438 723 m 9 X s 1438 735 m 9 X s 1438 747 m 9 X s 1438 759 m 9 X s 1430 771 m 17 X s 1438 784 m 9 X s 1438 796 m 9 X s 1438 808 m 9 X s 1438 820 m 9 X s 1430
 832 m 17 X s 1438 845 m 9 X s 1438 857 m 9 X s 1438 869 m 9 X s 1438 881 m 9 X s 1430 893 m 17 X s 1438 906 m 9 X s 1438 918 m 9 X s 1438 930 m 9 X s 1438 942 m 9 X s 1430 954 m 17 X s 1438 967 m 9 X s 1438 979 m 9 X s 1438 991 m 9 X s 1438 1003 m 9
 X s 1430 1015 m 17 X s 1438 1028 m 9 X s 1438 1040 m 9 X s 1438 1052 m 9 X s 1438 1064 m 9 X s 1430 1076 m 17 X s 1430 711 m 17 X s 1438 698 m 9 X s 1438 686 m 9 X s 1430 1076 m 17 X s 1438 1089 m 9 X s 1438 1101 m 9 X s 1438 1113 m 9 X s
 gsave  710 567 779 603 C 1474.92 682.347 t 90 r /Helvetica-Bold findfont 19.9602 sf 0 0 m (U/O\255flow \(S,B\): \(0.0, 0.0\)% / \(0.0, 0.0\)%) show NC gr  0.490196 0.545098 0.615686 c 0.364706 0.419608 0.490196 c 366 38 786 1130 bf 0.490196 0.545098
 0.615686 c 786 1130 m 366 X s 1152 1130 m 38 Y s 1152 1168 m -366 X s 786 1168 m -38 Y s 1 1 1 c black 1 1 1 c
 gsave  710 567 779 603 C 790.007 1142.38 t 0 r /Helvetica-Bold findfont 28.5146 sf 0 0 m (Input variable: yybb.H1_l4) show NC gr  0.490196 0.545098 0.615686 c 0.941176 0.941176 0.941176 c 711 567 1534 603 bf black 1 1 0.992157 c 547 429 1655 685 bf
 black 547 429 1655 685 bl 0 0 0.933333 c 6 lw 0.49 0.6 0.82 c black 3 lw 0.49 0.6 0.82 c 1655 705 m 2 Y 14 X -1 Y 14 X 1 Y 13 X 14 Y 14 X 18 Y 14 X 21 Y 13 X 6 Y 14 X 57 Y 14 X 36 Y 13 X 26 Y 14 X -24 Y 14 X 117 Y 13 X -2 Y 14 X 35 Y 14 X -44 Y 13 X
 -10 Y 14 X -23 Y 14 X 26 Y 13 X -118 Y 14 X 53 Y 14 X -7 Y 14 X -47 Y 13 X -49 Y 14 X 31 Y 14 X -51 Y 13 X 33 Y 14 X -24 Y 14 X -21 Y 13 X 4 Y 14 X -35 Y 14 X -6 Y 13 X -10 Y 14 X -4 Y 14 X 2 Y 13 X -3 Y 14 X -2 Y 14 X -1 Y 54 X f 6 lw 0 0 0.933333
 c 0.49 0.6 0.82 c 0 0 0.933333 c 1655 707 m 14 X -1 Y 14 X 1 Y 13 X 14 Y 14 X 18 Y 14 X 21 Y 13 X 6 Y 14 X 57 Y 14 X 36 Y 13 X 26 Y 14 X -24 Y 14 X 117 Y 13 X -2 Y 14 X 35 Y 14 X -44 Y 13 X -10 Y 14 X -23 Y 14 X 26 Y 13 X -118 Y 14 X 53 Y 14 X -7 Y
 14 X -47 Y 13 X -49 Y 14 X 31 Y 14 X -51 Y 13 X 33 Y 14 X -24 Y 14 X -21 Y 13 X 4 Y 14 X -35 Y 14 X -6 Y 13 X -10 Y 14 X -4 Y 14 X 2 Y 13 X -3 Y 14 X -2 Y 14 X -1 Y 54 X s black 3 lw 1655 685 m 547 X s 1712 698 m -13 Y s 1723 691 m -6 Y s 1735 691 m
 -6 Y s 1746 691 m -6 Y s 1758 691 m -6 Y s 1769 698 m -13 Y s 1781 691 m -6 Y s 1792 691 m -6 Y s 1804 691 m -6 Y s 1815 691 m -6 Y s 1827 698 m -13 Y s 1839 691 m -6 Y s 1850 691 m -6 Y s 1862 691 m -6 Y s 1873 691 m -6 Y s 1885 698 m -13 Y s 1896
 691 m -6 Y s 1908 691 m -6 Y s 1919 691 m -6 Y s 1931 691 m -6 Y s 1942 698 m -13 Y s 1954 691 m -6 Y s 1965 691 m -6 Y s 1977 691 m -6 Y s 1989 691 m -6 Y s 2000 698 m -13 Y s 2012 691 m -6 Y s 2023 691 m -6 Y s 2035 691 m -6 Y s 2046 691 m -6 Y s
 2058 698 m -13 Y s 2069 691 m -6 Y s 2081 691 m -6 Y s 2092 691 m -6 Y s 2104 691 m -6 Y s 2115 698 m -13 Y s 2127 691 m -6 Y s 2139 691 m -6 Y s 2150 691 m -6 Y s 2162 691 m -6 Y s 2173 698 m -13 Y s 1712 698 m -13 Y s 1700 691 m -6 Y s 1689 691 m
 -6 Y s 1677 691 m -6 Y s 1665 691 m -6 Y s 2173 698 m -13 Y s 2185 691 m -6 Y s 2196 691 m -6 Y s
 gsave  711 567 1534 603 C 1699.37 656.444 t 0 r /Helvetica findfont 25.6631 sf 0 0 m (1.5) show NC gr 
 gsave  711 567 1534 603 C 1685.16 656.444 t 0 r /Symbol findfont 25.6631 sf 0 0 m (-) show NC gr 
 gsave  711 567 1534 603 C 1767.57 656.444 t 0 r /Helvetica findfont 25.6631 sf 0 0 m (1) show NC gr 
 gsave  711 567 1534 603 C 1753.36 656.444 t 0 r /Symbol findfont 25.6631 sf 0 0 m (-) show NC gr 
 gsave  711 567 1534 603 C 1813.04 656.444 t 0 r /Helvetica findfont 25.6631 sf 0 0 m (0.5) show NC gr 
 gsave  711 567 1534 603 C 1798.83 656.444 t 0 r /Symbol findfont 25.6631 sf 0 0 m (-) show NC gr 
 gsave  711 567 1534 603 C 1875.56 656.444 t 0 r /Helvetica findfont 25.6631 sf 0 0 m (0) show NC gr 
 gsave  711 567 1534 603 C 1923.86 656.444 t 0 r /Helvetica findfont 25.6631 sf 0 0 m (0.5) show NC gr 
 gsave  711 567 1534 603 C 1992.07 656.444 t 0 r /Helvetica findfont 25.6631 sf 0 0 m (1) show NC gr 
 gsave  711 567 1534 603 C 2040.38 656.444 t 0 r /Helvetica findfont 25.6631 sf 0 0 m (1.5) show NC gr 
 gsave  711 567 1534 603 C 2105.74 656.444 t 0 r /Helvetica findfont 25.6631 sf 0 0 m (2) show NC gr 
 gsave  711 567 1534 603 C 2154.05 656.444 t 0 r /Helvetica findfont 25.6631 sf 0 0 m (2.5) show NC gr 
 gsave  711 567 1534 603 C 2063.11 616.66 t 0 r /Helvetica findfont 28.5146 sf 0 0 m (yybb.H1_l5) show NC gr  1655 1114 m 547 X s 1712 1100 m 14 Y s 1723 1107 m 7 Y s 1735 1107 m 7 Y s 1746 1107 m 7 Y s 1758 1107 m 7 Y s 1769 1100 m 14 Y s 1781 1107
 m 7 Y s 1792 1107 m 7 Y s 1804 1107 m 7 Y s 1815 1107 m 7 Y s 1827 1100 m 14 Y s 1839 1107 m 7 Y s 1850 1107 m 7 Y s 1862 1107 m 7 Y s 1873 1107 m 7 Y s 1885 1100 m 14 Y s 1896 1107 m 7 Y s 1908 1107 m 7 Y s 1919 1107 m 7 Y s 1931 1107 m 7 Y s 1942
 1100 m 14 Y s 1954 1107 m 7 Y s 1965 1107 m 7 Y s 1977 1107 m 7 Y s 1989 1107 m 7 Y s 2000 1100 m 14 Y s 2012 1107 m 7 Y s 2023 1107 m 7 Y s 2035 1107 m 7 Y s 2046 1107 m 7 Y s 2058 1100 m 14 Y s 2069 1107 m 7 Y s 2081 1107 m 7 Y s 2092 1107 m 7 Y s
 2104 1107 m 7 Y s 2115 1100 m 14 Y s 2127 1107 m 7 Y s 2139 1107 m 7 Y s 2150 1107 m 7 Y s 2162 1107 m 7 Y s 2173 1100 m 14 Y s 1712 1100 m 14 Y s 1700 1107 m 7 Y s 1689 1107 m 7 Y s 1677 1107 m 7 Y s 1665 1107 m 7 Y s 2173 1100 m 14 Y s 2185 1107 m
 7 Y s 2196 1107 m 7 Y s 1655 685 m 429 Y s 1671 705 m -16 X s 1663 714 m -8 X s 1663 724 m -8 X s 1663 733 m -8 X s 1663 742 m -8 X s 1671 751 m -16 X s 1663 760 m -8 X s 1663 770 m -8 X s 1663 779 m -8 X s 1663 788 m -8 X s 1671 797 m -16 X s 1663
 807 m -8 X s 1663 816 m -8 X s 1663 825 m -8 X s 1663 834 m -8 X s 1671 844 m -16 X s 1663 853 m -8 X s 1663 862 m -8 X s 1663 871 m -8 X s 1663 881 m -8 X s 1671 890 m -16 X s 1663 899 m -8 X s 1663 908 m -8 X s 1663 918 m -8 X s 1663 927 m -8 X s
 1671 936 m -16 X s 1663 945 m -8 X s 1663 954 m -8 X s 1663 964 m -8 X s 1663 973 m -8 X s 1671 982 m -16 X s 1663 991 m -8 X s 1663 1001 m -8 X s 1663 1010 m -8 X s 1663 1019 m -8 X s 1671 1028 m -16 X s 1663 1038 m -8 X s 1663 1047 m -8 X s 1663
 1056 m -8 X s 1663 1065 m -8 X s 1671 1075 m -16 X s 1671 705 m -16 X s 1663 696 m -8 X s 1663 687 m -8 X s 1671 1075 m -16 X s 1663 1084 m -8 X s 1663 1093 m -8 X s 1663 1102 m -8 X s 1663 1112 m -8 X s
 gsave  711 567 1534 603 C 1631.16 696.229 t 0 r /Helvetica findfont 25.6631 sf 0 0 m (0) show NC gr 
 gsave  711 567 1534 603 C 1614.11 741.697 t 0 r /Helvetica findfont 25.6631 sf 0 0 m (0.1) show NC gr 
 gsave  711 567 1534 603 C 1611.27 787.165 t 0 r /Helvetica findfont 25.6631 sf 0 0 m (0.2) show NC gr 
 gsave  711 567 1534 603 C 1611.27 832.633 t 0 r /Helvetica findfont 25.6631 sf 0 0 m (0.3) show NC gr 
 gsave  711 567 1534 603 C 1611.27 880.943 t 0 r /Helvetica findfont 25.6631 sf 0 0 m (0.4) show NC gr 
 gsave  711 567 1534 603 C 1611.27 926.411 t 0 r /Helvetica findfont 25.6631 sf 0 0 m (0.5) show NC gr 
 gsave  711 567 1534 603 C 1611.27 971.879 t 0 r /Helvetica findfont 25.6631 sf 0 0 m (0.6) show NC gr 
 gsave  711 567 1534 603 C 1611.27 1017.35 t 0 r /Helvetica findfont 25.6631 sf 0 0 m (0.7) show NC gr 
 gsave  711 567 1534 603 C 1611.27 1065.66 t 0 r /Helvetica findfont 25.6631 sf 0 0 m (0.8) show NC gr 
 gsave  711 567 1534 603 C 1557.28 1037.24 t 90 r /Helvetica findfont 28.5146 sf 0 0 m (0.119 ) show NC gr 
 gsave  711 567 1534 603 C 1543.07 1034.4 t 90 r /Helvetica findfont 19.9602 sf 0 0 m ( ) show NC gr 
 gsave  711 567 1534 603 C 1557.28 1023.03 t 90 r /Helvetica findfont 28.5146 sf 0 0 m (/) show NC gr 
 gsave  711 567 1534 603 C 1565.8 1020.19 t 90 r /Helvetica findfont 19.9602 sf 0 0 m ( ) show NC gr 
 gsave  711 567 1534 603 C 1557.28 915.044 t 90 r /Helvetica findfont 28.5146 sf 0 0 m (\(1/N\) dN) show NC gr  2202 685 m 429 Y s 2186 705 m 16 X s 2194 714 m 8 X s 2194 724 m 8 X s 2194 733 m 8 X s 2194 742 m 8 X s 2186 751 m 16 X s 2194 760 m 8 X
 s 2194 770 m 8 X s 2194 779 m 8 X s 2194 788 m 8 X s 2186 797 m 16 X s 2194 807 m 8 X s 2194 816 m 8 X s 2194 825 m 8 X s 2194 834 m 8 X s 2186 844 m 16 X s 2194 853 m 8 X s 2194 862 m 8 X s 2194 871 m 8 X s 2194 881 m 8 X s 2186 890 m 16 X s 2194
 899 m 8 X s 2194 908 m 8 X s 2194 918 m 8 X s 2194 927 m 8 X s 2186 936 m 16 X s 2194 945 m 8 X s 2194 954 m 8 X s 2194 964 m 8 X s 2194 973 m 8 X s 2186 982 m 16 X s 2194 991 m 8 X s 2194 1001 m 8 X s 2194 1010 m 8 X s 2194 1019 m 8 X s 2186 1028 m
 16 X s 2194 1038 m 8 X s 2194 1047 m 8 X s 2194 1056 m 8 X s 2194 1065 m 8 X s 2186 1075 m 16 X s 2186 705 m 16 X s 2194 696 m 8 X s 2194 687 m 8 X s 2186 1075 m 16 X s 2194 1084 m 8 X s 2194 1093 m 8 X s 2194 1102 m 8 X s 2194 1112 m 8 X s 0.490196
 0.545098 0.615686 c 0.364706 0.419608 0.490196 c 366 38 1542 1130 bf 0.490196 0.545098 0.615686 c 1542 1130 m 366 X s 1908 1130 m 38 Y s 1908 1168 m -366 X s 1542 1168 m -38 Y s 1 1 1 c black 1 1 1 c
 gsave  711 567 1534 603 C 1545.91 1142.38 t 0 r /Helvetica-Bold findfont 28.5146 sf 0 0 m (Input variable: yybb.H1_l5) show NC gr  1 0 0 c 6 lw black 3 lw 1 0 0 c 2194 705 m s 2179 705 m s 2163 705 m s 2150 707 m -2 -2 d s 2135 707 m -1 -1 d s 2133
 705 m s 2119 706 m -1 -1 d s 2107 709 m -4 -4 d s 2094 711 m -6 -6 d s 2092 724 m -19 -19 d s 2074 721 m -16 -16 d s 2066 728 m -23 -23 d s 2063 741 m -35 -36 d s 2052 745 m -39 -40 d s 2052 760 m -14 -14 d s 2032 740 m -34 -35 d s 2050 773 m -12
 -12 d s 2025 747 m -42 -42 d s 2011 749 m -43 -44 d s 1998 750 m -46 -45 d s 1997 765 m -60 -60 d s 1997 781 m -75 -76 d s 1987 785 m -80 -80 d s 1984 797 m -92 -92 d s 1984 812 m -107 -107 d s 1984 827 m -122 -122 d s 1970 829 m -123 -124 d s 1970
 844 m -14 -14 d s 1943 817 m -111 -112 d s 1957 847 m -1 -2 d s 1943 832 m -126 -127 d s 1943 847 m -141 -142 d s 1943 862 m -156 -157 d s 1938 873 m -166 -168 d s 1929 879 m -173 -174 d s 1929 894 m -188 -189 d s 1918 898 m -192 -193 d s 1915 910 m
 -204 -205 d s 1915 926 m -14 -14 d s 1889 899 m -124 -125 d s 1763 772 m -53 -53 d s 1709 717 m -13 -12 d s 1910 936 m -9 -9 d s 1888 913 m -123 -124 d s 1740 765 m -3 -3 d s 1725 749 m -15 -15 d s 1681 705 m s 1885 926 m -120 -122 d s 1724 763 m
 -14 -14 d s 1668 707 m -2 -2 d s 1874 930 m -109 -110 d s 1720 775 m -10 -10 d s 1874 945 m -82 -83 d s 1787 857 m -22 -22 d s 1874 960 m -14 -14 d s 1857 942 m -65 -64 d s 1767 852 m -2 -2 d s 1874 975 m -14 -13 d s 1847 948 m -55 -55 d s 1871 987
 m -11 -10 d s 1847 963 m -28 -28 d s 1809 925 m -17 -17 d s 1847 978 m -28 -27 d s 1837 983 m -18 -17 d s 1833 995 m -14 -14 d s 1833 1010 m -14 -14 d s 1833 1025 m -14 -14 d s 1833 1040 m -14 -13 d s 1833 1056 m -14 -14 d s 1833 1071 m -14 -14 d s
 1824 1076 m -5 -4 d s 6 lw 1655 707 m 14 X -2 Y 14 X 1 Y 13 X 11 Y 14 X 58 Y 14 X -26 Y 13 X 16 Y 14 X 7 Y 14 X 80 Y 13 X 5 Y 14 X 66 Y 14 X 2 Y 13 X 151 Y 14 X -93 Y 14 X -41 Y 13 X 45 Y 14 X -61 Y 14 X -27 Y 13 X 37 Y 14 X -38 Y 14 X -25 Y 14 X
 -57 Y 13 X 31 Y 14 X -18 Y 14 X -44 Y 13 X -35 Y 14 X -2 Y 14 X -8 Y 13 X 33 Y 14 X -32 Y 14 X -20 Y 13 X 3 Y 14 X -13 Y 14 X -5 Y 13 X -1 Y 14 X 2 Y 27 X -2 Y 41 X s black 3 lw 1655 685 m 547 X s 1712 698 m -13 Y s 1723 691 m -6 Y s 1735 691 m -6 Y
 s 1746 691 m -6 Y s 1758 691 m -6 Y s 1769 698 m -13 Y s 1781 691 m -6 Y s 1792 691 m -6 Y s 1804 691 m -6 Y s 1815 691 m -6 Y s 1827 698 m -13 Y s 1839 691 m -6 Y s 1850 691 m -6 Y s 1862 691 m -6 Y s 1873 691 m -6 Y s 1885 698 m -13 Y s 1896 691 m
 -6 Y s 1908 691 m -6 Y s 1919 691 m -6 Y s 1931 691 m -6 Y s 1942 698 m -13 Y s 1954 691 m -6 Y s 1965 691 m -6 Y s 1977 691 m -6 Y s 1989 691 m -6 Y s 2000 698 m -13 Y s 2012 691 m -6 Y s 2023 691 m -6 Y s 2035 691 m -6 Y s 2046 691 m -6 Y s 2058
 698 m -13 Y s 2069 691 m -6 Y s 2081 691 m -6 Y s 2092 691 m -6 Y s 2104 691 m -6 Y s 2115 698 m -13 Y s 2127 691 m -6 Y s 2139 691 m -6 Y s 2150 691 m -6 Y s 2162 691 m -6 Y s 2173 698 m -13 Y s 1712 698 m -13 Y s 1700 691 m -6 Y s 1689 691 m -6 Y
 s 1677 691 m -6 Y s 1665 691 m -6 Y s 2173 698 m -13 Y s 2185 691 m -6 Y s 2196 691 m -6 Y s 1655 1114 m 547 X s 1712 1100 m 14 Y s 1723 1107 m 7 Y s 1735 1107 m 7 Y s 1746 1107 m 7 Y s 1758 1107 m 7 Y s 1769 1100 m 14 Y s 1781 1107 m 7 Y s 1792
 1107 m 7 Y s 1804 1107 m 7 Y s 1815 1107 m 7 Y s 1827 1100 m 14 Y s 1839 1107 m 7 Y s 1850 1107 m 7 Y s 1862 1107 m 7 Y s 1873 1107 m 7 Y s 1885 1100 m 14 Y s 1896 1107 m 7 Y s 1908 1107 m 7 Y s 1919 1107 m 7 Y s 1931 1107 m 7 Y s 1942 1100 m 14 Y s
 1954 1107 m 7 Y s 1965 1107 m 7 Y s 1977 1107 m 7 Y s 1989 1107 m 7 Y s 2000 1100 m 14 Y s 2012 1107 m 7 Y s 2023 1107 m 7 Y s 2035 1107 m 7 Y s 2046 1107 m 7 Y s 2058 1100 m 14 Y s 2069 1107 m 7 Y s 2081 1107 m 7 Y s 2092 1107 m 7 Y s 2104 1107 m 7
 Y s 2115 1100 m 14 Y s 2127 1107 m 7 Y s 2139 1107 m 7 Y s 2150 1107 m 7 Y s 2162 1107 m 7 Y s 2173 1100 m 14 Y s 1712 1100 m 14 Y s 1700 1107 m 7 Y s 1689 1107 m 7 Y s 1677 1107 m 7 Y s 1665 1107 m 7 Y s 2173 1100 m 14 Y s 2185 1107 m 7 Y s 2196
 1107 m 7 Y s 1655 685 m 429 Y s 1671 705 m -16 X s 1663 714 m -8 X s 1663 724 m -8 X s 1663 733 m -8 X s 1663 742 m -8 X s 1671 751 m -16 X s 1663 760 m -8 X s 1663 770 m -8 X s 1663 779 m -8 X s 1663 788 m -8 X s 1671 797 m -16 X s 1663 807 m -8 X
 s 1663 816 m -8 X s 1663 825 m -8 X s 1663 834 m -8 X s 1671 844 m -16 X s 1663 853 m -8 X s 1663 862 m -8 X s 1663 871 m -8 X s 1663 881 m -8 X s 1671 890 m -16 X s 1663 899 m -8 X s 1663 908 m -8 X s 1663 918 m -8 X s 1663 927 m -8 X s 1671 936 m
 -16 X s 1663 945 m -8 X s 1663 954 m -8 X s 1663 964 m -8 X s 1663 973 m -8 X s 1671 982 m -16 X s 1663 991 m -8 X s 1663 1001 m -8 X s 1663 1010 m -8 X s 1663 1019 m -8 X s 1671 1028 m -16 X s 1663 1038 m -8 X s 1663 1047 m -8 X s 1663 1056 m -8 X
 s 1663 1065 m -8 X s 1671 1075 m -16 X s 1671 705 m -16 X s 1663 696 m -8 X s 1663 687 m -8 X s 1671 1075 m -16 X s 1663 1084 m -8 X s 1663 1093 m -8 X s 1663 1102 m -8 X s 1663 1112 m -8 X s 2202 685 m 429 Y s 2186 705 m 16 X s 2194 714 m 8 X s
 2194 724 m 8 X s 2194 733 m 8 X s 2194 742 m 8 X s 2186 751 m 16 X s 2194 760 m 8 X s 2194 770 m 8 X s 2194 779 m 8 X s 2194 788 m 8 X s 2186 797 m 16 X s 2194 807 m 8 X s 2194 816 m 8 X s 2194 825 m 8 X s 2194 834 m 8 X s 2186 844 m 16 X s 2194 853
 m 8 X s 2194 862 m 8 X s 2194 871 m 8 X s 2194 881 m 8 X s 2186 890 m 16 X s 2194 899 m 8 X s 2194 908 m 8 X s 2194 918 m 8 X s 2194 927 m 8 X s 2186 936 m 16 X s 2194 945 m 8 X s 2194 954 m 8 X s 2194 964 m 8 X s 2194 973 m 8 X s 2186 982 m 16 X s
 2194 991 m 8 X s 2194 1001 m 8 X s 2194 1010 m 8 X s 2194 1019 m 8 X s 2186 1028 m 16 X s 2194 1038 m 8 X s 2194 1047 m 8 X s 2194 1056 m 8 X s 2194 1065 m 8 X s 2186 1075 m 16 X s 2186 705 m 16 X s 2194 696 m 8 X s 2194 687 m 8 X s 2186 1075 m 16 X
 s 2194 1084 m 8 X s 2194 1093 m 8 X s 2194 1102 m 8 X s 2194 1112 m 8 X s
 gsave  711 567 1534 603 C 2230.83 682.347 t 90 r /Helvetica-Bold findfont 19.9602 sf 0 0 m (U/O\255flow \(S,B\): \(0.0, 0.0\)% / \(0.0, 0.0\)%) show NC gr  0.490196 0.545098 0.615686 c 0.364706 0.419608 0.490196 c 366 38 1542 1130 bf 0.490196
 0.545098 0.615686 c 1542 1130 m 366 X s 1908 1130 m 38 Y s 1908 1168 m -366 X s 1542 1168 m -38 Y s 1 1 1 c black 1 1 1 c
 gsave  711 567 1534 603 C 1545.91 1142.38 t 0 r /Helvetica-Bold findfont 28.5146 sf 0 0 m (Input variable: yybb.H1_l5) show NC gr  0.490196 0.545098 0.615686 c 0.941176 0.941176 0.941176 c 710 567 23 12 bf black 1 1 0.992157 c 548 429 143 94 bf
 black 548 429 143 94 bl 0 0 0.933333 c 6 lw 0.49 0.6 0.82 c black 3 lw 0.49 0.6 0.82 c 143 130 m 357 Y 14 X -161 Y 14 X -52 Y 14 X 21 Y 13 X 4 Y 14 X -38 Y 14 X 22 Y 13 X -27 Y 14 X -37 Y 14 X 40 Y 13 X -36 Y 14 X -5 Y 14 X -8 Y 13 X 39 Y 14 X -14 Y
 14 X -7 Y 13 X 16 Y 14 X -18 Y 14 X -50 Y 13 X 37 Y 14 X 9 Y 14 X -17 Y 13 X 26 Y 14 X -36 Y 14 X 20 Y 13 X 4 Y 14 X 1 Y 14 X -106 Y 13 X 100 Y 14 X 5 Y 14 X -4 Y 13 X -31 Y 14 X 56 Y 14 X -16 Y 14 X -17 Y 13 X 14 Y 14 X -49 Y 14 X -19 Y 13 X -16 Y
 14 X -7 Y 14 X f 6 lw 0 0 0.933333 c 0.49 0.6 0.82 c 0 0 0.933333 c 143 487 m 14 X -161 Y 14 X -52 Y 14 X 21 Y 13 X 4 Y 14 X -38 Y 14 X 22 Y 13 X -27 Y 14 X -37 Y 14 X 40 Y 13 X -36 Y 14 X -5 Y 14 X -8 Y 13 X 39 Y 14 X -14 Y 14 X -7 Y 13 X 16 Y 14 X
 -18 Y 14 X -50 Y 13 X 37 Y 14 X 9 Y 14 X -17 Y 13 X 26 Y 14 X -36 Y 14 X 20 Y 13 X 4 Y 14 X 1 Y 14 X -106 Y 13 X 100 Y 14 X 5 Y 14 X -4 Y 13 X -31 Y 14 X 56 Y 14 X -16 Y 14 X -17 Y 13 X 14 Y 14 X -49 Y 14 X -19 Y 13 X -16 Y 14 X -7 Y 14 X s black 3
 lw 143 94 m 548 X s 197 107 m -13 Y s 210 100 m -6 Y s 224 100 m -6 Y s 237 100 m -6 Y s 250 107 m -13 Y s 264 100 m -6 Y s 277 100 m -6 Y s 290 100 m -6 Y s 304 107 m -13 Y s 317 100 m -6 Y s 330 100 m -6 Y s 344 100 m -6 Y s 357 107 m -13 Y s 370
 100 m -6 Y s 384 100 m -6 Y s 397 100 m -6 Y s 410 107 m -13 Y s 424 100 m -6 Y s 437 100 m -6 Y s 450 100 m -6 Y s 464 107 m -13 Y s 477 100 m -6 Y s 490 100 m -6 Y s 504 100 m -6 Y s 517 107 m -13 Y s 530 100 m -6 Y s 544 100 m -6 Y s 557 100 m -6
 Y s 571 107 m -13 Y s 584 100 m -6 Y s 597 100 m -6 Y s 611 100 m -6 Y s 624 107 m -13 Y s 637 100 m -6 Y s 651 100 m -6 Y s 664 100 m -6 Y s 677 107 m -13 Y s 197 107 m -13 Y s 183 100 m -6 Y s 170 100 m -6 Y s 157 100 m -6 Y s 677 107 m -13 Y s
 gsave  710 567 23 12 C 184.714 65.3603 t 0 r /Helvetica findfont 25.6631 sf 0 0 m (0.8) show NC gr 
 gsave  710 567 23 12 C 170.505 65.3603 t 0 r /Symbol findfont 25.6631 sf 0 0 m (-) show NC gr 
 gsave  710 567 23 12 C 238.707 65.3603 t 0 r /Helvetica findfont 25.6631 sf 0 0 m (0.6) show NC gr 
 gsave  710 567 23 12 C 224.498 65.3603 t 0 r /Symbol findfont 25.6631 sf 0 0 m (-) show NC gr 
 gsave  710 567 23 12 C 289.858 65.3603 t 0 r /Helvetica findfont 25.6631 sf 0 0 m (0.4) show NC gr 
 gsave  710 567 23 12 C 275.65 65.3603 t 0 r /Symbol findfont 25.6631 sf 0 0 m (-) show NC gr 
 gsave  710 567 23 12 C 343.852 65.3603 t 0 r /Helvetica findfont 25.6631 sf 0 0 m (0.2) show NC gr 
 gsave  710 567 23 12 C 329.643 65.3603 t 0 r /Symbol findfont 25.6631 sf 0 0 m (-) show NC gr 
 gsave  710 567 23 12 C 400.687 65.3603 t 0 r /Helvetica findfont 25.6631 sf 0 0 m (0) show NC gr 
 gsave  710 567 23 12 C 446.155 65.3603 t 0 r /Helvetica findfont 25.6631 sf 0 0 m (0.2) show NC gr 
 gsave  710 567 23 12 C 497.306 65.3603 t 0 r /Helvetica findfont 25.6631 sf 0 0 m (0.4) show NC gr 
 gsave  710 567 23 12 C 551.299 65.3603 t 0 r /Helvetica findfont 25.6631 sf 0 0 m (0.6) show NC gr 
 gsave  710 567 23 12 C 605.293 65.3603 t 0 r /Helvetica findfont 25.6631 sf 0 0 m (0.8) show NC gr 
 gsave  710 567 23 12 C 670.653 65.3603 t 0 r /Helvetica findfont 25.6631 sf 0 0 m (1) show NC gr 
 gsave  710 567 23 12 C 582.559 22.734 t 0 r /Helvetica findfont 28.5146 sf 0 0 m (hh.H1_l1) show NC gr  143 523 m 548 X s 197 509 m 14 Y s 210 516 m 7 Y s 224 516 m 7 Y s 237 516 m 7 Y s 250 509 m 14 Y s 264 516 m 7 Y s 277 516 m 7 Y s 290 516 m 7 Y
 s 304 509 m 14 Y s 317 516 m 7 Y s 330 516 m 7 Y s 344 516 m 7 Y s 357 509 m 14 Y s 370 516 m 7 Y s 384 516 m 7 Y s 397 516 m 7 Y s 410 509 m 14 Y s 424 516 m 7 Y s 437 516 m 7 Y s 450 516 m 7 Y s 464 509 m 14 Y s 477 516 m 7 Y s 490 516 m 7 Y s 504
 516 m 7 Y s 517 509 m 14 Y s 530 516 m 7 Y s 544 516 m 7 Y s 557 516 m 7 Y s 571 509 m 14 Y s 584 516 m 7 Y s 597 516 m 7 Y s 611 516 m 7 Y s 624 509 m 14 Y s 637 516 m 7 Y s 651 516 m 7 Y s 664 516 m 7 Y s 677 509 m 14 Y s 197 509 m 14 Y s 183 516
 m 7 Y s 170 516 m 7 Y s 157 516 m 7 Y s 677 509 m 14 Y s 143 94 m 429 Y s 160 130 m -17 X s 152 140 m -9 X s 152 150 m -9 X s 152 160 m -9 X s 160 170 m -17 X s 152 180 m -9 X s 152 190 m -9 X s 152 200 m -9 X s 160 210 m -17 X s 152 220 m -9 X s
 152 230 m -9 X s 152 240 m -9 X s 160 250 m -17 X s 152 260 m -9 X s 152 270 m -9 X s 152 280 m -9 X s 160 290 m -17 X s 152 300 m -9 X s 152 310 m -9 X s 152 320 m -9 X s 160 330 m -17 X s 152 340 m -9 X s 152 350 m -9 X s 152 360 m -9 X s 160 370
 m -17 X s 152 380 m -9 X s 152 390 m -9 X s 152 400 m -9 X s 160 410 m -17 X s 152 420 m -9 X s 152 430 m -9 X s 152 440 m -9 X s 160 450 m -17 X s 152 460 m -9 X s 152 470 m -9 X s 152 480 m -9 X s 160 490 m -17 X s 160 130 m -17 X s 152 120 m -9 X
 s 152 110 m -9 X s 152 100 m -9 X s 160 490 m -17 X s 152 500 m -9 X s 152 510 m -9 X s 152 520 m -9 X s
 gsave  710 567 23 12 C 119.354 119.354 t 0 r /Helvetica findfont 25.6631 sf 0 0 m (0) show NC gr 
 gsave  710 567 23 12 C 99.4613 159.138 t 0 r /Helvetica findfont 25.6631 sf 0 0 m (0.2) show NC gr 
 gsave  710 567 23 12 C 99.4613 201.764 t 0 r /Helvetica findfont 25.6631 sf 0 0 m (0.4) show NC gr 
 gsave  710 567 23 12 C 99.4613 241.549 t 0 r /Helvetica findfont 25.6631 sf 0 0 m (0.6) show NC gr 
 gsave  710 567 23 12 C 99.4613 281.333 t 0 r /Helvetica findfont 25.6631 sf 0 0 m (0.8) show NC gr 
 gsave  710 567 23 12 C 122.195 321.118 t 0 r /Helvetica findfont 25.6631 sf 0 0 m (1) show NC gr 
 gsave  710 567 23 12 C 99.4613 360.902 t 0 r /Helvetica findfont 25.6631 sf 0 0 m (1.2) show NC gr 
 gsave  710 567 23 12 C 99.4613 400.687 t 0 r /Helvetica findfont 25.6631 sf 0 0 m (1.4) show NC gr 
 gsave  710 567 23 12 C 99.4613 440.471 t 0 r /Helvetica findfont 25.6631 sf 0 0 m (1.6) show NC gr 
 gsave  710 567 23 12 C 99.4613 480.256 t 0 r /Helvetica findfont 25.6631 sf 0 0 m (1.8) show NC gr 
 gsave  710 567 23 12 C 45.468 431.946 t 90 r /Helvetica findfont 28.5146 sf 0 0 m (0.0512 ) show NC gr 
 gsave  710 567 23 12 C 31.2593 429.104 t 90 r /Helvetica findfont 19.9602 sf 0 0 m ( ) show NC gr 
 gsave  710 567 23 12 C 45.468 417.737 t 90 r /Helvetica findfont 28.5146 sf 0 0 m (/) show NC gr 
 gsave  710 567 23 12 C 53.9933 414.896 t 90 r /Helvetica findfont 19.9602 sf 0 0 m ( ) show NC gr 
 gsave  710 567 23 12 C 45.468 309.751 t 90 r /Helvetica findfont 28.5146 sf 0 0 m (\(1/N\) dN) show NC gr  691 94 m 429 Y s 674 130 m 17 X s 683 140 m 8 X s 683 150 m 8 X s 683 160 m 8 X s 674 170 m 17 X s 683 180 m 8 X s 683 190 m 8 X s 683 200 m 8
 X s 674 210 m 17 X s 683 220 m 8 X s 683 230 m 8 X s 683 240 m 8 X s 674 250 m 17 X s 683 260 m 8 X s 683 270 m 8 X s 683 280 m 8 X s 674 290 m 17 X s 683 300 m 8 X s 683 310 m 8 X s 683 320 m 8 X s 674 330 m 17 X s 683 340 m 8 X s 683 350 m 8 X s
 683 360 m 8 X s 674 370 m 17 X s 683 380 m 8 X s 683 390 m 8 X s 683 400 m 8 X s 674 410 m 17 X s 683 420 m 8 X s 683 430 m 8 X s 683 440 m 8 X s 674 450 m 17 X s 683 460 m 8 X s 683 470 m 8 X s 683 480 m 8 X s 674 490 m 17 X s 674 130 m 17 X s 683
 120 m 8 X s 683 110 m 8 X s 683 100 m 8 X s 674 490 m 17 X s 683 500 m 8 X s 683 510 m 8 X s 683 520 m 8 X s 0.490196 0.545098 0.615686 c 0.364706 0.419608 0.490196 c 329 37 30 539 bf 0.490196 0.545098 0.615686 c 30 539 m 329 X s 359 539 m 37 Y s
 359 576 m -329 X s 30 576 m -37 Y s 1 1 1 c black 1 1 1 c
 gsave  710 567 23 12 C 34.101 551.299 t 0 r /Helvetica-Bold findfont 28.5146 sf 0 0 m (Input variable: hh.H1_l1) show NC gr  1 0 0 c 6 lw black 3 lw 1 0 0 c 686 134 m -3 -4 d s 677 139 m -9 -9 d s 677 155 m -24 -25 d s 677 170 m -39 -40 d s 677 185
 m -54 -55 d s 677 200 m -69 -70 d s 677 215 m -84 -85 d s 677 231 m -99 -101 d s 677 246 m -115 -116 d s 677 261 m -130 -131 d s 677 276 m -145 -146 d s 677 291 m -160 -161 d s 677 306 m -82 -82 d s 583 212 m -2 -2 d s 568 197 m -66 -67 d s 677 322
 m -82 -83 d s 567 211 m -80 -81 d s 677 337 m -82 -83 d s 558 217 m -86 -87 d s 677 352 m -41 -41 d s 623 297 m -1 X s 618 293 m -23 -24 d s 554 228 m -97 -98 d s 677 367 m -41 -41 d s 595 285 m -1 Y s 554 243 m -14 -14 d s 514 203 m -15 -15 d s 491
 180 m -49 -50 d s 677 382 m -41 -41 d s 554 258 m -14 -13 d s 500 204 m -1 -1 d s 479 183 m -21 -21 d s 456 160 m -29 -30 d s 677 398 m -41 -42 d s 554 274 m -14 -14 d s 472 191 m -14 -14 d s 444 163 m -32 -33 d s 677 413 m -27 -28 d s 639 374 m -3
 -3 d s 472 206 m -14 -14 d s 432 166 m -35 -36 d s 677 428 m -14 -14 d s 659 410 m -9 -10 d s 472 221 m -14 -14 d s 423 172 m -41 -42 d s 677 443 m -14 -14 d s 465 230 m -7 -7 d s 417 181 m -50 -51 d s 677 458 m -14 -14 d s 417 196 m -66 -66 d s 674
 471 m -11 -11 d s 417 212 m -27 -28 d s 387 182 m -11 -12 d s 362 157 m -26 -27 d s 405 215 m -15 -16 d s 362 172 m -41 -42 d s 394 219 m -4 -5 d s 362 187 m -27 -28 d s 330 155 m -24 -25 d s 362 202 m -27 -27 d s 321 161 m -30 -31 d s 362 217 m -27
 -27 d s 321 176 m -45 -46 d s 350 220 m -15 -15 d s 321 191 m -13 -14 d s 296 166 m -35 -36 d s 338 223 m -3 -3 d s 321 206 m -13 -13 d s 294 179 m -48 -49 d s 321 222 m -13 -14 d s 294 194 m -63 -64 d s 321 237 m -13 -14 d s 289 205 m -73 -75 d s
 312 243 m -4 -5 d s 280 210 m -13 -13 d s 265 195 m -64 -65 d s 253 198 m -14 -14 d s 227 172 m -41 -42 d s 244 205 m -5 -5 d s 226 186 m -55 -56 d s 226 201 m -70 -71 d s 226 216 m -14 -14 d s 211 202 m -68 -69 d s 226 231 m -14 -13 d s 195 201 m
 -52 -52 d s 225 246 m -13 -13 d s 185 205 m -42 -41 d s 185 220 m -42 -41 d s 185 236 m -14 -14 d s 163 214 m -20 -20 d s 171 237 m s 157 223 m -14 -14 d s 157 238 m -14 -13 d s 157 254 m -14 -14 d s 157 269 m -14 -14 d s 157 284 m -14 -14 d s 157
 299 m -14 -14 d s 157 314 m -14 -13 d s 157 329 m -14 -13 d s 157 345 m -14 -14 d s 157 360 m -14 -14 d s 157 375 m -14 -14 d s 147 380 m -4 -4 d s 6 lw 143 380 m 14 X -166 Y 14 X 23 Y 14 X -36 Y 13 X 1 Y 14 X 44 Y 14 X -74 Y 13 X 33 Y 14 X -10 Y 14
 X 15 Y 13 X -5 Y 14 X -39 Y 14 X 77 Y 13 X -88 Y 14 X 68 Y 14 X -3 Y 13 X -65 Y 14 X 27 Y 14 X 37 Y 13 X -4 Y 14 X -43 Y 14 X -6 Y 13 X -6 Y 14 X 70 Y 14 X -47 Y 13 X -3 Y 14 X 24 Y 14 X -1 Y 13 X 12 Y 14 X 59 Y 14 X -57 Y 13 X -20 Y 14 X 15 Y 14 X
 73 Y 14 X 8 Y 13 X 4 Y 14 X 77 Y 14 X 36 Y 13 X 61 Y 14 X -337 Y 14 X s black 3 lw 143 94 m 548 X s 197 107 m -13 Y s 210 100 m -6 Y s 224 100 m -6 Y s 237 100 m -6 Y s 250 107 m -13 Y s 264 100 m -6 Y s 277 100 m -6 Y s 290 100 m -6 Y s 304 107 m
 -13 Y s 317 100 m -6 Y s 330 100 m -6 Y s 344 100 m -6 Y s 357 107 m -13 Y s 370 100 m -6 Y s 384 100 m -6 Y s 397 100 m -6 Y s 410 107 m -13 Y s 424 100 m -6 Y s 437 100 m -6 Y s 450 100 m -6 Y s 464 107 m -13 Y s 477 100 m -6 Y s 490 100 m -6 Y s
 504 100 m -6 Y s 517 107 m -13 Y s 530 100 m -6 Y s 544 100 m -6 Y s 557 100 m -6 Y s 571 107 m -13 Y s 584 100 m -6 Y s 597 100 m -6 Y s 611 100 m -6 Y s 624 107 m -13 Y s 637 100 m -6 Y s 651 100 m -6 Y s 664 100 m -6 Y s 677 107 m -13 Y s 197 107
 m -13 Y s 183 100 m -6 Y s 170 100 m -6 Y s 157 100 m -6 Y s 677 107 m -13 Y s 143 523 m 548 X s 197 509 m 14 Y s 210 516 m 7 Y s 224 516 m 7 Y s 237 516 m 7 Y s 250 509 m 14 Y s 264 516 m 7 Y s 277 516 m 7 Y s 290 516 m 7 Y s 304 509 m 14 Y s 317
 516 m 7 Y s 330 516 m 7 Y s 344 516 m 7 Y s 357 509 m 14 Y s 370 516 m 7 Y s 384 516 m 7 Y s 397 516 m 7 Y s 410 509 m 14 Y s 424 516 m 7 Y s 437 516 m 7 Y s 450 516 m 7 Y s 464 509 m 14 Y s 477 516 m 7 Y s 490 516 m 7 Y s 504 516 m 7 Y s 517 509 m
 14 Y s 530 516 m 7 Y s 544 516 m 7 Y s 557 516 m 7 Y s 571 509 m 14 Y s 584 516 m 7 Y s 597 516 m 7 Y s 611 516 m 7 Y s 624 509 m 14 Y s 637 516 m 7 Y s 651 516 m 7 Y s 664 516 m 7 Y s 677 509 m 14 Y s 197 509 m 14 Y s 183 516 m 7 Y s 170 516 m 7 Y
 s 157 516 m 7 Y s 677 509 m 14 Y s 143 94 m 429 Y s 160 130 m -17 X s 152 140 m -9 X s 152 150 m -9 X s 152 160 m -9 X s 160 170 m -17 X s 152 180 m -9 X s 152 190 m -9 X s 152 200 m -9 X s 160 210 m -17 X s 152 220 m -9 X s 152 230 m -9 X s 152 240
 m -9 X s 160 250 m -17 X s 152 260 m -9 X s 152 270 m -9 X s 152 280 m -9 X s 160 290 m -17 X s 152 300 m -9 X s 152 310 m -9 X s 152 320 m -9 X s 160 330 m -17 X s 152 340 m -9 X s 152 350 m -9 X s 152 360 m -9 X s 160 370 m -17 X s 152 380 m -9 X
 s 152 390 m -9 X s 152 400 m -9 X s 160 410 m -17 X s 152 420 m -9 X s 152 430 m -9 X s 152 440 m -9 X s 160 450 m -17 X s 152 460 m -9 X s 152 470 m -9 X s 152 480 m -9 X s 160 490 m -17 X s 160 130 m -17 X s 152 120 m -9 X s 152 110 m -9 X s 152
 100 m -9 X s 160 490 m -17 X s 152 500 m -9 X s 152 510 m -9 X s 152 520 m -9 X s 691 94 m 429 Y s 674 130 m 17 X s 683 140 m 8 X s 683 150 m 8 X s 683 160 m 8 X s 674 170 m 17 X s 683 180 m 8 X s 683 190 m 8 X s 683 200 m 8 X s 674 210 m 17 X s 683
 220 m 8 X s 683 230 m 8 X s 683 240 m 8 X s 674 250 m 17 X s 683 260 m 8 X s 683 270 m 8 X s 683 280 m 8 X s 674 290 m 17 X s 683 300 m 8 X s 683 310 m 8 X s 683 320 m 8 X s 674 330 m 17 X s 683 340 m 8 X s 683 350 m 8 X s 683 360 m 8 X s 674 370 m
 17 X s 683 380 m 8 X s 683 390 m 8 X s 683 400 m 8 X s 674 410 m 17 X s 683 420 m 8 X s 683 430 m 8 X s 683 440 m 8 X s 674 450 m 17 X s 683 460 m 8 X s 683 470 m 8 X s 683 480 m 8 X s 674 490 m 17 X s 674 130 m 17 X s 683 120 m 8 X s 683 110 m 8 X
 s 683 100 m 8 X s 674 490 m 17 X s 683 500 m 8 X s 683 510 m 8 X s 683 520 m 8 X s
 gsave  710 567 23 12 C 719.017 91.2634 t 90 r /Helvetica-Bold findfont 19.9602 sf 0 0 m (U/O\255flow \(S,B\): \(0.0, 0.0\)% / \(0.0, 0.0\)%) show NC gr  0.490196 0.545098 0.615686 c 0.364706 0.419608 0.490196 c 329 37 30 539 bf 0.490196 0.545098
 0.615686 c 30 539 m 329 X s 359 539 m 37 Y s 359 576 m -329 X s 30 576 m -37 Y s 1 1 1 c black 1 1 1 c
 gsave  710 567 23 12 C 34.101 551.299 t 0 r /Helvetica-Bold findfont 28.5146 sf 0 0 m (Input variable: hh.H1_l1) show NC gr  0.490196 0.545098 0.615686 c 0.941176 0.941176 0.941176 c 710 567 779 12 bf black 1 1 0.992157 c 548 429 899 94 bf black 548
 429 899 94 bl 0 0 0.933333 c 6 lw 0.49 0.6 0.82 c black 3 lw 0.49 0.6 0.82 c 899 94 m 390 Y 14 X -212 Y 14 X -42 Y 13 X -25 Y 28 X -28 Y 13 X -68 Y 14 X 62 Y 14 X -15 Y 13 X 14 Y 14 X -1 Y 14 X -7 Y 14 X -22 Y 13 X 14 Y 14 X 5 Y 14 X -21 Y 13 X 19 Y
 14 X 24 Y 14 X -23 Y 13 X 1 Y 14 X -15 Y 14 X 14 Y 13 X 10 Y 14 X -19 Y 14 X -40 Y 13 X 74 Y 14 X -33 Y 14 X 1 Y 13 X -4 Y 14 X -32 Y 14 X 16 Y 27 X 9 Y 14 X -2 Y 13 X 5 Y 28 X 18 Y 13 X 10 Y 14 X -5 Y 14 X -64 Y 14 X -8 Y f 6 lw 0 0 0.933333 c 0.49
 0.6 0.82 c 0 0 0.933333 c 899 484 m 14 X -212 Y 14 X -42 Y 13 X -25 Y 28 X -28 Y 13 X -68 Y 14 X 62 Y 14 X -15 Y 13 X 14 Y 14 X -1 Y 14 X -7 Y 14 X -22 Y 13 X 14 Y 14 X 5 Y 14 X -21 Y 13 X 19 Y 14 X 24 Y 14 X -23 Y 13 X 1 Y 14 X -15 Y 14 X 14 Y 13 X
 10 Y 14 X -19 Y 14 X -40 Y 13 X 74 Y 14 X -33 Y 14 X 1 Y 13 X -4 Y 14 X -32 Y 14 X 16 Y 27 X 9 Y 14 X -2 Y 13 X 5 Y 28 X 18 Y 13 X 10 Y 14 X -5 Y 14 X -64 Y 14 X s black 3 lw 899 94 m 548 X s 935 107 m -13 Y s 953 100 m -6 Y s 971 100 m -6 Y s 988
 100 m -6 Y s 1006 107 m -13 Y s 1024 100 m -6 Y s 1042 100 m -6 Y s 1060 100 m -6 Y s 1077 107 m -13 Y s 1095 100 m -6 Y s 1113 100 m -6 Y s 1131 100 m -6 Y s 1148 107 m -13 Y s 1166 100 m -6 Y s 1184 100 m -6 Y s 1202 100 m -6 Y s 1220 107 m -13 Y
 s 1237 100 m -6 Y s 1255 100 m -6 Y s 1273 100 m -6 Y s 1291 107 m -13 Y s 1309 100 m -6 Y s 1326 100 m -6 Y s 1344 100 m -6 Y s 1362 107 m -13 Y s 1380 100 m -6 Y s 1398 100 m -6 Y s 1415 100 m -6 Y s 1433 107 m -13 Y s 935 107 m -13 Y s 917 100 m
 -6 Y s 1433 107 m -13 Y s
 gsave  710 567 779 12 C 923.569 65.3603 t 0 r /Helvetica findfont 25.6631 sf 0 0 m (0.4) show NC gr 
 gsave  710 567 779 12 C 909.36 65.3603 t 0 r /Symbol findfont 25.6631 sf 0 0 m (-) show NC gr 
 gsave  710 567 779 12 C 994.612 65.3603 t 0 r /Helvetica findfont 25.6631 sf 0 0 m (0.2) show NC gr 
 gsave  710 567 779 12 C 980.404 65.3603 t 0 r /Symbol findfont 25.6631 sf 0 0 m (-) show NC gr 
 gsave  710 567 779 12 C 1068.5 65.3603 t 0 r /Helvetica findfont 25.6631 sf 0 0 m (0) show NC gr 
 gsave  710 567 779 12 C 1131.02 65.3603 t 0 r /Helvetica findfont 25.6631 sf 0 0 m (0.2) show NC gr 
 gsave  710 567 779 12 C 1202.06 65.3603 t 0 r /Helvetica findfont 25.6631 sf 0 0 m (0.4) show NC gr 
 gsave  710 567 779 12 C 1273.1 65.3603 t 0 r /Helvetica findfont 25.6631 sf 0 0 m (0.6) show NC gr 
 gsave  710 567 779 12 C 1344.15 65.3603 t 0 r /Helvetica findfont 25.6631 sf 0 0 m (0.8) show NC gr 
 gsave  710 567 779 12 C 1426.56 65.3603 t 0 r /Helvetica findfont 25.6631 sf 0 0 m (1) show NC gr 
 gsave  710 567 779 12 C 1335.62 22.734 t 0 r /Helvetica findfont 28.5146 sf 0 0 m (hh.H1_l2) show NC gr  899 523 m 548 X s 935 509 m 14 Y s 953 516 m 7 Y s 971 516 m 7 Y s 988 516 m 7 Y s 1006 509 m 14 Y s 1024 516 m 7 Y s 1042 516 m 7 Y s 1060 516
 m 7 Y s 1077 509 m 14 Y s 1095 516 m 7 Y s 1113 516 m 7 Y s 1131 516 m 7 Y s 1148 509 m 14 Y s 1166 516 m 7 Y s 1184 516 m 7 Y s 1202 516 m 7 Y s 1220 509 m 14 Y s 1237 516 m 7 Y s 1255 516 m 7 Y s 1273 516 m 7 Y s 1291 509 m 14 Y s 1309 516 m 7 Y s
 1326 516 m 7 Y s 1344 516 m 7 Y s 1362 509 m 14 Y s 1380 516 m 7 Y s 1398 516 m 7 Y s 1415 516 m 7 Y s 1433 509 m 14 Y s 935 509 m 14 Y s 917 516 m 7 Y s 1433 509 m 14 Y s 899 94 m 429 Y s 915 94 m -16 X s 907 105 m -8 X s 907 116 m -8 X s 907 127 m
 -8 X s 907 138 m -8 X s 915 149 m -16 X s 907 161 m -8 X s 907 172 m -8 X s 907 183 m -8 X s 907 194 m -8 X s 915 205 m -16 X s 907 217 m -8 X s 907 228 m -8 X s 907 239 m -8 X s 907 250 m -8 X s 915 261 m -16 X s 907 273 m -8 X s 907 284 m -8 X s
 907 295 m -8 X s 907 306 m -8 X s 915 317 m -16 X s 907 329 m -8 X s 907 340 m -8 X s 907 351 m -8 X s 907 362 m -8 X s 915 373 m -16 X s 907 384 m -8 X s 907 396 m -8 X s 907 407 m -8 X s 907 418 m -8 X s 915 429 m -16 X s 907 440 m -8 X s 907 452
 m -8 X s 907 463 m -8 X s 907 474 m -8 X s 915 485 m -16 X s 915 485 m -16 X s 907 496 m -8 X s 907 508 m -8 X s 907 519 m -8 X s
 gsave  710 567 779 12 C 875.259 82.4108 t 0 r /Helvetica findfont 25.6631 sf 0 0 m (0) show NC gr 
 gsave  710 567 779 12 C 855.367 139.246 t 0 r /Helvetica findfont 25.6631 sf 0 0 m (0.5) show NC gr 
 gsave  710 567 779 12 C 878.101 196.081 t 0 r /Helvetica findfont 25.6631 sf 0 0 m (1) show NC gr 
 gsave  710 567 779 12 C 855.367 250.074 t 0 r /Helvetica findfont 25.6631 sf 0 0 m (1.5) show NC gr 
 gsave  710 567 779 12 C 875.259 306.909 t 0 r /Helvetica findfont 25.6631 sf 0 0 m (2) show NC gr 
 gsave  710 567 779 12 C 855.367 363.744 t 0 r /Helvetica findfont 25.6631 sf 0 0 m (2.5) show NC gr 
 gsave  710 567 779 12 C 875.259 420.579 t 0 r /Helvetica findfont 25.6631 sf 0 0 m (3) show NC gr 
 gsave  710 567 779 12 C 855.367 474.572 t 0 r /Helvetica findfont 25.6631 sf 0 0 m (3.5) show NC gr 
 gsave  710 567 779 12 C 801.374 431.946 t 90 r /Helvetica findfont 28.5146 sf 0 0 m (0.0384 ) show NC gr 
 gsave  710 567 779 12 C 787.165 429.104 t 90 r /Helvetica findfont 19.9602 sf 0 0 m ( ) show NC gr 
 gsave  710 567 779 12 C 801.374 417.737 t 90 r /Helvetica findfont 28.5146 sf 0 0 m (/) show NC gr 
 gsave  710 567 779 12 C 809.899 414.896 t 90 r /Helvetica findfont 19.9602 sf 0 0 m ( ) show NC gr 
 gsave  710 567 779 12 C 801.374 309.751 t 90 r /Helvetica findfont 28.5146 sf 0 0 m (\(1/N\) dN) show NC gr  1447 94 m 429 Y s 1430 94 m 17 X s 1438 105 m 9 X s 1438 116 m 9 X s 1438 127 m 9 X s 1438 138 m 9 X s 1430 149 m 17 X s 1438 161 m 9 X s
 1438 172 m 9 X s 1438 183 m 9 X s 1438 194 m 9 X s 1430 205 m 17 X s 1438 217 m 9 X s 1438 228 m 9 X s 1438 239 m 9 X s 1438 250 m 9 X s 1430 261 m 17 X s 1438 273 m 9 X s 1438 284 m 9 X s 1438 295 m 9 X s 1438 306 m 9 X s 1430 317 m 17 X s 1438 329
 m 9 X s 1438 340 m 9 X s 1438 351 m 9 X s 1438 362 m 9 X s 1430 373 m 17 X s 1438 384 m 9 X s 1438 396 m 9 X s 1438 407 m 9 X s 1438 418 m 9 X s 1430 429 m 17 X s 1438 440 m 9 X s 1438 452 m 9 X s 1438 463 m 9 X s 1438 474 m 9 X s 1430 485 m 17 X s
 1430 485 m 17 X s 1438 496 m 9 X s 1438 508 m 9 X s 1438 519 m 9 X s 0.490196 0.545098 0.615686 c 0.364706 0.419608 0.490196 c 335 37 786 539 bf 0.490196 0.545098 0.615686 c 786 539 m 335 X s 1121 539 m 37 Y s 1121 576 m -335 X s 786 576 m -37 Y s 1
 1 1 c black 1 1 1 c
 gsave  710 567 779 12 C 790.007 551.299 t 0 r /Helvetica-Bold findfont 28.5146 sf 0 0 m (Input variable: hh.H1_l2) show NC gr  1 0 0 c 6 lw black 3 lw 1 0 0 c 1433 94 m -1 X s 1433 109 m -16 -15 d s 1433 124 m -31 -30 d s 1433 139 m -46 -45 d s 1433
 155 m -61 -61 d s 1433 170 m -76 -76 d s 1433 185 m -91 -91 d s 1433 200 m -106 -106 d s 1433 215 m -28 -27 d s 1399 182 m -87 -88 d s 1433 231 m -14 -14 d s 1407 205 m -2 -2 d s 1392 189 m -14 -14 d s 1378 175 m -81 -81 d s 1428 241 m -9 -9 d s
 1356 168 m -74 -74 d s 1328 155 m -61 -61 d s 1313 155 m -61 -61 d s 1310 167 m -73 -73 d s 1310 182 m -14 -13 d s 1283 155 m -1 X s 1281 154 m -60 -60 d s 1310 198 m -14 -14 d s 1269 156 m -14 -13 d s 1247 135 m -41 -41 d s 1266 169 m -11 -11 d s
 1240 142 m -49 -48 d s 1228 145 m -52 -51 d s 1228 161 m -67 -67 d s 1217 165 m -3 -3 d s 1209 157 m -9 -9 d s 1199 147 m -12 -13 d s 1178 125 m -32 -31 d s 1173 136 m -42 -42 d s 1171 149 m -55 -55 d s 1159 152 m -13 -13 d s 1134 127 m -33 -33 d s
 1159 168 m -13 -14 d s 1129 137 m -43 -43 d s 1152 175 m -6 -6 d s 1111 134 m -40 -40 d s 1105 143 m -14 -14 d s 1080 118 m -24 -24 d s 1092 145 m -1 -1 d s 1077 130 m -36 -36 d s 1077 146 m -51 -52 d s 1064 147 m -54 -53 d s 1062 161 m -67 -67 d s
 1050 164 m -70 -70 d s 1036 165 m -14 -14 d s 1017 146 m -52 -52 d s 1031 175 m -9 -9 d s 1009 153 m -59 -59 d s 1009 168 m -14 -14 d s 994 153 m -59 -59 d s 999 173 m -4 -4 d s 981 155 m -61 -61 d s 981 171 m -76 -77 d s 970 174 m -2 -2 d s 965 169
 m -66 -66 d s 954 173 m -55 -55 d s 940 175 m -41 -42 d s 936 186 m -37 -37 d s 927 191 m -28 -27 d s 927 207 m -28 -28 d s 927 222 m -28 -28 d s 917 227 m -18 -18 d s 913 238 m -14 -13 d s 913 254 m -14 -14 d s 913 269 m -14 -14 d s 913 284 m -14
 -14 d s 913 299 m -14 -14 d s 913 314 m -14 -13 d s 913 329 m -14 -13 d s 911 342 m -12 -11 d s 6 lw 899 342 m 14 X -115 Y 14 X -41 Y 13 X -12 Y 14 X -5 Y 14 X 5 Y 13 X -21 Y 14 X 20 Y 14 X -27 Y 13 X 29 Y 14 X -10 Y 14 X -4 Y 14 X -15 Y 13 X -28 Y
 14 X 27 Y 14 X -11 Y 13 X 3 Y 14 X -10 Y 14 X 48 Y 13 X -26 Y 14 X -24 Y 14 X 22 Y 13 X 10 Y 14 X 8 Y 14 X -23 Y 13 X -7 Y 14 X 34 Y 14 X -15 Y 13 X 1 Y 14 X 43 Y 14 X -43 Y 27 X 8 Y 14 X 5 Y 13 X 7 Y 14 X 15 Y 14 X -8 Y 13 X 23 Y 14 X 36 Y 14 X
 -147 Y 14 X s black 3 lw 899 94 m 548 X s 935 107 m -13 Y s 953 100 m -6 Y s 971 100 m -6 Y s 988 100 m -6 Y s 1006 107 m -13 Y s 1024 100 m -6 Y s 1042 100 m -6 Y s 1060 100 m -6 Y s 1077 107 m -13 Y s 1095 100 m -6 Y s 1113 100 m -6 Y s 1131 100 m
 -6 Y s 1148 107 m -13 Y s 1166 100 m -6 Y s 1184 100 m -6 Y s 1202 100 m -6 Y s 1220 107 m -13 Y s 1237 100 m -6 Y s 1255 100 m -6 Y s 1273 100 m -6 Y s 1291 107 m -13 Y s 1309 100 m -6 Y s 1326 100 m -6 Y s 1344 100 m -6 Y s 1362 107 m -13 Y s 1380
 100 m -6 Y s 1398 100 m -6 Y s 1415 100 m -6 Y s 1433 107 m -13 Y s 935 107 m -13 Y s 917 100 m -6 Y s 1433 107 m -13 Y s 899 523 m 548 X s 935 509 m 14 Y s 953 516 m 7 Y s 971 516 m 7 Y s 988 516 m 7 Y s 1006 509 m 14 Y s 1024 516 m 7 Y s 1042 516
 m 7 Y s 1060 516 m 7 Y s 1077 509 m 14 Y s 1095 516 m 7 Y s 1113 516 m 7 Y s 1131 516 m 7 Y s 1148 509 m 14 Y s 1166 516 m 7 Y s 1184 516 m 7 Y s 1202 516 m 7 Y s 1220 509 m 14 Y s 1237 516 m 7 Y s 1255 516 m 7 Y s 1273 516 m 7 Y s 1291 509 m 14 Y s
 1309 516 m 7 Y s 1326 516 m 7 Y s 1344 516 m 7 Y s 1362 509 m 14 Y s 1380 516 m 7 Y s 1398 516 m 7 Y s 1415 516 m 7 Y s 1433 509 m 14 Y s 935 509 m 14 Y s 917 516 m 7 Y s 1433 509 m 14 Y s 899 94 m 429 Y s 915 94 m -16 X s 907 105 m -8 X s 907 116 m
 -8 X s 907 127 m -8 X s 907 138 m -8 X s 915 149 m -16 X s 907 161 m -8 X s 907 172 m -8 X s 907 183 m -8 X s 907 194 m -8 X s 915 205 m -16 X s 907 217 m -8 X s 907 228 m -8 X s 907 239 m -8 X s 907 250 m -8 X s 915 261 m -16 X s 907 273 m -8 X s
 907 284 m -8 X s 907 295 m -8 X s 907 306 m -8 X s 915 317 m -16 X s 907 329 m -8 X s 907 340 m -8 X s 907 351 m -8 X s 907 362 m -8 X s 915 373 m -16 X s 907 384 m -8 X s 907 396 m -8 X s 907 407 m -8 X s 907 418 m -8 X s 915 429 m -16 X s 907 440
 m -8 X s 907 452 m -8 X s 907 463 m -8 X s 907 474 m -8 X s 915 485 m -16 X s 915 485 m -16 X s 907 496 m -8 X s 907 508 m -8 X s 907 519 m -8 X s 1447 94 m 429 Y s 1430 94 m 17 X s 1438 105 m 9 X s 1438 116 m 9 X s 1438 127 m 9 X s 1438 138 m 9 X s
 1430 149 m 17 X s 1438 161 m 9 X s 1438 172 m 9 X s 1438 183 m 9 X s 1438 194 m 9 X s 1430 205 m 17 X s 1438 217 m 9 X s 1438 228 m 9 X s 1438 239 m 9 X s 1438 250 m 9 X s 1430 261 m 17 X s 1438 273 m 9 X s 1438 284 m 9 X s 1438 295 m 9 X s 1438 306
 m 9 X s 1430 317 m 17 X s 1438 329 m 9 X s 1438 340 m 9 X s 1438 351 m 9 X s 1438 362 m 9 X s 1430 373 m 17 X s 1438 384 m 9 X s 1438 396 m 9 X s 1438 407 m 9 X s 1438 418 m 9 X s 1430 429 m 17 X s 1438 440 m 9 X s 1438 452 m 9 X s 1438 463 m 9 X s
 1438 474 m 9 X s 1430 485 m 17 X s 1430 485 m 17 X s 1438 496 m 9 X s 1438 508 m 9 X s 1438 519 m 9 X s
 gsave  710 567 779 12 C 1474.92 91.2634 t 90 r /Helvetica-Bold findfont 19.9602 sf 0 0 m (U/O\255flow \(S,B\): \(0.0, 0.0\)% / \(0.0, 0.0\)%) show NC gr  0.490196 0.545098 0.615686 c 0.364706 0.419608 0.490196 c 335 37 786 539 bf 0.490196 0.545098
 0.615686 c 786 539 m 335 X s 1121 539 m 37 Y s 1121 576 m -335 X s 786 576 m -37 Y s 1 1 1 c black 1 1 1 c
 gsave  710 567 779 12 C 790.007 551.299 t 0 r /Helvetica-Bold findfont 28.5146 sf 0 0 m (Input variable: hh.H1_l2) show NC gr  0.490196 0.545098 0.615686 c 0.941176 0.941176 0.941176 c 711 567 1534 12 bf black 1 1 0.992157 c 547 429 1655 94 bf black
 547 429 1655 94 bl 0 0 0.933333 c 6 lw 0.49 0.6 0.82 c black 3 lw 0.49 0.6 0.82 c 1655 94 m 91 Y 14 X -32 Y 14 X 25 Y 13 X -15 Y 14 X -15 Y 14 X -2 Y 13 X 5 Y 14 X 3 Y 14 X -23 Y 13 X 2 Y 14 X 91 Y 14 X 201 Y 13 X -120 Y 14 X -47 Y 14 X 35 Y 13 X
 -10 Y 14 X -32 Y 14 X 8 Y 13 X -30 Y 14 X 14 Y 14 X -22 Y 14 X 41 Y 13 X -7 Y 14 X 33 Y 14 X 21 Y 13 X -3 Y 14 X -19 Y 14 X 197 Y 13 X -129 Y 14 X -258 Y 14 X 12 Y 13 X -14 Y 28 X 1 Y 13 X -1 Y 28 X -1 Y 13 X 2 Y 14 X -2 Y 27 X f 6 lw 0 0 0.933333 c
 0.49 0.6 0.82 c 0 0 0.933333 c 1655 185 m 14 X -32 Y 14 X 25 Y 13 X -15 Y 14 X -15 Y 14 X -2 Y 13 X 5 Y 14 X 3 Y 14 X -23 Y 13 X 2 Y 14 X 91 Y 14 X 201 Y 13 X -120 Y 14 X -47 Y 14 X 35 Y 13 X -10 Y 14 X -32 Y 14 X 8 Y 13 X -30 Y 14 X 14 Y 14 X -22 Y
 14 X 41 Y 13 X -7 Y 14 X 33 Y 14 X 21 Y 13 X -3 Y 14 X -19 Y 14 X 197 Y 13 X -129 Y 14 X -258 Y 14 X 12 Y 13 X -14 Y 28 X 1 Y 13 X -1 Y 28 X -1 Y 13 X 2 Y 14 X -2 Y 27 X s black 3 lw 1655 94 m 547 X s 1709 107 m -13 Y s 1722 100 m -6 Y s 1735 100 m
 -6 Y s 1749 100 m -6 Y s 1762 107 m -13 Y s 1775 100 m -6 Y s 1789 100 m -6 Y s 1802 100 m -6 Y s 1815 107 m -13 Y s 1829 100 m -6 Y s 1842 100 m -6 Y s 1855 100 m -6 Y s 1869 107 m -13 Y s 1882 100 m -6 Y s 1895 100 m -6 Y s 1909 100 m -6 Y s 1922
 107 m -13 Y s 1936 100 m -6 Y s 1949 100 m -6 Y s 1962 100 m -6 Y s 1976 107 m -13 Y s 1989 100 m -6 Y s 2002 100 m -6 Y s 2016 100 m -6 Y s 2029 107 m -13 Y s 2042 100 m -6 Y s 2056 100 m -6 Y s 2069 100 m -6 Y s 2082 107 m -13 Y s 2096 100 m -6 Y
 s 2109 100 m -6 Y s 2122 100 m -6 Y s 2136 107 m -13 Y s 2149 100 m -6 Y s 2162 100 m -6 Y s 2176 100 m -6 Y s 2189 107 m -13 Y s 1709 107 m -13 Y s 1695 100 m -6 Y s 1682 100 m -6 Y s 1669 100 m -6 Y s 2189 107 m -13 Y s
 gsave  711 567 1534 12 C 1696.52 65.3603 t 0 r /Helvetica findfont 25.6631 sf 0 0 m (0.8) show NC gr 
 gsave  711 567 1534 12 C 1682.32 65.3603 t 0 r /Symbol findfont 25.6631 sf 0 0 m (-) show NC gr 
 gsave  711 567 1534 12 C 1750.52 65.3603 t 0 r /Helvetica findfont 25.6631 sf 0 0 m (0.6) show NC gr 
 gsave  711 567 1534 12 C 1736.31 65.3603 t 0 r /Symbol findfont 25.6631 sf 0 0 m (-) show NC gr 
 gsave  711 567 1534 12 C 1801.67 65.3603 t 0 r /Helvetica findfont 25.6631 sf 0 0 m (0.4) show NC gr 
 gsave  711 567 1534 12 C 1787.46 65.3603 t 0 r /Symbol findfont 25.6631 sf 0 0 m (-) show NC gr 
 gsave  711 567 1534 12 C 1855.66 65.3603 t 0 r /Helvetica findfont 25.6631 sf 0 0 m (0.2) show NC gr 
 gsave  711 567 1534 12 C 1841.45 65.3603 t 0 r /Symbol findfont 25.6631 sf 0 0 m (-) show NC gr 
 gsave  711 567 1534 12 C 1912.5 65.3603 t 0 r /Helvetica findfont 25.6631 sf 0 0 m (0) show NC gr 
 gsave  711 567 1534 12 C 1957.97 65.3603 t 0 r /Helvetica findfont 25.6631 sf 0 0 m (0.2) show NC gr 
 gsave  711 567 1534 12 C 2009.12 65.3603 t 0 r /Helvetica findfont 25.6631 sf 0 0 m (0.4) show NC gr 
 gsave  711 567 1534 12 C 2063.11 65.3603 t 0 r /Helvetica findfont 25.6631 sf 0 0 m (0.6) show NC gr 
 gsave  711 567 1534 12 C 2117.1 65.3603 t 0 r /Helvetica findfont 25.6631 sf 0 0 m (0.8) show NC gr 
 gsave  711 567 1534 12 C 2182.46 65.3603 t 0 r /Helvetica findfont 25.6631 sf 0 0 m (1) show NC gr 
 gsave  711 567 1534 12 C 2091.53 22.734 t 0 r /Helvetica findfont 28.5146 sf 0 0 m (hh.H1_l3) show NC gr  1655 523 m 547 X s 1709 509 m 14 Y s 1722 516 m 7 Y s 1735 516 m 7 Y s 1749 516 m 7 Y s 1762 509 m 14 Y s 1775 516 m 7 Y s 1789 516 m 7 Y s
 1802 516 m 7 Y s 1815 509 m 14 Y s 1829 516 m 7 Y s 1842 516 m 7 Y s 1855 516 m 7 Y s 1869 509 m 14 Y s 1882 516 m 7 Y s 1895 516 m 7 Y s 1909 516 m 7 Y s 1922 509 m 14 Y s 1936 516 m 7 Y s 1949 516 m 7 Y s 1962 516 m 7 Y s 1976 509 m 14 Y s 1989
 516 m 7 Y s 2002 516 m 7 Y s 2016 516 m 7 Y s 2029 509 m 14 Y s 2042 516 m 7 Y s 2056 516 m 7 Y s 2069 516 m 7 Y s 2082 509 m 14 Y s 2096 516 m 7 Y s 2109 516 m 7 Y s 2122 516 m 7 Y s 2136 509 m 14 Y s 2149 516 m 7 Y s 2162 516 m 7 Y s 2176 516 m 7
 Y s 2189 509 m 14 Y s 1709 509 m 14 Y s 1695 516 m 7 Y s 1682 516 m 7 Y s 1669 516 m 7 Y s 2189 509 m 14 Y s 1655 94 m 429 Y s 1671 94 m -16 X s 1663 105 m -8 X s 1663 116 m -8 X s 1663 127 m -8 X s 1671 139 m -16 X s 1663 150 m -8 X s 1663 161 m -8
 X s 1663 172 m -8 X s 1671 184 m -16 X s 1663 195 m -8 X s 1663 206 m -8 X s 1663 217 m -8 X s 1671 229 m -16 X s 1663 240 m -8 X s 1663 251 m -8 X s 1663 262 m -8 X s 1671 274 m -16 X s 1663 285 m -8 X s 1663 296 m -8 X s 1663 307 m -8 X s 1671 319
 m -16 X s 1663 330 m -8 X s 1663 341 m -8 X s 1663 352 m -8 X s 1671 364 m -16 X s 1663 375 m -8 X s 1663 386 m -8 X s 1663 397 m -8 X s 1671 409 m -16 X s 1663 420 m -8 X s 1663 431 m -8 X s 1663 442 m -8 X s 1671 454 m -16 X s 1663 465 m -8 X s
 1663 476 m -8 X s 1663 487 m -8 X s 1671 499 m -16 X s 1671 499 m -16 X s 1663 510 m -8 X s 1663 521 m -8 X s
 gsave  711 567 1534 12 C 1631.16 82.4108 t 0 r /Helvetica findfont 25.6631 sf 0 0 m (0) show NC gr 
 gsave  711 567 1534 12 C 1611.27 127.879 t 0 r /Helvetica findfont 25.6631 sf 0 0 m (0.2) show NC gr 
 gsave  711 567 1534 12 C 1611.27 173.347 t 0 r /Helvetica findfont 25.6631 sf 0 0 m (0.4) show NC gr 
 gsave  711 567 1534 12 C 1611.27 218.815 t 0 r /Helvetica findfont 25.6631 sf 0 0 m (0.6) show NC gr 
 gsave  711 567 1534 12 C 1611.27 264.283 t 0 r /Helvetica findfont 25.6631 sf 0 0 m (0.8) show NC gr 
 gsave  711 567 1534 12 C 1634.01 309.751 t 0 r /Helvetica findfont 25.6631 sf 0 0 m (1) show NC gr 
 gsave  711 567 1534 12 C 1611.27 352.377 t 0 r /Helvetica findfont 25.6631 sf 0 0 m (1.2) show NC gr 
 gsave  711 567 1534 12 C 1611.27 397.845 t 0 r /Helvetica findfont 25.6631 sf 0 0 m (1.4) show NC gr 
 gsave  711 567 1534 12 C 1611.27 443.313 t 0 r /Helvetica findfont 25.6631 sf 0 0 m (1.6) show NC gr 
 gsave  711 567 1534 12 C 1611.27 488.781 t 0 r /Helvetica findfont 25.6631 sf 0 0 m (1.8) show NC gr 
 gsave  711 567 1534 12 C 1557.28 431.946 t 90 r /Helvetica findfont 28.5146 sf 0 0 m (0.0512 ) show NC gr 
 gsave  711 567 1534 12 C 1543.07 429.104 t 90 r /Helvetica findfont 19.9602 sf 0 0 m ( ) show NC gr 
 gsave  711 567 1534 12 C 1557.28 417.737 t 90 r /Helvetica findfont 28.5146 sf 0 0 m (/) show NC gr 
 gsave  711 567 1534 12 C 1565.8 414.896 t 90 r /Helvetica findfont 19.9602 sf 0 0 m ( ) show NC gr 
 gsave  711 567 1534 12 C 1557.28 309.751 t 90 r /Helvetica findfont 28.5146 sf 0 0 m (\(1/N\) dN) show NC gr  2202 94 m 429 Y s 2186 94 m 16 X s 2194 105 m 8 X s 2194 116 m 8 X s 2194 127 m 8 X s 2186 139 m 16 X s 2194 150 m 8 X s 2194 161 m 8 X s
 2194 172 m 8 X s 2186 184 m 16 X s 2194 195 m 8 X s 2194 206 m 8 X s 2194 217 m 8 X s 2186 229 m 16 X s 2194 240 m 8 X s 2194 251 m 8 X s 2194 262 m 8 X s 2186 274 m 16 X s 2194 285 m 8 X s 2194 296 m 8 X s 2194 307 m 8 X s 2186 319 m 16 X s 2194
 330 m 8 X s 2194 341 m 8 X s 2194 352 m 8 X s 2186 364 m 16 X s 2194 375 m 8 X s 2194 386 m 8 X s 2194 397 m 8 X s 2186 409 m 16 X s 2194 420 m 8 X s 2194 431 m 8 X s 2194 442 m 8 X s 2186 454 m 16 X s 2194 465 m 8 X s 2194 476 m 8 X s 2194 487 m 8
 X s 2186 499 m 16 X s 2186 499 m 16 X s 2194 510 m 8 X s 2194 521 m 8 X s 0.490196 0.545098 0.615686 c 0.364706 0.419608 0.490196 c 335 37 1542 539 bf 0.490196 0.545098 0.615686 c 1542 539 m 335 X s 1877 539 m 37 Y s 1877 576 m -335 X s 1542 576 m
 -37 Y s 1 1 1 c black 1 1 1 c
 gsave  711 567 1534 12 C 1545.91 551.299 t 0 r /Helvetica-Bold findfont 28.5146 sf 0 0 m (Input variable: hh.H1_l3) show NC gr  1 0 0 c 6 lw black 3 lw 1 0 0 c 2189 94 m -1 X s 2189 109 m -16 -15 d s 2189 124 m -31 -30 d s 2189 139 m -46 -45 d s
 2186 152 m -58 -58 d s 2175 156 m -62 -62 d s 2175 171 m -14 -14 d s 2148 144 m -50 -50 d s 2175 186 m -14 -13 d s 2148 159 m -14 -14 d s 2122 133 m -39 -39 d s 2175 202 m -14 -14 d s 2138 164 m -4 -4 d s 2120 146 m -52 -52 d s 2167 209 m -6 -6 d s
 2120 162 m -27 -28 d s 2093 134 m -40 -40 d s 2108 164 m -15 -15 d s 2079 135 m -41 -41 d s 2104 175 m -11 -11 d s 2079 151 m -56 -57 d s 2079 166 m -13 -14 d s 2055 141 m -47 -47 d s 2079 181 m -13 -14 d s 2052 153 m -60 -59 d s 2052 169 m -75 -75
 d s 2052 184 m -90 -90 d s 2052 199 m -105 -105 d s 2052 214 m -120 -120 d s 2052 229 m -135 -135 d s 2052 245 m -150 -151 d s 2052 260 m -165 -166 d s 2052 275 m -68 -69 d s 1982 205 m -110 -111 d s 2052 290 m -55 -55 d s 1996 233 m -12 -12 d s
 1970 207 m -113 -113 d s 2052 305 m -55 -55 d s 1970 223 m -128 -129 d s 2042 310 m -45 -45 d s 1970 238 m -27 -28 d s 1937 205 m -110 -111 d s 2038 322 m -41 -41 d s 1959 242 m -16 -17 d s 1929 212 m -28 -28 d s 1888 171 m -76 -77 d s 2038 337 m
 -13 -14 d s 2023 322 m -12 -12 d s 2006 304 m -9 -8 d s 1956 254 m -13 -13 d s 1929 227 m -28 -28 d s 1878 176 m -82 -82 d s 2038 352 m -13 -14 d s 1956 270 m -13 -14 d s 1929 242 m -14 -14 d s 1914 227 m -13 -13 d s 1874 187 m -93 -93 d s 2038 367
 m -13 -13 d s 1951 279 m -8 -8 d s 1929 257 m -14 -14 d s 1874 202 m -82 -83 d s 1790 118 m -24 -24 d s 2038 383 m -13 -14 d s 1929 272 m -14 -13 d s 1874 217 m -82 -82 d s 1777 120 m -26 -26 d s 2038 398 m -13 -14 d s 1918 277 m -3 -3 d s 1874 232
 m -14 -13 d s 1851 209 m -59 -59 d s 1765 122 m -14 -14 d s 1746 104 m -10 -10 d s 2033 407 m -8 -8 d s 1874 248 m -14 -14 d s 1847 220 m -55 -55 d s 1737 110 m -16 -16 d s 1874 263 m -14 -14 d s 1847 235 m -55 -55 d s 1737 125 m -31 -31 d s 1864
 268 m -4 -4 d s 1847 250 m -55 -55 d s 1728 131 m -37 -37 d s 1847 266 m -14 -14 d s 1820 238 m -28 -27 d s 1713 131 m -37 -37 d s 1847 281 m -14 -14 d s 1819 253 m -27 -27 d s 1700 133 m -39 -39 d s 1837 286 m -4 -4 d s 1819 268 m -27 -27 d s 1692
 140 m -37 -37 d s 1819 284 m -27 -28 d s 1674 137 m -19 -19 d s 1819 299 m -27 -28 d s 1669 147 m -14 -14 d s 1819 314 m -27 -28 d s 1669 162 m -14 -13 d s 1819 329 m -27 -27 d s 1663 172 m -8 -8 d s 1819 344 m -27 -27 d s 1819 360 m -27 -28 d s
 1819 375 m -13 -14 d s 1802 357 m -10 -10 d s 1819 390 m -13 -14 d s 1819 405 m -13 -14 d s 1819 419 m -13 -12 d s 6 lw 1655 172 m 14 X -35 Y 14 X 3 Y 13 X -7 Y 14 X -2 Y 27 X -27 Y 14 X 19 Y 14 X -3 Y 13 X -2 Y 14 X 239 Y 14 X 62 Y 13 X -181 Y 14 X
 48 Y 14 X -77 Y 13 X 59 Y 14 X -92 Y 14 X -5 Y 13 X 56 Y 14 X 50 Y 14 X -72 Y 14 X 74 Y 13 X -37 Y 14 X -37 Y 14 X 28 Y 13 X 71 Y 14 X 18 Y 14 X 85 Y 13 X -97 Y 14 X -169 Y 14 X 40 Y 13 X -47 Y 14 X 41 Y 14 X -11 Y 13 X -31 Y 14 X 31 Y 14 X -22 Y 13
 X 67 Y 14 X -57 Y 14 X -58 Y 13 X s black 3 lw 1655 94 m 547 X s 1709 107 m -13 Y s 1722 100 m -6 Y s 1735 100 m -6 Y s 1749 100 m -6 Y s 1762 107 m -13 Y s 1775 100 m -6 Y s 1789 100 m -6 Y s 1802 100 m -6 Y s 1815 107 m -13 Y s 1829 100 m -6 Y s
 1842 100 m -6 Y s 1855 100 m -6 Y s 1869 107 m -13 Y s 1882 100 m -6 Y s 1895 100 m -6 Y s 1909 100 m -6 Y s 1922 107 m -13 Y s 1936 100 m -6 Y s 1949 100 m -6 Y s 1962 100 m -6 Y s 1976 107 m -13 Y s 1989 100 m -6 Y s 2002 100 m -6 Y s 2016 100 m
 -6 Y s 2029 107 m -13 Y s 2042 100 m -6 Y s 2056 100 m -6 Y s 2069 100 m -6 Y s 2082 107 m -13 Y s 2096 100 m -6 Y s 2109 100 m -6 Y s 2122 100 m -6 Y s 2136 107 m -13 Y s 2149 100 m -6 Y s 2162 100 m -6 Y s 2176 100 m -6 Y s 2189 107 m -13 Y s 1709
 107 m -13 Y s 1695 100 m -6 Y s 1682 100 m -6 Y s 1669 100 m -6 Y s 2189 107 m -13 Y s 1655 523 m 547 X s 1709 509 m 14 Y s 1722 516 m 7 Y s 1735 516 m 7 Y s 1749 516 m 7 Y s 1762 509 m 14 Y s 1775 516 m 7 Y s 1789 516 m 7 Y s 1802 516 m 7 Y s 1815
 509 m 14 Y s 1829 516 m 7 Y s 1842 516 m 7 Y s 1855 516 m 7 Y s 1869 509 m 14 Y s 1882 516 m 7 Y s 1895 516 m 7 Y s 1909 516 m 7 Y s 1922 509 m 14 Y s 1936 516 m 7 Y s 1949 516 m 7 Y s 1962 516 m 7 Y s 1976 509 m 14 Y s 1989 516 m 7 Y s 2002 516 m 7
 Y s 2016 516 m 7 Y s 2029 509 m 14 Y s 2042 516 m 7 Y s 2056 516 m 7 Y s 2069 516 m 7 Y s 2082 509 m 14 Y s 2096 516 m 7 Y s 2109 516 m 7 Y s 2122 516 m 7 Y s 2136 509 m 14 Y s 2149 516 m 7 Y s 2162 516 m 7 Y s 2176 516 m 7 Y s 2189 509 m 14 Y s
 1709 509 m 14 Y s 1695 516 m 7 Y s 1682 516 m 7 Y s 1669 516 m 7 Y s 2189 509 m 14 Y s 1655 94 m 429 Y s 1671 94 m -16 X s 1663 105 m -8 X s 1663 116 m -8 X s 1663 127 m -8 X s 1671 139 m -16 X s 1663 150 m -8 X s 1663 161 m -8 X s 1663 172 m -8 X s
 1671 184 m -16 X s 1663 195 m -8 X s 1663 206 m -8 X s 1663 217 m -8 X s 1671 229 m -16 X s 1663 240 m -8 X s 1663 251 m -8 X s 1663 262 m -8 X s 1671 274 m -16 X s 1663 285 m -8 X s 1663 296 m -8 X s 1663 307 m -8 X s 1671 319 m -16 X s 1663 330 m
 -8 X s 1663 341 m -8 X s 1663 352 m -8 X s 1671 364 m -16 X s 1663 375 m -8 X s 1663 386 m -8 X s 1663 397 m -8 X s 1671 409 m -16 X s 1663 420 m -8 X s 1663 431 m -8 X s 1663 442 m -8 X s 1671 454 m -16 X s 1663 465 m -8 X s 1663 476 m -8 X s 1663
 487 m -8 X s 1671 499 m -16 X s 1671 499 m -16 X s 1663 510 m -8 X s 1663 521 m -8 X s 2202 94 m 429 Y s 2186 94 m 16 X s 2194 105 m 8 X s 2194 116 m 8 X s 2194 127 m 8 X s 2186 139 m 16 X s 2194 150 m 8 X s 2194 161 m 8 X s 2194 172 m 8 X s 2186
 184 m 16 X s 2194 195 m 8 X s 2194 206 m 8 X s 2194 217 m 8 X s 2186 229 m 16 X s 2194 240 m 8 X s 2194 251 m 8 X s 2194 262 m 8 X s 2186 274 m 16 X s 2194 285 m 8 X s 2194 296 m 8 X s 2194 307 m 8 X s 2186 319 m 16 X s 2194 330 m 8 X s 2194 341 m 8
 X s 2194 352 m 8 X s 2186 364 m 16 X s 2194 375 m 8 X s 2194 386 m 8 X s 2194 397 m 8 X s 2186 409 m 16 X s 2194 420 m 8 X s 2194 431 m 8 X s 2194 442 m 8 X s 2186 454 m 16 X s 2194 465 m 8 X s 2194 476 m 8 X s 2194 487 m 8 X s 2186 499 m 16 X s
 2186 499 m 16 X s 2194 510 m 8 X s 2194 521 m 8 X s
 gsave  711 567 1534 12 C 2230.83 91.2634 t 90 r /Helvetica-Bold findfont 19.9602 sf 0 0 m (U/O\255flow \(S,B\): \(0.0, 0.0\)% / \(0.0, 0.0\)%) show NC gr  0.490196 0.545098 0.615686 c 0.364706 0.419608 0.490196 c 335 37 1542 539 bf 0.490196 0.545098
 0.615686 c 1542 539 m 335 X s 1877 539 m 37 Y s 1877 576 m -335 X s 1542 576 m -37 Y s 1 1 1 c black 1 1 1 c
 gsave  711 567 1534 12 C 1545.91 551.299 t 0 r /Helvetica-Bold findfont 28.5146 sf 0 0 m (Input variable: hh.H1_l3) show NC gr 
 gr  gr showpage
end
%%EOF
