%!PS-Adobe-2.0 EPSF-2.0
%%BoundingBox:  0 0 567 296
%%Title: dataset/plots/variables_id_c7.eps: Input variables (training sample)
%%Creator: ROOT Version 6.18/00
%%CreationDate: Fri Sep 13 20:54:38 2019
%%DocumentNeededResources: ProcSet (FontSetInit)
%%EndComments
%%BeginProlog
80 dict begin
/s {stroke} def /l {lineto} def /m {moveto} def /t {translate} def
/r {rotate} def /rl {roll}  def /R {repeat} def
/d {rlineto} def /rm {rmoveto} def /gr {grestore} def /f {eofill} def
/c {setrgbcolor} def /black {0 setgray} def /sd {setdash} def
/cl {closepath} def /sf {scalefont setfont} def /lw {setlinewidth} def
/box {m dup 0 exch d exch 0 d 0 exch neg d cl} def
/NC{systemdict begin initclip end}def/C{NC box clip newpath}def
/bl {box s} def /bf {gsave box gsave f grestore 1 lw [] 0 sd s grestore} def /Y { 0 exch d} def /X { 0 d} def 
/K {{pop pop 0 moveto} exch kshow} bind def
/ita {/ang 15 def gsave [1 0 ang dup sin exch cos div 1 0 0] concat} def 
/mp {newpath /y exch def /x exch def} def
/side {[w .77 mul w .23 mul] .385 w mul sd w 0 l currentpoint t -144 r} def
/mr {mp x y w2 0 360 arc} def /m24 {mr s} def /m20 {mr f} def
/mb {mp x y w2 add m w2 neg 0 d 0 w neg d w 0 d 0 w d cl} def
/mt {mp x y w2 add m w2 neg w neg d w 0 d cl} def
/w4 {w 4 div} def
/w6 {w 6 div} def
/w8 {w 8 div} def
/m21 {mb f} def /m25 {mb s} def /m22 {mt f} def /m26{mt s} def
/m23 {mp x y w2 sub m w2 w d w neg 0 d cl f} def
/m27 {mp x y w2 add m w3 neg w2 neg d w3 w2 neg d w3 w2 d cl s} def
/m28 {mp x w2 sub y w2 sub w3 add m w3 0 d  0 w3 neg d w3 0 d 0 w3 d w3 0 d  0 w3 d w3 neg 0 d 0 w3 d w3 neg 0 d 0 w3 neg d w3 neg 0 d cl s } def
/m29 {mp gsave x w2 sub y w2 add w3 sub m currentpoint t 4 {side} repeat cl fill gr} def
/m30 {mp gsave x w2 sub y w2 add w3 sub m currentpoint t 4 {side} repeat cl s gr} def
/m31 {mp x y w2 sub m 0 w d x w2 sub y m w 0 d x w2 sub y w2 add m w w neg d x w2 sub y w2 sub m w w d s} def
/m32 {mp x y w2 sub m w2 w d w neg 0 d cl s} def
/m33 {mp x y w2 add m w3 neg w2 neg d w3 w2 neg d w3 w2 d cl f} def
/m34 {mp x w2 sub y w2 sub w3 add m w3 0 d  0 w3 neg d w3 0 d 0 w3 d w3 0 d  0 w3 d w3 neg 0 d 0 w3 d w3 neg 0 d 0 w3 neg d w3 neg 0 d cl f } def
/m35 {mp x y w2 add m w2 neg w2 neg d w2 w2 neg d w2 w2 d w2 neg w2 d x y w2 sub m 0 w d x w2 sub y m w 0 d s} def
/m36 {mb x w2 sub y w2 add m w w neg d x w2 sub y w2 sub m w w d s} def
/m37 {mp x y m w4 neg w2 d w4 neg w2 neg d w2 0 d  w4 neg w2 neg d w2 0 d w4 neg w2 d w2 0 d w4 neg w2 d w4 neg w2 neg d cl s} def
/m38 {mp x w4 sub y w2 add m w4 neg w4 neg d 0 w2 neg d w4 w4 neg d w2 0 d w4 w4 d 0 w2 d w4 neg w4 d w2 neg 0 d x y w2 sub m 0 w d x w2 sub y m w 0 d cl s} def
/m39 {mp x y m w4 neg w2 d w4 neg w2 neg d w2 0 d  w4 neg w2 neg d w2 0 d w4 neg w2 d w2 0 d w4 neg w2 d w4 neg w2 neg d cl f} def
/m40 {mp x y m w4 w2 d w4 w4 neg d w2 neg w4 neg d w2 w4 neg d w4 neg w4 neg d w4 neg w2 d w4 neg w2 neg d w4 neg w4 d w2 w4 d w2 neg w4 d w4 w4 d w4 w2 neg d cl s} def
/m41 {mp x y m w4 w2 d w4 w4 neg d w2 neg w4 neg d w2 w4 neg d w4 neg w4 neg d w4 neg w2 d w4 neg w2 neg d w4 neg w4 d w2 w4 d w2 neg w4 d w4 w4 d w4 w2 neg d cl f} def
/m42 {mp x y w2 add m w8 neg w2 -3 4 div mul d w2 -3 4 div mul w8 neg d w2 3 4 div mul w8 neg d w8 w2 -3 4 div mul d w8 w2 3 4 div mul d w2 3 4 div mul w8 d w2 -3 4 div mul w8 d w8 neg w2 3 4 div mul d cl s} def
/m43 {mp x y w2 add m w8 neg w2 -3 4 div mul d w2 -3 4 div mul w8 neg d w2 3 4 div mul w8 neg d w8 w2 -3 4 div mul d w8 w2 3 4 div mul d w2 3 4 div mul w8 d w2 -3 4 div mul w8 d w8 neg w2 3 4 div mul d cl f} def
/m44 {mp x y m w6 neg w2 d w2 2 3 div mul 0 d w6 neg w2 neg d w2 w6 d 0 w2 -2 3 div mul d w2 neg w6 d w6 w2 neg d w2 -2 3 div mul 0 d w6 w2 d w2 neg w6 neg d 0 w2 2 3 div mul d w2 w6 neg d cl s} def
/m45 {mp x y m w6 neg w2 d w2 2 3 div mul 0 d w6 neg w2 neg d w2 w6 d 0 w2 -2 3 div mul d w2 neg w6 d w6 w2 neg d w2 -2 3 div mul 0 d w6 w2 d w2 neg w6 neg d 0 w2 2 3 div mul d w2 w6 neg d cl f} def
/m46 {mp x y w4 add m w4 neg w4 d w4 neg w4 neg d  w4 w4 neg d w4 neg w4 neg d w4 w4 neg d w4 w4 d w4 w4 neg d w4 w4 d w4 neg w4 d w4 w4 d w4 neg w4 d w4 neg w4 neg d cl s} def
/m47 {mp x y w4 add m w4 neg w4 d w4 neg w4 neg d w4 w4 neg d w4 neg w4 neg d  w4 w4 neg d w4 w4 d w4 w4 neg d w4 w4 d w4 neg w4 d w4 w4 d w4 neg w4 d w4 neg w4 neg d cl f} def
/m48 {mp x y w4 add m w4 neg w4 d w4 neg w4 neg d w4 w4 neg d  w4 neg w4 neg d w4 w4 neg d w4 w4 d w4 w4 neg d w4 w4 d w4 neg w4 d w4 w4 d w4 neg w4 d w4 neg w4 neg d  w4 w4 neg d w4 neg w4 neg d w4 neg w4 d w4 w4 d cl f} def
/m49 {mp x w2 sub w3 add y w2 sub w3 add m  0 w3 neg d w3 0 d 0 w3 d w3 0 d 0 w3 d w3 neg 0 d 0 w3 d w3 neg 0 d 0 w3 neg d w3 neg 0 d 0 w3 neg d w3 0 d 0 w3 d w3 0 d 0 w3 neg d w3 neg 0 d cl f } def
/m2 {mp x y w2 sub m 0 w d x w2 sub y m w 0 d s} def
/m5 {mp x w2 sub y w2 sub m w w d x w2 sub y w2 add m w w neg d s} def
%%IncludeResource: ProcSet (FontSetInit)
%%IncludeResource: font Times-Roman
%%IncludeResource: font Times-Italic
%%IncludeResource: font Times-Bold
%%IncludeResource: font Times-BoldItalic
%%IncludeResource: font Helvetica
%%IncludeResource: font Helvetica-Oblique
%%IncludeResource: font Helvetica-Bold
%%IncludeResource: font Helvetica-BoldOblique
%%IncludeResource: font Courier
%%IncludeResource: font Courier-Oblique
%%IncludeResource: font Courier-Bold
%%IncludeResource: font Courier-BoldOblique
%%IncludeResource: font Symbol
%%IncludeResource: font ZapfDingbats
/reEncode {exch findfont dup length dict begin {1 index /FID eq  {pop pop} {def} ifelse } forall /Encoding exch def currentdict end dup /FontName get exch definefont pop } def [/Times-Bold /Times-Italic /Times-BoldItalic /Helvetica /Helvetica-Oblique
 /Helvetica-Bold /Helvetica-BoldOblique /Courier /Courier-Oblique /Courier-Bold /Courier-BoldOblique /Times-Roman /AvantGarde-Book /AvantGarde-BookOblique /AvantGarde-Demi /AvantGarde-DemiOblique /Bookman-Demi /Bookman-DemiItalic /Bookman-Light
 /Bookman-LightItalic /Helvetica-Narrow /Helvetica-Narrow-Bold /Helvetica-Narrow-BoldOblique /Helvetica-Narrow-Oblique /NewCenturySchlbk-Roman /NewCenturySchlbk-Bold /NewCenturySchlbk-BoldItalic /NewCenturySchlbk-Italic /Palatino-Bold
 /Palatino-BoldItalic /Palatino-Italic /Palatino-Roman ] {ISOLatin1Encoding reEncode } forall
%%EndProlog
%%BeginSetup
%%EndSetup
newpath  gsave  .25 .25 scale  gsave  0 0 t 0.490196 0.545098 0.615686 c[  ] 0 sd 3 lw 0.941176 0.941176 0.941176 c 2268 1182 0 0 bf 0.490196 0.545098 0.615686 c 0.941176 0.941176 0.941176 c 710 567 23 603 bf black 1 1 0.992157 c 548 429 143 685 bf
 black 548 429 143 685 bl 0 0 0.933333 c 6 lw 0.49 0.6 0.82 c black 3 lw 0.49 0.6 0.82 c 143 685 m 390 Y 14 X -112 Y 14 X -101 Y 14 X -16 Y 13 X -5 Y 14 X -25 Y 14 X -117 Y 13 X 98 Y 14 X -24 Y 14 X 2 Y 13 X 24 Y 14 X -25 Y 14 X -21 Y 13 X 18 Y 14 X
 -6 Y 14 X -9 Y 13 X 9 Y 14 X 36 Y 14 X -22 Y 13 X -11 Y 14 X -24 Y 14 X 38 Y 13 X -8 Y 14 X -1 Y 14 X -49 Y 13 X 52 Y 14 X -38 Y 14 X 31 Y 13 X -8 Y 14 X -42 Y 14 X 6 Y 13 X 17 Y 14 X -5 Y 14 X 6 Y 14 X 25 Y 13 X -18 Y 14 X 25 Y 14 X -9 Y 13 X -7 Y
 14 X -68 Y 14 X -6 Y f 6 lw 0 0 0.933333 c 0.49 0.6 0.82 c 0 0 0.933333 c 143 1075 m 14 X -112 Y 14 X -101 Y 14 X -16 Y 13 X -5 Y 14 X -25 Y 14 X -117 Y 13 X 98 Y 14 X -24 Y 14 X 2 Y 13 X 24 Y 14 X -25 Y 14 X -21 Y 13 X 18 Y 14 X -6 Y 14 X -9 Y 13 X
 9 Y 14 X 36 Y 14 X -22 Y 13 X -11 Y 14 X -24 Y 14 X 38 Y 13 X -8 Y 14 X -1 Y 14 X -49 Y 13 X 52 Y 14 X -38 Y 14 X 31 Y 13 X -8 Y 14 X -42 Y 14 X 6 Y 13 X 17 Y 14 X -5 Y 14 X 6 Y 14 X 25 Y 13 X -18 Y 14 X 25 Y 14 X -9 Y 13 X -7 Y 14 X -68 Y 14 X s
 black 3 lw 143 685 m 548 X s 179 698 m -13 Y s 193 691 m -6 Y s 208 691 m -6 Y s 222 691 m -6 Y s 236 691 m -6 Y s 250 698 m -13 Y s 264 691 m -6 Y s 279 691 m -6 Y s 293 691 m -6 Y s 307 691 m -6 Y s 321 698 m -13 Y s 336 691 m -6 Y s 350 691 m -6
 Y s 364 691 m -6 Y s 378 691 m -6 Y s 393 698 m -13 Y s 407 691 m -6 Y s 421 691 m -6 Y s 435 691 m -6 Y s 450 691 m -6 Y s 464 698 m -13 Y s 478 691 m -6 Y s 492 691 m -6 Y s 507 691 m -6 Y s 521 691 m -6 Y s 535 698 m -13 Y s 549 691 m -6 Y s 563
 691 m -6 Y s 578 691 m -6 Y s 592 691 m -6 Y s 606 698 m -13 Y s 620 691 m -6 Y s 635 691 m -6 Y s 649 691 m -6 Y s 663 691 m -6 Y s 677 698 m -13 Y s 179 698 m -13 Y s 165 691 m -6 Y s 151 691 m -6 Y s 677 698 m -13 Y s
 gsave  710 567 23 603 C 167.663 656.444 t 0 r /Helvetica findfont 25.6631 sf 0 0 m (0.1) show NC gr 
 gsave  710 567 23 603 C 156.296 656.444 t 0 r /Symbol findfont 25.6631 sf 0 0 m (-) show NC gr 
 gsave  710 567 23 603 C 230.182 656.444 t 0 r /Helvetica findfont 25.6631 sf 0 0 m (0.05) show NC gr 
 gsave  710 567 23 603 C 218.815 656.444 t 0 r /Symbol findfont 25.6631 sf 0 0 m (-) show NC gr 
 gsave  710 567 23 603 C 312.592 656.444 t 0 r /Helvetica findfont 25.6631 sf 0 0 m (0) show NC gr 
 gsave  710 567 23 603 C 366.586 656.444 t 0 r /Helvetica findfont 25.6631 sf 0 0 m (0.05) show NC gr 
 gsave  710 567 23 603 C 446.155 656.444 t 0 r /Helvetica findfont 25.6631 sf 0 0 m (0.1) show NC gr 
 gsave  710 567 23 603 C 508.673 656.444 t 0 r /Helvetica findfont 25.6631 sf 0 0 m (0.15) show NC gr 
 gsave  710 567 23 603 C 588.242 656.444 t 0 r /Helvetica findfont 25.6631 sf 0 0 m (0.2) show NC gr 
 gsave  710 567 23 603 C 650.761 656.444 t 0 r /Helvetica findfont 25.6631 sf 0 0 m (0.25) show NC gr 
 gsave  710 567 23 603 C 576.875 613.818 t 0 r /Helvetica findfont 28.5146 sf 0 0 m (hh.HT_l2) show NC gr  143 1114 m 548 X s 179 1100 m 14 Y s 193 1107 m 7 Y s 208 1107 m 7 Y s 222 1107 m 7 Y s 236 1107 m 7 Y s 250 1100 m 14 Y s 264 1107 m 7 Y s 279
 1107 m 7 Y s 293 1107 m 7 Y s 307 1107 m 7 Y s 321 1100 m 14 Y s 336 1107 m 7 Y s 350 1107 m 7 Y s 364 1107 m 7 Y s 378 1107 m 7 Y s 393 1100 m 14 Y s 407 1107 m 7 Y s 421 1107 m 7 Y s 435 1107 m 7 Y s 450 1107 m 7 Y s 464 1100 m 14 Y s 478 1107 m 7
 Y s 492 1107 m 7 Y s 507 1107 m 7 Y s 521 1107 m 7 Y s 535 1100 m 14 Y s 549 1107 m 7 Y s 563 1107 m 7 Y s 578 1107 m 7 Y s 592 1107 m 7 Y s 606 1100 m 14 Y s 620 1107 m 7 Y s 635 1107 m 7 Y s 649 1107 m 7 Y s 663 1107 m 7 Y s 677 1100 m 14 Y s 179
 1100 m 14 Y s 165 1107 m 7 Y s 151 1107 m 7 Y s 677 1100 m 14 Y s 143 685 m 429 Y s 160 685 m -17 X s 152 703 m -9 X s 152 721 m -9 X s 152 739 m -9 X s 160 758 m -17 X s 152 776 m -9 X s 152 794 m -9 X s 152 813 m -9 X s 160 831 m -17 X s 152 849 m
 -9 X s 152 868 m -9 X s 152 886 m -9 X s 160 904 m -17 X s 152 922 m -9 X s 152 941 m -9 X s 152 959 m -9 X s 160 977 m -17 X s 152 996 m -9 X s 152 1014 m -9 X s 152 1032 m -9 X s 160 1050 m -17 X s 160 1050 m -17 X s 152 1069 m -9 X s 152 1087 m
 -9 X s 152 1105 m -9 X s
 gsave  710 567 23 603 C 119.354 673.495 t 0 r /Helvetica findfont 25.6631 sf 0 0 m (0) show NC gr 
 gsave  710 567 23 603 C 119.354 747.38 t 0 r /Helvetica findfont 25.6631 sf 0 0 m (2) show NC gr 
 gsave  710 567 23 603 C 119.354 821.266 t 0 r /Helvetica findfont 25.6631 sf 0 0 m (4) show NC gr 
 gsave  710 567 23 603 C 119.354 895.151 t 0 r /Helvetica findfont 25.6631 sf 0 0 m (6) show NC gr 
 gsave  710 567 23 603 C 119.354 966.195 t 0 r /Helvetica findfont 25.6631 sf 0 0 m (8) show NC gr 
 gsave  710 567 23 603 C 105.145 1040.08 t 0 r /Helvetica findfont 25.6631 sf 0 0 m (10) show NC gr 
 gsave  710 567 23 603 C 45.468 1011.66 t 90 r /Helvetica findfont 28.5146 sf 0 0 m (0.00961 ) show NC gr 
 gsave  710 567 23 603 C 31.2593 1008.82 t 90 r /Helvetica findfont 19.9602 sf 0 0 m ( ) show NC gr 
 gsave  710 567 23 603 C 45.468 997.454 t 90 r /Helvetica findfont 28.5146 sf 0 0 m (/) show NC gr 
 gsave  710 567 23 603 C 53.9933 994.613 t 90 r /Helvetica findfont 19.9602 sf 0 0 m ( ) show NC gr 
 gsave  710 567 23 603 C 45.468 889.468 t 90 r /Helvetica findfont 28.5146 sf 0 0 m (\(1/N\) dN) show NC gr  691 685 m 429 Y s 674 685 m 17 X s 683 703 m 8 X s 683 721 m 8 X s 683 739 m 8 X s 674 758 m 17 X s 683 776 m 8 X s 683 794 m 8 X s 683 813 m
 8 X s 674 831 m 17 X s 683 849 m 8 X s 683 868 m 8 X s 683 886 m 8 X s 674 904 m 17 X s 683 922 m 8 X s 683 941 m 8 X s 683 959 m 8 X s 674 977 m 17 X s 683 996 m 8 X s 683 1014 m 8 X s 683 1032 m 8 X s 674 1050 m 17 X s 674 1050 m 17 X s 683 1069 m
 8 X s 683 1087 m 8 X s 683 1105 m 8 X s 0.490196 0.545098 0.615686 c 0.364706 0.419608 0.490196 c 338 38 30 1130 bf 0.490196 0.545098 0.615686 c 30 1130 m 338 X s 368 1130 m 38 Y s 368 1168 m -338 X s 30 1168 m -38 Y s 1 1 1 c black 1 1 1 c
 gsave  710 567 23 603 C 34.101 1142.38 t 0 r /Helvetica-Bold findfont 28.5146 sf 0 0 m (Input variable: hh.HT_l2) show NC gr  1 0 0 c 6 lw black 3 lw 1 0 0 c 677 685 m s 677 700 m -15 -15 d s 677 715 m -31 -30 d s 677 731 m -46 -46 d s 677 746 m -61
 -61 d s 665 749 m -2 -2 d s 660 743 m -59 -58 d s 650 749 m -64 -64 d s 650 764 m -79 -79 d s 649 779 m -93 -94 d s 636 780 m -14 -14 d s 614 758 m -73 -73 d s 636 795 m -14 -13 d s 603 762 m -77 -77 d s 636 811 m -14 -14 d s 595 769 m -84 -84 d s
 631 821 m -9 -9 d s 595 784 m -99 -99 d s 595 800 m -14 -14 d s 577 782 m -10 -10 d s 560 764 m -79 -79 d s 595 815 m -14 -14 d s 554 774 m -14 -14 d s 527 746 m -61 -61 d s 595 830 m -14 -14 d s 554 789 m -14 -14 d s 526 761 m -13 -14 d s 508 742 m
 -58 -57 d s 587 837 m -6 -6 d s 547 797 m -7 -7 d s 526 776 m -13 -13 d s 499 749 m -64 -64 d s 526 792 m -13 -14 d s 493 757 m -73 -72 d s 514 794 m -1 -1 d s 485 765 m -80 -80 d s 476 771 m -86 -86 d s 472 782 m -14 -14 d s 453 763 m -78 -78 d s
 472 797 m -14 -14 d s 444 770 m -13 -14 d s 417 742 m -57 -57 d s 472 812 m -14 -13 d s 444 785 m -13 -14 d s 417 757 m -72 -72 d s 472 827 m -14 -13 d s 434 789 m -3 -3 d s 405 760 m -15 -15 d s 385 740 m -55 -55 d s 472 843 m -14 -14 d s 403 774 m
 -13 -14 d s 376 746 m -61 -61 d s 460 846 m -2 -2 d s 403 789 m -13 -14 d s 370 756 m -8 -8 d s 352 737 m -52 -52 d s 403 804 m -13 -14 d s 345 745 m -60 -60 d s 403 819 m -13 -13 d s 333 748 m -63 -63 d s 403 835 m -13 -14 d s 321 752 m -66 -67 d s
 394 840 m -4 -4 d s 321 767 m -82 -82 d s 321 782 m -13 -14 d s 296 757 m -72 -72 d s 318 794 m -10 -10 d s 294 770 m -85 -85 d s 288 779 m -94 -94 d s 280 786 m -101 -101 d s 280 802 m -13 -14 d s 253 775 m -89 -90 d s 268 805 m -1 -2 d s 251 787 m
 -102 -102 d s 239 791 m -96 -97 d s 234 801 m -8 -9 d s 218 784 m -75 -75 d s 211 792 m -68 -67 d s 198 795 m -55 -55 d s 198 810 m -55 -55 d s 191 818 m -48 -48 d s 174 816 m -31 -31 d s 171 828 m -28 -28 d s 171 843 m -28 -27 d s 158 845 m -15 -14
 d s 157 860 m -14 -14 d s 157 875 m -14 -14 d s 151 884 m -8 -8 d s 6 lw 143 884 m 14 X -39 Y 14 X -29 Y 14 X 2 Y 13 X -26 Y 14 X -8 Y 14 X 17 Y 13 X -14 Y 14 X -12 Y 14 X 30 Y 13 X -26 Y 14 X -22 Y 14 X 37 Y 13 X -46 Y 14 X -3 Y 14 X -8 Y 13 X 19 Y
 14 X -16 Y 14 X 100 Y 13 X -80 Y 14 X -18 Y 14 X 47 Y 13 X -26 Y 14 X 83 Y 14 X -75 Y 13 X -14 Y 14 X -15 Y 14 X 52 Y 13 X -48 Y 14 X 51 Y 14 X -33 Y 13 X 18 Y 14 X 55 Y 14 X -75 Y 14 X -4 Y 13 X 63 Y 14 X -42 Y 14 X -36 Y 13 X 6 Y 14 X -64 Y 14 X s
 black 3 lw 143 685 m 548 X s 179 698 m -13 Y s 193 691 m -6 Y s 208 691 m -6 Y s 222 691 m -6 Y s 236 691 m -6 Y s 250 698 m -13 Y s 264 691 m -6 Y s 279 691 m -6 Y s 293 691 m -6 Y s 307 691 m -6 Y s 321 698 m -13 Y s 336 691 m -6 Y s 350 691 m -6
 Y s 364 691 m -6 Y s 378 691 m -6 Y s 393 698 m -13 Y s 407 691 m -6 Y s 421 691 m -6 Y s 435 691 m -6 Y s 450 691 m -6 Y s 464 698 m -13 Y s 478 691 m -6 Y s 492 691 m -6 Y s 507 691 m -6 Y s 521 691 m -6 Y s 535 698 m -13 Y s 549 691 m -6 Y s 563
 691 m -6 Y s 578 691 m -6 Y s 592 691 m -6 Y s 606 698 m -13 Y s 620 691 m -6 Y s 635 691 m -6 Y s 649 691 m -6 Y s 663 691 m -6 Y s 677 698 m -13 Y s 179 698 m -13 Y s 165 691 m -6 Y s 151 691 m -6 Y s 677 698 m -13 Y s 143 1114 m 548 X s 179 1100
 m 14 Y s 193 1107 m 7 Y s 208 1107 m 7 Y s 222 1107 m 7 Y s 236 1107 m 7 Y s 250 1100 m 14 Y s 264 1107 m 7 Y s 279 1107 m 7 Y s 293 1107 m 7 Y s 307 1107 m 7 Y s 321 1100 m 14 Y s 336 1107 m 7 Y s 350 1107 m 7 Y s 364 1107 m 7 Y s 378 1107 m 7 Y s
 393 1100 m 14 Y s 407 1107 m 7 Y s 421 1107 m 7 Y s 435 1107 m 7 Y s 450 1107 m 7 Y s 464 1100 m 14 Y s 478 1107 m 7 Y s 492 1107 m 7 Y s 507 1107 m 7 Y s 521 1107 m 7 Y s 535 1100 m 14 Y s 549 1107 m 7 Y s 563 1107 m 7 Y s 578 1107 m 7 Y s 592 1107
 m 7 Y s 606 1100 m 14 Y s 620 1107 m 7 Y s 635 1107 m 7 Y s 649 1107 m 7 Y s 663 1107 m 7 Y s 677 1100 m 14 Y s 179 1100 m 14 Y s 165 1107 m 7 Y s 151 1107 m 7 Y s 677 1100 m 14 Y s 143 685 m 429 Y s 160 685 m -17 X s 152 703 m -9 X s 152 721 m -9 X
 s 152 739 m -9 X s 160 758 m -17 X s 152 776 m -9 X s 152 794 m -9 X s 152 813 m -9 X s 160 831 m -17 X s 152 849 m -9 X s 152 868 m -9 X s 152 886 m -9 X s 160 904 m -17 X s 152 922 m -9 X s 152 941 m -9 X s 152 959 m -9 X s 160 977 m -17 X s 152
 996 m -9 X s 152 1014 m -9 X s 152 1032 m -9 X s 160 1050 m -17 X s 160 1050 m -17 X s 152 1069 m -9 X s 152 1087 m -9 X s 152 1105 m -9 X s 691 685 m 429 Y s 674 685 m 17 X s 683 703 m 8 X s 683 721 m 8 X s 683 739 m 8 X s 674 758 m 17 X s 683 776
 m 8 X s 683 794 m 8 X s 683 813 m 8 X s 674 831 m 17 X s 683 849 m 8 X s 683 868 m 8 X s 683 886 m 8 X s 674 904 m 17 X s 683 922 m 8 X s 683 941 m 8 X s 683 959 m 8 X s 674 977 m 17 X s 683 996 m 8 X s 683 1014 m 8 X s 683 1032 m 8 X s 674 1050 m
 17 X s 674 1050 m 17 X s 683 1069 m 8 X s 683 1087 m 8 X s 683 1105 m 8 X s
 gsave  710 567 23 603 C 719.017 682.347 t 90 r /Helvetica-Bold findfont 19.9602 sf 0 0 m (U/O\255flow \(S,B\): \(0.0, 0.0\)% / \(0.0, 0.0\)%) show NC gr  0.490196 0.545098 0.615686 c 0.364706 0.419608 0.490196 c 338 38 30 1130 bf 0.490196 0.545098
 0.615686 c 30 1130 m 338 X s 368 1130 m 38 Y s 368 1168 m -338 X s 30 1168 m -38 Y s 1 1 1 c black 1 1 1 c
 gsave  710 567 23 603 C 34.101 1142.38 t 0 r /Helvetica-Bold findfont 28.5146 sf 0 0 m (Input variable: hh.HT_l2) show NC gr  0.490196 0.545098 0.615686 c 0.941176 0.941176 0.941176 c 710 567 779 603 bf black 1 1 0.992157 c 548 429 899 685 bf black
 548 429 899 685 bl 0 0 0.933333 c 6 lw 0.49 0.6 0.82 c black 3 lw 0.49 0.6 0.82 c 899 685 m 85 Y 14 X -29 Y 14 X 25 Y 13 X 6 Y 14 X -18 Y 14 X -9 Y 13 X -4 Y 14 X 8 Y 14 X -15 Y 13 X -8 Y 14 X 16 Y 14 X 314 Y 14 X -123 Y 13 X -44 Y 14 X 15 Y 14 X -5
 Y 13 X -31 Y 14 X 33 Y 14 X -86 Y 13 X 37 Y 14 X -17 Y 14 X 44 Y 13 X -25 Y 14 X 49 Y 14 X 47 Y 13 X -23 Y 14 X 56 Y 14 X 92 Y 13 X -175 Y 14 X -207 Y 14 X -6 Y 13 X 6 Y 14 X -6 Y 14 X -1 Y 13 X -1 Y 28 X 1 Y 27 X -1 Y 28 X f 6 lw 0 0 0.933333 c
 0.49 0.6 0.82 c 0 0 0.933333 c 899 770 m 14 X -29 Y 14 X 25 Y 13 X 6 Y 14 X -18 Y 14 X -9 Y 13 X -4 Y 14 X 8 Y 14 X -15 Y 13 X -8 Y 14 X 16 Y 14 X 314 Y 14 X -123 Y 13 X -44 Y 14 X 15 Y 14 X -5 Y 13 X -31 Y 14 X 33 Y 14 X -86 Y 13 X 37 Y 14 X -17 Y
 14 X 44 Y 13 X -25 Y 14 X 49 Y 14 X 47 Y 13 X -23 Y 14 X 56 Y 14 X 92 Y 13 X -175 Y 14 X -207 Y 14 X -6 Y 13 X 6 Y 14 X -6 Y 14 X -1 Y 13 X -1 Y 28 X 1 Y 27 X -1 Y 28 X s black 3 lw 899 685 m 548 X s 953 698 m -13 Y s 974 691 m -6 Y s 996 691 m -6 Y
 s 1017 691 m -6 Y s 1039 691 m -6 Y s 1060 698 m -13 Y s 1082 691 m -6 Y s 1103 691 m -6 Y s 1125 691 m -6 Y s 1146 691 m -6 Y s 1168 698 m -13 Y s 1189 691 m -6 Y s 1210 691 m -6 Y s 1232 691 m -6 Y s 1253 691 m -6 Y s 1275 698 m -13 Y s 1296 691 m
 -6 Y s 1318 691 m -6 Y s 1339 691 m -6 Y s 1361 691 m -6 Y s 1382 698 m -13 Y s 953 698 m -13 Y s 931 691 m -6 Y s 910 691 m -6 Y s 1382 698 m -13 Y s 1404 691 m -6 Y s 1425 691 m -6 Y s
 gsave  710 567 779 603 C 940.619 656.444 t 0 r /Helvetica findfont 25.6631 sf 0 0 m (0.2) show NC gr 
 gsave  710 567 779 603 C 926.411 656.444 t 0 r /Symbol findfont 25.6631 sf 0 0 m (-) show NC gr 
 gsave  710 567 779 603 C 1048.61 656.444 t 0 r /Helvetica findfont 25.6631 sf 0 0 m (0.1) show NC gr 
 gsave  710 567 779 603 C 1037.24 656.444 t 0 r /Symbol findfont 25.6631 sf 0 0 m (-) show NC gr 
 gsave  710 567 779 603 C 1156.59 656.444 t 0 r /Helvetica findfont 25.6631 sf 0 0 m (0) show NC gr 
 gsave  710 567 779 603 C 1256.05 656.444 t 0 r /Helvetica findfont 25.6631 sf 0 0 m (0.1) show NC gr 
 gsave  710 567 779 603 C 1364.04 656.444 t 0 r /Helvetica findfont 25.6631 sf 0 0 m (0.2) show NC gr 
 gsave  710 567 779 603 C 1332.78 613.818 t 0 r /Helvetica findfont 28.5146 sf 0 0 m (hh.HT_l3) show NC gr  899 1114 m 548 X s 953 1100 m 14 Y s 974 1107 m 7 Y s 996 1107 m 7 Y s 1017 1107 m 7 Y s 1039 1107 m 7 Y s 1060 1100 m 14 Y s 1082 1107 m 7 Y
 s 1103 1107 m 7 Y s 1125 1107 m 7 Y s 1146 1107 m 7 Y s 1168 1100 m 14 Y s 1189 1107 m 7 Y s 1210 1107 m 7 Y s 1232 1107 m 7 Y s 1253 1107 m 7 Y s 1275 1100 m 14 Y s 1296 1107 m 7 Y s 1318 1107 m 7 Y s 1339 1107 m 7 Y s 1361 1107 m 7 Y s 1382 1100 m
 14 Y s 953 1100 m 14 Y s 931 1107 m 7 Y s 910 1107 m 7 Y s 1382 1100 m 14 Y s 1404 1107 m 7 Y s 1425 1107 m 7 Y s 899 685 m 429 Y s 915 685 m -16 X s 907 697 m -8 X s 907 709 m -8 X s 907 722 m -8 X s 907 734 m -8 X s 915 746 m -16 X s 907 759 m -8
 X s 907 771 m -8 X s 907 783 m -8 X s 907 796 m -8 X s 915 808 m -16 X s 907 820 m -8 X s 907 832 m -8 X s 907 845 m -8 X s 907 857 m -8 X s 915 869 m -16 X s 907 882 m -8 X s 907 894 m -8 X s 907 906 m -8 X s 907 919 m -8 X s 915 931 m -16 X s 907
 943 m -8 X s 907 956 m -8 X s 907 968 m -8 X s 907 980 m -8 X s 915 993 m -16 X s 907 1005 m -8 X s 907 1017 m -8 X s 907 1030 m -8 X s 907 1042 m -8 X s 915 1054 m -16 X s 915 1054 m -16 X s 907 1067 m -8 X s 907 1079 m -8 X s 907 1091 m -8 X s 907
 1104 m -8 X s
 gsave  710 567 779 603 C 875.259 673.495 t 0 r /Helvetica findfont 25.6631 sf 0 0 m (0) show NC gr 
 gsave  710 567 779 603 C 878.101 736.013 t 0 r /Helvetica findfont 25.6631 sf 0 0 m (1) show NC gr 
 gsave  710 567 779 603 C 875.259 798.532 t 0 r /Helvetica findfont 25.6631 sf 0 0 m (2) show NC gr 
 gsave  710 567 779 603 C 875.259 858.209 t 0 r /Helvetica findfont 25.6631 sf 0 0 m (3) show NC gr 
 gsave  710 567 779 603 C 875.259 920.727 t 0 r /Helvetica findfont 25.6631 sf 0 0 m (4) show NC gr 
 gsave  710 567 779 603 C 875.259 983.246 t 0 r /Helvetica findfont 25.6631 sf 0 0 m (5) show NC gr 
 gsave  710 567 779 603 C 875.259 1042.92 t 0 r /Helvetica findfont 25.6631 sf 0 0 m (6) show NC gr 
 gsave  710 567 779 603 C 801.374 1023.03 t 90 r /Helvetica findfont 28.5146 sf 0 0 m (0.0127 ) show NC gr 
 gsave  710 567 779 603 C 787.165 1020.19 t 90 r /Helvetica findfont 19.9602 sf 0 0 m ( ) show NC gr 
 gsave  710 567 779 603 C 801.374 1008.82 t 90 r /Helvetica findfont 28.5146 sf 0 0 m (/) show NC gr 
 gsave  710 567 779 603 C 809.899 1005.98 t 90 r /Helvetica findfont 19.9602 sf 0 0 m ( ) show NC gr 
 gsave  710 567 779 603 C 801.374 900.835 t 90 r /Helvetica findfont 28.5146 sf 0 0 m (\(1/N\) dN) show NC gr  1447 685 m 429 Y s 1430 685 m 17 X s 1438 697 m 9 X s 1438 709 m 9 X s 1438 722 m 9 X s 1438 734 m 9 X s 1430 746 m 17 X s 1438 759 m 9 X s
 1438 771 m 9 X s 1438 783 m 9 X s 1438 796 m 9 X s 1430 808 m 17 X s 1438 820 m 9 X s 1438 832 m 9 X s 1438 845 m 9 X s 1438 857 m 9 X s 1430 869 m 17 X s 1438 882 m 9 X s 1438 894 m 9 X s 1438 906 m 9 X s 1438 919 m 9 X s 1430 931 m 17 X s 1438 943
 m 9 X s 1438 956 m 9 X s 1438 968 m 9 X s 1438 980 m 9 X s 1430 993 m 17 X s 1438 1005 m 9 X s 1438 1017 m 9 X s 1438 1030 m 9 X s 1438 1042 m 9 X s 1430 1054 m 17 X s 1430 1054 m 17 X s 1438 1067 m 9 X s 1438 1079 m 9 X s 1438 1091 m 9 X s 1438
 1104 m 9 X s 0.490196 0.545098 0.615686 c 0.364706 0.419608 0.490196 c 338 38 786 1130 bf 0.490196 0.545098 0.615686 c 786 1130 m 338 X s 1124 1130 m 38 Y s 1124 1168 m -338 X s 786 1168 m -38 Y s 1 1 1 c black 1 1 1 c
 gsave  710 567 779 603 C 790.007 1142.38 t 0 r /Helvetica-Bold findfont 28.5146 sf 0 0 m (Input variable: hh.HT_l3) show NC gr  1 0 0 c 6 lw black 3 lw 1 0 0 c 1433 685 m -1 X s 1433 700 m -16 -15 d s 1419 702 m -17 -17 d s 1419 716 m -32 -31 d s
 1405 718 m -33 -33 d s 1392 720 m -35 -35 d s 1392 735 m -50 -50 d s 1392 750 m -65 -65 d s 1382 755 m -70 -70 d s 1378 766 m -27 -27 d s 1339 727 m -42 -42 d s 1370 773 m -19 -19 d s 1337 740 m -55 -55 d s 1362 780 m -11 -11 d s 1337 756 m -70 -71
 d s 1337 771 m -85 -86 d s 1337 786 m -14 -14 d s 1320 769 m -10 -11 d s 1297 745 m -60 -60 d s 1296 760 m -75 -75 d s 1296 775 m -90 -90 d s 1296 790 m -105 -105 d s 1296 805 m -120 -120 d s 1296 820 m -135 -135 d s 1296 836 m -150 -151 d s 1296
 851 m -68 -69 d s 1221 775 m -90 -90 d s 1296 866 m -68 -69 d s 1214 783 m -98 -98 d s 1282 867 m -54 -55 d s 1214 799 m -113 -114 d s 1282 883 m -54 -56 d s 1214 814 m -128 -129 d s 1282 898 m -54 -55 d s 1214 829 m -143 -144 d s 1282 913 m -54 -55
 d s 1214 844 m -158 -159 d s 1282 928 m -41 -41 d s 1231 877 m -3 -4 d s 1214 859 m -173 -174 d s 1282 943 m -41 -41 d s 1214 874 m -68 -68 d s 1140 800 m -114 -115 d s 1282 959 m -13 -14 d s 1266 942 m -11 -11 d s 1245 920 m -4 -3 d s 1214 890 m
 -27 -28 d s 1184 859 m -25 -24 d s 1132 807 m -122 -122 d s 1282 974 m -13 -14 d s 1214 905 m -27 -28 d s 1173 863 m -14 -13 d s 1132 822 m -14 -14 d s 1115 805 m -79 -79 d s 1027 716 m -32 -31 d s 1282 989 m -13 -14 d s 1214 920 m -27 -28 d s 1173
 879 m -14 -14 d s 1132 837 m -14 -13 d s 1105 810 m -69 -69 d s 1019 723 m -10 -10 d s 999 703 m -19 -18 d s 1282 1004 m -13 -14 d s 1214 935 m -14 -14 d s 1189 910 m -2 -2 d s 1173 894 m -14 -14 d s 1132 853 m -14 -14 d s 1105 825 m -69 -69 d s 985
 704 m -20 -19 d s 1279 1016 m -10 -11 d s 1214 950 m -14 -13 d s 1172 908 m -13 -13 d s 1132 868 m -14 -14 d s 1105 840 m -55 -55 d s 981 716 m -13 -14 d s 962 697 m -12 -12 d s 1200 952 m s 1132 883 m -14 -14 d s 1095 845 m -45 -45 d s 981 731 m
 -13 -13 d s 954 704 m -19 -19 d s 1132 898 m -14 -14 d s 1091 857 m -41 -42 d s 981 747 m -13 -14 d s 954 719 m -34 -34 d s 1128 909 m -10 -10 d s 1091 872 m -41 -41 d s 981 762 m -13 -14 d s 954 734 m -49 -49 d s 1091 887 m -41 -41 d s 969 764 m -1
 -1 d s 942 737 m -2 -1 d s 939 734 m -12 -12 d s 926 721 m -27 -27 d s 1091 902 m -41 -41 d s 913 723 m -14 -14 d s 1091 917 m -14 -13 d s 1066 892 m -16 -16 d s 909 734 m -10 -9 d s 1083 925 m -6 -6 d s 1064 905 m -14 -14 d s 1064 920 m -14 -14 d s
 1064 935 m -14 -13 d s 1064 951 m -14 -14 d s 1064 966 m -14 -14 d s 1064 981 m -14 -14 d s 1064 996 m -14 -14 d s 1064 1011 m -14 -13 d s 1064 1027 m -14 -14 d s 1059 1037 m -9 -9 d s 6 lw 899 734 m 14 X -13 Y 14 X 13 Y 13 X 3 Y 14 X -40 Y 14 X 67
 Y 13 X -60 Y 14 X -1 Y 14 X 20 Y 13 X -7 Y 14 X 54 Y 14 X 267 Y 14 X -145 Y 13 X 33 Y 14 X -80 Y 14 X -40 Y 13 X 104 Y 14 X -109 Y 14 X 20 Y 13 X 88 Y 14 X -49 Y 14 X 51 Y 13 X 42 Y 14 X -177 Y 14 X 102 Y 13 X 43 Y 14 X 22 Y 14 X 74 Y 13 X -150 Y 14
 X -121 Y 14 X 24 Y 13 X 17 Y 14 X -59 Y 14 X 53 Y 13 X -7 Y 14 X -18 Y 14 X -37 Y 13 X -2 Y 14 X -16 Y 14 X -15 Y 14 X s black 3 lw 899 685 m 548 X s 953 698 m -13 Y s 974 691 m -6 Y s 996 691 m -6 Y s 1017 691 m -6 Y s 1039 691 m -6 Y s 1060 698 m
 -13 Y s 1082 691 m -6 Y s 1103 691 m -6 Y s 1125 691 m -6 Y s 1146 691 m -6 Y s 1168 698 m -13 Y s 1189 691 m -6 Y s 1210 691 m -6 Y s 1232 691 m -6 Y s 1253 691 m -6 Y s 1275 698 m -13 Y s 1296 691 m -6 Y s 1318 691 m -6 Y s 1339 691 m -6 Y s 1361
 691 m -6 Y s 1382 698 m -13 Y s 953 698 m -13 Y s 931 691 m -6 Y s 910 691 m -6 Y s 1382 698 m -13 Y s 1404 691 m -6 Y s 1425 691 m -6 Y s 899 1114 m 548 X s 953 1100 m 14 Y s 974 1107 m 7 Y s 996 1107 m 7 Y s 1017 1107 m 7 Y s 1039 1107 m 7 Y s
 1060 1100 m 14 Y s 1082 1107 m 7 Y s 1103 1107 m 7 Y s 1125 1107 m 7 Y s 1146 1107 m 7 Y s 1168 1100 m 14 Y s 1189 1107 m 7 Y s 1210 1107 m 7 Y s 1232 1107 m 7 Y s 1253 1107 m 7 Y s 1275 1100 m 14 Y s 1296 1107 m 7 Y s 1318 1107 m 7 Y s 1339 1107 m
 7 Y s 1361 1107 m 7 Y s 1382 1100 m 14 Y s 953 1100 m 14 Y s 931 1107 m 7 Y s 910 1107 m 7 Y s 1382 1100 m 14 Y s 1404 1107 m 7 Y s 1425 1107 m 7 Y s 899 685 m 429 Y s 915 685 m -16 X s 907 697 m -8 X s 907 709 m -8 X s 907 722 m -8 X s 907 734 m -8
 X s 915 746 m -16 X s 907 759 m -8 X s 907 771 m -8 X s 907 783 m -8 X s 907 796 m -8 X s 915 808 m -16 X s 907 820 m -8 X s 907 832 m -8 X s 907 845 m -8 X s 907 857 m -8 X s 915 869 m -16 X s 907 882 m -8 X s 907 894 m -8 X s 907 906 m -8 X s 907
 919 m -8 X s 915 931 m -16 X s 907 943 m -8 X s 907 956 m -8 X s 907 968 m -8 X s 907 980 m -8 X s 915 993 m -16 X s 907 1005 m -8 X s 907 1017 m -8 X s 907 1030 m -8 X s 907 1042 m -8 X s 915 1054 m -16 X s 915 1054 m -16 X s 907 1067 m -8 X s 907
 1079 m -8 X s 907 1091 m -8 X s 907 1104 m -8 X s 1447 685 m 429 Y s 1430 685 m 17 X s 1438 697 m 9 X s 1438 709 m 9 X s 1438 722 m 9 X s 1438 734 m 9 X s 1430 746 m 17 X s 1438 759 m 9 X s 1438 771 m 9 X s 1438 783 m 9 X s 1438 796 m 9 X s 1430 808
 m 17 X s 1438 820 m 9 X s 1438 832 m 9 X s 1438 845 m 9 X s 1438 857 m 9 X s 1430 869 m 17 X s 1438 882 m 9 X s 1438 894 m 9 X s 1438 906 m 9 X s 1438 919 m 9 X s 1430 931 m 17 X s 1438 943 m 9 X s 1438 956 m 9 X s 1438 968 m 9 X s 1438 980 m 9 X s
 1430 993 m 17 X s 1438 1005 m 9 X s 1438 1017 m 9 X s 1438 1030 m 9 X s 1438 1042 m 9 X s 1430 1054 m 17 X s 1430 1054 m 17 X s 1438 1067 m 9 X s 1438 1079 m 9 X s 1438 1091 m 9 X s 1438 1104 m 9 X s
 gsave  710 567 779 603 C 1474.92 682.347 t 90 r /Helvetica-Bold findfont 19.9602 sf 0 0 m (U/O\255flow \(S,B\): \(0.0, 0.0\)% / \(0.0, 0.0\)%) show NC gr  0.490196 0.545098 0.615686 c 0.364706 0.419608 0.490196 c 338 38 786 1130 bf 0.490196 0.545098
 0.615686 c 786 1130 m 338 X s 1124 1130 m 38 Y s 1124 1168 m -338 X s 786 1168 m -38 Y s 1 1 1 c black 1 1 1 c
 gsave  710 567 779 603 C 790.007 1142.38 t 0 r /Helvetica-Bold findfont 28.5146 sf 0 0 m (Input variable: hh.HT_l3) show NC gr  0.490196 0.545098 0.615686 c 0.941176 0.941176 0.941176 c 711 567 1534 603 bf black 1 1 0.992157 c 547 429 1655 685 bf
 black 547 429 1655 685 bl 0 0 0.933333 c 6 lw 0.49 0.6 0.82 c black 3 lw 0.49 0.6 0.82 c 1655 685 m 390 Y 14 X -221 Y 14 X 15 Y 13 X -41 Y 14 X -34 Y 14 X -23 Y 13 X 31 Y 14 X -65 Y 14 X 30 Y 13 X -2 Y 14 X -1 Y 14 X -12 Y 13 X 29 Y 14 X -23 Y 14 X
 13 Y 13 X -26 Y 14 X 46 Y 14 X -31 Y 13 X 28 Y 14 X 41 Y 14 X -23 Y 14 X 93 Y 13 X -199 Y 14 X 10 Y 14 X -10 Y 13 X 4 Y 28 X -2 Y 13 X -6 Y 14 X 17 Y 14 X -16 Y 13 X 13 Y 14 X 1 Y 14 X 8 Y 13 X -14 Y 14 X -10 Y 14 X 7 Y 13 X 9 Y 14 X -3 Y 14 X -20 Y
 13 X -3 Y f 6 lw 0 0 0.933333 c 0.49 0.6 0.82 c 0 0 0.933333 c 1655 1075 m 14 X -221 Y 14 X 15 Y 13 X -41 Y 14 X -34 Y 14 X -23 Y 13 X 31 Y 14 X -65 Y 14 X 30 Y 13 X -2 Y 14 X -1 Y 14 X -12 Y 13 X 29 Y 14 X -23 Y 14 X 13 Y 13 X -26 Y 14 X 46 Y 14 X
 -31 Y 13 X 28 Y 14 X 41 Y 14 X -23 Y 14 X 93 Y 13 X -199 Y 14 X 10 Y 14 X -10 Y 13 X 4 Y 28 X -2 Y 13 X -6 Y 14 X 17 Y 14 X -16 Y 13 X 13 Y 14 X 1 Y 14 X 8 Y 13 X -14 Y 14 X -10 Y 14 X 7 Y 13 X 9 Y 14 X -3 Y 14 X -20 Y 13 X s black 3 lw 1655 685 m
 547 X s 1666 698 m -13 Y s 1681 691 m -6 Y s 1696 691 m -6 Y s 1711 691 m -6 Y s 1726 691 m -6 Y s 1741 698 m -13 Y s 1756 691 m -6 Y s 1771 691 m -6 Y s 1786 691 m -6 Y s 1801 691 m -6 Y s 1816 698 m -13 Y s 1830 691 m -6 Y s 1845 691 m -6 Y s 1860
 691 m -6 Y s 1875 691 m -6 Y s 1890 698 m -13 Y s 1905 691 m -6 Y s 1920 691 m -6 Y s 1935 691 m -6 Y s 1950 691 m -6 Y s 1965 698 m -13 Y s 1980 691 m -6 Y s 1995 691 m -6 Y s 2010 691 m -6 Y s 2025 691 m -6 Y s 2040 698 m -13 Y s 2055 691 m -6 Y s
 2070 691 m -6 Y s 2085 691 m -6 Y s 2100 691 m -6 Y s 2115 698 m -13 Y s 2130 691 m -6 Y s 2145 691 m -6 Y s 2159 691 m -6 Y s 2174 691 m -6 Y s 2189 698 m -13 Y s 1666 698 m -13 Y s 2189 698 m -13 Y s
 gsave  711 567 1534 603 C 1653.9 656.444 t 0 r /Helvetica findfont 25.6631 sf 0 0 m (0.1) show NC gr 
 gsave  711 567 1534 603 C 1642.53 656.444 t 0 r /Symbol findfont 25.6631 sf 0 0 m (-) show NC gr 
 gsave  711 567 1534 603 C 1719.26 656.444 t 0 r /Helvetica findfont 25.6631 sf 0 0 m (0.05) show NC gr 
 gsave  711 567 1534 603 C 1707.89 656.444 t 0 r /Symbol findfont 25.6631 sf 0 0 m (-) show NC gr 
 gsave  711 567 1534 603 C 1804.51 656.444 t 0 r /Helvetica findfont 25.6631 sf 0 0 m (0) show NC gr 
 gsave  711 567 1534 603 C 1864.19 656.444 t 0 r /Helvetica findfont 25.6631 sf 0 0 m (0.05) show NC gr 
 gsave  711 567 1534 603 C 1946.6 656.444 t 0 r /Helvetica findfont 25.6631 sf 0 0 m (0.1) show NC gr 
 gsave  711 567 1534 603 C 2011.96 656.444 t 0 r /Helvetica findfont 25.6631 sf 0 0 m (0.15) show NC gr 
 gsave  711 567 1534 603 C 2097.21 656.444 t 0 r /Helvetica findfont 25.6631 sf 0 0 m (0.2) show NC gr 
 gsave  711 567 1534 603 C 2162.57 656.444 t 0 r /Helvetica findfont 25.6631 sf 0 0 m (0.25) show NC gr 
 gsave  711 567 1534 603 C 2088.69 613.818 t 0 r /Helvetica findfont 28.5146 sf 0 0 m (hh.HT_l4) show NC gr  1655 1114 m 547 X s 1666 1100 m 14 Y s 1681 1107 m 7 Y s 1696 1107 m 7 Y s 1711 1107 m 7 Y s 1726 1107 m 7 Y s 1741 1100 m 14 Y s 1756 1107 m
 7 Y s 1771 1107 m 7 Y s 1786 1107 m 7 Y s 1801 1107 m 7 Y s 1816 1100 m 14 Y s 1830 1107 m 7 Y s 1845 1107 m 7 Y s 1860 1107 m 7 Y s 1875 1107 m 7 Y s 1890 1100 m 14 Y s 1905 1107 m 7 Y s 1920 1107 m 7 Y s 1935 1107 m 7 Y s 1950 1107 m 7 Y s 1965
 1100 m 14 Y s 1980 1107 m 7 Y s 1995 1107 m 7 Y s 2010 1107 m 7 Y s 2025 1107 m 7 Y s 2040 1100 m 14 Y s 2055 1107 m 7 Y s 2070 1107 m 7 Y s 2085 1107 m 7 Y s 2100 1107 m 7 Y s 2115 1100 m 14 Y s 2130 1107 m 7 Y s 2145 1107 m 7 Y s 2159 1107 m 7 Y s
 2174 1107 m 7 Y s 2189 1100 m 14 Y s 1666 1100 m 14 Y s 2189 1100 m 14 Y s 1655 685 m 429 Y s 1671 685 m -16 X s 1663 698 m -8 X s 1663 712 m -8 X s 1663 726 m -8 X s 1671 739 m -16 X s 1663 753 m -8 X s 1663 767 m -8 X s 1663 780 m -8 X s 1671 794
 m -16 X s 1663 808 m -8 X s 1663 822 m -8 X s 1663 835 m -8 X s 1671 849 m -16 X s 1663 863 m -8 X s 1663 876 m -8 X s 1663 890 m -8 X s 1671 904 m -16 X s 1663 917 m -8 X s 1663 931 m -8 X s 1663 945 m -8 X s 1671 959 m -16 X s 1663 972 m -8 X s
 1663 986 m -8 X s 1663 1000 m -8 X s 1671 1013 m -16 X s 1663 1027 m -8 X s 1663 1041 m -8 X s 1663 1054 m -8 X s 1671 1068 m -16 X s 1671 1068 m -16 X s 1663 1082 m -8 X s 1663 1095 m -8 X s 1663 1109 m -8 X s
 gsave  711 567 1534 603 C 1631.16 673.495 t 0 r /Helvetica findfont 25.6631 sf 0 0 m (0) show NC gr 
 gsave  711 567 1534 603 C 1631.16 730.33 t 0 r /Helvetica findfont 25.6631 sf 0 0 m (2) show NC gr 
 gsave  711 567 1534 603 C 1631.16 784.323 t 0 r /Helvetica findfont 25.6631 sf 0 0 m (4) show NC gr 
 gsave  711 567 1534 603 C 1631.16 838.316 t 0 r /Helvetica findfont 25.6631 sf 0 0 m (6) show NC gr 
 gsave  711 567 1534 603 C 1631.16 895.151 t 0 r /Helvetica findfont 25.6631 sf 0 0 m (8) show NC gr 
 gsave  711 567 1534 603 C 1616.96 949.145 t 0 r /Helvetica findfont 25.6631 sf 0 0 m (10) show NC gr 
 gsave  711 567 1534 603 C 1616.96 1003.14 t 0 r /Helvetica findfont 25.6631 sf 0 0 m (12) show NC gr 
 gsave  711 567 1534 603 C 1616.96 1057.13 t 0 r /Helvetica findfont 25.6631 sf 0 0 m (14) show NC gr 
 gsave  711 567 1534 603 C 1557.28 1005.98 t 90 r /Helvetica findfont 28.5146 sf 0 0 m (0.00915 ) show NC gr 
 gsave  711 567 1534 603 C 1543.07 1003.14 t 90 r /Helvetica findfont 19.9602 sf 0 0 m ( ) show NC gr 
 gsave  711 567 1534 603 C 1557.28 991.771 t 90 r /Helvetica findfont 28.5146 sf 0 0 m (/) show NC gr 
 gsave  711 567 1534 603 C 1565.8 988.929 t 90 r /Helvetica findfont 19.9602 sf 0 0 m ( ) show NC gr 
 gsave  711 567 1534 603 C 1557.28 883.784 t 90 r /Helvetica findfont 28.5146 sf 0 0 m (\(1/N\) dN) show NC gr  2202 685 m 429 Y s 2186 685 m 16 X s 2194 698 m 8 X s 2194 712 m 8 X s 2194 726 m 8 X s 2186 739 m 16 X s 2194 753 m 8 X s 2194 767 m 8 X
 s 2194 780 m 8 X s 2186 794 m 16 X s 2194 808 m 8 X s 2194 822 m 8 X s 2194 835 m 8 X s 2186 849 m 16 X s 2194 863 m 8 X s 2194 876 m 8 X s 2194 890 m 8 X s 2186 904 m 16 X s 2194 917 m 8 X s 2194 931 m 8 X s 2194 945 m 8 X s 2186 959 m 16 X s 2194
 972 m 8 X s 2194 986 m 8 X s 2194 1000 m 8 X s 2186 1013 m 16 X s 2194 1027 m 8 X s 2194 1041 m 8 X s 2194 1054 m 8 X s 2186 1068 m 16 X s 2186 1068 m 16 X s 2194 1082 m 8 X s 2194 1095 m 8 X s 2194 1109 m 8 X s 0.490196 0.545098 0.615686 c 0.364706
 0.419608 0.490196 c 338 38 1542 1130 bf 0.490196 0.545098 0.615686 c 1542 1130 m 338 X s 1880 1130 m 38 Y s 1880 1168 m -338 X s 1542 1168 m -38 Y s 1 1 1 c black 1 1 1 c
 gsave  711 567 1534 603 C 1545.91 1142.38 t 0 r /Helvetica-Bold findfont 28.5146 sf 0 0 m (Input variable: hh.HT_l4) show NC gr  1 0 0 c 6 lw black 3 lw 1 0 0 c 2189 685 m -1 X s 2188 700 m -15 -15 d s 2175 702 m -17 -17 d s 2167 709 m -6 -6 d s
 2161 702 m -18 -17 d s 2148 704 m -20 -19 d s 2145 717 m -32 -32 d s 2121 708 m -23 -23 d s 2111 713 m -4 -4 d s 2104 705 m -21 -20 d s 2093 710 m -25 -25 d s 2093 725 m -40 -40 d s 2086 733 m -48 -48 d s 2074 737 m -8 -9 d s 2054 716 m -2 -2 d s
 2047 710 m -24 -25 d s 2038 716 m -30 -31 d s 2038 731 m -27 -28 d s 2007 699 m -15 -14 d s 2027 735 m -2 -3 d s 2020 728 m -9 -10 d s 1997 705 m -20 -20 d s 1984 706 m -22 -21 d s 1984 721 m -37 -36 d s 1972 725 m -2 -2 d s 1968 721 m -36 -36 d s
 1956 724 m -39 -39 d s 1956 739 m -54 -54 d s 1956 754 m -69 -69 d s 1956 770 m -84 -85 d s 1956 785 m -27 -28 d s 1924 752 m -67 -67 d s 1956 800 m -13 -14 d s 1930 773 m -1 -1 d s 1915 759 m -73 -74 d s 1956 815 m -13 -14 d s 1915 774 m -88 -89 d
 s 1956 830 m -13 -13 d s 1904 778 m -92 -93 d s 1952 841 m -9 -9 d s 1901 790 m -105 -105 d s 1895 799 m -7 -7 d s 1887 791 m -13 -13 d s 1866 770 m -6 -6 d s 1860 764 m -79 -79 d s 1847 766 m -81 -81 d s 1847 781 m -14 -14 d s 1828 762 m -77 -77 d
 s 1819 768 m -83 -83 d s 1819 784 m -98 -99 d s 1819 799 m -27 -28 d s 1785 764 m -79 -79 d s 1819 814 m -13 -14 d s 1792 786 m s 1776 770 m -85 -85 d s 1765 774 m -89 -89 d s 1755 780 m -94 -95 d s 1751 791 m -96 -97 d s 1745 800 m -8 -8 d s 1736
 790 m -81 -81 d s 1724 793 m -69 -68 d s 1724 809 m -69 -69 d s 1724 824 m -14 -14 d s 1704 804 m -8 -8 d s 1693 793 m -38 -38 d s 1724 839 m -14 -14 d s 1683 798 m -28 -28 d s 1714 845 m -4 -5 d s 1683 813 m -28 -28 d s 1683 828 m -28 -28 d s 1683
 843 m -28 -27 d s 1683 858 m -14 -13 d s 1663 839 m -8 -8 d s 1683 874 m -14 -14 d s 1683 889 m -14 -14 d s 1683 904 m -14 -14 d s 1683 919 m -14 -14 d s 1683 934 m -14 -13 d s 6 lw 1655 839 m 14 X 95 Y 14 X -141 Y 13 X 11 Y 14 X 41 Y 14 X -55 Y 13
 X 10 Y 14 X -20 Y 14 X -10 Y 13 X -6 Y 14 X 22 Y 14 X 29 Y 13 X -53 Y 14 X 19 Y 14 X -17 Y 13 X 6 Y 14 X 21 Y 14 X 8 Y 13 X -21 Y 14 X -26 Y 14 X 21 Y 14 X 68 Y 13 X -120 Y 14 X 4 Y 14 X -20 Y 13 X -6 Y 14 X 29 Y 14 X 7 Y 13 X -25 Y 14 X 6 Y 14 X 21
 Y 13 X -4 Y 14 X -28 Y 14 X 8 Y 13 X -5 Y 14 X 9 Y 14 X -15 Y 13 X 7 Y 14 X -9 Y 14 X -15 Y 13 X s black 3 lw 1655 685 m 547 X s 1666 698 m -13 Y s 1681 691 m -6 Y s 1696 691 m -6 Y s 1711 691 m -6 Y s 1726 691 m -6 Y s 1741 698 m -13 Y s 1756 691 m
 -6 Y s 1771 691 m -6 Y s 1786 691 m -6 Y s 1801 691 m -6 Y s 1816 698 m -13 Y s 1830 691 m -6 Y s 1845 691 m -6 Y s 1860 691 m -6 Y s 1875 691 m -6 Y s 1890 698 m -13 Y s 1905 691 m -6 Y s 1920 691 m -6 Y s 1935 691 m -6 Y s 1950 691 m -6 Y s 1965
 698 m -13 Y s 1980 691 m -6 Y s 1995 691 m -6 Y s 2010 691 m -6 Y s 2025 691 m -6 Y s 2040 698 m -13 Y s 2055 691 m -6 Y s 2070 691 m -6 Y s 2085 691 m -6 Y s 2100 691 m -6 Y s 2115 698 m -13 Y s 2130 691 m -6 Y s 2145 691 m -6 Y s 2159 691 m -6 Y s
 2174 691 m -6 Y s 2189 698 m -13 Y s 1666 698 m -13 Y s 2189 698 m -13 Y s 1655 1114 m 547 X s 1666 1100 m 14 Y s 1681 1107 m 7 Y s 1696 1107 m 7 Y s 1711 1107 m 7 Y s 1726 1107 m 7 Y s 1741 1100 m 14 Y s 1756 1107 m 7 Y s 1771 1107 m 7 Y s 1786
 1107 m 7 Y s 1801 1107 m 7 Y s 1816 1100 m 14 Y s 1830 1107 m 7 Y s 1845 1107 m 7 Y s 1860 1107 m 7 Y s 1875 1107 m 7 Y s 1890 1100 m 14 Y s 1905 1107 m 7 Y s 1920 1107 m 7 Y s 1935 1107 m 7 Y s 1950 1107 m 7 Y s 1965 1100 m 14 Y s 1980 1107 m 7 Y s
 1995 1107 m 7 Y s 2010 1107 m 7 Y s 2025 1107 m 7 Y s 2040 1100 m 14 Y s 2055 1107 m 7 Y s 2070 1107 m 7 Y s 2085 1107 m 7 Y s 2100 1107 m 7 Y s 2115 1100 m 14 Y s 2130 1107 m 7 Y s 2145 1107 m 7 Y s 2159 1107 m 7 Y s 2174 1107 m 7 Y s 2189 1100 m
 14 Y s 1666 1100 m 14 Y s 2189 1100 m 14 Y s 1655 685 m 429 Y s 1671 685 m -16 X s 1663 698 m -8 X s 1663 712 m -8 X s 1663 726 m -8 X s 1671 739 m -16 X s 1663 753 m -8 X s 1663 767 m -8 X s 1663 780 m -8 X s 1671 794 m -16 X s 1663 808 m -8 X s
 1663 822 m -8 X s 1663 835 m -8 X s 1671 849 m -16 X s 1663 863 m -8 X s 1663 876 m -8 X s 1663 890 m -8 X s 1671 904 m -16 X s 1663 917 m -8 X s 1663 931 m -8 X s 1663 945 m -8 X s 1671 959 m -16 X s 1663 972 m -8 X s 1663 986 m -8 X s 1663 1000 m
 -8 X s 1671 1013 m -16 X s 1663 1027 m -8 X s 1663 1041 m -8 X s 1663 1054 m -8 X s 1671 1068 m -16 X s 1671 1068 m -16 X s 1663 1082 m -8 X s 1663 1095 m -8 X s 1663 1109 m -8 X s 2202 685 m 429 Y s 2186 685 m 16 X s 2194 698 m 8 X s 2194 712 m 8 X
 s 2194 726 m 8 X s 2186 739 m 16 X s 2194 753 m 8 X s 2194 767 m 8 X s 2194 780 m 8 X s 2186 794 m 16 X s 2194 808 m 8 X s 2194 822 m 8 X s 2194 835 m 8 X s 2186 849 m 16 X s 2194 863 m 8 X s 2194 876 m 8 X s 2194 890 m 8 X s 2186 904 m 16 X s 2194
 917 m 8 X s 2194 931 m 8 X s 2194 945 m 8 X s 2186 959 m 16 X s 2194 972 m 8 X s 2194 986 m 8 X s 2194 1000 m 8 X s 2186 1013 m 16 X s 2194 1027 m 8 X s 2194 1041 m 8 X s 2194 1054 m 8 X s 2186 1068 m 16 X s 2186 1068 m 16 X s 2194 1082 m 8 X s 2194
 1095 m 8 X s 2194 1109 m 8 X s
 gsave  711 567 1534 603 C 2230.83 682.347 t 90 r /Helvetica-Bold findfont 19.9602 sf 0 0 m (U/O\255flow \(S,B\): \(0.0, 0.0\)% / \(0.0, 0.0\)%) show NC gr  0.490196 0.545098 0.615686 c 0.364706 0.419608 0.490196 c 338 38 1542 1130 bf 0.490196
 0.545098 0.615686 c 1542 1130 m 338 X s 1880 1130 m 38 Y s 1880 1168 m -338 X s 1542 1168 m -38 Y s 1 1 1 c black 1 1 1 c
 gsave  711 567 1534 603 C 1545.91 1142.38 t 0 r /Helvetica-Bold findfont 28.5146 sf 0 0 m (Input variable: hh.HT_l4) show NC gr  0.490196 0.545098 0.615686 c 0.941176 0.941176 0.941176 c 710 567 23 12 bf black 1 1 0.992157 c 548 429 143 94 bf black
 548 429 143 94 bl 0 0 0.933333 c 6 lw 0.49 0.6 0.82 c black 3 lw 0.49 0.6 0.82 c 143 94 m 30 Y 14 X 6 Y 14 X -17 Y 14 X -5 Y 13 X 7 Y 14 X 25 Y 14 X -22 Y 13 X 5 Y 14 X -2 Y 14 X 6 Y 13 X -17 Y 14 X 109 Y 14 X 63 Y 13 X 202 Y 14 X -84 Y 14 X -115 Y
 13 X -37 Y 14 X 2 Y 14 X -33 Y 13 X 30 Y 14 X -11 Y 14 X 27 Y 13 X 6 Y 14 X -11 Y 14 X -12 Y 13 X 139 Y 14 X 92 Y 14 X -103 Y 13 X -270 Y 14 X -10 Y 69 X 1 Y 27 X -1 Y 55 X f 6 lw 0 0 0.933333 c 0.49 0.6 0.82 c 0 0 0.933333 c 143 124 m 14 X 6 Y 14 X
 -17 Y 14 X -5 Y 13 X 7 Y 14 X 25 Y 14 X -22 Y 13 X 5 Y 14 X -2 Y 14 X 6 Y 13 X -17 Y 14 X 109 Y 14 X 63 Y 13 X 202 Y 14 X -84 Y 14 X -115 Y 13 X -37 Y 14 X 2 Y 14 X -33 Y 13 X 30 Y 14 X -11 Y 14 X 27 Y 13 X 6 Y 14 X -11 Y 14 X -12 Y 13 X 139 Y 14 X
 92 Y 14 X -103 Y 13 X -270 Y 14 X -10 Y 69 X 1 Y 27 X -1 Y 55 X s black 3 lw 143 94 m 548 X s 197 107 m -13 Y s 219 100 m -6 Y s 240 100 m -6 Y s 262 100 m -6 Y s 284 100 m -6 Y s 305 107 m -13 Y s 327 100 m -6 Y s 348 100 m -6 Y s 370 100 m -6 Y s
 392 100 m -6 Y s 413 107 m -13 Y s 435 100 m -6 Y s 456 100 m -6 Y s 478 100 m -6 Y s 500 100 m -6 Y s 521 107 m -13 Y s 543 100 m -6 Y s 564 100 m -6 Y s 586 100 m -6 Y s 608 100 m -6 Y s 629 107 m -13 Y s 197 107 m -13 Y s 176 100 m -6 Y s 154 100
 m -6 Y s 629 107 m -13 Y s 651 100 m -6 Y s 672 100 m -6 Y s
 gsave  710 567 23 12 C 184.714 65.3603 t 0 r /Helvetica findfont 25.6631 sf 0 0 m (0.2) show NC gr 
 gsave  710 567 23 12 C 170.505 65.3603 t 0 r /Symbol findfont 25.6631 sf 0 0 m (-) show NC gr 
 gsave  710 567 23 12 C 292.7 65.3603 t 0 r /Helvetica findfont 25.6631 sf 0 0 m (0.1) show NC gr 
 gsave  710 567 23 12 C 281.333 65.3603 t 0 r /Symbol findfont 25.6631 sf 0 0 m (-) show NC gr 
 gsave  710 567 23 12 C 403.529 65.3603 t 0 r /Helvetica findfont 25.6631 sf 0 0 m (0) show NC gr 
 gsave  710 567 23 12 C 502.99 65.3603 t 0 r /Helvetica findfont 25.6631 sf 0 0 m (0.1) show NC gr 
 gsave  710 567 23 12 C 610.976 65.3603 t 0 r /Helvetica findfont 25.6631 sf 0 0 m (0.2) show NC gr 
 gsave  710 567 23 12 C 576.875 22.734 t 0 r /Helvetica findfont 28.5146 sf 0 0 m (hh.HT_l5) show NC gr  143 523 m 548 X s 197 509 m 14 Y s 219 516 m 7 Y s 240 516 m 7 Y s 262 516 m 7 Y s 284 516 m 7 Y s 305 509 m 14 Y s 327 516 m 7 Y s 348 516 m 7 Y
 s 370 516 m 7 Y s 392 516 m 7 Y s 413 509 m 14 Y s 435 516 m 7 Y s 456 516 m 7 Y s 478 516 m 7 Y s 500 516 m 7 Y s 521 509 m 14 Y s 543 516 m 7 Y s 564 516 m 7 Y s 586 516 m 7 Y s 608 516 m 7 Y s 629 509 m 14 Y s 197 509 m 14 Y s 176 516 m 7 Y s 154
 516 m 7 Y s 629 509 m 14 Y s 651 516 m 7 Y s 672 516 m 7 Y s 143 94 m 429 Y s 160 94 m -17 X s 152 103 m -9 X s 152 113 m -9 X s 152 123 m -9 X s 152 133 m -9 X s 160 142 m -17 X s 152 152 m -9 X s 152 162 m -9 X s 152 172 m -9 X s 152 182 m -9 X s
 160 191 m -17 X s 152 201 m -9 X s 152 211 m -9 X s 152 221 m -9 X s 152 230 m -9 X s 160 240 m -17 X s 152 250 m -9 X s 152 260 m -9 X s 152 270 m -9 X s 152 279 m -9 X s 160 289 m -17 X s 152 299 m -9 X s 152 309 m -9 X s 152 319 m -9 X s 152 328
 m -9 X s 160 338 m -17 X s 152 348 m -9 X s 152 358 m -9 X s 152 367 m -9 X s 152 377 m -9 X s 160 387 m -17 X s 152 397 m -9 X s 152 407 m -9 X s 152 416 m -9 X s 152 426 m -9 X s 160 436 m -17 X s 152 446 m -9 X s 152 455 m -9 X s 152 465 m -9 X s
 152 475 m -9 X s 160 485 m -17 X s 160 485 m -17 X s 152 495 m -9 X s 152 504 m -9 X s 152 514 m -9 X s
 gsave  710 567 23 12 C 119.354 82.4108 t 0 r /Helvetica findfont 25.6631 sf 0 0 m (0) show NC gr 
 gsave  710 567 23 12 C 122.195 133.562 t 0 r /Helvetica findfont 25.6631 sf 0 0 m (1) show NC gr 
 gsave  710 567 23 12 C 119.354 181.872 t 0 r /Helvetica findfont 25.6631 sf 0 0 m (2) show NC gr 
 gsave  710 567 23 12 C 119.354 230.182 t 0 r /Helvetica findfont 25.6631 sf 0 0 m (3) show NC gr 
 gsave  710 567 23 12 C 119.354 278.492 t 0 r /Helvetica findfont 25.6631 sf 0 0 m (4) show NC gr 
 gsave  710 567 23 12 C 119.354 326.801 t 0 r /Helvetica findfont 25.6631 sf 0 0 m (5) show NC gr 
 gsave  710 567 23 12 C 119.354 377.953 t 0 r /Helvetica findfont 25.6631 sf 0 0 m (6) show NC gr 
 gsave  710 567 23 12 C 119.354 426.263 t 0 r /Helvetica findfont 25.6631 sf 0 0 m (7) show NC gr 
 gsave  710 567 23 12 C 119.354 474.572 t 0 r /Helvetica findfont 25.6631 sf 0 0 m (8) show NC gr 
 gsave  710 567 23 12 C 45.468 431.946 t 90 r /Helvetica findfont 28.5146 sf 0 0 m (0.0127 ) show NC gr 
 gsave  710 567 23 12 C 31.2593 429.104 t 90 r /Helvetica findfont 19.9602 sf 0 0 m ( ) show NC gr 
 gsave  710 567 23 12 C 45.468 417.737 t 90 r /Helvetica findfont 28.5146 sf 0 0 m (/) show NC gr 
 gsave  710 567 23 12 C 53.9933 414.896 t 90 r /Helvetica findfont 19.9602 sf 0 0 m ( ) show NC gr 
 gsave  710 567 23 12 C 45.468 309.751 t 90 r /Helvetica findfont 28.5146 sf 0 0 m (\(1/N\) dN) show NC gr  691 94 m 429 Y s 674 94 m 17 X s 683 103 m 8 X s 683 113 m 8 X s 683 123 m 8 X s 683 133 m 8 X s 674 142 m 17 X s 683 152 m 8 X s 683 162 m 8
 X s 683 172 m 8 X s 683 182 m 8 X s 674 191 m 17 X s 683 201 m 8 X s 683 211 m 8 X s 683 221 m 8 X s 683 230 m 8 X s 674 240 m 17 X s 683 250 m 8 X s 683 260 m 8 X s 683 270 m 8 X s 683 279 m 8 X s 674 289 m 17 X s 683 299 m 8 X s 683 309 m 8 X s
 683 319 m 8 X s 683 328 m 8 X s 674 338 m 17 X s 683 348 m 8 X s 683 358 m 8 X s 683 367 m 8 X s 683 377 m 8 X s 674 387 m 17 X s 683 397 m 8 X s 683 407 m 8 X s 683 416 m 8 X s 683 426 m 8 X s 674 436 m 17 X s 683 446 m 8 X s 683 455 m 8 X s 683
 465 m 8 X s 683 475 m 8 X s 674 485 m 17 X s 674 485 m 17 X s 683 495 m 8 X s 683 504 m 8 X s 683 514 m 8 X s 0.490196 0.545098 0.615686 c 0.364706 0.419608 0.490196 c 338 37 30 539 bf 0.490196 0.545098 0.615686 c 30 539 m 338 X s 368 539 m 37 Y s
 368 576 m -338 X s 30 576 m -37 Y s 1 1 1 c black 1 1 1 c
 gsave  710 567 23 12 C 34.101 551.299 t 0 r /Helvetica-Bold findfont 28.5146 sf 0 0 m (Input variable: hh.HT_l5) show NC gr  1 0 0 c 6 lw black 3 lw 1 0 0 c 679 96 m -2 -2 d s 666 98 m -4 -4 d s 654 101 m -8 -7 d s 644 106 m -13 -12 d s 631 108 m
 -15 -14 d s 622 115 m -21 -21 d s 622 130 m -13 -14 d s 602 110 m -16 -16 d s 595 117 m -24 -23 d s 595 133 m -39 -39 d s 582 135 m -1 -1 d s 579 132 m -38 -38 d s 554 122 m -28 -28 d s 542 125 m -2 -2 d s 536 119 m -25 -25 d s 526 125 m -30 -31 d s
 526 140 m -45 -46 d s 526 155 m -60 -61 d s 526 170 m -76 -76 d s 526 185 m -91 -91 d s 526 200 m -106 -106 d s 526 216 m -121 -122 d s 526 231 m -136 -137 d s 526 246 m -151 -152 d s 526 261 m -166 -167 d s 514 264 m -169 -170 d s 513 278 m -183
 -184 d s 513 293 m -28 -28 d s 477 257 m -162 -163 d s 513 308 m -14 -14 d s 494 289 m -9 -8 d s 472 267 m -14 -14 d s 453 248 m -153 -154 d s 513 323 m -14 -13 d s 472 282 m -14 -14 d s 444 254 m -159 -160 d s 505 330 m -6 -5 d s 459 285 m -1 -2 d
 s 444 270 m -150 -152 d s 273 97 m -3 -3 d s 444 285 m -150 -152 d s 267 106 m -12 -12 d s 444 300 m -27 -28 d s 413 268 m -37 -37 d s 365 220 m -71 -72 d s 267 121 m -28 -27 d s 430 300 m -13 -12 d s 403 274 m -27 -28 d s 362 232 m -68 -68 d s 258
 127 m -19 -19 d s 230 99 m -6 -5 d s 393 278 m -17 -17 d s 362 248 m -68 -69 d s 241 126 m -2 -2 d s 225 109 m -16 -15 d s 390 290 m -14 -13 d s 362 263 m -68 -69 d s 198 98 m -4 -4 d s 390 306 m -14 -14 d s 362 278 m -68 -69 d s 198 113 m -19 -19 d
 s 378 309 m -2 -2 d s 362 293 m -68 -69 d s 198 128 m -13 -14 d s 171 100 m -7 -6 d s 362 308 m -54 -55 d s 300 246 m -6 -7 d s 189 134 m -4 -5 d s 171 116 m -22 -22 d s 353 315 m -32 -33 d s 320 281 m -12 -13 d s 160 119 m -3 -2 d s 149 108 m -6 -5
 d s 349 325 m -28 -28 d s 349 340 m -28 -27 d s 345 352 m -24 -24 d s 335 357 m -14 -14 d s 335 372 m -14 -14 d s 335 387 m -14 -14 d s 335 402 m -14 -13 d s 335 417 m -14 -13 d s 335 433 m -14 -14 d s 335 448 m -14 -14 d s 331 459 m -10 -10 d s 6
 lw 143 108 m 14 X 11 Y 14 X -20 Y 14 X 35 Y 13 X -37 Y 14 X 12 Y 14 X -10 Y 13 X 27 Y 14 X 1 Y 14 X -30 Y 13 X 6 Y 14 X 143 Y 14 X 35 Y 13 X 178 Y 14 X -107 Y 14 X -37 Y 13 X -95 Y 14 X 89 Y 14 X -31 Y 13 X -10 Y 14 X 32 Y 14 X 1 Y 13 X -53 Y 14 X
 37 Y 14 X -28 Y 13 X 32 Y 14 X 41 Y 14 X -66 Y 13 X -145 Y 14 X 6 Y 14 X -3 Y 13 X 10 Y 14 X 3 Y 14 X -25 Y 14 X 21 Y 13 X -23 Y 14 X -2 Y 14 X -5 Y 13 X -3 Y 14 X -2 Y 14 X s black 3 lw 143 94 m 548 X s 197 107 m -13 Y s 219 100 m -6 Y s 240 100 m
 -6 Y s 262 100 m -6 Y s 284 100 m -6 Y s 305 107 m -13 Y s 327 100 m -6 Y s 348 100 m -6 Y s 370 100 m -6 Y s 392 100 m -6 Y s 413 107 m -13 Y s 435 100 m -6 Y s 456 100 m -6 Y s 478 100 m -6 Y s 500 100 m -6 Y s 521 107 m -13 Y s 543 100 m -6 Y s
 564 100 m -6 Y s 586 100 m -6 Y s 608 100 m -6 Y s 629 107 m -13 Y s 197 107 m -13 Y s 176 100 m -6 Y s 154 100 m -6 Y s 629 107 m -13 Y s 651 100 m -6 Y s 672 100 m -6 Y s 143 523 m 548 X s 197 509 m 14 Y s 219 516 m 7 Y s 240 516 m 7 Y s 262 516 m
 7 Y s 284 516 m 7 Y s 305 509 m 14 Y s 327 516 m 7 Y s 348 516 m 7 Y s 370 516 m 7 Y s 392 516 m 7 Y s 413 509 m 14 Y s 435 516 m 7 Y s 456 516 m 7 Y s 478 516 m 7 Y s 500 516 m 7 Y s 521 509 m 14 Y s 543 516 m 7 Y s 564 516 m 7 Y s 586 516 m 7 Y s
 608 516 m 7 Y s 629 509 m 14 Y s 197 509 m 14 Y s 176 516 m 7 Y s 154 516 m 7 Y s 629 509 m 14 Y s 651 516 m 7 Y s 672 516 m 7 Y s 143 94 m 429 Y s 160 94 m -17 X s 152 103 m -9 X s 152 113 m -9 X s 152 123 m -9 X s 152 133 m -9 X s 160 142 m -17 X
 s 152 152 m -9 X s 152 162 m -9 X s 152 172 m -9 X s 152 182 m -9 X s 160 191 m -17 X s 152 201 m -9 X s 152 211 m -9 X s 152 221 m -9 X s 152 230 m -9 X s 160 240 m -17 X s 152 250 m -9 X s 152 260 m -9 X s 152 270 m -9 X s 152 279 m -9 X s 160 289
 m -17 X s 152 299 m -9 X s 152 309 m -9 X s 152 319 m -9 X s 152 328 m -9 X s 160 338 m -17 X s 152 348 m -9 X s 152 358 m -9 X s 152 367 m -9 X s 152 377 m -9 X s 160 387 m -17 X s 152 397 m -9 X s 152 407 m -9 X s 152 416 m -9 X s 152 426 m -9 X s
 160 436 m -17 X s 152 446 m -9 X s 152 455 m -9 X s 152 465 m -9 X s 152 475 m -9 X s 160 485 m -17 X s 160 485 m -17 X s 152 495 m -9 X s 152 504 m -9 X s 152 514 m -9 X s 691 94 m 429 Y s 674 94 m 17 X s 683 103 m 8 X s 683 113 m 8 X s 683 123 m 8
 X s 683 133 m 8 X s 674 142 m 17 X s 683 152 m 8 X s 683 162 m 8 X s 683 172 m 8 X s 683 182 m 8 X s 674 191 m 17 X s 683 201 m 8 X s 683 211 m 8 X s 683 221 m 8 X s 683 230 m 8 X s 674 240 m 17 X s 683 250 m 8 X s 683 260 m 8 X s 683 270 m 8 X s
 683 279 m 8 X s 674 289 m 17 X s 683 299 m 8 X s 683 309 m 8 X s 683 319 m 8 X s 683 328 m 8 X s 674 338 m 17 X s 683 348 m 8 X s 683 358 m 8 X s 683 367 m 8 X s 683 377 m 8 X s 674 387 m 17 X s 683 397 m 8 X s 683 407 m 8 X s 683 416 m 8 X s 683
 426 m 8 X s 674 436 m 17 X s 683 446 m 8 X s 683 455 m 8 X s 683 465 m 8 X s 683 475 m 8 X s 674 485 m 17 X s 674 485 m 17 X s 683 495 m 8 X s 683 504 m 8 X s 683 514 m 8 X s
 gsave  710 567 23 12 C 719.017 91.2634 t 90 r /Helvetica-Bold findfont 19.9602 sf 0 0 m (U/O\255flow \(S,B\): \(0.0, 0.0\)% / \(0.0, 0.0\)%) show NC gr  0.490196 0.545098 0.615686 c 0.364706 0.419608 0.490196 c 338 37 30 539 bf 0.490196 0.545098
 0.615686 c 30 539 m 338 X s 368 539 m 37 Y s 368 576 m -338 X s 30 576 m -37 Y s 1 1 1 c black 1 1 1 c
 gsave  710 567 23 12 C 34.101 551.299 t 0 r /Helvetica-Bold findfont 28.5146 sf 0 0 m (Input variable: hh.HT_l5) show NC gr  0.490196 0.545098 0.615686 c 0.941176 0.941176 0.941176 c 710 567 779 12 bf black 1 1 0.992157 c 548 429 899 94 bf black 548
 429 899 94 bl 0 0 0.933333 c 6 lw 0.49 0.6 0.82 c black 3 lw 0.49 0.6 0.82 c 899 151 m 1 Y 41 X 4 Y 14 X -2 Y 14 X 16 Y 13 X -14 Y 14 X 1 Y 14 X 5 Y 13 X 4 Y 14 X 2 Y 14 X 18 Y 14 X -12 Y 13 X -17 Y 14 X 51 Y 14 X -94 Y 13 X 112 Y 14 X 55 Y 14 X 7 Y
 13 X 44 Y 14 X 46 Y 14 X 59 Y 13 X -2 Y 14 X 54 Y 14 X -4 Y 13 X -54 Y 14 X 23 Y 14 X -25 Y 13 X 36 Y 14 X -17 Y 14 X -32 Y 13 X -80 Y 14 X -20 Y 14 X -61 Y 13 X -69 Y 14 X -35 Y 69 X f 6 lw 0 0 0.933333 c 0.49 0.6 0.82 c 0 0 0.933333 c 899 152 m 41
 X 4 Y 14 X -2 Y 14 X 16 Y 13 X -14 Y 14 X 1 Y 14 X 5 Y 13 X 4 Y 14 X 2 Y 14 X 18 Y 14 X -12 Y 13 X -17 Y 14 X 51 Y 14 X -94 Y 13 X 112 Y 14 X 55 Y 14 X 7 Y 13 X 44 Y 14 X 46 Y 14 X 59 Y 13 X -2 Y 14 X 54 Y 14 X -4 Y 13 X -54 Y 14 X 23 Y 14 X -25 Y
 13 X 36 Y 14 X -17 Y 14 X -32 Y 13 X -80 Y 14 X -20 Y 14 X -61 Y 13 X -69 Y 14 X -35 Y 69 X s black 3 lw 899 94 m 548 X s 947 107 m -13 Y s 966 100 m -6 Y s 986 100 m -6 Y s 1005 100 m -6 Y s 1024 100 m -6 Y s 1043 107 m -13 Y s 1063 100 m -6 Y s
 1082 100 m -6 Y s 1101 100 m -6 Y s 1120 100 m -6 Y s 1140 107 m -13 Y s 1159 100 m -6 Y s 1178 100 m -6 Y s 1197 100 m -6 Y s 1217 100 m -6 Y s 1236 107 m -13 Y s 1255 100 m -6 Y s 1274 100 m -6 Y s 1294 100 m -6 Y s 1313 100 m -6 Y s 1332 107 m
 -13 Y s 1352 100 m -6 Y s 1371 100 m -6 Y s 1390 100 m -6 Y s 1409 100 m -6 Y s 1429 107 m -13 Y s 947 107 m -13 Y s 928 100 m -6 Y s 909 100 m -6 Y s 1429 107 m -13 Y s
 gsave  710 567 779 12 C 934.936 65.3603 t 0 r /Helvetica findfont 25.6631 sf 0 0 m (0.2) show NC gr 
 gsave  710 567 779 12 C 920.727 65.3603 t 0 r /Symbol findfont 25.6631 sf 0 0 m (-) show NC gr 
 gsave  710 567 779 12 C 1031.56 65.3603 t 0 r /Helvetica findfont 25.6631 sf 0 0 m (0.1) show NC gr 
 gsave  710 567 779 12 C 1020.19 65.3603 t 0 r /Symbol findfont 25.6631 sf 0 0 m (-) show NC gr 
 gsave  710 567 779 12 C 1131.02 65.3603 t 0 r /Helvetica findfont 25.6631 sf 0 0 m (0) show NC gr 
 gsave  710 567 779 12 C 1216.27 65.3603 t 0 r /Helvetica findfont 25.6631 sf 0 0 m (0.1) show NC gr 
 gsave  710 567 779 12 C 1312.89 65.3603 t 0 r /Helvetica findfont 25.6631 sf 0 0 m (0.2) show NC gr 
 gsave  710 567 779 12 C 1409.51 65.3603 t 0 r /Helvetica findfont 25.6631 sf 0 0 m (0.3) show NC gr 
 gsave  710 567 779 12 C 1341.31 25.5758 t 0 r /Helvetica findfont 28.5146 sf 0 0 m (yy.HP_l1) show NC gr  899 523 m 548 X s 947 509 m 14 Y s 966 516 m 7 Y s 986 516 m 7 Y s 1005 516 m 7 Y s 1024 516 m 7 Y s 1043 509 m 14 Y s 1063 516 m 7 Y s 1082
 516 m 7 Y s 1101 516 m 7 Y s 1120 516 m 7 Y s 1140 509 m 14 Y s 1159 516 m 7 Y s 1178 516 m 7 Y s 1197 516 m 7 Y s 1217 516 m 7 Y s 1236 509 m 14 Y s 1255 516 m 7 Y s 1274 516 m 7 Y s 1294 516 m 7 Y s 1313 516 m 7 Y s 1332 509 m 14 Y s 1352 516 m 7
 Y s 1371 516 m 7 Y s 1390 516 m 7 Y s 1409 516 m 7 Y s 1429 509 m 14 Y s 947 509 m 14 Y s 928 516 m 7 Y s 909 516 m 7 Y s 1429 509 m 14 Y s 899 94 m 429 Y s 915 151 m -16 X s 907 163 m -8 X s 907 176 m -8 X s 907 188 m -8 X s 907 201 m -8 X s 915
 213 m -16 X s 907 226 m -8 X s 907 238 m -8 X s 907 251 m -8 X s 907 263 m -8 X s 915 276 m -16 X s 907 288 m -8 X s 907 301 m -8 X s 907 313 m -8 X s 907 325 m -8 X s 915 338 m -16 X s 907 350 m -8 X s 907 363 m -8 X s 907 375 m -8 X s 907 388 m -8
 X s 915 400 m -16 X s 907 413 m -8 X s 907 425 m -8 X s 907 438 m -8 X s 907 450 m -8 X s 915 463 m -16 X s 915 151 m -16 X s 907 138 m -8 X s 907 126 m -8 X s 907 113 m -8 X s 907 101 m -8 X s 915 463 m -16 X s 907 475 m -8 X s 907 488 m -8 X s 907
 500 m -8 X s 907 513 m -8 X s
 gsave  710 567 779 12 C 875.259 142.088 t 0 r /Helvetica findfont 25.6631 sf 0 0 m (0) show NC gr 
 gsave  710 567 779 12 C 878.101 204.606 t 0 r /Helvetica findfont 25.6631 sf 0 0 m (1) show NC gr 
 gsave  710 567 779 12 C 875.259 264.283 t 0 r /Helvetica findfont 25.6631 sf 0 0 m (2) show NC gr 
 gsave  710 567 779 12 C 875.259 326.801 t 0 r /Helvetica findfont 25.6631 sf 0 0 m (3) show NC gr 
 gsave  710 567 779 12 C 875.259 389.32 t 0 r /Helvetica findfont 25.6631 sf 0 0 m (4) show NC gr 
 gsave  710 567 779 12 C 875.259 451.838 t 0 r /Helvetica findfont 25.6631 sf 0 0 m (5) show NC gr 
 gsave  710 567 779 12 C 801.374 431.946 t 90 r /Helvetica findfont 28.5146 sf 0 0 m (0.0142 ) show NC gr 
 gsave  710 567 779 12 C 787.165 429.104 t 90 r /Helvetica findfont 19.9602 sf 0 0 m ( ) show NC gr 
 gsave  710 567 779 12 C 801.374 417.737 t 90 r /Helvetica findfont 28.5146 sf 0 0 m (/) show NC gr 
 gsave  710 567 779 12 C 809.899 414.896 t 90 r /Helvetica findfont 19.9602 sf 0 0 m ( ) show NC gr 
 gsave  710 567 779 12 C 801.374 309.751 t 90 r /Helvetica findfont 28.5146 sf 0 0 m (\(1/N\) dN) show NC gr  1447 94 m 429 Y s 1430 151 m 17 X s 1438 163 m 9 X s 1438 176 m 9 X s 1438 188 m 9 X s 1438 201 m 9 X s 1430 213 m 17 X s 1438 226 m 9 X s
 1438 238 m 9 X s 1438 251 m 9 X s 1438 263 m 9 X s 1430 276 m 17 X s 1438 288 m 9 X s 1438 301 m 9 X s 1438 313 m 9 X s 1438 325 m 9 X s 1430 338 m 17 X s 1438 350 m 9 X s 1438 363 m 9 X s 1438 375 m 9 X s 1438 388 m 9 X s 1430 400 m 17 X s 1438 413
 m 9 X s 1438 425 m 9 X s 1438 438 m 9 X s 1438 450 m 9 X s 1430 463 m 17 X s 1430 151 m 17 X s 1438 138 m 9 X s 1438 126 m 9 X s 1438 113 m 9 X s 1438 101 m 9 X s 1430 463 m 17 X s 1438 475 m 9 X s 1438 488 m 9 X s 1438 500 m 9 X s 1438 513 m 9 X s
 0.490196 0.545098 0.615686 c 0.364706 0.419608 0.490196 c 329 37 786 539 bf 0.490196 0.545098 0.615686 c 786 539 m 329 X s 1115 539 m 37 Y s 1115 576 m -329 X s 786 576 m -37 Y s 1 1 1 c black 1 1 1 c
 gsave  710 567 779 12 C 790.007 551.299 t 0 r /Helvetica-Bold findfont 28.5146 sf 0 0 m (Input variable: yy.HP_l1) show NC gr  1 0 0 c 6 lw black 3 lw 1 0 0 c 1444 151 m s 1429 151 m s 1414 151 m s 1399 151 m s 1384 151 m s 1373 155 m -4 -4 d s 1364
 162 m -10 -11 d s 1364 177 m -25 -26 d s 1352 180 m -28 -29 d s 1351 193 m -42 -42 d s 1348 206 m -55 -55 d s 1324 197 m -1 -1 d s 1321 194 m -43 -43 d s 1310 198 m -47 -47 d s 1310 213 m -62 -62 d s 1310 228 m -77 -77 d s 1302 235 m -84 -84 d s
 1290 238 m -87 -87 d s 1282 246 m -94 -95 d s 1282 261 m -13 -14 d s 1255 234 m -82 -83 d s 1273 267 m -4 -4 d s 1255 249 m -14 -14 d s 1229 223 m -71 -72 d s 1249 258 m -8 -8 d s 1228 236 m -85 -85 d s 1228 252 m -100 -101 d s 1228 267 m -115 -116
 d s 1227 281 m -13 -13 d s 1212 266 m -115 -115 d s 1200 270 m -118 -119 d s 1200 285 m -133 -134 d s 1195 295 m -143 -144 d s 1187 301 m -150 -150 d s 1187 317 m -14 -14 d s 1164 294 m -142 -143 d s 1187 332 m -14 -14 d s 1159 304 m -54 -55 d s
 1104 248 m -97 -97 d s 1184 344 m -11 -11 d s 1149 309 m -44 -45 d s 1091 250 m -99 -99 d s 1146 321 m -41 -42 d s 1091 266 m -114 -115 d s 1146 336 m -14 -14 d s 1124 314 m -19 -19 d s 1091 281 m -14 -14 d s 1074 264 m -112 -113 d s 1118 324 m -13
 -14 d s 1091 296 m -14 -14 d s 1059 264 m -112 -113 d s 1118 339 m -13 -14 d s 1091 311 m -14 -14 d s 1050 270 m -118 -119 d s 1110 346 m -5 -6 d s 1091 326 m -14 -13 d s 1050 285 m -133 -134 d s 1084 334 m -7 -6 d s 1045 296 m -143 -145 d s 1036
 302 m -137 -138 d s 1036 317 m -41 -42 d s 981 262 m -82 -83 d s 1036 332 m -41 -41 d s 981 277 m -68 -69 d s 912 207 m -13 -13 d s 1036 347 m -41 -41 d s 981 292 m -68 -69 d s 1028 354 m -6 -5 d s 1012 338 m -17 -17 d s 981 307 m -68 -69 d s 1009
 350 m -14 -14 d s 981 322 m -68 -68 d s 996 352 m -1 -1 d s 975 331 m -35 -35 d s 930 286 m -3 -3 d s 965 337 m -25 -26 d s 954 340 m -14 -13 d s 954 356 m -14 -14 d s 941 358 m -1 -1 d s 6 lw 899 207 m 14 X 61 Y 14 X 18 Y 13 X 72 Y 14 X -21 Y 14 X
 -6 Y 13 X -70 Y 14 X 91 Y 14 X -14 Y 13 X 16 Y 14 X -58 Y 14 X -32 Y 27 X 70 Y 14 X -86 Y 14 X 98 Y 13 X -32 Y 14 X 23 Y 14 X -28 Y 13 X -15 Y 14 X 50 Y 14 X -49 Y 13 X -29 Y 14 X 15 Y 14 X -58 Y 13 X 35 Y 14 X -25 Y 14 X 34 Y 13 X -29 Y 14 X -3 Y
 14 X -41 Y 13 X 3 Y 14 X 9 Y 14 X -26 Y 13 X -25 Y 14 X -4 Y 69 X s black 3 lw 899 94 m 548 X s 947 107 m -13 Y s 966 100 m -6 Y s 986 100 m -6 Y s 1005 100 m -6 Y s 1024 100 m -6 Y s 1043 107 m -13 Y s 1063 100 m -6 Y s 1082 100 m -6 Y s 1101 100 m
 -6 Y s 1120 100 m -6 Y s 1140 107 m -13 Y s 1159 100 m -6 Y s 1178 100 m -6 Y s 1197 100 m -6 Y s 1217 100 m -6 Y s 1236 107 m -13 Y s 1255 100 m -6 Y s 1274 100 m -6 Y s 1294 100 m -6 Y s 1313 100 m -6 Y s 1332 107 m -13 Y s 1352 100 m -6 Y s 1371
 100 m -6 Y s 1390 100 m -6 Y s 1409 100 m -6 Y s 1429 107 m -13 Y s 947 107 m -13 Y s 928 100 m -6 Y s 909 100 m -6 Y s 1429 107 m -13 Y s 899 523 m 548 X s 947 509 m 14 Y s 966 516 m 7 Y s 986 516 m 7 Y s 1005 516 m 7 Y s 1024 516 m 7 Y s 1043 509
 m 14 Y s 1063 516 m 7 Y s 1082 516 m 7 Y s 1101 516 m 7 Y s 1120 516 m 7 Y s 1140 509 m 14 Y s 1159 516 m 7 Y s 1178 516 m 7 Y s 1197 516 m 7 Y s 1217 516 m 7 Y s 1236 509 m 14 Y s 1255 516 m 7 Y s 1274 516 m 7 Y s 1294 516 m 7 Y s 1313 516 m 7 Y s
 1332 509 m 14 Y s 1352 516 m 7 Y s 1371 516 m 7 Y s 1390 516 m 7 Y s 1409 516 m 7 Y s 1429 509 m 14 Y s 947 509 m 14 Y s 928 516 m 7 Y s 909 516 m 7 Y s 1429 509 m 14 Y s 899 94 m 429 Y s 915 151 m -16 X s 907 163 m -8 X s 907 176 m -8 X s 907 188 m
 -8 X s 907 201 m -8 X s 915 213 m -16 X s 907 226 m -8 X s 907 238 m -8 X s 907 251 m -8 X s 907 263 m -8 X s 915 276 m -16 X s 907 288 m -8 X s 907 301 m -8 X s 907 313 m -8 X s 907 325 m -8 X s 915 338 m -16 X s 907 350 m -8 X s 907 363 m -8 X s
 907 375 m -8 X s 907 388 m -8 X s 915 400 m -16 X s 907 413 m -8 X s 907 425 m -8 X s 907 438 m -8 X s 907 450 m -8 X s 915 463 m -16 X s 915 151 m -16 X s 907 138 m -8 X s 907 126 m -8 X s 907 113 m -8 X s 907 101 m -8 X s 915 463 m -16 X s 907 475
 m -8 X s 907 488 m -8 X s 907 500 m -8 X s 907 513 m -8 X s 1447 94 m 429 Y s 1430 151 m 17 X s 1438 163 m 9 X s 1438 176 m 9 X s 1438 188 m 9 X s 1438 201 m 9 X s 1430 213 m 17 X s 1438 226 m 9 X s 1438 238 m 9 X s 1438 251 m 9 X s 1438 263 m 9 X s
 1430 276 m 17 X s 1438 288 m 9 X s 1438 301 m 9 X s 1438 313 m 9 X s 1438 325 m 9 X s 1430 338 m 17 X s 1438 350 m 9 X s 1438 363 m 9 X s 1438 375 m 9 X s 1438 388 m 9 X s 1430 400 m 17 X s 1438 413 m 9 X s 1438 425 m 9 X s 1438 438 m 9 X s 1438 450
 m 9 X s 1430 463 m 17 X s 1430 151 m 17 X s 1438 138 m 9 X s 1438 126 m 9 X s 1438 113 m 9 X s 1438 101 m 9 X s 1430 463 m 17 X s 1438 475 m 9 X s 1438 488 m 9 X s 1438 500 m 9 X s 1438 513 m 9 X s
 gsave  710 567 779 12 C 1474.92 91.2634 t 90 r /Helvetica-Bold findfont 19.9602 sf 0 0 m (U/O\255flow \(S,B\): \(0.0, 0.0\)% / \(0.0, 0.0\)%) show NC gr  0.490196 0.545098 0.615686 c 0.364706 0.419608 0.490196 c 329 37 786 539 bf 0.490196 0.545098
 0.615686 c 786 539 m 329 X s 1115 539 m 37 Y s 1115 576 m -329 X s 786 576 m -37 Y s 1 1 1 c black 1 1 1 c
 gsave  710 567 779 12 C 790.007 551.299 t 0 r /Helvetica-Bold findfont 28.5146 sf 0 0 m (Input variable: yy.HP_l1) show NC gr  0.490196 0.545098 0.615686 c 0.941176 0.941176 0.941176 c 711 567 1534 12 bf black 1 1 0.992157 c 547 429 1655 94 bf black
 547 429 1655 94 bl 0 0 0.933333 c 6 lw 0.49 0.6 0.82 c black 3 lw 0.49 0.6 0.82 c 1655 94 m 14 X 24 Y 14 X 198 Y 13 X -21 Y 14 X 149 Y 14 X -100 Y 13 X 127 Y 14 X -197 Y 14 X 113 Y 13 X -135 Y 14 X 57 Y 14 X -5 Y 13 X 76 Y 14 X -54 Y 14 X -28 Y 13 X
 28 Y 14 X -43 Y 14 X 7 Y 13 X 15 Y 14 X -32 Y 14 X -12 Y 14 X 36 Y 13 X -69 Y 14 X 29 Y 14 X -42 Y 13 X 3 Y 14 X -23 Y 14 X 14 Y 13 X -58 Y 14 X 22 Y 14 X -5 Y 13 X -17 Y 14 X 1 Y 14 X -25 Y 13 X -5 Y 14 X -15 Y 14 X -6 Y 13 X -7 Y 41 X f 6 lw 0 0
 0.933333 c 0.49 0.6 0.82 c 0 0 0.933333 c 1655 94 m 14 X 24 Y 14 X 198 Y 13 X -21 Y 14 X 149 Y 14 X -100 Y 13 X 127 Y 14 X -197 Y 14 X 113 Y 13 X -135 Y 14 X 57 Y 14 X -5 Y 13 X 76 Y 14 X -54 Y 14 X -28 Y 13 X 28 Y 14 X -43 Y 14 X 7 Y 13 X 15 Y 14 X
 -32 Y 14 X -12 Y 14 X 36 Y 13 X -69 Y 14 X 29 Y 14 X -42 Y 13 X 3 Y 14 X -23 Y 14 X 14 Y 13 X -58 Y 14 X 22 Y 14 X -5 Y 13 X -17 Y 14 X 1 Y 14 X -25 Y 13 X -5 Y 14 X -15 Y 14 X -6 Y 13 X -7 Y 41 X s black 3 lw 1655 94 m 547 X s 1713 107 m -13 Y s
 1726 100 m -6 Y s 1739 100 m -6 Y s 1752 100 m -6 Y s 1765 100 m -6 Y s 1778 107 m -13 Y s 1792 100 m -6 Y s 1805 100 m -6 Y s 1818 100 m -6 Y s 1831 100 m -6 Y s 1844 107 m -13 Y s 1857 100 m -6 Y s 1870 100 m -6 Y s 1883 100 m -6 Y s 1896 100 m -6
 Y s 1910 107 m -13 Y s 1923 100 m -6 Y s 1936 100 m -6 Y s 1949 100 m -6 Y s 1962 100 m -6 Y s 1975 107 m -13 Y s 1988 100 m -6 Y s 2001 100 m -6 Y s 2014 100 m -6 Y s 2028 100 m -6 Y s 2041 107 m -13 Y s 2054 100 m -6 Y s 2067 100 m -6 Y s 2080 100
 m -6 Y s 2093 100 m -6 Y s 2106 107 m -13 Y s 2119 100 m -6 Y s 2132 100 m -6 Y s 2146 100 m -6 Y s 2159 100 m -6 Y s 2172 107 m -13 Y s 1713 107 m -13 Y s 1700 100 m -6 Y s 1687 100 m -6 Y s 1674 100 m -6 Y s 1660 100 m -6 Y s 2172 107 m -13 Y s
 2185 100 m -6 Y s 2198 100 m -6 Y s
 gsave  711 567 1534 12 C 1699.37 65.3603 t 0 r /Helvetica findfont 25.6631 sf 0 0 m (0.1) show NC gr 
 gsave  711 567 1534 12 C 1688 65.3603 t 0 r /Symbol findfont 25.6631 sf 0 0 m (-) show NC gr 
 gsave  711 567 1534 12 C 1756.2 65.3603 t 0 r /Helvetica findfont 25.6631 sf 0 0 m (0.05) show NC gr 
 gsave  711 567 1534 12 C 1744.83 65.3603 t 0 r /Symbol findfont 25.6631 sf 0 0 m (-) show NC gr 
 gsave  711 567 1534 12 C 1832.93 65.3603 t 0 r /Helvetica findfont 25.6631 sf 0 0 m (0) show NC gr 
 gsave  711 567 1534 12 C 1881.24 65.3603 t 0 r /Helvetica findfont 25.6631 sf 0 0 m (0.05) show NC gr 
 gsave  711 567 1534 12 C 1957.97 65.3603 t 0 r /Helvetica findfont 25.6631 sf 0 0 m (0.1) show NC gr 
 gsave  711 567 1534 12 C 2014.8 65.3603 t 0 r /Helvetica findfont 25.6631 sf 0 0 m (0.15) show NC gr 
 gsave  711 567 1534 12 C 2088.69 65.3603 t 0 r /Helvetica findfont 25.6631 sf 0 0 m (0.2) show NC gr 
 gsave  711 567 1534 12 C 2145.52 65.3603 t 0 r /Helvetica findfont 25.6631 sf 0 0 m (0.25) show NC gr 
 gsave  711 567 1534 12 C 2091.53 25.5758 t 0 r /Helvetica findfont 28.5146 sf 0 0 m (yy.HP_l2) show NC gr  1655 523 m 547 X s 1713 509 m 14 Y s 1726 516 m 7 Y s 1739 516 m 7 Y s 1752 516 m 7 Y s 1765 516 m 7 Y s 1778 509 m 14 Y s 1792 516 m 7 Y s
 1805 516 m 7 Y s 1818 516 m 7 Y s 1831 516 m 7 Y s 1844 509 m 14 Y s 1857 516 m 7 Y s 1870 516 m 7 Y s 1883 516 m 7 Y s 1896 516 m 7 Y s 1910 509 m 14 Y s 1923 516 m 7 Y s 1936 516 m 7 Y s 1949 516 m 7 Y s 1962 516 m 7 Y s 1975 509 m 14 Y s 1988 516
 m 7 Y s 2001 516 m 7 Y s 2014 516 m 7 Y s 2028 516 m 7 Y s 2041 509 m 14 Y s 2054 516 m 7 Y s 2067 516 m 7 Y s 2080 516 m 7 Y s 2093 516 m 7 Y s 2106 509 m 14 Y s 2119 516 m 7 Y s 2132 516 m 7 Y s 2146 516 m 7 Y s 2159 516 m 7 Y s 2172 509 m 14 Y s
 1713 509 m 14 Y s 1700 516 m 7 Y s 1687 516 m 7 Y s 1674 516 m 7 Y s 1660 516 m 7 Y s 2172 509 m 14 Y s 2185 516 m 7 Y s 2198 516 m 7 Y s 1655 94 m 429 Y s 1671 94 m -16 X s 1663 106 m -8 X s 1663 118 m -8 X s 1663 130 m -8 X s 1663 142 m -8 X s
 1671 154 m -16 X s 1663 166 m -8 X s 1663 178 m -8 X s 1663 190 m -8 X s 1663 202 m -8 X s 1671 214 m -16 X s 1663 226 m -8 X s 1663 238 m -8 X s 1663 250 m -8 X s 1663 262 m -8 X s 1671 274 m -16 X s 1663 286 m -8 X s 1663 298 m -8 X s 1663 310 m
 -8 X s 1663 322 m -8 X s 1671 334 m -16 X s 1663 346 m -8 X s 1663 358 m -8 X s 1663 370 m -8 X s 1663 382 m -8 X s 1671 394 m -16 X s 1663 406 m -8 X s 1663 418 m -8 X s 1663 430 m -8 X s 1663 442 m -8 X s 1671 454 m -16 X s 1663 466 m -8 X s 1663
 478 m -8 X s 1663 490 m -8 X s 1663 502 m -8 X s 1671 514 m -16 X s 1671 514 m -16 X s
 gsave  711 567 1534 12 C 1631.16 82.4108 t 0 r /Helvetica findfont 25.6631 sf 0 0 m (0) show NC gr 
 gsave  711 567 1534 12 C 1634.01 144.929 t 0 r /Helvetica findfont 25.6631 sf 0 0 m (1) show NC gr 
 gsave  711 567 1534 12 C 1631.16 204.606 t 0 r /Helvetica findfont 25.6631 sf 0 0 m (2) show NC gr 
 gsave  711 567 1534 12 C 1631.16 264.283 t 0 r /Helvetica findfont 25.6631 sf 0 0 m (3) show NC gr 
 gsave  711 567 1534 12 C 1631.16 323.96 t 0 r /Helvetica findfont 25.6631 sf 0 0 m (4) show NC gr 
 gsave  711 567 1534 12 C 1631.16 383.636 t 0 r /Helvetica findfont 25.6631 sf 0 0 m (5) show NC gr 
 gsave  711 567 1534 12 C 1631.16 443.313 t 0 r /Helvetica findfont 25.6631 sf 0 0 m (6) show NC gr 
 gsave  711 567 1534 12 C 1631.16 502.99 t 0 r /Helvetica findfont 25.6631 sf 0 0 m (7) show NC gr 
 gsave  711 567 1534 12 C 1557.28 431.946 t 90 r /Helvetica findfont 28.5146 sf 0 0 m (0.0104 ) show NC gr 
 gsave  711 567 1534 12 C 1543.07 429.104 t 90 r /Helvetica findfont 19.9602 sf 0 0 m ( ) show NC gr 
 gsave  711 567 1534 12 C 1557.28 417.737 t 90 r /Helvetica findfont 28.5146 sf 0 0 m (/) show NC gr 
 gsave  711 567 1534 12 C 1565.8 414.896 t 90 r /Helvetica findfont 19.9602 sf 0 0 m ( ) show NC gr 
 gsave  711 567 1534 12 C 1557.28 309.751 t 90 r /Helvetica findfont 28.5146 sf 0 0 m (\(1/N\) dN) show NC gr  2202 94 m 429 Y s 2186 94 m 16 X s 2194 106 m 8 X s 2194 118 m 8 X s 2194 130 m 8 X s 2194 142 m 8 X s 2186 154 m 16 X s 2194 166 m 8 X s
 2194 178 m 8 X s 2194 190 m 8 X s 2194 202 m 8 X s 2186 214 m 16 X s 2194 226 m 8 X s 2194 238 m 8 X s 2194 250 m 8 X s 2194 262 m 8 X s 2186 274 m 16 X s 2194 286 m 8 X s 2194 298 m 8 X s 2194 310 m 8 X s 2194 322 m 8 X s 2186 334 m 16 X s 2194 346
 m 8 X s 2194 358 m 8 X s 2194 370 m 8 X s 2194 382 m 8 X s 2186 394 m 16 X s 2194 406 m 8 X s 2194 418 m 8 X s 2194 430 m 8 X s 2194 442 m 8 X s 2186 454 m 16 X s 2194 466 m 8 X s 2194 478 m 8 X s 2194 490 m 8 X s 2194 502 m 8 X s 2186 514 m 16 X s
 2186 514 m 16 X s 0.490196 0.545098 0.615686 c 0.364706 0.419608 0.490196 c 335 37 1542 539 bf 0.490196 0.545098 0.615686 c 1542 539 m 335 X s 1877 539 m 37 Y s 1877 576 m -335 X s 1542 576 m -37 Y s 1 1 1 c black 1 1 1 c
 gsave  711 567 1534 12 C 1545.91 551.299 t 0 r /Helvetica-Bold findfont 28.5146 sf 0 0 m (Input variable: yy.HP_l2) show NC gr  1 0 0 c 6 lw black 3 lw 1 0 0 c 2188 94 m s 2175 95 m -2 -1 d s 2168 103 m -10 -9 d s 2161 112 m -18 -18 d s 2154 119 m
 -26 -25 d s 2148 128 m -35 -34 d s 2140 136 m -42 -42 d s 2134 145 m -14 -14 d s 2118 129 m -35 -35 d s 2127 153 m -7 -7 d s 2107 133 m -39 -39 d s 2107 148 m -54 -54 d s 2107 163 m -69 -69 d s 2107 178 m -84 -84 d s 2099 186 m -6 -6 d s 2084 170 m
 -18 -18 d s 2062 148 m -54 -54 d s 2079 181 m -13 -14 d s 2052 153 m -60 -59 d s 2075 192 m -9 -10 d s 2052 169 m -75 -75 d s 2044 176 m -82 -82 d s 2038 185 m -91 -91 d s 2038 200 m -106 -106 d s 2033 211 m -116 -117 d s 2025 217 m -123 -123 d s
 2025 232 m -14 -14 d s 2010 218 m -13 -13 d s 1990 197 m -103 -103 d s 2025 247 m -14 -13 d s 1977 199 m -7 -7 d s 1966 189 m -94 -95 d s 2011 249 m s 1956 194 m -13 -14 d s 1942 180 m -85 -86 d s 1956 209 m -13 -14 d s 1929 181 m -87 -87 d s 1956
 224 m -13 -14 d s 1929 196 m -102 -102 d s 1956 239 m -13 -14 d s 1929 212 m -117 -118 d s 1956 254 m -13 -13 d s 1929 227 m -28 -28 d s 1888 186 m -92 -92 d s 1956 270 m -13 -14 d s 1929 242 m -14 -14 d s 1903 216 m -2 -2 d s 1888 201 m -107 -107 d
 s 1954 283 m -11 -12 d s 1925 253 m -10 -10 d s 1888 216 m -122 -122 d s 1888 231 m -137 -137 d s 1888 246 m -152 -152 d s 1888 261 m -14 -13 d s 1869 243 m -148 -149 d s 1888 277 m -14 -14 d s 1860 249 m -154 -155 d s 1877 281 m -3 -3 d s 1860 264
 m -13 -14 d s 1835 239 m -2 -2 d s 1824 227 m -133 -133 d s 1850 269 m -3 -3 d s 1819 238 m -143 -144 d s 1819 253 m -150 -151 d s 1661 94 m s 1817 266 m -148 -149 d s 1806 270 m -137 -138 d s 1806 285 m -123 -124 d s 1672 150 m -3 -3 d s 1806 300 m
 -14 -14 d s 1790 284 m -107 -108 d s 1806 315 m -14 -13 d s 1778 288 m -95 -97 d s 1806 331 m -14 -14 d s 1778 303 m -95 -96 d s 1806 346 m -14 -14 d s 1778 318 m -95 -96 d s 1806 361 m -14 -14 d s 1778 333 m -95 -96 d s 1806 376 m -14 -14 d s 1778
 349 m -95 -97 d s 1806 391 m -14 -13 d s 1778 364 m -95 -97 d s 1803 403 m -11 -10 d s 1778 379 m -95 -96 d s 1778 394 m -13 -14 d s 1755 371 m -72 -73 d s 1778 409 m -13 -13 d s 1751 382 m -68 -69 d s 1778 425 m -13 -14 d s 1751 397 m -41 -41 d s
 1705 351 m -22 -23 d s 1778 440 m -13 -14 d s 1751 412 m -41 -41 d s 1696 357 m -13 -14 d s 1772 448 m -7 -7 d s 1751 427 m -41 -41 d s 1696 372 m -13 -14 d s 1751 442 m -27 -27 d s 1720 411 m -10 -10 d s 1696 387 m -13 -13 d s 1751 458 m -27 -28 d
 s 1696 403 m -13 -14 d s 1740 461 m -16 -16 d s 1696 418 m -13 -14 d s 1737 474 m -13 -14 d s 1696 433 m -13 -14 d s 1731 484 m -7 -8 d s 1689 441 m -6 -7 d s 6 lw 1655 94 m 14 X 56 Y 14 X 291 Y 13 X -90 Y 14 X 60 Y 14 X 73 Y 13 X -23 Y 14 X -90 Y
 14 X 77 Y 13 X -164 Y 14 X 119 Y 14 X -137 Y 13 X -39 Y 14 X 12 Y 14 X 30 Y 13 X -26 Y 14 X 38 Y 14 X -95 Y 13 X 30 Y 14 X 37 Y 14 X -73 Y 14 X 103 Y 13 X -94 Y 14 X 10 Y 14 X -2 Y 13 X 21 Y 14 X 31 Y 14 X -38 Y 13 X -35 Y 14 X -28 Y 14 X 44 Y 13 X
 -22 Y 14 X 16 Y 14 X -57 Y 13 X 24 Y 14 X -17 Y 14 X -17 Y 13 X -16 Y 14 X -9 Y 27 X s black 3 lw 1655 94 m 547 X s 1713 107 m -13 Y s 1726 100 m -6 Y s 1739 100 m -6 Y s 1752 100 m -6 Y s 1765 100 m -6 Y s 1778 107 m -13 Y s 1792 100 m -6 Y s 1805
 100 m -6 Y s 1818 100 m -6 Y s 1831 100 m -6 Y s 1844 107 m -13 Y s 1857 100 m -6 Y s 1870 100 m -6 Y s 1883 100 m -6 Y s 1896 100 m -6 Y s 1910 107 m -13 Y s 1923 100 m -6 Y s 1936 100 m -6 Y s 1949 100 m -6 Y s 1962 100 m -6 Y s 1975 107 m -13 Y s
 1988 100 m -6 Y s 2001 100 m -6 Y s 2014 100 m -6 Y s 2028 100 m -6 Y s 2041 107 m -13 Y s 2054 100 m -6 Y s 2067 100 m -6 Y s 2080 100 m -6 Y s 2093 100 m -6 Y s 2106 107 m -13 Y s 2119 100 m -6 Y s 2132 100 m -6 Y s 2146 100 m -6 Y s 2159 100 m -6
 Y s 2172 107 m -13 Y s 1713 107 m -13 Y s 1700 100 m -6 Y s 1687 100 m -6 Y s 1674 100 m -6 Y s 1660 100 m -6 Y s 2172 107 m -13 Y s 2185 100 m -6 Y s 2198 100 m -6 Y s 1655 523 m 547 X s 1713 509 m 14 Y s 1726 516 m 7 Y s 1739 516 m 7 Y s 1752 516
 m 7 Y s 1765 516 m 7 Y s 1778 509 m 14 Y s 1792 516 m 7 Y s 1805 516 m 7 Y s 1818 516 m 7 Y s 1831 516 m 7 Y s 1844 509 m 14 Y s 1857 516 m 7 Y s 1870 516 m 7 Y s 1883 516 m 7 Y s 1896 516 m 7 Y s 1910 509 m 14 Y s 1923 516 m 7 Y s 1936 516 m 7 Y s
 1949 516 m 7 Y s 1962 516 m 7 Y s 1975 509 m 14 Y s 1988 516 m 7 Y s 2001 516 m 7 Y s 2014 516 m 7 Y s 2028 516 m 7 Y s 2041 509 m 14 Y s 2054 516 m 7 Y s 2067 516 m 7 Y s 2080 516 m 7 Y s 2093 516 m 7 Y s 2106 509 m 14 Y s 2119 516 m 7 Y s 2132 516
 m 7 Y s 2146 516 m 7 Y s 2159 516 m 7 Y s 2172 509 m 14 Y s 1713 509 m 14 Y s 1700 516 m 7 Y s 1687 516 m 7 Y s 1674 516 m 7 Y s 1660 516 m 7 Y s 2172 509 m 14 Y s 2185 516 m 7 Y s 2198 516 m 7 Y s 1655 94 m 429 Y s 1671 94 m -16 X s 1663 106 m -8 X
 s 1663 118 m -8 X s 1663 130 m -8 X s 1663 142 m -8 X s 1671 154 m -16 X s 1663 166 m -8 X s 1663 178 m -8 X s 1663 190 m -8 X s 1663 202 m -8 X s 1671 214 m -16 X s 1663 226 m -8 X s 1663 238 m -8 X s 1663 250 m -8 X s 1663 262 m -8 X s 1671 274 m
 -16 X s 1663 286 m -8 X s 1663 298 m -8 X s 1663 310 m -8 X s 1663 322 m -8 X s 1671 334 m -16 X s 1663 346 m -8 X s 1663 358 m -8 X s 1663 370 m -8 X s 1663 382 m -8 X s 1671 394 m -16 X s 1663 406 m -8 X s 1663 418 m -8 X s 1663 430 m -8 X s 1663
 442 m -8 X s 1671 454 m -16 X s 1663 466 m -8 X s 1663 478 m -8 X s 1663 490 m -8 X s 1663 502 m -8 X s 1671 514 m -16 X s 1671 514 m -16 X s 2202 94 m 429 Y s 2186 94 m 16 X s 2194 106 m 8 X s 2194 118 m 8 X s 2194 130 m 8 X s 2194 142 m 8 X s 2186
 154 m 16 X s 2194 166 m 8 X s 2194 178 m 8 X s 2194 190 m 8 X s 2194 202 m 8 X s 2186 214 m 16 X s 2194 226 m 8 X s 2194 238 m 8 X s 2194 250 m 8 X s 2194 262 m 8 X s 2186 274 m 16 X s 2194 286 m 8 X s 2194 298 m 8 X s 2194 310 m 8 X s 2194 322 m 8
 X s 2186 334 m 16 X s 2194 346 m 8 X s 2194 358 m 8 X s 2194 370 m 8 X s 2194 382 m 8 X s 2186 394 m 16 X s 2194 406 m 8 X s 2194 418 m 8 X s 2194 430 m 8 X s 2194 442 m 8 X s 2186 454 m 16 X s 2194 466 m 8 X s 2194 478 m 8 X s 2194 490 m 8 X s 2194
 502 m 8 X s 2186 514 m 16 X s 2186 514 m 16 X s
 gsave  711 567 1534 12 C 2230.83 91.2634 t 90 r /Helvetica-Bold findfont 19.9602 sf 0 0 m (U/O\255flow \(S,B\): \(0.0, 0.0\)% / \(0.0, 0.0\)%) show NC gr  0.490196 0.545098 0.615686 c 0.364706 0.419608 0.490196 c 335 37 1542 539 bf 0.490196 0.545098
 0.615686 c 1542 539 m 335 X s 1877 539 m 37 Y s 1877 576 m -335 X s 1542 576 m -37 Y s 1 1 1 c black 1 1 1 c
 gsave  711 567 1534 12 C 1545.91 551.299 t 0 r /Helvetica-Bold findfont 28.5146 sf 0 0 m (Input variable: yy.HP_l2) show NC gr 
 gr  gr showpage
end
%%EOF
