%!PS-Adobe-2.0 EPSF-2.0
%%BoundingBox:  0 0 567 296
%%Title: dataset/plots/variables_id_c5.eps: Input variables (training sample)
%%Creator: ROOT Version 6.18/00
%%CreationDate: Fri Sep 13 20:54:27 2019
%%DocumentNeededResources: ProcSet (FontSetInit)
%%EndComments
%%BeginProlog
80 dict begin
/s {stroke} def /l {lineto} def /m {moveto} def /t {translate} def
/r {rotate} def /rl {roll}  def /R {repeat} def
/d {rlineto} def /rm {rmoveto} def /gr {grestore} def /f {eofill} def
/c {setrgbcolor} def /black {0 setgray} def /sd {setdash} def
/cl {closepath} def /sf {scalefont setfont} def /lw {setlinewidth} def
/box {m dup 0 exch d exch 0 d 0 exch neg d cl} def
/NC{systemdict begin initclip end}def/C{NC box clip newpath}def
/bl {box s} def /bf {gsave box gsave f grestore 1 lw [] 0 sd s grestore} def /Y { 0 exch d} def /X { 0 d} def 
/K {{pop pop 0 moveto} exch kshow} bind def
/ita {/ang 15 def gsave [1 0 ang dup sin exch cos div 1 0 0] concat} def 
/mp {newpath /y exch def /x exch def} def
/side {[w .77 mul w .23 mul] .385 w mul sd w 0 l currentpoint t -144 r} def
/mr {mp x y w2 0 360 arc} def /m24 {mr s} def /m20 {mr f} def
/mb {mp x y w2 add m w2 neg 0 d 0 w neg d w 0 d 0 w d cl} def
/mt {mp x y w2 add m w2 neg w neg d w 0 d cl} def
/w4 {w 4 div} def
/w6 {w 6 div} def
/w8 {w 8 div} def
/m21 {mb f} def /m25 {mb s} def /m22 {mt f} def /m26{mt s} def
/m23 {mp x y w2 sub m w2 w d w neg 0 d cl f} def
/m27 {mp x y w2 add m w3 neg w2 neg d w3 w2 neg d w3 w2 d cl s} def
/m28 {mp x w2 sub y w2 sub w3 add m w3 0 d  0 w3 neg d w3 0 d 0 w3 d w3 0 d  0 w3 d w3 neg 0 d 0 w3 d w3 neg 0 d 0 w3 neg d w3 neg 0 d cl s } def
/m29 {mp gsave x w2 sub y w2 add w3 sub m currentpoint t 4 {side} repeat cl fill gr} def
/m30 {mp gsave x w2 sub y w2 add w3 sub m currentpoint t 4 {side} repeat cl s gr} def
/m31 {mp x y w2 sub m 0 w d x w2 sub y m w 0 d x w2 sub y w2 add m w w neg d x w2 sub y w2 sub m w w d s} def
/m32 {mp x y w2 sub m w2 w d w neg 0 d cl s} def
/m33 {mp x y w2 add m w3 neg w2 neg d w3 w2 neg d w3 w2 d cl f} def
/m34 {mp x w2 sub y w2 sub w3 add m w3 0 d  0 w3 neg d w3 0 d 0 w3 d w3 0 d  0 w3 d w3 neg 0 d 0 w3 d w3 neg 0 d 0 w3 neg d w3 neg 0 d cl f } def
/m35 {mp x y w2 add m w2 neg w2 neg d w2 w2 neg d w2 w2 d w2 neg w2 d x y w2 sub m 0 w d x w2 sub y m w 0 d s} def
/m36 {mb x w2 sub y w2 add m w w neg d x w2 sub y w2 sub m w w d s} def
/m37 {mp x y m w4 neg w2 d w4 neg w2 neg d w2 0 d  w4 neg w2 neg d w2 0 d w4 neg w2 d w2 0 d w4 neg w2 d w4 neg w2 neg d cl s} def
/m38 {mp x w4 sub y w2 add m w4 neg w4 neg d 0 w2 neg d w4 w4 neg d w2 0 d w4 w4 d 0 w2 d w4 neg w4 d w2 neg 0 d x y w2 sub m 0 w d x w2 sub y m w 0 d cl s} def
/m39 {mp x y m w4 neg w2 d w4 neg w2 neg d w2 0 d  w4 neg w2 neg d w2 0 d w4 neg w2 d w2 0 d w4 neg w2 d w4 neg w2 neg d cl f} def
/m40 {mp x y m w4 w2 d w4 w4 neg d w2 neg w4 neg d w2 w4 neg d w4 neg w4 neg d w4 neg w2 d w4 neg w2 neg d w4 neg w4 d w2 w4 d w2 neg w4 d w4 w4 d w4 w2 neg d cl s} def
/m41 {mp x y m w4 w2 d w4 w4 neg d w2 neg w4 neg d w2 w4 neg d w4 neg w4 neg d w4 neg w2 d w4 neg w2 neg d w4 neg w4 d w2 w4 d w2 neg w4 d w4 w4 d w4 w2 neg d cl f} def
/m42 {mp x y w2 add m w8 neg w2 -3 4 div mul d w2 -3 4 div mul w8 neg d w2 3 4 div mul w8 neg d w8 w2 -3 4 div mul d w8 w2 3 4 div mul d w2 3 4 div mul w8 d w2 -3 4 div mul w8 d w8 neg w2 3 4 div mul d cl s} def
/m43 {mp x y w2 add m w8 neg w2 -3 4 div mul d w2 -3 4 div mul w8 neg d w2 3 4 div mul w8 neg d w8 w2 -3 4 div mul d w8 w2 3 4 div mul d w2 3 4 div mul w8 d w2 -3 4 div mul w8 d w8 neg w2 3 4 div mul d cl f} def
/m44 {mp x y m w6 neg w2 d w2 2 3 div mul 0 d w6 neg w2 neg d w2 w6 d 0 w2 -2 3 div mul d w2 neg w6 d w6 w2 neg d w2 -2 3 div mul 0 d w6 w2 d w2 neg w6 neg d 0 w2 2 3 div mul d w2 w6 neg d cl s} def
/m45 {mp x y m w6 neg w2 d w2 2 3 div mul 0 d w6 neg w2 neg d w2 w6 d 0 w2 -2 3 div mul d w2 neg w6 d w6 w2 neg d w2 -2 3 div mul 0 d w6 w2 d w2 neg w6 neg d 0 w2 2 3 div mul d w2 w6 neg d cl f} def
/m46 {mp x y w4 add m w4 neg w4 d w4 neg w4 neg d  w4 w4 neg d w4 neg w4 neg d w4 w4 neg d w4 w4 d w4 w4 neg d w4 w4 d w4 neg w4 d w4 w4 d w4 neg w4 d w4 neg w4 neg d cl s} def
/m47 {mp x y w4 add m w4 neg w4 d w4 neg w4 neg d w4 w4 neg d w4 neg w4 neg d  w4 w4 neg d w4 w4 d w4 w4 neg d w4 w4 d w4 neg w4 d w4 w4 d w4 neg w4 d w4 neg w4 neg d cl f} def
/m48 {mp x y w4 add m w4 neg w4 d w4 neg w4 neg d w4 w4 neg d  w4 neg w4 neg d w4 w4 neg d w4 w4 d w4 w4 neg d w4 w4 d w4 neg w4 d w4 w4 d w4 neg w4 d w4 neg w4 neg d  w4 w4 neg d w4 neg w4 neg d w4 neg w4 d w4 w4 d cl f} def
/m49 {mp x w2 sub w3 add y w2 sub w3 add m  0 w3 neg d w3 0 d 0 w3 d w3 0 d 0 w3 d w3 neg 0 d 0 w3 d w3 neg 0 d 0 w3 neg d w3 neg 0 d 0 w3 neg d w3 0 d 0 w3 d w3 0 d 0 w3 neg d w3 neg 0 d cl f } def
/m2 {mp x y w2 sub m 0 w d x w2 sub y m w 0 d s} def
/m5 {mp x w2 sub y w2 sub m w w d x w2 sub y w2 add m w w neg d s} def
%%IncludeResource: ProcSet (FontSetInit)
%%IncludeResource: font Times-Roman
%%IncludeResource: font Times-Italic
%%IncludeResource: font Times-Bold
%%IncludeResource: font Times-BoldItalic
%%IncludeResource: font Helvetica
%%IncludeResource: font Helvetica-Oblique
%%IncludeResource: font Helvetica-Bold
%%IncludeResource: font Helvetica-BoldOblique
%%IncludeResource: font Courier
%%IncludeResource: font Courier-Oblique
%%IncludeResource: font Courier-Bold
%%IncludeResource: font Courier-BoldOblique
%%IncludeResource: font Symbol
%%IncludeResource: font ZapfDingbats
/reEncode {exch findfont dup length dict begin {1 index /FID eq  {pop pop} {def} ifelse } forall /Encoding exch def currentdict end dup /FontName get exch definefont pop } def [/Times-Bold /Times-Italic /Times-BoldItalic /Helvetica /Helvetica-Oblique
 /Helvetica-Bold /Helvetica-BoldOblique /Courier /Courier-Oblique /Courier-Bold /Courier-BoldOblique /Times-Roman /AvantGarde-Book /AvantGarde-BookOblique /AvantGarde-Demi /AvantGarde-DemiOblique /Bookman-Demi /Bookman-DemiItalic /Bookman-Light
 /Bookman-LightItalic /Helvetica-Narrow /Helvetica-Narrow-Bold /Helvetica-Narrow-BoldOblique /Helvetica-Narrow-Oblique /NewCenturySchlbk-Roman /NewCenturySchlbk-Bold /NewCenturySchlbk-BoldItalic /NewCenturySchlbk-Italic /Palatino-Bold
 /Palatino-BoldItalic /Palatino-Italic /Palatino-Roman ] {ISOLatin1Encoding reEncode } forall
%%EndProlog
%%BeginSetup
%%EndSetup
newpath  gsave  .25 .25 scale  gsave  0 0 t 0.490196 0.545098 0.615686 c[  ] 0 sd 3 lw 0.941176 0.941176 0.941176 c 2268 1182 0 0 bf 0.490196 0.545098 0.615686 c 0.941176 0.941176 0.941176 c 710 567 23 603 bf black 1 1 0.992157 c 548 429 143 685 bf
 black 548 429 143 685 bl 0 0 0.933333 c 6 lw 0.49 0.6 0.82 c black 3 lw 0.49 0.6 0.82 c 143 685 m 28 X 1 Y 14 X -1 Y 109 X 149 Y 14 X 158 Y 13 X -34 Y 14 X 25 Y 14 X 2 Y 13 X -118 Y 14 X 25 Y 14 X -13 Y 13 X 101 Y 14 X -69 Y 14 X -11 Y 13 X -13 Y 14
 X 62 Y 14 X 15 Y 13 X 111 Y 14 X -58 Y 14 X -283 Y 13 X -40 Y 14 X -2 Y 14 X 2 Y 27 X -2 Y 14 X -3 Y 14 X -1 Y 13 X -2 Y 14 X 1 Y 14 X -2 Y 41 X f 6 lw 0 0 0.933333 c 0.49 0.6 0.82 c 0 0 0.933333 c 143 685 m 28 X 1 Y 14 X -1 Y 109 X 149 Y 14 X 158 Y
 13 X -34 Y 14 X 25 Y 14 X 2 Y 13 X -118 Y 14 X 25 Y 14 X -13 Y 13 X 101 Y 14 X -69 Y 14 X -11 Y 13 X -13 Y 14 X 62 Y 14 X 15 Y 13 X 111 Y 14 X -58 Y 14 X -283 Y 13 X -40 Y 14 X -2 Y 14 X 2 Y 27 X -2 Y 14 X -3 Y 14 X -1 Y 13 X -2 Y 14 X 1 Y 14 X -2 Y
 41 X s black 3 lw 143 685 m 548 X s 195 698 m -13 Y s 206 691 m -6 Y s 217 691 m -6 Y s 229 691 m -6 Y s 240 691 m -6 Y s 251 698 m -13 Y s 262 691 m -6 Y s 273 691 m -6 Y s 284 691 m -6 Y s 296 691 m -6 Y s 307 698 m -13 Y s 318 691 m -6 Y s 329
 691 m -6 Y s 340 691 m -6 Y s 351 691 m -6 Y s 362 698 m -13 Y s 374 691 m -6 Y s 385 691 m -6 Y s 396 691 m -6 Y s 407 691 m -6 Y s 418 698 m -13 Y s 429 691 m -6 Y s 441 691 m -6 Y s 452 691 m -6 Y s 463 691 m -6 Y s 474 698 m -13 Y s 485 691 m -6
 Y s 496 691 m -6 Y s 507 691 m -6 Y s 519 691 m -6 Y s 530 698 m -13 Y s 541 691 m -6 Y s 552 691 m -6 Y s 563 691 m -6 Y s 574 691 m -6 Y s 586 698 m -13 Y s 597 691 m -6 Y s 608 691 m -6 Y s 619 691 m -6 Y s 630 691 m -6 Y s 641 698 m -13 Y s 195
 698 m -13 Y s 184 691 m -6 Y s 173 691 m -6 Y s 162 691 m -6 Y s 151 691 m -6 Y s 641 698 m -13 Y s 652 691 m -6 Y s 664 691 m -6 Y s 675 691 m -6 Y s 686 691 m -6 Y s
 gsave  710 567 23 603 C 181.872 656.444 t 0 r /Helvetica findfont 25.6631 sf 0 0 m (0.2) show NC gr 
 gsave  710 567 23 603 C 167.663 656.444 t 0 r /Symbol findfont 25.6631 sf 0 0 m (-) show NC gr 
 gsave  710 567 23 603 C 230.182 656.444 t 0 r /Helvetica findfont 25.6631 sf 0 0 m (0.15) show NC gr 
 gsave  710 567 23 603 C 218.815 656.444 t 0 r /Symbol findfont 25.6631 sf 0 0 m (-) show NC gr 
 gsave  710 567 23 603 C 292.7 656.444 t 0 r /Helvetica findfont 25.6631 sf 0 0 m (0.1) show NC gr 
 gsave  710 567 23 603 C 281.333 656.444 t 0 r /Symbol findfont 25.6631 sf 0 0 m (-) show NC gr 
 gsave  710 567 23 603 C 341.01 656.444 t 0 r /Helvetica findfont 25.6631 sf 0 0 m (0.05) show NC gr 
 gsave  710 567 23 603 C 329.643 656.444 t 0 r /Symbol findfont 25.6631 sf 0 0 m (-) show NC gr 
 gsave  710 567 23 603 C 409.212 656.444 t 0 r /Helvetica findfont 25.6631 sf 0 0 m (0) show NC gr 
 gsave  710 567 23 603 C 446.155 656.444 t 0 r /Helvetica findfont 25.6631 sf 0 0 m (0.05) show NC gr 
 gsave  710 567 23 603 C 511.515 656.444 t 0 r /Helvetica findfont 25.6631 sf 0 0 m (0.1) show NC gr 
 gsave  710 567 23 603 C 559.825 656.444 t 0 r /Helvetica findfont 25.6631 sf 0 0 m (0.15) show NC gr 
 gsave  710 567 23 603 C 622.343 656.444 t 0 r /Helvetica findfont 25.6631 sf 0 0 m (0.2) show NC gr 
 gsave  710 567 23 603 C 579.717 616.66 t 0 r /Helvetica findfont 28.5146 sf 0 0 m (yy.HT_l5) show NC gr  143 1114 m 548 X s 195 1100 m 14 Y s 206 1107 m 7 Y s 217 1107 m 7 Y s 229 1107 m 7 Y s 240 1107 m 7 Y s 251 1100 m 14 Y s 262 1107 m 7 Y s 273
 1107 m 7 Y s 284 1107 m 7 Y s 296 1107 m 7 Y s 307 1100 m 14 Y s 318 1107 m 7 Y s 329 1107 m 7 Y s 340 1107 m 7 Y s 351 1107 m 7 Y s 362 1100 m 14 Y s 374 1107 m 7 Y s 385 1107 m 7 Y s 396 1107 m 7 Y s 407 1107 m 7 Y s 418 1100 m 14 Y s 429 1107 m 7
 Y s 441 1107 m 7 Y s 452 1107 m 7 Y s 463 1107 m 7 Y s 474 1100 m 14 Y s 485 1107 m 7 Y s 496 1107 m 7 Y s 507 1107 m 7 Y s 519 1107 m 7 Y s 530 1100 m 14 Y s 541 1107 m 7 Y s 552 1107 m 7 Y s 563 1107 m 7 Y s 574 1107 m 7 Y s 586 1100 m 14 Y s 597
 1107 m 7 Y s 608 1107 m 7 Y s 619 1107 m 7 Y s 630 1107 m 7 Y s 641 1100 m 14 Y s 195 1100 m 14 Y s 184 1107 m 7 Y s 173 1107 m 7 Y s 162 1107 m 7 Y s 151 1107 m 7 Y s 641 1100 m 14 Y s 652 1107 m 7 Y s 664 1107 m 7 Y s 675 1107 m 7 Y s 686 1107 m 7
 Y s 143 685 m 429 Y s 160 685 m -17 X s 152 695 m -9 X s 152 705 m -9 X s 152 716 m -9 X s 152 726 m -9 X s 160 736 m -17 X s 152 747 m -9 X s 152 757 m -9 X s 152 768 m -9 X s 152 778 m -9 X s 160 788 m -17 X s 152 799 m -9 X s 152 809 m -9 X s 152
 819 m -9 X s 152 830 m -9 X s 160 840 m -17 X s 152 851 m -9 X s 152 861 m -9 X s 152 871 m -9 X s 152 882 m -9 X s 160 892 m -17 X s 152 902 m -9 X s 152 913 m -9 X s 152 923 m -9 X s 152 933 m -9 X s 160 944 m -17 X s 152 954 m -9 X s 152 965 m -9
 X s 152 975 m -9 X s 152 985 m -9 X s 160 996 m -17 X s 152 1006 m -9 X s 152 1016 m -9 X s 152 1027 m -9 X s 152 1037 m -9 X s 160 1047 m -17 X s 152 1058 m -9 X s 152 1068 m -9 X s 152 1079 m -9 X s 152 1089 m -9 X s 160 1099 m -17 X s 160 1099 m
 -17 X s 152 1110 m -9 X s
 gsave  710 567 23 603 C 119.354 673.495 t 0 r /Helvetica findfont 25.6631 sf 0 0 m (0) show NC gr 
 gsave  710 567 23 603 C 122.195 727.488 t 0 r /Helvetica findfont 25.6631 sf 0 0 m (1) show NC gr 
 gsave  710 567 23 603 C 119.354 778.64 t 0 r /Helvetica findfont 25.6631 sf 0 0 m (2) show NC gr 
 gsave  710 567 23 603 C 119.354 829.791 t 0 r /Helvetica findfont 25.6631 sf 0 0 m (3) show NC gr 
 gsave  710 567 23 603 C 119.354 880.943 t 0 r /Helvetica findfont 25.6631 sf 0 0 m (4) show NC gr 
 gsave  710 567 23 603 C 119.354 934.936 t 0 r /Helvetica findfont 25.6631 sf 0 0 m (5) show NC gr 
 gsave  710 567 23 603 C 119.354 986.087 t 0 r /Helvetica findfont 25.6631 sf 0 0 m (6) show NC gr 
 gsave  710 567 23 603 C 119.354 1037.24 t 0 r /Helvetica findfont 25.6631 sf 0 0 m (7) show NC gr 
 gsave  710 567 23 603 C 119.354 1088.39 t 0 r /Helvetica findfont 25.6631 sf 0 0 m (8) show NC gr 
 gsave  710 567 23 603 C 45.468 1023.03 t 90 r /Helvetica findfont 28.5146 sf 0 0 m (0.0123 ) show NC gr 
 gsave  710 567 23 603 C 31.2593 1020.19 t 90 r /Helvetica findfont 19.9602 sf 0 0 m ( ) show NC gr 
 gsave  710 567 23 603 C 45.468 1008.82 t 90 r /Helvetica findfont 28.5146 sf 0 0 m (/) show NC gr 
 gsave  710 567 23 603 C 53.9933 1005.98 t 90 r /Helvetica findfont 19.9602 sf 0 0 m ( ) show NC gr 
 gsave  710 567 23 603 C 45.468 900.835 t 90 r /Helvetica findfont 28.5146 sf 0 0 m (\(1/N\) dN) show NC gr  691 685 m 429 Y s 674 685 m 17 X s 683 695 m 8 X s 683 705 m 8 X s 683 716 m 8 X s 683 726 m 8 X s 674 736 m 17 X s 683 747 m 8 X s 683 757 m
 8 X s 683 768 m 8 X s 683 778 m 8 X s 674 788 m 17 X s 683 799 m 8 X s 683 809 m 8 X s 683 819 m 8 X s 683 830 m 8 X s 674 840 m 17 X s 683 851 m 8 X s 683 861 m 8 X s 683 871 m 8 X s 683 882 m 8 X s 674 892 m 17 X s 683 902 m 8 X s 683 913 m 8 X s
 683 923 m 8 X s 683 933 m 8 X s 674 944 m 17 X s 683 954 m 8 X s 683 965 m 8 X s 683 975 m 8 X s 683 985 m 8 X s 674 996 m 17 X s 683 1006 m 8 X s 683 1016 m 8 X s 683 1027 m 8 X s 683 1037 m 8 X s 674 1047 m 17 X s 683 1058 m 8 X s 683 1068 m 8 X s
 683 1079 m 8 X s 683 1089 m 8 X s 674 1099 m 17 X s 674 1099 m 17 X s 683 1110 m 8 X s 0.490196 0.545098 0.615686 c 0.364706 0.419608 0.490196 c 332 38 30 1130 bf 0.490196 0.545098 0.615686 c 30 1130 m 332 X s 362 1130 m 38 Y s 362 1168 m -332 X s
 30 1168 m -38 Y s 1 1 1 c black 1 1 1 c
 gsave  710 567 23 603 C 34.101 1142.38 t 0 r /Helvetica-Bold findfont 28.5146 sf 0 0 m (Input variable: yy.HT_l5) show NC gr  1 0 0 c 6 lw black 3 lw 1 0 0 c 677 685 m s 662 685 m s 646 685 m s 631 685 m s 616 685 m s 603 686 m -2 -1 d s 586 685 m s
 573 686 m -2 -1 d s 556 685 m s 541 685 m s 540 699 m -14 -14 d s 540 714 m -29 -29 d s 540 729 m -44 -44 d s 540 745 m -59 -60 d s 540 760 m -74 -75 d s 540 775 m -90 -90 d s 540 790 m -105 -105 d s 540 805 m -120 -120 d s 540 820 m -135 -135 d s
 535 830 m -145 -145 d s 526 837 m -151 -152 d s 526 852 m -166 -167 d s 526 867 m -181 -182 d s 526 883 m -196 -198 d s 526 898 m -211 -213 d s 526 913 m -226 -228 d s 517 919 m -32 -32 d s 483 884 m -198 -199 d s 513 930 m -28 -28 d s 472 888 m -69
 -69 d s 399 815 m -105 -106 d s 288 703 m -18 -18 d s 513 945 m -28 -28 d s 472 903 m -14 -13 d s 438 870 m -35 -35 d s 390 821 m -96 -97 d s 272 702 m -5 -5 d s 264 694 m -9 -9 d s 513 960 m -28 -28 d s 459 906 m -1 -1 d s 426 873 m -23 -23 d s 390
 836 m -69 -69 d s 310 756 m -16 -17 d s 253 698 m -14 -13 d s 513 975 m -28 -27 d s 417 879 m -14 -14 d s 390 851 m -69 -69 d s 294 755 m s 241 701 m -2 -1 d s 236 696 m -12 -11 d s 513 990 m -28 -27 d s 405 882 m -2 -2 d s 390 866 m -69 -69 d s 213
 688 m -4 -3 d s 513 1005 m -28 -27 d s 390 881 m -69 -68 d s 201 691 m -7 -6 d s 513 1021 m -28 -28 d s 390 897 m -69 -69 d s 197 703 m -12 -13 d s 181 686 m -2 -1 d s 513 1036 m -14 -14 d s 390 912 m -69 -69 d s 166 686 m -2 -1 d s 513 1051 m -14
 -14 d s 390 927 m -69 -69 d s 155 690 m -6 -5 d s 512 1066 m -13 -14 d s 390 942 m -14 -14 d s 372 925 m -51 -52 d s 390 957 m -14 -13 d s 362 930 m -41 -41 d s 390 973 m -14 -14 d s 362 945 m -41 -41 d s 386 984 m -10 -10 d s 362 960 m -41 -41 d s
 362 975 m -41 -41 d s 362 991 m -41 -42 d s 362 1006 m -41 -42 d s 362 1021 m -41 -41 d s 362 1036 m -27 -27 d s 330 1003 m -9 -8 d s 360 1049 m -11 -11 d s 348 1036 m -13 -12 d s 6 lw 143 690 m 14 X -4 Y 28 X 17 Y 13 X -12 Y 14 X -3 Y 14 X 8 Y 13 X
 5 Y 14 X -7 Y 14 X 8 Y 13 X 1 Y 14 X 52 Y 14 X 1 Y 13 X 247 Y 14 X 33 Y 14 X 13 Y 13 X -124 Y 14 X 59 Y 14 X -169 Y 13 X 67 Y 14 X -9 Y 14 X -3 Y 13 X 6 Y 14 X 30 Y 14 X -22 Y 13 X 124 Y 14 X 58 Y 14 X -147 Y 13 X -89 Y 14 X -145 Y 27 X 1 Y 14 X -1
 Y 14 X 1 Y 14 X -1 Y 82 X s black 3 lw 143 685 m 548 X s 195 698 m -13 Y s 206 691 m -6 Y s 217 691 m -6 Y s 229 691 m -6 Y s 240 691 m -6 Y s 251 698 m -13 Y s 262 691 m -6 Y s 273 691 m -6 Y s 284 691 m -6 Y s 296 691 m -6 Y s 307 698 m -13 Y s
 318 691 m -6 Y s 329 691 m -6 Y s 340 691 m -6 Y s 351 691 m -6 Y s 362 698 m -13 Y s 374 691 m -6 Y s 385 691 m -6 Y s 396 691 m -6 Y s 407 691 m -6 Y s 418 698 m -13 Y s 429 691 m -6 Y s 441 691 m -6 Y s 452 691 m -6 Y s 463 691 m -6 Y s 474 698 m
 -13 Y s 485 691 m -6 Y s 496 691 m -6 Y s 507 691 m -6 Y s 519 691 m -6 Y s 530 698 m -13 Y s 541 691 m -6 Y s 552 691 m -6 Y s 563 691 m -6 Y s 574 691 m -6 Y s 586 698 m -13 Y s 597 691 m -6 Y s 608 691 m -6 Y s 619 691 m -6 Y s 630 691 m -6 Y s
 641 698 m -13 Y s 195 698 m -13 Y s 184 691 m -6 Y s 173 691 m -6 Y s 162 691 m -6 Y s 151 691 m -6 Y s 641 698 m -13 Y s 652 691 m -6 Y s 664 691 m -6 Y s 675 691 m -6 Y s 686 691 m -6 Y s 143 1114 m 548 X s 195 1100 m 14 Y s 206 1107 m 7 Y s 217
 1107 m 7 Y s 229 1107 m 7 Y s 240 1107 m 7 Y s 251 1100 m 14 Y s 262 1107 m 7 Y s 273 1107 m 7 Y s 284 1107 m 7 Y s 296 1107 m 7 Y s 307 1100 m 14 Y s 318 1107 m 7 Y s 329 1107 m 7 Y s 340 1107 m 7 Y s 351 1107 m 7 Y s 362 1100 m 14 Y s 374 1107 m 7
 Y s 385 1107 m 7 Y s 396 1107 m 7 Y s 407 1107 m 7 Y s 418 1100 m 14 Y s 429 1107 m 7 Y s 441 1107 m 7 Y s 452 1107 m 7 Y s 463 1107 m 7 Y s 474 1100 m 14 Y s 485 1107 m 7 Y s 496 1107 m 7 Y s 507 1107 m 7 Y s 519 1107 m 7 Y s 530 1100 m 14 Y s 541
 1107 m 7 Y s 552 1107 m 7 Y s 563 1107 m 7 Y s 574 1107 m 7 Y s 586 1100 m 14 Y s 597 1107 m 7 Y s 608 1107 m 7 Y s 619 1107 m 7 Y s 630 1107 m 7 Y s 641 1100 m 14 Y s 195 1100 m 14 Y s 184 1107 m 7 Y s 173 1107 m 7 Y s 162 1107 m 7 Y s 151 1107 m 7
 Y s 641 1100 m 14 Y s 652 1107 m 7 Y s 664 1107 m 7 Y s 675 1107 m 7 Y s 686 1107 m 7 Y s 143 685 m 429 Y s 160 685 m -17 X s 152 695 m -9 X s 152 705 m -9 X s 152 716 m -9 X s 152 726 m -9 X s 160 736 m -17 X s 152 747 m -9 X s 152 757 m -9 X s 152
 768 m -9 X s 152 778 m -9 X s 160 788 m -17 X s 152 799 m -9 X s 152 809 m -9 X s 152 819 m -9 X s 152 830 m -9 X s 160 840 m -17 X s 152 851 m -9 X s 152 861 m -9 X s 152 871 m -9 X s 152 882 m -9 X s 160 892 m -17 X s 152 902 m -9 X s 152 913 m -9
 X s 152 923 m -9 X s 152 933 m -9 X s 160 944 m -17 X s 152 954 m -9 X s 152 965 m -9 X s 152 975 m -9 X s 152 985 m -9 X s 160 996 m -17 X s 152 1006 m -9 X s 152 1016 m -9 X s 152 1027 m -9 X s 152 1037 m -9 X s 160 1047 m -17 X s 152 1058 m -9 X
 s 152 1068 m -9 X s 152 1079 m -9 X s 152 1089 m -9 X s 160 1099 m -17 X s 160 1099 m -17 X s 152 1110 m -9 X s 691 685 m 429 Y s 674 685 m 17 X s 683 695 m 8 X s 683 705 m 8 X s 683 716 m 8 X s 683 726 m 8 X s 674 736 m 17 X s 683 747 m 8 X s 683
 757 m 8 X s 683 768 m 8 X s 683 778 m 8 X s 674 788 m 17 X s 683 799 m 8 X s 683 809 m 8 X s 683 819 m 8 X s 683 830 m 8 X s 674 840 m 17 X s 683 851 m 8 X s 683 861 m 8 X s 683 871 m 8 X s 683 882 m 8 X s 674 892 m 17 X s 683 902 m 8 X s 683 913 m
 8 X s 683 923 m 8 X s 683 933 m 8 X s 674 944 m 17 X s 683 954 m 8 X s 683 965 m 8 X s 683 975 m 8 X s 683 985 m 8 X s 674 996 m 17 X s 683 1006 m 8 X s 683 1016 m 8 X s 683 1027 m 8 X s 683 1037 m 8 X s 674 1047 m 17 X s 683 1058 m 8 X s 683 1068 m
 8 X s 683 1079 m 8 X s 683 1089 m 8 X s 674 1099 m 17 X s 674 1099 m 17 X s 683 1110 m 8 X s
 gsave  710 567 23 603 C 719.017 682.347 t 90 r /Helvetica-Bold findfont 19.9602 sf 0 0 m (U/O\255flow \(S,B\): \(0.0, 0.0\)% / \(0.0, 0.0\)%) show NC gr  0.490196 0.545098 0.615686 c 0.364706 0.419608 0.490196 c 332 38 30 1130 bf 0.490196 0.545098
 0.615686 c 30 1130 m 332 X s 362 1130 m 38 Y s 362 1168 m -332 X s 30 1168 m -38 Y s 1 1 1 c black 1 1 1 c
 gsave  710 567 23 603 C 34.101 1142.38 t 0 r /Helvetica-Bold findfont 28.5146 sf 0 0 m (Input variable: yy.HT_l5) show NC gr  0.490196 0.545098 0.615686 c 0.941176 0.941176 0.941176 c 710 567 779 603 bf black 1 1 0.992157 c 548 429 899 685 bf black
 548 429 899 685 bl 0 0 0.933333 c 6 lw 0.49 0.6 0.82 c black 3 lw 0.49 0.6 0.82 c 899 685 m 28 X 10 Y 13 X -6 Y 14 X 3 Y 14 X -2 Y 13 X 18 Y 14 X -21 Y 14 X 11 Y 13 X 3 Y 14 X 23 Y 14 X -28 Y 14 X -4 Y 13 X 36 Y 14 X 16 Y 14 X -14 Y 13 X -9 Y 14 X
 30 Y 27 X 56 Y 14 X 17 Y 14 X 59 Y 13 X -7 Y 14 X 46 Y 14 X 40 Y 13 X 81 Y 14 X -75 Y 14 X 13 Y 13 X 4 Y 14 X 90 Y 14 X -16 Y 13 X -57 Y 14 X 1 Y 14 X -16 Y 13 X -13 Y 14 X 32 Y 14 X -82 Y 13 X -143 Y 14 X -53 Y 14 X -43 Y 14 X f 6 lw 0 0 0.933333 c
 0.49 0.6 0.82 c 0 0 0.933333 c 899 685 m 28 X 10 Y 13 X -6 Y 14 X 3 Y 14 X -2 Y 13 X 18 Y 14 X -21 Y 14 X 11 Y 13 X 3 Y 14 X 23 Y 14 X -28 Y 14 X -4 Y 13 X 36 Y 14 X 16 Y 14 X -14 Y 13 X -9 Y 14 X 30 Y 27 X 56 Y 14 X 17 Y 14 X 59 Y 13 X -7 Y 14 X 46
 Y 14 X 40 Y 13 X 81 Y 14 X -75 Y 14 X 13 Y 13 X 4 Y 14 X 90 Y 14 X -16 Y 13 X -57 Y 14 X 1 Y 14 X -16 Y 13 X -13 Y 14 X 32 Y 14 X -82 Y 13 X -143 Y 14 X -53 Y 14 X -43 Y 14 X s black 3 lw 899 685 m 548 X s 953 698 m -13 Y s 974 691 m -6 Y s 995 691
 m -6 Y s 1017 691 m -6 Y s 1038 691 m -6 Y s 1060 698 m -13 Y s 1081 691 m -6 Y s 1103 691 m -6 Y s 1124 691 m -6 Y s 1145 691 m -6 Y s 1167 698 m -13 Y s 1188 691 m -6 Y s 1210 691 m -6 Y s 1231 691 m -6 Y s 1252 691 m -6 Y s 1274 698 m -13 Y s
 1295 691 m -6 Y s 1317 691 m -6 Y s 1338 691 m -6 Y s 1360 691 m -6 Y s 1381 698 m -13 Y s 953 698 m -13 Y s 931 691 m -6 Y s 910 691 m -6 Y s 1381 698 m -13 Y s 1402 691 m -6 Y s 1424 691 m -6 Y s 1445 691 m -6 Y s
 gsave  710 567 779 603 C 940.619 656.444 t 0 r /Helvetica findfont 25.6631 sf 0 0 m (0.2) show NC gr 
 gsave  710 567 779 603 C 926.411 656.444 t 0 r /Symbol findfont 25.6631 sf 0 0 m (-) show NC gr 
 gsave  710 567 779 603 C 1045.76 656.444 t 0 r /Helvetica findfont 25.6631 sf 0 0 m (0.1) show NC gr 
 gsave  710 567 779 603 C 1034.4 656.444 t 0 r /Symbol findfont 25.6631 sf 0 0 m (-) show NC gr 
 gsave  710 567 779 603 C 1156.59 656.444 t 0 r /Helvetica findfont 25.6631 sf 0 0 m (0) show NC gr 
 gsave  710 567 779 603 C 1256.05 656.444 t 0 r /Helvetica findfont 25.6631 sf 0 0 m (0.1) show NC gr 
 gsave  710 567 779 603 C 1361.2 656.444 t 0 r /Helvetica findfont 25.6631 sf 0 0 m (0.2) show NC gr 
 gsave  710 567 779 603 C 1335.62 613.818 t 0 r /Helvetica findfont 28.5146 sf 0 0 m (bb.HT_l1) show NC gr  899 1114 m 548 X s 953 1100 m 14 Y s 974 1107 m 7 Y s 995 1107 m 7 Y s 1017 1107 m 7 Y s 1038 1107 m 7 Y s 1060 1100 m 14 Y s 1081 1107 m 7 Y
 s 1103 1107 m 7 Y s 1124 1107 m 7 Y s 1145 1107 m 7 Y s 1167 1100 m 14 Y s 1188 1107 m 7 Y s 1210 1107 m 7 Y s 1231 1107 m 7 Y s 1252 1107 m 7 Y s 1274 1100 m 14 Y s 1295 1107 m 7 Y s 1317 1107 m 7 Y s 1338 1107 m 7 Y s 1360 1107 m 7 Y s 1381 1100 m
 14 Y s 953 1100 m 14 Y s 931 1107 m 7 Y s 910 1107 m 7 Y s 1381 1100 m 14 Y s 1402 1107 m 7 Y s 1424 1107 m 7 Y s 1445 1107 m 7 Y s 899 685 m 429 Y s 915 685 m -16 X s 907 699 m -8 X s 907 713 m -8 X s 907 727 m -8 X s 907 741 m -8 X s 915 756 m -16
 X s 907 770 m -8 X s 907 784 m -8 X s 907 798 m -8 X s 907 812 m -8 X s 915 827 m -16 X s 907 841 m -8 X s 907 855 m -8 X s 907 869 m -8 X s 907 883 m -8 X s 915 897 m -16 X s 907 912 m -8 X s 907 926 m -8 X s 907 940 m -8 X s 907 954 m -8 X s 915
 968 m -16 X s 907 983 m -8 X s 907 997 m -8 X s 907 1011 m -8 X s 907 1025 m -8 X s 915 1039 m -16 X s 907 1054 m -8 X s 907 1068 m -8 X s 907 1082 m -8 X s 907 1096 m -8 X s 915 1110 m -16 X s 915 1110 m -16 X s
 gsave  710 567 779 603 C 875.259 673.495 t 0 r /Helvetica findfont 25.6631 sf 0 0 m (0) show NC gr 
 gsave  710 567 779 603 C 878.101 744.539 t 0 r /Helvetica findfont 25.6631 sf 0 0 m (1) show NC gr 
 gsave  710 567 779 603 C 875.259 815.582 t 0 r /Helvetica findfont 25.6631 sf 0 0 m (2) show NC gr 
 gsave  710 567 779 603 C 875.259 886.626 t 0 r /Helvetica findfont 25.6631 sf 0 0 m (3) show NC gr 
 gsave  710 567 779 603 C 875.259 957.67 t 0 r /Helvetica findfont 25.6631 sf 0 0 m (4) show NC gr 
 gsave  710 567 779 603 C 875.259 1028.71 t 0 r /Helvetica findfont 25.6631 sf 0 0 m (5) show NC gr 
 gsave  710 567 779 603 C 875.259 1099.76 t 0 r /Helvetica findfont 25.6631 sf 0 0 m (6) show NC gr 
 gsave  710 567 779 603 C 801.374 1023.03 t 90 r /Helvetica findfont 28.5146 sf 0 0 m (0.0128 ) show NC gr 
 gsave  710 567 779 603 C 787.165 1020.19 t 90 r /Helvetica findfont 19.9602 sf 0 0 m ( ) show NC gr 
 gsave  710 567 779 603 C 801.374 1008.82 t 90 r /Helvetica findfont 28.5146 sf 0 0 m (/) show NC gr 
 gsave  710 567 779 603 C 809.899 1005.98 t 90 r /Helvetica findfont 19.9602 sf 0 0 m ( ) show NC gr 
 gsave  710 567 779 603 C 801.374 900.835 t 90 r /Helvetica findfont 28.5146 sf 0 0 m (\(1/N\) dN) show NC gr  1447 685 m 429 Y s 1430 685 m 17 X s 1438 699 m 9 X s 1438 713 m 9 X s 1438 727 m 9 X s 1438 741 m 9 X s 1430 756 m 17 X s 1438 770 m 9 X s
 1438 784 m 9 X s 1438 798 m 9 X s 1438 812 m 9 X s 1430 827 m 17 X s 1438 841 m 9 X s 1438 855 m 9 X s 1438 869 m 9 X s 1438 883 m 9 X s 1430 897 m 17 X s 1438 912 m 9 X s 1438 926 m 9 X s 1438 940 m 9 X s 1438 954 m 9 X s 1430 968 m 17 X s 1438 983
 m 9 X s 1438 997 m 9 X s 1438 1011 m 9 X s 1438 1025 m 9 X s 1430 1039 m 17 X s 1438 1054 m 9 X s 1438 1068 m 9 X s 1438 1082 m 9 X s 1438 1096 m 9 X s 1430 1110 m 17 X s 1430 1110 m 17 X s 0.490196 0.545098 0.615686 c 0.364706 0.419608 0.490196 c
 335 38 786 1130 bf 0.490196 0.545098 0.615686 c 786 1130 m 335 X s 1121 1130 m 38 Y s 1121 1168 m -335 X s 786 1168 m -38 Y s 1 1 1 c black 1 1 1 c
 gsave  710 567 779 603 C 790.007 1142.38 t 0 r /Helvetica-Bold findfont 28.5146 sf 0 0 m (Input variable: bb.HT_l1) show NC gr  1 0 0 c 6 lw black 3 lw 1 0 0 c 1433 685 m -1 X s 1419 686 m -2 -1 d s 1419 702 m -17 -17 d s 1406 704 m -19 -19 d s 1405
 718 m -33 -33 d s 1405 733 m -48 -48 d s 1398 741 m -6 -6 d s 1381 724 m -39 -39 d s 1378 736 m -51 -51 d s 1378 751 m -66 -66 d s 1378 766 m -81 -81 d s 1373 777 m -91 -92 d s 1364 783 m -97 -98 d s 1364 798 m -112 -113 d s 1364 813 m -127 -128 d s
 1364 829 m -13 -14 d s 1346 810 m -125 -125 d s 1364 844 m -13 -14 d s 1337 816 m -131 -131 d s 1364 859 m -13 -14 d s 1337 831 m -14 -13 d s 1310 804 m -119 -119 d s 1364 874 m -13 -14 d s 1327 836 m -4 -3 d s 1310 819 m -14 -14 d s 1282 792 m -106
 -107 d s 1364 889 m -13 -13 d s 1309 834 m -13 -14 d s 1282 807 m -121 -122 d s 1364 905 m -13 -14 d s 1271 810 m -125 -125 d s 1363 918 m -12 -12 d s 1261 815 m -130 -130 d s 1255 825 m -139 -140 d s 1255 840 m -154 -155 d s 1255 855 m -27 -28 d s
 1207 807 m -121 -122 d s 1255 870 m -27 -27 d s 1196 811 m -125 -126 d s 1255 885 m -14 -13 d s 1230 861 m -2 -3 d s 1185 815 m -129 -130 d s 1255 901 m -14 -14 d s 1173 818 m -132 -133 d s 1255 916 m -14 -14 d s 1169 829 m -143 -144 d s 1246 922 m
 -5 -5 d s 1159 835 m -149 -150 d s 1159 850 m -164 -165 d s 1159 865 m -179 -180 d s 1156 876 m -10 -10 d s 1133 854 m -1 -1 d s 1128 848 m -163 -163 d s 1118 854 m -168 -169 d s 1118 869 m -183 -184 d s 1118 884 m -27 -27 d s 1090 856 m -170 -171 d
 s 1118 899 m -27 -27 d s 1072 853 m -167 -168 d s 1118 915 m -27 -28 d s 1057 853 m -158 -159 d s 1107 918 m -2 -2 d s 1101 913 m -10 -11 d s 1050 861 m -151 -152 d s 1050 876 m -55 -55 d s 988 814 m -61 -62 d s 926 752 m -27 -27 d s 1050 891 m -28
 -27 d s 1012 853 m -17 -17 d s 981 822 m -41 -41 d s 937 777 m -10 -10 d s 1047 903 m -25 -24 d s 1009 865 m -14 -14 d s 981 838 m -41 -42 d s 1035 907 m -13 -13 d s 1009 880 m -14 -13 d s 981 853 m -13 -14 d s 954 825 m -14 -14 d s 1009 896 m -14
 -14 d s 981 868 m -13 -14 d s 942 829 m -2 -2 d s 996 898 m -1 -1 d s 979 880 m -11 -11 d s 6 lw 899 740 m 14 X 12 Y 14 X 25 Y 13 X 52 Y 14 X -4 Y 14 X 55 Y 13 X -66 Y 14 X 84 Y 14 X -45 Y 13 X 54 Y 14 X -4 Y 14 X -50 Y 27 X 3 Y 14 X 57 Y 14 X 5 Y
 13 X -70 Y 14 X 6 Y 14 X 22 Y 13 X -47 Y 14 X -14 Y 14 X -4 Y 13 X -4 Y 14 X 6 Y 14 X 48 Y 13 X 61 Y 14 X -107 Y 14 X -5 Y 13 X -18 Y 14 X 42 Y 14 X -31 Y 13 X 33 Y 14 X -26 Y 14 X 108 Y 13 X -141 Y 14 X -53 Y 14 X 17 Y 13 X -37 Y 14 X -19 Y 28 X s
 black 3 lw 899 685 m 548 X s 953 698 m -13 Y s 974 691 m -6 Y s 995 691 m -6 Y s 1017 691 m -6 Y s 1038 691 m -6 Y s 1060 698 m -13 Y s 1081 691 m -6 Y s 1103 691 m -6 Y s 1124 691 m -6 Y s 1145 691 m -6 Y s 1167 698 m -13 Y s 1188 691 m -6 Y s 1210
 691 m -6 Y s 1231 691 m -6 Y s 1252 691 m -6 Y s 1274 698 m -13 Y s 1295 691 m -6 Y s 1317 691 m -6 Y s 1338 691 m -6 Y s 1360 691 m -6 Y s 1381 698 m -13 Y s 953 698 m -13 Y s 931 691 m -6 Y s 910 691 m -6 Y s 1381 698 m -13 Y s 1402 691 m -6 Y s
 1424 691 m -6 Y s 1445 691 m -6 Y s 899 1114 m 548 X s 953 1100 m 14 Y s 974 1107 m 7 Y s 995 1107 m 7 Y s 1017 1107 m 7 Y s 1038 1107 m 7 Y s 1060 1100 m 14 Y s 1081 1107 m 7 Y s 1103 1107 m 7 Y s 1124 1107 m 7 Y s 1145 1107 m 7 Y s 1167 1100 m 14
 Y s 1188 1107 m 7 Y s 1210 1107 m 7 Y s 1231 1107 m 7 Y s 1252 1107 m 7 Y s 1274 1100 m 14 Y s 1295 1107 m 7 Y s 1317 1107 m 7 Y s 1338 1107 m 7 Y s 1360 1107 m 7 Y s 1381 1100 m 14 Y s 953 1100 m 14 Y s 931 1107 m 7 Y s 910 1107 m 7 Y s 1381 1100 m
 14 Y s 1402 1107 m 7 Y s 1424 1107 m 7 Y s 1445 1107 m 7 Y s 899 685 m 429 Y s 915 685 m -16 X s 907 699 m -8 X s 907 713 m -8 X s 907 727 m -8 X s 907 741 m -8 X s 915 756 m -16 X s 907 770 m -8 X s 907 784 m -8 X s 907 798 m -8 X s 907 812 m -8 X
 s 915 827 m -16 X s 907 841 m -8 X s 907 855 m -8 X s 907 869 m -8 X s 907 883 m -8 X s 915 897 m -16 X s 907 912 m -8 X s 907 926 m -8 X s 907 940 m -8 X s 907 954 m -8 X s 915 968 m -16 X s 907 983 m -8 X s 907 997 m -8 X s 907 1011 m -8 X s 907
 1025 m -8 X s 915 1039 m -16 X s 907 1054 m -8 X s 907 1068 m -8 X s 907 1082 m -8 X s 907 1096 m -8 X s 915 1110 m -16 X s 915 1110 m -16 X s 1447 685 m 429 Y s 1430 685 m 17 X s 1438 699 m 9 X s 1438 713 m 9 X s 1438 727 m 9 X s 1438 741 m 9 X s
 1430 756 m 17 X s 1438 770 m 9 X s 1438 784 m 9 X s 1438 798 m 9 X s 1438 812 m 9 X s 1430 827 m 17 X s 1438 841 m 9 X s 1438 855 m 9 X s 1438 869 m 9 X s 1438 883 m 9 X s 1430 897 m 17 X s 1438 912 m 9 X s 1438 926 m 9 X s 1438 940 m 9 X s 1438 954
 m 9 X s 1430 968 m 17 X s 1438 983 m 9 X s 1438 997 m 9 X s 1438 1011 m 9 X s 1438 1025 m 9 X s 1430 1039 m 17 X s 1438 1054 m 9 X s 1438 1068 m 9 X s 1438 1082 m 9 X s 1438 1096 m 9 X s 1430 1110 m 17 X s 1430 1110 m 17 X s
 gsave  710 567 779 603 C 1474.92 682.347 t 90 r /Helvetica-Bold findfont 19.9602 sf 0 0 m (U/O\255flow \(S,B\): \(0.0, 0.0\)% / \(0.0, 0.0\)%) show NC gr  0.490196 0.545098 0.615686 c 0.364706 0.419608 0.490196 c 335 38 786 1130 bf 0.490196 0.545098
 0.615686 c 786 1130 m 335 X s 1121 1130 m 38 Y s 1121 1168 m -335 X s 786 1168 m -38 Y s 1 1 1 c black 1 1 1 c
 gsave  710 567 779 603 C 790.007 1142.38 t 0 r /Helvetica-Bold findfont 28.5146 sf 0 0 m (Input variable: bb.HT_l1) show NC gr  0.490196 0.545098 0.615686 c 0.941176 0.941176 0.941176 c 711 567 1534 603 bf black 1 1 0.992157 c 547 429 1655 685 bf
 black 547 429 1655 685 bl 0 0 0.933333 c 6 lw 0.49 0.6 0.82 c black 3 lw 0.49 0.6 0.82 c 1655 685 m 125 Y 14 X 49 Y 14 X -9 Y 13 X 16 Y 14 X -47 Y 14 X 61 Y 13 X 43 Y 14 X -37 Y 14 X -35 Y 13 X 49 Y 14 X -96 Y 14 X 65 Y 13 X -34 Y 14 X 20 Y 14 X -1
 Y 13 X -10 Y 14 X 1 Y 14 X 2 Y 13 X -11 Y 14 X -15 Y 14 X -11 Y 14 X -1 Y 13 X 17 Y 14 X -101 Y 14 X 87 Y 13 X 26 Y 14 X -43 Y 14 X -32 Y 27 X 25 Y 14 X -26 Y 13 X 4 Y 14 X -7 Y 14 X -30 Y 13 X -8 Y 14 X -4 Y 14 X -18 Y 13 X -8 Y 14 X -5 Y 14 X -1 Y
 13 X f 6 lw 0 0 0.933333 c 0.49 0.6 0.82 c 0 0 0.933333 c 1655 810 m 14 X 49 Y 14 X -9 Y 13 X 16 Y 14 X -47 Y 14 X 61 Y 13 X 43 Y 14 X -37 Y 14 X -35 Y 13 X 49 Y 14 X -96 Y 14 X 65 Y 13 X -34 Y 14 X 20 Y 14 X -1 Y 13 X -10 Y 14 X 1 Y 14 X 2 Y 13 X
 -11 Y 14 X -15 Y 14 X -11 Y 14 X -1 Y 13 X 17 Y 14 X -101 Y 14 X 87 Y 13 X 26 Y 14 X -43 Y 14 X -32 Y 27 X 25 Y 14 X -26 Y 13 X 4 Y 14 X -7 Y 14 X -30 Y 13 X -8 Y 14 X -4 Y 14 X -18 Y 13 X -8 Y 14 X -5 Y 14 X -1 Y 13 X s black 3 lw 1655 685 m 547 X
 s 1691 698 m -13 Y s 1705 691 m -6 Y s 1719 691 m -6 Y s 1734 691 m -6 Y s 1748 691 m -6 Y s 1762 698 m -13 Y s 1776 691 m -6 Y s 1791 691 m -6 Y s 1805 691 m -6 Y s 1819 691 m -6 Y s 1833 698 m -13 Y s 1848 691 m -6 Y s 1862 691 m -6 Y s 1876 691 m
 -6 Y s 1890 691 m -6 Y s 1905 698 m -13 Y s 1919 691 m -6 Y s 1933 691 m -6 Y s 1947 691 m -6 Y s 1962 691 m -6 Y s 1976 698 m -13 Y s 1990 691 m -6 Y s 2004 691 m -6 Y s 2019 691 m -6 Y s 2033 691 m -6 Y s 2047 698 m -13 Y s 2061 691 m -6 Y s 2076
 691 m -6 Y s 2090 691 m -6 Y s 2104 691 m -6 Y s 2118 698 m -13 Y s 2133 691 m -6 Y s 2147 691 m -6 Y s 2161 691 m -6 Y s 2176 691 m -6 Y s 2190 698 m -13 Y s 1691 698 m -13 Y s 1677 691 m -6 Y s 1662 691 m -6 Y s 2190 698 m -13 Y s
 gsave  711 567 1534 603 C 1679.47 656.444 t 0 r /Helvetica findfont 25.6631 sf 0 0 m (0.1) show NC gr 
 gsave  711 567 1534 603 C 1668.11 656.444 t 0 r /Symbol findfont 25.6631 sf 0 0 m (-) show NC gr 
 gsave  711 567 1534 603 C 1741.99 656.444 t 0 r /Helvetica findfont 25.6631 sf 0 0 m (0.05) show NC gr 
 gsave  711 567 1534 603 C 1730.63 656.444 t 0 r /Symbol findfont 25.6631 sf 0 0 m (-) show NC gr 
 gsave  711 567 1534 603 C 1824.4 656.444 t 0 r /Helvetica findfont 25.6631 sf 0 0 m (0) show NC gr 
 gsave  711 567 1534 603 C 1878.4 656.444 t 0 r /Helvetica findfont 25.6631 sf 0 0 m (0.05) show NC gr 
 gsave  711 567 1534 603 C 1957.97 656.444 t 0 r /Helvetica findfont 25.6631 sf 0 0 m (0.1) show NC gr 
 gsave  711 567 1534 603 C 2020.48 656.444 t 0 r /Helvetica findfont 25.6631 sf 0 0 m (0.15) show NC gr 
 gsave  711 567 1534 603 C 2100.05 656.444 t 0 r /Helvetica findfont 25.6631 sf 0 0 m (0.2) show NC gr 
 gsave  711 567 1534 603 C 2162.57 656.444 t 0 r /Helvetica findfont 25.6631 sf 0 0 m (0.25) show NC gr 
 gsave  711 567 1534 603 C 2085.84 613.818 t 0 r /Helvetica findfont 28.5146 sf 0 0 m (bb.HT_l2) show NC gr  1655 1114 m 547 X s 1691 1100 m 14 Y s 1705 1107 m 7 Y s 1719 1107 m 7 Y s 1734 1107 m 7 Y s 1748 1107 m 7 Y s 1762 1100 m 14 Y s 1776 1107 m
 7 Y s 1791 1107 m 7 Y s 1805 1107 m 7 Y s 1819 1107 m 7 Y s 1833 1100 m 14 Y s 1848 1107 m 7 Y s 1862 1107 m 7 Y s 1876 1107 m 7 Y s 1890 1107 m 7 Y s 1905 1100 m 14 Y s 1919 1107 m 7 Y s 1933 1107 m 7 Y s 1947 1107 m 7 Y s 1962 1107 m 7 Y s 1976
 1100 m 14 Y s 1990 1107 m 7 Y s 2004 1107 m 7 Y s 2019 1107 m 7 Y s 2033 1107 m 7 Y s 2047 1100 m 14 Y s 2061 1107 m 7 Y s 2076 1107 m 7 Y s 2090 1107 m 7 Y s 2104 1107 m 7 Y s 2118 1100 m 14 Y s 2133 1107 m 7 Y s 2147 1107 m 7 Y s 2161 1107 m 7 Y s
 2176 1107 m 7 Y s 2190 1100 m 14 Y s 1691 1100 m 14 Y s 1677 1107 m 7 Y s 1662 1107 m 7 Y s 2190 1100 m 14 Y s 1655 685 m 429 Y s 1671 685 m -16 X s 1663 694 m -8 X s 1663 703 m -8 X s 1663 712 m -8 X s 1663 722 m -8 X s 1671 731 m -16 X s 1663 740
 m -8 X s 1663 749 m -8 X s 1663 759 m -8 X s 1663 768 m -8 X s 1671 777 m -16 X s 1663 786 m -8 X s 1663 795 m -8 X s 1663 805 m -8 X s 1663 814 m -8 X s 1671 823 m -16 X s 1663 832 m -8 X s 1663 842 m -8 X s 1663 851 m -8 X s 1663 860 m -8 X s 1671
 869 m -16 X s 1663 879 m -8 X s 1663 888 m -8 X s 1663 897 m -8 X s 1663 906 m -8 X s 1671 916 m -16 X s 1663 925 m -8 X s 1663 934 m -8 X s 1663 943 m -8 X s 1663 952 m -8 X s 1671 962 m -16 X s 1663 971 m -8 X s 1663 980 m -8 X s 1663 989 m -8 X s
 1663 999 m -8 X s 1671 1008 m -16 X s 1663 1017 m -8 X s 1663 1026 m -8 X s 1663 1036 m -8 X s 1663 1045 m -8 X s 1671 1054 m -16 X s 1663 1063 m -8 X s 1663 1073 m -8 X s 1663 1082 m -8 X s 1663 1091 m -8 X s 1671 1100 m -16 X s 1671 1100 m -16 X s
 1663 1109 m -8 X s
 gsave  711 567 1534 603 C 1631.16 673.495 t 0 r /Helvetica findfont 25.6631 sf 0 0 m (0) show NC gr 
 gsave  711 567 1534 603 C 1634.01 721.805 t 0 r /Helvetica findfont 25.6631 sf 0 0 m (1) show NC gr 
 gsave  711 567 1534 603 C 1631.16 767.273 t 0 r /Helvetica findfont 25.6631 sf 0 0 m (2) show NC gr 
 gsave  711 567 1534 603 C 1631.16 812.741 t 0 r /Helvetica findfont 25.6631 sf 0 0 m (3) show NC gr 
 gsave  711 567 1534 603 C 1631.16 858.209 t 0 r /Helvetica findfont 25.6631 sf 0 0 m (4) show NC gr 
 gsave  711 567 1534 603 C 1631.16 906.518 t 0 r /Helvetica findfont 25.6631 sf 0 0 m (5) show NC gr 
 gsave  711 567 1534 603 C 1631.16 951.986 t 0 r /Helvetica findfont 25.6631 sf 0 0 m (6) show NC gr 
 gsave  711 567 1534 603 C 1631.16 997.454 t 0 r /Helvetica findfont 25.6631 sf 0 0 m (7) show NC gr 
 gsave  711 567 1534 603 C 1631.16 1042.92 t 0 r /Helvetica findfont 25.6631 sf 0 0 m (8) show NC gr 
 gsave  711 567 1534 603 C 1631.16 1091.23 t 0 r /Helvetica findfont 25.6631 sf 0 0 m (9) show NC gr 
 gsave  711 567 1534 603 C 1557.28 1023.03 t 90 r /Helvetica findfont 28.5146 sf 0 0 m (0.0096 ) show NC gr 
 gsave  711 567 1534 603 C 1543.07 1020.19 t 90 r /Helvetica findfont 19.9602 sf 0 0 m ( ) show NC gr 
 gsave  711 567 1534 603 C 1557.28 1008.82 t 90 r /Helvetica findfont 28.5146 sf 0 0 m (/) show NC gr 
 gsave  711 567 1534 603 C 1565.8 1005.98 t 90 r /Helvetica findfont 19.9602 sf 0 0 m ( ) show NC gr 
 gsave  711 567 1534 603 C 1557.28 900.835 t 90 r /Helvetica findfont 28.5146 sf 0 0 m (\(1/N\) dN) show NC gr  2202 685 m 429 Y s 2186 685 m 16 X s 2194 694 m 8 X s 2194 703 m 8 X s 2194 712 m 8 X s 2194 722 m 8 X s 2186 731 m 16 X s 2194 740 m 8 X
 s 2194 749 m 8 X s 2194 759 m 8 X s 2194 768 m 8 X s 2186 777 m 16 X s 2194 786 m 8 X s 2194 795 m 8 X s 2194 805 m 8 X s 2194 814 m 8 X s 2186 823 m 16 X s 2194 832 m 8 X s 2194 842 m 8 X s 2194 851 m 8 X s 2194 860 m 8 X s 2186 869 m 16 X s 2194
 879 m 8 X s 2194 888 m 8 X s 2194 897 m 8 X s 2194 906 m 8 X s 2186 916 m 16 X s 2194 925 m 8 X s 2194 934 m 8 X s 2194 943 m 8 X s 2194 952 m 8 X s 2186 962 m 16 X s 2194 971 m 8 X s 2194 980 m 8 X s 2194 989 m 8 X s 2194 999 m 8 X s 2186 1008 m 16
 X s 2194 1017 m 8 X s 2194 1026 m 8 X s 2194 1036 m 8 X s 2194 1045 m 8 X s 2186 1054 m 16 X s 2194 1063 m 8 X s 2194 1073 m 8 X s 2194 1082 m 8 X s 2194 1091 m 8 X s 2186 1100 m 16 X s 2186 1100 m 16 X s 2194 1109 m 8 X s 0.490196 0.545098 0.615686
 c 0.364706 0.419608 0.490196 c 338 38 1542 1130 bf 0.490196 0.545098 0.615686 c 1542 1130 m 338 X s 1880 1130 m 38 Y s 1880 1168 m -338 X s 1542 1168 m -38 Y s 1 1 1 c black 1 1 1 c
 gsave  711 567 1534 603 C 1545.91 1142.38 t 0 r /Helvetica-Bold findfont 28.5146 sf 0 0 m (Input variable: bb.HT_l2) show NC gr  1 0 0 c 6 lw black 3 lw 1 0 0 c 2190 686 m -2 -1 d s 2186 697 m -13 -12 d s 2175 702 m -17 -17 d s 2169 710 m -8 -7 d s
 2158 699 m -15 -14 d s 2134 691 m -6 -6 d s 2134 706 m -21 -21 d s 2134 721 m -36 -36 d s 2121 723 m -1 -1 d s 2107 709 m -24 -24 d s 2107 724 m -14 -14 d s 2089 706 m -21 -21 d s 2107 739 m -14 -14 d s 2079 711 m -26 -26 d s 2107 754 m -14 -14 d s
 2079 727 m -41 -42 d s 2098 761 m -5 -5 d s 2079 742 m -56 -57 d s 2068 745 m -2 -2 d s 2055 733 m -47 -48 d s 2052 745 m -14 -14 d s 2032 725 m -40 -40 d s 2050 757 m -12 -11 d s 2025 732 m -48 -47 d s 2016 738 m -54 -53 d s 1999 737 m -2 -2 d s
 1997 735 m -50 -50 d s 1984 736 m -52 -51 d s 1984 752 m -67 -67 d s 1984 767 m -82 -82 d s 1977 775 m -90 -90 d s 1959 772 m -16 -16 d s 1941 754 m -69 -69 d s 1956 785 m -13 -14 d s 1929 757 m -72 -72 d s 1956 800 m -13 -14 d s 1929 772 m -14 -13
 d s 1910 754 m -68 -69 d s 1956 815 m -13 -14 d s 1929 788 m -14 -14 d s 1901 760 m -74 -75 d s 1956 830 m -13 -13 d s 1929 803 m -14 -14 d s 1901 775 m -89 -90 d s 1952 841 m -9 -9 d s 1929 818 m -14 -14 d s 1901 790 m -105 -105 d s 1929 833 m -14
 -14 d s 1896 800 m -115 -115 d s 1929 848 m -14 -13 d s 1888 807 m -122 -122 d s 1929 863 m -14 -13 d s 1877 811 m -17 -16 d s 1849 783 m -98 -98 d s 1922 872 m -7 -7 d s 1874 824 m -14 -14 d s 1847 796 m -111 -111 d s 1874 839 m -14 -14 d s 1842
 806 m -121 -121 d s 1874 854 m -14 -14 d s 1824 803 m -118 -118 d s 1874 869 m -14 -14 d s 1807 801 m -116 -116 d s 1861 871 m -1 X s 1793 803 m -117 -118 d s 1792 817 m -131 -132 d s 1792 832 m -137 -138 d s 1792 847 m -137 -138 d s 1792 862 m -137
 -137 d s 1792 878 m -137 -138 d s 1792 893 m -14 -14 d s 1775 876 m -120 -121 d s 1792 908 m -14 -14 d s 1765 880 m -110 -110 d s 1782 913 m -4 -4 d s 1765 896 m -28 -28 d s 1726 856 m -71 -71 d s 1764 910 m -27 -27 d s 1724 869 m -69 -69 d s 1739
 900 m -2 -2 d s 1724 885 m -69 -69 d s 1724 900 m -69 -69 d s 1724 915 m -69 -69 d s 1721 928 m -66 -67 d s 1710 932 m -55 -56 d s 1710 947 m -55 -55 d s 1710 962 m -55 -55 d s 1710 977 m -14 -14 d s 1683 950 m -28 -28 d s 1705 987 m -9 -9 d s 1683
 965 m -28 -28 d s 1683 980 m -28 -28 d s 1683 995 m -28 -28 d s 1683 1010 m -28 -27 d s 1683 1025 m -14 -13 d s 1658 1001 m -3 -3 d s 1683 1041 m -14 -14 d s 1683 1056 m -14 -14 d s 1683 1071 m -14 -14 d s 1671 1075 m -2 -3 d s 6 lw 1655 1001 m 14 X
 74 Y 14 X -125 Y 13 X 37 Y 14 X -59 Y 14 X -72 Y 13 X 44 Y 14 X 10 Y 14 X -34 Y 13 X 37 Y 14 X -110 Y 14 X -2 Y 13 X 2 Y 14 X 3 Y 14 X -23 Y 13 X 88 Y 14 X -60 Y 14 X -11 Y 13 X -46 Y 14 X 118 Y 14 X -118 Y 14 X 87 Y 13 X -69 Y 14 X 3 Y 14 X -40 Y
 13 X 2 Y 14 X 1 Y 14 X -13 Y 13 X 32 Y 14 X -24 Y 14 X 12 Y 13 X -39 Y 14 X 55 Y 14 X -52 Y 13 X 14 Y 14 X -32 Y 14 X 8 Y 13 X 11 Y 14 X -13 Y 14 X -11 Y 13 X s black 3 lw 1655 685 m 547 X s 1691 698 m -13 Y s 1705 691 m -6 Y s 1719 691 m -6 Y s
 1734 691 m -6 Y s 1748 691 m -6 Y s 1762 698 m -13 Y s 1776 691 m -6 Y s 1791 691 m -6 Y s 1805 691 m -6 Y s 1819 691 m -6 Y s 1833 698 m -13 Y s 1848 691 m -6 Y s 1862 691 m -6 Y s 1876 691 m -6 Y s 1890 691 m -6 Y s 1905 698 m -13 Y s 1919 691 m
 -6 Y s 1933 691 m -6 Y s 1947 691 m -6 Y s 1962 691 m -6 Y s 1976 698 m -13 Y s 1990 691 m -6 Y s 2004 691 m -6 Y s 2019 691 m -6 Y s 2033 691 m -6 Y s 2047 698 m -13 Y s 2061 691 m -6 Y s 2076 691 m -6 Y s 2090 691 m -6 Y s 2104 691 m -6 Y s 2118
 698 m -13 Y s 2133 691 m -6 Y s 2147 691 m -6 Y s 2161 691 m -6 Y s 2176 691 m -6 Y s 2190 698 m -13 Y s 1691 698 m -13 Y s 1677 691 m -6 Y s 1662 691 m -6 Y s 2190 698 m -13 Y s 1655 1114 m 547 X s 1691 1100 m 14 Y s 1705 1107 m 7 Y s 1719 1107 m 7
 Y s 1734 1107 m 7 Y s 1748 1107 m 7 Y s 1762 1100 m 14 Y s 1776 1107 m 7 Y s 1791 1107 m 7 Y s 1805 1107 m 7 Y s 1819 1107 m 7 Y s 1833 1100 m 14 Y s 1848 1107 m 7 Y s 1862 1107 m 7 Y s 1876 1107 m 7 Y s 1890 1107 m 7 Y s 1905 1100 m 14 Y s 1919
 1107 m 7 Y s 1933 1107 m 7 Y s 1947 1107 m 7 Y s 1962 1107 m 7 Y s 1976 1100 m 14 Y s 1990 1107 m 7 Y s 2004 1107 m 7 Y s 2019 1107 m 7 Y s 2033 1107 m 7 Y s 2047 1100 m 14 Y s 2061 1107 m 7 Y s 2076 1107 m 7 Y s 2090 1107 m 7 Y s 2104 1107 m 7 Y s
 2118 1100 m 14 Y s 2133 1107 m 7 Y s 2147 1107 m 7 Y s 2161 1107 m 7 Y s 2176 1107 m 7 Y s 2190 1100 m 14 Y s 1691 1100 m 14 Y s 1677 1107 m 7 Y s 1662 1107 m 7 Y s 2190 1100 m 14 Y s 1655 685 m 429 Y s 1671 685 m -16 X s 1663 694 m -8 X s 1663 703
 m -8 X s 1663 712 m -8 X s 1663 722 m -8 X s 1671 731 m -16 X s 1663 740 m -8 X s 1663 749 m -8 X s 1663 759 m -8 X s 1663 768 m -8 X s 1671 777 m -16 X s 1663 786 m -8 X s 1663 795 m -8 X s 1663 805 m -8 X s 1663 814 m -8 X s 1671 823 m -16 X s
 1663 832 m -8 X s 1663 842 m -8 X s 1663 851 m -8 X s 1663 860 m -8 X s 1671 869 m -16 X s 1663 879 m -8 X s 1663 888 m -8 X s 1663 897 m -8 X s 1663 906 m -8 X s 1671 916 m -16 X s 1663 925 m -8 X s 1663 934 m -8 X s 1663 943 m -8 X s 1663 952 m -8
 X s 1671 962 m -16 X s 1663 971 m -8 X s 1663 980 m -8 X s 1663 989 m -8 X s 1663 999 m -8 X s 1671 1008 m -16 X s 1663 1017 m -8 X s 1663 1026 m -8 X s 1663 1036 m -8 X s 1663 1045 m -8 X s 1671 1054 m -16 X s 1663 1063 m -8 X s 1663 1073 m -8 X s
 1663 1082 m -8 X s 1663 1091 m -8 X s 1671 1100 m -16 X s 1671 1100 m -16 X s 1663 1109 m -8 X s 2202 685 m 429 Y s 2186 685 m 16 X s 2194 694 m 8 X s 2194 703 m 8 X s 2194 712 m 8 X s 2194 722 m 8 X s 2186 731 m 16 X s 2194 740 m 8 X s 2194 749 m 8
 X s 2194 759 m 8 X s 2194 768 m 8 X s 2186 777 m 16 X s 2194 786 m 8 X s 2194 795 m 8 X s 2194 805 m 8 X s 2194 814 m 8 X s 2186 823 m 16 X s 2194 832 m 8 X s 2194 842 m 8 X s 2194 851 m 8 X s 2194 860 m 8 X s 2186 869 m 16 X s 2194 879 m 8 X s 2194
 888 m 8 X s 2194 897 m 8 X s 2194 906 m 8 X s 2186 916 m 16 X s 2194 925 m 8 X s 2194 934 m 8 X s 2194 943 m 8 X s 2194 952 m 8 X s 2186 962 m 16 X s 2194 971 m 8 X s 2194 980 m 8 X s 2194 989 m 8 X s 2194 999 m 8 X s 2186 1008 m 16 X s 2194 1017 m
 8 X s 2194 1026 m 8 X s 2194 1036 m 8 X s 2194 1045 m 8 X s 2186 1054 m 16 X s 2194 1063 m 8 X s 2194 1073 m 8 X s 2194 1082 m 8 X s 2194 1091 m 8 X s 2186 1100 m 16 X s 2186 1100 m 16 X s 2194 1109 m 8 X s
 gsave  711 567 1534 603 C 2230.83 682.347 t 90 r /Helvetica-Bold findfont 19.9602 sf 0 0 m (U/O\255flow \(S,B\): \(0.0, 0.0\)% / \(0.0, 0.0\)%) show NC gr  0.490196 0.545098 0.615686 c 0.364706 0.419608 0.490196 c 338 38 1542 1130 bf 0.490196
 0.545098 0.615686 c 1542 1130 m 338 X s 1880 1130 m 38 Y s 1880 1168 m -338 X s 1542 1168 m -38 Y s 1 1 1 c black 1 1 1 c
 gsave  711 567 1534 603 C 1545.91 1142.38 t 0 r /Helvetica-Bold findfont 28.5146 sf 0 0 m (Input variable: bb.HT_l2) show NC gr  0.490196 0.545098 0.615686 c 0.941176 0.941176 0.941176 c 710 567 23 12 bf black 1 1 0.992157 c 548 429 143 94 bf black
 548 429 143 94 bl 0 0 0.933333 c 6 lw 0.49 0.6 0.82 c black 3 lw 0.49 0.6 0.82 c 143 94 m 55 X 2 Y 14 X 1 Y 14 X -1 Y 13 X -2 Y 14 X 1 Y 14 X -1 Y 13 X 2 Y 14 X 358 Y 14 X 22 Y 13 X 8 Y 14 X -79 Y 14 X 42 Y 13 X -26 Y 14 X -101 Y 14 X -35 Y 13 X 32
 Y 14 X -75 Y 27 X 7 Y 14 X -81 Y 14 X 48 Y 13 X 9 Y 14 X -6 Y 14 X -7 Y 13 X -27 Y 14 X -49 Y 14 X 9 Y 13 X 3 Y 14 X -26 Y 14 X 1 Y 14 X -1 Y 13 X -11 Y 14 X -7 Y 14 X -7 Y 13 X -2 Y 14 X -1 Y 14 X f 6 lw 0 0 0.933333 c 0.49 0.6 0.82 c 0 0 0.933333
 c 143 94 m 55 X 2 Y 14 X 1 Y 14 X -1 Y 13 X -2 Y 14 X 1 Y 14 X -1 Y 13 X 2 Y 14 X 358 Y 14 X 22 Y 13 X 8 Y 14 X -79 Y 14 X 42 Y 13 X -26 Y 14 X -101 Y 14 X -35 Y 13 X 32 Y 14 X -75 Y 27 X 7 Y 14 X -81 Y 14 X 48 Y 13 X 9 Y 14 X -6 Y 14 X -7 Y 13 X
 -27 Y 14 X -49 Y 14 X 9 Y 13 X 3 Y 14 X -26 Y 14 X 1 Y 14 X -1 Y 13 X -11 Y 14 X -7 Y 14 X -7 Y 13 X -2 Y 14 X -1 Y 14 X s black 3 lw 143 94 m 548 X s 197 107 m -13 Y s 219 100 m -6 Y s 240 100 m -6 Y s 262 100 m -6 Y s 284 100 m -6 Y s 305 107 m
 -13 Y s 327 100 m -6 Y s 349 100 m -6 Y s 370 100 m -6 Y s 392 100 m -6 Y s 414 107 m -13 Y s 435 100 m -6 Y s 457 100 m -6 Y s 479 100 m -6 Y s 501 100 m -6 Y s 522 107 m -13 Y s 544 100 m -6 Y s 566 100 m -6 Y s 587 100 m -6 Y s 609 100 m -6 Y s
 631 107 m -13 Y s 197 107 m -13 Y s 175 100 m -6 Y s 153 100 m -6 Y s 631 107 m -13 Y s 652 100 m -6 Y s 674 100 m -6 Y s
 gsave  710 567 23 12 C 184.714 65.3603 t 0 r /Helvetica findfont 25.6631 sf 0 0 m (0.2) show NC gr 
 gsave  710 567 23 12 C 170.505 65.3603 t 0 r /Symbol findfont 25.6631 sf 0 0 m (-) show NC gr 
 gsave  710 567 23 12 C 292.7 65.3603 t 0 r /Helvetica findfont 25.6631 sf 0 0 m (0.1) show NC gr 
 gsave  710 567 23 12 C 281.333 65.3603 t 0 r /Symbol findfont 25.6631 sf 0 0 m (-) show NC gr 
 gsave  710 567 23 12 C 403.529 65.3603 t 0 r /Helvetica findfont 25.6631 sf 0 0 m (0) show NC gr 
 gsave  710 567 23 12 C 502.99 65.3603 t 0 r /Helvetica findfont 25.6631 sf 0 0 m (0.1) show NC gr 
 gsave  710 567 23 12 C 610.976 65.3603 t 0 r /Helvetica findfont 25.6631 sf 0 0 m (0.2) show NC gr 
 gsave  710 567 23 12 C 576.875 22.734 t 0 r /Helvetica findfont 28.5146 sf 0 0 m (bb.HT_l3) show NC gr  143 523 m 548 X s 197 509 m 14 Y s 219 516 m 7 Y s 240 516 m 7 Y s 262 516 m 7 Y s 284 516 m 7 Y s 305 509 m 14 Y s 327 516 m 7 Y s 349 516 m 7 Y
 s 370 516 m 7 Y s 392 516 m 7 Y s 414 509 m 14 Y s 435 516 m 7 Y s 457 516 m 7 Y s 479 516 m 7 Y s 501 516 m 7 Y s 522 509 m 14 Y s 544 516 m 7 Y s 566 516 m 7 Y s 587 516 m 7 Y s 609 516 m 7 Y s 631 509 m 14 Y s 197 509 m 14 Y s 175 516 m 7 Y s 153
 516 m 7 Y s 631 509 m 14 Y s 652 516 m 7 Y s 674 516 m 7 Y s 143 94 m 429 Y s 160 94 m -17 X s 152 104 m -9 X s 152 115 m -9 X s 152 125 m -9 X s 152 136 m -9 X s 160 146 m -17 X s 152 157 m -9 X s 152 167 m -9 X s 152 178 m -9 X s 152 188 m -9 X s
 160 198 m -17 X s 152 209 m -9 X s 152 219 m -9 X s 152 230 m -9 X s 152 240 m -9 X s 160 251 m -17 X s 152 261 m -9 X s 152 272 m -9 X s 152 282 m -9 X s 152 293 m -9 X s 160 303 m -17 X s 152 314 m -9 X s 152 324 m -9 X s 152 335 m -9 X s 152 345
 m -9 X s 160 356 m -17 X s 152 366 m -9 X s 152 377 m -9 X s 152 387 m -9 X s 152 398 m -9 X s 160 408 m -17 X s 152 419 m -9 X s 152 429 m -9 X s 152 440 m -9 X s 152 450 m -9 X s 160 461 m -17 X s 152 471 m -9 X s 152 482 m -9 X s 152 492 m -9 X s
 152 503 m -9 X s 160 513 m -17 X s 160 513 m -17 X s
 gsave  710 567 23 12 C 119.354 82.4108 t 0 r /Helvetica findfont 25.6631 sf 0 0 m (0) show NC gr 
 gsave  710 567 23 12 C 122.195 136.404 t 0 r /Helvetica findfont 25.6631 sf 0 0 m (1) show NC gr 
 gsave  710 567 23 12 C 119.354 187.556 t 0 r /Helvetica findfont 25.6631 sf 0 0 m (2) show NC gr 
 gsave  710 567 23 12 C 119.354 241.549 t 0 r /Helvetica findfont 25.6631 sf 0 0 m (3) show NC gr 
 gsave  710 567 23 12 C 119.354 292.7 t 0 r /Helvetica findfont 25.6631 sf 0 0 m (4) show NC gr 
 gsave  710 567 23 12 C 119.354 346.694 t 0 r /Helvetica findfont 25.6631 sf 0 0 m (5) show NC gr 
 gsave  710 567 23 12 C 119.354 397.845 t 0 r /Helvetica findfont 25.6631 sf 0 0 m (6) show NC gr 
 gsave  710 567 23 12 C 119.354 451.838 t 0 r /Helvetica findfont 25.6631 sf 0 0 m (7) show NC gr 
 gsave  710 567 23 12 C 119.354 502.99 t 0 r /Helvetica findfont 25.6631 sf 0 0 m (8) show NC gr 
 gsave  710 567 23 12 C 45.468 431.946 t 90 r /Helvetica findfont 28.5146 sf 0 0 m (0.0126 ) show NC gr 
 gsave  710 567 23 12 C 31.2593 429.104 t 90 r /Helvetica findfont 19.9602 sf 0 0 m ( ) show NC gr 
 gsave  710 567 23 12 C 45.468 417.737 t 90 r /Helvetica findfont 28.5146 sf 0 0 m (/) show NC gr 
 gsave  710 567 23 12 C 53.9933 414.896 t 90 r /Helvetica findfont 19.9602 sf 0 0 m ( ) show NC gr 
 gsave  710 567 23 12 C 45.468 309.751 t 90 r /Helvetica findfont 28.5146 sf 0 0 m (\(1/N\) dN) show NC gr  691 94 m 429 Y s 674 94 m 17 X s 683 104 m 8 X s 683 115 m 8 X s 683 125 m 8 X s 683 136 m 8 X s 674 146 m 17 X s 683 157 m 8 X s 683 167 m 8
 X s 683 178 m 8 X s 683 188 m 8 X s 674 198 m 17 X s 683 209 m 8 X s 683 219 m 8 X s 683 230 m 8 X s 683 240 m 8 X s 674 251 m 17 X s 683 261 m 8 X s 683 272 m 8 X s 683 282 m 8 X s 683 293 m 8 X s 674 303 m 17 X s 683 314 m 8 X s 683 324 m 8 X s
 683 335 m 8 X s 683 345 m 8 X s 674 356 m 17 X s 683 366 m 8 X s 683 377 m 8 X s 683 387 m 8 X s 683 398 m 8 X s 674 408 m 17 X s 683 419 m 8 X s 683 429 m 8 X s 683 440 m 8 X s 683 450 m 8 X s 674 461 m 17 X s 683 471 m 8 X s 683 482 m 8 X s 683
 492 m 8 X s 683 503 m 8 X s 674 513 m 17 X s 674 513 m 17 X s 0.490196 0.545098 0.615686 c 0.364706 0.419608 0.490196 c 338 37 30 539 bf 0.490196 0.545098 0.615686 c 30 539 m 338 X s 368 539 m 37 Y s 368 576 m -338 X s 30 576 m -37 Y s 1 1 1 c black
 1 1 1 c
 gsave  710 567 23 12 C 34.101 551.299 t 0 r /Helvetica-Bold findfont 28.5146 sf 0 0 m (Input variable: bb.HT_l3) show NC gr  1 0 0 c 6 lw black 3 lw 1 0 0 c 677 94 m s 662 94 m s 647 94 m -1 X s 632 94 m -1 X s 617 94 m -1 X s 604 96 m -3 -2 d s 591
 98 m -5 -4 d s 578 101 m -7 -7 d s 559 97 m -3 -3 d s 552 105 m -11 -11 d s 540 108 m -14 -14 d s 540 123 m -29 -29 d s 540 138 m -44 -44 d s 540 153 m -59 -59 d s 540 169 m -74 -75 d s 540 184 m -90 -90 d s 540 199 m -105 -105 d s 540 214 m -120
 -120 d s 540 229 m -135 -135 d s 540 245 m -150 -151 d s 540 260 m -165 -166 d s 540 275 m -180 -181 d s 540 290 m -82 -83 d s 457 207 m -112 -113 d s 540 305 m -82 -82 d s 444 209 m -114 -115 d s 540 320 m -82 -82 d s 444 224 m -129 -130 d s 540
 336 m -55 -55 d s 483 278 m -25 -25 d s 444 239 m -144 -145 d s 530 341 m -45 -45 d s 472 282 m -14 -14 d s 444 254 m -159 -160 d s 526 352 m -41 -41 d s 472 297 m -14 -14 d s 444 270 m -13 -14 d s 425 250 m -155 -156 d s 526 367 m -41 -41 d s 460
 301 m -2 -2 d s 437 277 m -6 -6 d s 408 248 m -18 -18 d s 379 218 m -99 -99 d s 267 106 m -12 -12 d s 526 383 m -41 -42 d s 403 259 m -13 -14 d s 376 231 m -82 -83 d s 287 142 m -7 -7 d s 266 120 m -27 -26 d s 526 398 m -41 -42 d s 391 261 m -1 -1 d
 s 376 246 m -82 -82 d s 242 111 m -18 -17 d s 526 413 m -13 -14 d s 501 387 m -16 -15 d s 376 261 m -14 -13 d s 356 241 m -62 -62 d s 239 124 m -30 -30 d s 526 428 m -13 -14 d s 499 401 m -14 -14 d s 376 277 m -14 -14 d s 349 249 m -55 -55 d s 226
 126 m -1 Y s 224 124 m -12 -13 d s 202 102 m -8 -8 d s 526 443 m -13 -13 d s 499 416 m -14 -14 d s 376 292 m -14 -14 d s 349 264 m -55 -55 d s 186 101 m -7 -7 d s 526 459 m -13 -14 d s 499 431 m -14 -14 d s 376 307 m -14 -14 d s 348 279 m -54 -55 d
 s 178 107 m -14 -13 d s 525 473 m -12 -13 d s 499 446 m -14 -14 d s 376 322 m -14 -14 d s 335 281 m -41 -42 d s 161 106 m -12 -12 d s 373 334 m -11 -10 d s 335 296 m -41 -41 d s 145 104 m -2 -1 d s 335 311 m -27 -27 d s 303 279 m -9 -9 d s 335 326 m
 -27 -27 d s 335 342 m -27 -28 d s 335 357 m -27 -28 d s 335 372 m -27 -28 d s 323 375 m -15 -15 d s 321 389 m -13 -14 d s 316 398 m -8 -8 d s 6 lw 143 104 m 14 X 2 Y 14 X 1 Y 14 X -6 Y 13 X 1 Y 14 X 22 Y 14 X 2 Y 13 X -15 Y 14 X 9 Y 14 X -14 Y 13 X
 36 Y 14 X 137 Y 14 X 119 Y 13 X -23 Y 14 X -96 Y 14 X -38 Y 13 X 93 Y 14 X -116 Y 14 X 43 Y 13 X -13 Y 14 X 2 Y 14 X 27 Y 13 X -70 Y 14 X 94 Y 14 X -23 Y 13 X 169 Y 14 X -60 Y 14 X 86 Y 13 X -132 Y 14 X -236 Y 14 X -8 Y 13 X 4 Y 14 X -3 Y 14 X -2 Y
 14 X -2 Y 82 X s black 3 lw 143 94 m 548 X s 197 107 m -13 Y s 219 100 m -6 Y s 240 100 m -6 Y s 262 100 m -6 Y s 284 100 m -6 Y s 305 107 m -13 Y s 327 100 m -6 Y s 349 100 m -6 Y s 370 100 m -6 Y s 392 100 m -6 Y s 414 107 m -13 Y s 435 100 m -6 Y
 s 457 100 m -6 Y s 479 100 m -6 Y s 501 100 m -6 Y s 522 107 m -13 Y s 544 100 m -6 Y s 566 100 m -6 Y s 587 100 m -6 Y s 609 100 m -6 Y s 631 107 m -13 Y s 197 107 m -13 Y s 175 100 m -6 Y s 153 100 m -6 Y s 631 107 m -13 Y s 652 100 m -6 Y s 674
 100 m -6 Y s 143 523 m 548 X s 197 509 m 14 Y s 219 516 m 7 Y s 240 516 m 7 Y s 262 516 m 7 Y s 284 516 m 7 Y s 305 509 m 14 Y s 327 516 m 7 Y s 349 516 m 7 Y s 370 516 m 7 Y s 392 516 m 7 Y s 414 509 m 14 Y s 435 516 m 7 Y s 457 516 m 7 Y s 479 516
 m 7 Y s 501 516 m 7 Y s 522 509 m 14 Y s 544 516 m 7 Y s 566 516 m 7 Y s 587 516 m 7 Y s 609 516 m 7 Y s 631 509 m 14 Y s 197 509 m 14 Y s 175 516 m 7 Y s 153 516 m 7 Y s 631 509 m 14 Y s 652 516 m 7 Y s 674 516 m 7 Y s 143 94 m 429 Y s 160 94 m -17
 X s 152 104 m -9 X s 152 115 m -9 X s 152 125 m -9 X s 152 136 m -9 X s 160 146 m -17 X s 152 157 m -9 X s 152 167 m -9 X s 152 178 m -9 X s 152 188 m -9 X s 160 198 m -17 X s 152 209 m -9 X s 152 219 m -9 X s 152 230 m -9 X s 152 240 m -9 X s 160
 251 m -17 X s 152 261 m -9 X s 152 272 m -9 X s 152 282 m -9 X s 152 293 m -9 X s 160 303 m -17 X s 152 314 m -9 X s 152 324 m -9 X s 152 335 m -9 X s 152 345 m -9 X s 160 356 m -17 X s 152 366 m -9 X s 152 377 m -9 X s 152 387 m -9 X s 152 398 m -9
 X s 160 408 m -17 X s 152 419 m -9 X s 152 429 m -9 X s 152 440 m -9 X s 152 450 m -9 X s 160 461 m -17 X s 152 471 m -9 X s 152 482 m -9 X s 152 492 m -9 X s 152 503 m -9 X s 160 513 m -17 X s 160 513 m -17 X s 691 94 m 429 Y s 674 94 m 17 X s 683
 104 m 8 X s 683 115 m 8 X s 683 125 m 8 X s 683 136 m 8 X s 674 146 m 17 X s 683 157 m 8 X s 683 167 m 8 X s 683 178 m 8 X s 683 188 m 8 X s 674 198 m 17 X s 683 209 m 8 X s 683 219 m 8 X s 683 230 m 8 X s 683 240 m 8 X s 674 251 m 17 X s 683 261 m
 8 X s 683 272 m 8 X s 683 282 m 8 X s 683 293 m 8 X s 674 303 m 17 X s 683 314 m 8 X s 683 324 m 8 X s 683 335 m 8 X s 683 345 m 8 X s 674 356 m 17 X s 683 366 m 8 X s 683 377 m 8 X s 683 387 m 8 X s 683 398 m 8 X s 674 408 m 17 X s 683 419 m 8 X s
 683 429 m 8 X s 683 440 m 8 X s 683 450 m 8 X s 674 461 m 17 X s 683 471 m 8 X s 683 482 m 8 X s 683 492 m 8 X s 683 503 m 8 X s 674 513 m 17 X s 674 513 m 17 X s
 gsave  710 567 23 12 C 719.017 91.2634 t 90 r /Helvetica-Bold findfont 19.9602 sf 0 0 m (U/O\255flow \(S,B\): \(0.0, 0.0\)% / \(0.0, 0.0\)%) show NC gr  0.490196 0.545098 0.615686 c 0.364706 0.419608 0.490196 c 338 37 30 539 bf 0.490196 0.545098
 0.615686 c 30 539 m 338 X s 368 539 m 37 Y s 368 576 m -338 X s 30 576 m -37 Y s 1 1 1 c black 1 1 1 c
 gsave  710 567 23 12 C 34.101 551.299 t 0 r /Helvetica-Bold findfont 28.5146 sf 0 0 m (Input variable: bb.HT_l3) show NC gr  0.490196 0.545098 0.615686 c 0.941176 0.941176 0.941176 c 710 567 779 12 bf black 1 1 0.992157 c 548 429 899 94 bf black 548
 429 899 94 bl 0 0 0.933333 c 6 lw 0.49 0.6 0.82 c black 3 lw 0.49 0.6 0.82 c 899 94 m 262 Y 14 X -30 Y 14 X 34 Y 13 X 17 Y 14 X -62 Y 14 X -34 Y 13 X 5 Y 14 X -27 Y 14 X 6 Y 13 X 21 Y 14 X -47 Y 14 X -79 Y 14 X 101 Y 13 X -45 Y 14 X 8 Y 14 X -15 Y
 13 X 11 Y 14 X 28 Y 14 X -2 Y 13 X -26 Y 14 X -25 Y 14 X 2 Y 13 X -82 Y 14 X 3 Y 14 X -8 Y 13 X -5 Y 14 X 5 Y 14 X 1 Y 13 X 1 Y 14 X -6 Y 27 X -8 Y 14 X 2 Y 14 X -2 Y 13 X -3 Y 41 X -1 Y 42 X f 6 lw 0 0 0.933333 c 0.49 0.6 0.82 c 0 0 0.933333 c 899
 356 m 14 X -30 Y 14 X 34 Y 13 X 17 Y 14 X -62 Y 14 X -34 Y 13 X 5 Y 14 X -27 Y 14 X 6 Y 13 X 21 Y 14 X -47 Y 14 X -79 Y 14 X 101 Y 13 X -45 Y 14 X 8 Y 14 X -15 Y 13 X 11 Y 14 X 28 Y 14 X -2 Y 13 X -26 Y 14 X -25 Y 14 X 2 Y 13 X -82 Y 14 X 3 Y 14 X
 -8 Y 13 X -5 Y 14 X 5 Y 14 X 1 Y 13 X 1 Y 14 X -6 Y 27 X -8 Y 14 X 2 Y 14 X -2 Y 13 X -3 Y 41 X -1 Y 42 X s black 3 lw 899 94 m 548 X s 910 107 m -13 Y s 925 100 m -6 Y s 940 100 m -6 Y s 955 100 m -6 Y s 970 100 m -6 Y s 985 107 m -13 Y s 1000 100
 m -6 Y s 1015 100 m -6 Y s 1030 100 m -6 Y s 1045 100 m -6 Y s 1060 107 m -13 Y s 1075 100 m -6 Y s 1090 100 m -6 Y s 1105 100 m -6 Y s 1120 100 m -6 Y s 1135 107 m -13 Y s 1150 100 m -6 Y s 1165 100 m -6 Y s 1180 100 m -6 Y s 1195 100 m -6 Y s 1210
 107 m -13 Y s 1225 100 m -6 Y s 1240 100 m -6 Y s 1255 100 m -6 Y s 1270 100 m -6 Y s 1285 107 m -13 Y s 1300 100 m -6 Y s 1315 100 m -6 Y s 1330 100 m -6 Y s 1345 100 m -6 Y s 1360 107 m -13 Y s 1375 100 m -6 Y s 1390 100 m -6 Y s 1405 100 m -6 Y s
 1420 100 m -6 Y s 1435 107 m -13 Y s 910 107 m -13 Y s 1435 107 m -13 Y s
 gsave  710 567 779 12 C 897.993 65.3603 t 0 r /Helvetica findfont 25.6631 sf 0 0 m (0.1) show NC gr 
 gsave  710 567 779 12 C 886.626 65.3603 t 0 r /Symbol findfont 25.6631 sf 0 0 m (-) show NC gr 
 gsave  710 567 779 12 C 963.353 65.3603 t 0 r /Helvetica findfont 25.6631 sf 0 0 m (0.05) show NC gr 
 gsave  710 567 779 12 C 951.986 65.3603 t 0 r /Symbol findfont 25.6631 sf 0 0 m (-) show NC gr 
 gsave  710 567 779 12 C 1051.45 65.3603 t 0 r /Helvetica findfont 25.6631 sf 0 0 m (0) show NC gr 
 gsave  710 567 779 12 C 1108.28 65.3603 t 0 r /Helvetica findfont 25.6631 sf 0 0 m (0.05) show NC gr 
 gsave  710 567 779 12 C 1190.69 65.3603 t 0 r /Helvetica findfont 25.6631 sf 0 0 m (0.1) show NC gr 
 gsave  710 567 779 12 C 1258.9 65.3603 t 0 r /Helvetica findfont 25.6631 sf 0 0 m (0.15) show NC gr 
 gsave  710 567 779 12 C 1341.31 65.3603 t 0 r /Helvetica findfont 25.6631 sf 0 0 m (0.2) show NC gr 
 gsave  710 567 779 12 C 1406.67 65.3603 t 0 r /Helvetica findfont 25.6631 sf 0 0 m (0.25) show NC gr 
 gsave  710 567 779 12 C 1329.94 22.734 t 0 r /Helvetica findfont 28.5146 sf 0 0 m (bb.HT_l4) show NC gr  899 523 m 548 X s 910 509 m 14 Y s 925 516 m 7 Y s 940 516 m 7 Y s 955 516 m 7 Y s 970 516 m 7 Y s 985 509 m 14 Y s 1000 516 m 7 Y s 1015 516 m
 7 Y s 1030 516 m 7 Y s 1045 516 m 7 Y s 1060 509 m 14 Y s 1075 516 m 7 Y s 1090 516 m 7 Y s 1105 516 m 7 Y s 1120 516 m 7 Y s 1135 509 m 14 Y s 1150 516 m 7 Y s 1165 516 m 7 Y s 1180 516 m 7 Y s 1195 516 m 7 Y s 1210 509 m 14 Y s 1225 516 m 7 Y s
 1240 516 m 7 Y s 1255 516 m 7 Y s 1270 516 m 7 Y s 1285 509 m 14 Y s 1300 516 m 7 Y s 1315 516 m 7 Y s 1330 516 m 7 Y s 1345 516 m 7 Y s 1360 509 m 14 Y s 1375 516 m 7 Y s 1390 516 m 7 Y s 1405 516 m 7 Y s 1420 516 m 7 Y s 1435 509 m 14 Y s 910 509
 m 14 Y s 1435 509 m 14 Y s 899 94 m 429 Y s 915 94 m -16 X s 907 111 m -8 X s 907 129 m -8 X s 907 146 m -8 X s 915 164 m -16 X s 907 181 m -8 X s 907 199 m -8 X s 907 217 m -8 X s 915 234 m -16 X s 907 252 m -8 X s 907 269 m -8 X s 907 287 m -8 X s
 915 305 m -16 X s 907 322 m -8 X s 907 340 m -8 X s 907 357 m -8 X s 915 375 m -16 X s 907 392 m -8 X s 907 410 m -8 X s 907 428 m -8 X s 915 445 m -16 X s 907 463 m -8 X s 907 480 m -8 X s 907 498 m -8 X s 915 516 m -16 X s 915 516 m -16 X s
 gsave  710 567 779 12 C 875.259 82.4108 t 0 r /Helvetica findfont 25.6631 sf 0 0 m (0) show NC gr 
 gsave  710 567 779 12 C 875.259 153.455 t 0 r /Helvetica findfont 25.6631 sf 0 0 m (2) show NC gr 
 gsave  710 567 779 12 C 875.259 224.498 t 0 r /Helvetica findfont 25.6631 sf 0 0 m (4) show NC gr 
 gsave  710 567 779 12 C 875.259 295.542 t 0 r /Helvetica findfont 25.6631 sf 0 0 m (6) show NC gr 
 gsave  710 567 779 12 C 875.259 363.744 t 0 r /Helvetica findfont 25.6631 sf 0 0 m (8) show NC gr 
 gsave  710 567 779 12 C 861.05 434.788 t 0 r /Helvetica findfont 25.6631 sf 0 0 m (10) show NC gr 
 gsave  710 567 779 12 C 861.05 505.832 t 0 r /Helvetica findfont 25.6631 sf 0 0 m (12) show NC gr 
 gsave  710 567 779 12 C 801.374 414.896 t 90 r /Helvetica findfont 28.5146 sf 0 0 m (0.00912 ) show NC gr 
 gsave  710 567 779 12 C 787.165 412.054 t 90 r /Helvetica findfont 19.9602 sf 0 0 m ( ) show NC gr 
 gsave  710 567 779 12 C 801.374 400.687 t 90 r /Helvetica findfont 28.5146 sf 0 0 m (/) show NC gr 
 gsave  710 567 779 12 C 809.899 397.845 t 90 r /Helvetica findfont 19.9602 sf 0 0 m ( ) show NC gr 
 gsave  710 567 779 12 C 801.374 292.7 t 90 r /Helvetica findfont 28.5146 sf 0 0 m (\(1/N\) dN) show NC gr  1447 94 m 429 Y s 1430 94 m 17 X s 1438 111 m 9 X s 1438 129 m 9 X s 1438 146 m 9 X s 1430 164 m 17 X s 1438 181 m 9 X s 1438 199 m 9 X s 1438
 217 m 9 X s 1430 234 m 17 X s 1438 252 m 9 X s 1438 269 m 9 X s 1438 287 m 9 X s 1430 305 m 17 X s 1438 322 m 9 X s 1438 340 m 9 X s 1438 357 m 9 X s 1430 375 m 17 X s 1438 392 m 9 X s 1438 410 m 9 X s 1438 428 m 9 X s 1430 445 m 17 X s 1438 463 m 9
 X s 1438 480 m 9 X s 1438 498 m 9 X s 1430 516 m 17 X s 1430 516 m 17 X s 0.490196 0.545098 0.615686 c 0.364706 0.419608 0.490196 c 338 37 786 539 bf 0.490196 0.545098 0.615686 c 786 539 m 338 X s 1124 539 m 37 Y s 1124 576 m -338 X s 786 576 m -37
 Y s 1 1 1 c black 1 1 1 c
 gsave  710 567 779 12 C 790.007 551.299 t 0 r /Helvetica-Bold findfont 28.5146 sf 0 0 m (Input variable: bb.HT_l4) show NC gr  1 0 0 c 6 lw black 3 lw 1 0 0 c 1434 95 m -1 -1 d s 1432 94 m s 1419 95 m -2 -1 d s 1411 102 m -9 -8 d s 1395 101 m -3 -3
 d s 1389 96 m -2 -2 d s 1376 97 m -4 -3 d s 1360 97 m -3 -3 d s 1351 102 m -9 -8 d s 1339 105 m -2 -1 d s 1330 97 m -3 -3 d s 1323 105 m -11 -11 d s 1310 107 m s 1308 105 m -11 -11 d s 1294 106 m -12 -12 d s 1271 98 m -4 -4 d s 1269 111 m -17 -17 d
 s 1244 101 m -7 -7 d s 1232 104 m -11 -10 d s 1216 103 m -10 -9 d s 1206 108 m -15 -14 d s 1200 118 m -24 -24 d s 1200 133 m -39 -39 d s 1200 148 m -54 -54 d s 1200 163 m -69 -69 d s 1200 178 m -84 -84 d s 1200 194 m -99 -100 d s 1200 209 m -114
 -115 d s 1200 224 m -41 -41 d s 1159 182 m -88 -88 d s 1200 239 m -41 -41 d s 1146 184 m -90 -90 d s 1200 254 m -41 -41 d s 1146 199 m -105 -105 d s 1200 270 m -41 -42 d s 1146 214 m -120 -120 d s 1200 285 m -41 -42 d s 1146 230 m -136 -136 d s 1200
 300 m -41 -41 d s 1135 234 m -17 -17 d s 1114 213 m -119 -119 d s 1190 305 m -3 -4 d s 1176 291 m -3 -3 d s 1171 286 m -12 -12 d s 1105 219 m -55 -55 d s 1046 159 m -66 -65 d s 1105 234 m -55 -55 d s 1036 165 m -71 -71 d s 1105 249 m -28 -27 d s
 1065 209 m -15 -15 d s 1036 180 m -86 -86 d s 1099 259 m -8 -9 d s 1082 241 m -5 -4 d s 1064 223 m -14 -14 d s 1036 195 m -101 -101 d s 1064 238 m -14 -14 d s 1036 211 m -116 -117 d s 1059 249 m -9 -10 d s 1036 226 m -131 -132 d s 1036 241 m -14 -14
 d s 1018 223 m -23 -23 d s 992 197 m -93 -94 d s 1024 244 m -2 -2 d s 1009 229 m -14 -14 d s 981 201 m -82 -83 d s 999 234 m -4 -4 d s 981 216 m -82 -83 d s 981 231 m -82 -82 d s 981 247 m -82 -83 d s 978 259 m -79 -80 d s 968 263 m -69 -69 d s 961
 271 m -62 -62 d s 954 280 m -55 -55 d s 952 293 m -53 -53 d s 940 296 m -41 -41 d s 940 311 m -41 -41 d s 940 327 m -41 -42 d s 940 342 m -41 -41 d s 940 357 m -41 -41 d s 927 359 m -1 Y s 917 349 m -18 -18 d s 913 360 m -14 -14 d s 913 375 m -14
 -14 d s 913 390 m -14 -14 d s 913 405 m -14 -13 d s 913 421 m -14 -14 d s 913 436 m -14 -14 d s 913 451 m -14 -14 d s 913 466 m -14 -14 d s 913 481 m -14 -13 d s 900 484 m -1 -1 d s 6 lw 899 484 m 14 X -135 Y 14 X 10 Y 13 X -66 Y 14 X -22 Y 14 X -12
 Y 13 X -62 Y 14 X 37 Y 14 X -11 Y 13 X 21 Y 14 X -85 Y 14 X 90 Y 14 X -40 Y 13 X 32 Y 14 X 18 Y 14 X -46 Y 13 X 19 Y 14 X 2 Y 14 X -52 Y 13 X 104 Y 14 X 5 Y 14 X 14 Y 13 X -197 Y 14 X -5 Y 14 X 1 Y 13 X -3 Y 14 X 10 Y 14 X -13 Y 13 X 8 Y 14 X -1 Y
 14 X 2 Y 13 X -10 Y 14 X 8 Y 14 X -8 Y 27 X -1 Y 14 X 5 Y 13 X 1 Y 14 X -8 Y 14 X 1 Y 14 X s black 3 lw 899 94 m 548 X s 910 107 m -13 Y s 925 100 m -6 Y s 940 100 m -6 Y s 955 100 m -6 Y s 970 100 m -6 Y s 985 107 m -13 Y s 1000 100 m -6 Y s 1015
 100 m -6 Y s 1030 100 m -6 Y s 1045 100 m -6 Y s 1060 107 m -13 Y s 1075 100 m -6 Y s 1090 100 m -6 Y s 1105 100 m -6 Y s 1120 100 m -6 Y s 1135 107 m -13 Y s 1150 100 m -6 Y s 1165 100 m -6 Y s 1180 100 m -6 Y s 1195 100 m -6 Y s 1210 107 m -13 Y s
 1225 100 m -6 Y s 1240 100 m -6 Y s 1255 100 m -6 Y s 1270 100 m -6 Y s 1285 107 m -13 Y s 1300 100 m -6 Y s 1315 100 m -6 Y s 1330 100 m -6 Y s 1345 100 m -6 Y s 1360 107 m -13 Y s 1375 100 m -6 Y s 1390 100 m -6 Y s 1405 100 m -6 Y s 1420 100 m -6
 Y s 1435 107 m -13 Y s 910 107 m -13 Y s 1435 107 m -13 Y s 899 523 m 548 X s 910 509 m 14 Y s 925 516 m 7 Y s 940 516 m 7 Y s 955 516 m 7 Y s 970 516 m 7 Y s 985 509 m 14 Y s 1000 516 m 7 Y s 1015 516 m 7 Y s 1030 516 m 7 Y s 1045 516 m 7 Y s 1060
 509 m 14 Y s 1075 516 m 7 Y s 1090 516 m 7 Y s 1105 516 m 7 Y s 1120 516 m 7 Y s 1135 509 m 14 Y s 1150 516 m 7 Y s 1165 516 m 7 Y s 1180 516 m 7 Y s 1195 516 m 7 Y s 1210 509 m 14 Y s 1225 516 m 7 Y s 1240 516 m 7 Y s 1255 516 m 7 Y s 1270 516 m 7
 Y s 1285 509 m 14 Y s 1300 516 m 7 Y s 1315 516 m 7 Y s 1330 516 m 7 Y s 1345 516 m 7 Y s 1360 509 m 14 Y s 1375 516 m 7 Y s 1390 516 m 7 Y s 1405 516 m 7 Y s 1420 516 m 7 Y s 1435 509 m 14 Y s 910 509 m 14 Y s 1435 509 m 14 Y s 899 94 m 429 Y s 915
 94 m -16 X s 907 111 m -8 X s 907 129 m -8 X s 907 146 m -8 X s 915 164 m -16 X s 907 181 m -8 X s 907 199 m -8 X s 907 217 m -8 X s 915 234 m -16 X s 907 252 m -8 X s 907 269 m -8 X s 907 287 m -8 X s 915 305 m -16 X s 907 322 m -8 X s 907 340 m -8
 X s 907 357 m -8 X s 915 375 m -16 X s 907 392 m -8 X s 907 410 m -8 X s 907 428 m -8 X s 915 445 m -16 X s 907 463 m -8 X s 907 480 m -8 X s 907 498 m -8 X s 915 516 m -16 X s 915 516 m -16 X s 1447 94 m 429 Y s 1430 94 m 17 X s 1438 111 m 9 X s
 1438 129 m 9 X s 1438 146 m 9 X s 1430 164 m 17 X s 1438 181 m 9 X s 1438 199 m 9 X s 1438 217 m 9 X s 1430 234 m 17 X s 1438 252 m 9 X s 1438 269 m 9 X s 1438 287 m 9 X s 1430 305 m 17 X s 1438 322 m 9 X s 1438 340 m 9 X s 1438 357 m 9 X s 1430 375
 m 17 X s 1438 392 m 9 X s 1438 410 m 9 X s 1438 428 m 9 X s 1430 445 m 17 X s 1438 463 m 9 X s 1438 480 m 9 X s 1438 498 m 9 X s 1430 516 m 17 X s 1430 516 m 17 X s
 gsave  710 567 779 12 C 1474.92 91.2634 t 90 r /Helvetica-Bold findfont 19.9602 sf 0 0 m (U/O\255flow \(S,B\): \(0.0, 0.0\)% / \(0.0, 0.0\)%) show NC gr  0.490196 0.545098 0.615686 c 0.364706 0.419608 0.490196 c 338 37 786 539 bf 0.490196 0.545098
 0.615686 c 786 539 m 338 X s 1124 539 m 37 Y s 1124 576 m -338 X s 786 576 m -37 Y s 1 1 1 c black 1 1 1 c
 gsave  710 567 779 12 C 790.007 551.299 t 0 r /Helvetica-Bold findfont 28.5146 sf 0 0 m (Input variable: bb.HT_l4) show NC gr  0.490196 0.545098 0.615686 c 0.941176 0.941176 0.941176 c 711 567 1534 12 bf black 1 1 0.992157 c 547 429 1655 94 bf black
 547 429 1655 94 bl 0 0 0.933333 c 6 lw 0.49 0.6 0.82 c black 3 lw 0.49 0.6 0.82 c 1655 94 m 96 X 2 Y 27 X -2 Y 28 X 112 Y 13 X 186 Y 14 X 7 Y 14 X 48 Y 13 X -61 Y 14 X -54 Y 14 X -8 Y 13 X -17 Y 14 X 5 Y 14 X 57 Y 14 X -73 Y 13 X 60 Y 14 X 35 Y 14 X
 -80 Y 13 X 16 Y 14 X 28 Y 14 X -191 Y 13 X -55 Y 14 X 8 Y 14 X -12 Y 13 X -2 Y 14 X -3 Y 14 X 2 Y 13 X -4 Y 14 X -2 Y 14 X -1 Y 13 X -1 Y 41 X f 6 lw 0 0 0.933333 c 0.49 0.6 0.82 c 0 0 0.933333 c 1655 94 m 96 X 2 Y 27 X -2 Y 28 X 112 Y 13 X 186 Y 14
 X 7 Y 14 X 48 Y 13 X -61 Y 14 X -54 Y 14 X -8 Y 13 X -17 Y 14 X 5 Y 14 X 57 Y 14 X -73 Y 13 X 60 Y 14 X 35 Y 14 X -80 Y 13 X 16 Y 14 X 28 Y 14 X -191 Y 13 X -55 Y 14 X 8 Y 14 X -12 Y 13 X -2 Y 14 X -3 Y 14 X 2 Y 13 X -4 Y 14 X -2 Y 14 X -1 Y 13 X -1
 Y 41 X s black 3 lw 1655 94 m 547 X s 1709 107 m -13 Y s 1720 100 m -6 Y s 1731 100 m -6 Y s 1742 100 m -6 Y s 1753 100 m -6 Y s 1764 107 m -13 Y s 1775 100 m -6 Y s 1786 100 m -6 Y s 1798 100 m -6 Y s 1809 100 m -6 Y s 1820 107 m -13 Y s 1831 100 m
 -6 Y s 1842 100 m -6 Y s 1853 100 m -6 Y s 1864 100 m -6 Y s 1875 107 m -13 Y s 1886 100 m -6 Y s 1897 100 m -6 Y s 1909 100 m -6 Y s 1920 100 m -6 Y s 1931 107 m -13 Y s 1942 100 m -6 Y s 1953 100 m -6 Y s 1964 100 m -6 Y s 1975 100 m -6 Y s 1986
 107 m -13 Y s 1997 100 m -6 Y s 2008 100 m -6 Y s 2020 100 m -6 Y s 2031 100 m -6 Y s 2042 107 m -13 Y s 2053 100 m -6 Y s 2064 100 m -6 Y s 2075 100 m -6 Y s 2086 100 m -6 Y s 2097 107 m -13 Y s 2108 100 m -6 Y s 2120 100 m -6 Y s 2131 100 m -6 Y s
 2142 100 m -6 Y s 2153 107 m -13 Y s 1709 107 m -13 Y s 1698 100 m -6 Y s 1687 100 m -6 Y s 1675 100 m -6 Y s 1664 100 m -6 Y s 2153 107 m -13 Y s 2164 100 m -6 Y s 2175 100 m -6 Y s 2186 100 m -6 Y s 2197 100 m -6 Y s
 gsave  711 567 1534 12 C 1696.52 65.3603 t 0 r /Helvetica findfont 25.6631 sf 0 0 m (0.2) show NC gr 
 gsave  711 567 1534 12 C 1682.32 65.3603 t 0 r /Symbol findfont 25.6631 sf 0 0 m (-) show NC gr 
 gsave  711 567 1534 12 C 1741.99 65.3603 t 0 r /Helvetica findfont 25.6631 sf 0 0 m (0.15) show NC gr 
 gsave  711 567 1534 12 C 1730.63 65.3603 t 0 r /Symbol findfont 25.6631 sf 0 0 m (-) show NC gr 
 gsave  711 567 1534 12 C 1807.35 65.3603 t 0 r /Helvetica findfont 25.6631 sf 0 0 m (0.1) show NC gr 
 gsave  711 567 1534 12 C 1795.99 65.3603 t 0 r /Symbol findfont 25.6631 sf 0 0 m (-) show NC gr 
 gsave  711 567 1534 12 C 1852.82 65.3603 t 0 r /Helvetica findfont 25.6631 sf 0 0 m (0.05) show NC gr 
 gsave  711 567 1534 12 C 1841.45 65.3603 t 0 r /Symbol findfont 25.6631 sf 0 0 m (-) show NC gr 
 gsave  711 567 1534 12 C 1921.02 65.3603 t 0 r /Helvetica findfont 25.6631 sf 0 0 m (0) show NC gr 
 gsave  711 567 1534 12 C 1957.97 65.3603 t 0 r /Helvetica findfont 25.6631 sf 0 0 m (0.05) show NC gr 
 gsave  711 567 1534 12 C 2023.33 65.3603 t 0 r /Helvetica findfont 25.6631 sf 0 0 m (0.1) show NC gr 
 gsave  711 567 1534 12 C 2071.64 65.3603 t 0 r /Helvetica findfont 25.6631 sf 0 0 m (0.15) show NC gr 
 gsave  711 567 1534 12 C 2134.15 65.3603 t 0 r /Helvetica findfont 25.6631 sf 0 0 m (0.2) show NC gr 
 gsave  711 567 1534 12 C 2085.84 22.734 t 0 r /Helvetica findfont 28.5146 sf 0 0 m (bb.HT_l5) show NC gr  1655 523 m 547 X s 1709 509 m 14 Y s 1720 516 m 7 Y s 1731 516 m 7 Y s 1742 516 m 7 Y s 1753 516 m 7 Y s 1764 509 m 14 Y s 1775 516 m 7 Y s
 1786 516 m 7 Y s 1798 516 m 7 Y s 1809 516 m 7 Y s 1820 509 m 14 Y s 1831 516 m 7 Y s 1842 516 m 7 Y s 1853 516 m 7 Y s 1864 516 m 7 Y s 1875 509 m 14 Y s 1886 516 m 7 Y s 1897 516 m 7 Y s 1909 516 m 7 Y s 1920 516 m 7 Y s 1931 509 m 14 Y s 1942 516
 m 7 Y s 1953 516 m 7 Y s 1964 516 m 7 Y s 1975 516 m 7 Y s 1986 509 m 14 Y s 1997 516 m 7 Y s 2008 516 m 7 Y s 2020 516 m 7 Y s 2031 516 m 7 Y s 2042 509 m 14 Y s 2053 516 m 7 Y s 2064 516 m 7 Y s 2075 516 m 7 Y s 2086 516 m 7 Y s 2097 509 m 14 Y s
 2108 516 m 7 Y s 2120 516 m 7 Y s 2131 516 m 7 Y s 2142 516 m 7 Y s 2153 509 m 14 Y s 1709 509 m 14 Y s 1698 516 m 7 Y s 1687 516 m 7 Y s 1675 516 m 7 Y s 1664 516 m 7 Y s 2153 509 m 14 Y s 2164 516 m 7 Y s 2175 516 m 7 Y s 2186 516 m 7 Y s 2197 516
 m 7 Y s 1655 94 m 429 Y s 1671 94 m -16 X s 1663 104 m -8 X s 1663 114 m -8 X s 1663 124 m -8 X s 1663 135 m -8 X s 1671 145 m -16 X s 1663 155 m -8 X s 1663 166 m -8 X s 1663 176 m -8 X s 1663 186 m -8 X s 1671 196 m -16 X s 1663 207 m -8 X s 1663
 217 m -8 X s 1663 227 m -8 X s 1663 238 m -8 X s 1671 248 m -16 X s 1663 258 m -8 X s 1663 268 m -8 X s 1663 279 m -8 X s 1663 289 m -8 X s 1671 299 m -16 X s 1663 309 m -8 X s 1663 320 m -8 X s 1663 330 m -8 X s 1663 340 m -8 X s 1671 351 m -16 X s
 1663 361 m -8 X s 1663 371 m -8 X s 1663 381 m -8 X s 1663 392 m -8 X s 1671 402 m -16 X s 1663 412 m -8 X s 1663 423 m -8 X s 1663 433 m -8 X s 1663 443 m -8 X s 1671 453 m -16 X s 1663 464 m -8 X s 1663 474 m -8 X s 1663 484 m -8 X s 1663 495 m -8
 X s 1671 505 m -16 X s 1671 505 m -16 X s 1663 515 m -8 X s
 gsave  711 567 1534 12 C 1631.16 82.4108 t 0 r /Helvetica findfont 25.6631 sf 0 0 m (0) show NC gr 
 gsave  711 567 1534 12 C 1634.01 136.404 t 0 r /Helvetica findfont 25.6631 sf 0 0 m (1) show NC gr 
 gsave  711 567 1534 12 C 1631.16 187.556 t 0 r /Helvetica findfont 25.6631 sf 0 0 m (2) show NC gr 
 gsave  711 567 1534 12 C 1631.16 238.707 t 0 r /Helvetica findfont 25.6631 sf 0 0 m (3) show NC gr 
 gsave  711 567 1534 12 C 1631.16 289.859 t 0 r /Helvetica findfont 25.6631 sf 0 0 m (4) show NC gr 
 gsave  711 567 1534 12 C 1631.16 341.01 t 0 r /Helvetica findfont 25.6631 sf 0 0 m (5) show NC gr 
 gsave  711 567 1534 12 C 1631.16 392.162 t 0 r /Helvetica findfont 25.6631 sf 0 0 m (6) show NC gr 
 gsave  711 567 1534 12 C 1631.16 443.313 t 0 r /Helvetica findfont 25.6631 sf 0 0 m (7) show NC gr 
 gsave  711 567 1534 12 C 1631.16 494.465 t 0 r /Helvetica findfont 25.6631 sf 0 0 m (8) show NC gr 
 gsave  711 567 1534 12 C 1557.28 431.946 t 90 r /Helvetica findfont 28.5146 sf 0 0 m (0.0123 ) show NC gr 
 gsave  711 567 1534 12 C 1543.07 429.104 t 90 r /Helvetica findfont 19.9602 sf 0 0 m ( ) show NC gr 
 gsave  711 567 1534 12 C 1557.28 417.737 t 90 r /Helvetica findfont 28.5146 sf 0 0 m (/) show NC gr 
 gsave  711 567 1534 12 C 1565.8 414.896 t 90 r /Helvetica findfont 19.9602 sf 0 0 m ( ) show NC gr 
 gsave  711 567 1534 12 C 1557.28 309.751 t 90 r /Helvetica findfont 28.5146 sf 0 0 m (\(1/N\) dN) show NC gr  2202 94 m 429 Y s 2186 94 m 16 X s 2194 104 m 8 X s 2194 114 m 8 X s 2194 124 m 8 X s 2194 135 m 8 X s 2186 145 m 16 X s 2194 155 m 8 X s
 2194 166 m 8 X s 2194 176 m 8 X s 2194 186 m 8 X s 2186 196 m 16 X s 2194 207 m 8 X s 2194 217 m 8 X s 2194 227 m 8 X s 2194 238 m 8 X s 2186 248 m 16 X s 2194 258 m 8 X s 2194 268 m 8 X s 2194 279 m 8 X s 2194 289 m 8 X s 2186 299 m 16 X s 2194 309
 m 8 X s 2194 320 m 8 X s 2194 330 m 8 X s 2194 340 m 8 X s 2186 351 m 16 X s 2194 361 m 8 X s 2194 371 m 8 X s 2194 381 m 8 X s 2194 392 m 8 X s 2186 402 m 16 X s 2194 412 m 8 X s 2194 423 m 8 X s 2194 433 m 8 X s 2194 443 m 8 X s 2186 453 m 16 X s
 2194 464 m 8 X s 2194 474 m 8 X s 2194 484 m 8 X s 2194 495 m 8 X s 2186 505 m 16 X s 2186 505 m 16 X s 2194 515 m 8 X s 0.490196 0.545098 0.615686 c 0.364706 0.419608 0.490196 c 338 37 1542 539 bf 0.490196 0.545098 0.615686 c 1542 539 m 338 X s
 1880 539 m 37 Y s 1880 576 m -338 X s 1542 576 m -37 Y s 1 1 1 c black 1 1 1 c
 gsave  711 567 1534 12 C 1545.91 551.299 t 0 r /Helvetica-Bold findfont 28.5146 sf 0 0 m (Input variable: bb.HT_l5) show NC gr  1 0 0 c 6 lw black 3 lw 1 0 0 c 2188 94 m s 2173 94 m s 2158 94 m s 2143 94 m s 2128 94 m s 2113 94 m s 2098 94 m s 2083
 94 m s 2068 94 m s 2053 94 m s 2052 108 m -14 -14 d s 2052 123 m -29 -29 d s 2052 138 m -44 -44 d s 2052 153 m -60 -59 d s 2052 169 m -75 -75 d s 2052 184 m -90 -90 d s 2052 199 m -105 -105 d s 2052 214 m -120 -120 d s 2049 227 m -132 -133 d s 2038
 231 m -136 -137 d s 2038 246 m -151 -152 d s 2038 261 m -166 -167 d s 2030 268 m -173 -174 d s 2025 278 m -183 -184 d s 2025 293 m -198 -199 d s 2025 308 m -213 -214 d s 2025 323 m -69 -69 d s 1955 254 m -159 -160 d s 2025 338 m -69 -68 d s 1943 256
 m -137 -138 d s 1796 109 m -4 -5 d s 1785 97 m -4 -3 d s 2025 354 m -14 -14 d s 2002 331 m -18 -19 d s 1983 312 m -13 -13 d s 1964 293 m -8 -8 d s 1943 271 m -124 -124 d s 1812 139 m -6 -6 d s 1778 105 m -12 -11 d s 2025 369 m -14 -14 d s 1997 341 m
 -13 -13 d s 1943 286 m -14 -14 d s 1915 259 m -96 -97 d s 1765 107 m -14 -13 d s 2025 384 m -14 -14 d s 1997 356 m -13 -13 d s 1929 288 m s 1915 274 m -96 -97 d s 1758 116 m -7 -8 d s 1740 98 m -4 -4 d s 2025 399 m -14 -14 d s 1997 372 m -13 -14 d s
 1915 289 m -96 -96 d s 1726 98 m -5 -4 d s 2025 414 m -14 -13 d s 1985 375 m -1 -2 d s 1915 304 m -96 -96 d s 1708 96 m -2 -2 d s 2013 418 m -2 -2 d s 1915 319 m -96 -96 d s 1696 99 m -5 -5 d s 1912 331 m -93 -93 d s 1684 102 m -8 -8 d s 1901 336 m
 -82 -83 d s 1670 103 m -1 -1 d s 1662 95 m -1 -1 d s 1877 327 m -58 -59 d s 1874 339 m -55 -55 d s 1874 354 m -55 -55 d s 1874 369 m -41 -41 d s 1822 317 m -3 -3 d s 1874 384 m -14 -13 d s 1859 369 m -26 -26 d s 1874 399 m -14 -13 d s 1847 372 m -14
 -14 d s 1874 415 m -14 -14 d s 1847 387 m -14 -14 d s 1874 430 m -14 -14 d s 1847 402 m -14 -13 d s 1871 442 m -11 -11 d s 1847 417 m -14 -13 d s 1847 433 m -14 -14 d s 1847 448 m -14 -14 d s 1847 463 m -14 -14 d s 1847 478 m -14 -14 d s 1837 484 m
 -4 -4 d s 6 lw 1655 95 m 14 X 8 Y 14 X -1 Y 13 X -6 Y 14 X 1 Y 14 X 1 Y 27 X 18 Y 14 X -11 Y 13 X -8 Y 14 X 12 Y 14 X 30 Y 13 X 178 Y 14 X 167 Y 14 X -115 Y 13 X 73 Y 14 X -115 Y 14 X 10 Y 13 X -6 Y 14 X -73 Y 14 X 30 Y 14 X -34 Y 13 X 39 Y 14 X 19
 Y 14 X 63 Y 13 X -44 Y 14 X 87 Y 14 X -150 Y 13 X -41 Y 14 X -133 Y 150 X s black 3 lw 1655 94 m 547 X s 1709 107 m -13 Y s 1720 100 m -6 Y s 1731 100 m -6 Y s 1742 100 m -6 Y s 1753 100 m -6 Y s 1764 107 m -13 Y s 1775 100 m -6 Y s 1786 100 m -6 Y
 s 1798 100 m -6 Y s 1809 100 m -6 Y s 1820 107 m -13 Y s 1831 100 m -6 Y s 1842 100 m -6 Y s 1853 100 m -6 Y s 1864 100 m -6 Y s 1875 107 m -13 Y s 1886 100 m -6 Y s 1897 100 m -6 Y s 1909 100 m -6 Y s 1920 100 m -6 Y s 1931 107 m -13 Y s 1942 100 m
 -6 Y s 1953 100 m -6 Y s 1964 100 m -6 Y s 1975 100 m -6 Y s 1986 107 m -13 Y s 1997 100 m -6 Y s 2008 100 m -6 Y s 2020 100 m -6 Y s 2031 100 m -6 Y s 2042 107 m -13 Y s 2053 100 m -6 Y s 2064 100 m -6 Y s 2075 100 m -6 Y s 2086 100 m -6 Y s 2097
 107 m -13 Y s 2108 100 m -6 Y s 2120 100 m -6 Y s 2131 100 m -6 Y s 2142 100 m -6 Y s 2153 107 m -13 Y s 1709 107 m -13 Y s 1698 100 m -6 Y s 1687 100 m -6 Y s 1675 100 m -6 Y s 1664 100 m -6 Y s 2153 107 m -13 Y s 2164 100 m -6 Y s 2175 100 m -6 Y
 s 2186 100 m -6 Y s 2197 100 m -6 Y s 1655 523 m 547 X s 1709 509 m 14 Y s 1720 516 m 7 Y s 1731 516 m 7 Y s 1742 516 m 7 Y s 1753 516 m 7 Y s 1764 509 m 14 Y s 1775 516 m 7 Y s 1786 516 m 7 Y s 1798 516 m 7 Y s 1809 516 m 7 Y s 1820 509 m 14 Y s
 1831 516 m 7 Y s 1842 516 m 7 Y s 1853 516 m 7 Y s 1864 516 m 7 Y s 1875 509 m 14 Y s 1886 516 m 7 Y s 1897 516 m 7 Y s 1909 516 m 7 Y s 1920 516 m 7 Y s 1931 509 m 14 Y s 1942 516 m 7 Y s 1953 516 m 7 Y s 1964 516 m 7 Y s 1975 516 m 7 Y s 1986 509
 m 14 Y s 1997 516 m 7 Y s 2008 516 m 7 Y s 2020 516 m 7 Y s 2031 516 m 7 Y s 2042 509 m 14 Y s 2053 516 m 7 Y s 2064 516 m 7 Y s 2075 516 m 7 Y s 2086 516 m 7 Y s 2097 509 m 14 Y s 2108 516 m 7 Y s 2120 516 m 7 Y s 2131 516 m 7 Y s 2142 516 m 7 Y s
 2153 509 m 14 Y s 1709 509 m 14 Y s 1698 516 m 7 Y s 1687 516 m 7 Y s 1675 516 m 7 Y s 1664 516 m 7 Y s 2153 509 m 14 Y s 2164 516 m 7 Y s 2175 516 m 7 Y s 2186 516 m 7 Y s 2197 516 m 7 Y s 1655 94 m 429 Y s 1671 94 m -16 X s 1663 104 m -8 X s 1663
 114 m -8 X s 1663 124 m -8 X s 1663 135 m -8 X s 1671 145 m -16 X s 1663 155 m -8 X s 1663 166 m -8 X s 1663 176 m -8 X s 1663 186 m -8 X s 1671 196 m -16 X s 1663 207 m -8 X s 1663 217 m -8 X s 1663 227 m -8 X s 1663 238 m -8 X s 1671 248 m -16 X s
 1663 258 m -8 X s 1663 268 m -8 X s 1663 279 m -8 X s 1663 289 m -8 X s 1671 299 m -16 X s 1663 309 m -8 X s 1663 320 m -8 X s 1663 330 m -8 X s 1663 340 m -8 X s 1671 351 m -16 X s 1663 361 m -8 X s 1663 371 m -8 X s 1663 381 m -8 X s 1663 392 m -8
 X s 1671 402 m -16 X s 1663 412 m -8 X s 1663 423 m -8 X s 1663 433 m -8 X s 1663 443 m -8 X s 1671 453 m -16 X s 1663 464 m -8 X s 1663 474 m -8 X s 1663 484 m -8 X s 1663 495 m -8 X s 1671 505 m -16 X s 1671 505 m -16 X s 1663 515 m -8 X s 2202 94
 m 429 Y s 2186 94 m 16 X s 2194 104 m 8 X s 2194 114 m 8 X s 2194 124 m 8 X s 2194 135 m 8 X s 2186 145 m 16 X s 2194 155 m 8 X s 2194 166 m 8 X s 2194 176 m 8 X s 2194 186 m 8 X s 2186 196 m 16 X s 2194 207 m 8 X s 2194 217 m 8 X s 2194 227 m 8 X s
 2194 238 m 8 X s 2186 248 m 16 X s 2194 258 m 8 X s 2194 268 m 8 X s 2194 279 m 8 X s 2194 289 m 8 X s 2186 299 m 16 X s 2194 309 m 8 X s 2194 320 m 8 X s 2194 330 m 8 X s 2194 340 m 8 X s 2186 351 m 16 X s 2194 361 m 8 X s 2194 371 m 8 X s 2194 381
 m 8 X s 2194 392 m 8 X s 2186 402 m 16 X s 2194 412 m 8 X s 2194 423 m 8 X s 2194 433 m 8 X s 2194 443 m 8 X s 2186 453 m 16 X s 2194 464 m 8 X s 2194 474 m 8 X s 2194 484 m 8 X s 2194 495 m 8 X s 2186 505 m 16 X s 2186 505 m 16 X s 2194 515 m 8 X s
 gsave  711 567 1534 12 C 2230.83 91.2634 t 90 r /Helvetica-Bold findfont 19.9602 sf 0 0 m (U/O\255flow \(S,B\): \(0.0, 0.0\)% / \(0.0, 0.0\)%) show NC gr  0.490196 0.545098 0.615686 c 0.364706 0.419608 0.490196 c 338 37 1542 539 bf 0.490196 0.545098
 0.615686 c 1542 539 m 338 X s 1880 539 m 37 Y s 1880 576 m -338 X s 1542 576 m -37 Y s 1 1 1 c black 1 1 1 c
 gsave  711 567 1534 12 C 1545.91 551.299 t 0 r /Helvetica-Bold findfont 28.5146 sf 0 0 m (Input variable: bb.HT_l5) show NC gr 
 gr  gr showpage
end
%%EOF
