%!PS-Adobe-2.0 EPSF-2.0
%%BoundingBox:  0 0 567 296
%%Title: dataset/plots/variables_id_c11.eps: Input variables (training sample)
%%Creator: ROOT Version 6.18/00
%%CreationDate: Fri Sep 13 20:54:59 2019
%%DocumentNeededResources: ProcSet (FontSetInit)
%%EndComments
%%BeginProlog
80 dict begin
/s {stroke} def /l {lineto} def /m {moveto} def /t {translate} def
/r {rotate} def /rl {roll}  def /R {repeat} def
/d {rlineto} def /rm {rmoveto} def /gr {grestore} def /f {eofill} def
/c {setrgbcolor} def /black {0 setgray} def /sd {setdash} def
/cl {closepath} def /sf {scalefont setfont} def /lw {setlinewidth} def
/box {m dup 0 exch d exch 0 d 0 exch neg d cl} def
/NC{systemdict begin initclip end}def/C{NC box clip newpath}def
/bl {box s} def /bf {gsave box gsave f grestore 1 lw [] 0 sd s grestore} def /Y { 0 exch d} def /X { 0 d} def 
/K {{pop pop 0 moveto} exch kshow} bind def
/ita {/ang 15 def gsave [1 0 ang dup sin exch cos div 1 0 0] concat} def 
/mp {newpath /y exch def /x exch def} def
/side {[w .77 mul w .23 mul] .385 w mul sd w 0 l currentpoint t -144 r} def
/mr {mp x y w2 0 360 arc} def /m24 {mr s} def /m20 {mr f} def
/mb {mp x y w2 add m w2 neg 0 d 0 w neg d w 0 d 0 w d cl} def
/mt {mp x y w2 add m w2 neg w neg d w 0 d cl} def
/w4 {w 4 div} def
/w6 {w 6 div} def
/w8 {w 8 div} def
/m21 {mb f} def /m25 {mb s} def /m22 {mt f} def /m26{mt s} def
/m23 {mp x y w2 sub m w2 w d w neg 0 d cl f} def
/m27 {mp x y w2 add m w3 neg w2 neg d w3 w2 neg d w3 w2 d cl s} def
/m28 {mp x w2 sub y w2 sub w3 add m w3 0 d  0 w3 neg d w3 0 d 0 w3 d w3 0 d  0 w3 d w3 neg 0 d 0 w3 d w3 neg 0 d 0 w3 neg d w3 neg 0 d cl s } def
/m29 {mp gsave x w2 sub y w2 add w3 sub m currentpoint t 4 {side} repeat cl fill gr} def
/m30 {mp gsave x w2 sub y w2 add w3 sub m currentpoint t 4 {side} repeat cl s gr} def
/m31 {mp x y w2 sub m 0 w d x w2 sub y m w 0 d x w2 sub y w2 add m w w neg d x w2 sub y w2 sub m w w d s} def
/m32 {mp x y w2 sub m w2 w d w neg 0 d cl s} def
/m33 {mp x y w2 add m w3 neg w2 neg d w3 w2 neg d w3 w2 d cl f} def
/m34 {mp x w2 sub y w2 sub w3 add m w3 0 d  0 w3 neg d w3 0 d 0 w3 d w3 0 d  0 w3 d w3 neg 0 d 0 w3 d w3 neg 0 d 0 w3 neg d w3 neg 0 d cl f } def
/m35 {mp x y w2 add m w2 neg w2 neg d w2 w2 neg d w2 w2 d w2 neg w2 d x y w2 sub m 0 w d x w2 sub y m w 0 d s} def
/m36 {mb x w2 sub y w2 add m w w neg d x w2 sub y w2 sub m w w d s} def
/m37 {mp x y m w4 neg w2 d w4 neg w2 neg d w2 0 d  w4 neg w2 neg d w2 0 d w4 neg w2 d w2 0 d w4 neg w2 d w4 neg w2 neg d cl s} def
/m38 {mp x w4 sub y w2 add m w4 neg w4 neg d 0 w2 neg d w4 w4 neg d w2 0 d w4 w4 d 0 w2 d w4 neg w4 d w2 neg 0 d x y w2 sub m 0 w d x w2 sub y m w 0 d cl s} def
/m39 {mp x y m w4 neg w2 d w4 neg w2 neg d w2 0 d  w4 neg w2 neg d w2 0 d w4 neg w2 d w2 0 d w4 neg w2 d w4 neg w2 neg d cl f} def
/m40 {mp x y m w4 w2 d w4 w4 neg d w2 neg w4 neg d w2 w4 neg d w4 neg w4 neg d w4 neg w2 d w4 neg w2 neg d w4 neg w4 d w2 w4 d w2 neg w4 d w4 w4 d w4 w2 neg d cl s} def
/m41 {mp x y m w4 w2 d w4 w4 neg d w2 neg w4 neg d w2 w4 neg d w4 neg w4 neg d w4 neg w2 d w4 neg w2 neg d w4 neg w4 d w2 w4 d w2 neg w4 d w4 w4 d w4 w2 neg d cl f} def
/m42 {mp x y w2 add m w8 neg w2 -3 4 div mul d w2 -3 4 div mul w8 neg d w2 3 4 div mul w8 neg d w8 w2 -3 4 div mul d w8 w2 3 4 div mul d w2 3 4 div mul w8 d w2 -3 4 div mul w8 d w8 neg w2 3 4 div mul d cl s} def
/m43 {mp x y w2 add m w8 neg w2 -3 4 div mul d w2 -3 4 div mul w8 neg d w2 3 4 div mul w8 neg d w8 w2 -3 4 div mul d w8 w2 3 4 div mul d w2 3 4 div mul w8 d w2 -3 4 div mul w8 d w8 neg w2 3 4 div mul d cl f} def
/m44 {mp x y m w6 neg w2 d w2 2 3 div mul 0 d w6 neg w2 neg d w2 w6 d 0 w2 -2 3 div mul d w2 neg w6 d w6 w2 neg d w2 -2 3 div mul 0 d w6 w2 d w2 neg w6 neg d 0 w2 2 3 div mul d w2 w6 neg d cl s} def
/m45 {mp x y m w6 neg w2 d w2 2 3 div mul 0 d w6 neg w2 neg d w2 w6 d 0 w2 -2 3 div mul d w2 neg w6 d w6 w2 neg d w2 -2 3 div mul 0 d w6 w2 d w2 neg w6 neg d 0 w2 2 3 div mul d w2 w6 neg d cl f} def
/m46 {mp x y w4 add m w4 neg w4 d w4 neg w4 neg d  w4 w4 neg d w4 neg w4 neg d w4 w4 neg d w4 w4 d w4 w4 neg d w4 w4 d w4 neg w4 d w4 w4 d w4 neg w4 d w4 neg w4 neg d cl s} def
/m47 {mp x y w4 add m w4 neg w4 d w4 neg w4 neg d w4 w4 neg d w4 neg w4 neg d  w4 w4 neg d w4 w4 d w4 w4 neg d w4 w4 d w4 neg w4 d w4 w4 d w4 neg w4 d w4 neg w4 neg d cl f} def
/m48 {mp x y w4 add m w4 neg w4 d w4 neg w4 neg d w4 w4 neg d  w4 neg w4 neg d w4 w4 neg d w4 w4 d w4 w4 neg d w4 w4 d w4 neg w4 d w4 w4 d w4 neg w4 d w4 neg w4 neg d  w4 w4 neg d w4 neg w4 neg d w4 neg w4 d w4 w4 d cl f} def
/m49 {mp x w2 sub w3 add y w2 sub w3 add m  0 w3 neg d w3 0 d 0 w3 d w3 0 d 0 w3 d w3 neg 0 d 0 w3 d w3 neg 0 d 0 w3 neg d w3 neg 0 d 0 w3 neg d w3 0 d 0 w3 d w3 0 d 0 w3 neg d w3 neg 0 d cl f } def
/m2 {mp x y w2 sub m 0 w d x w2 sub y m w 0 d s} def
/m5 {mp x w2 sub y w2 sub m w w d x w2 sub y w2 add m w w neg d s} def
%%IncludeResource: ProcSet (FontSetInit)
%%IncludeResource: font Times-Roman
%%IncludeResource: font Times-Italic
%%IncludeResource: font Times-Bold
%%IncludeResource: font Times-BoldItalic
%%IncludeResource: font Helvetica
%%IncludeResource: font Helvetica-Oblique
%%IncludeResource: font Helvetica-Bold
%%IncludeResource: font Helvetica-BoldOblique
%%IncludeResource: font Courier
%%IncludeResource: font Courier-Oblique
%%IncludeResource: font Courier-Bold
%%IncludeResource: font Courier-BoldOblique
%%IncludeResource: font Symbol
%%IncludeResource: font ZapfDingbats
/reEncode {exch findfont dup length dict begin {1 index /FID eq  {pop pop} {def} ifelse } forall /Encoding exch def currentdict end dup /FontName get exch definefont pop } def [/Times-Bold /Times-Italic /Times-BoldItalic /Helvetica /Helvetica-Oblique
 /Helvetica-Bold /Helvetica-BoldOblique /Courier /Courier-Oblique /Courier-Bold /Courier-BoldOblique /Times-Roman /AvantGarde-Book /AvantGarde-BookOblique /AvantGarde-Demi /AvantGarde-DemiOblique /Bookman-Demi /Bookman-DemiItalic /Bookman-Light
 /Bookman-LightItalic /Helvetica-Narrow /Helvetica-Narrow-Bold /Helvetica-Narrow-BoldOblique /Helvetica-Narrow-Oblique /NewCenturySchlbk-Roman /NewCenturySchlbk-Bold /NewCenturySchlbk-BoldItalic /NewCenturySchlbk-Italic /Palatino-Bold
 /Palatino-BoldItalic /Palatino-Italic /Palatino-Roman ] {ISOLatin1Encoding reEncode } forall
%%EndProlog
%%BeginSetup
%%EndSetup
newpath  gsave  .25 .25 scale  gsave  0 0 t 0.490196 0.545098 0.615686 c[  ] 0 sd 3 lw 0.941176 0.941176 0.941176 c 2268 1182 0 0 bf 0.490196 0.545098 0.615686 c 0.941176 0.941176 0.941176 c 710 567 23 603 bf black 1 1 0.992157 c 548 429 143 685 bf
 black 548 429 143 685 bl 0 0 0.933333 c 6 lw 0.49 0.6 0.82 c black 3 lw 0.49 0.6 0.82 c 143 729 m 1 Y 28 X 9 Y 14 X -8 Y 13 X 13 Y 14 X -6 Y 27 X 3 Y 14 X 13 Y 14 X -2 Y 13 X -4 Y 14 X 4 Y 14 X -47 Y 13 X 85 Y 14 X 30 Y 14 X 11 Y 13 X -9 Y 14 X 64 Y
 14 X 21 Y 13 X 52 Y 14 X -7 Y 14 X -32 Y 13 X 109 Y 14 X -17 Y 14 X -15 Y 13 X 82 Y 14 X -49 Y 14 X -78 Y 13 X -73 Y 14 X -149 Y 14 X -1 Y 137 X f 6 lw 0 0 0.933333 c 0.49 0.6 0.82 c 0 0 0.933333 c 143 730 m 28 X 9 Y 14 X -8 Y 13 X 13 Y 14 X -6 Y 27
 X 3 Y 14 X 13 Y 14 X -2 Y 13 X -4 Y 14 X 4 Y 14 X -47 Y 13 X 85 Y 14 X 30 Y 14 X 11 Y 13 X -9 Y 14 X 64 Y 14 X 21 Y 13 X 52 Y 14 X -7 Y 14 X -32 Y 13 X 109 Y 14 X -17 Y 14 X -15 Y 13 X 82 Y 14 X -49 Y 14 X -78 Y 13 X -73 Y 14 X -149 Y 14 X -1 Y 137
 X -44 Y s black 3 lw 143 685 m 548 X s 183 698 m -13 Y s 199 691 m -6 Y s 215 691 m -6 Y s 231 691 m -6 Y s 247 691 m -6 Y s 263 698 m -13 Y s 279 691 m -6 Y s 295 691 m -6 Y s 311 691 m -6 Y s 327 691 m -6 Y s 343 698 m -13 Y s 359 691 m -6 Y s 375
 691 m -6 Y s 391 691 m -6 Y s 407 691 m -6 Y s 423 698 m -13 Y s 439 691 m -6 Y s 455 691 m -6 Y s 471 691 m -6 Y s 486 691 m -6 Y s 502 698 m -13 Y s 518 691 m -6 Y s 534 691 m -6 Y s 550 691 m -6 Y s 566 691 m -6 Y s 582 698 m -13 Y s 598 691 m -6
 Y s 614 691 m -6 Y s 630 691 m -6 Y s 646 691 m -6 Y s 662 698 m -13 Y s 183 698 m -13 Y s 167 691 m -6 Y s 151 691 m -6 Y s 662 698 m -13 Y s 678 691 m -6 Y s
 gsave  710 567 23 603 C 170.505 656.444 t 0 r /Helvetica findfont 25.6631 sf 0 0 m (0.2) show NC gr 
 gsave  710 567 23 603 C 156.296 656.444 t 0 r /Symbol findfont 25.6631 sf 0 0 m (-) show NC gr 
 gsave  710 567 23 603 C 250.074 656.444 t 0 r /Helvetica findfont 25.6631 sf 0 0 m (0.1) show NC gr 
 gsave  710 567 23 603 C 238.707 656.444 t 0 r /Symbol findfont 25.6631 sf 0 0 m (-) show NC gr 
 gsave  710 567 23 603 C 332.485 656.444 t 0 r /Helvetica findfont 25.6631 sf 0 0 m (0) show NC gr 
 gsave  710 567 23 603 C 403.529 656.444 t 0 r /Helvetica findfont 25.6631 sf 0 0 m (0.1) show NC gr 
 gsave  710 567 23 603 C 483.098 656.444 t 0 r /Helvetica findfont 25.6631 sf 0 0 m (0.2) show NC gr 
 gsave  710 567 23 603 C 562.667 656.444 t 0 r /Helvetica findfont 25.6631 sf 0 0 m (0.3) show NC gr 
 gsave  710 567 23 603 C 642.236 656.444 t 0 r /Helvetica findfont 25.6631 sf 0 0 m (0.4) show NC gr 
 gsave  710 567 23 603 C 582.559 616.66 t 0 r /Helvetica findfont 28.5146 sf 0 0 m (yy.HY_l1) show NC gr  143 1114 m 548 X s 183 1100 m 14 Y s 199 1107 m 7 Y s 215 1107 m 7 Y s 231 1107 m 7 Y s 247 1107 m 7 Y s 263 1100 m 14 Y s 279 1107 m 7 Y s 295
 1107 m 7 Y s 311 1107 m 7 Y s 327 1107 m 7 Y s 343 1100 m 14 Y s 359 1107 m 7 Y s 375 1107 m 7 Y s 391 1107 m 7 Y s 407 1107 m 7 Y s 423 1100 m 14 Y s 439 1107 m 7 Y s 455 1107 m 7 Y s 471 1107 m 7 Y s 486 1107 m 7 Y s 502 1100 m 14 Y s 518 1107 m 7
 Y s 534 1107 m 7 Y s 550 1107 m 7 Y s 566 1107 m 7 Y s 582 1100 m 14 Y s 598 1107 m 7 Y s 614 1107 m 7 Y s 630 1107 m 7 Y s 646 1107 m 7 Y s 662 1100 m 14 Y s 183 1100 m 14 Y s 167 1107 m 7 Y s 151 1107 m 7 Y s 662 1100 m 14 Y s 678 1107 m 7 Y s 143
 685 m 429 Y s 160 729 m -17 X s 152 740 m -9 X s 152 752 m -9 X s 152 763 m -9 X s 152 774 m -9 X s 160 786 m -17 X s 152 797 m -9 X s 152 809 m -9 X s 152 820 m -9 X s 152 832 m -9 X s 160 843 m -17 X s 152 854 m -9 X s 152 866 m -9 X s 152 877 m
 -9 X s 152 889 m -9 X s 160 900 m -17 X s 152 912 m -9 X s 152 923 m -9 X s 152 934 m -9 X s 152 946 m -9 X s 160 957 m -17 X s 152 969 m -9 X s 152 980 m -9 X s 152 992 m -9 X s 152 1003 m -9 X s 160 1014 m -17 X s 152 1026 m -9 X s 152 1037 m -9 X
 s 152 1049 m -9 X s 152 1060 m -9 X s 160 1072 m -17 X s 160 729 m -17 X s 152 717 m -9 X s 152 706 m -9 X s 152 694 m -9 X s 160 1072 m -17 X s 152 1083 m -9 X s 152 1094 m -9 X s 152 1106 m -9 X s
 gsave  710 567 23 603 C 119.354 718.963 t 0 r /Helvetica findfont 25.6631 sf 0 0 m (0) show NC gr 
 gsave  710 567 23 603 C 122.195 775.798 t 0 r /Helvetica findfont 25.6631 sf 0 0 m (1) show NC gr 
 gsave  710 567 23 603 C 119.354 832.633 t 0 r /Helvetica findfont 25.6631 sf 0 0 m (2) show NC gr 
 gsave  710 567 23 603 C 119.354 889.468 t 0 r /Helvetica findfont 25.6631 sf 0 0 m (3) show NC gr 
 gsave  710 567 23 603 C 119.354 946.303 t 0 r /Helvetica findfont 25.6631 sf 0 0 m (4) show NC gr 
 gsave  710 567 23 603 C 119.354 1003.14 t 0 r /Helvetica findfont 25.6631 sf 0 0 m (5) show NC gr 
 gsave  710 567 23 603 C 119.354 1062.81 t 0 r /Helvetica findfont 25.6631 sf 0 0 m (6) show NC gr 
 gsave  710 567 23 603 C 45.468 1025.87 t 90 r /Helvetica findfont 28.5146 sf 0 0 m (0.0171 ) show NC gr 
 gsave  710 567 23 603 C 31.2593 1023.03 t 90 r /Helvetica findfont 19.9602 sf 0 0 m ( ) show NC gr 
 gsave  710 567 23 603 C 45.468 1011.66 t 90 r /Helvetica findfont 28.5146 sf 0 0 m (/) show NC gr 
 gsave  710 567 23 603 C 53.9933 1008.82 t 90 r /Helvetica findfont 19.9602 sf 0 0 m ( ) show NC gr 
 gsave  710 567 23 603 C 45.468 903.677 t 90 r /Helvetica findfont 28.5146 sf 0 0 m (\(1/N\) dN) show NC gr  691 685 m 429 Y s 674 729 m 17 X s 683 740 m 8 X s 683 752 m 8 X s 683 763 m 8 X s 683 774 m 8 X s 674 786 m 17 X s 683 797 m 8 X s 683 809 m
 8 X s 683 820 m 8 X s 683 832 m 8 X s 674 843 m 17 X s 683 854 m 8 X s 683 866 m 8 X s 683 877 m 8 X s 683 889 m 8 X s 674 900 m 17 X s 683 912 m 8 X s 683 923 m 8 X s 683 934 m 8 X s 683 946 m 8 X s 674 957 m 17 X s 683 969 m 8 X s 683 980 m 8 X s
 683 992 m 8 X s 683 1003 m 8 X s 674 1014 m 17 X s 683 1026 m 8 X s 683 1037 m 8 X s 683 1049 m 8 X s 683 1060 m 8 X s 674 1072 m 17 X s 674 729 m 17 X s 683 717 m 8 X s 683 706 m 8 X s 683 694 m 8 X s 674 1072 m 17 X s 683 1083 m 8 X s 683 1094 m 8
 X s 683 1106 m 8 X s 0.490196 0.545098 0.615686 c 0.364706 0.419608 0.490196 c 329 38 30 1130 bf 0.490196 0.545098 0.615686 c 30 1130 m 329 X s 359 1130 m 38 Y s 359 1168 m -329 X s 30 1168 m -38 Y s 1 1 1 c black 1 1 1 c
 gsave  710 567 23 603 C 34.101 1142.38 t 0 r /Helvetica-Bold findfont 28.5146 sf 0 0 m (Input variable: yy.HY_l1) show NC gr  1 0 0 c 6 lw black 3 lw 1 0 0 c 690 729 m s 675 729 m s 660 729 m s 645 729 m s 630 729 m s 615 729 m s 600 729 m s 585 729
 m s 570 729 m s 555 729 m s 540 729 m -1 X s 533 738 m -9 -9 d s 526 746 m -17 -17 d s 526 761 m -32 -32 d s 526 776 m -47 -47 d s 526 792 m -62 -63 d s 515 795 m -2 -2 d s 510 790 m -61 -61 d s 499 794 m -65 -65 d s 499 810 m -80 -81 d s 495 820 m
 -91 -91 d s 482 823 m -24 -24 d s 457 797 m -68 -68 d s 472 827 m -14 -13 d s 444 800 m -70 -71 d s 472 843 m -14 -14 d s 438 809 m -79 -80 d s 468 854 m -10 -10 d s 431 817 m -87 -88 d s 429 830 m -101 -101 d s 408 824 m -95 -95 d s 390 821 m -92
 -92 d s 390 836 m -107 -107 d s 385 847 m -9 -10 d s 371 832 m -103 -103 d s 362 839 m -109 -110 d s 362 854 m -124 -125 d s 354 861 m -131 -132 d s 330 852 m -22 -23 d s 305 826 m -97 -97 d s 321 858 m -13 -14 d s 282 819 m -89 -90 d s 321 873 m
 -13 -13 d s 280 832 m -102 -103 d s 315 882 m -7 -7 d s 280 847 m -13 -14 d s 265 832 m -102 -103 d s 274 856 m -7 -7 d s 253 835 m -105 -106 d s 253 850 m -110 -110 d s 253 865 m -14 -14 d s 227 839 m -84 -84 d s 253 880 m -14 -13 d s 226 853 m -83
 -83 d s 253 896 m -14 -14 d s 220 862 m -8 -8 d s 211 853 m -68 -68 d s 253 911 m -14 -14 d s 198 856 m -55 -56 d s 251 924 m -12 -12 d s 198 871 m -55 -55 d s 198 886 m -55 -55 d s 198 901 m -27 -27 d s 168 871 m -25 -25 d s 187 905 m -16 -16 d s
 157 875 m -14 -14 d s 185 918 m -14 -14 d s 157 890 m -14 -14 d s 183 931 m -12 -12 d s 157 905 m -14 -13 d s 155 918 m -12 -11 d s 6 lw 143 918 m 14 X -47 Y 14 X 60 Y 14 X -26 Y 13 X -52 Y 14 X 9 Y 14 X -23 Y 13 X 85 Y 14 X -92 Y 14 X 24 Y 13 X -37
 Y 14 X 7 Y 14 X 56 Y 13 X -30 Y 14 X 4 Y 14 X 5 Y 13 X -29 Y 14 X 15 Y 14 X -27 Y 13 X 4 Y 14 X 6 Y 14 X -21 Y 13 X -12 Y 14 X 57 Y 14 X -31 Y 13 X -3 Y 14 X -30 Y 14 X 5 Y 13 X -57 Y 14 X -9 Y 151 X -44 Y s black 3 lw 143 685 m 548 X s 183 698 m
 -13 Y s 199 691 m -6 Y s 215 691 m -6 Y s 231 691 m -6 Y s 247 691 m -6 Y s 263 698 m -13 Y s 279 691 m -6 Y s 295 691 m -6 Y s 311 691 m -6 Y s 327 691 m -6 Y s 343 698 m -13 Y s 359 691 m -6 Y s 375 691 m -6 Y s 391 691 m -6 Y s 407 691 m -6 Y s
 423 698 m -13 Y s 439 691 m -6 Y s 455 691 m -6 Y s 471 691 m -6 Y s 486 691 m -6 Y s 502 698 m -13 Y s 518 691 m -6 Y s 534 691 m -6 Y s 550 691 m -6 Y s 566 691 m -6 Y s 582 698 m -13 Y s 598 691 m -6 Y s 614 691 m -6 Y s 630 691 m -6 Y s 646 691
 m -6 Y s 662 698 m -13 Y s 183 698 m -13 Y s 167 691 m -6 Y s 151 691 m -6 Y s 662 698 m -13 Y s 678 691 m -6 Y s 143 1114 m 548 X s 183 1100 m 14 Y s 199 1107 m 7 Y s 215 1107 m 7 Y s 231 1107 m 7 Y s 247 1107 m 7 Y s 263 1100 m 14 Y s 279 1107 m 7
 Y s 295 1107 m 7 Y s 311 1107 m 7 Y s 327 1107 m 7 Y s 343 1100 m 14 Y s 359 1107 m 7 Y s 375 1107 m 7 Y s 391 1107 m 7 Y s 407 1107 m 7 Y s 423 1100 m 14 Y s 439 1107 m 7 Y s 455 1107 m 7 Y s 471 1107 m 7 Y s 486 1107 m 7 Y s 502 1100 m 14 Y s 518
 1107 m 7 Y s 534 1107 m 7 Y s 550 1107 m 7 Y s 566 1107 m 7 Y s 582 1100 m 14 Y s 598 1107 m 7 Y s 614 1107 m 7 Y s 630 1107 m 7 Y s 646 1107 m 7 Y s 662 1100 m 14 Y s 183 1100 m 14 Y s 167 1107 m 7 Y s 151 1107 m 7 Y s 662 1100 m 14 Y s 678 1107 m
 7 Y s 143 685 m 429 Y s 160 729 m -17 X s 152 740 m -9 X s 152 752 m -9 X s 152 763 m -9 X s 152 774 m -9 X s 160 786 m -17 X s 152 797 m -9 X s 152 809 m -9 X s 152 820 m -9 X s 152 832 m -9 X s 160 843 m -17 X s 152 854 m -9 X s 152 866 m -9 X s
 152 877 m -9 X s 152 889 m -9 X s 160 900 m -17 X s 152 912 m -9 X s 152 923 m -9 X s 152 934 m -9 X s 152 946 m -9 X s 160 957 m -17 X s 152 969 m -9 X s 152 980 m -9 X s 152 992 m -9 X s 152 1003 m -9 X s 160 1014 m -17 X s 152 1026 m -9 X s 152
 1037 m -9 X s 152 1049 m -9 X s 152 1060 m -9 X s 160 1072 m -17 X s 160 729 m -17 X s 152 717 m -9 X s 152 706 m -9 X s 152 694 m -9 X s 160 1072 m -17 X s 152 1083 m -9 X s 152 1094 m -9 X s 152 1106 m -9 X s 691 685 m 429 Y s 674 729 m 17 X s 683
 740 m 8 X s 683 752 m 8 X s 683 763 m 8 X s 683 774 m 8 X s 674 786 m 17 X s 683 797 m 8 X s 683 809 m 8 X s 683 820 m 8 X s 683 832 m 8 X s 674 843 m 17 X s 683 854 m 8 X s 683 866 m 8 X s 683 877 m 8 X s 683 889 m 8 X s 674 900 m 17 X s 683 912 m
 8 X s 683 923 m 8 X s 683 934 m 8 X s 683 946 m 8 X s 674 957 m 17 X s 683 969 m 8 X s 683 980 m 8 X s 683 992 m 8 X s 683 1003 m 8 X s 674 1014 m 17 X s 683 1026 m 8 X s 683 1037 m 8 X s 683 1049 m 8 X s 683 1060 m 8 X s 674 1072 m 17 X s 674 729 m
 17 X s 683 717 m 8 X s 683 706 m 8 X s 683 694 m 8 X s 674 1072 m 17 X s 683 1083 m 8 X s 683 1094 m 8 X s 683 1106 m 8 X s
 gsave  710 567 23 603 C 719.017 682.347 t 90 r /Helvetica-Bold findfont 19.9602 sf 0 0 m (U/O\255flow \(S,B\): \(0.0, 0.0\)% / \(0.0, 0.0\)%) show NC gr  0.490196 0.545098 0.615686 c 0.364706 0.419608 0.490196 c 329 38 30 1130 bf 0.490196 0.545098
 0.615686 c 30 1130 m 329 X s 359 1130 m 38 Y s 359 1168 m -329 X s 30 1168 m -38 Y s 1 1 1 c black 1 1 1 c
 gsave  710 567 23 603 C 34.101 1142.38 t 0 r /Helvetica-Bold findfont 28.5146 sf 0 0 m (Input variable: yy.HY_l1) show NC gr  0.490196 0.545098 0.615686 c 0.941176 0.941176 0.941176 c 710 567 779 603 bf black 1 1 0.992157 c 548 429 899 685 bf black
 548 429 899 685 bl 0 0 0.933333 c 6 lw 0.49 0.6 0.82 c black 3 lw 0.49 0.6 0.82 c 899 685 m 82 X 224 Y 14 X -98 Y 14 X -6 Y 13 X -11 Y 14 X -21 Y 14 X -20 Y 14 X 5 Y 13 X 33 Y 14 X -33 Y 14 X 10 Y 13 X -6 Y 14 X -12 Y 14 X 10 Y 13 X -5 Y 14 X 9 Y 14
 X -19 Y 13 X -3 Y 14 X 9 Y 14 X -22 Y 13 X -18 Y 14 X 26 Y 14 X -12 Y 13 X -19 Y 14 X -1 Y 14 X -18 Y 13 X -2 Y 124 X f 6 lw 0 0 0.933333 c 0.49 0.6 0.82 c 0 0 0.933333 c 899 685 m 82 X 224 Y 14 X -98 Y 14 X -6 Y 13 X -11 Y 14 X -21 Y 14 X -20 Y 14
 X 5 Y 13 X 33 Y 14 X -33 Y 14 X 10 Y 13 X -6 Y 14 X -12 Y 14 X 10 Y 13 X -5 Y 14 X 9 Y 14 X -19 Y 13 X -3 Y 14 X 9 Y 14 X -22 Y 13 X -18 Y 14 X 26 Y 14 X -12 Y 13 X -19 Y 14 X -1 Y 14 X -18 Y 13 X -2 Y 124 X s black 3 lw 899 685 m 548 X s 915 698 m
 -13 Y s 933 691 m -6 Y s 951 691 m -6 Y s 969 691 m -6 Y s 987 691 m -6 Y s 1005 698 m -13 Y s 1023 691 m -6 Y s 1041 691 m -6 Y s 1059 691 m -6 Y s 1077 691 m -6 Y s 1095 698 m -13 Y s 1113 691 m -6 Y s 1131 691 m -6 Y s 1149 691 m -6 Y s 1168 691
 m -6 Y s 1186 698 m -13 Y s 1204 691 m -6 Y s 1222 691 m -6 Y s 1240 691 m -6 Y s 1258 691 m -6 Y s 1276 698 m -13 Y s 1294 691 m -6 Y s 1312 691 m -6 Y s 1330 691 m -6 Y s 1348 691 m -6 Y s 1366 698 m -13 Y s 915 698 m -13 Y s 1366 698 m -13 Y s
 1384 691 m -6 Y s 1402 691 m -6 Y s 1420 691 m -6 Y s 1439 691 m -6 Y s
 gsave  710 567 779 603 C 900.835 656.444 t 0 r /Helvetica findfont 25.6631 sf 0 0 m (0.2) show NC gr 
 gsave  710 567 779 603 C 886.626 656.444 t 0 r /Symbol findfont 25.6631 sf 0 0 m (-) show NC gr 
 gsave  710 567 779 603 C 991.771 656.444 t 0 r /Helvetica findfont 25.6631 sf 0 0 m (0.1) show NC gr 
 gsave  710 567 779 603 C 980.404 656.444 t 0 r /Symbol findfont 25.6631 sf 0 0 m (-) show NC gr 
 gsave  710 567 779 603 C 1085.55 656.444 t 0 r /Helvetica findfont 25.6631 sf 0 0 m (0) show NC gr 
 gsave  710 567 779 603 C 1167.96 656.444 t 0 r /Helvetica findfont 25.6631 sf 0 0 m (0.1) show NC gr 
 gsave  710 567 779 603 C 1256.05 656.444 t 0 r /Helvetica findfont 25.6631 sf 0 0 m (0.2) show NC gr 
 gsave  710 567 779 603 C 1346.99 656.444 t 0 r /Helvetica findfont 25.6631 sf 0 0 m (0.3) show NC gr 
 gsave  710 567 779 603 C 1335.62 616.66 t 0 r /Helvetica findfont 28.5146 sf 0 0 m (yy.HY_l2) show NC gr  899 1114 m 548 X s 915 1100 m 14 Y s 933 1107 m 7 Y s 951 1107 m 7 Y s 969 1107 m 7 Y s 987 1107 m 7 Y s 1005 1100 m 14 Y s 1023 1107 m 7 Y s
 1041 1107 m 7 Y s 1059 1107 m 7 Y s 1077 1107 m 7 Y s 1095 1100 m 14 Y s 1113 1107 m 7 Y s 1131 1107 m 7 Y s 1149 1107 m 7 Y s 1168 1107 m 7 Y s 1186 1100 m 14 Y s 1204 1107 m 7 Y s 1222 1107 m 7 Y s 1240 1107 m 7 Y s 1258 1107 m 7 Y s 1276 1100 m
 14 Y s 1294 1107 m 7 Y s 1312 1107 m 7 Y s 1330 1107 m 7 Y s 1348 1107 m 7 Y s 1366 1100 m 14 Y s 915 1100 m 14 Y s 1366 1100 m 14 Y s 1384 1107 m 7 Y s 1402 1107 m 7 Y s 1420 1107 m 7 Y s 1439 1107 m 7 Y s 899 685 m 429 Y s 915 685 m -16 X s 907
 699 m -8 X s 907 712 m -8 X s 907 726 m -8 X s 915 740 m -16 X s 907 754 m -8 X s 907 768 m -8 X s 907 782 m -8 X s 915 796 m -16 X s 907 810 m -8 X s 907 824 m -8 X s 907 837 m -8 X s 915 851 m -16 X s 907 865 m -8 X s 907 879 m -8 X s 907 893 m -8
 X s 915 907 m -16 X s 907 921 m -8 X s 907 935 m -8 X s 907 949 m -8 X s 915 963 m -16 X s 907 976 m -8 X s 907 990 m -8 X s 907 1004 m -8 X s 915 1018 m -16 X s 907 1032 m -8 X s 907 1046 m -8 X s 907 1060 m -8 X s 915 1074 m -16 X s 915 1074 m -16
 X s 907 1088 m -8 X s 907 1102 m -8 X s
 gsave  710 567 779 603 C 875.259 673.495 t 0 r /Helvetica findfont 25.6631 sf 0 0 m (0) show NC gr 
 gsave  710 567 779 603 C 875.259 730.33 t 0 r /Helvetica findfont 25.6631 sf 0 0 m (2) show NC gr 
 gsave  710 567 779 603 C 875.259 787.165 t 0 r /Helvetica findfont 25.6631 sf 0 0 m (4) show NC gr 
 gsave  710 567 779 603 C 875.259 841.158 t 0 r /Helvetica findfont 25.6631 sf 0 0 m (6) show NC gr 
 gsave  710 567 779 603 C 875.259 897.993 t 0 r /Helvetica findfont 25.6631 sf 0 0 m (8) show NC gr 
 gsave  710 567 779 603 C 861.05 951.986 t 0 r /Helvetica findfont 25.6631 sf 0 0 m (10) show NC gr 
 gsave  710 567 779 603 C 861.05 1008.82 t 0 r /Helvetica findfont 25.6631 sf 0 0 m (12) show NC gr 
 gsave  710 567 779 603 C 861.05 1062.81 t 0 r /Helvetica findfont 25.6631 sf 0 0 m (14) show NC gr 
 gsave  710 567 779 603 C 801.374 1025.87 t 90 r /Helvetica findfont 28.5146 sf 0 0 m (0.0151 ) show NC gr 
 gsave  710 567 779 603 C 787.165 1023.03 t 90 r /Helvetica findfont 19.9602 sf 0 0 m ( ) show NC gr 
 gsave  710 567 779 603 C 801.374 1011.66 t 90 r /Helvetica findfont 28.5146 sf 0 0 m (/) show NC gr 
 gsave  710 567 779 603 C 809.899 1008.82 t 90 r /Helvetica findfont 19.9602 sf 0 0 m ( ) show NC gr 
 gsave  710 567 779 603 C 801.374 903.677 t 90 r /Helvetica findfont 28.5146 sf 0 0 m (\(1/N\) dN) show NC gr  1447 685 m 429 Y s 1430 685 m 17 X s 1438 699 m 9 X s 1438 712 m 9 X s 1438 726 m 9 X s 1430 740 m 17 X s 1438 754 m 9 X s 1438 768 m 9 X s
 1438 782 m 9 X s 1430 796 m 17 X s 1438 810 m 9 X s 1438 824 m 9 X s 1438 837 m 9 X s 1430 851 m 17 X s 1438 865 m 9 X s 1438 879 m 9 X s 1438 893 m 9 X s 1430 907 m 17 X s 1438 921 m 9 X s 1438 935 m 9 X s 1438 949 m 9 X s 1430 963 m 17 X s 1438
 976 m 9 X s 1438 990 m 9 X s 1438 1004 m 9 X s 1430 1018 m 17 X s 1438 1032 m 9 X s 1438 1046 m 9 X s 1438 1060 m 9 X s 1430 1074 m 17 X s 1430 1074 m 17 X s 1438 1088 m 9 X s 1438 1102 m 9 X s 0.490196 0.545098 0.615686 c 0.364706 0.419608 0.490196
 c 332 38 786 1130 bf 0.490196 0.545098 0.615686 c 786 1130 m 332 X s 1118 1130 m 38 Y s 1118 1168 m -332 X s 786 1168 m -38 Y s 1 1 1 c black 1 1 1 c
 gsave  710 567 779 603 C 790.007 1142.38 t 0 r /Helvetica-Bold findfont 28.5146 sf 0 0 m (Input variable: yy.HY_l2) show NC gr  1 0 0 c 6 lw black 3 lw 1 0 0 c 1432 685 m s 1417 685 m s 1402 685 m s 1387 685 m s 1372 685 m s 1357 685 m s 1342 685 m
 s 1327 685 m s 1323 696 m -11 -11 d s 1313 701 m -16 -16 d s 1307 710 m -25 -25 d s 1296 714 m -29 -29 d s 1290 723 m -38 -38 d s 1282 731 m -45 -46 d s 1269 733 m -1 Y s 1267 730 m -12 -12 d s 1246 709 m -25 -24 d s 1241 720 m -35 -35 d s 1240 734
 m -49 -49 d s 1228 736 m -52 -51 d s 1213 736 m -52 -51 d s 1198 737 m -52 -52 d s 1181 735 m -50 -50 d s 1173 742 m -57 -57 d s 1161 745 m -2 -2 d s 1148 733 m -47 -48 d s 1135 734 m -49 -49 d s 1132 746 m -61 -61 d s 1125 755 m -20 -21 d s 1091
 720 m -35 -35 d s 1118 763 m -13 -14 d s 1091 735 m -50 -50 d s 1106 766 m -1 -2 d s 1077 737 m -51 -52 d s 1077 752 m -67 -67 d s 1064 754 m -69 -69 d s 1064 768 m -83 -82 d s 980 685 m s 1064 784 m -14 -14 d s 1036 756 m -55 -55 d s 965 685 m s
 1056 791 m -6 -6 d s 1035 770 m -54 -54 d s 950 685 m s 1022 773 m -41 -42 d s 935 685 m s 1022 788 m -41 -41 d s 920 685 m s 1022 803 m -41 -41 d s 905 685 m s 1014 809 m -33 -32 d s 1009 820 m -28 -28 d s 995 821 m -14 -14 d s 995 836 m -14 -14 d
 s 995 851 m -14 -13 d s 995 867 m -14 -14 d s 995 882 m -14 -14 d s 995 897 m -14 -14 d s 995 912 m -14 -14 d s 995 927 m -14 -13 d s 995 942 m -14 -13 d s 995 958 m -14 -14 d s 995 973 m -14 -14 d s 995 988 m -14 -14 d s 995 1003 m -14 -14 d s 995
 1018 m -14 -13 d s 995 1034 m -14 -14 d s 995 1049 m -14 -14 d s 995 1064 m -14 -14 d s 991 1075 m -10 -10 d s 6 lw 899 685 m 82 X 390 Y 14 X -255 Y 14 X -11 Y 13 X -39 Y 14 X -14 Y 14 X 35 Y 14 X -37 Y 13 X -17 Y 14 X -17 Y 14 X 46 Y 13 X -11 Y 14
 X -21 Y 14 X -1 Y 13 X 12 Y 14 X -10 Y 14 X 2 Y 13 X -1 Y 14 X 2 Y 14 X -4 Y 13 X -25 Y 14 X 21 Y 14 X 3 Y 13 X -10 Y 14 X -13 Y 14 X -9 Y 13 X -16 Y 124 X s black 3 lw 899 685 m 548 X s 915 698 m -13 Y s 933 691 m -6 Y s 951 691 m -6 Y s 969 691 m
 -6 Y s 987 691 m -6 Y s 1005 698 m -13 Y s 1023 691 m -6 Y s 1041 691 m -6 Y s 1059 691 m -6 Y s 1077 691 m -6 Y s 1095 698 m -13 Y s 1113 691 m -6 Y s 1131 691 m -6 Y s 1149 691 m -6 Y s 1168 691 m -6 Y s 1186 698 m -13 Y s 1204 691 m -6 Y s 1222
 691 m -6 Y s 1240 691 m -6 Y s 1258 691 m -6 Y s 1276 698 m -13 Y s 1294 691 m -6 Y s 1312 691 m -6 Y s 1330 691 m -6 Y s 1348 691 m -6 Y s 1366 698 m -13 Y s 915 698 m -13 Y s 1366 698 m -13 Y s 1384 691 m -6 Y s 1402 691 m -6 Y s 1420 691 m -6 Y s
 1439 691 m -6 Y s 899 1114 m 548 X s 915 1100 m 14 Y s 933 1107 m 7 Y s 951 1107 m 7 Y s 969 1107 m 7 Y s 987 1107 m 7 Y s 1005 1100 m 14 Y s 1023 1107 m 7 Y s 1041 1107 m 7 Y s 1059 1107 m 7 Y s 1077 1107 m 7 Y s 1095 1100 m 14 Y s 1113 1107 m 7 Y
 s 1131 1107 m 7 Y s 1149 1107 m 7 Y s 1168 1107 m 7 Y s 1186 1100 m 14 Y s 1204 1107 m 7 Y s 1222 1107 m 7 Y s 1240 1107 m 7 Y s 1258 1107 m 7 Y s 1276 1100 m 14 Y s 1294 1107 m 7 Y s 1312 1107 m 7 Y s 1330 1107 m 7 Y s 1348 1107 m 7 Y s 1366 1100 m
 14 Y s 915 1100 m 14 Y s 1366 1100 m 14 Y s 1384 1107 m 7 Y s 1402 1107 m 7 Y s 1420 1107 m 7 Y s 1439 1107 m 7 Y s 899 685 m 429 Y s 915 685 m -16 X s 907 699 m -8 X s 907 712 m -8 X s 907 726 m -8 X s 915 740 m -16 X s 907 754 m -8 X s 907 768 m
 -8 X s 907 782 m -8 X s 915 796 m -16 X s 907 810 m -8 X s 907 824 m -8 X s 907 837 m -8 X s 915 851 m -16 X s 907 865 m -8 X s 907 879 m -8 X s 907 893 m -8 X s 915 907 m -16 X s 907 921 m -8 X s 907 935 m -8 X s 907 949 m -8 X s 915 963 m -16 X s
 907 976 m -8 X s 907 990 m -8 X s 907 1004 m -8 X s 915 1018 m -16 X s 907 1032 m -8 X s 907 1046 m -8 X s 907 1060 m -8 X s 915 1074 m -16 X s 915 1074 m -16 X s 907 1088 m -8 X s 907 1102 m -8 X s 1447 685 m 429 Y s 1430 685 m 17 X s 1438 699 m 9
 X s 1438 712 m 9 X s 1438 726 m 9 X s 1430 740 m 17 X s 1438 754 m 9 X s 1438 768 m 9 X s 1438 782 m 9 X s 1430 796 m 17 X s 1438 810 m 9 X s 1438 824 m 9 X s 1438 837 m 9 X s 1430 851 m 17 X s 1438 865 m 9 X s 1438 879 m 9 X s 1438 893 m 9 X s 1430
 907 m 17 X s 1438 921 m 9 X s 1438 935 m 9 X s 1438 949 m 9 X s 1430 963 m 17 X s 1438 976 m 9 X s 1438 990 m 9 X s 1438 1004 m 9 X s 1430 1018 m 17 X s 1438 1032 m 9 X s 1438 1046 m 9 X s 1438 1060 m 9 X s 1430 1074 m 17 X s 1430 1074 m 17 X s 1438
 1088 m 9 X s 1438 1102 m 9 X s
 gsave  710 567 779 603 C 1474.92 682.347 t 90 r /Helvetica-Bold findfont 19.9602 sf 0 0 m (U/O\255flow \(S,B\): \(0.0, 0.0\)% / \(0.0, 0.0\)%) show NC gr  0.490196 0.545098 0.615686 c 0.364706 0.419608 0.490196 c 332 38 786 1130 bf 0.490196 0.545098
 0.615686 c 786 1130 m 332 X s 1118 1130 m 38 Y s 1118 1168 m -332 X s 786 1168 m -38 Y s 1 1 1 c black 1 1 1 c
 gsave  710 567 779 603 C 790.007 1142.38 t 0 r /Helvetica-Bold findfont 28.5146 sf 0 0 m (Input variable: yy.HY_l2) show NC gr  0.490196 0.545098 0.615686 c 0.941176 0.941176 0.941176 c 711 567 1534 603 bf black 1 1 0.992157 c 547 429 1655 685 bf
 black 547 429 1655 685 bl 0 0 0.933333 c 6 lw 0.49 0.6 0.82 c black 3 lw 0.49 0.6 0.82 c 1655 706 m 1 Y 14 X -1 Y 96 X -1 Y 13 X 115 Y 14 X 257 Y 14 X -202 Y 13 X -16 Y 14 X -43 Y 14 X -28 Y 13 X 21 Y 14 X -21 Y 14 X -4 Y 13 X -8 Y 14 X -11 Y 14 X
 -7 Y 14 X 6 Y 13 X -49 Y 14 X 29 Y 14 X -12 Y 13 X 26 Y 14 X -24 Y 27 X -9 Y 28 X -7 Y 13 X -1 Y 14 X -1 Y 14 X -1 Y 13 X -6 Y 14 X -3 Y 68 X f 6 lw 0 0 0.933333 c 0.49 0.6 0.82 c 0 0 0.933333 c 1655 707 m 14 X -1 Y 96 X -1 Y 13 X 115 Y 14 X 257 Y
 14 X -202 Y 13 X -16 Y 14 X -43 Y 14 X -28 Y 13 X 21 Y 14 X -21 Y 14 X -4 Y 13 X -8 Y 14 X -11 Y 14 X -7 Y 14 X 6 Y 13 X -49 Y 14 X 29 Y 14 X -12 Y 13 X 26 Y 14 X -24 Y 27 X -9 Y 28 X -7 Y 13 X -1 Y 14 X -1 Y 14 X -1 Y 13 X -6 Y 14 X -3 Y 68 X s
 black 3 lw 1655 685 m 547 X s 1704 698 m -13 Y s 1724 691 m -6 Y s 1743 691 m -6 Y s 1763 691 m -6 Y s 1783 691 m -6 Y s 1803 698 m -13 Y s 1822 691 m -6 Y s 1842 691 m -6 Y s 1862 691 m -6 Y s 1882 691 m -6 Y s 1901 698 m -13 Y s 1921 691 m -6 Y s
 1941 691 m -6 Y s 1961 691 m -6 Y s 1980 691 m -6 Y s 2000 698 m -13 Y s 2020 691 m -6 Y s 2040 691 m -6 Y s 2059 691 m -6 Y s 2079 691 m -6 Y s 2099 698 m -13 Y s 2119 691 m -6 Y s 2138 691 m -6 Y s 2158 691 m -6 Y s 2178 691 m -6 Y s 2198 698 m
 -13 Y s 1704 698 m -13 Y s 1684 691 m -6 Y s 1664 691 m -6 Y s 2198 698 m -13 Y s
 gsave  711 567 1534 603 C 1690.84 656.444 t 0 r /Helvetica findfont 25.6631 sf 0 0 m (0.2) show NC gr 
 gsave  711 567 1534 603 C 1676.63 656.444 t 0 r /Symbol findfont 25.6631 sf 0 0 m (-) show NC gr 
 gsave  711 567 1534 603 C 1790.3 656.444 t 0 r /Helvetica findfont 25.6631 sf 0 0 m (0.1) show NC gr 
 gsave  711 567 1534 603 C 1778.94 656.444 t 0 r /Symbol findfont 25.6631 sf 0 0 m (-) show NC gr 
 gsave  711 567 1534 603 C 1892.61 656.444 t 0 r /Helvetica findfont 25.6631 sf 0 0 m (0) show NC gr 
 gsave  711 567 1534 603 C 1980.7 656.444 t 0 r /Helvetica findfont 25.6631 sf 0 0 m (0.1) show NC gr 
 gsave  711 567 1534 603 C 2080.16 656.444 t 0 r /Helvetica findfont 25.6631 sf 0 0 m (0.2) show NC gr 
 gsave  711 567 1534 603 C 2179.62 656.444 t 0 r /Helvetica findfont 25.6631 sf 0 0 m (0.3) show NC gr 
 gsave  711 567 1534 603 C 2091.53 616.66 t 0 r /Helvetica findfont 28.5146 sf 0 0 m (yy.HY_l3) show NC gr  1655 1114 m 547 X s 1704 1100 m 14 Y s 1724 1107 m 7 Y s 1743 1107 m 7 Y s 1763 1107 m 7 Y s 1783 1107 m 7 Y s 1803 1100 m 14 Y s 1822 1107 m
 7 Y s 1842 1107 m 7 Y s 1862 1107 m 7 Y s 1882 1107 m 7 Y s 1901 1100 m 14 Y s 1921 1107 m 7 Y s 1941 1107 m 7 Y s 1961 1107 m 7 Y s 1980 1107 m 7 Y s 2000 1100 m 14 Y s 2020 1107 m 7 Y s 2040 1107 m 7 Y s 2059 1107 m 7 Y s 2079 1107 m 7 Y s 2099
 1100 m 14 Y s 2119 1107 m 7 Y s 2138 1107 m 7 Y s 2158 1107 m 7 Y s 2178 1107 m 7 Y s 2198 1100 m 14 Y s 1704 1100 m 14 Y s 1684 1107 m 7 Y s 1664 1107 m 7 Y s 2198 1100 m 14 Y s 1655 685 m 429 Y s 1671 706 m -16 X s 1663 718 m -8 X s 1663 731 m -8
 X s 1663 743 m -8 X s 1671 755 m -16 X s 1663 767 m -8 X s 1663 779 m -8 X s 1663 792 m -8 X s 1671 804 m -16 X s 1663 816 m -8 X s 1663 828 m -8 X s 1663 840 m -8 X s 1671 853 m -16 X s 1663 865 m -8 X s 1663 877 m -8 X s 1663 889 m -8 X s 1671 902
 m -16 X s 1663 914 m -8 X s 1663 926 m -8 X s 1663 938 m -8 X s 1671 950 m -16 X s 1663 963 m -8 X s 1663 975 m -8 X s 1663 987 m -8 X s 1671 999 m -16 X s 1663 1011 m -8 X s 1663 1024 m -8 X s 1663 1036 m -8 X s 1671 1048 m -16 X s 1663 1060 m -8 X
 s 1663 1072 m -8 X s 1663 1085 m -8 X s 1671 1097 m -16 X s 1671 706 m -16 X s 1663 694 m -8 X s 1671 1097 m -16 X s 1663 1109 m -8 X s
 gsave  711 567 1534 603 C 1631.16 696.229 t 0 r /Helvetica findfont 25.6631 sf 0 0 m (0) show NC gr 
 gsave  711 567 1534 603 C 1631.16 744.539 t 0 r /Helvetica findfont 25.6631 sf 0 0 m (2) show NC gr 
 gsave  711 567 1534 603 C 1631.16 792.848 t 0 r /Helvetica findfont 25.6631 sf 0 0 m (4) show NC gr 
 gsave  711 567 1534 603 C 1631.16 844 t 0 r /Helvetica findfont 25.6631 sf 0 0 m (6) show NC gr 
 gsave  711 567 1534 603 C 1631.16 892.31 t 0 r /Helvetica findfont 25.6631 sf 0 0 m (8) show NC gr 
 gsave  711 567 1534 603 C 1616.96 940.619 t 0 r /Helvetica findfont 25.6631 sf 0 0 m (10) show NC gr 
 gsave  711 567 1534 603 C 1616.96 988.929 t 0 r /Helvetica findfont 25.6631 sf 0 0 m (12) show NC gr 
 gsave  711 567 1534 603 C 1616.96 1037.24 t 0 r /Helvetica findfont 25.6631 sf 0 0 m (14) show NC gr 
 gsave  711 567 1534 603 C 1616.96 1085.55 t 0 r /Helvetica findfont 25.6631 sf 0 0 m (16) show NC gr 
 gsave  711 567 1534 603 C 1557.28 1023.03 t 90 r /Helvetica findfont 28.5146 sf 0 0 m (0.0139 ) show NC gr 
 gsave  711 567 1534 603 C 1543.07 1020.19 t 90 r /Helvetica findfont 19.9602 sf 0 0 m ( ) show NC gr 
 gsave  711 567 1534 603 C 1557.28 1008.82 t 90 r /Helvetica findfont 28.5146 sf 0 0 m (/) show NC gr 
 gsave  711 567 1534 603 C 1565.8 1005.98 t 90 r /Helvetica findfont 19.9602 sf 0 0 m ( ) show NC gr 
 gsave  711 567 1534 603 C 1557.28 900.835 t 90 r /Helvetica findfont 28.5146 sf 0 0 m (\(1/N\) dN) show NC gr  2202 685 m 429 Y s 2186 706 m 16 X s 2194 718 m 8 X s 2194 731 m 8 X s 2194 743 m 8 X s 2186 755 m 16 X s 2194 767 m 8 X s 2194 779 m 8 X
 s 2194 792 m 8 X s 2186 804 m 16 X s 2194 816 m 8 X s 2194 828 m 8 X s 2194 840 m 8 X s 2186 853 m 16 X s 2194 865 m 8 X s 2194 877 m 8 X s 2194 889 m 8 X s 2186 902 m 16 X s 2194 914 m 8 X s 2194 926 m 8 X s 2194 938 m 8 X s 2186 950 m 16 X s 2194
 963 m 8 X s 2194 975 m 8 X s 2194 987 m 8 X s 2186 999 m 16 X s 2194 1011 m 8 X s 2194 1024 m 8 X s 2194 1036 m 8 X s 2186 1048 m 16 X s 2194 1060 m 8 X s 2194 1072 m 8 X s 2194 1085 m 8 X s 2186 1097 m 16 X s 2186 706 m 16 X s 2194 694 m 8 X s 2186
 1097 m 16 X s 2194 1109 m 8 X s 0.490196 0.545098 0.615686 c 0.364706 0.419608 0.490196 c 332 38 1542 1130 bf 0.490196 0.545098 0.615686 c 1542 1130 m 332 X s 1874 1130 m 38 Y s 1874 1168 m -332 X s 1542 1168 m -38 Y s 1 1 1 c black 1 1 1 c
 gsave  711 567 1534 603 C 1545.91 1142.38 t 0 r /Helvetica-Bold findfont 28.5146 sf 0 0 m (Input variable: yy.HY_l3) show NC gr  1 0 0 c 6 lw black 3 lw 1 0 0 c 2195 706 m s 2180 706 m s 2165 706 m s 2150 706 m s 2134 706 m s 2120 707 m -1 -1 d s
 2105 707 m -1 -1 d s 2089 706 m s 2075 707 m -1 -1 d s 2060 707 m -1 -1 d s 2046 708 m -2 -2 d s 2036 714 m -7 -8 d s 2025 717 m -11 -11 d s 2025 732 m -26 -26 d s 2025 747 m -41 -41 d s 2025 763 m -56 -57 d s 2015 769 m -61 -63 d s 2011 779 m -73
 -73 d s 2011 794 m -88 -88 d s 2011 810 m -103 -104 d s 2011 825 m -14 -14 d s 1989 802 m -5 -5 d s 1970 783 m -77 -77 d s 2011 840 m -14 -14 d s 1959 788 m -81 -82 d s 2011 855 m -14 -14 d s 1942 785 m -13 -13 d s 1928 772 m -65 -66 d s 2011 870 m
 -14 -14 d s 1909 768 m -61 -62 d s 2011 885 m -14 -13 d s 1901 775 m -68 -69 d s 2011 901 m -14 -14 d s 1901 790 m -83 -84 d s 2011 916 m -14 -14 d s 1890 794 m -2 -2 d s 1885 789 m -11 -11 d s 1864 768 m -4 -4 d s 1856 760 m -53 -54 d s 2011 931 m
 -14 -14 d s 1847 766 m -59 -60 d s 1847 781 m -74 -75 d s 1847 796 m -69 -69 d s 1769 717 m -11 -11 d s 1840 805 m -62 -63 d s 1765 728 m -22 -22 d s 1833 812 m -14 -13 d s 1815 794 m -37 -37 d s 1751 730 m -14 -14 d s 1737 716 m -10 -10 d s 1806
 800 m -14 -14 d s 1791 786 m -13 -13 d s 1724 718 m -12 -12 d s 1806 815 m -14 -13 d s 1720 729 m -23 -23 d s 1806 831 m -14 -14 d s 1701 725 m -5 -5 d s 1690 714 m -8 -8 d s 1794 834 m -2 -2 d s 1675 714 m -8 -8 d s 1661 715 m -6 -6 d s 6 lw 1655
 715 m 14 X -1 Y 27 X 11 Y 14 X 4 Y 14 X -13 Y 13 X 14 Y 14 X -2 Y 14 X -11 Y 13 X 69 Y 14 X 48 Y 14 X -40 Y 13 X 18 Y 14 X -7 Y 14 X -45 Y 13 X 8 Y 14 X 21 Y 14 X 5 Y 13 X -26 Y 14 X 4 Y 14 X 13 Y 14 X 1 Y 13 X 2 Y 14 X -5 Y 14 X 19 Y 13 X 130 Y 14
 X -163 Y 14 X -55 Y 13 X -6 Y 14 X -1 Y 27 X -1 Y 14 X 1 Y 27 X -1 Y 82 X s black 3 lw 1655 685 m 547 X s 1704 698 m -13 Y s 1724 691 m -6 Y s 1743 691 m -6 Y s 1763 691 m -6 Y s 1783 691 m -6 Y s 1803 698 m -13 Y s 1822 691 m -6 Y s 1842 691 m -6 Y
 s 1862 691 m -6 Y s 1882 691 m -6 Y s 1901 698 m -13 Y s 1921 691 m -6 Y s 1941 691 m -6 Y s 1961 691 m -6 Y s 1980 691 m -6 Y s 2000 698 m -13 Y s 2020 691 m -6 Y s 2040 691 m -6 Y s 2059 691 m -6 Y s 2079 691 m -6 Y s 2099 698 m -13 Y s 2119 691 m
 -6 Y s 2138 691 m -6 Y s 2158 691 m -6 Y s 2178 691 m -6 Y s 2198 698 m -13 Y s 1704 698 m -13 Y s 1684 691 m -6 Y s 1664 691 m -6 Y s 2198 698 m -13 Y s 1655 1114 m 547 X s 1704 1100 m 14 Y s 1724 1107 m 7 Y s 1743 1107 m 7 Y s 1763 1107 m 7 Y s
 1783 1107 m 7 Y s 1803 1100 m 14 Y s 1822 1107 m 7 Y s 1842 1107 m 7 Y s 1862 1107 m 7 Y s 1882 1107 m 7 Y s 1901 1100 m 14 Y s 1921 1107 m 7 Y s 1941 1107 m 7 Y s 1961 1107 m 7 Y s 1980 1107 m 7 Y s 2000 1100 m 14 Y s 2020 1107 m 7 Y s 2040 1107 m
 7 Y s 2059 1107 m 7 Y s 2079 1107 m 7 Y s 2099 1100 m 14 Y s 2119 1107 m 7 Y s 2138 1107 m 7 Y s 2158 1107 m 7 Y s 2178 1107 m 7 Y s 2198 1100 m 14 Y s 1704 1100 m 14 Y s 1684 1107 m 7 Y s 1664 1107 m 7 Y s 2198 1100 m 14 Y s 1655 685 m 429 Y s 1671
 706 m -16 X s 1663 718 m -8 X s 1663 731 m -8 X s 1663 743 m -8 X s 1671 755 m -16 X s 1663 767 m -8 X s 1663 779 m -8 X s 1663 792 m -8 X s 1671 804 m -16 X s 1663 816 m -8 X s 1663 828 m -8 X s 1663 840 m -8 X s 1671 853 m -16 X s 1663 865 m -8 X
 s 1663 877 m -8 X s 1663 889 m -8 X s 1671 902 m -16 X s 1663 914 m -8 X s 1663 926 m -8 X s 1663 938 m -8 X s 1671 950 m -16 X s 1663 963 m -8 X s 1663 975 m -8 X s 1663 987 m -8 X s 1671 999 m -16 X s 1663 1011 m -8 X s 1663 1024 m -8 X s 1663
 1036 m -8 X s 1671 1048 m -16 X s 1663 1060 m -8 X s 1663 1072 m -8 X s 1663 1085 m -8 X s 1671 1097 m -16 X s 1671 706 m -16 X s 1663 694 m -8 X s 1671 1097 m -16 X s 1663 1109 m -8 X s 2202 685 m 429 Y s 2186 706 m 16 X s 2194 718 m 8 X s 2194 731
 m 8 X s 2194 743 m 8 X s 2186 755 m 16 X s 2194 767 m 8 X s 2194 779 m 8 X s 2194 792 m 8 X s 2186 804 m 16 X s 2194 816 m 8 X s 2194 828 m 8 X s 2194 840 m 8 X s 2186 853 m 16 X s 2194 865 m 8 X s 2194 877 m 8 X s 2194 889 m 8 X s 2186 902 m 16 X s
 2194 914 m 8 X s 2194 926 m 8 X s 2194 938 m 8 X s 2186 950 m 16 X s 2194 963 m 8 X s 2194 975 m 8 X s 2194 987 m 8 X s 2186 999 m 16 X s 2194 1011 m 8 X s 2194 1024 m 8 X s 2194 1036 m 8 X s 2186 1048 m 16 X s 2194 1060 m 8 X s 2194 1072 m 8 X s
 2194 1085 m 8 X s 2186 1097 m 16 X s 2186 706 m 16 X s 2194 694 m 8 X s 2186 1097 m 16 X s 2194 1109 m 8 X s
 gsave  711 567 1534 603 C 2230.83 682.347 t 90 r /Helvetica-Bold findfont 19.9602 sf 0 0 m (U/O\255flow \(S,B\): \(0.0, 0.0\)% / \(0.0, 0.0\)%) show NC gr  0.490196 0.545098 0.615686 c 0.364706 0.419608 0.490196 c 332 38 1542 1130 bf 0.490196
 0.545098 0.615686 c 1542 1130 m 332 X s 1874 1130 m 38 Y s 1874 1168 m -332 X s 1542 1168 m -38 Y s 1 1 1 c black 1 1 1 c
 gsave  711 567 1534 603 C 1545.91 1142.38 t 0 r /Helvetica-Bold findfont 28.5146 sf 0 0 m (Input variable: yy.HY_l3) show NC gr  0.490196 0.545098 0.615686 c 0.941176 0.941176 0.941176 c 710 567 23 12 bf black 1 1 0.992157 c 548 429 143 94 bf black
 548 429 143 94 bl 0 0 0.933333 c 6 lw 0.49 0.6 0.82 c black 3 lw 0.49 0.6 0.82 c 143 94 m 83 X 390 Y 13 X -154 Y 14 X -49 Y 14 X -70 Y 13 X -3 Y 14 X -44 Y 14 X 29 Y 13 X -1 Y 14 X -14 Y 14 X 7 Y 13 X -3 Y 14 X -37 Y 14 X 9 Y 13 X 2 Y 14 X 10 Y 14 X
 27 Y 13 X -77 Y 14 X 81 Y 14 X 77 Y 13 X -171 Y 14 X 10 Y 14 X -12 Y 27 X 4 Y 14 X -8 Y 13 X 5 Y 14 X -2 Y 14 X -1 Y 14 X -1 Y 13 X -2 Y 14 X -1 Y 27 X -1 Y 28 X f 6 lw 0 0 0.933333 c 0.49 0.6 0.82 c 0 0 0.933333 c 143 94 m 83 X 390 Y 13 X -154 Y 14
 X -49 Y 14 X -70 Y 13 X -3 Y 14 X -44 Y 14 X 29 Y 13 X -1 Y 14 X -14 Y 14 X 7 Y 13 X -3 Y 14 X -37 Y 14 X 9 Y 13 X 2 Y 14 X 10 Y 14 X 27 Y 13 X -77 Y 14 X 81 Y 14 X 77 Y 13 X -171 Y 14 X 10 Y 14 X -12 Y 27 X 4 Y 14 X -8 Y 13 X 5 Y 14 X -2 Y 14 X -1
 Y 14 X -1 Y 13 X -2 Y 14 X -1 Y 27 X -1 Y 28 X s black 3 lw 143 94 m 548 X s 175 107 m -13 Y s 188 100 m -6 Y s 200 100 m -6 Y s 213 100 m -6 Y s 226 100 m -6 Y s 238 107 m -13 Y s 251 100 m -6 Y s 263 100 m -6 Y s 276 100 m -6 Y s 289 100 m -6 Y s
 301 107 m -13 Y s 314 100 m -6 Y s 326 100 m -6 Y s 339 100 m -6 Y s 352 100 m -6 Y s 364 107 m -13 Y s 377 100 m -6 Y s 389 100 m -6 Y s 402 100 m -6 Y s 415 100 m -6 Y s 427 107 m -13 Y s 440 100 m -6 Y s 452 100 m -6 Y s 465 100 m -6 Y s 477 100
 m -6 Y s 490 107 m -13 Y s 503 100 m -6 Y s 515 100 m -6 Y s 528 100 m -6 Y s 540 100 m -6 Y s 553 107 m -13 Y s 566 100 m -6 Y s 578 100 m -6 Y s 591 100 m -6 Y s 603 100 m -6 Y s 616 107 m -13 Y s 629 100 m -6 Y s 641 100 m -6 Y s 654 100 m -6 Y s
 666 100 m -6 Y s 679 107 m -13 Y s 175 107 m -13 Y s 163 100 m -6 Y s 150 100 m -6 Y s 679 107 m -13 Y s
 gsave  710 567 23 12 C 153.454 65.3603 t 0 r /Helvetica findfont 25.6631 sf 0 0 m (0.15) show NC gr 
 gsave  710 567 23 12 C 142.088 65.3603 t 0 r /Symbol findfont 25.6631 sf 0 0 m (-) show NC gr 
 gsave  710 567 23 12 C 224.498 65.3603 t 0 r /Helvetica findfont 25.6631 sf 0 0 m (0.1) show NC gr 
 gsave  710 567 23 12 C 213.131 65.3603 t 0 r /Symbol findfont 25.6631 sf 0 0 m (-) show NC gr 
 gsave  710 567 23 12 C 278.492 65.3603 t 0 r /Helvetica findfont 25.6631 sf 0 0 m (0.05) show NC gr 
 gsave  710 567 23 12 C 267.125 65.3603 t 0 r /Symbol findfont 25.6631 sf 0 0 m (-) show NC gr 
 gsave  710 567 23 12 C 355.219 65.3603 t 0 r /Helvetica findfont 25.6631 sf 0 0 m (0) show NC gr 
 gsave  710 567 23 12 C 400.687 65.3603 t 0 r /Helvetica findfont 25.6631 sf 0 0 m (0.05) show NC gr 
 gsave  710 567 23 12 C 471.73 65.3603 t 0 r /Helvetica findfont 25.6631 sf 0 0 m (0.1) show NC gr 
 gsave  710 567 23 12 C 525.724 65.3603 t 0 r /Helvetica findfont 25.6631 sf 0 0 m (0.15) show NC gr 
 gsave  710 567 23 12 C 596.768 65.3603 t 0 r /Helvetica findfont 25.6631 sf 0 0 m (0.2) show NC gr 
 gsave  710 567 23 12 C 650.761 65.3603 t 0 r /Helvetica findfont 25.6631 sf 0 0 m (0.25) show NC gr 
 gsave  710 567 23 12 C 579.717 25.5758 t 0 r /Helvetica findfont 28.5146 sf 0 0 m (yy.HY_l4) show NC gr  143 523 m 548 X s 175 509 m 14 Y s 188 516 m 7 Y s 200 516 m 7 Y s 213 516 m 7 Y s 226 516 m 7 Y s 238 509 m 14 Y s 251 516 m 7 Y s 263 516 m 7
 Y s 276 516 m 7 Y s 289 516 m 7 Y s 301 509 m 14 Y s 314 516 m 7 Y s 326 516 m 7 Y s 339 516 m 7 Y s 352 516 m 7 Y s 364 509 m 14 Y s 377 516 m 7 Y s 389 516 m 7 Y s 402 516 m 7 Y s 415 516 m 7 Y s 427 509 m 14 Y s 440 516 m 7 Y s 452 516 m 7 Y s
 465 516 m 7 Y s 477 516 m 7 Y s 490 509 m 14 Y s 503 516 m 7 Y s 515 516 m 7 Y s 528 516 m 7 Y s 540 516 m 7 Y s 553 509 m 14 Y s 566 516 m 7 Y s 578 516 m 7 Y s 591 516 m 7 Y s 603 516 m 7 Y s 616 509 m 14 Y s 629 516 m 7 Y s 641 516 m 7 Y s 654
 516 m 7 Y s 666 516 m 7 Y s 679 509 m 14 Y s 175 509 m 14 Y s 163 516 m 7 Y s 150 516 m 7 Y s 679 509 m 14 Y s 143 94 m 429 Y s 160 94 m -17 X s 152 106 m -9 X s 152 119 m -9 X s 152 131 m -9 X s 160 144 m -17 X s 152 157 m -9 X s 152 169 m -9 X s
 152 182 m -9 X s 160 194 m -17 X s 152 207 m -9 X s 152 219 m -9 X s 152 232 m -9 X s 160 245 m -17 X s 152 257 m -9 X s 152 270 m -9 X s 152 282 m -9 X s 160 295 m -17 X s 152 308 m -9 X s 152 320 m -9 X s 152 333 m -9 X s 160 345 m -17 X s 152 358
 m -9 X s 152 371 m -9 X s 152 383 m -9 X s 160 396 m -17 X s 152 408 m -9 X s 152 421 m -9 X s 152 434 m -9 X s 160 446 m -17 X s 152 459 m -9 X s 152 471 m -9 X s 152 484 m -9 X s 160 497 m -17 X s 160 497 m -17 X s 152 509 m -9 X s 152 522 m -9 X
 s
 gsave  710 567 23 12 C 119.354 82.4108 t 0 r /Helvetica findfont 25.6631 sf 0 0 m (0) show NC gr 
 gsave  710 567 23 12 C 119.354 133.562 t 0 r /Helvetica findfont 25.6631 sf 0 0 m (2) show NC gr 
 gsave  710 567 23 12 C 119.354 184.714 t 0 r /Helvetica findfont 25.6631 sf 0 0 m (4) show NC gr 
 gsave  710 567 23 12 C 119.354 235.865 t 0 r /Helvetica findfont 25.6631 sf 0 0 m (6) show NC gr 
 gsave  710 567 23 12 C 119.354 284.175 t 0 r /Helvetica findfont 25.6631 sf 0 0 m (8) show NC gr 
 gsave  710 567 23 12 C 105.145 335.327 t 0 r /Helvetica findfont 25.6631 sf 0 0 m (10) show NC gr 
 gsave  710 567 23 12 C 105.145 386.478 t 0 r /Helvetica findfont 25.6631 sf 0 0 m (12) show NC gr 
 gsave  710 567 23 12 C 105.145 434.788 t 0 r /Helvetica findfont 25.6631 sf 0 0 m (14) show NC gr 
 gsave  710 567 23 12 C 105.145 485.939 t 0 r /Helvetica findfont 25.6631 sf 0 0 m (16) show NC gr 
 gsave  710 567 23 12 C 45.468 431.946 t 90 r /Helvetica findfont 28.5146 sf 0 0 m (0.0109 ) show NC gr 
 gsave  710 567 23 12 C 31.2593 429.104 t 90 r /Helvetica findfont 19.9602 sf 0 0 m ( ) show NC gr 
 gsave  710 567 23 12 C 45.468 417.737 t 90 r /Helvetica findfont 28.5146 sf 0 0 m (/) show NC gr 
 gsave  710 567 23 12 C 53.9933 414.896 t 90 r /Helvetica findfont 19.9602 sf 0 0 m ( ) show NC gr 
 gsave  710 567 23 12 C 45.468 309.751 t 90 r /Helvetica findfont 28.5146 sf 0 0 m (\(1/N\) dN) show NC gr  691 94 m 429 Y s 674 94 m 17 X s 683 106 m 8 X s 683 119 m 8 X s 683 131 m 8 X s 674 144 m 17 X s 683 157 m 8 X s 683 169 m 8 X s 683 182 m 8
 X s 674 194 m 17 X s 683 207 m 8 X s 683 219 m 8 X s 683 232 m 8 X s 674 245 m 17 X s 683 257 m 8 X s 683 270 m 8 X s 683 282 m 8 X s 674 295 m 17 X s 683 308 m 8 X s 683 320 m 8 X s 683 333 m 8 X s 674 345 m 17 X s 683 358 m 8 X s 683 371 m 8 X s
 683 383 m 8 X s 674 396 m 17 X s 683 408 m 8 X s 683 421 m 8 X s 683 434 m 8 X s 674 446 m 17 X s 683 459 m 8 X s 683 471 m 8 X s 683 484 m 8 X s 674 497 m 17 X s 674 497 m 17 X s 683 509 m 8 X s 683 522 m 8 X s 0.490196 0.545098 0.615686 c 0.364706
 0.419608 0.490196 c 335 37 30 539 bf 0.490196 0.545098 0.615686 c 30 539 m 335 X s 365 539 m 37 Y s 365 576 m -335 X s 30 576 m -37 Y s 1 1 1 c black 1 1 1 c
 gsave  710 567 23 12 C 34.101 551.299 t 0 r /Helvetica-Bold findfont 28.5146 sf 0 0 m (Input variable: yy.HY_l4) show NC gr  1 0 0 c 6 lw black 3 lw 1 0 0 c 677 94 m s 670 102 m -7 -7 d s 662 94 m s 650 97 m -4 -3 d s 638 100 m -7 -6 d s 622 99 m -6
 -5 d s 609 102 m -1 Y s 604 97 m -3 -3 d s 595 102 m -9 -8 d s 584 106 m -13 -12 d s 567 105 m -11 -11 d s 562 114 m -8 -7 d s 554 106 m -13 -12 d s 535 103 m -9 -9 d s 518 101 m -7 -7 d s 513 111 m -17 -17 d s 509 122 m -10 -10 d s 485 98 m -4 -4 d
 s 485 114 m -19 -20 d s 485 129 m -35 -35 d s 485 144 m -50 -50 d s 485 159 m -65 -65 d s 485 174 m -80 -80 d s 485 189 m -95 -95 d s 485 205 m -110 -111 d s 485 220 m -13 -14 d s 467 201 m -50 -50 d s 413 147 m -53 -53 d s 485 235 m -13 -14 d s 458
 207 m -14 -13 d s 439 189 m -22 -23 d s 393 142 m -48 -48 d s 485 250 m -13 -14 d s 458 223 m -14 -14 d s 418 182 m -1 -1 d s 390 154 m -60 -60 d s 485 265 m -13 -13 d s 386 165 m -71 -71 d s 485 281 m -13 -14 d s 376 170 m -14 -13 d s 356 150 m -56
 -56 d s 485 296 m -13 -14 d s 376 186 m -14 -14 d s 349 158 m -64 -64 d s 485 311 m -13 -14 d s 368 192 m -6 -5 d s 349 173 m -79 -79 d s 485 326 m -13 -14 d s 341 180 m -6 -5 d s 326 166 m -71 -72 d s 485 341 m -13 -13 d s 321 176 m -82 -82 d s 485
 356 m -13 -13 d s 320 190 m -12 -13 d s 303 173 m -77 -78 d s 224 94 m s 478 364 m -6 -6 d s 294 179 m -68 -69 d s 209 94 m s 294 194 m -68 -69 d s 194 94 m s 294 209 m -14 -14 d s 274 189 m -48 -49 d s 179 94 m cl s 294 224 m -14 -13 d s 267 197 m
 -41 -42 d s 164 94 m cl s 289 235 m -9 -9 d s 265 211 m -39 -40 d s 149 94 m s 253 213 m -27 -27 d s 253 229 m -27 -28 d s 253 244 m -27 -28 d s 249 255 m -23 -24 d s 239 260 m -13 -13 d s 239 275 m -13 -13 d s 239 291 m -13 -14 d s 239 306 m -13
 -14 d s 239 321 m -13 -14 d s 239 336 m -13 -14 d s 239 351 m -13 -13 d s 239 367 m -13 -14 d s 239 382 m -13 -14 d s 239 397 m -13 -14 d s 229 402 m -3 -4 d s 6 lw 143 94 m 83 X 308 Y 13 X -147 Y 14 X -44 Y 14 X -22 Y 13 X 46 Y 14 X -62 Y 14 X 17 Y
 13 X -24 Y 14 X 14 Y 14 X -30 Y 13 X 42 Y 14 X -27 Y 14 X -23 Y 13 X 5 Y 14 X 35 Y 14 X 7 Y 13 X 34 Y 14 X -22 Y 14 X 163 Y 13 X -266 Y 14 X 24 Y 14 X -21 Y 13 X 2 Y 14 X 3 Y 14 X 8 Y 13 X -10 Y 14 X 2 Y 14 X -9 Y 14 X 5 Y 13 X -3 Y 14 X 1 Y 14 X -6
 Y 13 X 8 Y 14 X -8 Y 14 X s black 3 lw 143 94 m 548 X s 175 107 m -13 Y s 188 100 m -6 Y s 200 100 m -6 Y s 213 100 m -6 Y s 226 100 m -6 Y s 238 107 m -13 Y s 251 100 m -6 Y s 263 100 m -6 Y s 276 100 m -6 Y s 289 100 m -6 Y s 301 107 m -13 Y s 314
 100 m -6 Y s 326 100 m -6 Y s 339 100 m -6 Y s 352 100 m -6 Y s 364 107 m -13 Y s 377 100 m -6 Y s 389 100 m -6 Y s 402 100 m -6 Y s 415 100 m -6 Y s 427 107 m -13 Y s 440 100 m -6 Y s 452 100 m -6 Y s 465 100 m -6 Y s 477 100 m -6 Y s 490 107 m -13
 Y s 503 100 m -6 Y s 515 100 m -6 Y s 528 100 m -6 Y s 540 100 m -6 Y s 553 107 m -13 Y s 566 100 m -6 Y s 578 100 m -6 Y s 591 100 m -6 Y s 603 100 m -6 Y s 616 107 m -13 Y s 629 100 m -6 Y s 641 100 m -6 Y s 654 100 m -6 Y s 666 100 m -6 Y s 679
 107 m -13 Y s 175 107 m -13 Y s 163 100 m -6 Y s 150 100 m -6 Y s 679 107 m -13 Y s 143 523 m 548 X s 175 509 m 14 Y s 188 516 m 7 Y s 200 516 m 7 Y s 213 516 m 7 Y s 226 516 m 7 Y s 238 509 m 14 Y s 251 516 m 7 Y s 263 516 m 7 Y s 276 516 m 7 Y s
 289 516 m 7 Y s 301 509 m 14 Y s 314 516 m 7 Y s 326 516 m 7 Y s 339 516 m 7 Y s 352 516 m 7 Y s 364 509 m 14 Y s 377 516 m 7 Y s 389 516 m 7 Y s 402 516 m 7 Y s 415 516 m 7 Y s 427 509 m 14 Y s 440 516 m 7 Y s 452 516 m 7 Y s 465 516 m 7 Y s 477
 516 m 7 Y s 490 509 m 14 Y s 503 516 m 7 Y s 515 516 m 7 Y s 528 516 m 7 Y s 540 516 m 7 Y s 553 509 m 14 Y s 566 516 m 7 Y s 578 516 m 7 Y s 591 516 m 7 Y s 603 516 m 7 Y s 616 509 m 14 Y s 629 516 m 7 Y s 641 516 m 7 Y s 654 516 m 7 Y s 666 516 m
 7 Y s 679 509 m 14 Y s 175 509 m 14 Y s 163 516 m 7 Y s 150 516 m 7 Y s 679 509 m 14 Y s 143 94 m 429 Y s 160 94 m -17 X s 152 106 m -9 X s 152 119 m -9 X s 152 131 m -9 X s 160 144 m -17 X s 152 157 m -9 X s 152 169 m -9 X s 152 182 m -9 X s 160
 194 m -17 X s 152 207 m -9 X s 152 219 m -9 X s 152 232 m -9 X s 160 245 m -17 X s 152 257 m -9 X s 152 270 m -9 X s 152 282 m -9 X s 160 295 m -17 X s 152 308 m -9 X s 152 320 m -9 X s 152 333 m -9 X s 160 345 m -17 X s 152 358 m -9 X s 152 371 m
 -9 X s 152 383 m -9 X s 160 396 m -17 X s 152 408 m -9 X s 152 421 m -9 X s 152 434 m -9 X s 160 446 m -17 X s 152 459 m -9 X s 152 471 m -9 X s 152 484 m -9 X s 160 497 m -17 X s 160 497 m -17 X s 152 509 m -9 X s 152 522 m -9 X s 691 94 m 429 Y s
 674 94 m 17 X s 683 106 m 8 X s 683 119 m 8 X s 683 131 m 8 X s 674 144 m 17 X s 683 157 m 8 X s 683 169 m 8 X s 683 182 m 8 X s 674 194 m 17 X s 683 207 m 8 X s 683 219 m 8 X s 683 232 m 8 X s 674 245 m 17 X s 683 257 m 8 X s 683 270 m 8 X s 683
 282 m 8 X s 674 295 m 17 X s 683 308 m 8 X s 683 320 m 8 X s 683 333 m 8 X s 674 345 m 17 X s 683 358 m 8 X s 683 371 m 8 X s 683 383 m 8 X s 674 396 m 17 X s 683 408 m 8 X s 683 421 m 8 X s 683 434 m 8 X s 674 446 m 17 X s 683 459 m 8 X s 683 471 m
 8 X s 683 484 m 8 X s 674 497 m 17 X s 674 497 m 17 X s 683 509 m 8 X s 683 522 m 8 X s
 gsave  710 567 23 12 C 719.017 91.2634 t 90 r /Helvetica-Bold findfont 19.9602 sf 0 0 m (U/O\255flow \(S,B\): \(0.0, 0.0\)% / \(0.0, 0.0\)%) show NC gr  0.490196 0.545098 0.615686 c 0.364706 0.419608 0.490196 c 335 37 30 539 bf 0.490196 0.545098
 0.615686 c 30 539 m 335 X s 365 539 m 37 Y s 365 576 m -335 X s 30 576 m -37 Y s 1 1 1 c black 1 1 1 c
 gsave  710 567 23 12 C 34.101 551.299 t 0 r /Helvetica-Bold findfont 28.5146 sf 0 0 m (Input variable: yy.HY_l4) show NC gr  0.490196 0.545098 0.615686 c 0.941176 0.941176 0.941176 c 710 567 779 12 bf black 1 1 0.992157 c 548 429 899 94 bf black 548
 429 899 94 bl 0 0 0.933333 c 6 lw 0.49 0.6 0.82 c black 3 lw 0.49 0.6 0.82 c 899 114 m 28 X 1 Y 13 X -1 Y 110 X 274 Y 14 X -94 Y 13 X -6 Y 14 X -78 Y 14 X 9 Y 13 X -12 Y 14 X 5 Y 14 X 10 Y 13 X 13 Y 14 X -17 Y 14 X -8 Y 13 X -3 Y 14 X 9 Y 14 X 29 Y
 13 X 24 Y 14 X 216 Y 14 X -359 Y 27 X -9 Y 14 X 4 Y 13 X -1 Y 28 X -1 Y 13 X -3 Y 28 X -1 Y 13 X -1 Y 42 X f 6 lw 0 0 0.933333 c 0.49 0.6 0.82 c 0 0 0.933333 c 899 114 m 28 X 1 Y 13 X -1 Y 110 X 274 Y 14 X -94 Y 13 X -6 Y 14 X -78 Y 14 X 9 Y 13 X
 -12 Y 14 X 5 Y 14 X 10 Y 13 X 13 Y 14 X -17 Y 14 X -8 Y 13 X -3 Y 14 X 9 Y 14 X 29 Y 13 X 24 Y 14 X 216 Y 14 X -359 Y 27 X -9 Y 14 X 4 Y 13 X -1 Y 28 X -1 Y 13 X -3 Y 28 X -1 Y 13 X -1 Y 42 X s black 3 lw 899 94 m 548 X s 952 107 m -13 Y s 963 100 m
 -6 Y s 974 100 m -6 Y s 985 100 m -6 Y s 996 100 m -6 Y s 1007 107 m -13 Y s 1018 100 m -6 Y s 1029 100 m -6 Y s 1040 100 m -6 Y s 1051 100 m -6 Y s 1062 107 m -13 Y s 1073 100 m -6 Y s 1084 100 m -6 Y s 1095 100 m -6 Y s 1106 100 m -6 Y s 1117 107
 m -13 Y s 1128 100 m -6 Y s 1139 100 m -6 Y s 1151 100 m -6 Y s 1162 100 m -6 Y s 1173 107 m -13 Y s 1184 100 m -6 Y s 1195 100 m -6 Y s 1206 100 m -6 Y s 1217 100 m -6 Y s 1228 107 m -13 Y s 1239 100 m -6 Y s 1250 100 m -6 Y s 1261 100 m -6 Y s
 1272 100 m -6 Y s 1283 107 m -13 Y s 1294 100 m -6 Y s 1305 100 m -6 Y s 1316 100 m -6 Y s 1327 100 m -6 Y s 1338 107 m -13 Y s 1349 100 m -6 Y s 1360 100 m -6 Y s 1371 100 m -6 Y s 1382 100 m -6 Y s 1393 107 m -13 Y s 952 107 m -13 Y s 941 100 m -6
 Y s 930 100 m -6 Y s 919 100 m -6 Y s 908 100 m -6 Y s 1393 107 m -13 Y s 1404 100 m -6 Y s 1415 100 m -6 Y s 1426 100 m -6 Y s 1437 100 m -6 Y s
 gsave  710 567 779 12 C 940.619 65.3603 t 0 r /Helvetica findfont 25.6631 sf 0 0 m (0.2) show NC gr 
 gsave  710 567 779 12 C 926.411 65.3603 t 0 r /Symbol findfont 25.6631 sf 0 0 m (-) show NC gr 
 gsave  710 567 779 12 C 986.087 65.3603 t 0 r /Helvetica findfont 25.6631 sf 0 0 m (0.15) show NC gr 
 gsave  710 567 779 12 C 974.72 65.3603 t 0 r /Symbol findfont 25.6631 sf 0 0 m (-) show NC gr 
 gsave  710 567 779 12 C 1048.61 65.3603 t 0 r /Helvetica findfont 25.6631 sf 0 0 m (0.1) show NC gr 
 gsave  710 567 779 12 C 1037.24 65.3603 t 0 r /Symbol findfont 25.6631 sf 0 0 m (-) show NC gr 
 gsave  710 567 779 12 C 1096.92 65.3603 t 0 r /Helvetica findfont 25.6631 sf 0 0 m (0.05) show NC gr 
 gsave  710 567 779 12 C 1085.55 65.3603 t 0 r /Symbol findfont 25.6631 sf 0 0 m (-) show NC gr 
 gsave  710 567 779 12 C 1162.28 65.3603 t 0 r /Helvetica findfont 25.6631 sf 0 0 m (0) show NC gr 
 gsave  710 567 779 12 C 1199.22 65.3603 t 0 r /Helvetica findfont 25.6631 sf 0 0 m (0.05) show NC gr 
 gsave  710 567 779 12 C 1264.58 65.3603 t 0 r /Helvetica findfont 25.6631 sf 0 0 m (0.1) show NC gr 
 gsave  710 567 779 12 C 1310.05 65.3603 t 0 r /Helvetica findfont 25.6631 sf 0 0 m (0.15) show NC gr 
 gsave  710 567 779 12 C 1375.41 65.3603 t 0 r /Helvetica findfont 25.6631 sf 0 0 m (0.2) show NC gr 
 gsave  710 567 779 12 C 1335.62 25.5758 t 0 r /Helvetica findfont 28.5146 sf 0 0 m (yy.HY_l5) show NC gr  899 523 m 548 X s 952 509 m 14 Y s 963 516 m 7 Y s 974 516 m 7 Y s 985 516 m 7 Y s 996 516 m 7 Y s 1007 509 m 14 Y s 1018 516 m 7 Y s 1029 516
 m 7 Y s 1040 516 m 7 Y s 1051 516 m 7 Y s 1062 509 m 14 Y s 1073 516 m 7 Y s 1084 516 m 7 Y s 1095 516 m 7 Y s 1106 516 m 7 Y s 1117 509 m 14 Y s 1128 516 m 7 Y s 1139 516 m 7 Y s 1151 516 m 7 Y s 1162 516 m 7 Y s 1173 509 m 14 Y s 1184 516 m 7 Y s
 1195 516 m 7 Y s 1206 516 m 7 Y s 1217 516 m 7 Y s 1228 509 m 14 Y s 1239 516 m 7 Y s 1250 516 m 7 Y s 1261 516 m 7 Y s 1272 516 m 7 Y s 1283 509 m 14 Y s 1294 516 m 7 Y s 1305 516 m 7 Y s 1316 516 m 7 Y s 1327 516 m 7 Y s 1338 509 m 14 Y s 1349 516
 m 7 Y s 1360 516 m 7 Y s 1371 516 m 7 Y s 1382 516 m 7 Y s 1393 509 m 14 Y s 952 509 m 14 Y s 941 516 m 7 Y s 930 516 m 7 Y s 919 516 m 7 Y s 908 516 m 7 Y s 1393 509 m 14 Y s 1404 516 m 7 Y s 1415 516 m 7 Y s 1426 516 m 7 Y s 1437 516 m 7 Y s 899
 94 m 429 Y s 915 114 m -16 X s 907 129 m -8 X s 907 143 m -8 X s 907 158 m -8 X s 915 173 m -16 X s 907 187 m -8 X s 907 202 m -8 X s 907 217 m -8 X s 915 231 m -16 X s 907 246 m -8 X s 907 260 m -8 X s 907 275 m -8 X s 915 290 m -16 X s 907 304 m
 -8 X s 907 319 m -8 X s 907 334 m -8 X s 915 348 m -16 X s 907 363 m -8 X s 907 378 m -8 X s 907 392 m -8 X s 915 407 m -16 X s 907 422 m -8 X s 907 436 m -8 X s 907 451 m -8 X s 915 466 m -16 X s 915 114 m -16 X s 907 99 m -8 X s 915 466 m -16 X s
 907 480 m -8 X s 907 495 m -8 X s 907 509 m -8 X s
 gsave  710 567 779 12 C 875.259 105.145 t 0 r /Helvetica findfont 25.6631 sf 0 0 m (0) show NC gr 
 gsave  710 567 779 12 C 875.259 161.98 t 0 r /Helvetica findfont 25.6631 sf 0 0 m (2) show NC gr 
 gsave  710 567 779 12 C 875.259 221.657 t 0 r /Helvetica findfont 25.6631 sf 0 0 m (4) show NC gr 
 gsave  710 567 779 12 C 875.259 278.492 t 0 r /Helvetica findfont 25.6631 sf 0 0 m (6) show NC gr 
 gsave  710 567 779 12 C 875.259 338.168 t 0 r /Helvetica findfont 25.6631 sf 0 0 m (8) show NC gr 
 gsave  710 567 779 12 C 861.05 397.845 t 0 r /Helvetica findfont 25.6631 sf 0 0 m (10) show NC gr 
 gsave  710 567 779 12 C 861.05 454.68 t 0 r /Helvetica findfont 25.6631 sf 0 0 m (12) show NC gr 
 gsave  710 567 779 12 C 801.374 431.946 t 90 r /Helvetica findfont 28.5146 sf 0 0 m (0.0124 ) show NC gr 
 gsave  710 567 779 12 C 787.165 429.104 t 90 r /Helvetica findfont 19.9602 sf 0 0 m ( ) show NC gr 
 gsave  710 567 779 12 C 801.374 417.737 t 90 r /Helvetica findfont 28.5146 sf 0 0 m (/) show NC gr 
 gsave  710 567 779 12 C 809.899 414.896 t 90 r /Helvetica findfont 19.9602 sf 0 0 m ( ) show NC gr 
 gsave  710 567 779 12 C 801.374 309.751 t 90 r /Helvetica findfont 28.5146 sf 0 0 m (\(1/N\) dN) show NC gr  1447 94 m 429 Y s 1430 114 m 17 X s 1438 129 m 9 X s 1438 143 m 9 X s 1438 158 m 9 X s 1430 173 m 17 X s 1438 187 m 9 X s 1438 202 m 9 X s
 1438 217 m 9 X s 1430 231 m 17 X s 1438 246 m 9 X s 1438 260 m 9 X s 1438 275 m 9 X s 1430 290 m 17 X s 1438 304 m 9 X s 1438 319 m 9 X s 1438 334 m 9 X s 1430 348 m 17 X s 1438 363 m 9 X s 1438 378 m 9 X s 1438 392 m 9 X s 1430 407 m 17 X s 1438
 422 m 9 X s 1438 436 m 9 X s 1438 451 m 9 X s 1430 466 m 17 X s 1430 114 m 17 X s 1438 99 m 9 X s 1430 466 m 17 X s 1438 480 m 9 X s 1438 495 m 9 X s 1438 509 m 9 X s 0.490196 0.545098 0.615686 c 0.364706 0.419608 0.490196 c 332 37 786 539 bf
 0.490196 0.545098 0.615686 c 786 539 m 332 X s 1118 539 m 37 Y s 1118 576 m -332 X s 786 576 m -37 Y s 1 1 1 c black 1 1 1 c
 gsave  710 567 779 12 C 790.007 551.299 t 0 r /Helvetica-Bold findfont 28.5146 sf 0 0 m (Input variable: yy.HY_l5) show NC gr  1 0 0 c 6 lw black 3 lw 1 0 0 c 1438 114 m s 1423 114 m s 1408 114 m s 1392 114 m s 1377 114 m s 1363 115 m -1 -1 d s 1347
 114 m s 1333 115 m -1 -1 d s 1317 114 m s 1302 114 m s 1296 123 m -9 -9 d s 1296 138 m -24 -24 d s 1296 153 m -39 -39 d s 1296 169 m -54 -55 d s 1296 184 m -69 -70 d s 1296 199 m -84 -85 d s 1296 214 m -99 -100 d s 1296 229 m -115 -115 d s 1296 245
 m -14 -14 d s 1276 224 m -110 -110 d s 1289 252 m -7 -6 d s 1269 232 m -28 -27 d s 1239 203 m -88 -89 d s 1269 247 m -28 -27 d s 1228 206 m -92 -92 d s 1269 263 m -28 -28 d s 1228 221 m -14 -14 d s 1200 194 m -79 -80 d s 1269 278 m -28 -28 d s 1228
 236 m -14 -13 d s 1195 204 m -89 -90 d s 1269 293 m -14 -14 d s 1250 274 m -9 -9 d s 1218 242 m -4 -4 d s 1187 210 m -28 -27 d s 1158 182 m -67 -68 d s 1269 308 m -14 -14 d s 1176 214 m -17 -16 d s 1146 184 m -70 -70 d s 1269 323 m -14 -13 d s 1146
 199 m -85 -85 d s 1269 338 m -14 -13 d s 1146 214 m -100 -100 d s 1269 354 m -14 -14 d s 1146 230 m -96 -97 d s 1049 132 m -18 -18 d s 1264 364 m -9 -9 d s 1146 245 m -69 -69 d s 1072 171 m -22 -23 d s 1026 124 m -10 -10 d s 1136 250 m -4 -4 d s
 1127 241 m -50 -50 d s 1064 177 m -14 -13 d s 1011 124 m -2 -2 d s 1003 117 m -2 -3 d s 1118 248 m -41 -42 d s 1064 193 m -14 -14 d s 990 118 m -5 -4 d s 1117 261 m -40 -39 d s 1051 195 m -1 -1 d s 975 119 m -5 -5 d s 1105 264 m -28 -27 d s 961 120
 m -6 -6 d s 1105 279 m -28 -27 d s 944 118 m -4 -4 d s 1101 292 m -24 -25 d s 928 116 m -3 -2 d s 1091 296 m -14 -14 d s 917 121 m -7 -7 d s 1091 311 m -14 -14 d s 1091 326 m -14 -13 d s 1091 342 m -14 -14 d s 1091 357 m -14 -14 d s 1081 362 m -4 -4
 d s 6 lw 899 117 m 14 X 4 Y 14 X -5 Y 13 X 2 Y 14 X 2 Y 14 X -1 Y 13 X -1 Y 14 X -1 Y 14 X 7 Y 27 X 8 Y 14 X 63 Y 14 X -24 Y 13 X 191 Y 14 X -70 Y 14 X -31 Y 13 X -20 Y 14 X 9 Y 14 X -68 Y 13 X 31 Y 14 X 1 Y 14 X -10 Y 13 X -12 Y 14 X 50 Y 14 X -39
 Y 13 X 71 Y 14 X 90 Y 14 X -140 Y 13 X 28 Y 14 X -138 Y 27 X 1 Y 14 X -1 Y 14 X 1 Y 13 X -1 Y 83 X s black 3 lw 899 94 m 548 X s 952 107 m -13 Y s 963 100 m -6 Y s 974 100 m -6 Y s 985 100 m -6 Y s 996 100 m -6 Y s 1007 107 m -13 Y s 1018 100 m -6 Y
 s 1029 100 m -6 Y s 1040 100 m -6 Y s 1051 100 m -6 Y s 1062 107 m -13 Y s 1073 100 m -6 Y s 1084 100 m -6 Y s 1095 100 m -6 Y s 1106 100 m -6 Y s 1117 107 m -13 Y s 1128 100 m -6 Y s 1139 100 m -6 Y s 1151 100 m -6 Y s 1162 100 m -6 Y s 1173 107 m
 -13 Y s 1184 100 m -6 Y s 1195 100 m -6 Y s 1206 100 m -6 Y s 1217 100 m -6 Y s 1228 107 m -13 Y s 1239 100 m -6 Y s 1250 100 m -6 Y s 1261 100 m -6 Y s 1272 100 m -6 Y s 1283 107 m -13 Y s 1294 100 m -6 Y s 1305 100 m -6 Y s 1316 100 m -6 Y s 1327
 100 m -6 Y s 1338 107 m -13 Y s 1349 100 m -6 Y s 1360 100 m -6 Y s 1371 100 m -6 Y s 1382 100 m -6 Y s 1393 107 m -13 Y s 952 107 m -13 Y s 941 100 m -6 Y s 930 100 m -6 Y s 919 100 m -6 Y s 908 100 m -6 Y s 1393 107 m -13 Y s 1404 100 m -6 Y s
 1415 100 m -6 Y s 1426 100 m -6 Y s 1437 100 m -6 Y s 899 523 m 548 X s 952 509 m 14 Y s 963 516 m 7 Y s 974 516 m 7 Y s 985 516 m 7 Y s 996 516 m 7 Y s 1007 509 m 14 Y s 1018 516 m 7 Y s 1029 516 m 7 Y s 1040 516 m 7 Y s 1051 516 m 7 Y s 1062 509 m
 14 Y s 1073 516 m 7 Y s 1084 516 m 7 Y s 1095 516 m 7 Y s 1106 516 m 7 Y s 1117 509 m 14 Y s 1128 516 m 7 Y s 1139 516 m 7 Y s 1151 516 m 7 Y s 1162 516 m 7 Y s 1173 509 m 14 Y s 1184 516 m 7 Y s 1195 516 m 7 Y s 1206 516 m 7 Y s 1217 516 m 7 Y s
 1228 509 m 14 Y s 1239 516 m 7 Y s 1250 516 m 7 Y s 1261 516 m 7 Y s 1272 516 m 7 Y s 1283 509 m 14 Y s 1294 516 m 7 Y s 1305 516 m 7 Y s 1316 516 m 7 Y s 1327 516 m 7 Y s 1338 509 m 14 Y s 1349 516 m 7 Y s 1360 516 m 7 Y s 1371 516 m 7 Y s 1382 516
 m 7 Y s 1393 509 m 14 Y s 952 509 m 14 Y s 941 516 m 7 Y s 930 516 m 7 Y s 919 516 m 7 Y s 908 516 m 7 Y s 1393 509 m 14 Y s 1404 516 m 7 Y s 1415 516 m 7 Y s 1426 516 m 7 Y s 1437 516 m 7 Y s 899 94 m 429 Y s 915 114 m -16 X s 907 129 m -8 X s 907
 143 m -8 X s 907 158 m -8 X s 915 173 m -16 X s 907 187 m -8 X s 907 202 m -8 X s 907 217 m -8 X s 915 231 m -16 X s 907 246 m -8 X s 907 260 m -8 X s 907 275 m -8 X s 915 290 m -16 X s 907 304 m -8 X s 907 319 m -8 X s 907 334 m -8 X s 915 348 m
 -16 X s 907 363 m -8 X s 907 378 m -8 X s 907 392 m -8 X s 915 407 m -16 X s 907 422 m -8 X s 907 436 m -8 X s 907 451 m -8 X s 915 466 m -16 X s 915 114 m -16 X s 907 99 m -8 X s 915 466 m -16 X s 907 480 m -8 X s 907 495 m -8 X s 907 509 m -8 X s
 1447 94 m 429 Y s 1430 114 m 17 X s 1438 129 m 9 X s 1438 143 m 9 X s 1438 158 m 9 X s 1430 173 m 17 X s 1438 187 m 9 X s 1438 202 m 9 X s 1438 217 m 9 X s 1430 231 m 17 X s 1438 246 m 9 X s 1438 260 m 9 X s 1438 275 m 9 X s 1430 290 m 17 X s 1438
 304 m 9 X s 1438 319 m 9 X s 1438 334 m 9 X s 1430 348 m 17 X s 1438 363 m 9 X s 1438 378 m 9 X s 1438 392 m 9 X s 1430 407 m 17 X s 1438 422 m 9 X s 1438 436 m 9 X s 1438 451 m 9 X s 1430 466 m 17 X s 1430 114 m 17 X s 1438 99 m 9 X s 1430 466 m 17
 X s 1438 480 m 9 X s 1438 495 m 9 X s 1438 509 m 9 X s
 gsave  710 567 779 12 C 1474.92 91.2634 t 90 r /Helvetica-Bold findfont 19.9602 sf 0 0 m (U/O\255flow \(S,B\): \(0.0, 0.0\)% / \(0.0, 0.0\)%) show NC gr  0.490196 0.545098 0.615686 c 0.364706 0.419608 0.490196 c 332 37 786 539 bf 0.490196 0.545098
 0.615686 c 786 539 m 332 X s 1118 539 m 37 Y s 1118 576 m -332 X s 786 576 m -37 Y s 1 1 1 c black 1 1 1 c
 gsave  710 567 779 12 C 790.007 551.299 t 0 r /Helvetica-Bold findfont 28.5146 sf 0 0 m (Input variable: yy.HY_l5) show NC gr  0.490196 0.545098 0.615686 c 0.941176 0.941176 0.941176 c 711 567 1534 12 bf
 gr  gr showpage
end
%%EOF
