%!PS-Adobe-2.0 EPSF-2.0
%%BoundingBox:  0 0 567 296
%%Title: dataset/plots/variables_id_c6.eps: Input variables (training sample)
%%Creator: ROOT Version 6.18/00
%%CreationDate: Fri Sep 13 20:54:33 2019
%%DocumentNeededResources: ProcSet (FontSetInit)
%%EndComments
%%BeginProlog
80 dict begin
/s {stroke} def /l {lineto} def /m {moveto} def /t {translate} def
/r {rotate} def /rl {roll}  def /R {repeat} def
/d {rlineto} def /rm {rmoveto} def /gr {grestore} def /f {eofill} def
/c {setrgbcolor} def /black {0 setgray} def /sd {setdash} def
/cl {closepath} def /sf {scalefont setfont} def /lw {setlinewidth} def
/box {m dup 0 exch d exch 0 d 0 exch neg d cl} def
/NC{systemdict begin initclip end}def/C{NC box clip newpath}def
/bl {box s} def /bf {gsave box gsave f grestore 1 lw [] 0 sd s grestore} def /Y { 0 exch d} def /X { 0 d} def 
/K {{pop pop 0 moveto} exch kshow} bind def
/ita {/ang 15 def gsave [1 0 ang dup sin exch cos div 1 0 0] concat} def 
/mp {newpath /y exch def /x exch def} def
/side {[w .77 mul w .23 mul] .385 w mul sd w 0 l currentpoint t -144 r} def
/mr {mp x y w2 0 360 arc} def /m24 {mr s} def /m20 {mr f} def
/mb {mp x y w2 add m w2 neg 0 d 0 w neg d w 0 d 0 w d cl} def
/mt {mp x y w2 add m w2 neg w neg d w 0 d cl} def
/w4 {w 4 div} def
/w6 {w 6 div} def
/w8 {w 8 div} def
/m21 {mb f} def /m25 {mb s} def /m22 {mt f} def /m26{mt s} def
/m23 {mp x y w2 sub m w2 w d w neg 0 d cl f} def
/m27 {mp x y w2 add m w3 neg w2 neg d w3 w2 neg d w3 w2 d cl s} def
/m28 {mp x w2 sub y w2 sub w3 add m w3 0 d  0 w3 neg d w3 0 d 0 w3 d w3 0 d  0 w3 d w3 neg 0 d 0 w3 d w3 neg 0 d 0 w3 neg d w3 neg 0 d cl s } def
/m29 {mp gsave x w2 sub y w2 add w3 sub m currentpoint t 4 {side} repeat cl fill gr} def
/m30 {mp gsave x w2 sub y w2 add w3 sub m currentpoint t 4 {side} repeat cl s gr} def
/m31 {mp x y w2 sub m 0 w d x w2 sub y m w 0 d x w2 sub y w2 add m w w neg d x w2 sub y w2 sub m w w d s} def
/m32 {mp x y w2 sub m w2 w d w neg 0 d cl s} def
/m33 {mp x y w2 add m w3 neg w2 neg d w3 w2 neg d w3 w2 d cl f} def
/m34 {mp x w2 sub y w2 sub w3 add m w3 0 d  0 w3 neg d w3 0 d 0 w3 d w3 0 d  0 w3 d w3 neg 0 d 0 w3 d w3 neg 0 d 0 w3 neg d w3 neg 0 d cl f } def
/m35 {mp x y w2 add m w2 neg w2 neg d w2 w2 neg d w2 w2 d w2 neg w2 d x y w2 sub m 0 w d x w2 sub y m w 0 d s} def
/m36 {mb x w2 sub y w2 add m w w neg d x w2 sub y w2 sub m w w d s} def
/m37 {mp x y m w4 neg w2 d w4 neg w2 neg d w2 0 d  w4 neg w2 neg d w2 0 d w4 neg w2 d w2 0 d w4 neg w2 d w4 neg w2 neg d cl s} def
/m38 {mp x w4 sub y w2 add m w4 neg w4 neg d 0 w2 neg d w4 w4 neg d w2 0 d w4 w4 d 0 w2 d w4 neg w4 d w2 neg 0 d x y w2 sub m 0 w d x w2 sub y m w 0 d cl s} def
/m39 {mp x y m w4 neg w2 d w4 neg w2 neg d w2 0 d  w4 neg w2 neg d w2 0 d w4 neg w2 d w2 0 d w4 neg w2 d w4 neg w2 neg d cl f} def
/m40 {mp x y m w4 w2 d w4 w4 neg d w2 neg w4 neg d w2 w4 neg d w4 neg w4 neg d w4 neg w2 d w4 neg w2 neg d w4 neg w4 d w2 w4 d w2 neg w4 d w4 w4 d w4 w2 neg d cl s} def
/m41 {mp x y m w4 w2 d w4 w4 neg d w2 neg w4 neg d w2 w4 neg d w4 neg w4 neg d w4 neg w2 d w4 neg w2 neg d w4 neg w4 d w2 w4 d w2 neg w4 d w4 w4 d w4 w2 neg d cl f} def
/m42 {mp x y w2 add m w8 neg w2 -3 4 div mul d w2 -3 4 div mul w8 neg d w2 3 4 div mul w8 neg d w8 w2 -3 4 div mul d w8 w2 3 4 div mul d w2 3 4 div mul w8 d w2 -3 4 div mul w8 d w8 neg w2 3 4 div mul d cl s} def
/m43 {mp x y w2 add m w8 neg w2 -3 4 div mul d w2 -3 4 div mul w8 neg d w2 3 4 div mul w8 neg d w8 w2 -3 4 div mul d w8 w2 3 4 div mul d w2 3 4 div mul w8 d w2 -3 4 div mul w8 d w8 neg w2 3 4 div mul d cl f} def
/m44 {mp x y m w6 neg w2 d w2 2 3 div mul 0 d w6 neg w2 neg d w2 w6 d 0 w2 -2 3 div mul d w2 neg w6 d w6 w2 neg d w2 -2 3 div mul 0 d w6 w2 d w2 neg w6 neg d 0 w2 2 3 div mul d w2 w6 neg d cl s} def
/m45 {mp x y m w6 neg w2 d w2 2 3 div mul 0 d w6 neg w2 neg d w2 w6 d 0 w2 -2 3 div mul d w2 neg w6 d w6 w2 neg d w2 -2 3 div mul 0 d w6 w2 d w2 neg w6 neg d 0 w2 2 3 div mul d w2 w6 neg d cl f} def
/m46 {mp x y w4 add m w4 neg w4 d w4 neg w4 neg d  w4 w4 neg d w4 neg w4 neg d w4 w4 neg d w4 w4 d w4 w4 neg d w4 w4 d w4 neg w4 d w4 w4 d w4 neg w4 d w4 neg w4 neg d cl s} def
/m47 {mp x y w4 add m w4 neg w4 d w4 neg w4 neg d w4 w4 neg d w4 neg w4 neg d  w4 w4 neg d w4 w4 d w4 w4 neg d w4 w4 d w4 neg w4 d w4 w4 d w4 neg w4 d w4 neg w4 neg d cl f} def
/m48 {mp x y w4 add m w4 neg w4 d w4 neg w4 neg d w4 w4 neg d  w4 neg w4 neg d w4 w4 neg d w4 w4 d w4 w4 neg d w4 w4 d w4 neg w4 d w4 w4 d w4 neg w4 d w4 neg w4 neg d  w4 w4 neg d w4 neg w4 neg d w4 neg w4 d w4 w4 d cl f} def
/m49 {mp x w2 sub w3 add y w2 sub w3 add m  0 w3 neg d w3 0 d 0 w3 d w3 0 d 0 w3 d w3 neg 0 d 0 w3 d w3 neg 0 d 0 w3 neg d w3 neg 0 d 0 w3 neg d w3 0 d 0 w3 d w3 0 d 0 w3 neg d w3 neg 0 d cl f } def
/m2 {mp x y w2 sub m 0 w d x w2 sub y m w 0 d s} def
/m5 {mp x w2 sub y w2 sub m w w d x w2 sub y w2 add m w w neg d s} def
%%IncludeResource: ProcSet (FontSetInit)
%%IncludeResource: font Times-Roman
%%IncludeResource: font Times-Italic
%%IncludeResource: font Times-Bold
%%IncludeResource: font Times-BoldItalic
%%IncludeResource: font Helvetica
%%IncludeResource: font Helvetica-Oblique
%%IncludeResource: font Helvetica-Bold
%%IncludeResource: font Helvetica-BoldOblique
%%IncludeResource: font Courier
%%IncludeResource: font Courier-Oblique
%%IncludeResource: font Courier-Bold
%%IncludeResource: font Courier-BoldOblique
%%IncludeResource: font Symbol
%%IncludeResource: font ZapfDingbats
/reEncode {exch findfont dup length dict begin {1 index /FID eq  {pop pop} {def} ifelse } forall /Encoding exch def currentdict end dup /FontName get exch definefont pop } def [/Times-Bold /Times-Italic /Times-BoldItalic /Helvetica /Helvetica-Oblique
 /Helvetica-Bold /Helvetica-BoldOblique /Courier /Courier-Oblique /Courier-Bold /Courier-BoldOblique /Times-Roman /AvantGarde-Book /AvantGarde-BookOblique /AvantGarde-Demi /AvantGarde-DemiOblique /Bookman-Demi /Bookman-DemiItalic /Bookman-Light
 /Bookman-LightItalic /Helvetica-Narrow /Helvetica-Narrow-Bold /Helvetica-Narrow-BoldOblique /Helvetica-Narrow-Oblique /NewCenturySchlbk-Roman /NewCenturySchlbk-Bold /NewCenturySchlbk-BoldItalic /NewCenturySchlbk-Italic /Palatino-Bold
 /Palatino-BoldItalic /Palatino-Italic /Palatino-Roman ] {ISOLatin1Encoding reEncode } forall
%%EndProlog
%%BeginSetup
%%EndSetup
newpath  gsave  .25 .25 scale  gsave  0 0 t 0.490196 0.545098 0.615686 c[  ] 0 sd 3 lw 0.941176 0.941176 0.941176 c 2268 1182 0 0 bf 0.490196 0.545098 0.615686 c 0.941176 0.941176 0.941176 c 710 567 23 603 bf black 1 1 0.992157 c 548 429 143 685 bf
 black 548 429 143 685 bl 0 0 0.933333 c 6 lw 0.49 0.6 0.82 c black 3 lw 0.49 0.6 0.82 c 143 707 m 28 X 3 Y 14 X 11 Y 13 X 67 Y 14 X 104 Y 14 X 124 Y 13 X 23 Y 14 X -91 Y 14 X 73 Y 13 X -165 Y 14 X 50 Y 14 X -35 Y 13 X 31 Y 14 X -5 Y 14 X -20 Y 13 X
 -14 Y 14 X -12 Y 14 X -4 Y 13 X -16 Y 14 X -4 Y 14 X -10 Y 13 X -71 Y 14 X 42 Y 14 X 9 Y 13 X 16 Y 14 X -27 Y 14 X 24 Y 13 X -16 Y 14 X -15 Y 14 X 6 Y 13 X 18 Y 14 X -24 Y 14 X -25 Y 14 X -2 Y 13 X -27 Y 14 X -20 Y 14 X 14 Y 13 X -11 Y 14 X -1 Y 14
 X f 6 lw 0 0 0.933333 c 0.49 0.6 0.82 c 0 0 0.933333 c 143 707 m 28 X 3 Y 14 X 11 Y 13 X 67 Y 14 X 104 Y 14 X 124 Y 13 X 23 Y 14 X -91 Y 14 X 73 Y 13 X -165 Y 14 X 50 Y 14 X -35 Y 13 X 31 Y 14 X -5 Y 14 X -20 Y 13 X -14 Y 14 X -12 Y 14 X -4 Y 13 X
 -16 Y 14 X -4 Y 14 X -10 Y 13 X -71 Y 14 X 42 Y 14 X 9 Y 13 X 16 Y 14 X -27 Y 14 X 24 Y 13 X -16 Y 14 X -15 Y 14 X 6 Y 13 X 18 Y 14 X -24 Y 14 X -25 Y 14 X -2 Y 13 X -27 Y 14 X -20 Y 14 X 14 Y 13 X -11 Y 14 X -1 Y 14 X s black 3 lw 143 685 m 548 X s
 168 698 m -13 Y s 187 691 m -6 Y s 205 691 m -6 Y s 224 691 m -6 Y s 243 691 m -6 Y s 261 698 m -13 Y s 280 691 m -6 Y s 298 691 m -6 Y s 317 691 m -6 Y s 336 691 m -6 Y s 354 698 m -13 Y s 373 691 m -6 Y s 391 691 m -6 Y s 410 691 m -6 Y s 429 691
 m -6 Y s 447 698 m -13 Y s 466 691 m -6 Y s 485 691 m -6 Y s 503 691 m -6 Y s 522 691 m -6 Y s 540 698 m -13 Y s 559 691 m -6 Y s 578 691 m -6 Y s 596 691 m -6 Y s 615 691 m -6 Y s 633 698 m -13 Y s 168 698 m -13 Y s 150 691 m -6 Y s 633 698 m -13 Y
 s 652 691 m -6 Y s 671 691 m -6 Y s 689 691 m -6 Y s
 gsave  710 567 23 603 C 156.296 656.444 t 0 r /Helvetica findfont 25.6631 sf 0 0 m (0.2) show NC gr 
 gsave  710 567 23 603 C 142.088 656.444 t 0 r /Symbol findfont 25.6631 sf 0 0 m (-) show NC gr 
 gsave  710 567 23 603 C 247.232 656.444 t 0 r /Helvetica findfont 25.6631 sf 0 0 m (0.1) show NC gr 
 gsave  710 567 23 603 C 235.865 656.444 t 0 r /Symbol findfont 25.6631 sf 0 0 m (-) show NC gr 
 gsave  710 567 23 603 C 343.852 656.444 t 0 r /Helvetica findfont 25.6631 sf 0 0 m (0) show NC gr 
 gsave  710 567 23 603 C 429.104 656.444 t 0 r /Helvetica findfont 25.6631 sf 0 0 m (0.1) show NC gr 
 gsave  710 567 23 603 C 522.882 656.444 t 0 r /Helvetica findfont 25.6631 sf 0 0 m (0.2) show NC gr 
 gsave  710 567 23 603 C 613.818 656.444 t 0 r /Helvetica findfont 25.6631 sf 0 0 m (0.3) show NC gr 
 gsave  710 567 23 603 C 554.141 616.66 t 0 r /Helvetica findfont 28.5146 sf 0 0 m (yybb.HT_l1) show NC gr  143 1114 m 548 X s 168 1100 m 14 Y s 187 1107 m 7 Y s 205 1107 m 7 Y s 224 1107 m 7 Y s 243 1107 m 7 Y s 261 1100 m 14 Y s 280 1107 m 7 Y s
 298 1107 m 7 Y s 317 1107 m 7 Y s 336 1107 m 7 Y s 354 1100 m 14 Y s 373 1107 m 7 Y s 391 1107 m 7 Y s 410 1107 m 7 Y s 429 1107 m 7 Y s 447 1100 m 14 Y s 466 1107 m 7 Y s 485 1107 m 7 Y s 503 1107 m 7 Y s 522 1107 m 7 Y s 540 1100 m 14 Y s 559 1107
 m 7 Y s 578 1107 m 7 Y s 596 1107 m 7 Y s 615 1107 m 7 Y s 633 1100 m 14 Y s 168 1100 m 14 Y s 150 1107 m 7 Y s 633 1100 m 14 Y s 652 1107 m 7 Y s 671 1107 m 7 Y s 689 1107 m 7 Y s 143 685 m 429 Y s 160 707 m -17 X s 152 720 m -9 X s 152 732 m -9 X
 s 152 745 m -9 X s 152 758 m -9 X s 160 771 m -17 X s 152 784 m -9 X s 152 797 m -9 X s 152 810 m -9 X s 152 822 m -9 X s 160 835 m -17 X s 152 848 m -9 X s 152 861 m -9 X s 152 874 m -9 X s 152 887 m -9 X s 160 900 m -17 X s 152 913 m -9 X s 152
 925 m -9 X s 152 938 m -9 X s 152 951 m -9 X s 160 964 m -17 X s 152 977 m -9 X s 152 990 m -9 X s 152 1003 m -9 X s 152 1016 m -9 X s 160 1028 m -17 X s 152 1041 m -9 X s 152 1054 m -9 X s 152 1067 m -9 X s 152 1080 m -9 X s 160 1093 m -17 X s 160
 707 m -17 X s 152 694 m -9 X s 160 1093 m -17 X s 152 1106 m -9 X s
 gsave  710 567 23 603 C 119.354 696.229 t 0 r /Helvetica findfont 25.6631 sf 0 0 m (0) show NC gr 
 gsave  710 567 23 603 C 122.195 761.589 t 0 r /Helvetica findfont 25.6631 sf 0 0 m (1) show NC gr 
 gsave  710 567 23 603 C 119.354 824.108 t 0 r /Helvetica findfont 25.6631 sf 0 0 m (2) show NC gr 
 gsave  710 567 23 603 C 119.354 889.468 t 0 r /Helvetica findfont 25.6631 sf 0 0 m (3) show NC gr 
 gsave  710 567 23 603 C 119.354 954.828 t 0 r /Helvetica findfont 25.6631 sf 0 0 m (4) show NC gr 
 gsave  710 567 23 603 C 119.354 1017.35 t 0 r /Helvetica findfont 25.6631 sf 0 0 m (5) show NC gr 
 gsave  710 567 23 603 C 119.354 1082.71 t 0 r /Helvetica findfont 25.6631 sf 0 0 m (6) show NC gr 
 gsave  710 567 23 603 C 45.468 1023.03 t 90 r /Helvetica findfont 28.5146 sf 0 0 m (0.0147 ) show NC gr 
 gsave  710 567 23 603 C 31.2593 1020.19 t 90 r /Helvetica findfont 19.9602 sf 0 0 m ( ) show NC gr 
 gsave  710 567 23 603 C 45.468 1008.82 t 90 r /Helvetica findfont 28.5146 sf 0 0 m (/) show NC gr 
 gsave  710 567 23 603 C 53.9933 1005.98 t 90 r /Helvetica findfont 19.9602 sf 0 0 m ( ) show NC gr 
 gsave  710 567 23 603 C 45.468 900.835 t 90 r /Helvetica findfont 28.5146 sf 0 0 m (\(1/N\) dN) show NC gr  691 685 m 429 Y s 674 707 m 17 X s 683 720 m 8 X s 683 732 m 8 X s 683 745 m 8 X s 683 758 m 8 X s 674 771 m 17 X s 683 784 m 8 X s 683 797 m
 8 X s 683 810 m 8 X s 683 822 m 8 X s 674 835 m 17 X s 683 848 m 8 X s 683 861 m 8 X s 683 874 m 8 X s 683 887 m 8 X s 674 900 m 17 X s 683 913 m 8 X s 683 925 m 8 X s 683 938 m 8 X s 683 951 m 8 X s 674 964 m 17 X s 683 977 m 8 X s 683 990 m 8 X s
 683 1003 m 8 X s 683 1016 m 8 X s 674 1028 m 17 X s 683 1041 m 8 X s 683 1054 m 8 X s 683 1067 m 8 X s 683 1080 m 8 X s 674 1093 m 17 X s 674 707 m 17 X s 683 694 m 8 X s 674 1093 m 17 X s 683 1106 m 8 X s 0.490196 0.545098 0.615686 c 0.364706
 0.419608 0.490196 c 366 38 30 1130 bf 0.490196 0.545098 0.615686 c 30 1130 m 366 X s 396 1130 m 38 Y s 396 1168 m -366 X s 30 1168 m -38 Y s 1 1 1 c black 1 1 1 c
 gsave  710 567 23 603 C 34.101 1142.38 t 0 r /Helvetica-Bold findfont 28.5146 sf 0 0 m (Input variable: yybb.HT_l1) show NC gr  1 0 0 c 6 lw black 3 lw 1 0 0 c 683 707 m s 677 715 m -9 -8 d s 664 717 m -1 X s 659 713 m -6 -6 d s 650 718 m -12 -11 d
 s 649 733 m -26 -26 d s 636 735 m -28 -28 d s 629 743 m -36 -36 d s 612 742 m -34 -35 d s 605 750 m -42 -43 d s 587 747 m -39 -40 d s 581 756 m -48 -49 d s 575 764 m -8 -7 d s 554 743 m -36 -36 d s 554 758 m -52 -51 d s 554 774 m -67 -67 d s 554 789
 m -14 -14 d s 528 763 m -56 -56 d s 541 791 m -1 -1 d s 526 776 m -69 -69 d s 526 792 m -84 -85 d s 526 807 m -27 -28 d s 488 768 m -61 -61 d s 526 822 m -13 -14 d s 508 803 m -9 -9 d s 485 781 m -73 -74 d s 485 796 m -88 -89 d s 474 799 m -92 -92 d
 s 465 805 m -98 -98 d s 458 814 m -41 -42 d s 415 770 m -63 -63 d s 458 829 m -41 -41 d s 403 774 m -66 -67 d s 458 844 m -41 -41 d s 403 789 m -81 -82 d s 449 850 m -32 -32 d s 403 804 m -96 -97 d s 444 861 m -13 -14 d s 423 840 m -6 -7 d s 403 819
 m -112 -112 d s 444 876 m -13 -14 d s 390 821 m -114 -114 d s 444 891 m -13 -14 d s 390 836 m -129 -129 d s 444 906 m -13 -14 d s 378 840 m -132 -133 d s 442 919 m -11 -11 d s 371 848 m -140 -141 d s 362 854 m -146 -147 d s 362 869 m -13 -14 d s 347
 854 m -146 -147 d s 362 884 m -13 -13 d s 335 857 m -123 -124 d s 205 726 m -7 -7 d s 193 713 m -7 -6 d s 362 899 m -13 -13 d s 332 869 m -120 -121 d s 171 707 m s 362 915 m -13 -14 d s 321 873 m -109 -110 d s 156 707 m s 362 930 m -13 -14 d s 321
 889 m -109 -111 d s 362 945 m -13 -14 d s 321 904 m -109 -111 d s 349 947 m -1 Y s 321 919 m -95 -97 d s 212 809 m s 321 934 m -95 -96 d s 321 949 m -27 -27 d s 285 913 m -59 -60 d s 321 964 m -27 -27 d s 280 923 m -54 -55 d s 321 980 m -13 -14 d s
 294 952 m s 280 938 m -54 -55 d s 321 995 m -13 -14 d s 280 953 m -54 -55 d s 312 1001 m -4 -5 d s 278 966 m -11 -11 d s 259 948 m -33 -34 d s 253 956 m -27 -27 d s 253 971 m -14 -13 d s 233 951 m -7 -7 d s 253 987 m -14 -14 d s 253 1002 m -14 -14 d
 s 253 1017 m -14 -14 d s 253 1032 m -14 -14 d s 253 1047 m -14 -13 d s 253 1063 m -14 -14 d s 252 1077 m -13 -13 d s 6 lw 143 707 m 42 X 6 Y 13 X 13 Y 14 X 83 Y 14 X 142 Y 13 X 126 Y 14 X -129 Y 14 X 18 Y 13 X -53 Y 14 X 39 Y 14 X 49 Y 13 X -132 Y
 14 X -15 Y 14 X 93 Y 13 X -99 Y 14 X -8 Y 14 X -20 Y 13 X -50 Y 14 X 70 Y 14 X 79 Y 13 X -69 Y 14 X -45 Y 14 X -6 Y 13 X -31 Y 14 X 35 Y 14 X 20 Y 13 X -60 Y 14 X 28 Y 14 X -49 Y 13 X 22 Y 14 X -17 Y 14 X 3 Y 14 X -8 Y 13 X 1 Y 14 X -10 Y 14 X -20 Y
 13 X 4 Y 14 X -10 Y 14 X s black 3 lw 143 685 m 548 X s 168 698 m -13 Y s 187 691 m -6 Y s 205 691 m -6 Y s 224 691 m -6 Y s 243 691 m -6 Y s 261 698 m -13 Y s 280 691 m -6 Y s 298 691 m -6 Y s 317 691 m -6 Y s 336 691 m -6 Y s 354 698 m -13 Y s 373
 691 m -6 Y s 391 691 m -6 Y s 410 691 m -6 Y s 429 691 m -6 Y s 447 698 m -13 Y s 466 691 m -6 Y s 485 691 m -6 Y s 503 691 m -6 Y s 522 691 m -6 Y s 540 698 m -13 Y s 559 691 m -6 Y s 578 691 m -6 Y s 596 691 m -6 Y s 615 691 m -6 Y s 633 698 m -13
 Y s 168 698 m -13 Y s 150 691 m -6 Y s 633 698 m -13 Y s 652 691 m -6 Y s 671 691 m -6 Y s 689 691 m -6 Y s 143 1114 m 548 X s 168 1100 m 14 Y s 187 1107 m 7 Y s 205 1107 m 7 Y s 224 1107 m 7 Y s 243 1107 m 7 Y s 261 1100 m 14 Y s 280 1107 m 7 Y s
 298 1107 m 7 Y s 317 1107 m 7 Y s 336 1107 m 7 Y s 354 1100 m 14 Y s 373 1107 m 7 Y s 391 1107 m 7 Y s 410 1107 m 7 Y s 429 1107 m 7 Y s 447 1100 m 14 Y s 466 1107 m 7 Y s 485 1107 m 7 Y s 503 1107 m 7 Y s 522 1107 m 7 Y s 540 1100 m 14 Y s 559 1107
 m 7 Y s 578 1107 m 7 Y s 596 1107 m 7 Y s 615 1107 m 7 Y s 633 1100 m 14 Y s 168 1100 m 14 Y s 150 1107 m 7 Y s 633 1100 m 14 Y s 652 1107 m 7 Y s 671 1107 m 7 Y s 689 1107 m 7 Y s 143 685 m 429 Y s 160 707 m -17 X s 152 720 m -9 X s 152 732 m -9 X
 s 152 745 m -9 X s 152 758 m -9 X s 160 771 m -17 X s 152 784 m -9 X s 152 797 m -9 X s 152 810 m -9 X s 152 822 m -9 X s 160 835 m -17 X s 152 848 m -9 X s 152 861 m -9 X s 152 874 m -9 X s 152 887 m -9 X s 160 900 m -17 X s 152 913 m -9 X s 152
 925 m -9 X s 152 938 m -9 X s 152 951 m -9 X s 160 964 m -17 X s 152 977 m -9 X s 152 990 m -9 X s 152 1003 m -9 X s 152 1016 m -9 X s 160 1028 m -17 X s 152 1041 m -9 X s 152 1054 m -9 X s 152 1067 m -9 X s 152 1080 m -9 X s 160 1093 m -17 X s 160
 707 m -17 X s 152 694 m -9 X s 160 1093 m -17 X s 152 1106 m -9 X s 691 685 m 429 Y s 674 707 m 17 X s 683 720 m 8 X s 683 732 m 8 X s 683 745 m 8 X s 683 758 m 8 X s 674 771 m 17 X s 683 784 m 8 X s 683 797 m 8 X s 683 810 m 8 X s 683 822 m 8 X s
 674 835 m 17 X s 683 848 m 8 X s 683 861 m 8 X s 683 874 m 8 X s 683 887 m 8 X s 674 900 m 17 X s 683 913 m 8 X s 683 925 m 8 X s 683 938 m 8 X s 683 951 m 8 X s 674 964 m 17 X s 683 977 m 8 X s 683 990 m 8 X s 683 1003 m 8 X s 683 1016 m 8 X s 674
 1028 m 17 X s 683 1041 m 8 X s 683 1054 m 8 X s 683 1067 m 8 X s 683 1080 m 8 X s 674 1093 m 17 X s 674 707 m 17 X s 683 694 m 8 X s 674 1093 m 17 X s 683 1106 m 8 X s
 gsave  710 567 23 603 C 719.017 682.347 t 90 r /Helvetica-Bold findfont 19.9602 sf 0 0 m (U/O\255flow \(S,B\): \(0.0, 0.0\)% / \(0.0, 0.0\)%) show NC gr  0.490196 0.545098 0.615686 c 0.364706 0.419608 0.490196 c 366 38 30 1130 bf 0.490196 0.545098
 0.615686 c 30 1130 m 366 X s 396 1130 m 38 Y s 396 1168 m -366 X s 30 1168 m -38 Y s 1 1 1 c black 1 1 1 c
 gsave  710 567 23 603 C 34.101 1142.38 t 0 r /Helvetica-Bold findfont 28.5146 sf 0 0 m (Input variable: yybb.HT_l1) show NC gr  0.490196 0.545098 0.615686 c 0.941176 0.941176 0.941176 c 710 567 779 603 bf black 1 1 0.992157 c 548 429 899 685 bf
 black 548 429 899 685 bl 0 0 0.933333 c 6 lw 0.49 0.6 0.82 c black 3 lw 0.49 0.6 0.82 c 899 706 m 16 Y 14 X -9 Y 14 X 43 Y 13 X 37 Y 14 X 46 Y 14 X -17 Y 13 X 147 Y 14 X -42 Y 14 X 82 Y 13 X 6 Y 14 X -34 Y 14 X -15 Y 14 X -71 Y 13 X 4 Y 14 X -61 Y
 14 X 10 Y 13 X 55 Y 14 X -54 Y 14 X -8 Y 13 X -57 Y 14 X 26 Y 14 X -28 Y 13 X -41 Y 14 X 38 Y 14 X -13 Y 13 X -18 Y 14 X -15 Y 14 X -13 Y 13 X 10 Y 14 X -5 Y 14 X -3 Y 13 X -8 Y 14 X 5 Y 14 X -14 Y 13 X 7 Y 14 X -3 Y 14 X -2 Y 27 X -1 Y 28 X f 6 lw
 0 0 0.933333 c 0.49 0.6 0.82 c 0 0 0.933333 c 899 722 m 14 X -9 Y 14 X 43 Y 13 X 37 Y 14 X 46 Y 14 X -17 Y 13 X 147 Y 14 X -42 Y 14 X 82 Y 13 X 6 Y 14 X -34 Y 14 X -15 Y 14 X -71 Y 13 X 4 Y 14 X -61 Y 14 X 10 Y 13 X 55 Y 14 X -54 Y 14 X -8 Y 13 X
 -57 Y 14 X 26 Y 14 X -28 Y 13 X -41 Y 14 X 38 Y 14 X -13 Y 13 X -18 Y 14 X -15 Y 14 X -13 Y 13 X 10 Y 14 X -5 Y 14 X -3 Y 13 X -8 Y 14 X 5 Y 14 X -14 Y 13 X 7 Y 14 X -3 Y 14 X -2 Y 27 X -1 Y 28 X -21 Y s black 3 lw 899 685 m 548 X s 943 698 m -13 Y
 s 955 691 m -6 Y s 966 691 m -6 Y s 978 691 m -6 Y s 990 691 m -6 Y s 1001 698 m -13 Y s 1013 691 m -6 Y s 1024 691 m -6 Y s 1036 691 m -6 Y s 1047 691 m -6 Y s 1059 698 m -13 Y s 1070 691 m -6 Y s 1082 691 m -6 Y s 1094 691 m -6 Y s 1105 691 m -6 Y
 s 1117 698 m -13 Y s 1128 691 m -6 Y s 1140 691 m -6 Y s 1151 691 m -6 Y s 1163 691 m -6 Y s 1174 698 m -13 Y s 1186 691 m -6 Y s 1198 691 m -6 Y s 1209 691 m -6 Y s 1221 691 m -6 Y s 1232 698 m -13 Y s 1244 691 m -6 Y s 1255 691 m -6 Y s 1267 691 m
 -6 Y s 1278 691 m -6 Y s 1290 698 m -13 Y s 1302 691 m -6 Y s 1313 691 m -6 Y s 1325 691 m -6 Y s 1336 691 m -6 Y s 1348 698 m -13 Y s 1359 691 m -6 Y s 1371 691 m -6 Y s 1382 691 m -6 Y s 1394 691 m -6 Y s 1406 698 m -13 Y s 943 698 m -13 Y s 932
 691 m -6 Y s 920 691 m -6 Y s 909 691 m -6 Y s 1406 698 m -13 Y s 1417 691 m -6 Y s 1429 691 m -6 Y s 1440 691 m -6 Y s
 gsave  710 567 779 603 C 929.252 656.444 t 0 r /Helvetica findfont 25.6631 sf 0 0 m (0.1) show NC gr 
 gsave  710 567 779 603 C 917.885 656.444 t 0 r /Symbol findfont 25.6631 sf 0 0 m (-) show NC gr 
 gsave  710 567 779 603 C 980.404 656.444 t 0 r /Helvetica findfont 25.6631 sf 0 0 m (0.05) show NC gr 
 gsave  710 567 779 603 C 969.037 656.444 t 0 r /Symbol findfont 25.6631 sf 0 0 m (-) show NC gr 
 gsave  710 567 779 603 C 1048.61 656.444 t 0 r /Helvetica findfont 25.6631 sf 0 0 m (0) show NC gr 
 gsave  710 567 779 603 C 1088.39 656.444 t 0 r /Helvetica findfont 25.6631 sf 0 0 m (0.05) show NC gr 
 gsave  710 567 779 603 C 1156.59 656.444 t 0 r /Helvetica findfont 25.6631 sf 0 0 m (0.1) show NC gr 
 gsave  710 567 779 603 C 1204.9 656.444 t 0 r /Helvetica findfont 25.6631 sf 0 0 m (0.15) show NC gr 
 gsave  710 567 779 603 C 1270.26 656.444 t 0 r /Helvetica findfont 25.6631 sf 0 0 m (0.2) show NC gr 
 gsave  710 567 779 603 C 1321.41 656.444 t 0 r /Helvetica findfont 25.6631 sf 0 0 m (0.25) show NC gr 
 gsave  710 567 779 603 C 1386.77 656.444 t 0 r /Helvetica findfont 25.6631 sf 0 0 m (0.3) show NC gr 
 gsave  710 567 779 603 C 1304.36 616.66 t 0 r /Helvetica findfont 28.5146 sf 0 0 m (yybb.HT_l2) show NC gr  899 1114 m 548 X s 943 1100 m 14 Y s 955 1107 m 7 Y s 966 1107 m 7 Y s 978 1107 m 7 Y s 990 1107 m 7 Y s 1001 1100 m 14 Y s 1013 1107 m 7 Y s
 1024 1107 m 7 Y s 1036 1107 m 7 Y s 1047 1107 m 7 Y s 1059 1100 m 14 Y s 1070 1107 m 7 Y s 1082 1107 m 7 Y s 1094 1107 m 7 Y s 1105 1107 m 7 Y s 1117 1100 m 14 Y s 1128 1107 m 7 Y s 1140 1107 m 7 Y s 1151 1107 m 7 Y s 1163 1107 m 7 Y s 1174 1100 m
 14 Y s 1186 1107 m 7 Y s 1198 1107 m 7 Y s 1209 1107 m 7 Y s 1221 1107 m 7 Y s 1232 1100 m 14 Y s 1244 1107 m 7 Y s 1255 1107 m 7 Y s 1267 1107 m 7 Y s 1278 1107 m 7 Y s 1290 1100 m 14 Y s 1302 1107 m 7 Y s 1313 1107 m 7 Y s 1325 1107 m 7 Y s 1336
 1107 m 7 Y s 1348 1100 m 14 Y s 1359 1107 m 7 Y s 1371 1107 m 7 Y s 1382 1107 m 7 Y s 1394 1107 m 7 Y s 1406 1100 m 14 Y s 943 1100 m 14 Y s 932 1107 m 7 Y s 920 1107 m 7 Y s 909 1107 m 7 Y s 1406 1100 m 14 Y s 1417 1107 m 7 Y s 1429 1107 m 7 Y s
 1440 1107 m 7 Y s 899 685 m 429 Y s 915 706 m -16 X s 907 715 m -8 X s 907 724 m -8 X s 907 733 m -8 X s 907 742 m -8 X s 915 751 m -16 X s 907 760 m -8 X s 907 769 m -8 X s 907 777 m -8 X s 907 786 m -8 X s 915 795 m -16 X s 907 804 m -8 X s 907
 813 m -8 X s 907 822 m -8 X s 907 831 m -8 X s 915 840 m -16 X s 907 849 m -8 X s 907 858 m -8 X s 907 866 m -8 X s 907 875 m -8 X s 915 884 m -16 X s 907 893 m -8 X s 907 902 m -8 X s 907 911 m -8 X s 907 920 m -8 X s 915 929 m -16 X s 907 938 m -8
 X s 907 946 m -8 X s 907 955 m -8 X s 907 964 m -8 X s 915 973 m -16 X s 907 982 m -8 X s 907 991 m -8 X s 907 1000 m -8 X s 907 1009 m -8 X s 915 1018 m -16 X s 907 1027 m -8 X s 907 1035 m -8 X s 907 1044 m -8 X s 907 1053 m -8 X s 915 1062 m -16
 X s 907 1071 m -8 X s 907 1080 m -8 X s 907 1089 m -8 X s 907 1098 m -8 X s 915 1107 m -16 X s 915 706 m -16 X s 907 697 m -8 X s 907 689 m -8 X s 915 1107 m -16 X s
 gsave  710 567 779 603 C 875.259 696.229 t 0 r /Helvetica findfont 25.6631 sf 0 0 m (0) show NC gr 
 gsave  710 567 779 603 C 878.101 741.697 t 0 r /Helvetica findfont 25.6631 sf 0 0 m (1) show NC gr 
 gsave  710 567 779 603 C 875.259 784.323 t 0 r /Helvetica findfont 25.6631 sf 0 0 m (2) show NC gr 
 gsave  710 567 779 603 C 875.259 829.791 t 0 r /Helvetica findfont 25.6631 sf 0 0 m (3) show NC gr 
 gsave  710 567 779 603 C 875.259 875.259 t 0 r /Helvetica findfont 25.6631 sf 0 0 m (4) show NC gr 
 gsave  710 567 779 603 C 875.259 917.885 t 0 r /Helvetica findfont 25.6631 sf 0 0 m (5) show NC gr 
 gsave  710 567 779 603 C 875.259 963.353 t 0 r /Helvetica findfont 25.6631 sf 0 0 m (6) show NC gr 
 gsave  710 567 779 603 C 875.259 1008.82 t 0 r /Helvetica findfont 25.6631 sf 0 0 m (7) show NC gr 
 gsave  710 567 779 603 C 875.259 1051.45 t 0 r /Helvetica findfont 25.6631 sf 0 0 m (8) show NC gr 
 gsave  710 567 779 603 C 875.259 1096.92 t 0 r /Helvetica findfont 25.6631 sf 0 0 m (9) show NC gr 
 gsave  710 567 779 603 C 801.374 1023.03 t 90 r /Helvetica findfont 28.5146 sf 0 0 m (0.0118 ) show NC gr 
 gsave  710 567 779 603 C 787.165 1020.19 t 90 r /Helvetica findfont 19.9602 sf 0 0 m ( ) show NC gr 
 gsave  710 567 779 603 C 801.374 1008.82 t 90 r /Helvetica findfont 28.5146 sf 0 0 m (/) show NC gr 
 gsave  710 567 779 603 C 809.899 1005.98 t 90 r /Helvetica findfont 19.9602 sf 0 0 m ( ) show NC gr 
 gsave  710 567 779 603 C 801.374 900.835 t 90 r /Helvetica findfont 28.5146 sf 0 0 m (\(1/N\) dN) show NC gr  1447 685 m 429 Y s 1430 706 m 17 X s 1438 715 m 9 X s 1438 724 m 9 X s 1438 733 m 9 X s 1438 742 m 9 X s 1430 751 m 17 X s 1438 760 m 9 X s
 1438 769 m 9 X s 1438 777 m 9 X s 1438 786 m 9 X s 1430 795 m 17 X s 1438 804 m 9 X s 1438 813 m 9 X s 1438 822 m 9 X s 1438 831 m 9 X s 1430 840 m 17 X s 1438 849 m 9 X s 1438 858 m 9 X s 1438 866 m 9 X s 1438 875 m 9 X s 1430 884 m 17 X s 1438 893
 m 9 X s 1438 902 m 9 X s 1438 911 m 9 X s 1438 920 m 9 X s 1430 929 m 17 X s 1438 938 m 9 X s 1438 946 m 9 X s 1438 955 m 9 X s 1438 964 m 9 X s 1430 973 m 17 X s 1438 982 m 9 X s 1438 991 m 9 X s 1438 1000 m 9 X s 1438 1009 m 9 X s 1430 1018 m 17 X
 s 1438 1027 m 9 X s 1438 1035 m 9 X s 1438 1044 m 9 X s 1438 1053 m 9 X s 1430 1062 m 17 X s 1438 1071 m 9 X s 1438 1080 m 9 X s 1438 1089 m 9 X s 1438 1098 m 9 X s 1430 1107 m 17 X s 1430 706 m 17 X s 1438 697 m 9 X s 1438 689 m 9 X s 1430 1107 m
 17 X s 0.490196 0.545098 0.615686 c 0.364706 0.419608 0.490196 c 369 38 786 1130 bf 0.490196 0.545098 0.615686 c 786 1130 m 369 X s 1155 1130 m 38 Y s 1155 1168 m -369 X s 786 1168 m -38 Y s 1 1 1 c black 1 1 1 c
 gsave  710 567 779 603 C 790.007 1142.38 t 0 r /Helvetica-Bold findfont 28.5146 sf 0 0 m (Input variable: yybb.HT_l2) show NC gr  1 0 0 c 6 lw black 3 lw 1 0 0 c 1439 706 m s 1424 706 m s 1410 708 m -1 -2 d s 1397 709 m -3 -3 d s 1386 714 m -7 -8 d
 s 1366 708 m -2 -2 d s 1354 712 m -5 -6 d s 1345 718 m -12 -12 d s 1332 720 m -14 -14 d s 1318 721 m -15 -15 d s 1300 718 m -12 -12 d s 1296 729 m -23 -23 d s 1290 739 m -32 -33 d s 1282 746 m -13 -14 d s 1263 727 m -20 -21 d s 1276 755 m -7 -8 d s
 1255 734 m -27 -28 d s 1254 748 m -41 -42 d s 1241 750 m -43 -44 d s 1241 765 m -58 -59 d s 1238 777 m -10 -10 d s 1216 755 m -2 -2 d s 1204 743 m -36 -37 d s 1200 754 m -47 -48 d s 1200 770 m -63 -64 d s 1197 782 m -10 -11 d s 1174 758 m -52 -52 d
 s 1173 772 m -66 -66 d s 1173 788 m -81 -82 d s 1163 793 m -86 -87 d s 1159 804 m -97 -98 d s 1153 813 m -106 -107 d s 1146 821 m -114 -115 d s 1136 826 m -119 -120 d s 1122 827 m -120 -121 d s 1118 839 m -131 -133 d s 1105 840 m -133 -134 d s 1105
 855 m -148 -149 d s 1105 871 m -163 -165 d s 1105 886 m -179 -180 d s 1105 901 m -194 -195 d s 1105 916 m -165 -165 d s 1092 919 m -152 -153 d s 1077 919 m -96 -97 d s 976 817 m -8 -8 d s 964 805 m -24 -24 d s 1074 931 m -93 -93 d s 954 810 m -14
 -14 d s 1057 929 m -76 -76 d s 954 825 m -14 -14 d s 1050 937 m -69 -69 d s 944 830 m -4 -3 d s 1050 952 m -55 -55 d s 988 889 m -7 -6 d s 1050 967 m -55 -55 d s 1050 982 m -55 -55 d s 1050 998 m -28 -28 d s 1022 970 m -27 -28 d s 1050 1013 m -28
 -28 d s 1008 970 m -13 -12 d s 1050 1028 m -28 -28 d s 1050 1043 m -28 -27 d s 1050 1058 m -28 -27 d s 1040 1064 m -18 -18 d s 1036 1075 m -14 -14 d s 1023 1077 m -1 -1 d s 6 lw 899 709 m 14 X 13 Y 14 X 14 Y 13 X 94 Y 14 X -25 Y 14 X 12 Y 13 X 72 Y
 14 X 81 Y 27 X 107 Y 14 X -13 Y 14 X -135 Y 14 X 2 Y 13 X -13 Y 14 X 1 Y 14 X -80 Y 13 X -12 Y 14 X -1 Y 14 X -13 Y 13 X -20 Y 14 X -35 Y 14 X 24 Y 13 X -39 Y 14 X 12 Y 14 X 22 Y 13 X -29 Y 14 X -21 Y 14 X 28 Y 13 X -16 Y 14 X -21 Y 14 X 3 Y 13 X -1
 Y 14 X -2 Y 14 X -6 Y 13 X -4 Y 14 X 6 Y 14 X -5 Y 13 X -1 Y 14 X -2 Y 28 X -21 Y s black 3 lw 899 685 m 548 X s 943 698 m -13 Y s 955 691 m -6 Y s 966 691 m -6 Y s 978 691 m -6 Y s 990 691 m -6 Y s 1001 698 m -13 Y s 1013 691 m -6 Y s 1024 691 m -6
 Y s 1036 691 m -6 Y s 1047 691 m -6 Y s 1059 698 m -13 Y s 1070 691 m -6 Y s 1082 691 m -6 Y s 1094 691 m -6 Y s 1105 691 m -6 Y s 1117 698 m -13 Y s 1128 691 m -6 Y s 1140 691 m -6 Y s 1151 691 m -6 Y s 1163 691 m -6 Y s 1174 698 m -13 Y s 1186 691
 m -6 Y s 1198 691 m -6 Y s 1209 691 m -6 Y s 1221 691 m -6 Y s 1232 698 m -13 Y s 1244 691 m -6 Y s 1255 691 m -6 Y s 1267 691 m -6 Y s 1278 691 m -6 Y s 1290 698 m -13 Y s 1302 691 m -6 Y s 1313 691 m -6 Y s 1325 691 m -6 Y s 1336 691 m -6 Y s 1348
 698 m -13 Y s 1359 691 m -6 Y s 1371 691 m -6 Y s 1382 691 m -6 Y s 1394 691 m -6 Y s 1406 698 m -13 Y s 943 698 m -13 Y s 932 691 m -6 Y s 920 691 m -6 Y s 909 691 m -6 Y s 1406 698 m -13 Y s 1417 691 m -6 Y s 1429 691 m -6 Y s 1440 691 m -6 Y s
 899 1114 m 548 X s 943 1100 m 14 Y s 955 1107 m 7 Y s 966 1107 m 7 Y s 978 1107 m 7 Y s 990 1107 m 7 Y s 1001 1100 m 14 Y s 1013 1107 m 7 Y s 1024 1107 m 7 Y s 1036 1107 m 7 Y s 1047 1107 m 7 Y s 1059 1100 m 14 Y s 1070 1107 m 7 Y s 1082 1107 m 7 Y
 s 1094 1107 m 7 Y s 1105 1107 m 7 Y s 1117 1100 m 14 Y s 1128 1107 m 7 Y s 1140 1107 m 7 Y s 1151 1107 m 7 Y s 1163 1107 m 7 Y s 1174 1100 m 14 Y s 1186 1107 m 7 Y s 1198 1107 m 7 Y s 1209 1107 m 7 Y s 1221 1107 m 7 Y s 1232 1100 m 14 Y s 1244 1107
 m 7 Y s 1255 1107 m 7 Y s 1267 1107 m 7 Y s 1278 1107 m 7 Y s 1290 1100 m 14 Y s 1302 1107 m 7 Y s 1313 1107 m 7 Y s 1325 1107 m 7 Y s 1336 1107 m 7 Y s 1348 1100 m 14 Y s 1359 1107 m 7 Y s 1371 1107 m 7 Y s 1382 1107 m 7 Y s 1394 1107 m 7 Y s 1406
 1100 m 14 Y s 943 1100 m 14 Y s 932 1107 m 7 Y s 920 1107 m 7 Y s 909 1107 m 7 Y s 1406 1100 m 14 Y s 1417 1107 m 7 Y s 1429 1107 m 7 Y s 1440 1107 m 7 Y s 899 685 m 429 Y s 915 706 m -16 X s 907 715 m -8 X s 907 724 m -8 X s 907 733 m -8 X s 907
 742 m -8 X s 915 751 m -16 X s 907 760 m -8 X s 907 769 m -8 X s 907 777 m -8 X s 907 786 m -8 X s 915 795 m -16 X s 907 804 m -8 X s 907 813 m -8 X s 907 822 m -8 X s 907 831 m -8 X s 915 840 m -16 X s 907 849 m -8 X s 907 858 m -8 X s 907 866 m -8
 X s 907 875 m -8 X s 915 884 m -16 X s 907 893 m -8 X s 907 902 m -8 X s 907 911 m -8 X s 907 920 m -8 X s 915 929 m -16 X s 907 938 m -8 X s 907 946 m -8 X s 907 955 m -8 X s 907 964 m -8 X s 915 973 m -16 X s 907 982 m -8 X s 907 991 m -8 X s 907
 1000 m -8 X s 907 1009 m -8 X s 915 1018 m -16 X s 907 1027 m -8 X s 907 1035 m -8 X s 907 1044 m -8 X s 907 1053 m -8 X s 915 1062 m -16 X s 907 1071 m -8 X s 907 1080 m -8 X s 907 1089 m -8 X s 907 1098 m -8 X s 915 1107 m -16 X s 915 706 m -16 X
 s 907 697 m -8 X s 907 689 m -8 X s 915 1107 m -16 X s 1447 685 m 429 Y s 1430 706 m 17 X s 1438 715 m 9 X s 1438 724 m 9 X s 1438 733 m 9 X s 1438 742 m 9 X s 1430 751 m 17 X s 1438 760 m 9 X s 1438 769 m 9 X s 1438 777 m 9 X s 1438 786 m 9 X s
 1430 795 m 17 X s 1438 804 m 9 X s 1438 813 m 9 X s 1438 822 m 9 X s 1438 831 m 9 X s 1430 840 m 17 X s 1438 849 m 9 X s 1438 858 m 9 X s 1438 866 m 9 X s 1438 875 m 9 X s 1430 884 m 17 X s 1438 893 m 9 X s 1438 902 m 9 X s 1438 911 m 9 X s 1438 920
 m 9 X s 1430 929 m 17 X s 1438 938 m 9 X s 1438 946 m 9 X s 1438 955 m 9 X s 1438 964 m 9 X s 1430 973 m 17 X s 1438 982 m 9 X s 1438 991 m 9 X s 1438 1000 m 9 X s 1438 1009 m 9 X s 1430 1018 m 17 X s 1438 1027 m 9 X s 1438 1035 m 9 X s 1438 1044 m
 9 X s 1438 1053 m 9 X s 1430 1062 m 17 X s 1438 1071 m 9 X s 1438 1080 m 9 X s 1438 1089 m 9 X s 1438 1098 m 9 X s 1430 1107 m 17 X s 1430 706 m 17 X s 1438 697 m 9 X s 1438 689 m 9 X s 1430 1107 m 17 X s
 gsave  710 567 779 603 C 1474.92 682.347 t 90 r /Helvetica-Bold findfont 19.9602 sf 0 0 m (U/O\255flow \(S,B\): \(0.0, 0.0\)% / \(0.0, 0.0\)%) show NC gr  0.490196 0.545098 0.615686 c 0.364706 0.419608 0.490196 c 369 38 786 1130 bf 0.490196 0.545098
 0.615686 c 786 1130 m 369 X s 1155 1130 m 38 Y s 1155 1168 m -369 X s 786 1168 m -38 Y s 1 1 1 c black 1 1 1 c
 gsave  710 567 779 603 C 790.007 1142.38 t 0 r /Helvetica-Bold findfont 28.5146 sf 0 0 m (Input variable: yybb.HT_l2) show NC gr  0.490196 0.545098 0.615686 c 0.941176 0.941176 0.941176 c 711 567 1534 603 bf black 1 1 0.992157 c 547 429 1655 685 bf
 black 547 429 1655 685 bl 0 0 0.933333 c 6 lw 0.49 0.6 0.82 c black 3 lw 0.49 0.6 0.82 c 1655 706 m 28 X 1 Y 27 X 2 Y 14 X 10 Y 13 X 7 Y 14 X 14 Y 14 X 36 Y 13 X 63 Y 14 X 26 Y 14 X 65 Y 13 X -25 Y 14 X 87 Y 14 X 51 Y 13 X -8 Y 14 X 42 Y 14 X -102 Y
 13 X 30 Y 14 X -79 Y 14 X 5 Y 14 X -60 Y 13 X -62 Y 14 X -37 Y 14 X 7 Y 13 X -33 Y 14 X -3 Y 14 X -13 Y 13 X -11 Y 14 X -6 Y 14 X -4 Y 13 X -2 Y 14 X -1 Y 14 X -1 Y 13 X 1 Y 14 X 1 Y 14 X -1 Y 54 X f 6 lw 0 0 0.933333 c 0.49 0.6 0.82 c 0 0 0.933333
 c 1655 706 m 28 X 1 Y 27 X 2 Y 14 X 10 Y 13 X 7 Y 14 X 14 Y 14 X 36 Y 13 X 63 Y 14 X 26 Y 14 X 65 Y 13 X -25 Y 14 X 87 Y 14 X 51 Y 13 X -8 Y 14 X 42 Y 14 X -102 Y 13 X 30 Y 14 X -79 Y 14 X 5 Y 14 X -60 Y 13 X -62 Y 14 X -37 Y 14 X 7 Y 13 X -33 Y 14
 X -3 Y 14 X -13 Y 13 X -11 Y 14 X -6 Y 14 X -4 Y 13 X -2 Y 14 X -1 Y 14 X -1 Y 13 X 1 Y 14 X 1 Y 14 X -1 Y 54 X s black 3 lw 1655 685 m 547 X s 1681 698 m -13 Y s 1703 691 m -6 Y s 1725 691 m -6 Y s 1747 691 m -6 Y s 1769 691 m -6 Y s 1790 698 m -13
 Y s 1812 691 m -6 Y s 1834 691 m -6 Y s 1856 691 m -6 Y s 1878 691 m -6 Y s 1900 698 m -13 Y s 1921 691 m -6 Y s 1943 691 m -6 Y s 1965 691 m -6 Y s 1987 691 m -6 Y s 2009 698 m -13 Y s 2031 691 m -6 Y s 2053 691 m -6 Y s 2074 691 m -6 Y s 2096 691
 m -6 Y s 2118 698 m -13 Y s 1681 698 m -13 Y s 1659 691 m -6 Y s 2118 698 m -13 Y s 2140 691 m -6 Y s 2162 691 m -6 Y s 2184 691 m -6 Y s
 gsave  711 567 1534 603 C 1668.11 656.444 t 0 r /Helvetica findfont 25.6631 sf 0 0 m (0.2) show NC gr 
 gsave  711 567 1534 603 C 1653.9 656.444 t 0 r /Symbol findfont 25.6631 sf 0 0 m (-) show NC gr 
 gsave  711 567 1534 603 C 1778.94 656.444 t 0 r /Helvetica findfont 25.6631 sf 0 0 m (0.1) show NC gr 
 gsave  711 567 1534 603 C 1767.57 656.444 t 0 r /Symbol findfont 25.6631 sf 0 0 m (-) show NC gr 
 gsave  711 567 1534 603 C 1889.76 656.444 t 0 r /Helvetica findfont 25.6631 sf 0 0 m (0) show NC gr 
 gsave  711 567 1534 603 C 1989.22 656.444 t 0 r /Helvetica findfont 25.6631 sf 0 0 m (0.1) show NC gr 
 gsave  711 567 1534 603 C 2100.05 656.444 t 0 r /Helvetica findfont 25.6631 sf 0 0 m (0.2) show NC gr 
 gsave  711 567 1534 603 C 2060.27 616.66 t 0 r /Helvetica findfont 28.5146 sf 0 0 m (yybb.HT_l3) show NC gr  1655 1114 m 547 X s 1681 1100 m 14 Y s 1703 1107 m 7 Y s 1725 1107 m 7 Y s 1747 1107 m 7 Y s 1769 1107 m 7 Y s 1790 1100 m 14 Y s 1812 1107
 m 7 Y s 1834 1107 m 7 Y s 1856 1107 m 7 Y s 1878 1107 m 7 Y s 1900 1100 m 14 Y s 1921 1107 m 7 Y s 1943 1107 m 7 Y s 1965 1107 m 7 Y s 1987 1107 m 7 Y s 2009 1100 m 14 Y s 2031 1107 m 7 Y s 2053 1107 m 7 Y s 2074 1107 m 7 Y s 2096 1107 m 7 Y s 2118
 1100 m 14 Y s 1681 1100 m 14 Y s 1659 1107 m 7 Y s 2118 1100 m 14 Y s 2140 1107 m 7 Y s 2162 1107 m 7 Y s 2184 1107 m 7 Y s 1655 685 m 429 Y s 1671 706 m -16 X s 1663 715 m -8 X s 1663 725 m -8 X s 1663 734 m -8 X s 1663 743 m -8 X s 1671 753 m -16
 X s 1663 762 m -8 X s 1663 771 m -8 X s 1663 781 m -8 X s 1663 790 m -8 X s 1671 799 m -16 X s 1663 809 m -8 X s 1663 818 m -8 X s 1663 827 m -8 X s 1663 837 m -8 X s 1671 846 m -16 X s 1663 855 m -8 X s 1663 865 m -8 X s 1663 874 m -8 X s 1663 883
 m -8 X s 1671 893 m -16 X s 1663 902 m -8 X s 1663 911 m -8 X s 1663 921 m -8 X s 1663 930 m -8 X s 1671 939 m -16 X s 1663 949 m -8 X s 1663 958 m -8 X s 1663 967 m -8 X s 1663 977 m -8 X s 1671 986 m -16 X s 1663 995 m -8 X s 1663 1005 m -8 X s
 1663 1014 m -8 X s 1663 1023 m -8 X s 1671 1033 m -16 X s 1663 1042 m -8 X s 1663 1051 m -8 X s 1663 1061 m -8 X s 1663 1070 m -8 X s 1671 1079 m -16 X s 1671 706 m -16 X s 1663 697 m -8 X s 1663 687 m -8 X s 1671 1079 m -16 X s 1663 1089 m -8 X s
 1663 1098 m -8 X s 1663 1107 m -8 X s
 gsave  711 567 1534 603 C 1631.16 696.229 t 0 r /Helvetica findfont 25.6631 sf 0 0 m (0) show NC gr 
 gsave  711 567 1534 603 C 1634.01 741.697 t 0 r /Helvetica findfont 25.6631 sf 0 0 m (1) show NC gr 
 gsave  711 567 1534 603 C 1631.16 790.007 t 0 r /Helvetica findfont 25.6631 sf 0 0 m (2) show NC gr 
 gsave  711 567 1534 603 C 1631.16 835.475 t 0 r /Helvetica findfont 25.6631 sf 0 0 m (3) show NC gr 
 gsave  711 567 1534 603 C 1631.16 883.784 t 0 r /Helvetica findfont 25.6631 sf 0 0 m (4) show NC gr 
 gsave  711 567 1534 603 C 1631.16 929.252 t 0 r /Helvetica findfont 25.6631 sf 0 0 m (5) show NC gr 
 gsave  711 567 1534 603 C 1631.16 974.72 t 0 r /Helvetica findfont 25.6631 sf 0 0 m (6) show NC gr 
 gsave  711 567 1534 603 C 1631.16 1023.03 t 0 r /Helvetica findfont 25.6631 sf 0 0 m (7) show NC gr 
 gsave  711 567 1534 603 C 1631.16 1068.5 t 0 r /Helvetica findfont 25.6631 sf 0 0 m (8) show NC gr 
 gsave  711 567 1534 603 C 1557.28 1023.03 t 90 r /Helvetica findfont 28.5146 sf 0 0 m (0.0125 ) show NC gr 
 gsave  711 567 1534 603 C 1543.07 1020.19 t 90 r /Helvetica findfont 19.9602 sf 0 0 m ( ) show NC gr 
 gsave  711 567 1534 603 C 1557.28 1008.82 t 90 r /Helvetica findfont 28.5146 sf 0 0 m (/) show NC gr 
 gsave  711 567 1534 603 C 1565.8 1005.98 t 90 r /Helvetica findfont 19.9602 sf 0 0 m ( ) show NC gr 
 gsave  711 567 1534 603 C 1557.28 900.835 t 90 r /Helvetica findfont 28.5146 sf 0 0 m (\(1/N\) dN) show NC gr  2202 685 m 429 Y s 2186 706 m 16 X s 2194 715 m 8 X s 2194 725 m 8 X s 2194 734 m 8 X s 2194 743 m 8 X s 2186 753 m 16 X s 2194 762 m 8 X
 s 2194 771 m 8 X s 2194 781 m 8 X s 2194 790 m 8 X s 2186 799 m 16 X s 2194 809 m 8 X s 2194 818 m 8 X s 2194 827 m 8 X s 2194 837 m 8 X s 2186 846 m 16 X s 2194 855 m 8 X s 2194 865 m 8 X s 2194 874 m 8 X s 2194 883 m 8 X s 2186 893 m 16 X s 2194
 902 m 8 X s 2194 911 m 8 X s 2194 921 m 8 X s 2194 930 m 8 X s 2186 939 m 16 X s 2194 949 m 8 X s 2194 958 m 8 X s 2194 967 m 8 X s 2194 977 m 8 X s 2186 986 m 16 X s 2194 995 m 8 X s 2194 1005 m 8 X s 2194 1014 m 8 X s 2194 1023 m 8 X s 2186 1033 m
 16 X s 2194 1042 m 8 X s 2194 1051 m 8 X s 2194 1061 m 8 X s 2194 1070 m 8 X s 2186 1079 m 16 X s 2186 706 m 16 X s 2194 697 m 8 X s 2194 687 m 8 X s 2186 1079 m 16 X s 2194 1089 m 8 X s 2194 1098 m 8 X s 2194 1107 m 8 X s 0.490196 0.545098 0.615686
 c 0.364706 0.419608 0.490196 c 369 38 1542 1130 bf 0.490196 0.545098 0.615686 c 1542 1130 m 369 X s 1911 1130 m 38 Y s 1911 1168 m -369 X s 1542 1168 m -38 Y s 1 1 1 c black 1 1 1 c
 gsave  711 567 1534 603 C 1545.91 1142.38 t 0 r /Helvetica-Bold findfont 28.5146 sf 0 0 m (Input variable: yybb.HT_l3) show NC gr  1 0 0 c 6 lw black 3 lw 1 0 0 c 2194 706 m s 2179 706 m s 2164 706 m s 2151 708 m -2 -2 d s 2141 713 m -7 -7 d s 2119
 706 m s 2104 706 m s 2093 710 m -4 -4 d s 2080 712 m -6 -6 d s 2079 727 m -20 -21 d s 2053 715 m -9 -9 d s 2051 729 m -22 -23 d s 2037 729 m -23 -23 d s 2025 732 m -27 -26 d s 2025 747 m -42 -41 d s 2025 763 m -57 -57 d s 2025 778 m -72 -72 d s 2025
 793 m -87 -87 d s 2015 799 m -92 -93 d s 2011 810 m -103 -104 d s 2005 818 m -112 -112 d s 1997 826 m -119 -120 d s 1997 841 m -134 -135 d s 1993 852 m -145 -146 d s 1984 858 m -151 -152 d s 1976 865 m -158 -159 d s 1970 874 m -168 -168 d s 1970 890
 m -183 -184 d s 1964 899 m -8 -8 d s 1943 877 m -171 -171 d s 1943 892 m -165 -165 d s 1778 727 m -21 -21 d s 1939 904 m -161 -162 d s 1758 722 m -7 -7 d s 1744 708 m -2 -2 d s 1929 909 m -151 -152 d s 1729 708 m -2 -2 d s 1929 924 m -137 -138 d s
 1786 780 m -8 -7 d s 1712 706 m s 1929 939 m -14 -13 d s 1911 921 m -119 -119 d s 1703 711 m -6 -5 d s 1929 955 m -14 -14 d s 1901 927 m -109 -110 d s 1682 706 m s 1929 970 m -14 -14 d s 1901 942 m -68 -69 d s 1825 865 m -19 -19 d s 1804 844 m -12
 -12 d s 1667 706 m s 1929 985 m -14 -14 d s 1901 957 m -68 -68 d s 1808 863 m -2 -2 d s 1929 1000 m -14 -14 d s 1901 973 m -68 -69 d s 1919 1005 m -4 -3 d s 1901 988 m -54 -55 d s 1843 928 m -10 -9 d s 1901 1003 m -13 -14 d s 1879 980 m -32 -32 d s
 1895 1011 m -7 -7 d s 1874 991 m -27 -28 d s 1874 1006 m -27 -28 d s 1874 1021 m -27 -28 d s 1874 1036 m -14 -14 d s 1860 1022 m -13 -13 d s 1874 1051 m -14 -13 d s 1869 1061 m -9 -8 d s 6 lw 1655 706 m 41 X 5 Y 14 X -5 Y 14 X 2 Y 27 X 14 Y 14 X 5 Y
 13 X 53 Y 14 X 64 Y 14 X 19 Y 13 X 2 Y 14 X 63 Y 14 X 94 Y 13 X 39 Y 14 X -81 Y 14 X 31 Y 13 X -90 Y 14 X 84 Y 14 X -101 Y 14 X -27 Y 13 X 22 Y 14 X -34 Y 14 X -13 Y 13 X -34 Y 14 X -19 Y 14 X -70 Y 27 X -14 Y 14 X 12 Y 13 X -15 Y 14 X -6 Y 41 X 7 Y
 14 X -5 Y 13 X -2 Y 41 X s black 3 lw 1655 685 m 547 X s 1681 698 m -13 Y s 1703 691 m -6 Y s 1725 691 m -6 Y s 1747 691 m -6 Y s 1769 691 m -6 Y s 1790 698 m -13 Y s 1812 691 m -6 Y s 1834 691 m -6 Y s 1856 691 m -6 Y s 1878 691 m -6 Y s 1900 698 m
 -13 Y s 1921 691 m -6 Y s 1943 691 m -6 Y s 1965 691 m -6 Y s 1987 691 m -6 Y s 2009 698 m -13 Y s 2031 691 m -6 Y s 2053 691 m -6 Y s 2074 691 m -6 Y s 2096 691 m -6 Y s 2118 698 m -13 Y s 1681 698 m -13 Y s 1659 691 m -6 Y s 2118 698 m -13 Y s
 2140 691 m -6 Y s 2162 691 m -6 Y s 2184 691 m -6 Y s 1655 1114 m 547 X s 1681 1100 m 14 Y s 1703 1107 m 7 Y s 1725 1107 m 7 Y s 1747 1107 m 7 Y s 1769 1107 m 7 Y s 1790 1100 m 14 Y s 1812 1107 m 7 Y s 1834 1107 m 7 Y s 1856 1107 m 7 Y s 1878 1107 m
 7 Y s 1900 1100 m 14 Y s 1921 1107 m 7 Y s 1943 1107 m 7 Y s 1965 1107 m 7 Y s 1987 1107 m 7 Y s 2009 1100 m 14 Y s 2031 1107 m 7 Y s 2053 1107 m 7 Y s 2074 1107 m 7 Y s 2096 1107 m 7 Y s 2118 1100 m 14 Y s 1681 1100 m 14 Y s 1659 1107 m 7 Y s 2118
 1100 m 14 Y s 2140 1107 m 7 Y s 2162 1107 m 7 Y s 2184 1107 m 7 Y s 1655 685 m 429 Y s 1671 706 m -16 X s 1663 715 m -8 X s 1663 725 m -8 X s 1663 734 m -8 X s 1663 743 m -8 X s 1671 753 m -16 X s 1663 762 m -8 X s 1663 771 m -8 X s 1663 781 m -8 X
 s 1663 790 m -8 X s 1671 799 m -16 X s 1663 809 m -8 X s 1663 818 m -8 X s 1663 827 m -8 X s 1663 837 m -8 X s 1671 846 m -16 X s 1663 855 m -8 X s 1663 865 m -8 X s 1663 874 m -8 X s 1663 883 m -8 X s 1671 893 m -16 X s 1663 902 m -8 X s 1663 911 m
 -8 X s 1663 921 m -8 X s 1663 930 m -8 X s 1671 939 m -16 X s 1663 949 m -8 X s 1663 958 m -8 X s 1663 967 m -8 X s 1663 977 m -8 X s 1671 986 m -16 X s 1663 995 m -8 X s 1663 1005 m -8 X s 1663 1014 m -8 X s 1663 1023 m -8 X s 1671 1033 m -16 X s
 1663 1042 m -8 X s 1663 1051 m -8 X s 1663 1061 m -8 X s 1663 1070 m -8 X s 1671 1079 m -16 X s 1671 706 m -16 X s 1663 697 m -8 X s 1663 687 m -8 X s 1671 1079 m -16 X s 1663 1089 m -8 X s 1663 1098 m -8 X s 1663 1107 m -8 X s 2202 685 m 429 Y s
 2186 706 m 16 X s 2194 715 m 8 X s 2194 725 m 8 X s 2194 734 m 8 X s 2194 743 m 8 X s 2186 753 m 16 X s 2194 762 m 8 X s 2194 771 m 8 X s 2194 781 m 8 X s 2194 790 m 8 X s 2186 799 m 16 X s 2194 809 m 8 X s 2194 818 m 8 X s 2194 827 m 8 X s 2194 837
 m 8 X s 2186 846 m 16 X s 2194 855 m 8 X s 2194 865 m 8 X s 2194 874 m 8 X s 2194 883 m 8 X s 2186 893 m 16 X s 2194 902 m 8 X s 2194 911 m 8 X s 2194 921 m 8 X s 2194 930 m 8 X s 2186 939 m 16 X s 2194 949 m 8 X s 2194 958 m 8 X s 2194 967 m 8 X s
 2194 977 m 8 X s 2186 986 m 16 X s 2194 995 m 8 X s 2194 1005 m 8 X s 2194 1014 m 8 X s 2194 1023 m 8 X s 2186 1033 m 16 X s 2194 1042 m 8 X s 2194 1051 m 8 X s 2194 1061 m 8 X s 2194 1070 m 8 X s 2186 1079 m 16 X s 2186 706 m 16 X s 2194 697 m 8 X
 s 2194 687 m 8 X s 2186 1079 m 16 X s 2194 1089 m 8 X s 2194 1098 m 8 X s 2194 1107 m 8 X s
 gsave  711 567 1534 603 C 2230.83 682.347 t 90 r /Helvetica-Bold findfont 19.9602 sf 0 0 m (U/O\255flow \(S,B\): \(0.0, 0.0\)% / \(0.0, 0.0\)%) show NC gr  0.490196 0.545098 0.615686 c 0.364706 0.419608 0.490196 c 369 38 1542 1130 bf 0.490196
 0.545098 0.615686 c 1542 1130 m 369 X s 1911 1130 m 38 Y s 1911 1168 m -369 X s 1542 1168 m -38 Y s 1 1 1 c black 1 1 1 c
 gsave  711 567 1534 603 C 1545.91 1142.38 t 0 r /Helvetica-Bold findfont 28.5146 sf 0 0 m (Input variable: yybb.HT_l3) show NC gr  0.490196 0.545098 0.615686 c 0.941176 0.941176 0.941176 c 710 567 23 12 bf black 1 1 0.992157 c 548 429 143 94 bf
 black 548 429 143 94 bl 0 0 0.933333 c 6 lw 0.49 0.6 0.82 c black 3 lw 0.49 0.6 0.82 c 143 114 m 5 Y 14 X 23 Y 14 X 23 Y 14 X 15 Y 13 X 44 Y 14 X 80 Y 14 X 27 Y 13 X 90 Y 14 X -4 Y 14 X -36 Y 13 X 32 Y 14 X -6 Y 14 X 47 Y 13 X -84 Y 14 X -69 Y 14 X
 -76 Y 13 X 22 Y 14 X 34 Y 14 X -55 Y 13 X -9 Y 14 X -33 Y 14 X -32 Y 13 X -11 Y 14 X -1 Y 14 X 4 Y 13 X -17 Y 14 X -9 Y 14 X 5 Y 13 X -5 Y 14 X -3 Y 14 X 3 Y 13 X -3 Y 14 X -1 Y 14 X 1 Y 14 X 1 Y 13 X -2 Y 69 X f 6 lw 0 0 0.933333 c 0.49 0.6 0.82 c
 0 0 0.933333 c 143 119 m 14 X 23 Y 14 X 23 Y 14 X 15 Y 13 X 44 Y 14 X 80 Y 14 X 27 Y 13 X 90 Y 14 X -4 Y 14 X -36 Y 13 X 32 Y 14 X -6 Y 14 X 47 Y 13 X -84 Y 14 X -69 Y 14 X -76 Y 13 X 22 Y 14 X 34 Y 14 X -55 Y 13 X -9 Y 14 X -33 Y 14 X -32 Y 13 X
 -11 Y 14 X -1 Y 14 X 4 Y 13 X -17 Y 14 X -9 Y 14 X 5 Y 13 X -5 Y 14 X -3 Y 14 X 3 Y 13 X -3 Y 14 X -1 Y 14 X 1 Y 14 X 1 Y 13 X -2 Y 69 X s black 3 lw 143 94 m 548 X s 180 107 m -13 Y s 194 100 m -6 Y s 208 100 m -6 Y s 222 100 m -6 Y s 236 100 m -6
 Y s 250 107 m -13 Y s 265 100 m -6 Y s 279 100 m -6 Y s 293 100 m -6 Y s 307 100 m -6 Y s 321 107 m -13 Y s 335 100 m -6 Y s 349 100 m -6 Y s 363 100 m -6 Y s 377 100 m -6 Y s 391 107 m -13 Y s 405 100 m -6 Y s 420 100 m -6 Y s 434 100 m -6 Y s 448
 100 m -6 Y s 462 107 m -13 Y s 476 100 m -6 Y s 490 100 m -6 Y s 504 100 m -6 Y s 518 100 m -6 Y s 532 107 m -13 Y s 546 100 m -6 Y s 561 100 m -6 Y s 575 100 m -6 Y s 589 100 m -6 Y s 603 107 m -13 Y s 617 100 m -6 Y s 631 100 m -6 Y s 645 100 m -6
 Y s 659 100 m -6 Y s 673 107 m -13 Y s 180 107 m -13 Y s 166 100 m -6 Y s 152 100 m -6 Y s 673 107 m -13 Y s 687 100 m -6 Y s
 gsave  710 567 23 12 C 167.663 65.3603 t 0 r /Helvetica findfont 25.6631 sf 0 0 m (0.1) show NC gr 
 gsave  710 567 23 12 C 156.296 65.3603 t 0 r /Symbol findfont 25.6631 sf 0 0 m (-) show NC gr 
 gsave  710 567 23 12 C 230.182 65.3603 t 0 r /Helvetica findfont 25.6631 sf 0 0 m (0.05) show NC gr 
 gsave  710 567 23 12 C 218.815 65.3603 t 0 r /Symbol findfont 25.6631 sf 0 0 m (-) show NC gr 
 gsave  710 567 23 12 C 309.751 65.3603 t 0 r /Helvetica findfont 25.6631 sf 0 0 m (0) show NC gr 
 gsave  710 567 23 12 C 363.744 65.3603 t 0 r /Helvetica findfont 25.6631 sf 0 0 m (0.05) show NC gr 
 gsave  710 567 23 12 C 443.313 65.3603 t 0 r /Helvetica findfont 25.6631 sf 0 0 m (0.1) show NC gr 
 gsave  710 567 23 12 C 505.832 65.3603 t 0 r /Helvetica findfont 25.6631 sf 0 0 m (0.15) show NC gr 
 gsave  710 567 23 12 C 585.401 65.3603 t 0 r /Helvetica findfont 25.6631 sf 0 0 m (0.2) show NC gr 
 gsave  710 567 23 12 C 645.077 65.3603 t 0 r /Helvetica findfont 25.6631 sf 0 0 m (0.25) show NC gr 
 gsave  710 567 23 12 C 548.458 25.5758 t 0 r /Helvetica findfont 28.5146 sf 0 0 m (yybb.HT_l4) show NC gr  143 523 m 548 X s 180 509 m 14 Y s 194 516 m 7 Y s 208 516 m 7 Y s 222 516 m 7 Y s 236 516 m 7 Y s 250 509 m 14 Y s 265 516 m 7 Y s 279 516 m
 7 Y s 293 516 m 7 Y s 307 516 m 7 Y s 321 509 m 14 Y s 335 516 m 7 Y s 349 516 m 7 Y s 363 516 m 7 Y s 377 516 m 7 Y s 391 509 m 14 Y s 405 516 m 7 Y s 420 516 m 7 Y s 434 516 m 7 Y s 448 516 m 7 Y s 462 509 m 14 Y s 476 516 m 7 Y s 490 516 m 7 Y s
 504 516 m 7 Y s 518 516 m 7 Y s 532 509 m 14 Y s 546 516 m 7 Y s 561 516 m 7 Y s 575 516 m 7 Y s 589 516 m 7 Y s 603 509 m 14 Y s 617 516 m 7 Y s 631 516 m 7 Y s 645 516 m 7 Y s 659 516 m 7 Y s 673 509 m 14 Y s 180 509 m 14 Y s 166 516 m 7 Y s 152
 516 m 7 Y s 673 509 m 14 Y s 687 516 m 7 Y s 143 94 m 429 Y s 160 114 m -17 X s 152 132 m -9 X s 152 151 m -9 X s 152 169 m -9 X s 160 187 m -17 X s 152 206 m -9 X s 152 224 m -9 X s 152 242 m -9 X s 160 261 m -17 X s 152 279 m -9 X s 152 297 m -9 X
 s 152 316 m -9 X s 160 334 m -17 X s 152 352 m -9 X s 152 371 m -9 X s 152 389 m -9 X s 160 407 m -17 X s 152 426 m -9 X s 152 444 m -9 X s 152 462 m -9 X s 160 481 m -17 X s 160 114 m -17 X s 152 96 m -9 X s 160 481 m -17 X s 152 499 m -9 X s 152
 517 m -9 X s
 gsave  710 567 23 12 C 119.354 105.145 t 0 r /Helvetica findfont 25.6631 sf 0 0 m (0) show NC gr 
 gsave  710 567 23 12 C 119.354 176.189 t 0 r /Helvetica findfont 25.6631 sf 0 0 m (2) show NC gr 
 gsave  710 567 23 12 C 119.354 250.074 t 0 r /Helvetica findfont 25.6631 sf 0 0 m (4) show NC gr 
 gsave  710 567 23 12 C 119.354 323.96 t 0 r /Helvetica findfont 25.6631 sf 0 0 m (6) show NC gr 
 gsave  710 567 23 12 C 119.354 397.845 t 0 r /Helvetica findfont 25.6631 sf 0 0 m (8) show NC gr 
 gsave  710 567 23 12 C 105.145 471.731 t 0 r /Helvetica findfont 25.6631 sf 0 0 m (10) show NC gr 
 gsave  710 567 23 12 C 45.468 431.946 t 90 r /Helvetica findfont 28.5146 sf 0 0 m (0.0097 ) show NC gr 
 gsave  710 567 23 12 C 31.2593 429.104 t 90 r /Helvetica findfont 19.9602 sf 0 0 m ( ) show NC gr 
 gsave  710 567 23 12 C 45.468 417.737 t 90 r /Helvetica findfont 28.5146 sf 0 0 m (/) show NC gr 
 gsave  710 567 23 12 C 53.9933 414.896 t 90 r /Helvetica findfont 19.9602 sf 0 0 m ( ) show NC gr 
 gsave  710 567 23 12 C 45.468 309.751 t 90 r /Helvetica findfont 28.5146 sf 0 0 m (\(1/N\) dN) show NC gr  691 94 m 429 Y s 674 114 m 17 X s 683 132 m 8 X s 683 151 m 8 X s 683 169 m 8 X s 674 187 m 17 X s 683 206 m 8 X s 683 224 m 8 X s 683 242 m 8
 X s 674 261 m 17 X s 683 279 m 8 X s 683 297 m 8 X s 683 316 m 8 X s 674 334 m 17 X s 683 352 m 8 X s 683 371 m 8 X s 683 389 m 8 X s 674 407 m 17 X s 683 426 m 8 X s 683 444 m 8 X s 683 462 m 8 X s 674 481 m 17 X s 674 114 m 17 X s 683 96 m 8 X s
 674 481 m 17 X s 683 499 m 8 X s 683 517 m 8 X s 0.490196 0.545098 0.615686 c 0.364706 0.419608 0.490196 c 369 37 30 539 bf 0.490196 0.545098 0.615686 c 30 539 m 369 X s 399 539 m 37 Y s 399 576 m -369 X s 30 576 m -37 Y s 1 1 1 c black 1 1 1 c
 gsave  710 567 23 12 C 34.101 551.299 t 0 r /Helvetica-Bold findfont 28.5146 sf 0 0 m (Input variable: yybb.HT_l4) show NC gr  1 0 0 c 6 lw black 3 lw 1 0 0 c 682 114 m s 667 114 m s 652 114 m s 637 114 m s 622 114 m s 606 114 m s 591 114 m s 576
 114 m s 567 120 m -6 -6 d s 556 124 m -10 -10 d s 543 126 m -3 -3 d s 538 121 m -7 -7 d s 526 124 m -10 -10 d s 507 120 m -6 -6 d s 499 127 m -13 -13 d s 489 132 m -18 -18 d s 481 139 m -25 -25 d s 467 141 m -26 -27 d s 458 147 m -32 -33 d s 450 154
 m -40 -40 d s 444 163 m -49 -49 d s 444 178 m -64 -64 d s 444 194 m -79 -80 d s 444 209 m -94 -95 d s 444 224 m -13 -14 d s 421 201 m -86 -87 d s 444 239 m -13 -14 d s 417 212 m -97 -98 d s 444 254 m -13 -13 d s 417 227 m -112 -113 d s 439 264 m -8
 -8 d s 417 242 m -14 -14 d s 400 225 m -110 -111 d s 390 230 m -115 -116 d s 390 245 m -130 -131 d s 377 247 m -132 -133 d s 376 261 m -146 -147 d s 376 277 m -161 -163 d s 376 292 m -14 -14 d s 362 277 m -163 -163 d s 369 300 m -7 -7 d s 349 279 m
 -165 -165 d s 349 295 m -180 -181 d s 344 305 m -173 -174 d s 162 122 m -5 -5 d s 154 114 m s 335 311 m -137 -138 d s 195 170 m -10 -10 d s 178 153 m -7 -7 d s 335 326 m -123 -124 d s 207 198 m -9 -9 d s 335 342 m -14 -14 d s 311 317 m -99 -99 d s
 335 357 m -14 -14 d s 308 329 m -96 -96 d s 335 372 m -14 -14 d s 308 344 m -96 -96 d s 335 387 m -14 -14 d s 308 360 m -96 -97 d s 335 402 m -14 -13 d s 300 368 m -33 -35 d s 261 328 m -22 -22 d s 234 300 m -22 -22 d s 335 417 m -14 -13 d s 294 376
 m -27 -27 d s 253 335 m -14 -14 d s 226 307 m -14 -14 d s 335 433 m -14 -14 d s 294 391 m -27 -27 d s 253 350 m -14 -14 d s 335 448 m -14 -14 d s 294 407 m -27 -28 d s 253 365 m -14 -14 d s 335 463 m -14 -14 d s 291 419 m -24 -25 d s 245 372 m -6 -5
 d s 335 478 m -14 -14 d s 273 416 m -6 -7 d s 327 485 m -6 -5 d s 6 lw 143 114 m 14 X 8 Y 14 X 31 Y 14 X 17 Y 13 X 28 Y 14 X 110 Y 14 X -8 Y 13 X 72 Y 14 X -44 Y 14 X 88 Y 13 X 3 Y 14 X -51 Y 14 X -51 Y 13 X 168 Y 14 X -180 Y 14 X -28 Y 13 X 23 Y 14
 X -53 Y 14 X -22 Y 13 X 18 Y 14 X -42 Y 14 X 63 Y 13 X -110 Y 14 X -13 Y 14 X -2 Y 13 X -7 Y 14 X -12 Y 14 X 4 Y 13 X -3 Y 14 X 5 Y 14 X -2 Y 13 X -10 Y 124 X s black 3 lw 143 94 m 548 X s 180 107 m -13 Y s 194 100 m -6 Y s 208 100 m -6 Y s 222 100
 m -6 Y s 236 100 m -6 Y s 250 107 m -13 Y s 265 100 m -6 Y s 279 100 m -6 Y s 293 100 m -6 Y s 307 100 m -6 Y s 321 107 m -13 Y s 335 100 m -6 Y s 349 100 m -6 Y s 363 100 m -6 Y s 377 100 m -6 Y s 391 107 m -13 Y s 405 100 m -6 Y s 420 100 m -6 Y s
 434 100 m -6 Y s 448 100 m -6 Y s 462 107 m -13 Y s 476 100 m -6 Y s 490 100 m -6 Y s 504 100 m -6 Y s 518 100 m -6 Y s 532 107 m -13 Y s 546 100 m -6 Y s 561 100 m -6 Y s 575 100 m -6 Y s 589 100 m -6 Y s 603 107 m -13 Y s 617 100 m -6 Y s 631 100
 m -6 Y s 645 100 m -6 Y s 659 100 m -6 Y s 673 107 m -13 Y s 180 107 m -13 Y s 166 100 m -6 Y s 152 100 m -6 Y s 673 107 m -13 Y s 687 100 m -6 Y s 143 523 m 548 X s 180 509 m 14 Y s 194 516 m 7 Y s 208 516 m 7 Y s 222 516 m 7 Y s 236 516 m 7 Y s
 250 509 m 14 Y s 265 516 m 7 Y s 279 516 m 7 Y s 293 516 m 7 Y s 307 516 m 7 Y s 321 509 m 14 Y s 335 516 m 7 Y s 349 516 m 7 Y s 363 516 m 7 Y s 377 516 m 7 Y s 391 509 m 14 Y s 405 516 m 7 Y s 420 516 m 7 Y s 434 516 m 7 Y s 448 516 m 7 Y s 462
 509 m 14 Y s 476 516 m 7 Y s 490 516 m 7 Y s 504 516 m 7 Y s 518 516 m 7 Y s 532 509 m 14 Y s 546 516 m 7 Y s 561 516 m 7 Y s 575 516 m 7 Y s 589 516 m 7 Y s 603 509 m 14 Y s 617 516 m 7 Y s 631 516 m 7 Y s 645 516 m 7 Y s 659 516 m 7 Y s 673 509 m
 14 Y s 180 509 m 14 Y s 166 516 m 7 Y s 152 516 m 7 Y s 673 509 m 14 Y s 687 516 m 7 Y s 143 94 m 429 Y s 160 114 m -17 X s 152 132 m -9 X s 152 151 m -9 X s 152 169 m -9 X s 160 187 m -17 X s 152 206 m -9 X s 152 224 m -9 X s 152 242 m -9 X s 160
 261 m -17 X s 152 279 m -9 X s 152 297 m -9 X s 152 316 m -9 X s 160 334 m -17 X s 152 352 m -9 X s 152 371 m -9 X s 152 389 m -9 X s 160 407 m -17 X s 152 426 m -9 X s 152 444 m -9 X s 152 462 m -9 X s 160 481 m -17 X s 160 114 m -17 X s 152 96 m
 -9 X s 160 481 m -17 X s 152 499 m -9 X s 152 517 m -9 X s 691 94 m 429 Y s 674 114 m 17 X s 683 132 m 8 X s 683 151 m 8 X s 683 169 m 8 X s 674 187 m 17 X s 683 206 m 8 X s 683 224 m 8 X s 683 242 m 8 X s 674 261 m 17 X s 683 279 m 8 X s 683 297 m
 8 X s 683 316 m 8 X s 674 334 m 17 X s 683 352 m 8 X s 683 371 m 8 X s 683 389 m 8 X s 674 407 m 17 X s 683 426 m 8 X s 683 444 m 8 X s 683 462 m 8 X s 674 481 m 17 X s 674 114 m 17 X s 683 96 m 8 X s 674 481 m 17 X s 683 499 m 8 X s 683 517 m 8 X s
 gsave  710 567 23 12 C 719.017 91.2634 t 90 r /Helvetica-Bold findfont 19.9602 sf 0 0 m (U/O\255flow \(S,B\): \(0.0, 0.0\)% / \(0.0, 0.0\)%) show NC gr  0.490196 0.545098 0.615686 c 0.364706 0.419608 0.490196 c 369 37 30 539 bf 0.490196 0.545098
 0.615686 c 30 539 m 369 X s 399 539 m 37 Y s 399 576 m -369 X s 30 576 m -37 Y s 1 1 1 c black 1 1 1 c
 gsave  710 567 23 12 C 34.101 551.299 t 0 r /Helvetica-Bold findfont 28.5146 sf 0 0 m (Input variable: yybb.HT_l4) show NC gr  0.490196 0.545098 0.615686 c 0.941176 0.941176 0.941176 c 710 567 779 12 bf black 1 1 0.992157 c 548 429 899 94 bf black
 548 429 899 94 bl 0 0 0.933333 c 6 lw 0.49 0.6 0.82 c black 3 lw 0.49 0.6 0.82 c 899 114 m 55 X 1 Y 14 X 1 Y 13 X 1 Y 14 X -2 Y 14 X 7 Y 13 X 2 Y 14 X 4 Y 14 X 8 Y 14 X 18 Y 13 X 13 Y 14 X 45 Y 14 X 36 Y 13 X 33 Y 14 X 58 Y 14 X 1 Y 13 X 28 Y 14 X 6
 Y 14 X 18 Y 13 X -54 Y 14 X -7 Y 14 X -37 Y 13 X 32 Y 14 X -115 Y 14 X 6 Y 13 X 18 Y 14 X -8 Y 14 X -21 Y 13 X -51 Y 14 X 9 Y 14 X -42 Y 13 X -6 Y 14 X 3 Y 14 X -4 Y 13 X -1 Y 42 X f 6 lw 0 0 0.933333 c 0.49 0.6 0.82 c 0 0 0.933333 c 899 114 m 55 X
 1 Y 14 X 1 Y 13 X 1 Y 14 X -2 Y 14 X 7 Y 13 X 2 Y 14 X 4 Y 14 X 8 Y 14 X 18 Y 13 X 13 Y 14 X 45 Y 14 X 36 Y 13 X 33 Y 14 X 58 Y 14 X 1 Y 13 X 28 Y 14 X 6 Y 14 X 18 Y 13 X -54 Y 14 X -7 Y 14 X -37 Y 13 X 32 Y 14 X -115 Y 14 X 6 Y 13 X 18 Y 14 X -8 Y
 14 X -21 Y 13 X -51 Y 14 X 9 Y 14 X -42 Y 13 X -6 Y 14 X 3 Y 14 X -4 Y 13 X -1 Y 42 X -20 Y s black 3 lw 899 94 m 548 X s 925 107 m -13 Y s 939 100 m -6 Y s 953 100 m -6 Y s 967 100 m -6 Y s 981 100 m -6 Y s 995 107 m -13 Y s 1009 100 m -6 Y s 1023
 100 m -6 Y s 1037 100 m -6 Y s 1051 100 m -6 Y s 1065 107 m -13 Y s 1079 100 m -6 Y s 1093 100 m -6 Y s 1107 100 m -6 Y s 1121 100 m -6 Y s 1135 107 m -13 Y s 1149 100 m -6 Y s 1163 100 m -6 Y s 1177 100 m -6 Y s 1191 100 m -6 Y s 1205 107 m -13 Y s
 1219 100 m -6 Y s 1233 100 m -6 Y s 1247 100 m -6 Y s 1261 100 m -6 Y s 1275 107 m -13 Y s 1289 100 m -6 Y s 1303 100 m -6 Y s 1317 100 m -6 Y s 1331 100 m -6 Y s 1345 107 m -13 Y s 1359 100 m -6 Y s 1373 100 m -6 Y s 1387 100 m -6 Y s 1401 100 m -6
 Y s 1415 107 m -13 Y s 925 107 m -13 Y s 911 100 m -6 Y s 1415 107 m -13 Y s 1429 100 m -6 Y s 1443 100 m -6 Y s
 gsave  710 567 779 12 C 912.202 65.3603 t 0 r /Helvetica findfont 25.6631 sf 0 0 m (0.2) show NC gr 
 gsave  710 567 779 12 C 897.993 65.3603 t 0 r /Symbol findfont 25.6631 sf 0 0 m (-) show NC gr 
 gsave  710 567 779 12 C 974.72 65.3603 t 0 r /Helvetica findfont 25.6631 sf 0 0 m (0.15) show NC gr 
 gsave  710 567 779 12 C 963.353 65.3603 t 0 r /Symbol findfont 25.6631 sf 0 0 m (-) show NC gr 
 gsave  710 567 779 12 C 1051.45 65.3603 t 0 r /Helvetica findfont 25.6631 sf 0 0 m (0.1) show NC gr 
 gsave  710 567 779 12 C 1040.08 65.3603 t 0 r /Symbol findfont 25.6631 sf 0 0 m (-) show NC gr 
 gsave  710 567 779 12 C 1113.97 65.3603 t 0 r /Helvetica findfont 25.6631 sf 0 0 m (0.05) show NC gr 
 gsave  710 567 779 12 C 1102.6 65.3603 t 0 r /Symbol findfont 25.6631 sf 0 0 m (-) show NC gr 
 gsave  710 567 779 12 C 1196.38 65.3603 t 0 r /Helvetica findfont 25.6631 sf 0 0 m (0) show NC gr 
 gsave  710 567 779 12 C 1247.53 65.3603 t 0 r /Helvetica findfont 25.6631 sf 0 0 m (0.05) show NC gr 
 gsave  710 567 779 12 C 1327.1 65.3603 t 0 r /Helvetica findfont 25.6631 sf 0 0 m (0.1) show NC gr 
 gsave  710 567 779 12 C 1389.62 65.3603 t 0 r /Helvetica findfont 25.6631 sf 0 0 m (0.15) show NC gr 
 gsave  710 567 779 12 C 1304.36 25.5758 t 0 r /Helvetica findfont 28.5146 sf 0 0 m (yybb.HT_l5) show NC gr  899 523 m 548 X s 925 509 m 14 Y s 939 516 m 7 Y s 953 516 m 7 Y s 967 516 m 7 Y s 981 516 m 7 Y s 995 509 m 14 Y s 1009 516 m 7 Y s 1023 516
 m 7 Y s 1037 516 m 7 Y s 1051 516 m 7 Y s 1065 509 m 14 Y s 1079 516 m 7 Y s 1093 516 m 7 Y s 1107 516 m 7 Y s 1121 516 m 7 Y s 1135 509 m 14 Y s 1149 516 m 7 Y s 1163 516 m 7 Y s 1177 516 m 7 Y s 1191 516 m 7 Y s 1205 509 m 14 Y s 1219 516 m 7 Y s
 1233 516 m 7 Y s 1247 516 m 7 Y s 1261 516 m 7 Y s 1275 509 m 14 Y s 1289 516 m 7 Y s 1303 516 m 7 Y s 1317 516 m 7 Y s 1331 516 m 7 Y s 1345 509 m 14 Y s 1359 516 m 7 Y s 1373 516 m 7 Y s 1387 516 m 7 Y s 1401 516 m 7 Y s 1415 509 m 14 Y s 925 509
 m 14 Y s 911 516 m 7 Y s 1415 509 m 14 Y s 1429 516 m 7 Y s 1443 516 m 7 Y s 899 94 m 429 Y s 915 114 m -16 X s 907 130 m -8 X s 907 146 m -8 X s 907 162 m -8 X s 915 178 m -16 X s 907 194 m -8 X s 907 210 m -8 X s 907 225 m -8 X s 915 241 m -16 X s
 907 257 m -8 X s 907 273 m -8 X s 907 289 m -8 X s 915 305 m -16 X s 907 321 m -8 X s 907 337 m -8 X s 907 353 m -8 X s 915 369 m -16 X s 907 385 m -8 X s 907 401 m -8 X s 907 417 m -8 X s 915 433 m -16 X s 907 448 m -8 X s 907 464 m -8 X s 907 480
 m -8 X s 915 496 m -16 X s 915 114 m -16 X s 907 98 m -8 X s 915 496 m -16 X s 907 512 m -8 X s
 gsave  710 567 779 12 C 875.259 105.145 t 0 r /Helvetica findfont 25.6631 sf 0 0 m (0) show NC gr 
 gsave  710 567 779 12 C 875.259 167.663 t 0 r /Helvetica findfont 25.6631 sf 0 0 m (2) show NC gr 
 gsave  710 567 779 12 C 875.259 230.182 t 0 r /Helvetica findfont 25.6631 sf 0 0 m (4) show NC gr 
 gsave  710 567 779 12 C 875.259 295.542 t 0 r /Helvetica findfont 25.6631 sf 0 0 m (6) show NC gr 
 gsave  710 567 779 12 C 875.259 358.061 t 0 r /Helvetica findfont 25.6631 sf 0 0 m (8) show NC gr 
 gsave  710 567 779 12 C 861.05 423.421 t 0 r /Helvetica findfont 25.6631 sf 0 0 m (10) show NC gr 
 gsave  710 567 779 12 C 861.05 485.939 t 0 r /Helvetica findfont 25.6631 sf 0 0 m (12) show NC gr 
 gsave  710 567 779 12 C 801.374 414.896 t 90 r /Helvetica findfont 28.5146 sf 0 0 m (0.00977 ) show NC gr 
 gsave  710 567 779 12 C 787.165 412.054 t 90 r /Helvetica findfont 19.9602 sf 0 0 m ( ) show NC gr 
 gsave  710 567 779 12 C 801.374 400.687 t 90 r /Helvetica findfont 28.5146 sf 0 0 m (/) show NC gr 
 gsave  710 567 779 12 C 809.899 397.845 t 90 r /Helvetica findfont 19.9602 sf 0 0 m ( ) show NC gr 
 gsave  710 567 779 12 C 801.374 292.7 t 90 r /Helvetica findfont 28.5146 sf 0 0 m (\(1/N\) dN) show NC gr  1447 94 m 429 Y s 1430 114 m 17 X s 1438 130 m 9 X s 1438 146 m 9 X s 1438 162 m 9 X s 1430 178 m 17 X s 1438 194 m 9 X s 1438 210 m 9 X s
 1438 225 m 9 X s 1430 241 m 17 X s 1438 257 m 9 X s 1438 273 m 9 X s 1438 289 m 9 X s 1430 305 m 17 X s 1438 321 m 9 X s 1438 337 m 9 X s 1438 353 m 9 X s 1430 369 m 17 X s 1438 385 m 9 X s 1438 401 m 9 X s 1438 417 m 9 X s 1430 433 m 17 X s 1438
 448 m 9 X s 1438 464 m 9 X s 1438 480 m 9 X s 1430 496 m 17 X s 1430 114 m 17 X s 1438 98 m 9 X s 1430 496 m 17 X s 1438 512 m 9 X s 0.490196 0.545098 0.615686 c 0.364706 0.419608 0.490196 c 369 37 786 539 bf 0.490196 0.545098 0.615686 c 786 539 m
 369 X s 1155 539 m 37 Y s 1155 576 m -369 X s 786 576 m -37 Y s 1 1 1 c black 1 1 1 c
 gsave  710 567 779 12 C 790.007 551.299 t 0 r /Helvetica-Bold findfont 28.5146 sf 0 0 m (Input variable: yybb.HT_l5) show NC gr  1 0 0 c 6 lw black 3 lw 1 0 0 c 1438 114 m s 1423 114 m s 1409 115 m -1 -1 d s 1393 114 m -1 X s 1379 116 m -2 -2 d s
 1366 118 m -4 -4 d s 1364 131 m -17 -17 d s 1356 138 m -5 -5 d s 1346 128 m -14 -14 d s 1337 134 m -20 -20 d s 1328 141 m -26 -27 d s 1323 151 m -36 -37 d s 1323 166 m -51 -52 d s 1323 181 m -66 -67 d s 1323 195 m -81 -81 d s 1310 198 m -83 -84 d s
 1296 199 m -84 -85 d s 1284 202 m -87 -88 d s 1282 216 m -101 -102 d s 1282 231 m -116 -117 d s 1282 246 m -131 -132 d s 1280 259 m -144 -145 d s 1269 263 m -148 -149 d s 1268 277 m -162 -163 d s 1255 279 m -164 -165 d s 1255 294 m -179 -180 d s
 1255 309 m -27 -27 d s 1219 273 m -158 -159 d s 1239 308 m -11 -11 d s 1214 283 m -137 -137 d s 1076 144 m -12 -12 d s 1055 123 m -9 -9 d s 1214 299 m -109 -111 d s 1091 175 m -14 -14 d s 1031 114 m s 1214 314 m -109 -110 d s 1083 182 m -6 -6 d s
 1016 114 m s 1214 329 m -96 -97 d s 1108 223 m -3 -4 d s 1001 114 m s 1214 344 m -96 -96 d s 990 119 m -5 -5 d s 1214 359 m -96 -96 d s 971 114 m -1 X s 1214 374 m -14 -13 d s 1187 348 m -69 -70 d s 955 114 m s 1214 390 m -14 -14 d s 1187 362 m -41
 -41 d s 1134 309 m -2 -2 d s 940 114 m cl s 1214 405 m -14 -14 d s 1187 377 m -41 -41 d s 925 114 m s 1214 420 m -14 -14 d s 1182 387 m -9 -8 d s 1160 366 m -14 -15 d s 910 114 m cl s 1214 435 m -14 -14 d s 1159 380 m -13 -14 d s 1214 450 m -14 -13
 d s 1159 395 m -13 -14 d s 1214 466 m -14 -14 d s 1153 404 m -7 -7 d s 1214 481 m -14 -14 d s 1204 485 m -4 -3 d s 6 lw 899 114 m 82 X 5 Y 14 X -5 Y 41 X 4 Y 14 X 5 Y 14 X 21 Y 13 X 38 Y 14 X -8 Y 14 X 49 Y 13 X 69 Y 14 X 17 Y 14 X 95 Y 13 X -38 Y
 14 X 21 Y 14 X -39 Y 13 X 137 Y 14 X -212 Y 14 X 35 Y 13 X 1 Y 14 X -32 Y 14 X -18 Y 13 X -57 Y 14 X -4 Y 14 X -3 Y 13 X -54 Y 14 X -13 Y 14 X 10 Y 13 X -20 Y 14 X -2 Y 14 X -2 Y 13 X 1 Y 14 X -1 Y 28 X -20 Y s black 3 lw 899 94 m 548 X s 925 107 m
 -13 Y s 939 100 m -6 Y s 953 100 m -6 Y s 967 100 m -6 Y s 981 100 m -6 Y s 995 107 m -13 Y s 1009 100 m -6 Y s 1023 100 m -6 Y s 1037 100 m -6 Y s 1051 100 m -6 Y s 1065 107 m -13 Y s 1079 100 m -6 Y s 1093 100 m -6 Y s 1107 100 m -6 Y s 1121 100 m
 -6 Y s 1135 107 m -13 Y s 1149 100 m -6 Y s 1163 100 m -6 Y s 1177 100 m -6 Y s 1191 100 m -6 Y s 1205 107 m -13 Y s 1219 100 m -6 Y s 1233 100 m -6 Y s 1247 100 m -6 Y s 1261 100 m -6 Y s 1275 107 m -13 Y s 1289 100 m -6 Y s 1303 100 m -6 Y s 1317
 100 m -6 Y s 1331 100 m -6 Y s 1345 107 m -13 Y s 1359 100 m -6 Y s 1373 100 m -6 Y s 1387 100 m -6 Y s 1401 100 m -6 Y s 1415 107 m -13 Y s 925 107 m -13 Y s 911 100 m -6 Y s 1415 107 m -13 Y s 1429 100 m -6 Y s 1443 100 m -6 Y s 899 523 m 548 X s
 925 509 m 14 Y s 939 516 m 7 Y s 953 516 m 7 Y s 967 516 m 7 Y s 981 516 m 7 Y s 995 509 m 14 Y s 1009 516 m 7 Y s 1023 516 m 7 Y s 1037 516 m 7 Y s 1051 516 m 7 Y s 1065 509 m 14 Y s 1079 516 m 7 Y s 1093 516 m 7 Y s 1107 516 m 7 Y s 1121 516 m 7 Y
 s 1135 509 m 14 Y s 1149 516 m 7 Y s 1163 516 m 7 Y s 1177 516 m 7 Y s 1191 516 m 7 Y s 1205 509 m 14 Y s 1219 516 m 7 Y s 1233 516 m 7 Y s 1247 516 m 7 Y s 1261 516 m 7 Y s 1275 509 m 14 Y s 1289 516 m 7 Y s 1303 516 m 7 Y s 1317 516 m 7 Y s 1331
 516 m 7 Y s 1345 509 m 14 Y s 1359 516 m 7 Y s 1373 516 m 7 Y s 1387 516 m 7 Y s 1401 516 m 7 Y s 1415 509 m 14 Y s 925 509 m 14 Y s 911 516 m 7 Y s 1415 509 m 14 Y s 1429 516 m 7 Y s 1443 516 m 7 Y s 899 94 m 429 Y s 915 114 m -16 X s 907 130 m -8
 X s 907 146 m -8 X s 907 162 m -8 X s 915 178 m -16 X s 907 194 m -8 X s 907 210 m -8 X s 907 225 m -8 X s 915 241 m -16 X s 907 257 m -8 X s 907 273 m -8 X s 907 289 m -8 X s 915 305 m -16 X s 907 321 m -8 X s 907 337 m -8 X s 907 353 m -8 X s 915
 369 m -16 X s 907 385 m -8 X s 907 401 m -8 X s 907 417 m -8 X s 915 433 m -16 X s 907 448 m -8 X s 907 464 m -8 X s 907 480 m -8 X s 915 496 m -16 X s 915 114 m -16 X s 907 98 m -8 X s 915 496 m -16 X s 907 512 m -8 X s 1447 94 m 429 Y s 1430 114 m
 17 X s 1438 130 m 9 X s 1438 146 m 9 X s 1438 162 m 9 X s 1430 178 m 17 X s 1438 194 m 9 X s 1438 210 m 9 X s 1438 225 m 9 X s 1430 241 m 17 X s 1438 257 m 9 X s 1438 273 m 9 X s 1438 289 m 9 X s 1430 305 m 17 X s 1438 321 m 9 X s 1438 337 m 9 X s
 1438 353 m 9 X s 1430 369 m 17 X s 1438 385 m 9 X s 1438 401 m 9 X s 1438 417 m 9 X s 1430 433 m 17 X s 1438 448 m 9 X s 1438 464 m 9 X s 1438 480 m 9 X s 1430 496 m 17 X s 1430 114 m 17 X s 1438 98 m 9 X s 1430 496 m 17 X s 1438 512 m 9 X s
 gsave  710 567 779 12 C 1474.92 91.2634 t 90 r /Helvetica-Bold findfont 19.9602 sf 0 0 m (U/O\255flow \(S,B\): \(0.0, 0.0\)% / \(0.0, 0.0\)%) show NC gr  0.490196 0.545098 0.615686 c 0.364706 0.419608 0.490196 c 369 37 786 539 bf 0.490196 0.545098
 0.615686 c 786 539 m 369 X s 1155 539 m 37 Y s 1155 576 m -369 X s 786 576 m -37 Y s 1 1 1 c black 1 1 1 c
 gsave  710 567 779 12 C 790.007 551.299 t 0 r /Helvetica-Bold findfont 28.5146 sf 0 0 m (Input variable: yybb.HT_l5) show NC gr  0.490196 0.545098 0.615686 c 0.941176 0.941176 0.941176 c 711 567 1534 12 bf black 1 1 0.992157 c 547 429 1655 94 bf
 black 547 429 1655 94 bl 0 0 0.933333 c 6 lw 0.49 0.6 0.82 c black 3 lw 0.49 0.6 0.82 c 1655 125 m 361 Y 14 X -37 Y 14 X -111 Y 13 X 22 Y 14 X -6 Y 14 X -66 Y 13 X 87 Y 14 X -59 Y 14 X -90 Y 13 X 56 Y 14 X -6 Y 14 X 5 Y 13 X -26 Y 14 X -12 Y 14 X 28
 Y 13 X 25 Y 14 X 6 Y 14 X -50 Y 13 X -52 Y 14 X 45 Y 14 X 13 Y 14 X -27 Y 13 X 30 Y 14 X -34 Y 14 X 41 Y 13 X -10 Y 14 X -30 Y 14 X -114 Y 13 X 153 Y 14 X 5 Y 14 X -57 Y 13 X 18 Y 14 X 31 Y 14 X -26 Y 13 X -22 Y 14 X 16 Y 14 X -56 Y 13 X -32 Y 14 X
 -17 Y 14 X -2 Y 13 X f 6 lw 0 0 0.933333 c 0.49 0.6 0.82 c 0 0 0.933333 c 1655 486 m 14 X -37 Y 14 X -111 Y 13 X 22 Y 14 X -6 Y 14 X -66 Y 13 X 87 Y 14 X -59 Y 14 X -90 Y 13 X 56 Y 14 X -6 Y 14 X 5 Y 13 X -26 Y 14 X -12 Y 14 X 28 Y 13 X 25 Y 14 X 6
 Y 14 X -50 Y 13 X -52 Y 14 X 45 Y 14 X 13 Y 14 X -27 Y 13 X 30 Y 14 X -34 Y 14 X 41 Y 13 X -10 Y 14 X -30 Y 14 X -114 Y 13 X 153 Y 14 X 5 Y 14 X -57 Y 13 X 18 Y 14 X 31 Y 14 X -26 Y 13 X -22 Y 14 X 16 Y 14 X -56 Y 13 X -32 Y 14 X -17 Y 14 X -2 Y 13
 X s black 3 lw 1655 94 m 547 X s 1709 107 m -13 Y s 1730 100 m -6 Y s 1751 100 m -6 Y s 1773 100 m -6 Y s 1794 100 m -6 Y s 1816 107 m -13 Y s 1837 100 m -6 Y s 1858 100 m -6 Y s 1880 100 m -6 Y s 1901 100 m -6 Y s 1922 107 m -13 Y s 1944 100 m -6 Y
 s 1965 100 m -6 Y s 1987 100 m -6 Y s 2008 100 m -6 Y s 2029 107 m -13 Y s 2051 100 m -6 Y s 2072 100 m -6 Y s 2093 100 m -6 Y s 2115 100 m -6 Y s 2136 107 m -13 Y s 1709 107 m -13 Y s 1687 100 m -6 Y s 1666 100 m -6 Y s 2136 107 m -13 Y s 2158 100
 m -6 Y s 2179 100 m -6 Y s 2200 100 m -6 Y s
 gsave  711 567 1534 12 C 1696.52 65.3603 t 0 r /Helvetica findfont 25.6631 sf 0 0 m (0.2) show NC gr 
 gsave  711 567 1534 12 C 1682.32 65.3603 t 0 r /Symbol findfont 25.6631 sf 0 0 m (-) show NC gr 
 gsave  711 567 1534 12 C 1801.67 65.3603 t 0 r /Helvetica findfont 25.6631 sf 0 0 m (0.1) show NC gr 
 gsave  711 567 1534 12 C 1790.3 65.3603 t 0 r /Symbol findfont 25.6631 sf 0 0 m (-) show NC gr 
 gsave  711 567 1534 12 C 1912.5 65.3603 t 0 r /Helvetica findfont 25.6631 sf 0 0 m (0) show NC gr 
 gsave  711 567 1534 12 C 2011.96 65.3603 t 0 r /Helvetica findfont 25.6631 sf 0 0 m (0.1) show NC gr 
 gsave  711 567 1534 12 C 2117.1 65.3603 t 0 r /Helvetica findfont 25.6631 sf 0 0 m (0.2) show NC gr 
 gsave  711 567 1534 12 C 2094.37 22.734 t 0 r /Helvetica findfont 28.5146 sf 0 0 m (hh.HT_l1) show NC gr  1655 523 m 547 X s 1709 509 m 14 Y s 1730 516 m 7 Y s 1751 516 m 7 Y s 1773 516 m 7 Y s 1794 516 m 7 Y s 1816 509 m 14 Y s 1837 516 m 7 Y s
 1858 516 m 7 Y s 1880 516 m 7 Y s 1901 516 m 7 Y s 1922 509 m 14 Y s 1944 516 m 7 Y s 1965 516 m 7 Y s 1987 516 m 7 Y s 2008 516 m 7 Y s 2029 509 m 14 Y s 2051 516 m 7 Y s 2072 516 m 7 Y s 2093 516 m 7 Y s 2115 516 m 7 Y s 2136 509 m 14 Y s 1709 509
 m 14 Y s 1687 516 m 7 Y s 1666 516 m 7 Y s 2136 509 m 14 Y s 2158 516 m 7 Y s 2179 516 m 7 Y s 2200 516 m 7 Y s 1655 94 m 429 Y s 1671 125 m -16 X s 1663 139 m -8 X s 1663 153 m -8 X s 1663 167 m -8 X s 1663 181 m -8 X s 1671 195 m -16 X s 1663 209
 m -8 X s 1663 223 m -8 X s 1663 237 m -8 X s 1663 251 m -8 X s 1671 265 m -16 X s 1663 278 m -8 X s 1663 292 m -8 X s 1663 306 m -8 X s 1663 320 m -8 X s 1671 334 m -16 X s 1663 348 m -8 X s 1663 362 m -8 X s 1663 376 m -8 X s 1663 390 m -8 X s 1671
 404 m -16 X s 1663 418 m -8 X s 1663 432 m -8 X s 1663 446 m -8 X s 1663 460 m -8 X s 1671 474 m -16 X s 1671 125 m -16 X s 1663 111 m -8 X s 1663 97 m -8 X s 1671 474 m -16 X s 1663 488 m -8 X s 1663 502 m -8 X s 1663 516 m -8 X s
 gsave  711 567 1534 12 C 1631.16 113.67 t 0 r /Helvetica findfont 25.6631 sf 0 0 m (0) show NC gr 
 gsave  711 567 1534 12 C 1634.01 184.714 t 0 r /Helvetica findfont 25.6631 sf 0 0 m (1) show NC gr 
 gsave  711 567 1534 12 C 1631.16 255.758 t 0 r /Helvetica findfont 25.6631 sf 0 0 m (2) show NC gr 
 gsave  711 567 1534 12 C 1631.16 323.96 t 0 r /Helvetica findfont 25.6631 sf 0 0 m (3) show NC gr 
 gsave  711 567 1534 12 C 1631.16 395.003 t 0 r /Helvetica findfont 25.6631 sf 0 0 m (4) show NC gr 
 gsave  711 567 1534 12 C 1631.16 463.205 t 0 r /Helvetica findfont 25.6631 sf 0 0 m (5) show NC gr 
 gsave  711 567 1534 12 C 1557.28 431.946 t 90 r /Helvetica findfont 28.5146 sf 0 0 m (0.0128 ) show NC gr 
 gsave  711 567 1534 12 C 1543.07 429.104 t 90 r /Helvetica findfont 19.9602 sf 0 0 m ( ) show NC gr 
 gsave  711 567 1534 12 C 1557.28 417.737 t 90 r /Helvetica findfont 28.5146 sf 0 0 m (/) show NC gr 
 gsave  711 567 1534 12 C 1565.8 414.896 t 90 r /Helvetica findfont 19.9602 sf 0 0 m ( ) show NC gr 
 gsave  711 567 1534 12 C 1557.28 309.751 t 90 r /Helvetica findfont 28.5146 sf 0 0 m (\(1/N\) dN) show NC gr  2202 94 m 429 Y s 2186 125 m 16 X s 2194 139 m 8 X s 2194 153 m 8 X s 2194 167 m 8 X s 2194 181 m 8 X s 2186 195 m 16 X s 2194 209 m 8 X s
 2194 223 m 8 X s 2194 237 m 8 X s 2194 251 m 8 X s 2186 265 m 16 X s 2194 278 m 8 X s 2194 292 m 8 X s 2194 306 m 8 X s 2194 320 m 8 X s 2186 334 m 16 X s 2194 348 m 8 X s 2194 362 m 8 X s 2194 376 m 8 X s 2194 390 m 8 X s 2186 404 m 16 X s 2194 418
 m 8 X s 2194 432 m 8 X s 2194 446 m 8 X s 2194 460 m 8 X s 2186 474 m 16 X s 2186 125 m 16 X s 2194 111 m 8 X s 2194 97 m 8 X s 2186 474 m 16 X s 2194 488 m 8 X s 2194 502 m 8 X s 2194 516 m 8 X s 0.490196 0.545098 0.615686 c 0.364706 0.419608
 0.490196 c 332 37 1542 539 bf 0.490196 0.545098 0.615686 c 1542 539 m 332 X s 1874 539 m 37 Y s 1874 576 m -332 X s 1542 576 m -37 Y s 1 1 1 c black 1 1 1 c
 gsave  711 567 1534 12 C 1545.91 551.299 t 0 r /Helvetica-Bold findfont 28.5146 sf 0 0 m (Input variable: hh.HT_l1) show NC gr  1 0 0 c 6 lw black 3 lw 1 0 0 c 2189 125 m s 2189 139 m -15 -14 d s 2189 155 m -30 -30 d s 2189 170 m -45 -45 d s 2189
 185 m -60 -60 d s 2189 200 m -75 -75 d s 2189 215 m -90 -90 d s 2189 231 m -105 -106 d s 2189 246 m -120 -121 d s 2183 255 m -129 -130 d s 2175 262 m -136 -137 d s 2175 277 m -151 -152 d s 2175 293 m -166 -168 d s 2175 308 m -181 -183 d s 2175 323 m
 -197 -198 d s 2175 338 m -212 -213 d s 2175 353 m -68 -69 d s 2100 277 m -152 -152 d s 2161 355 m -41 -42 d s 2112 305 m -5 -5 d s 2093 286 m -160 -161 d s 2161 370 m -41 -41 d s 2093 301 m -14 -14 d s 2076 284 m -10 -10 d s 2059 267 m -141 -142 d s
 2161 385 m -41 -41 d s 2093 316 m -14 -14 d s 2052 275 m -149 -150 d s 2146 385 m -26 -26 d s 2093 331 m -14 -13 d s 2052 290 m -27 -27 d s 2014 252 m -17 -17 d s 1985 223 m -15 -16 d s 1957 194 m -1 X s 1948 185 m -60 -60 d s 2134 388 m -14 -14 d s
 2093 347 m -14 -14 d s 2052 305 m -27 -27 d s 2011 264 m -14 -14 d s 1984 236 m -14 -13 d s 1943 195 m -70 -70 d s 2126 395 m -6 -6 d s 2093 362 m -14 -14 d s 2040 309 m -15 -16 d s 2011 279 m -14 -14 d s 1984 252 m -14 -14 d s 1929 196 m -71 -71 d
 s 2093 377 m -14 -14 d s 1998 281 m -1 X s 1977 260 m -7 -7 d s 1929 212 m -41 -42 d s 1880 163 m -37 -38 d s 2093 392 m -14 -14 d s 1929 227 m -28 -28 d s 1899 197 m -11 -11 d s 1874 172 m -46 -47 d s 2093 407 m -14 -13 d s 1929 242 m -28 -28 d s
 1874 187 m -61 -62 d s 2091 421 m -12 -12 d s 1923 252 m -22 -22 d s 1874 202 m -76 -77 d s 1915 259 m -14 -14 d s 1874 217 m -27 -27 d s 1846 189 m -64 -64 d s 1904 262 m -3 -2 d s 1874 232 m -27 -27 d s 1833 191 m -66 -66 d s 1874 248 m -27 -28 d
 s 1833 206 m -81 -81 d s 1874 263 m -27 -28 d s 1833 222 m -96 -97 d s 1874 278 m -14 -14 d s 1848 252 m -1 -2 d s 1833 237 m -111 -112 d s 1861 280 m -1 -1 d s 1833 252 m -14 -14 d s 1812 231 m -20 -20 d s 1792 210 m -85 -85 d s 1833 267 m -14 -14
 d s 1806 239 m -14 -13 d s 1778 212 m -86 -87 d s 1820 269 m -1 -1 d s 1798 247 m -6 -6 d s 1774 223 m -97 -98 d s 1765 229 m -14 -14 d s 1741 205 m -79 -80 d s 1765 244 m -14 -14 d s 1737 216 m -82 -83 d s 1757 251 m -6 -6 d s 1737 231 m -82 -82 d
 s 1737 247 m -27 -28 d s 1701 210 m -46 -46 d s 1737 262 m -13 -14 d s 1716 240 m -6 -6 d s 1686 210 m -31 -31 d s 1737 277 m -13 -14 d s 1683 222 m -28 -28 d s 1737 292 m -13 -14 d s 1683 237 m -28 -28 d s 1731 301 m -7 -8 d s 1683 252 m -28 -27 d
 s 1683 267 m -28 -27 d s 1676 276 m -21 -21 d s 1669 284 m -14 -14 d s 1669 299 m -14 -14 d s 1669 314 m -14 -13 d s 1661 322 m -6 -6 d s 6 lw 1655 322 m 14 X -46 Y 14 X -66 Y 27 X 30 Y 14 X 61 Y 13 X -96 Y 14 X 46 Y 14 X -28 Y 13 X -13 Y 14 X 37 Y
 14 X -16 Y 13 X 38 Y 14 X -80 Y 14 X 63 Y 13 X 28 Y 14 X -117 Y 14 X 34 Y 13 X 65 Y 14 X -10 Y 14 X -56 Y 14 X -11 Y 13 X 9 Y 14 X 66 Y 14 X -37 Y 13 X 58 Y 14 X -29 Y 14 X 55 Y 13 X 2 Y 14 X -42 Y 14 X 17 Y 13 X 137 Y 14 X -144 Y 14 X 28 Y 13 X 90
 Y 14 X -10 Y 14 X 1 Y 13 X -32 Y 14 X -99 Y 14 X -130 Y 13 X s black 3 lw 1655 94 m 547 X s 1709 107 m -13 Y s 1730 100 m -6 Y s 1751 100 m -6 Y s 1773 100 m -6 Y s 1794 100 m -6 Y s 1816 107 m -13 Y s 1837 100 m -6 Y s 1858 100 m -6 Y s 1880 100 m
 -6 Y s 1901 100 m -6 Y s 1922 107 m -13 Y s 1944 100 m -6 Y s 1965 100 m -6 Y s 1987 100 m -6 Y s 2008 100 m -6 Y s 2029 107 m -13 Y s 2051 100 m -6 Y s 2072 100 m -6 Y s 2093 100 m -6 Y s 2115 100 m -6 Y s 2136 107 m -13 Y s 1709 107 m -13 Y s 1687
 100 m -6 Y s 1666 100 m -6 Y s 2136 107 m -13 Y s 2158 100 m -6 Y s 2179 100 m -6 Y s 2200 100 m -6 Y s 1655 523 m 547 X s 1709 509 m 14 Y s 1730 516 m 7 Y s 1751 516 m 7 Y s 1773 516 m 7 Y s 1794 516 m 7 Y s 1816 509 m 14 Y s 1837 516 m 7 Y s 1858
 516 m 7 Y s 1880 516 m 7 Y s 1901 516 m 7 Y s 1922 509 m 14 Y s 1944 516 m 7 Y s 1965 516 m 7 Y s 1987 516 m 7 Y s 2008 516 m 7 Y s 2029 509 m 14 Y s 2051 516 m 7 Y s 2072 516 m 7 Y s 2093 516 m 7 Y s 2115 516 m 7 Y s 2136 509 m 14 Y s 1709 509 m 14
 Y s 1687 516 m 7 Y s 1666 516 m 7 Y s 2136 509 m 14 Y s 2158 516 m 7 Y s 2179 516 m 7 Y s 2200 516 m 7 Y s 1655 94 m 429 Y s 1671 125 m -16 X s 1663 139 m -8 X s 1663 153 m -8 X s 1663 167 m -8 X s 1663 181 m -8 X s 1671 195 m -16 X s 1663 209 m -8
 X s 1663 223 m -8 X s 1663 237 m -8 X s 1663 251 m -8 X s 1671 265 m -16 X s 1663 278 m -8 X s 1663 292 m -8 X s 1663 306 m -8 X s 1663 320 m -8 X s 1671 334 m -16 X s 1663 348 m -8 X s 1663 362 m -8 X s 1663 376 m -8 X s 1663 390 m -8 X s 1671 404
 m -16 X s 1663 418 m -8 X s 1663 432 m -8 X s 1663 446 m -8 X s 1663 460 m -8 X s 1671 474 m -16 X s 1671 125 m -16 X s 1663 111 m -8 X s 1663 97 m -8 X s 1671 474 m -16 X s 1663 488 m -8 X s 1663 502 m -8 X s 1663 516 m -8 X s 2202 94 m 429 Y s
 2186 125 m 16 X s 2194 139 m 8 X s 2194 153 m 8 X s 2194 167 m 8 X s 2194 181 m 8 X s 2186 195 m 16 X s 2194 209 m 8 X s 2194 223 m 8 X s 2194 237 m 8 X s 2194 251 m 8 X s 2186 265 m 16 X s 2194 278 m 8 X s 2194 292 m 8 X s 2194 306 m 8 X s 2194 320
 m 8 X s 2186 334 m 16 X s 2194 348 m 8 X s 2194 362 m 8 X s 2194 376 m 8 X s 2194 390 m 8 X s 2186 404 m 16 X s 2194 418 m 8 X s 2194 432 m 8 X s 2194 446 m 8 X s 2194 460 m 8 X s 2186 474 m 16 X s 2186 125 m 16 X s 2194 111 m 8 X s 2194 97 m 8 X s
 2186 474 m 16 X s 2194 488 m 8 X s 2194 502 m 8 X s 2194 516 m 8 X s
 gsave  711 567 1534 12 C 2230.83 91.2634 t 90 r /Helvetica-Bold findfont 19.9602 sf 0 0 m (U/O\255flow \(S,B\): \(0.0, 0.0\)% / \(0.0, 0.0\)%) show NC gr  0.490196 0.545098 0.615686 c 0.364706 0.419608 0.490196 c 332 37 1542 539 bf 0.490196 0.545098
 0.615686 c 1542 539 m 332 X s 1874 539 m 37 Y s 1874 576 m -332 X s 1542 576 m -37 Y s 1 1 1 c black 1 1 1 c
 gsave  711 567 1534 12 C 1545.91 551.299 t 0 r /Helvetica-Bold findfont 28.5146 sf 0 0 m (Input variable: hh.HT_l1) show NC gr 
 gr  gr showpage
end
%%EOF
