%!PS-Adobe-2.0 EPSF-2.0
%%BoundingBox:  0 0 567 296
%%Title: dataset/plots/variables_id_c1.eps: Input variables (training sample)
%%Creator: ROOT Version 6.18/00
%%CreationDate: Fri Sep 13 20:54:05 2019
%%DocumentNeededResources: ProcSet (FontSetInit)
%%EndComments
%%BeginProlog
80 dict begin
/s {stroke} def /l {lineto} def /m {moveto} def /t {translate} def
/r {rotate} def /rl {roll}  def /R {repeat} def
/d {rlineto} def /rm {rmoveto} def /gr {grestore} def /f {eofill} def
/c {setrgbcolor} def /black {0 setgray} def /sd {setdash} def
/cl {closepath} def /sf {scalefont setfont} def /lw {setlinewidth} def
/box {m dup 0 exch d exch 0 d 0 exch neg d cl} def
/NC{systemdict begin initclip end}def/C{NC box clip newpath}def
/bl {box s} def /bf {gsave box gsave f grestore 1 lw [] 0 sd s grestore} def /Y { 0 exch d} def /X { 0 d} def 
/K {{pop pop 0 moveto} exch kshow} bind def
/ita {/ang 15 def gsave [1 0 ang dup sin exch cos div 1 0 0] concat} def 
/mp {newpath /y exch def /x exch def} def
/side {[w .77 mul w .23 mul] .385 w mul sd w 0 l currentpoint t -144 r} def
/mr {mp x y w2 0 360 arc} def /m24 {mr s} def /m20 {mr f} def
/mb {mp x y w2 add m w2 neg 0 d 0 w neg d w 0 d 0 w d cl} def
/mt {mp x y w2 add m w2 neg w neg d w 0 d cl} def
/w4 {w 4 div} def
/w6 {w 6 div} def
/w8 {w 8 div} def
/m21 {mb f} def /m25 {mb s} def /m22 {mt f} def /m26{mt s} def
/m23 {mp x y w2 sub m w2 w d w neg 0 d cl f} def
/m27 {mp x y w2 add m w3 neg w2 neg d w3 w2 neg d w3 w2 d cl s} def
/m28 {mp x w2 sub y w2 sub w3 add m w3 0 d  0 w3 neg d w3 0 d 0 w3 d w3 0 d  0 w3 d w3 neg 0 d 0 w3 d w3 neg 0 d 0 w3 neg d w3 neg 0 d cl s } def
/m29 {mp gsave x w2 sub y w2 add w3 sub m currentpoint t 4 {side} repeat cl fill gr} def
/m30 {mp gsave x w2 sub y w2 add w3 sub m currentpoint t 4 {side} repeat cl s gr} def
/m31 {mp x y w2 sub m 0 w d x w2 sub y m w 0 d x w2 sub y w2 add m w w neg d x w2 sub y w2 sub m w w d s} def
/m32 {mp x y w2 sub m w2 w d w neg 0 d cl s} def
/m33 {mp x y w2 add m w3 neg w2 neg d w3 w2 neg d w3 w2 d cl f} def
/m34 {mp x w2 sub y w2 sub w3 add m w3 0 d  0 w3 neg d w3 0 d 0 w3 d w3 0 d  0 w3 d w3 neg 0 d 0 w3 d w3 neg 0 d 0 w3 neg d w3 neg 0 d cl f } def
/m35 {mp x y w2 add m w2 neg w2 neg d w2 w2 neg d w2 w2 d w2 neg w2 d x y w2 sub m 0 w d x w2 sub y m w 0 d s} def
/m36 {mb x w2 sub y w2 add m w w neg d x w2 sub y w2 sub m w w d s} def
/m37 {mp x y m w4 neg w2 d w4 neg w2 neg d w2 0 d  w4 neg w2 neg d w2 0 d w4 neg w2 d w2 0 d w4 neg w2 d w4 neg w2 neg d cl s} def
/m38 {mp x w4 sub y w2 add m w4 neg w4 neg d 0 w2 neg d w4 w4 neg d w2 0 d w4 w4 d 0 w2 d w4 neg w4 d w2 neg 0 d x y w2 sub m 0 w d x w2 sub y m w 0 d cl s} def
/m39 {mp x y m w4 neg w2 d w4 neg w2 neg d w2 0 d  w4 neg w2 neg d w2 0 d w4 neg w2 d w2 0 d w4 neg w2 d w4 neg w2 neg d cl f} def
/m40 {mp x y m w4 w2 d w4 w4 neg d w2 neg w4 neg d w2 w4 neg d w4 neg w4 neg d w4 neg w2 d w4 neg w2 neg d w4 neg w4 d w2 w4 d w2 neg w4 d w4 w4 d w4 w2 neg d cl s} def
/m41 {mp x y m w4 w2 d w4 w4 neg d w2 neg w4 neg d w2 w4 neg d w4 neg w4 neg d w4 neg w2 d w4 neg w2 neg d w4 neg w4 d w2 w4 d w2 neg w4 d w4 w4 d w4 w2 neg d cl f} def
/m42 {mp x y w2 add m w8 neg w2 -3 4 div mul d w2 -3 4 div mul w8 neg d w2 3 4 div mul w8 neg d w8 w2 -3 4 div mul d w8 w2 3 4 div mul d w2 3 4 div mul w8 d w2 -3 4 div mul w8 d w8 neg w2 3 4 div mul d cl s} def
/m43 {mp x y w2 add m w8 neg w2 -3 4 div mul d w2 -3 4 div mul w8 neg d w2 3 4 div mul w8 neg d w8 w2 -3 4 div mul d w8 w2 3 4 div mul d w2 3 4 div mul w8 d w2 -3 4 div mul w8 d w8 neg w2 3 4 div mul d cl f} def
/m44 {mp x y m w6 neg w2 d w2 2 3 div mul 0 d w6 neg w2 neg d w2 w6 d 0 w2 -2 3 div mul d w2 neg w6 d w6 w2 neg d w2 -2 3 div mul 0 d w6 w2 d w2 neg w6 neg d 0 w2 2 3 div mul d w2 w6 neg d cl s} def
/m45 {mp x y m w6 neg w2 d w2 2 3 div mul 0 d w6 neg w2 neg d w2 w6 d 0 w2 -2 3 div mul d w2 neg w6 d w6 w2 neg d w2 -2 3 div mul 0 d w6 w2 d w2 neg w6 neg d 0 w2 2 3 div mul d w2 w6 neg d cl f} def
/m46 {mp x y w4 add m w4 neg w4 d w4 neg w4 neg d  w4 w4 neg d w4 neg w4 neg d w4 w4 neg d w4 w4 d w4 w4 neg d w4 w4 d w4 neg w4 d w4 w4 d w4 neg w4 d w4 neg w4 neg d cl s} def
/m47 {mp x y w4 add m w4 neg w4 d w4 neg w4 neg d w4 w4 neg d w4 neg w4 neg d  w4 w4 neg d w4 w4 d w4 w4 neg d w4 w4 d w4 neg w4 d w4 w4 d w4 neg w4 d w4 neg w4 neg d cl f} def
/m48 {mp x y w4 add m w4 neg w4 d w4 neg w4 neg d w4 w4 neg d  w4 neg w4 neg d w4 w4 neg d w4 w4 d w4 w4 neg d w4 w4 d w4 neg w4 d w4 w4 d w4 neg w4 d w4 neg w4 neg d  w4 w4 neg d w4 neg w4 neg d w4 neg w4 d w4 w4 d cl f} def
/m49 {mp x w2 sub w3 add y w2 sub w3 add m  0 w3 neg d w3 0 d 0 w3 d w3 0 d 0 w3 d w3 neg 0 d 0 w3 d w3 neg 0 d 0 w3 neg d w3 neg 0 d 0 w3 neg d w3 0 d 0 w3 d w3 0 d 0 w3 neg d w3 neg 0 d cl f } def
/m2 {mp x y w2 sub m 0 w d x w2 sub y m w 0 d s} def
/m5 {mp x w2 sub y w2 sub m w w d x w2 sub y w2 add m w w neg d s} def
%%IncludeResource: ProcSet (FontSetInit)
%%IncludeResource: font Times-Roman
%%IncludeResource: font Times-Italic
%%IncludeResource: font Times-Bold
%%IncludeResource: font Times-BoldItalic
%%IncludeResource: font Helvetica
%%IncludeResource: font Helvetica-Oblique
%%IncludeResource: font Helvetica-Bold
%%IncludeResource: font Helvetica-BoldOblique
%%IncludeResource: font Courier
%%IncludeResource: font Courier-Oblique
%%IncludeResource: font Courier-Bold
%%IncludeResource: font Courier-BoldOblique
%%IncludeResource: font Symbol
%%IncludeResource: font ZapfDingbats
/reEncode {exch findfont dup length dict begin {1 index /FID eq  {pop pop} {def} ifelse } forall /Encoding exch def currentdict end dup /FontName get exch definefont pop } def [/Times-Bold /Times-Italic /Times-BoldItalic /Helvetica /Helvetica-Oblique
 /Helvetica-Bold /Helvetica-BoldOblique /Courier /Courier-Oblique /Courier-Bold /Courier-BoldOblique /Times-Roman /AvantGarde-Book /AvantGarde-BookOblique /AvantGarde-Demi /AvantGarde-DemiOblique /Bookman-Demi /Bookman-DemiItalic /Bookman-Light
 /Bookman-LightItalic /Helvetica-Narrow /Helvetica-Narrow-Bold /Helvetica-Narrow-BoldOblique /Helvetica-Narrow-Oblique /NewCenturySchlbk-Roman /NewCenturySchlbk-Bold /NewCenturySchlbk-BoldItalic /NewCenturySchlbk-Italic /Palatino-Bold
 /Palatino-BoldItalic /Palatino-Italic /Palatino-Roman ] {ISOLatin1Encoding reEncode } forall
%%EndProlog
%%BeginSetup
%%EndSetup
newpath  gsave  .25 .25 scale  gsave  0 0 t 0.490196 0.545098 0.615686 c[  ] 0 sd 3 lw 0.941176 0.941176 0.941176 c 2268 1182 0 0 bf 0.490196 0.545098 0.615686 c 0.941176 0.941176 0.941176 c 710 567 23 603 bf black 1 1 0.992157 c 548 429 143 685 bf
 black 548 429 143 685 bl 0 0 0.933333 c 6 lw 0.49 0.6 0.82 c black 3 lw 0.49 0.6 0.82 c 143 714 m 55 X 1 Y 14 X 5 Y 14 X -3 Y 13 X 10 Y 14 X -1 Y 14 X 7 Y 13 X 1 Y 14 X -29 Y 14 X 63 Y 13 X 27 Y 14 X 35 Y 14 X 42 Y 13 X 48 Y 14 X -10 Y 14 X 86 Y 13
 X -6 Y 14 X 31 Y 14 X -106 Y 13 X -175 Y 14 X -26 Y 233 X f 6 lw 0 0 0.933333 c 0.49 0.6 0.82 c 0 0 0.933333 c 143 714 m 55 X 1 Y 14 X 5 Y 14 X -3 Y 13 X 10 Y 14 X -1 Y 14 X 7 Y 13 X 1 Y 14 X -29 Y 14 X 63 Y 13 X 27 Y 14 X 35 Y 14 X 42 Y 13 X 48 Y
 14 X -10 Y 14 X 86 Y 13 X -6 Y 14 X 31 Y 14 X -106 Y 13 X -175 Y 14 X -26 Y 233 X -29 Y s black 3 lw 143 685 m 548 X s 202 698 m -13 Y s 214 691 m -6 Y s 227 691 m -6 Y s 239 691 m -6 Y s 251 691 m -6 Y s 264 698 m -13 Y s 276 691 m -6 Y s 288 691 m
 -6 Y s 301 691 m -6 Y s 313 691 m -6 Y s 326 698 m -13 Y s 338 691 m -6 Y s 350 691 m -6 Y s 363 691 m -6 Y s 375 691 m -6 Y s 387 698 m -13 Y s 400 691 m -6 Y s 412 691 m -6 Y s 425 691 m -6 Y s 437 691 m -6 Y s 449 698 m -13 Y s 462 691 m -6 Y s
 474 691 m -6 Y s 487 691 m -6 Y s 499 691 m -6 Y s 511 698 m -13 Y s 524 691 m -6 Y s 536 691 m -6 Y s 548 691 m -6 Y s 561 691 m -6 Y s 573 698 m -13 Y s 586 691 m -6 Y s 598 691 m -6 Y s 610 691 m -6 Y s 623 691 m -6 Y s 635 698 m -13 Y s 202 698
 m -13 Y s 189 691 m -6 Y s 177 691 m -6 Y s 165 691 m -6 Y s 152 691 m -6 Y s 635 698 m -13 Y s 647 691 m -6 Y s 660 691 m -6 Y s 672 691 m -6 Y s 685 691 m -6 Y s
 gsave  710 567 23 603 C 201.764 656.444 t 0 r /Helvetica findfont 25.6631 sf 0 0 m (1) show NC gr 
 gsave  710 567 23 603 C 187.555 656.444 t 0 r /Symbol findfont 25.6631 sf 0 0 m (-) show NC gr 
 gsave  710 567 23 603 C 250.074 656.444 t 0 r /Helvetica findfont 25.6631 sf 0 0 m (0.5) show NC gr 
 gsave  710 567 23 603 C 235.865 656.444 t 0 r /Symbol findfont 25.6631 sf 0 0 m (-) show NC gr 
 gsave  710 567 23 603 C 315.434 656.444 t 0 r /Helvetica findfont 25.6631 sf 0 0 m (0) show NC gr 
 gsave  710 567 23 603 C 369.428 656.444 t 0 r /Helvetica findfont 25.6631 sf 0 0 m (0.5) show NC gr 
 gsave  710 567 23 603 C 443.313 656.444 t 0 r /Helvetica findfont 25.6631 sf 0 0 m (1) show NC gr 
 gsave  710 567 23 603 C 491.623 656.444 t 0 r /Helvetica findfont 25.6631 sf 0 0 m (1.5) show NC gr 
 gsave  710 567 23 603 C 562.667 656.444 t 0 r /Helvetica findfont 25.6631 sf 0 0 m (2) show NC gr 
 gsave  710 567 23 603 C 616.66 656.444 t 0 r /Helvetica findfont 25.6631 sf 0 0 m (2.5) show NC gr 
 gsave  710 567 23 603 C 588.242 616.66 t 0 r /Helvetica findfont 28.5146 sf 0 0 m (yy.H1_l1) show NC gr  143 1114 m 548 X s 202 1100 m 14 Y s 214 1107 m 7 Y s 227 1107 m 7 Y s 239 1107 m 7 Y s 251 1107 m 7 Y s 264 1100 m 14 Y s 276 1107 m 7 Y s 288
 1107 m 7 Y s 301 1107 m 7 Y s 313 1107 m 7 Y s 326 1100 m 14 Y s 338 1107 m 7 Y s 350 1107 m 7 Y s 363 1107 m 7 Y s 375 1107 m 7 Y s 387 1100 m 14 Y s 400 1107 m 7 Y s 412 1107 m 7 Y s 425 1107 m 7 Y s 437 1107 m 7 Y s 449 1100 m 14 Y s 462 1107 m 7
 Y s 474 1107 m 7 Y s 487 1107 m 7 Y s 499 1107 m 7 Y s 511 1100 m 14 Y s 524 1107 m 7 Y s 536 1107 m 7 Y s 548 1107 m 7 Y s 561 1107 m 7 Y s 573 1100 m 14 Y s 586 1107 m 7 Y s 598 1107 m 7 Y s 610 1107 m 7 Y s 623 1107 m 7 Y s 635 1100 m 14 Y s 202
 1100 m 14 Y s 189 1107 m 7 Y s 177 1107 m 7 Y s 165 1107 m 7 Y s 152 1107 m 7 Y s 635 1100 m 14 Y s 647 1107 m 7 Y s 660 1107 m 7 Y s 672 1107 m 7 Y s 685 1107 m 7 Y s 143 685 m 429 Y s 160 714 m -17 X s 152 725 m -9 X s 152 736 m -9 X s 152 747 m
 -9 X s 160 758 m -17 X s 152 768 m -9 X s 152 779 m -9 X s 152 790 m -9 X s 160 801 m -17 X s 152 812 m -9 X s 152 823 m -9 X s 152 834 m -9 X s 160 844 m -17 X s 152 855 m -9 X s 152 866 m -9 X s 152 877 m -9 X s 160 888 m -17 X s 152 899 m -9 X s
 152 910 m -9 X s 152 920 m -9 X s 160 931 m -17 X s 152 942 m -9 X s 152 953 m -9 X s 152 964 m -9 X s 160 975 m -17 X s 152 986 m -9 X s 152 996 m -9 X s 152 1007 m -9 X s 160 1018 m -17 X s 152 1029 m -9 X s 152 1040 m -9 X s 152 1051 m -9 X s 160
 1062 m -17 X s 152 1072 m -9 X s 152 1083 m -9 X s 152 1094 m -9 X s 160 1105 m -17 X s 160 714 m -17 X s 152 703 m -9 X s 152 692 m -9 X s 160 1105 m -17 X s
 gsave  710 567 23 603 C 119.354 704.754 t 0 r /Helvetica findfont 25.6631 sf 0 0 m (0) show NC gr 
 gsave  710 567 23 603 C 99.4613 747.38 t 0 r /Helvetica findfont 25.6631 sf 0 0 m (0.2) show NC gr 
 gsave  710 567 23 603 C 99.4613 790.007 t 0 r /Helvetica findfont 25.6631 sf 0 0 m (0.4) show NC gr 
 gsave  710 567 23 603 C 99.4613 835.475 t 0 r /Helvetica findfont 25.6631 sf 0 0 m (0.6) show NC gr 
 gsave  710 567 23 603 C 99.4613 878.101 t 0 r /Helvetica findfont 25.6631 sf 0 0 m (0.8) show NC gr 
 gsave  710 567 23 603 C 122.195 920.727 t 0 r /Helvetica findfont 25.6631 sf 0 0 m (1) show NC gr 
 gsave  710 567 23 603 C 99.4613 966.195 t 0 r /Helvetica findfont 25.6631 sf 0 0 m (1.2) show NC gr 
 gsave  710 567 23 603 C 99.4613 1008.82 t 0 r /Helvetica findfont 25.6631 sf 0 0 m (1.4) show NC gr 
 gsave  710 567 23 603 C 99.4613 1051.45 t 0 r /Helvetica findfont 25.6631 sf 0 0 m (1.6) show NC gr 
 gsave  710 567 23 603 C 99.4613 1094.07 t 0 r /Helvetica findfont 25.6631 sf 0 0 m (1.8) show NC gr 
 gsave  710 567 23 603 C 45.468 1057.13 t 90 r /Helvetica findfont 28.5146 sf 0 0 m (0.11 ) show NC gr 
 gsave  710 567 23 603 C 31.2593 1054.29 t 90 r /Helvetica findfont 19.9602 sf 0 0 m ( ) show NC gr 
 gsave  710 567 23 603 C 45.468 1042.92 t 90 r /Helvetica findfont 28.5146 sf 0 0 m (/) show NC gr 
 gsave  710 567 23 603 C 53.9933 1040.08 t 90 r /Helvetica findfont 19.9602 sf 0 0 m ( ) show NC gr 
 gsave  710 567 23 603 C 45.468 934.936 t 90 r /Helvetica findfont 28.5146 sf 0 0 m (\(1/N\) dN) show NC gr  691 685 m 429 Y s 674 714 m 17 X s 683 725 m 8 X s 683 736 m 8 X s 683 747 m 8 X s 674 758 m 17 X s 683 768 m 8 X s 683 779 m 8 X s 683 790 m
 8 X s 674 801 m 17 X s 683 812 m 8 X s 683 823 m 8 X s 683 834 m 8 X s 674 844 m 17 X s 683 855 m 8 X s 683 866 m 8 X s 683 877 m 8 X s 674 888 m 17 X s 683 899 m 8 X s 683 910 m 8 X s 683 920 m 8 X s 674 931 m 17 X s 683 942 m 8 X s 683 953 m 8 X s
 683 964 m 8 X s 674 975 m 17 X s 683 986 m 8 X s 683 996 m 8 X s 683 1007 m 8 X s 674 1018 m 17 X s 683 1029 m 8 X s 683 1040 m 8 X s 683 1051 m 8 X s 674 1062 m 17 X s 683 1072 m 8 X s 683 1083 m 8 X s 683 1094 m 8 X s 674 1105 m 17 X s 674 714 m
 17 X s 683 703 m 8 X s 683 692 m 8 X s 674 1105 m 17 X s 0.490196 0.545098 0.615686 c 0.364706 0.419608 0.490196 c 327 38 30 1130 bf 0.490196 0.545098 0.615686 c 30 1130 m 327 X s 357 1130 m 38 Y s 357 1168 m -327 X s 30 1168 m -38 Y s 1 1 1 c black
 1 1 1 c
 gsave  710 567 23 603 C 34.101 1142.38 t 0 r /Helvetica-Bold findfont 28.5146 sf 0 0 m (Input variable: yy.H1_l1) show NC gr  1 0 0 c 6 lw black 3 lw 1 0 0 c 676 714 m s 661 714 m s 646 714 m s 630 714 m s 615 714 m s 600 714 m s 585 714 m s 570 714
 m s 555 714 m s 540 714 m s 525 714 m s 510 714 m s 495 714 m s 480 714 m s 465 714 m s 451 716 m -1 -2 d s 444 724 m -9 -10 d s 444 739 m -25 -25 d s 444 754 m -40 -40 d s 432 757 m -43 -43 d s 431 771 m -57 -57 d s 431 786 m -72 -72 d s 424 795 m
 -80 -81 d s 417 803 m -88 -89 d s 409 810 m -6 -6 d s 390 791 m -76 -77 d s 386 802 m -87 -88 d s 372 803 m -88 -89 d s 362 808 m -93 -94 d s 358 819 m -9 -9 d s 347 808 m -93 -94 d s 335 811 m -96 -97 d s 335 826 m -111 -112 d s 335 842 m -127 -128
 d s 310 831 m -16 -16 d s 287 809 m -89 -90 d s 193 714 m s 297 833 m -3 -2 d s 280 817 m -82 -83 d s 178 714 m s 278 829 m -80 -80 d s 163 714 m cl s 267 833 m -69 -68 d s 148 714 m s 267 849 m -14 -14 d s 247 829 m -49 -49 d s 264 861 m -11 -11 d
 s 239 836 m -41 -41 d s 239 851 m -41 -41 d s 239 867 m -41 -42 d s 238 881 m -12 -13 d s 225 867 m -13 -13 d s 208 851 m -10 -11 d s 6 lw 143 714 m 55 X 137 Y 14 X 16 Y 14 X 14 Y 13 X -52 Y 14 X 32 Y 14 X -32 Y 13 X -20 Y 14 X 24 Y 14 X -2 Y 13 X
 12 Y 14 X -35 Y 14 X 11 Y 13 X -16 Y 14 X -1 Y 14 X -11 Y 13 X 19 Y 14 X -15 Y 14 X -38 Y 13 X -41 Y 14 X -2 Y 233 X -29 Y s 0.490196 0.545098 0.615686 c 3 lw 1 1 1 c 0.490196 0.545098 0.615686 c 285 86 143 1028 bl 143 1028 m 285 X s 428 1028 m 86 Y
 s 428 1114 m -285 X s 143 1114 m -86 Y s black
 gsave  710 567 23 603 C 227.34 1085.55 t 0 r /Helvetica-Bold findfont 31.3661 sf 0 0 m (Signal) show NC gr  0.49 0.6 0.82 c 156 1077 m 60 X 30 Y -60 X f 0 0 0.933333 c 6 lw 156 1107 m 60 X s 156 1077 m 60 X s 216 1077 m 30 Y s 156 1077 m 30 Y s
 black
 gsave  710 567 23 603 C 227.34 1042.92 t 0 r /Helvetica-Bold findfont 31.3661 sf 0 0 m (Background) show NC gr  1 0 0 c 3 lw 216 1041 m -6 -6 d s 216 1056 m -21 -21 d s 210 1065 m -30 -30 d s 195 1065 m -30 -30 d s 180 1065 m -24 -24 d s 165 1065 m
 -9 -9 d s 6 lw 0 0 0.933333 c 1 0 0 c 156 1065 m 60 X s 156 1035 m 60 X s 216 1035 m 30 Y s 156 1035 m 30 Y s black 3 lw 143 685 m 548 X s 202 698 m -13 Y s 214 691 m -6 Y s 227 691 m -6 Y s 239 691 m -6 Y s 251 691 m -6 Y s 264 698 m -13 Y s 276
 691 m -6 Y s 288 691 m -6 Y s 301 691 m -6 Y s 313 691 m -6 Y s 326 698 m -13 Y s 338 691 m -6 Y s 350 691 m -6 Y s 363 691 m -6 Y s 375 691 m -6 Y s 387 698 m -13 Y s 400 691 m -6 Y s 412 691 m -6 Y s 425 691 m -6 Y s 437 691 m -6 Y s 449 698 m -13
 Y s 462 691 m -6 Y s 474 691 m -6 Y s 487 691 m -6 Y s 499 691 m -6 Y s 511 698 m -13 Y s 524 691 m -6 Y s 536 691 m -6 Y s 548 691 m -6 Y s 561 691 m -6 Y s 573 698 m -13 Y s 586 691 m -6 Y s 598 691 m -6 Y s 610 691 m -6 Y s 623 691 m -6 Y s 635
 698 m -13 Y s 202 698 m -13 Y s 189 691 m -6 Y s 177 691 m -6 Y s 165 691 m -6 Y s 152 691 m -6 Y s 635 698 m -13 Y s 647 691 m -6 Y s 660 691 m -6 Y s 672 691 m -6 Y s 685 691 m -6 Y s 143 1114 m 548 X s 202 1100 m 14 Y s 214 1107 m 7 Y s 227 1107
 m 7 Y s 239 1107 m 7 Y s 251 1107 m 7 Y s 264 1100 m 14 Y s 276 1107 m 7 Y s 288 1107 m 7 Y s 301 1107 m 7 Y s 313 1107 m 7 Y s 326 1100 m 14 Y s 338 1107 m 7 Y s 350 1107 m 7 Y s 363 1107 m 7 Y s 375 1107 m 7 Y s 387 1100 m 14 Y s 400 1107 m 7 Y s
 412 1107 m 7 Y s 425 1107 m 7 Y s 437 1107 m 7 Y s 449 1100 m 14 Y s 462 1107 m 7 Y s 474 1107 m 7 Y s 487 1107 m 7 Y s 499 1107 m 7 Y s 511 1100 m 14 Y s 524 1107 m 7 Y s 536 1107 m 7 Y s 548 1107 m 7 Y s 561 1107 m 7 Y s 573 1100 m 14 Y s 586 1107
 m 7 Y s 598 1107 m 7 Y s 610 1107 m 7 Y s 623 1107 m 7 Y s 635 1100 m 14 Y s 202 1100 m 14 Y s 189 1107 m 7 Y s 177 1107 m 7 Y s 165 1107 m 7 Y s 152 1107 m 7 Y s 635 1100 m 14 Y s 647 1107 m 7 Y s 660 1107 m 7 Y s 672 1107 m 7 Y s 685 1107 m 7 Y s
 143 685 m 429 Y s 160 714 m -17 X s 152 725 m -9 X s 152 736 m -9 X s 152 747 m -9 X s 160 758 m -17 X s 152 768 m -9 X s 152 779 m -9 X s 152 790 m -9 X s 160 801 m -17 X s 152 812 m -9 X s 152 823 m -9 X s 152 834 m -9 X s 160 844 m -17 X s 152
 855 m -9 X s 152 866 m -9 X s 152 877 m -9 X s 160 888 m -17 X s 152 899 m -9 X s 152 910 m -9 X s 152 920 m -9 X s 160 931 m -17 X s 152 942 m -9 X s 152 953 m -9 X s 152 964 m -9 X s 160 975 m -17 X s 152 986 m -9 X s 152 996 m -9 X s 152 1007 m
 -9 X s 160 1018 m -17 X s 152 1029 m -9 X s 152 1040 m -9 X s 152 1051 m -9 X s 160 1062 m -17 X s 152 1072 m -9 X s 152 1083 m -9 X s 152 1094 m -9 X s 160 1105 m -17 X s 160 714 m -17 X s 152 703 m -9 X s 152 692 m -9 X s 160 1105 m -17 X s 691
 685 m 429 Y s 674 714 m 17 X s 683 725 m 8 X s 683 736 m 8 X s 683 747 m 8 X s 674 758 m 17 X s 683 768 m 8 X s 683 779 m 8 X s 683 790 m 8 X s 674 801 m 17 X s 683 812 m 8 X s 683 823 m 8 X s 683 834 m 8 X s 674 844 m 17 X s 683 855 m 8 X s 683 866
 m 8 X s 683 877 m 8 X s 674 888 m 17 X s 683 899 m 8 X s 683 910 m 8 X s 683 920 m 8 X s 674 931 m 17 X s 683 942 m 8 X s 683 953 m 8 X s 683 964 m 8 X s 674 975 m 17 X s 683 986 m 8 X s 683 996 m 8 X s 683 1007 m 8 X s 674 1018 m 17 X s 683 1029 m
 8 X s 683 1040 m 8 X s 683 1051 m 8 X s 674 1062 m 17 X s 683 1072 m 8 X s 683 1083 m 8 X s 683 1094 m 8 X s 674 1105 m 17 X s 674 714 m 17 X s 683 703 m 8 X s 683 692 m 8 X s 674 1105 m 17 X s
 gsave  710 567 23 603 C 719.017 682.347 t 90 r /Helvetica-Bold findfont 19.9602 sf 0 0 m (U/O\255flow \(S,B\): \(0.0, 0.0\)% / \(0.0, 0.0\)%) show NC gr  0.490196 0.545098 0.615686 c 0.364706 0.419608 0.490196 c 327 38 30 1130 bf 0.490196 0.545098
 0.615686 c 30 1130 m 327 X s 357 1130 m 38 Y s 357 1168 m -327 X s 30 1168 m -38 Y s 1 1 1 c black 1 1 1 c
 gsave  710 567 23 603 C 34.101 1142.38 t 0 r /Helvetica-Bold findfont 28.5146 sf 0 0 m (Input variable: yy.H1_l1) show NC gr  0.490196 0.545098 0.615686 c 0.941176 0.941176 0.941176 c 710 567 779 603 bf black 1 1 0.992157 c 548 429 899 685 bf black
 548 429 899 685 bl 0 0 0.933333 c 6 lw 0.49 0.6 0.82 c black 3 lw 0.49 0.6 0.82 c 899 685 m 123 X 253 Y 14 X -94 Y 14 X -29 Y 14 X -38 Y 13 X 41 Y 14 X -33 Y 27 X -7 Y 14 X 17 Y 14 X -29 Y 13 X 2 Y 14 X -40 Y 14 X 19 Y 13 X -24 Y 14 X -26 Y 14 X -12
 Y 219 X f 6 lw 0 0 0.933333 c 0.49 0.6 0.82 c 0 0 0.933333 c 899 685 m 123 X 253 Y 14 X -94 Y 14 X -29 Y 14 X -38 Y 13 X 41 Y 14 X -33 Y 27 X -7 Y 14 X 17 Y 14 X -29 Y 13 X 2 Y 14 X -40 Y 14 X 19 Y 13 X -24 Y 14 X -26 Y 14 X -12 Y 219 X s black 3 lw
 899 685 m 548 X s 956 698 m -13 Y s 970 691 m -6 Y s 983 691 m -6 Y s 997 691 m -6 Y s 1010 691 m -6 Y s 1024 698 m -13 Y s 1037 691 m -6 Y s 1051 691 m -6 Y s 1064 691 m -6 Y s 1078 691 m -6 Y s 1091 698 m -13 Y s 1105 691 m -6 Y s 1118 691 m -6 Y
 s 1132 691 m -6 Y s 1145 691 m -6 Y s 1159 698 m -13 Y s 1172 691 m -6 Y s 1186 691 m -6 Y s 1199 691 m -6 Y s 1213 691 m -6 Y s 1226 698 m -13 Y s 1240 691 m -6 Y s 1253 691 m -6 Y s 1267 691 m -6 Y s 1280 691 m -6 Y s 1294 698 m -13 Y s 1307 691 m
 -6 Y s 1321 691 m -6 Y s 1334 691 m -6 Y s 1348 691 m -6 Y s 1361 698 m -13 Y s 1374 691 m -6 Y s 1388 691 m -6 Y s 1401 691 m -6 Y s 1415 691 m -6 Y s 1428 698 m -13 Y s 956 698 m -13 Y s 943 691 m -6 Y s 929 691 m -6 Y s 916 691 m -6 Y s 903 691 m
 -6 Y s 1428 698 m -13 Y s 1442 691 m -6 Y s
 gsave  710 567 779 603 C 954.828 656.444 t 0 r /Helvetica findfont 25.6631 sf 0 0 m (1) show NC gr 
 gsave  710 567 779 603 C 940.619 656.444 t 0 r /Symbol findfont 25.6631 sf 0 0 m (-) show NC gr 
 gsave  710 567 779 603 C 1011.66 656.444 t 0 r /Helvetica findfont 25.6631 sf 0 0 m (0.5) show NC gr 
 gsave  710 567 779 603 C 997.454 656.444 t 0 r /Symbol findfont 25.6631 sf 0 0 m (-) show NC gr 
 gsave  710 567 779 603 C 1082.71 656.444 t 0 r /Helvetica findfont 25.6631 sf 0 0 m (0) show NC gr 
 gsave  710 567 779 603 C 1139.54 656.444 t 0 r /Helvetica findfont 25.6631 sf 0 0 m (0.5) show NC gr 
 gsave  710 567 779 603 C 1219.11 656.444 t 0 r /Helvetica findfont 25.6631 sf 0 0 m (1) show NC gr 
 gsave  710 567 779 603 C 1275.95 656.444 t 0 r /Helvetica findfont 25.6631 sf 0 0 m (1.5) show NC gr 
 gsave  710 567 779 603 C 1349.83 656.444 t 0 r /Helvetica findfont 25.6631 sf 0 0 m (2) show NC gr 
 gsave  710 567 779 603 C 1409.51 656.444 t 0 r /Helvetica findfont 25.6631 sf 0 0 m (2.5) show NC gr 
 gsave  710 567 779 603 C 1338.46 616.66 t 0 r /Helvetica findfont 28.5146 sf 0 0 m (yy.H1_l2) show NC gr  899 1114 m 548 X s 956 1100 m 14 Y s 970 1107 m 7 Y s 983 1107 m 7 Y s 997 1107 m 7 Y s 1010 1107 m 7 Y s 1024 1100 m 14 Y s 1037 1107 m 7 Y s
 1051 1107 m 7 Y s 1064 1107 m 7 Y s 1078 1107 m 7 Y s 1091 1100 m 14 Y s 1105 1107 m 7 Y s 1118 1107 m 7 Y s 1132 1107 m 7 Y s 1145 1107 m 7 Y s 1159 1100 m 14 Y s 1172 1107 m 7 Y s 1186 1107 m 7 Y s 1199 1107 m 7 Y s 1213 1107 m 7 Y s 1226 1100 m
 14 Y s 1240 1107 m 7 Y s 1253 1107 m 7 Y s 1267 1107 m 7 Y s 1280 1107 m 7 Y s 1294 1100 m 14 Y s 1307 1107 m 7 Y s 1321 1107 m 7 Y s 1334 1107 m 7 Y s 1348 1107 m 7 Y s 1361 1100 m 14 Y s 1374 1107 m 7 Y s 1388 1107 m 7 Y s 1401 1107 m 7 Y s 1415
 1107 m 7 Y s 1428 1100 m 14 Y s 956 1100 m 14 Y s 943 1107 m 7 Y s 929 1107 m 7 Y s 916 1107 m 7 Y s 903 1107 m 7 Y s 1428 1100 m 14 Y s 1442 1107 m 7 Y s 899 685 m 429 Y s 915 685 m -16 X s 907 700 m -8 X s 907 715 m -8 X s 907 730 m -8 X s 907 745
 m -8 X s 915 760 m -16 X s 907 775 m -8 X s 907 791 m -8 X s 907 806 m -8 X s 907 821 m -8 X s 915 836 m -16 X s 907 851 m -8 X s 907 866 m -8 X s 907 882 m -8 X s 907 897 m -8 X s 915 912 m -16 X s 907 927 m -8 X s 907 942 m -8 X s 907 957 m -8 X s
 907 972 m -8 X s 915 988 m -16 X s 907 1003 m -8 X s 907 1018 m -8 X s 907 1033 m -8 X s 907 1048 m -8 X s 915 1063 m -16 X s 915 1063 m -16 X s 907 1078 m -8 X s 907 1094 m -8 X s 907 1109 m -8 X s
 gsave  710 567 779 603 C 875.259 673.495 t 0 r /Helvetica findfont 25.6631 sf 0 0 m (0) show NC gr 
 gsave  710 567 779 603 C 855.367 750.222 t 0 r /Helvetica findfont 25.6631 sf 0 0 m (0.5) show NC gr 
 gsave  710 567 779 603 C 878.101 826.949 t 0 r /Helvetica findfont 25.6631 sf 0 0 m (1) show NC gr 
 gsave  710 567 779 603 C 855.367 900.835 t 0 r /Helvetica findfont 25.6631 sf 0 0 m (1.5) show NC gr 
 gsave  710 567 779 603 C 875.259 977.562 t 0 r /Helvetica findfont 25.6631 sf 0 0 m (2) show NC gr 
 gsave  710 567 779 603 C 855.367 1054.29 t 0 r /Helvetica findfont 25.6631 sf 0 0 m (2.5) show NC gr 
 gsave  710 567 779 603 C 801.374 1042.92 t 90 r /Helvetica findfont 28.5146 sf 0 0 m (0.101 ) show NC gr 
 gsave  710 567 779 603 C 787.165 1040.08 t 90 r /Helvetica findfont 19.9602 sf 0 0 m ( ) show NC gr 
 gsave  710 567 779 603 C 801.374 1028.71 t 90 r /Helvetica findfont 28.5146 sf 0 0 m (/) show NC gr 
 gsave  710 567 779 603 C 809.899 1025.87 t 90 r /Helvetica findfont 19.9602 sf 0 0 m ( ) show NC gr 
 gsave  710 567 779 603 C 801.374 920.727 t 90 r /Helvetica findfont 28.5146 sf 0 0 m (\(1/N\) dN) show NC gr  1447 685 m 429 Y s 1430 685 m 17 X s 1438 700 m 9 X s 1438 715 m 9 X s 1438 730 m 9 X s 1438 745 m 9 X s 1430 760 m 17 X s 1438 775 m 9 X s
 1438 791 m 9 X s 1438 806 m 9 X s 1438 821 m 9 X s 1430 836 m 17 X s 1438 851 m 9 X s 1438 866 m 9 X s 1438 882 m 9 X s 1438 897 m 9 X s 1430 912 m 17 X s 1438 927 m 9 X s 1438 942 m 9 X s 1438 957 m 9 X s 1438 972 m 9 X s 1430 988 m 17 X s 1438
 1003 m 9 X s 1438 1018 m 9 X s 1438 1033 m 9 X s 1438 1048 m 9 X s 1430 1063 m 17 X s 1430 1063 m 17 X s 1438 1078 m 9 X s 1438 1094 m 9 X s 1438 1109 m 9 X s 0.490196 0.545098 0.615686 c 0.364706 0.419608 0.490196 c 332 38 786 1130 bf 0.490196
 0.545098 0.615686 c 786 1130 m 332 X s 1118 1130 m 38 Y s 1118 1168 m -332 X s 786 1168 m -38 Y s 1 1 1 c black 1 1 1 c
 gsave  710 567 779 603 C 790.007 1142.38 t 0 r /Helvetica-Bold findfont 28.5146 sf 0 0 m (Input variable: yy.H1_l2) show NC gr  1 0 0 c 6 lw black 3 lw 1 0 0 c 1432 685 m cl s 1417 685 m s 1402 685 m s 1387 685 m s 1372 685 m s 1357 685 m s 1342 685
 m s 1327 685 m s 1312 685 m s 1297 685 m s 1282 685 m s 1267 685 m s 1252 685 m s 1237 685 m s 1228 691 m -7 -6 d s 1228 706 m -22 -21 d s 1218 711 m -27 -26 d s 1214 723 m -38 -38 d s 1214 738 m -53 -53 d s 1207 745 m -61 -60 d s 1174 728 m -43 -43
 d s 1173 742 m -57 -57 d s 1170 754 m -69 -69 d s 1159 759 m -73 -74 d s 1146 760 m -75 -75 d s 1124 753 m -68 -68 d s 1118 763 m -77 -78 d s 1107 766 m -81 -81 d s 1093 767 m -2 -1 d s 1088 763 m -66 -66 d s 1010 685 m s 1077 767 m -55 -55 d s 995
 685 m s 1077 782 m -55 -55 d s 980 685 m s 1077 797 m -55 -55 d s 965 685 m s 1072 808 m -8 -9 d s 1061 796 m -39 -39 d s 950 685 m s 1050 800 m -28 -27 d s 935 685 m s 1050 815 m -28 -27 d s 920 685 m s 1050 831 m -28 -28 d s 905 685 m s 1039 835 m
 -17 -17 d s 1036 847 m -14 -14 d s 1036 862 m -14 -13 d s 1036 878 m -14 -14 d s 1036 893 m -14 -14 d s 1036 908 m -14 -14 d s 1036 923 m -14 -14 d s 1036 938 m -14 -14 d s 1036 953 m -14 -13 d s 1036 969 m -14 -14 d s 1036 984 m -14 -14 d s 1036
 999 m -14 -14 d s 1036 1014 m -14 -14 d s 1036 1029 m -14 -13 d s 1036 1045 m -14 -14 d s 1036 1060 m -14 -14 d s 1036 1075 m -14 -14 d s 6 lw 899 685 m 123 X 390 Y 14 X -240 Y 14 X -39 Y 14 X 12 Y 13 X -45 Y 14 X 4 Y 14 X -1 Y 13 X -13 Y 14 X 8 Y
 14 X -1 Y 13 X -6 Y 14 X -26 Y 14 X 11 Y 13 X 6 Y 14 X -34 Y 14 X -26 Y 219 X s black 3 lw 899 685 m 548 X s 956 698 m -13 Y s 970 691 m -6 Y s 983 691 m -6 Y s 997 691 m -6 Y s 1010 691 m -6 Y s 1024 698 m -13 Y s 1037 691 m -6 Y s 1051 691 m -6 Y
 s 1064 691 m -6 Y s 1078 691 m -6 Y s 1091 698 m -13 Y s 1105 691 m -6 Y s 1118 691 m -6 Y s 1132 691 m -6 Y s 1145 691 m -6 Y s 1159 698 m -13 Y s 1172 691 m -6 Y s 1186 691 m -6 Y s 1199 691 m -6 Y s 1213 691 m -6 Y s 1226 698 m -13 Y s 1240 691 m
 -6 Y s 1253 691 m -6 Y s 1267 691 m -6 Y s 1280 691 m -6 Y s 1294 698 m -13 Y s 1307 691 m -6 Y s 1321 691 m -6 Y s 1334 691 m -6 Y s 1348 691 m -6 Y s 1361 698 m -13 Y s 1374 691 m -6 Y s 1388 691 m -6 Y s 1401 691 m -6 Y s 1415 691 m -6 Y s 1428
 698 m -13 Y s 956 698 m -13 Y s 943 691 m -6 Y s 929 691 m -6 Y s 916 691 m -6 Y s 903 691 m -6 Y s 1428 698 m -13 Y s 1442 691 m -6 Y s 899 1114 m 548 X s 956 1100 m 14 Y s 970 1107 m 7 Y s 983 1107 m 7 Y s 997 1107 m 7 Y s 1010 1107 m 7 Y s 1024
 1100 m 14 Y s 1037 1107 m 7 Y s 1051 1107 m 7 Y s 1064 1107 m 7 Y s 1078 1107 m 7 Y s 1091 1100 m 14 Y s 1105 1107 m 7 Y s 1118 1107 m 7 Y s 1132 1107 m 7 Y s 1145 1107 m 7 Y s 1159 1100 m 14 Y s 1172 1107 m 7 Y s 1186 1107 m 7 Y s 1199 1107 m 7 Y s
 1213 1107 m 7 Y s 1226 1100 m 14 Y s 1240 1107 m 7 Y s 1253 1107 m 7 Y s 1267 1107 m 7 Y s 1280 1107 m 7 Y s 1294 1100 m 14 Y s 1307 1107 m 7 Y s 1321 1107 m 7 Y s 1334 1107 m 7 Y s 1348 1107 m 7 Y s 1361 1100 m 14 Y s 1374 1107 m 7 Y s 1388 1107 m
 7 Y s 1401 1107 m 7 Y s 1415 1107 m 7 Y s 1428 1100 m 14 Y s 956 1100 m 14 Y s 943 1107 m 7 Y s 929 1107 m 7 Y s 916 1107 m 7 Y s 903 1107 m 7 Y s 1428 1100 m 14 Y s 1442 1107 m 7 Y s 899 685 m 429 Y s 915 685 m -16 X s 907 700 m -8 X s 907 715 m -8
 X s 907 730 m -8 X s 907 745 m -8 X s 915 760 m -16 X s 907 775 m -8 X s 907 791 m -8 X s 907 806 m -8 X s 907 821 m -8 X s 915 836 m -16 X s 907 851 m -8 X s 907 866 m -8 X s 907 882 m -8 X s 907 897 m -8 X s 915 912 m -16 X s 907 927 m -8 X s 907
 942 m -8 X s 907 957 m -8 X s 907 972 m -8 X s 915 988 m -16 X s 907 1003 m -8 X s 907 1018 m -8 X s 907 1033 m -8 X s 907 1048 m -8 X s 915 1063 m -16 X s 915 1063 m -16 X s 907 1078 m -8 X s 907 1094 m -8 X s 907 1109 m -8 X s 1447 685 m 429 Y s
 1430 685 m 17 X s 1438 700 m 9 X s 1438 715 m 9 X s 1438 730 m 9 X s 1438 745 m 9 X s 1430 760 m 17 X s 1438 775 m 9 X s 1438 791 m 9 X s 1438 806 m 9 X s 1438 821 m 9 X s 1430 836 m 17 X s 1438 851 m 9 X s 1438 866 m 9 X s 1438 882 m 9 X s 1438 897
 m 9 X s 1430 912 m 17 X s 1438 927 m 9 X s 1438 942 m 9 X s 1438 957 m 9 X s 1438 972 m 9 X s 1430 988 m 17 X s 1438 1003 m 9 X s 1438 1018 m 9 X s 1438 1033 m 9 X s 1438 1048 m 9 X s 1430 1063 m 17 X s 1430 1063 m 17 X s 1438 1078 m 9 X s 1438 1094
 m 9 X s 1438 1109 m 9 X s
 gsave  710 567 779 603 C 1474.92 682.347 t 90 r /Helvetica-Bold findfont 19.9602 sf 0 0 m (U/O\255flow \(S,B\): \(0.0, 0.0\)% / \(0.0, 0.0\)%) show NC gr  0.490196 0.545098 0.615686 c 0.364706 0.419608 0.490196 c 332 38 786 1130 bf 0.490196 0.545098
 0.615686 c 786 1130 m 332 X s 1118 1130 m 38 Y s 1118 1168 m -332 X s 786 1168 m -38 Y s 1 1 1 c black 1 1 1 c
 gsave  710 567 779 603 C 790.007 1142.38 t 0 r /Helvetica-Bold findfont 28.5146 sf 0 0 m (Input variable: yy.H1_l2) show NC gr  0.490196 0.545098 0.615686 c 0.941176 0.941176 0.941176 c 711 567 1534 603 bf black 1 1 0.992157 c 547 429 1655 685 bf
 black 547 429 1655 685 bl 0 0 0.933333 c 6 lw 0.49 0.6 0.82 c black 3 lw 0.49 0.6 0.82 c 1655 705 m 123 X 371 Y 14 X -192 Y 14 X -58 Y 13 X -11 Y 14 X -14 Y 14 X -25 Y 13 X -1 Y 14 X -8 Y 14 X -34 Y 13 X -3 Y 14 X 22 Y 14 X -16 Y 14 X -11 Y 13 X -2
 Y 14 X -8 Y 14 X -1 Y 13 X -8 Y 14 X -1 Y 191 X f 6 lw 0 0 0.933333 c 0.49 0.6 0.82 c 0 0 0.933333 c 1655 705 m 123 X 371 Y 14 X -192 Y 14 X -58 Y 13 X -11 Y 14 X -14 Y 14 X -25 Y 13 X -1 Y 14 X -8 Y 14 X -34 Y 13 X -3 Y 14 X 22 Y 14 X -16 Y 14 X
 -11 Y 13 X -2 Y 14 X -8 Y 14 X -1 Y 13 X -8 Y 14 X -1 Y 191 X s black 3 lw 1655 685 m 547 X s 1693 698 m -13 Y s 1709 691 m -6 Y s 1725 691 m -6 Y s 1741 691 m -6 Y s 1757 691 m -6 Y s 1773 698 m -13 Y s 1789 691 m -6 Y s 1805 691 m -6 Y s 1821 691
 m -6 Y s 1837 691 m -6 Y s 1853 698 m -13 Y s 1869 691 m -6 Y s 1884 691 m -6 Y s 1900 691 m -6 Y s 1916 691 m -6 Y s 1932 698 m -13 Y s 1948 691 m -6 Y s 1964 691 m -6 Y s 1980 691 m -6 Y s 1996 691 m -6 Y s 2012 698 m -13 Y s 2028 691 m -6 Y s
 2044 691 m -6 Y s 2060 691 m -6 Y s 2076 691 m -6 Y s 2092 698 m -13 Y s 2108 691 m -6 Y s 2124 691 m -6 Y s 2140 691 m -6 Y s 2155 691 m -6 Y s 2171 698 m -13 Y s 1693 698 m -13 Y s 1677 691 m -6 Y s 1661 691 m -6 Y s 2171 698 m -13 Y s 2187 691 m
 -6 Y s
 gsave  711 567 1534 603 C 1690.84 656.444 t 0 r /Helvetica findfont 25.6631 sf 0 0 m (1) show NC gr 
 gsave  711 567 1534 603 C 1676.63 656.444 t 0 r /Symbol findfont 25.6631 sf 0 0 m (-) show NC gr 
 gsave  711 567 1534 603 C 1759.04 656.444 t 0 r /Helvetica findfont 25.6631 sf 0 0 m (0.5) show NC gr 
 gsave  711 567 1534 603 C 1744.83 656.444 t 0 r /Symbol findfont 25.6631 sf 0 0 m (-) show NC gr 
 gsave  711 567 1534 603 C 1841.45 656.444 t 0 r /Helvetica findfont 25.6631 sf 0 0 m (0) show NC gr 
 gsave  711 567 1534 603 C 1912.5 656.444 t 0 r /Helvetica findfont 25.6631 sf 0 0 m (0.5) show NC gr 
 gsave  711 567 1534 603 C 2006.28 656.444 t 0 r /Helvetica findfont 25.6631 sf 0 0 m (1) show NC gr 
 gsave  711 567 1534 603 C 2074.48 656.444 t 0 r /Helvetica findfont 25.6631 sf 0 0 m (1.5) show NC gr 
 gsave  711 567 1534 603 C 2162.57 656.444 t 0 r /Helvetica findfont 25.6631 sf 0 0 m (2) show NC gr 
 gsave  711 567 1534 603 C 2094.37 616.66 t 0 r /Helvetica findfont 28.5146 sf 0 0 m (yy.H1_l3) show NC gr  1655 1114 m 547 X s 1693 1100 m 14 Y s 1709 1107 m 7 Y s 1725 1107 m 7 Y s 1741 1107 m 7 Y s 1757 1107 m 7 Y s 1773 1100 m 14 Y s 1789 1107 m
 7 Y s 1805 1107 m 7 Y s 1821 1107 m 7 Y s 1837 1107 m 7 Y s 1853 1100 m 14 Y s 1869 1107 m 7 Y s 1884 1107 m 7 Y s 1900 1107 m 7 Y s 1916 1107 m 7 Y s 1932 1100 m 14 Y s 1948 1107 m 7 Y s 1964 1107 m 7 Y s 1980 1107 m 7 Y s 1996 1107 m 7 Y s 2012
 1100 m 14 Y s 2028 1107 m 7 Y s 2044 1107 m 7 Y s 2060 1107 m 7 Y s 2076 1107 m 7 Y s 2092 1100 m 14 Y s 2108 1107 m 7 Y s 2124 1107 m 7 Y s 2140 1107 m 7 Y s 2155 1107 m 7 Y s 2171 1100 m 14 Y s 1693 1100 m 14 Y s 1677 1107 m 7 Y s 1661 1107 m 7 Y
 s 2171 1100 m 14 Y s 2187 1107 m 7 Y s 1655 685 m 429 Y s 1671 705 m -16 X s 1663 716 m -8 X s 1663 727 m -8 X s 1663 738 m -8 X s 1663 749 m -8 X s 1671 760 m -16 X s 1663 770 m -8 X s 1663 781 m -8 X s 1663 792 m -8 X s 1663 803 m -8 X s 1671 814
 m -16 X s 1663 825 m -8 X s 1663 836 m -8 X s 1663 847 m -8 X s 1663 858 m -8 X s 1671 869 m -16 X s 1663 879 m -8 X s 1663 890 m -8 X s 1663 901 m -8 X s 1663 912 m -8 X s 1671 923 m -16 X s 1663 934 m -8 X s 1663 945 m -8 X s 1663 956 m -8 X s
 1663 967 m -8 X s 1671 978 m -16 X s 1663 988 m -8 X s 1663 999 m -8 X s 1663 1010 m -8 X s 1663 1021 m -8 X s 1671 1032 m -16 X s 1663 1043 m -8 X s 1663 1054 m -8 X s 1663 1065 m -8 X s 1663 1076 m -8 X s 1671 1087 m -16 X s 1671 705 m -16 X s
 1663 694 m -8 X s 1671 1087 m -16 X s 1663 1097 m -8 X s 1663 1108 m -8 X s
 gsave  711 567 1534 603 C 1631.16 696.229 t 0 r /Helvetica findfont 25.6631 sf 0 0 m (0) show NC gr 
 gsave  711 567 1534 603 C 1611.27 750.222 t 0 r /Helvetica findfont 25.6631 sf 0 0 m (0.5) show NC gr 
 gsave  711 567 1534 603 C 1634.01 804.215 t 0 r /Helvetica findfont 25.6631 sf 0 0 m (1) show NC gr 
 gsave  711 567 1534 603 C 1611.27 858.209 t 0 r /Helvetica findfont 25.6631 sf 0 0 m (1.5) show NC gr 
 gsave  711 567 1534 603 C 1631.16 912.202 t 0 r /Helvetica findfont 25.6631 sf 0 0 m (2) show NC gr 
 gsave  711 567 1534 603 C 1611.27 969.037 t 0 r /Helvetica findfont 25.6631 sf 0 0 m (2.5) show NC gr 
 gsave  711 567 1534 603 C 1631.16 1023.03 t 0 r /Helvetica findfont 25.6631 sf 0 0 m (3) show NC gr 
 gsave  711 567 1534 603 C 1611.27 1077.02 t 0 r /Helvetica findfont 25.6631 sf 0 0 m (3.5) show NC gr 
 gsave  711 567 1534 603 C 1557.28 1023.03 t 90 r /Helvetica findfont 28.5146 sf 0 0 m (0.0858 ) show NC gr 
 gsave  711 567 1534 603 C 1543.07 1020.19 t 90 r /Helvetica findfont 19.9602 sf 0 0 m ( ) show NC gr 
 gsave  711 567 1534 603 C 1557.28 1008.82 t 90 r /Helvetica findfont 28.5146 sf 0 0 m (/) show NC gr 
 gsave  711 567 1534 603 C 1565.8 1005.98 t 90 r /Helvetica findfont 19.9602 sf 0 0 m ( ) show NC gr 
 gsave  711 567 1534 603 C 1557.28 900.835 t 90 r /Helvetica findfont 28.5146 sf 0 0 m (\(1/N\) dN) show NC gr  2202 685 m 429 Y s 2186 705 m 16 X s 2194 716 m 8 X s 2194 727 m 8 X s 2194 738 m 8 X s 2194 749 m 8 X s 2186 760 m 16 X s 2194 770 m 8 X
 s 2194 781 m 8 X s 2194 792 m 8 X s 2194 803 m 8 X s 2186 814 m 16 X s 2194 825 m 8 X s 2194 836 m 8 X s 2194 847 m 8 X s 2194 858 m 8 X s 2186 869 m 16 X s 2194 879 m 8 X s 2194 890 m 8 X s 2194 901 m 8 X s 2194 912 m 8 X s 2186 923 m 16 X s 2194
 934 m 8 X s 2194 945 m 8 X s 2194 956 m 8 X s 2194 967 m 8 X s 2186 978 m 16 X s 2194 988 m 8 X s 2194 999 m 8 X s 2194 1010 m 8 X s 2194 1021 m 8 X s 2186 1032 m 16 X s 2194 1043 m 8 X s 2194 1054 m 8 X s 2194 1065 m 8 X s 2194 1076 m 8 X s 2186
 1087 m 16 X s 2186 705 m 16 X s 2194 694 m 8 X s 2186 1087 m 16 X s 2194 1097 m 8 X s 2194 1108 m 8 X s 0.490196 0.545098 0.615686 c 0.364706 0.419608 0.490196 c 332 38 1542 1130 bf 0.490196 0.545098 0.615686 c 1542 1130 m 332 X s 1874 1130 m 38 Y s
 1874 1168 m -332 X s 1542 1168 m -38 Y s 1 1 1 c black 1 1 1 c
 gsave  711 567 1534 603 C 1545.91 1142.38 t 0 r /Helvetica-Bold findfont 28.5146 sf 0 0 m (Input variable: yy.H1_l3) show NC gr  1 0 0 c 6 lw black 3 lw 1 0 0 c 2194 705 m s 2179 705 m s 2163 705 m s 2148 705 m s 2133 705 m s 2118 705 m s 2103 705 m
 s 2088 705 m s 2073 705 m s 2058 705 m s 2043 705 m s 2028 705 m s 2013 705 m s 1998 705 m s 1983 706 m -1 Y s 1968 706 m -1 Y s 1954 706 m -2 -1 d s 1943 710 m -6 -5 d s 1930 713 m -8 -8 d s 1929 727 m -22 -22 d s 1929 742 m -37 -37 d s 1929 757 m
 -52 -52 d s 1929 772 m -67 -67 d s 1929 788 m -82 -83 d s 1929 803 m -97 -98 d s 1929 818 m -28 -28 d s 1900 789 m -83 -84 d s 1929 833 m -14 -14 d s 1911 815 m -10 -9 d s 1886 790 m -84 -85 d s 1929 848 m -14 -13 d s 1867 786 m -7 -7 d s 1859 778 m
 -72 -73 d s 1929 863 m -14 -13 d s 1847 781 m -75 -76 d s 1929 879 m -14 -14 d s 1847 796 m -14 -14 d s 1822 772 m -44 -45 d s 1775 724 m -18 -19 d s 1929 894 m -14 -14 d s 1834 799 m -1 -2 d s 1819 784 m -41 -42 d s 1759 723 m -18 -18 d s 1926 906
 m -11 -11 d s 1819 799 m -41 -42 d s 1750 729 m -24 -24 d s 1812 807 m -34 -34 d s 1734 728 m -10 -10 d s 1723 717 m -12 -12 d s 1806 815 m -28 -27 d s 1706 715 m -10 -10 d s 1792 817 m -14 -14 d s 1683 707 m s 1681 705 m s 1792 832 m -14 -14 d s
 1666 705 m s 1792 847 m -14 -14 d s 1781 851 m -3 -2 d s 6 lw 1655 705 m 28 X 2 Y 13 X 8 Y 14 X 2 Y 14 X 11 Y 13 X 1 Y 14 X -6 Y 14 X 1 Y 13 X 127 Y 14 X -36 Y 14 X -8 Y 13 X -35 Y 14 X 27 Y 14 X -21 Y 13 X 8 Y 14 X 4 Y 14 X -1 Y 13 X 26 Y 14 X 91 Y
 14 X -193 Y 14 X -7 Y 54 X -1 Y 205 X s black 3 lw 1655 685 m 547 X s 1693 698 m -13 Y s 1709 691 m -6 Y s 1725 691 m -6 Y s 1741 691 m -6 Y s 1757 691 m -6 Y s 1773 698 m -13 Y s 1789 691 m -6 Y s 1805 691 m -6 Y s 1821 691 m -6 Y s 1837 691 m -6 Y
 s 1853 698 m -13 Y s 1869 691 m -6 Y s 1884 691 m -6 Y s 1900 691 m -6 Y s 1916 691 m -6 Y s 1932 698 m -13 Y s 1948 691 m -6 Y s 1964 691 m -6 Y s 1980 691 m -6 Y s 1996 691 m -6 Y s 2012 698 m -13 Y s 2028 691 m -6 Y s 2044 691 m -6 Y s 2060 691 m
 -6 Y s 2076 691 m -6 Y s 2092 698 m -13 Y s 2108 691 m -6 Y s 2124 691 m -6 Y s 2140 691 m -6 Y s 2155 691 m -6 Y s 2171 698 m -13 Y s 1693 698 m -13 Y s 1677 691 m -6 Y s 1661 691 m -6 Y s 2171 698 m -13 Y s 2187 691 m -6 Y s 1655 1114 m 547 X s
 1693 1100 m 14 Y s 1709 1107 m 7 Y s 1725 1107 m 7 Y s 1741 1107 m 7 Y s 1757 1107 m 7 Y s 1773 1100 m 14 Y s 1789 1107 m 7 Y s 1805 1107 m 7 Y s 1821 1107 m 7 Y s 1837 1107 m 7 Y s 1853 1100 m 14 Y s 1869 1107 m 7 Y s 1884 1107 m 7 Y s 1900 1107 m
 7 Y s 1916 1107 m 7 Y s 1932 1100 m 14 Y s 1948 1107 m 7 Y s 1964 1107 m 7 Y s 1980 1107 m 7 Y s 1996 1107 m 7 Y s 2012 1100 m 14 Y s 2028 1107 m 7 Y s 2044 1107 m 7 Y s 2060 1107 m 7 Y s 2076 1107 m 7 Y s 2092 1100 m 14 Y s 2108 1107 m 7 Y s 2124
 1107 m 7 Y s 2140 1107 m 7 Y s 2155 1107 m 7 Y s 2171 1100 m 14 Y s 1693 1100 m 14 Y s 1677 1107 m 7 Y s 1661 1107 m 7 Y s 2171 1100 m 14 Y s 2187 1107 m 7 Y s 1655 685 m 429 Y s 1671 705 m -16 X s 1663 716 m -8 X s 1663 727 m -8 X s 1663 738 m -8 X
 s 1663 749 m -8 X s 1671 760 m -16 X s 1663 770 m -8 X s 1663 781 m -8 X s 1663 792 m -8 X s 1663 803 m -8 X s 1671 814 m -16 X s 1663 825 m -8 X s 1663 836 m -8 X s 1663 847 m -8 X s 1663 858 m -8 X s 1671 869 m -16 X s 1663 879 m -8 X s 1663 890 m
 -8 X s 1663 901 m -8 X s 1663 912 m -8 X s 1671 923 m -16 X s 1663 934 m -8 X s 1663 945 m -8 X s 1663 956 m -8 X s 1663 967 m -8 X s 1671 978 m -16 X s 1663 988 m -8 X s 1663 999 m -8 X s 1663 1010 m -8 X s 1663 1021 m -8 X s 1671 1032 m -16 X s
 1663 1043 m -8 X s 1663 1054 m -8 X s 1663 1065 m -8 X s 1663 1076 m -8 X s 1671 1087 m -16 X s 1671 705 m -16 X s 1663 694 m -8 X s 1671 1087 m -16 X s 1663 1097 m -8 X s 1663 1108 m -8 X s 2202 685 m 429 Y s 2186 705 m 16 X s 2194 716 m 8 X s 2194
 727 m 8 X s 2194 738 m 8 X s 2194 749 m 8 X s 2186 760 m 16 X s 2194 770 m 8 X s 2194 781 m 8 X s 2194 792 m 8 X s 2194 803 m 8 X s 2186 814 m 16 X s 2194 825 m 8 X s 2194 836 m 8 X s 2194 847 m 8 X s 2194 858 m 8 X s 2186 869 m 16 X s 2194 879 m 8
 X s 2194 890 m 8 X s 2194 901 m 8 X s 2194 912 m 8 X s 2186 923 m 16 X s 2194 934 m 8 X s 2194 945 m 8 X s 2194 956 m 8 X s 2194 967 m 8 X s 2186 978 m 16 X s 2194 988 m 8 X s 2194 999 m 8 X s 2194 1010 m 8 X s 2194 1021 m 8 X s 2186 1032 m 16 X s
 2194 1043 m 8 X s 2194 1054 m 8 X s 2194 1065 m 8 X s 2194 1076 m 8 X s 2186 1087 m 16 X s 2186 705 m 16 X s 2194 694 m 8 X s 2186 1087 m 16 X s 2194 1097 m 8 X s 2194 1108 m 8 X s
 gsave  711 567 1534 603 C 2230.83 682.347 t 90 r /Helvetica-Bold findfont 19.9602 sf 0 0 m (U/O\255flow \(S,B\): \(0.0, 0.0\)% / \(0.0, 0.0\)%) show NC gr  0.490196 0.545098 0.615686 c 0.364706 0.419608 0.490196 c 332 38 1542 1130 bf 0.490196
 0.545098 0.615686 c 1542 1130 m 332 X s 1874 1130 m 38 Y s 1874 1168 m -332 X s 1542 1168 m -38 Y s 1 1 1 c black 1 1 1 c
 gsave  711 567 1534 603 C 1545.91 1142.38 t 0 r /Helvetica-Bold findfont 28.5146 sf 0 0 m (Input variable: yy.H1_l3) show NC gr  0.490196 0.545098 0.615686 c 0.941176 0.941176 0.941176 c 710 567 23 12 bf black 1 1 0.992157 c 548 429 143 94 bf black
 548 429 143 94 bl 0 0 0.933333 c 6 lw 0.49 0.6 0.82 c black 3 lw 0.49 0.6 0.82 c 143 114 m 137 X 371 Y 14 X -88 Y 14 X -128 Y 13 X -46 Y 14 X 27 Y 14 X -35 Y 13 X 25 Y 14 X -48 Y 14 X 17 Y 13 X 8 Y 14 X -39 Y 14 X 123 Y 13 X -171 Y 14 X -2 Y 14 X -2
 Y 13 X -4 Y 14 X 2 Y 14 X -4 Y 13 X -4 Y 14 X -1 Y 14 X -1 Y 137 X f 6 lw 0 0 0.933333 c 0.49 0.6 0.82 c 0 0 0.933333 c 143 114 m 137 X 371 Y 14 X -88 Y 14 X -128 Y 13 X -46 Y 14 X 27 Y 14 X -35 Y 13 X 25 Y 14 X -48 Y 14 X 17 Y 13 X 8 Y 14 X -39 Y
 14 X 123 Y 13 X -171 Y 14 X -2 Y 14 X -2 Y 13 X -4 Y 14 X 2 Y 14 X -4 Y 13 X -4 Y 14 X -1 Y 14 X -1 Y 137 X s black 3 lw 143 94 m 548 X s 175 107 m -13 Y s 194 100 m -6 Y s 213 100 m -6 Y s 233 100 m -6 Y s 252 100 m -6 Y s 271 107 m -13 Y s 291 100
 m -6 Y s 310 100 m -6 Y s 329 100 m -6 Y s 349 100 m -6 Y s 368 107 m -13 Y s 387 100 m -6 Y s 406 100 m -6 Y s 426 100 m -6 Y s 445 100 m -6 Y s 464 107 m -13 Y s 484 100 m -6 Y s 503 100 m -6 Y s 522 100 m -6 Y s 542 100 m -6 Y s 561 107 m -13 Y s
 580 100 m -6 Y s 599 100 m -6 Y s 619 100 m -6 Y s 638 100 m -6 Y s 657 107 m -13 Y s 175 107 m -13 Y s 156 100 m -6 Y s 657 107 m -13 Y s 677 100 m -6 Y s
 gsave  710 567 23 12 C 173.347 65.3603 t 0 r /Helvetica findfont 25.6631 sf 0 0 m (1) show NC gr 
 gsave  710 567 23 12 C 159.138 65.3603 t 0 r /Symbol findfont 25.6631 sf 0 0 m (-) show NC gr 
 gsave  710 567 23 12 C 258.599 65.3603 t 0 r /Helvetica findfont 25.6631 sf 0 0 m (0.5) show NC gr 
 gsave  710 567 23 12 C 244.391 65.3603 t 0 r /Symbol findfont 25.6631 sf 0 0 m (-) show NC gr 
 gsave  710 567 23 12 C 358.061 65.3603 t 0 r /Helvetica findfont 25.6631 sf 0 0 m (0) show NC gr 
 gsave  710 567 23 12 C 446.155 65.3603 t 0 r /Helvetica findfont 25.6631 sf 0 0 m (0.5) show NC gr 
 gsave  710 567 23 12 C 554.141 65.3603 t 0 r /Helvetica findfont 25.6631 sf 0 0 m (1) show NC gr 
 gsave  710 567 23 12 C 639.394 65.3603 t 0 r /Helvetica findfont 25.6631 sf 0 0 m (1.5) show NC gr 
 gsave  710 567 23 12 C 582.559 25.5758 t 0 r /Helvetica findfont 28.5146 sf 0 0 m (yy.H1_l4) show NC gr  143 523 m 548 X s 175 509 m 14 Y s 194 516 m 7 Y s 213 516 m 7 Y s 233 516 m 7 Y s 252 516 m 7 Y s 271 509 m 14 Y s 291 516 m 7 Y s 310 516 m 7
 Y s 329 516 m 7 Y s 349 516 m 7 Y s 368 509 m 14 Y s 387 516 m 7 Y s 406 516 m 7 Y s 426 516 m 7 Y s 445 516 m 7 Y s 464 509 m 14 Y s 484 516 m 7 Y s 503 516 m 7 Y s 522 516 m 7 Y s 542 516 m 7 Y s 561 509 m 14 Y s 580 516 m 7 Y s 599 516 m 7 Y s
 619 516 m 7 Y s 638 516 m 7 Y s 657 509 m 14 Y s 175 509 m 14 Y s 156 516 m 7 Y s 657 509 m 14 Y s 677 516 m 7 Y s 143 94 m 429 Y s 160 114 m -17 X s 152 127 m -9 X s 152 141 m -9 X s 152 154 m -9 X s 152 167 m -9 X s 160 181 m -17 X s 152 194 m -9
 X s 152 207 m -9 X s 152 221 m -9 X s 152 234 m -9 X s 160 247 m -17 X s 152 260 m -9 X s 152 274 m -9 X s 152 287 m -9 X s 152 300 m -9 X s 160 314 m -17 X s 152 327 m -9 X s 152 340 m -9 X s 152 354 m -9 X s 152 367 m -9 X s 160 380 m -17 X s 152
 394 m -9 X s 152 407 m -9 X s 152 420 m -9 X s 152 434 m -9 X s 160 447 m -17 X s 152 460 m -9 X s 152 474 m -9 X s 152 487 m -9 X s 152 500 m -9 X s 160 514 m -17 X s 160 114 m -17 X s 152 101 m -9 X s 160 514 m -17 X s
 gsave  710 567 23 12 C 119.354 105.145 t 0 r /Helvetica findfont 25.6631 sf 0 0 m (0) show NC gr 
 gsave  710 567 23 12 C 99.4613 170.505 t 0 r /Helvetica findfont 25.6631 sf 0 0 m (0.5) show NC gr 
 gsave  710 567 23 12 C 122.195 235.865 t 0 r /Helvetica findfont 25.6631 sf 0 0 m (1) show NC gr 
 gsave  710 567 23 12 C 99.4613 304.067 t 0 r /Helvetica findfont 25.6631 sf 0 0 m (1.5) show NC gr 
 gsave  710 567 23 12 C 119.354 369.428 t 0 r /Helvetica findfont 25.6631 sf 0 0 m (2) show NC gr 
 gsave  710 567 23 12 C 99.4613 437.63 t 0 r /Helvetica findfont 25.6631 sf 0 0 m (2.5) show NC gr 
 gsave  710 567 23 12 C 119.354 502.99 t 0 r /Helvetica findfont 25.6631 sf 0 0 m (3) show NC gr 
 gsave  710 567 23 12 C 45.468 431.946 t 90 r /Helvetica findfont 28.5146 sf 0 0 m (0.0709 ) show NC gr 
 gsave  710 567 23 12 C 31.2593 429.104 t 90 r /Helvetica findfont 19.9602 sf 0 0 m ( ) show NC gr 
 gsave  710 567 23 12 C 45.468 417.737 t 90 r /Helvetica findfont 28.5146 sf 0 0 m (/) show NC gr 
 gsave  710 567 23 12 C 53.9933 414.896 t 90 r /Helvetica findfont 19.9602 sf 0 0 m ( ) show NC gr 
 gsave  710 567 23 12 C 45.468 309.751 t 90 r /Helvetica findfont 28.5146 sf 0 0 m (\(1/N\) dN) show NC gr  691 94 m 429 Y s 674 114 m 17 X s 683 127 m 8 X s 683 141 m 8 X s 683 154 m 8 X s 683 167 m 8 X s 674 181 m 17 X s 683 194 m 8 X s 683 207 m 8
 X s 683 221 m 8 X s 683 234 m 8 X s 674 247 m 17 X s 683 260 m 8 X s 683 274 m 8 X s 683 287 m 8 X s 683 300 m 8 X s 674 314 m 17 X s 683 327 m 8 X s 683 340 m 8 X s 683 354 m 8 X s 683 367 m 8 X s 674 380 m 17 X s 683 394 m 8 X s 683 407 m 8 X s
 683 420 m 8 X s 683 434 m 8 X s 674 447 m 17 X s 683 460 m 8 X s 683 474 m 8 X s 683 487 m 8 X s 683 500 m 8 X s 674 514 m 17 X s 674 114 m 17 X s 683 101 m 8 X s 674 514 m 17 X s 0.490196 0.545098 0.615686 c 0.364706 0.419608 0.490196 c 332 37 30
 539 bf 0.490196 0.545098 0.615686 c 30 539 m 332 X s 362 539 m 37 Y s 362 576 m -332 X s 30 576 m -37 Y s 1 1 1 c black 1 1 1 c
 gsave  710 567 23 12 C 34.101 551.299 t 0 r /Helvetica-Bold findfont 28.5146 sf 0 0 m (Input variable: yy.H1_l4) show NC gr  1 0 0 c 6 lw black 3 lw 1 0 0 c 682 114 m s 667 114 m s 652 114 m s 637 114 m s 621 114 m s 606 114 m s 591 114 m s 576 114
 m s 564 116 m -3 -2 d s 553 121 m -7 -7 d s 539 122 m -8 -8 d s 524 122 m -8 -8 d s 512 125 m -11 -11 d s 499 127 m -13 -13 d s 493 137 m -22 -23 d s 472 130 m s 467 125 m -11 -11 d s 458 132 m -17 -18 d s 449 137 m -23 -23 d s 444 148 m -34 -34 d s
 444 163 m -49 -49 d s 444 178 m -64 -64 d s 444 194 m -79 -80 d s 444 209 m -94 -95 d s 444 224 m -109 -110 d s 444 239 m -41 -41 d s 395 190 m -75 -76 d s 444 254 m -41 -41 d s 389 199 m -84 -85 d s 444 270 m -41 -42 d s 376 201 m -86 -87 d s 444
 285 m -13 -14 d s 428 269 m -11 -12 d s 373 213 m -93 -94 d s 275 114 m s 444 300 m -13 -14 d s 362 217 m -82 -82 d s 260 114 m s 444 315 m -13 -14 d s 352 222 m -3 -3 d s 346 216 m -66 -66 d s 245 114 m s 444 330 m -13 -13 d s 335 220 m -55 -55 d s
 230 114 m s 444 346 m -13 -14 d s 335 235 m -55 -55 d s 215 114 m s 444 361 m -13 -14 d s 321 237 m -41 -42 d s 199 114 m cl s 442 374 m -11 -12 d s 321 252 m -41 -41 d s 184 114 m cl s 321 267 m -41 -41 d s 169 114 m cl s 314 275 m -34 -34 d s 154
 114 m s 308 284 m -28 -28 d s 303 294 m -23 -23 d s 294 300 m -14 -14 d s 294 315 m -14 -13 d s 294 331 m -14 -14 d s 294 346 m -14 -14 d s 294 361 m -14 -14 d s 294 376 m -14 -14 d s 294 391 m -14 -13 d s 294 407 m -14 -14 d s 6 lw 143 114 m 137 X
 293 Y 14 X -113 Y 14 X -19 Y 13 X -39 Y 14 X -20 Y 14 X 6 Y 13 X -9 Y 14 X -14 Y 14 X -9 Y 13 X 52 Y 14 X 27 Y 14 X 105 Y 13 X -237 Y 14 X -12 Y 14 X 5 Y 13 X 7 Y 14 X -12 Y 14 X -3 Y 27 X -1 Y 14 X -5 Y 13 X -2 Y 124 X s black 3 lw 143 94 m 548 X s
 175 107 m -13 Y s 194 100 m -6 Y s 213 100 m -6 Y s 233 100 m -6 Y s 252 100 m -6 Y s 271 107 m -13 Y s 291 100 m -6 Y s 310 100 m -6 Y s 329 100 m -6 Y s 349 100 m -6 Y s 368 107 m -13 Y s 387 100 m -6 Y s 406 100 m -6 Y s 426 100 m -6 Y s 445 100
 m -6 Y s 464 107 m -13 Y s 484 100 m -6 Y s 503 100 m -6 Y s 522 100 m -6 Y s 542 100 m -6 Y s 561 107 m -13 Y s 580 100 m -6 Y s 599 100 m -6 Y s 619 100 m -6 Y s 638 100 m -6 Y s 657 107 m -13 Y s 175 107 m -13 Y s 156 100 m -6 Y s 657 107 m -13 Y
 s 677 100 m -6 Y s 143 523 m 548 X s 175 509 m 14 Y s 194 516 m 7 Y s 213 516 m 7 Y s 233 516 m 7 Y s 252 516 m 7 Y s 271 509 m 14 Y s 291 516 m 7 Y s 310 516 m 7 Y s 329 516 m 7 Y s 349 516 m 7 Y s 368 509 m 14 Y s 387 516 m 7 Y s 406 516 m 7 Y s
 426 516 m 7 Y s 445 516 m 7 Y s 464 509 m 14 Y s 484 516 m 7 Y s 503 516 m 7 Y s 522 516 m 7 Y s 542 516 m 7 Y s 561 509 m 14 Y s 580 516 m 7 Y s 599 516 m 7 Y s 619 516 m 7 Y s 638 516 m 7 Y s 657 509 m 14 Y s 175 509 m 14 Y s 156 516 m 7 Y s 657
 509 m 14 Y s 677 516 m 7 Y s 143 94 m 429 Y s 160 114 m -17 X s 152 127 m -9 X s 152 141 m -9 X s 152 154 m -9 X s 152 167 m -9 X s 160 181 m -17 X s 152 194 m -9 X s 152 207 m -9 X s 152 221 m -9 X s 152 234 m -9 X s 160 247 m -17 X s 152 260 m -9
 X s 152 274 m -9 X s 152 287 m -9 X s 152 300 m -9 X s 160 314 m -17 X s 152 327 m -9 X s 152 340 m -9 X s 152 354 m -9 X s 152 367 m -9 X s 160 380 m -17 X s 152 394 m -9 X s 152 407 m -9 X s 152 420 m -9 X s 152 434 m -9 X s 160 447 m -17 X s 152
 460 m -9 X s 152 474 m -9 X s 152 487 m -9 X s 152 500 m -9 X s 160 514 m -17 X s 160 114 m -17 X s 152 101 m -9 X s 160 514 m -17 X s 691 94 m 429 Y s 674 114 m 17 X s 683 127 m 8 X s 683 141 m 8 X s 683 154 m 8 X s 683 167 m 8 X s 674 181 m 17 X s
 683 194 m 8 X s 683 207 m 8 X s 683 221 m 8 X s 683 234 m 8 X s 674 247 m 17 X s 683 260 m 8 X s 683 274 m 8 X s 683 287 m 8 X s 683 300 m 8 X s 674 314 m 17 X s 683 327 m 8 X s 683 340 m 8 X s 683 354 m 8 X s 683 367 m 8 X s 674 380 m 17 X s 683
 394 m 8 X s 683 407 m 8 X s 683 420 m 8 X s 683 434 m 8 X s 674 447 m 17 X s 683 460 m 8 X s 683 474 m 8 X s 683 487 m 8 X s 683 500 m 8 X s 674 514 m 17 X s 674 114 m 17 X s 683 101 m 8 X s 674 514 m 17 X s
 gsave  710 567 23 12 C 719.017 91.2634 t 90 r /Helvetica-Bold findfont 19.9602 sf 0 0 m (U/O\255flow \(S,B\): \(0.0, 0.0\)% / \(0.0, 0.0\)%) show NC gr  0.490196 0.545098 0.615686 c 0.364706 0.419608 0.490196 c 332 37 30 539 bf 0.490196 0.545098
 0.615686 c 30 539 m 332 X s 362 539 m 37 Y s 362 576 m -332 X s 30 576 m -37 Y s 1 1 1 c black 1 1 1 c
 gsave  710 567 23 12 C 34.101 551.299 t 0 r /Helvetica-Bold findfont 28.5146 sf 0 0 m (Input variable: yy.H1_l4) show NC gr  0.490196 0.545098 0.615686 c 0.941176 0.941176 0.941176 c 710 567 779 12 bf black 1 1 0.992157 c 548 429 899 94 bf black 548
 429 899 94 bl 0 0 0.933333 c 6 lw 0.49 0.6 0.82 c black 3 lw 0.49 0.6 0.82 c 899 94 m 165 X 390 Y 13 X -170 Y 14 X -59 Y 14 X -69 Y 13 X 19 Y 14 X 4 Y 14 X 9 Y 13 X 34 Y 14 X -46 Y 14 X 4 Y 13 X 12 Y 14 X -2 Y 14 X 32 Y 13 X 200 Y 14 X -251 Y 14 X
 -94 Y 13 X -9 Y 14 X 4 Y 14 X -2 Y 13 X -1 Y 14 X -1 Y 14 X -3 Y 27 X -1 Y 69 X f 6 lw 0 0 0.933333 c 0.49 0.6 0.82 c 0 0 0.933333 c 899 94 m 165 X 390 Y 13 X -170 Y 14 X -59 Y 14 X -69 Y 13 X 19 Y 14 X 4 Y 14 X 9 Y 13 X 34 Y 14 X -46 Y 14 X 4 Y 13
 X 12 Y 14 X -2 Y 14 X 32 Y 13 X 200 Y 14 X -251 Y 14 X -94 Y 13 X -9 Y 14 X 4 Y 14 X -2 Y 13 X -1 Y 14 X -1 Y 14 X -3 Y 27 X -1 Y 69 X s black 3 lw 899 94 m 548 X s 924 107 m -13 Y s 948 100 m -6 Y s 973 100 m -6 Y s 998 100 m -6 Y s 1022 100 m -6 Y
 s 1047 107 m -13 Y s 1072 100 m -6 Y s 1096 100 m -6 Y s 1121 100 m -6 Y s 1145 100 m -6 Y s 1170 107 m -13 Y s 1195 100 m -6 Y s 1219 100 m -6 Y s 1244 100 m -6 Y s 1269 100 m -6 Y s 1293 107 m -13 Y s 1318 100 m -6 Y s 1343 100 m -6 Y s 1367 100 m
 -6 Y s 1392 100 m -6 Y s 1417 107 m -13 Y s 924 107 m -13 Y s 1417 107 m -13 Y s 1441 100 m -6 Y s
 gsave  710 567 779 12 C 923.569 65.3603 t 0 r /Helvetica findfont 25.6631 sf 0 0 m (1) show NC gr 
 gsave  710 567 779 12 C 909.36 65.3603 t 0 r /Symbol findfont 25.6631 sf 0 0 m (-) show NC gr 
 gsave  710 567 779 12 C 1034.4 65.3603 t 0 r /Helvetica findfont 25.6631 sf 0 0 m (0.5) show NC gr 
 gsave  710 567 779 12 C 1020.19 65.3603 t 0 r /Symbol findfont 25.6631 sf 0 0 m (-) show NC gr 
 gsave  710 567 779 12 C 1159.43 65.3603 t 0 r /Helvetica findfont 25.6631 sf 0 0 m (0) show NC gr 
 gsave  710 567 779 12 C 1275.95 65.3603 t 0 r /Helvetica findfont 25.6631 sf 0 0 m (0.5) show NC gr 
 gsave  710 567 779 12 C 1409.51 65.3603 t 0 r /Helvetica findfont 25.6631 sf 0 0 m (1) show NC gr 
 gsave  710 567 779 12 C 1338.46 25.5758 t 0 r /Helvetica findfont 28.5146 sf 0 0 m (yy.H1_l5) show NC gr  899 523 m 548 X s 924 509 m 14 Y s 948 516 m 7 Y s 973 516 m 7 Y s 998 516 m 7 Y s 1022 516 m 7 Y s 1047 509 m 14 Y s 1072 516 m 7 Y s 1096 516
 m 7 Y s 1121 516 m 7 Y s 1145 516 m 7 Y s 1170 509 m 14 Y s 1195 516 m 7 Y s 1219 516 m 7 Y s 1244 516 m 7 Y s 1269 516 m 7 Y s 1293 509 m 14 Y s 1318 516 m 7 Y s 1343 516 m 7 Y s 1367 516 m 7 Y s 1392 516 m 7 Y s 1417 509 m 14 Y s 924 509 m 14 Y s
 1417 509 m 14 Y s 1441 516 m 7 Y s 899 94 m 429 Y s 915 94 m -16 X s 907 108 m -8 X s 907 122 m -8 X s 907 136 m -8 X s 907 150 m -8 X s 915 164 m -16 X s 907 178 m -8 X s 907 192 m -8 X s 907 206 m -8 X s 907 220 m -8 X s 915 234 m -16 X s 907 248
 m -8 X s 907 262 m -8 X s 907 276 m -8 X s 907 290 m -8 X s 915 304 m -16 X s 907 318 m -8 X s 907 333 m -8 X s 907 347 m -8 X s 907 361 m -8 X s 915 375 m -16 X s 907 389 m -8 X s 907 403 m -8 X s 907 417 m -8 X s 907 431 m -8 X s 915 445 m -16 X s
 907 459 m -8 X s 907 473 m -8 X s 907 487 m -8 X s 907 501 m -8 X s 915 515 m -16 X s 915 515 m -16 X s
 gsave  710 567 779 12 C 875.259 82.4108 t 0 r /Helvetica findfont 25.6631 sf 0 0 m (0) show NC gr 
 gsave  710 567 779 12 C 855.367 153.455 t 0 r /Helvetica findfont 25.6631 sf 0 0 m (0.5) show NC gr 
 gsave  710 567 779 12 C 878.101 224.498 t 0 r /Helvetica findfont 25.6631 sf 0 0 m (1) show NC gr 
 gsave  710 567 779 12 C 855.367 295.542 t 0 r /Helvetica findfont 25.6631 sf 0 0 m (1.5) show NC gr 
 gsave  710 567 779 12 C 875.259 363.744 t 0 r /Helvetica findfont 25.6631 sf 0 0 m (2) show NC gr 
 gsave  710 567 779 12 C 855.367 434.788 t 0 r /Helvetica findfont 25.6631 sf 0 0 m (2.5) show NC gr 
 gsave  710 567 779 12 C 875.259 505.832 t 0 r /Helvetica findfont 25.6631 sf 0 0 m (3) show NC gr 
 gsave  710 567 779 12 C 801.374 431.946 t 90 r /Helvetica findfont 28.5146 sf 0 0 m (0.0555 ) show NC gr 
 gsave  710 567 779 12 C 787.165 429.104 t 90 r /Helvetica findfont 19.9602 sf 0 0 m ( ) show NC gr 
 gsave  710 567 779 12 C 801.374 417.737 t 90 r /Helvetica findfont 28.5146 sf 0 0 m (/) show NC gr 
 gsave  710 567 779 12 C 809.899 414.896 t 90 r /Helvetica findfont 19.9602 sf 0 0 m ( ) show NC gr 
 gsave  710 567 779 12 C 801.374 309.751 t 90 r /Helvetica findfont 28.5146 sf 0 0 m (\(1/N\) dN) show NC gr  1447 94 m 429 Y s 1430 94 m 17 X s 1438 108 m 9 X s 1438 122 m 9 X s 1438 136 m 9 X s 1438 150 m 9 X s 1430 164 m 17 X s 1438 178 m 9 X s
 1438 192 m 9 X s 1438 206 m 9 X s 1438 220 m 9 X s 1430 234 m 17 X s 1438 248 m 9 X s 1438 262 m 9 X s 1438 276 m 9 X s 1438 290 m 9 X s 1430 304 m 17 X s 1438 318 m 9 X s 1438 333 m 9 X s 1438 347 m 9 X s 1438 361 m 9 X s 1430 375 m 17 X s 1438 389
 m 9 X s 1438 403 m 9 X s 1438 417 m 9 X s 1438 431 m 9 X s 1430 445 m 17 X s 1438 459 m 9 X s 1438 473 m 9 X s 1438 487 m 9 X s 1438 501 m 9 X s 1430 515 m 17 X s 1430 515 m 17 X s 0.490196 0.545098 0.615686 c 0.364706 0.419608 0.490196 c 332 37 786
 539 bf 0.490196 0.545098 0.615686 c 786 539 m 332 X s 1118 539 m 37 Y s 1118 576 m -332 X s 786 576 m -37 Y s 1 1 1 c black 1 1 1 c
 gsave  710 567 779 12 C 790.007 551.299 t 0 r /Helvetica-Bold findfont 28.5146 sf 0 0 m (Input variable: yy.H1_l5) show NC gr  1 0 0 c 6 lw black 3 lw 1 0 0 c 1432 94 m s 1417 94 m s 1402 94 m s 1387 94 m s 1372 94 m s 1357 94 m s 1343 95 m -1 -1 d
 s 1327 94 m s 1313 94 m -1 X s 1297 94 m s 1282 94 m s 1282 109 m -15 -15 d s 1282 125 m -30 -31 d s 1282 140 m -45 -46 d s 1282 155 m -61 -61 d s 1282 170 m -76 -76 d s 1282 185 m -91 -91 d s 1282 200 m -106 -106 d s 1282 216 m -121 -122 d s 1282
 231 m -136 -137 d s 1276 240 m -145 -146 d s 1269 247 m -153 -153 d s 1269 263 m -41 -42 d s 1214 208 m -14 -14 d s 1193 187 m -92 -93 d s 1259 268 m -31 -32 d s 1213 222 m -13 -13 d s 1187 195 m -101 -101 d s 1255 279 m -14 -14 d s 1236 260 m -8 -8
 d s 1187 210 m -28 -27 d s 1152 176 m -81 -82 d s 1255 294 m -14 -13 d s 1173 212 m -14 -14 d s 1146 184 m -90 -90 d s 1255 310 m -14 -14 d s 1171 225 m -12 -12 d s 1146 199 m -105 -105 d s 1255 325 m -14 -14 d s 1146 214 m -82 -82 d s 1050 118 m s
 1040 108 m -14 -14 d s 1255 340 m -14 -14 d s 1146 230 m -82 -83 d s 1015 98 m -5 -4 d s 1246 346 m -5 -5 d s 1146 245 m -82 -83 d s 1002 100 m -7 -6 d s 1144 258 m -12 -12 d s 1118 232 m -41 -41 d s 1074 188 m -10 -11 d s 984 97 m -4 -3 d s 1118
 248 m -41 -42 d s 971 100 m -6 -6 d s 1118 263 m -41 -41 d s 956 99 m -2 -1 d s 951 95 m -1 -1 d s 1118 278 m -41 -41 d s 940 99 m -5 -5 d s 1110 285 m -33 -33 d s 930 103 m -3 -3 d s 920 94 m s 1105 295 m -28 -28 d s 905 94 m s 1100 305 m -23 -23 d
 s 1091 311 m -14 -14 d s 1091 326 m -14 -13 d s 1079 330 m -2 -2 d s 6 lw 899 94 m 28 X 9 Y 13 X -8 Y 14 X 4 Y 14 X 1 Y 13 X -3 Y 14 X 3 Y 14 X -2 Y 13 X 7 Y 14 X 3 Y 14 X 10 Y 14 X 70 Y 13 X 142 Y 14 X -25 Y 14 X -20 Y 13 X -53 Y 14 X 26 Y 14 X -82
 Y 13 X 49 Y 14 X -14 Y 14 X -24 Y 13 X 35 Y 14 X -14 Y 14 X 52 Y 13 X 86 Y 14 X -78 Y 14 X -28 Y 13 X -146 Y 55 X 1 Y 14 X -1 Y 96 X s black 3 lw 899 94 m 548 X s 924 107 m -13 Y s 948 100 m -6 Y s 973 100 m -6 Y s 998 100 m -6 Y s 1022 100 m -6 Y s
 1047 107 m -13 Y s 1072 100 m -6 Y s 1096 100 m -6 Y s 1121 100 m -6 Y s 1145 100 m -6 Y s 1170 107 m -13 Y s 1195 100 m -6 Y s 1219 100 m -6 Y s 1244 100 m -6 Y s 1269 100 m -6 Y s 1293 107 m -13 Y s 1318 100 m -6 Y s 1343 100 m -6 Y s 1367 100 m
 -6 Y s 1392 100 m -6 Y s 1417 107 m -13 Y s 924 107 m -13 Y s 1417 107 m -13 Y s 1441 100 m -6 Y s 899 523 m 548 X s 924 509 m 14 Y s 948 516 m 7 Y s 973 516 m 7 Y s 998 516 m 7 Y s 1022 516 m 7 Y s 1047 509 m 14 Y s 1072 516 m 7 Y s 1096 516 m 7 Y
 s 1121 516 m 7 Y s 1145 516 m 7 Y s 1170 509 m 14 Y s 1195 516 m 7 Y s 1219 516 m 7 Y s 1244 516 m 7 Y s 1269 516 m 7 Y s 1293 509 m 14 Y s 1318 516 m 7 Y s 1343 516 m 7 Y s 1367 516 m 7 Y s 1392 516 m 7 Y s 1417 509 m 14 Y s 924 509 m 14 Y s 1417
 509 m 14 Y s 1441 516 m 7 Y s 899 94 m 429 Y s 915 94 m -16 X s 907 108 m -8 X s 907 122 m -8 X s 907 136 m -8 X s 907 150 m -8 X s 915 164 m -16 X s 907 178 m -8 X s 907 192 m -8 X s 907 206 m -8 X s 907 220 m -8 X s 915 234 m -16 X s 907 248 m -8
 X s 907 262 m -8 X s 907 276 m -8 X s 907 290 m -8 X s 915 304 m -16 X s 907 318 m -8 X s 907 333 m -8 X s 907 347 m -8 X s 907 361 m -8 X s 915 375 m -16 X s 907 389 m -8 X s 907 403 m -8 X s 907 417 m -8 X s 907 431 m -8 X s 915 445 m -16 X s 907
 459 m -8 X s 907 473 m -8 X s 907 487 m -8 X s 907 501 m -8 X s 915 515 m -16 X s 915 515 m -16 X s 1447 94 m 429 Y s 1430 94 m 17 X s 1438 108 m 9 X s 1438 122 m 9 X s 1438 136 m 9 X s 1438 150 m 9 X s 1430 164 m 17 X s 1438 178 m 9 X s 1438 192 m
 9 X s 1438 206 m 9 X s 1438 220 m 9 X s 1430 234 m 17 X s 1438 248 m 9 X s 1438 262 m 9 X s 1438 276 m 9 X s 1438 290 m 9 X s 1430 304 m 17 X s 1438 318 m 9 X s 1438 333 m 9 X s 1438 347 m 9 X s 1438 361 m 9 X s 1430 375 m 17 X s 1438 389 m 9 X s
 1438 403 m 9 X s 1438 417 m 9 X s 1438 431 m 9 X s 1430 445 m 17 X s 1438 459 m 9 X s 1438 473 m 9 X s 1438 487 m 9 X s 1438 501 m 9 X s 1430 515 m 17 X s 1430 515 m 17 X s
 gsave  710 567 779 12 C 1474.92 91.2634 t 90 r /Helvetica-Bold findfont 19.9602 sf 0 0 m (U/O\255flow \(S,B\): \(0.0, 0.0\)% / \(0.0, 0.0\)%) show NC gr  0.490196 0.545098 0.615686 c 0.364706 0.419608 0.490196 c 332 37 786 539 bf 0.490196 0.545098
 0.615686 c 786 539 m 332 X s 1118 539 m 37 Y s 1118 576 m -332 X s 786 576 m -37 Y s 1 1 1 c black 1 1 1 c
 gsave  710 567 779 12 C 790.007 551.299 t 0 r /Helvetica-Bold findfont 28.5146 sf 0 0 m (Input variable: yy.H1_l5) show NC gr  0.490196 0.545098 0.615686 c 0.941176 0.941176 0.941176 c 711 567 1534 12 bf black 1 1 0.992157 c 547 429 1655 94 bf black
 547 429 1655 94 bl 0 0 0.933333 c 6 lw 0.49 0.6 0.82 c black 3 lw 0.49 0.6 0.82 c 1655 115 m 12 Y 14 X 1 Y 14 X -14 Y 13 X 10 Y 14 X -5 Y 14 X 5 Y 13 X 2 Y 28 X 10 Y 13 X -5 Y 14 X 2 Y 14 X 16 Y 13 X -16 Y 14 X -4 Y 14 X 41 Y 13 X -17 Y 14 X -7 Y 14
 X 27 Y 13 X -11 Y 14 X 37 Y 14 X 6 Y 14 X 19 Y 13 X 20 Y 14 X 10 Y 14 X -28 Y 13 X 80 Y 14 X 43 Y 14 X -35 Y 27 X 44 Y 14 X 17 Y 13 X 72 Y 14 X 12 Y 14 X -33 Y 13 X 36 Y 14 X 24 Y 14 X -100 Y 13 X 89 Y 14 X -205 Y 14 X -154 Y 13 X -1 Y f 6 lw 0 0
 0.933333 c 0.49 0.6 0.82 c 0 0 0.933333 c 1655 127 m 14 X 1 Y 14 X -14 Y 13 X 10 Y 14 X -5 Y 14 X 5 Y 13 X 2 Y 28 X 10 Y 13 X -5 Y 14 X 2 Y 14 X 16 Y 13 X -16 Y 14 X -4 Y 14 X 41 Y 13 X -17 Y 14 X -7 Y 14 X 27 Y 13 X -11 Y 14 X 37 Y 14 X 6 Y 14 X 19
 Y 13 X 20 Y 14 X 10 Y 14 X -28 Y 13 X 80 Y 14 X 43 Y 14 X -35 Y 27 X 44 Y 14 X 17 Y 13 X 72 Y 14 X 12 Y 14 X -33 Y 13 X 36 Y 14 X 24 Y 14 X -100 Y 13 X 89 Y 14 X -205 Y 14 X -154 Y 13 X s black 3 lw 1655 94 m 547 X s 1709 107 m -13 Y s 1722 100 m -6
 Y s 1736 100 m -6 Y s 1749 100 m -6 Y s 1762 107 m -13 Y s 1776 100 m -6 Y s 1789 100 m -6 Y s 1802 100 m -6 Y s 1816 107 m -13 Y s 1829 100 m -6 Y s 1843 100 m -6 Y s 1856 100 m -6 Y s 1869 107 m -13 Y s 1883 100 m -6 Y s 1896 100 m -6 Y s 1909 100
 m -6 Y s 1923 107 m -13 Y s 1936 100 m -6 Y s 1949 100 m -6 Y s 1963 100 m -6 Y s 1976 107 m -13 Y s 1990 100 m -6 Y s 2003 100 m -6 Y s 2016 100 m -6 Y s 2030 107 m -13 Y s 2043 100 m -6 Y s 2056 100 m -6 Y s 2070 100 m -6 Y s 2083 107 m -13 Y s
 2097 100 m -6 Y s 2110 100 m -6 Y s 2123 100 m -6 Y s 2137 107 m -13 Y s 2150 100 m -6 Y s 2163 100 m -6 Y s 2177 100 m -6 Y s 2190 107 m -13 Y s 1709 107 m -13 Y s 1695 100 m -6 Y s 1682 100 m -6 Y s 1669 100 m -6 Y s 2190 107 m -13 Y s
 gsave  711 567 1534 12 C 1696.52 65.3603 t 0 r /Helvetica findfont 25.6631 sf 0 0 m (0.8) show NC gr 
 gsave  711 567 1534 12 C 1682.32 65.3603 t 0 r /Symbol findfont 25.6631 sf 0 0 m (-) show NC gr 
 gsave  711 567 1534 12 C 1750.52 65.3603 t 0 r /Helvetica findfont 25.6631 sf 0 0 m (0.6) show NC gr 
 gsave  711 567 1534 12 C 1736.31 65.3603 t 0 r /Symbol findfont 25.6631 sf 0 0 m (-) show NC gr 
 gsave  711 567 1534 12 C 1801.67 65.3603 t 0 r /Helvetica findfont 25.6631 sf 0 0 m (0.4) show NC gr 
 gsave  711 567 1534 12 C 1787.46 65.3603 t 0 r /Symbol findfont 25.6631 sf 0 0 m (-) show NC gr 
 gsave  711 567 1534 12 C 1855.66 65.3603 t 0 r /Helvetica findfont 25.6631 sf 0 0 m (0.2) show NC gr 
 gsave  711 567 1534 12 C 1841.45 65.3603 t 0 r /Symbol findfont 25.6631 sf 0 0 m (-) show NC gr 
 gsave  711 567 1534 12 C 1912.5 65.3603 t 0 r /Helvetica findfont 25.6631 sf 0 0 m (0) show NC gr 
 gsave  711 567 1534 12 C 1957.97 65.3603 t 0 r /Helvetica findfont 25.6631 sf 0 0 m (0.2) show NC gr 
 gsave  711 567 1534 12 C 2011.96 65.3603 t 0 r /Helvetica findfont 25.6631 sf 0 0 m (0.4) show NC gr 
 gsave  711 567 1534 12 C 2065.95 65.3603 t 0 r /Helvetica findfont 25.6631 sf 0 0 m (0.6) show NC gr 
 gsave  711 567 1534 12 C 2117.1 65.3603 t 0 r /Helvetica findfont 25.6631 sf 0 0 m (0.8) show NC gr 
 gsave  711 567 1534 12 C 2182.46 65.3603 t 0 r /Helvetica findfont 25.6631 sf 0 0 m (1) show NC gr 
 gsave  711 567 1534 12 C 2094.37 22.734 t 0 r /Helvetica findfont 28.5146 sf 0 0 m (bb.H1_l1) show NC gr  1655 523 m 547 X s 1709 509 m 14 Y s 1722 516 m 7 Y s 1736 516 m 7 Y s 1749 516 m 7 Y s 1762 509 m 14 Y s 1776 516 m 7 Y s 1789 516 m 7 Y s
 1802 516 m 7 Y s 1816 509 m 14 Y s 1829 516 m 7 Y s 1843 516 m 7 Y s 1856 516 m 7 Y s 1869 509 m 14 Y s 1883 516 m 7 Y s 1896 516 m 7 Y s 1909 516 m 7 Y s 1923 509 m 14 Y s 1936 516 m 7 Y s 1949 516 m 7 Y s 1963 516 m 7 Y s 1976 509 m 14 Y s 1990
 516 m 7 Y s 2003 516 m 7 Y s 2016 516 m 7 Y s 2030 509 m 14 Y s 2043 516 m 7 Y s 2056 516 m 7 Y s 2070 516 m 7 Y s 2083 509 m 14 Y s 2097 516 m 7 Y s 2110 516 m 7 Y s 2123 516 m 7 Y s 2137 509 m 14 Y s 2150 516 m 7 Y s 2163 516 m 7 Y s 2177 516 m 7
 Y s 2190 509 m 14 Y s 1709 509 m 14 Y s 1695 516 m 7 Y s 1682 516 m 7 Y s 1669 516 m 7 Y s 2190 509 m 14 Y s 1655 94 m 429 Y s 1671 115 m -16 X s 1663 128 m -8 X s 1663 140 m -8 X s 1663 153 m -8 X s 1671 165 m -16 X s 1663 178 m -8 X s 1663 190 m
 -8 X s 1663 203 m -8 X s 1671 215 m -16 X s 1663 228 m -8 X s 1663 240 m -8 X s 1663 253 m -8 X s 1671 265 m -16 X s 1663 278 m -8 X s 1663 290 m -8 X s 1663 303 m -8 X s 1671 315 m -16 X s 1663 328 m -8 X s 1663 340 m -8 X s 1663 352 m -8 X s 1671
 365 m -16 X s 1663 377 m -8 X s 1663 390 m -8 X s 1663 402 m -8 X s 1671 415 m -16 X s 1663 427 m -8 X s 1663 440 m -8 X s 1663 452 m -8 X s 1671 465 m -16 X s 1663 477 m -8 X s 1663 490 m -8 X s 1663 502 m -8 X s 1671 515 m -16 X s 1671 115 m -16 X
 s 1663 103 m -8 X s 1671 515 m -16 X s
 gsave  711 567 1534 12 C 1631.16 105.145 t 0 r /Helvetica findfont 25.6631 sf 0 0 m (0) show NC gr 
 gsave  711 567 1534 12 C 1611.27 156.296 t 0 r /Helvetica findfont 25.6631 sf 0 0 m (0.2) show NC gr 
 gsave  711 567 1534 12 C 1611.27 204.606 t 0 r /Helvetica findfont 25.6631 sf 0 0 m (0.4) show NC gr 
 gsave  711 567 1534 12 C 1611.27 255.758 t 0 r /Helvetica findfont 25.6631 sf 0 0 m (0.6) show NC gr 
 gsave  711 567 1534 12 C 1611.27 304.067 t 0 r /Helvetica findfont 25.6631 sf 0 0 m (0.8) show NC gr 
 gsave  711 567 1534 12 C 1634.01 355.219 t 0 r /Helvetica findfont 25.6631 sf 0 0 m (1) show NC gr 
 gsave  711 567 1534 12 C 1611.27 403.529 t 0 r /Helvetica findfont 25.6631 sf 0 0 m (1.2) show NC gr 
 gsave  711 567 1534 12 C 1611.27 454.68 t 0 r /Helvetica findfont 25.6631 sf 0 0 m (1.4) show NC gr 
 gsave  711 567 1534 12 C 1611.27 505.832 t 0 r /Helvetica findfont 25.6631 sf 0 0 m (1.6) show NC gr 
 gsave  711 567 1534 12 C 1557.28 434.788 t 90 r /Helvetica findfont 28.5146 sf 0 0 m (0.0511 ) show NC gr 
 gsave  711 567 1534 12 C 1543.07 431.946 t 90 r /Helvetica findfont 19.9602 sf 0 0 m ( ) show NC gr 
 gsave  711 567 1534 12 C 1557.28 420.579 t 90 r /Helvetica findfont 28.5146 sf 0 0 m (/) show NC gr 
 gsave  711 567 1534 12 C 1565.8 417.737 t 90 r /Helvetica findfont 19.9602 sf 0 0 m ( ) show NC gr 
 gsave  711 567 1534 12 C 1557.28 312.592 t 90 r /Helvetica findfont 28.5146 sf 0 0 m (\(1/N\) dN) show NC gr  2202 94 m 429 Y s 2186 115 m 16 X s 2194 128 m 8 X s 2194 140 m 8 X s 2194 153 m 8 X s 2186 165 m 16 X s 2194 178 m 8 X s 2194 190 m 8 X s
 2194 203 m 8 X s 2186 215 m 16 X s 2194 228 m 8 X s 2194 240 m 8 X s 2194 253 m 8 X s 2186 265 m 16 X s 2194 278 m 8 X s 2194 290 m 8 X s 2194 303 m 8 X s 2186 315 m 16 X s 2194 328 m 8 X s 2194 340 m 8 X s 2194 352 m 8 X s 2186 365 m 16 X s 2194
 377 m 8 X s 2194 390 m 8 X s 2194 402 m 8 X s 2186 415 m 16 X s 2194 427 m 8 X s 2194 440 m 8 X s 2194 452 m 8 X s 2186 465 m 16 X s 2194 477 m 8 X s 2194 490 m 8 X s 2194 502 m 8 X s 2186 515 m 16 X s 2186 115 m 16 X s 2194 103 m 8 X s 2186 515 m
 16 X s 0.490196 0.545098 0.615686 c 0.364706 0.419608 0.490196 c 332 37 1542 539 bf 0.490196 0.545098 0.615686 c 1542 539 m 332 X s 1874 539 m 37 Y s 1874 576 m -332 X s 1542 576 m -37 Y s 1 1 1 c black 1 1 1 c
 gsave  711 567 1534 12 C 1545.91 551.299 t 0 r /Helvetica-Bold findfont 28.5146 sf 0 0 m (Input variable: bb.H1_l1) show NC gr  1 0 0 c 6 lw black 3 lw 1 0 0 c 2195 115 m s 2189 124 m -9 -9 d s 2175 126 m -10 -11 d s 2175 141 m -25 -26 d s 2175 156
 m -40 -41 d s 2175 171 m -55 -56 d s 2170 181 m -9 -8 d s 2157 168 m -52 -53 d s 2148 174 m -58 -59 d s 2148 189 m -73 -74 d s 2141 198 m -82 -83 d s 2134 206 m -90 -91 d s 2134 221 m -105 -106 d s 2134 236 m -120 -121 d s 2134 251 m -55 -55 d s
 2077 194 m -78 -79 d s 2134 267 m -27 -28 d s 2097 229 m -18 -18 d s 2066 198 m -82 -83 d s 2131 279 m -24 -25 d s 2093 240 m -14 -13 d s 2066 213 m -97 -98 d s 2120 283 m -13 -14 d s 2080 243 m -1 -1 d s 2058 221 m -104 -106 d s 2120 298 m -13 -14
 d s 2041 218 m -102 -103 d s 2110 303 m -3 -3 d s 2038 231 m -114 -116 d s 2038 246 m -13 -14 d s 2019 227 m -110 -112 d s 2037 260 m -12 -13 d s 2011 234 m -117 -119 d s 2009 247 m -39 -40 d s 1962 200 m -6 -6 d s 1947 185 m -68 -70 d s 1997 250 m
 -13 -14 d s 1973 226 m -3 -3 d s 1943 195 m -80 -80 d s 1989 257 m -5 -5 d s 1943 210 m -95 -95 d s 1943 225 m -110 -110 d s 1936 234 m -118 -119 d s 1920 233 m -117 -118 d s 1915 243 m -14 -13 d s 1894 222 m -106 -107 d s 1915 259 m -14 -14 d s
 1888 231 m -115 -116 d s 1915 274 m -14 -14 d s 1888 246 m -14 -14 d s 1863 221 m -105 -106 d s 1903 277 m -2 -2 d s 1888 261 m -14 -13 d s 1860 234 m -117 -119 d s 1886 275 m -12 -12 d s 1860 249 m -132 -134 d s 1860 264 m -147 -149 d s 1851 270 m
 -153 -155 d s 1847 281 m -164 -166 d s 1847 296 m -14 -14 d s 1823 272 m -17 -17 d s 1792 241 m -124 -126 d s 1847 311 m -14 -14 d s 1819 284 m -13 -14 d s 1792 256 m -137 -138 d s 1807 287 m -1 -2 d s 1792 271 m -14 -14 d s 1778 257 m -123 -124 d s
 1792 286 m -14 -13 d s 1765 259 m -28 -28 d s 1735 229 m -80 -80 d s 1792 302 m -14 -14 d s 1765 274 m -14 -14 d s 1744 253 m -7 -6 d s 1724 233 m -69 -69 d s 1792 317 m -14 -14 d s 1765 289 m -14 -14 d s 1724 248 m -14 -14 d s 1696 221 m -1 Y s
 1693 217 m -38 -38 d s 1765 304 m -14 -13 d s 1724 263 m -14 -14 d s 1683 222 m -28 -28 d s 1765 320 m -14 -14 d s 1724 278 m -14 -13 d s 1681 236 m -26 -27 d s 1757 327 m -6 -6 d s 1716 286 m -6 -6 d s 1668 238 m -13 -13 d s 6 lw 1655 238 m 14 X -2
 Y 14 X -19 Y 13 X 4 Y 14 X 65 Y 14 X -57 Y 13 X 24 Y 14 X 74 Y 14 X -70 Y 13 X 60 Y 14 X -77 Y 14 X 47 Y 13 X -15 Y 14 X 40 Y 14 X -42 Y 13 X -49 Y 14 X 54 Y 14 X -53 Y 13 X 55 Y 14 X -44 Y 14 X 1 Y 14 X -49 Y 13 X 15 Y 14 X 26 Y 14 X 31 Y 13 X -10
 Y 14 X -20 Y 14 X 33 Y 13 X -42 Y 14 X 3 Y 14 X -27 Y 13 X 49 Y 14 X -14 Y 14 X 74 Y 13 X -24 Y 14 X -81 Y 14 X -30 Y 13 X 13 Y 14 X -55 Y 14 X -11 Y 13 X s black 3 lw 1655 94 m 547 X s 1709 107 m -13 Y s 1722 100 m -6 Y s 1736 100 m -6 Y s 1749 100
 m -6 Y s 1762 107 m -13 Y s 1776 100 m -6 Y s 1789 100 m -6 Y s 1802 100 m -6 Y s 1816 107 m -13 Y s 1829 100 m -6 Y s 1843 100 m -6 Y s 1856 100 m -6 Y s 1869 107 m -13 Y s 1883 100 m -6 Y s 1896 100 m -6 Y s 1909 100 m -6 Y s 1923 107 m -13 Y s
 1936 100 m -6 Y s 1949 100 m -6 Y s 1963 100 m -6 Y s 1976 107 m -13 Y s 1990 100 m -6 Y s 2003 100 m -6 Y s 2016 100 m -6 Y s 2030 107 m -13 Y s 2043 100 m -6 Y s 2056 100 m -6 Y s 2070 100 m -6 Y s 2083 107 m -13 Y s 2097 100 m -6 Y s 2110 100 m
 -6 Y s 2123 100 m -6 Y s 2137 107 m -13 Y s 2150 100 m -6 Y s 2163 100 m -6 Y s 2177 100 m -6 Y s 2190 107 m -13 Y s 1709 107 m -13 Y s 1695 100 m -6 Y s 1682 100 m -6 Y s 1669 100 m -6 Y s 2190 107 m -13 Y s 1655 523 m 547 X s 1709 509 m 14 Y s
 1722 516 m 7 Y s 1736 516 m 7 Y s 1749 516 m 7 Y s 1762 509 m 14 Y s 1776 516 m 7 Y s 1789 516 m 7 Y s 1802 516 m 7 Y s 1816 509 m 14 Y s 1829 516 m 7 Y s 1843 516 m 7 Y s 1856 516 m 7 Y s 1869 509 m 14 Y s 1883 516 m 7 Y s 1896 516 m 7 Y s 1909 516
 m 7 Y s 1923 509 m 14 Y s 1936 516 m 7 Y s 1949 516 m 7 Y s 1963 516 m 7 Y s 1976 509 m 14 Y s 1990 516 m 7 Y s 2003 516 m 7 Y s 2016 516 m 7 Y s 2030 509 m 14 Y s 2043 516 m 7 Y s 2056 516 m 7 Y s 2070 516 m 7 Y s 2083 509 m 14 Y s 2097 516 m 7 Y s
 2110 516 m 7 Y s 2123 516 m 7 Y s 2137 509 m 14 Y s 2150 516 m 7 Y s 2163 516 m 7 Y s 2177 516 m 7 Y s 2190 509 m 14 Y s 1709 509 m 14 Y s 1695 516 m 7 Y s 1682 516 m 7 Y s 1669 516 m 7 Y s 2190 509 m 14 Y s 1655 94 m 429 Y s 1671 115 m -16 X s 1663
 128 m -8 X s 1663 140 m -8 X s 1663 153 m -8 X s 1671 165 m -16 X s 1663 178 m -8 X s 1663 190 m -8 X s 1663 203 m -8 X s 1671 215 m -16 X s 1663 228 m -8 X s 1663 240 m -8 X s 1663 253 m -8 X s 1671 265 m -16 X s 1663 278 m -8 X s 1663 290 m -8 X s
 1663 303 m -8 X s 1671 315 m -16 X s 1663 328 m -8 X s 1663 340 m -8 X s 1663 352 m -8 X s 1671 365 m -16 X s 1663 377 m -8 X s 1663 390 m -8 X s 1663 402 m -8 X s 1671 415 m -16 X s 1663 427 m -8 X s 1663 440 m -8 X s 1663 452 m -8 X s 1671 465 m
 -16 X s 1663 477 m -8 X s 1663 490 m -8 X s 1663 502 m -8 X s 1671 515 m -16 X s 1671 115 m -16 X s 1663 103 m -8 X s 1671 515 m -16 X s 2202 94 m 429 Y s 2186 115 m 16 X s 2194 128 m 8 X s 2194 140 m 8 X s 2194 153 m 8 X s 2186 165 m 16 X s 2194
 178 m 8 X s 2194 190 m 8 X s 2194 203 m 8 X s 2186 215 m 16 X s 2194 228 m 8 X s 2194 240 m 8 X s 2194 253 m 8 X s 2186 265 m 16 X s 2194 278 m 8 X s 2194 290 m 8 X s 2194 303 m 8 X s 2186 315 m 16 X s 2194 328 m 8 X s 2194 340 m 8 X s 2194 352 m 8
 X s 2186 365 m 16 X s 2194 377 m 8 X s 2194 390 m 8 X s 2194 402 m 8 X s 2186 415 m 16 X s 2194 427 m 8 X s 2194 440 m 8 X s 2194 452 m 8 X s 2186 465 m 16 X s 2194 477 m 8 X s 2194 490 m 8 X s 2194 502 m 8 X s 2186 515 m 16 X s 2186 115 m 16 X s
 2194 103 m 8 X s 2186 515 m 16 X s
 gsave  711 567 1534 12 C 2230.83 91.2634 t 90 r /Helvetica-Bold findfont 19.9602 sf 0 0 m (U/O\255flow \(S,B\): \(0.0, 0.0\)% / \(0.0, 0.0\)%) show NC gr  0.490196 0.545098 0.615686 c 0.364706 0.419608 0.490196 c 332 37 1542 539 bf 0.490196 0.545098
 0.615686 c 1542 539 m 332 X s 1874 539 m 37 Y s 1874 576 m -332 X s 1542 576 m -37 Y s 1 1 1 c black 1 1 1 c
 gsave  711 567 1534 12 C 1545.91 551.299 t 0 r /Helvetica-Bold findfont 28.5146 sf 0 0 m (Input variable: bb.H1_l1) show NC gr 
 gr  gr showpage
end
%%EOF
