%!PS-Adobe-2.0 EPSF-2.0
%%BoundingBox:  0 0 567 546
%%Title: dataset_class_comb/plots/CorrelationMatrixB.eps: Correlations between MVA input variables (background)
%%Creator: ROOT Version 6.18/00
%%CreationDate: Sat Sep 14 13:48:06 2019
%%DocumentNeededResources: ProcSet (FontSetInit)
%%EndComments
%%BeginProlog
80 dict begin
/s {stroke} def /l {lineto} def /m {moveto} def /t {translate} def
/r {rotate} def /rl {roll}  def /R {repeat} def
/d {rlineto} def /rm {rmoveto} def /gr {grestore} def /f {eofill} def
/c {setrgbcolor} def /black {0 setgray} def /sd {setdash} def
/cl {closepath} def /sf {scalefont setfont} def /lw {setlinewidth} def
/box {m dup 0 exch d exch 0 d 0 exch neg d cl} def
/NC{systemdict begin initclip end}def/C{NC box clip newpath}def
/bl {box s} def /bf {gsave box gsave f grestore 1 lw [] 0 sd s grestore} def /Y { 0 exch d} def /X { 0 d} def 
/K {{pop pop 0 moveto} exch kshow} bind def
/ita {/ang 15 def gsave [1 0 ang dup sin exch cos div 1 0 0] concat} def 
/mp {newpath /y exch def /x exch def} def
/side {[w .77 mul w .23 mul] .385 w mul sd w 0 l currentpoint t -144 r} def
/mr {mp x y w2 0 360 arc} def /m24 {mr s} def /m20 {mr f} def
/mb {mp x y w2 add m w2 neg 0 d 0 w neg d w 0 d 0 w d cl} def
/mt {mp x y w2 add m w2 neg w neg d w 0 d cl} def
/w4 {w 4 div} def
/w6 {w 6 div} def
/w8 {w 8 div} def
/m21 {mb f} def /m25 {mb s} def /m22 {mt f} def /m26{mt s} def
/m23 {mp x y w2 sub m w2 w d w neg 0 d cl f} def
/m27 {mp x y w2 add m w3 neg w2 neg d w3 w2 neg d w3 w2 d cl s} def
/m28 {mp x w2 sub y w2 sub w3 add m w3 0 d  0 w3 neg d w3 0 d 0 w3 d w3 0 d  0 w3 d w3 neg 0 d 0 w3 d w3 neg 0 d 0 w3 neg d w3 neg 0 d cl s } def
/m29 {mp gsave x w2 sub y w2 add w3 sub m currentpoint t 4 {side} repeat cl fill gr} def
/m30 {mp gsave x w2 sub y w2 add w3 sub m currentpoint t 4 {side} repeat cl s gr} def
/m31 {mp x y w2 sub m 0 w d x w2 sub y m w 0 d x w2 sub y w2 add m w w neg d x w2 sub y w2 sub m w w d s} def
/m32 {mp x y w2 sub m w2 w d w neg 0 d cl s} def
/m33 {mp x y w2 add m w3 neg w2 neg d w3 w2 neg d w3 w2 d cl f} def
/m34 {mp x w2 sub y w2 sub w3 add m w3 0 d  0 w3 neg d w3 0 d 0 w3 d w3 0 d  0 w3 d w3 neg 0 d 0 w3 d w3 neg 0 d 0 w3 neg d w3 neg 0 d cl f } def
/m35 {mp x y w2 add m w2 neg w2 neg d w2 w2 neg d w2 w2 d w2 neg w2 d x y w2 sub m 0 w d x w2 sub y m w 0 d s} def
/m36 {mb x w2 sub y w2 add m w w neg d x w2 sub y w2 sub m w w d s} def
/m37 {mp x y m w4 neg w2 d w4 neg w2 neg d w2 0 d  w4 neg w2 neg d w2 0 d w4 neg w2 d w2 0 d w4 neg w2 d w4 neg w2 neg d cl s} def
/m38 {mp x w4 sub y w2 add m w4 neg w4 neg d 0 w2 neg d w4 w4 neg d w2 0 d w4 w4 d 0 w2 d w4 neg w4 d w2 neg 0 d x y w2 sub m 0 w d x w2 sub y m w 0 d cl s} def
/m39 {mp x y m w4 neg w2 d w4 neg w2 neg d w2 0 d  w4 neg w2 neg d w2 0 d w4 neg w2 d w2 0 d w4 neg w2 d w4 neg w2 neg d cl f} def
/m40 {mp x y m w4 w2 d w4 w4 neg d w2 neg w4 neg d w2 w4 neg d w4 neg w4 neg d w4 neg w2 d w4 neg w2 neg d w4 neg w4 d w2 w4 d w2 neg w4 d w4 w4 d w4 w2 neg d cl s} def
/m41 {mp x y m w4 w2 d w4 w4 neg d w2 neg w4 neg d w2 w4 neg d w4 neg w4 neg d w4 neg w2 d w4 neg w2 neg d w4 neg w4 d w2 w4 d w2 neg w4 d w4 w4 d w4 w2 neg d cl f} def
/m42 {mp x y w2 add m w8 neg w2 -3 4 div mul d w2 -3 4 div mul w8 neg d w2 3 4 div mul w8 neg d w8 w2 -3 4 div mul d w8 w2 3 4 div mul d w2 3 4 div mul w8 d w2 -3 4 div mul w8 d w8 neg w2 3 4 div mul d cl s} def
/m43 {mp x y w2 add m w8 neg w2 -3 4 div mul d w2 -3 4 div mul w8 neg d w2 3 4 div mul w8 neg d w8 w2 -3 4 div mul d w8 w2 3 4 div mul d w2 3 4 div mul w8 d w2 -3 4 div mul w8 d w8 neg w2 3 4 div mul d cl f} def
/m44 {mp x y m w6 neg w2 d w2 2 3 div mul 0 d w6 neg w2 neg d w2 w6 d 0 w2 -2 3 div mul d w2 neg w6 d w6 w2 neg d w2 -2 3 div mul 0 d w6 w2 d w2 neg w6 neg d 0 w2 2 3 div mul d w2 w6 neg d cl s} def
/m45 {mp x y m w6 neg w2 d w2 2 3 div mul 0 d w6 neg w2 neg d w2 w6 d 0 w2 -2 3 div mul d w2 neg w6 d w6 w2 neg d w2 -2 3 div mul 0 d w6 w2 d w2 neg w6 neg d 0 w2 2 3 div mul d w2 w6 neg d cl f} def
/m46 {mp x y w4 add m w4 neg w4 d w4 neg w4 neg d  w4 w4 neg d w4 neg w4 neg d w4 w4 neg d w4 w4 d w4 w4 neg d w4 w4 d w4 neg w4 d w4 w4 d w4 neg w4 d w4 neg w4 neg d cl s} def
/m47 {mp x y w4 add m w4 neg w4 d w4 neg w4 neg d w4 w4 neg d w4 neg w4 neg d  w4 w4 neg d w4 w4 d w4 w4 neg d w4 w4 d w4 neg w4 d w4 w4 d w4 neg w4 d w4 neg w4 neg d cl f} def
/m48 {mp x y w4 add m w4 neg w4 d w4 neg w4 neg d w4 w4 neg d  w4 neg w4 neg d w4 w4 neg d w4 w4 d w4 w4 neg d w4 w4 d w4 neg w4 d w4 w4 d w4 neg w4 d w4 neg w4 neg d  w4 w4 neg d w4 neg w4 neg d w4 neg w4 d w4 w4 d cl f} def
/m49 {mp x w2 sub w3 add y w2 sub w3 add m  0 w3 neg d w3 0 d 0 w3 d w3 0 d 0 w3 d w3 neg 0 d 0 w3 d w3 neg 0 d 0 w3 neg d w3 neg 0 d 0 w3 neg d w3 0 d 0 w3 d w3 0 d 0 w3 neg d w3 neg 0 d cl f } def
/m2 {mp x y w2 sub m 0 w d x w2 sub y m w 0 d s} def
/m5 {mp x w2 sub y w2 sub m w w d x w2 sub y w2 add m w w neg d s} def
%%IncludeResource: ProcSet (FontSetInit)
%%IncludeResource: font Times-Roman
%%IncludeResource: font Times-Italic
%%IncludeResource: font Times-Bold
%%IncludeResource: font Times-BoldItalic
%%IncludeResource: font Helvetica
%%IncludeResource: font Helvetica-Oblique
%%IncludeResource: font Helvetica-Bold
%%IncludeResource: font Helvetica-BoldOblique
%%IncludeResource: font Courier
%%IncludeResource: font Courier-Oblique
%%IncludeResource: font Courier-Bold
%%IncludeResource: font Courier-BoldOblique
%%IncludeResource: font Symbol
%%IncludeResource: font ZapfDingbats
/reEncode {exch findfont dup length dict begin {1 index /FID eq  {pop pop} {def} ifelse } forall /Encoding exch def currentdict end dup /FontName get exch definefont pop } def [/Times-Bold /Times-Italic /Times-BoldItalic /Helvetica /Helvetica-Oblique
 /Helvetica-Bold /Helvetica-BoldOblique /Courier /Courier-Oblique /Courier-Bold /Courier-BoldOblique /Times-Roman /AvantGarde-Book /AvantGarde-BookOblique /AvantGarde-Demi /AvantGarde-DemiOblique /Bookman-Demi /Bookman-DemiItalic /Bookman-Light
 /Bookman-LightItalic /Helvetica-Narrow /Helvetica-Narrow-Bold /Helvetica-Narrow-BoldOblique /Helvetica-Narrow-Oblique /NewCenturySchlbk-Roman /NewCenturySchlbk-Bold /NewCenturySchlbk-BoldItalic /NewCenturySchlbk-Italic /Palatino-Bold
 /Palatino-BoldItalic /Palatino-Italic /Palatino-Roman ] {ISOLatin1Encoding reEncode } forall
%%EndProlog
%%BeginSetup
%%EndSetup
newpath  gsave  .25 .25 scale  gsave  0 0 t 0.490196 0.545098 0.615686 c[  ] 0 sd 3 lw 0.941176 0.941176 0.941176 c 2268 2184 0 0 bf black 1 1 0.992157 c 1633 1572 340 328 bf black 1633 1572 340 328 bl 1 1 0.992157 c 1633 1572 340 328 bf black 1633
 1572 340 328 bl 1 1 1 c 1 0 0 c 136 131 340 328 bf 0 1 0.986667 c 136 131 476 328 bf 0 1 0.333333 c 136 131 612 328 bf 136 131 748 328 bf 136 131 884 328 bf 0 1 0.0533333 c 137 131 1020 328 bf 0 1 0.52 c 136 131 1157 328 bf 0.6 1 0 c 136 131 1293
 328 bf 0 1 0.333333 c 136 131 1429 328 bf 136 131 1565 328 bf 136 131 1701 328 bf 0 1 0.0533333 c 136 131 1837 328 bf 0 1 0.986667 c 136 131 340 459 bf 1 0 0 c 136 131 476 459 bf 0 1 0.986667 c 136 131 612 459 bf 0 1 0.333333 c 136 131 748 459 bf 0
 1 0.0533333 c 136 131 884 459 bf 0 1 0.333333 c 137 131 1020 459 bf 0.88 1 0 c 136 131 1157 459 bf 0 1 0.333333 c 136 131 1293 459 bf 136 131 1429 459 bf 136 131 1565 459 bf 0 1 0.52 c 136 131 1701 459 bf 0 1 0.333333 c 136 131 1837 459 bf 136 131
 340 590 bf 0 1 0.986667 c 136 131 476 590 bf 1 0 0 c 136 131 612 590 bf 0.413333 1 0 c 136 131 748 590 bf 0 1 0.0533333 c 136 131 884 590 bf 0 1 0.333333 c 137 131 1020 590 bf 0 1 0.0533333 c 136 131 1157 590 bf 0.133333 1 0 c 136 131 1293 590 bf 1
 0.933333 0 c 136 131 1429 590 bf 0.413333 1 0 c 136 131 1565 590 bf 0.88 1 0 c 136 131 1701 590 bf 0.413333 1 0 c 136 131 1837 590 bf 0 1 0.333333 c 136 131 340 721 bf 136 131 476 721 bf 0.413333 1 0 c 136 131 612 721 bf 1 0 0 c 136 131 748 721 bf 0
 1 0.8 c 136 131 884 721 bf 0 1 0.52 c 137 131 1020 721 bf 0 1 0.0533333 c 136 131 1157 721 bf 0.133333 1 0 c 136 131 1293 721 bf 1 0.933333 0 c 136 131 1429 721 bf 0.413333 1 0 c 136 131 1565 721 bf 0.6 1 0 c 136 131 1701 721 bf 0.413333 1 0 c 136
 131 1837 721 bf 0 1 0.333333 c 136 131 340 852 bf 0 1 0.0533333 c 136 131 476 852 bf 136 131 612 852 bf 0 1 0.8 c 136 131 748 852 bf 1 0 0 c 136 131 884 852 bf 0 1 0.8 c 137 131 1020 852 bf 0.88 1 0 c 136 131 1157 852 bf 0 1 0.333333 c 136 131 1293
 852 bf 0 1 0.0533333 c 136 131 1429 852 bf 136 131 1565 852 bf 0 1 0.333333 c 136 131 1701 852 bf 0 1 0.0533333 c 136 131 1837 852 bf 136 131 340 983 bf 0 1 0.333333 c 136 131 476 983 bf 136 131 612 983 bf 0 1 0.52 c 136 131 748 983 bf 0 1 0.8 c 136
 131 884 983 bf 1 0 0 c 137 131 1020 983 bf 0 1 0.52 c 136 131 1157 983 bf 0.413333 1 0 c 136 131 1293 983 bf 0 1 0.333333 c 136 131 1429 983 bf 136 131 1565 983 bf 136 131 1701 983 bf 136 131 1837 983 bf 0 1 0.52 c 136 131 340 1114 bf 0.88 1 0 c 136
 131 476 1114 bf 0 1 0.0533333 c 136 131 612 1114 bf 136 131 748 1114 bf 0.88 1 0 c 136 131 884 1114 bf 0 1 0.52 c 137 131 1020 1114 bf 1 0 0 c 136 131 1157 1114 bf 0 1 0.0533333 c 136 131 1293 1114 bf 0.413333 1 0 c 136 131 1429 1114 bf 0.133333 1 0
 c 136 131 1565 1114 bf 0 1 0.0533333 c 136 131 1701 1114 bf 0.413333 1 0 c 136 131 1837 1114 bf 0.6 1 0 c 136 131 340 1245 bf 0 1 0.333333 c 136 131 476 1245 bf 0.133333 1 0 c 136 131 612 1245 bf 136 131 748 1245 bf 0 1 0.333333 c 136 131 884 1245
 bf 0.413333 1 0 c 137 131 1020 1245 bf 0 1 0.0533333 c 136 131 1157 1245 bf 1 0 0 c 136 131 1293 1245 bf 0.413333 1 0 c 136 131 1429 1245 bf 136 131 1565 1245 bf 0.133333 1 0 c 136 131 1701 1245 bf 136 131 1837 1245 bf 0 1 0.333333 c 136 131 340
 1376 bf 136 131 476 1376 bf 1 0.933333 0 c 136 131 612 1376 bf 136 131 748 1376 bf 0 1 0.0533333 c 136 131 884 1376 bf 0 1 0.333333 c 137 131 1020 1376 bf 0.413333 1 0 c 136 131 1157 1376 bf 136 131 1293 1376 bf 1 0 0 c 136 131 1429 1376 bf 0.6 1 0
 c 136 131 1565 1376 bf 1 0.653333 0 c 136 131 1701 1376 bf 0.6 1 0 c 136 131 1837 1376 bf 0 1 0.333333 c 136 131 340 1507 bf 136 131 476 1507 bf 0.413333 1 0 c 136 131 612 1507 bf 136 131 748 1507 bf 0 1 0.0533333 c 136 131 884 1507 bf 0 1 0.333333
 c 137 131 1020 1507 bf 0.133333 1 0 c 136 131 1157 1507 bf 0.413333 1 0 c 136 131 1293 1507 bf 0.6 1 0 c 136 131 1429 1507 bf 1 0 0 c 136 131 1565 1507 bf 0.88 1 0 c 136 131 1701 1507 bf 0.413333 1 0 c 136 131 1837 1507 bf 0 1 0.333333 c 136 131 340
 1638 bf 0 1 0.52 c 136 131 476 1638 bf 0.88 1 0 c 136 131 612 1638 bf 0.6 1 0 c 136 131 748 1638 bf 0 1 0.333333 c 136 131 884 1638 bf 137 131 1020 1638 bf 0 1 0.0533333 c 136 131 1157 1638 bf 0.133333 1 0 c 136 131 1293 1638 bf 1 0.653333 0 c 136
 131 1429 1638 bf 0.88 1 0 c 136 131 1565 1638 bf 1 0 0 c 136 131 1701 1638 bf 0.133333 1 0 c 136 131 1837 1638 bf 0 1 0.0533333 c 136 131 340 1769 bf 0 1 0.333333 c 136 131 476 1769 bf 0.413333 1 0 c 136 131 612 1769 bf 136 131 748 1769 bf 0 1
 0.0533333 c 136 131 884 1769 bf 0 1 0.333333 c 137 131 1020 1769 bf 0.413333 1 0 c 136 131 1157 1769 bf 0.133333 1 0 c 136 131 1293 1769 bf 0.6 1 0 c 136 131 1429 1769 bf 0.413333 1 0 c 136 131 1565 1769 bf 0.133333 1 0 c 136 131 1701 1769 bf 1 0 0
 c 136 131 1837 1769 bf 0.386667 0 1 c 102 78 1984 328 bf 0.2 0 1 c 102 79 1984 406 bf 0 0.0800001 1 c 102 79 1984 485 bf 0 0.266667 1 c 102 78 1984 564 bf 0 0.546666 1 c 102 79 1984 642 bf 0 0.733333 1 c 102 78 1984 721 bf 0 1 0.986667 c 102 79 1984
 799 bf 0 1 0.8 c 102 79 1984 878 bf 0 1 0.52 c 102 78 1984 957 bf 0 1 0.333333 c 102 79 1984 1035 bf 0 1 0.0533333 c 102 79 1984 1114 bf 0.133333 1 0 c 102 78 1984 1193 bf 0.413333 1 0 c 102 79 1984 1271 bf 0.6 1 0 c 102 79 1984 1350 bf 0.88 1 0 c
 102 78 1984 1429 bf 1 0.933333 0 c 102 79 1984 1507 bf 1 0.653333 0 c 102 78 1984 1586 bf 1 0.466667 0 c 102 79 1984 1664 bf 1 0.186667 0 c 102 79 1984 1743 bf 1 0 0 c 102 78 1984 1822 bf black 2086 328 m 1572 Y s 2037 328 m 49 X s 2037 485 m 49 X s
 2037 642 m 49 X s 2037 799 m 49 X s 2037 957 m 49 X s 2037 1114 m 49 X s 2037 1271 m 49 X s 2037 1429 m 49 X s 2037 1586 m 49 X s 2037 1743 m 49 X s 2037 1900 m 49 X s
 gsave  2268 2184 0 0 C 2134.99 303.373 t 0 r /Helvetica findfont 72.0512 sf 0 0 m (100) show NC gr 
 gsave  2268 2184 0 0 C 2097.07 303.373 t 0 r /Symbol findfont 72.0512 sf 0 0 m (-) show NC gr 
 gsave  2268 2184 0 0 C 2134.99 458.852 t 0 r /Helvetica findfont 72.0512 sf 0 0 m (80) show NC gr 
 gsave  2268 2184 0 0 C 2097.07 458.852 t 0 r /Symbol findfont 72.0512 sf 0 0 m (-) show NC gr 
 gsave  2268 2184 0 0 C 2134.99 618.123 t 0 r /Helvetica findfont 72.0512 sf 0 0 m (60) show NC gr 
 gsave  2268 2184 0 0 C 2097.07 618.123 t 0 r /Symbol findfont 72.0512 sf 0 0 m (-) show NC gr 
 gsave  2268 2184 0 0 C 2134.99 773.602 t 0 r /Helvetica findfont 72.0512 sf 0 0 m (40) show NC gr 
 gsave  2268 2184 0 0 C 2097.07 773.602 t 0 r /Symbol findfont 72.0512 sf 0 0 m (-) show NC gr 
 gsave  2268 2184 0 0 C 2134.99 932.873 t 0 r /Helvetica findfont 72.0512 sf 0 0 m (20) show NC gr 
 gsave  2268 2184 0 0 C 2097.07 932.873 t 0 r /Symbol findfont 72.0512 sf 0 0 m (-) show NC gr 
 gsave  2268 2184 0 0 C 2097.07 1088.35 t 0 r /Helvetica findfont 72.0512 sf 0 0 m (0) show NC gr 
 gsave  2268 2184 0 0 C 2097.07 1247.62 t 0 r /Helvetica findfont 72.0512 sf 0 0 m (20) show NC gr 
 gsave  2268 2184 0 0 C 2097.07 1403.1 t 0 r /Helvetica findfont 72.0512 sf 0 0 m (40) show NC gr 
 gsave  2268 2184 0 0 C 2097.07 1562.37 t 0 r /Helvetica findfont 72.0512 sf 0 0 m (60) show NC gr 
 gsave  2268 2184 0 0 C 2097.07 1717.85 t 0 r /Helvetica findfont 72.0512 sf 0 0 m (80) show NC gr 
 gsave  2268 2184 0 0 C 2097.07 1877.12 t 0 r /Helvetica findfont 72.0512 sf 0 0 m (100) show NC gr  1 1 1 c black 340 328 m 1633 X s
 gsave  2268 2184 0 0 C 398.178 261.66 t -19 r /Helvetica findfont 53.0903 sf 0 0 m (yy.H1_l3) show NC gr 
 gsave  2268 2184 0 0 C 534.696 261.66 t -19 r /Helvetica findfont 53.0903 sf 0 0 m (yy.HT_l2) show NC gr 
 gsave  2268 2184 0 0 C 671.214 261.66 t -19 r /Helvetica findfont 53.0903 sf 0 0 m (yy.HP_l1) show NC gr 
 gsave  2268 2184 0 0 C 807.732 261.66 t -19 r /Helvetica findfont 53.0903 sf 0 0 m (bb.H1_l1) show NC gr 
 gsave  2268 2184 0 0 C 944.25 261.66 t -19 r /Helvetica findfont 53.0903 sf 0 0 m (bb.HT_l2) show NC gr 
 gsave  2268 2184 0 0 C 1080.77 261.66 t -19 r /Helvetica findfont 53.0903 sf 0 0 m (bb.HY_l3) show NC gr 
 gsave  2268 2184 0 0 C 1213.49 261.66 t -19 r /Helvetica findfont 53.0903 sf 0 0 m (yybb.H1_l2) show NC gr 
 gsave  2268 2184 0 0 C 1350.01 261.66 t -19 r /Helvetica findfont 53.0903 sf 0 0 m (yybb.HP_l3) show NC gr 
 gsave  2268 2184 0 0 C 1486.53 261.66 t -19 r /Helvetica findfont 53.0903 sf 0 0 m (yybb.HY_l1) show NC gr 
 gsave  2268 2184 0 0 C 1623.05 261.66 t -19 r /Helvetica findfont 53.0903 sf 0 0 m (hh.H1_l3) show NC gr 
 gsave  2268 2184 0 0 C 1759.57 261.66 t -19 r /Helvetica findfont 53.0903 sf 0 0 m (hh.HT_l1) show NC gr 
 gsave  2268 2184 0 0 C 1896.08 261.66 t -19 r /Helvetica findfont 53.0903 sf 0 0 m (hh.HP_l2) show NC gr  340 375 m -47 Y s[ 4 8] 0 sd 340 1900 m -1572 Y s[  ] 0 sd 476 375 m -47 Y s[ 4 8] 0 sd 476 1900 m -1572 Y s[  ] 0 sd 612 375 m -47 Y s[ 4 8] 0
 sd 612 1900 m -1572 Y s[  ] 0 sd 748 375 m -47 Y s[ 4 8] 0 sd 748 1900 m -1572 Y s[  ] 0 sd 884 375 m -47 Y s[ 4 8] 0 sd 884 1900 m -1572 Y s[  ] 0 sd 1020 375 m -47 Y s[ 4 8] 0 sd 1020 1900 m -1572 Y s[  ] 0 sd 1157 375 m -47 Y s[ 4 8] 0 sd 1157
 1900 m -1572 Y s[  ] 0 sd 1293 375 m -47 Y s[ 4 8] 0 sd 1293 1900 m -1572 Y s[  ] 0 sd 1429 375 m -47 Y s[ 4 8] 0 sd 1429 1900 m -1572 Y s[  ] 0 sd 1565 375 m -47 Y s[ 4 8] 0 sd 1565 1900 m -1572 Y s[  ] 0 sd 1701 375 m -47 Y s[ 4 8] 0 sd 1701 1900
 m -1572 Y s[  ] 0 sd 1837 375 m -47 Y s[ 4 8] 0 sd 1837 1900 m -1572 Y s[  ] 0 sd 1973 375 m -47 Y s[ 4 8] 0 sd 1973 1900 m -1572 Y s[  ] 0 sd 340 1900 m 1633 X s 340 1853 m 47 Y s 476 1853 m 47 Y s 612 1853 m 47 Y s 748 1853 m 47 Y s 884 1853 m 47
 Y s 1020 1853 m 47 Y s 1157 1853 m 47 Y s 1293 1853 m 47 Y s 1429 1853 m 47 Y s 1565 1853 m 47 Y s 1701 1853 m 47 Y s 1837 1853 m 47 Y s 1973 1853 m 47 Y s 340 328 m 1572 Y s
 gsave  2268 2184 0 0 C 113.765 379.217 t 0 r /Helvetica findfont 53.0903 sf 0 0 m (yy.H1_l3) show NC gr 
 gsave  2268 2184 0 0 C 109.973 511.943 t 0 r /Helvetica findfont 53.0903 sf 0 0 m (yy.HT_l2) show NC gr 
 gsave  2268 2184 0 0 C 117.557 640.876 t 0 r /Helvetica findfont 53.0903 sf 0 0 m (yy.HP_l1) show NC gr 
 gsave  2268 2184 0 0 C 113.765 769.81 t 0 r /Helvetica findfont 53.0903 sf 0 0 m (bb.H1_l1) show NC gr 
 gsave  2268 2184 0 0 C 98.5964 898.744 t 0 r /Helvetica findfont 53.0903 sf 0 0 m (bb.HT_l2) show NC gr 
 gsave  2268 2184 0 0 C 98.5964 1031.47 t 0 r /Helvetica findfont 53.0903 sf 0 0 m (bb.HY_l3) show NC gr 
 gsave  2268 2184 0 0 C 53.0904 1167.99 t 0 r /Helvetica findfont 53.0903 sf 0 0 m (yybb.H1_l2) show NC gr 
 gsave  2268 2184 0 0 C 49.2982 1296.92 t 0 r /Helvetica findfont 53.0903 sf 0 0 m (yybb.HP_l3) show NC gr 
 gsave  2268 2184 0 0 C 56.8825 1429.65 t 0 r /Helvetica findfont 53.0903 sf 0 0 m (yybb.HY_l1) show NC gr 
 gsave  2268 2184 0 0 C 106.181 1554.79 t 0 r /Helvetica findfont 53.0903 sf 0 0 m (hh.H1_l3) show NC gr 
 gsave  2268 2184 0 0 C 109.973 1687.51 t 0 r /Helvetica findfont 53.0903 sf 0 0 m (hh.HT_l1) show NC gr 
 gsave  2268 2184 0 0 C 102.389 1816.45 t 0 r /Helvetica findfont 53.0903 sf 0 0 m (hh.HP_l2) show NC gr  389 328 m -49 X s[ 4 8] 0 sd 1973 328 m -1633 X s[  ] 0 sd 389 459 m -49 X s[ 4 8] 0 sd 1973 459 m -1633 X s[  ] 0 sd 389 590 m -49 X s[ 4 8] 0
 sd 1973 590 m -1633 X s[  ] 0 sd 389 721 m -49 X s[ 4 8] 0 sd 1973 721 m -1633 X s[  ] 0 sd 389 852 m -49 X s[ 4 8] 0 sd 1973 852 m -1633 X s[  ] 0 sd 389 983 m -49 X s[ 4 8] 0 sd 1973 983 m -1633 X s[  ] 0 sd 389 1114 m -49 X s[ 4 8] 0 sd 1973 1114
 m -1633 X s[  ] 0 sd 389 1245 m -49 X s[ 4 8] 0 sd 1973 1245 m -1633 X s[  ] 0 sd 389 1376 m -49 X s[ 4 8] 0 sd 1973 1376 m -1633 X s[  ] 0 sd 389 1507 m -49 X s[ 4 8] 0 sd 1973 1507 m -1633 X s[  ] 0 sd 389 1638 m -49 X s[ 4 8] 0 sd 1973 1638 m
 -1633 X s[  ] 0 sd 389 1769 m -49 X s[ 4 8] 0 sd 1973 1769 m -1633 X s[  ] 0 sd 389 1900 m -49 X s[ 4 8] 0 sd 1973 1900 m -1633 X s[  ] 0 sd 1973 328 m 1572 Y s 1924 328 m 49 X s 1924 459 m 49 X s 1924 590 m 49 X s 1924 721 m 49 X s 1924 852 m 49 X
 s 1924 983 m 49 X s 1924 1114 m 49 X s 1924 1245 m 49 X s 1924 1376 m 49 X s 1924 1507 m 49 X s 1924 1638 m 49 X s 1924 1769 m 49 X s 1924 1900 m 49 X s 0.490196 0.545098 0.615686 c 0.364706 0.419608 0.490196 c 1587 127 23 2046 bf 0.490196 0.545098
 0.615686 c 23 2046 m 1587 X s 1610 2046 m 127 Y s 1610 2173 m -1587 X s 23 2173 m -127 Y s 1 1 1 c black 1 1 1 c
 gsave  2268 2184 0 0 C 87.2199 2085.69 t 0 r /Helvetica-Bold findfont 94.8042 sf 0 0 m (Correlation Matrix \(background\)) show NC gr  black 1 1 1 c
 gsave  2268 2184 0 0 C 352.672 371.632 t 0 r /Helvetica-Bold findfont 60.6747 sf 0 0 m (100) show NC gr  black 1 1 1 c
 gsave  2268 2184 0 0 C 496.774 371.632 t 0 r /Helvetica-Bold findfont 60.6747 sf 0 0 m (\25533) show NC gr  black 1 1 1 c
 gsave  2268 2184 0 0 C 640.876 371.632 t 0 r /Helvetica-Bold findfont 60.6747 sf 0 0 m ( \2553) show NC gr  black 1 1 1 c
 gsave  2268 2184 0 0 C 784.979 367.84 t 0 r /Helvetica-Bold findfont 60.6747 sf 0 0 m ( \2551) show NC gr  black 1 1 1 c
 gsave  2268 2184 0 0 C 921.497 367.84 t 0 r /Helvetica-Bold findfont 60.6747 sf 0 0 m ( \2551) show NC gr  black 1 1 1 c
 gsave  2268 2184 0 0 C 1054.22 367.84 t 0 r /Helvetica-Bold findfont 60.6747 sf 0 0 m (  4) show NC gr  black 1 1 1 c
 gsave  2268 2184 0 0 C 1175.57 367.84 t 0 r /Helvetica-Bold findfont 60.6747 sf 0 0 m (\25517) show NC gr  black 1 1 1 c
 gsave  2268 2184 0 0 C 1319.67 371.632 t 0 r /Helvetica-Bold findfont 60.6747 sf 0 0 m ( 31) show NC gr  black 1 1 1 c
 gsave  2268 2184 0 0 C 1456.19 371.632 t 0 r /Helvetica-Bold findfont 60.6747 sf 0 0 m ( \2556) show NC gr  black 1 1 1 c
 gsave  2268 2184 0 0 C 1592.71 367.84 t 0 r /Helvetica-Bold findfont 60.6747 sf 0 0 m ( \2554) show NC gr  black 1 1 1 c
 gsave  2268 2184 0 0 C 1729.23 371.632 t 0 r /Helvetica-Bold findfont 60.6747 sf 0 0 m ( \2553) show NC gr  black 1 1 1 c
 gsave  2268 2184 0 0 C 360.256 504.358 t 0 r /Helvetica-Bold findfont 60.6747 sf 0 0 m (\25533) show NC gr  black 1 1 1 c
 gsave  2268 2184 0 0 C 489.19 504.358 t 0 r /Helvetica-Bold findfont 60.6747 sf 0 0 m (100) show NC gr  black 1 1 1 c
 gsave  2268 2184 0 0 C 633.292 504.358 t 0 r /Helvetica-Bold findfont 60.6747 sf 0 0 m (\25538) show NC gr  black 1 1 1 c
 gsave  2268 2184 0 0 C 784.979 500.566 t 0 r /Helvetica-Bold findfont 60.6747 sf 0 0 m ( \2551) show NC gr  black 1 1 1 c
 gsave  2268 2184 0 0 C 917.705 500.566 t 0 r /Helvetica-Bold findfont 60.6747 sf 0 0 m (  4) show NC gr  black 1 1 1 c
 gsave  2268 2184 0 0 C 1058.01 500.566 t 0 r /Helvetica-Bold findfont 60.6747 sf 0 0 m ( \2551) show NC gr  black 1 1 1 c
 gsave  2268 2184 0 0 C 1179.36 504.358 t 0 r /Helvetica-Bold findfont 60.6747 sf 0 0 m ( 46) show NC gr  black 1 1 1 c
 gsave  2268 2184 0 0 C 1319.67 504.358 t 0 r /Helvetica-Bold findfont 60.6747 sf 0 0 m ( \2556) show NC gr  black 1 1 1 c
 gsave  2268 2184 0 0 C 1456.19 500.566 t 0 r /Helvetica-Bold findfont 60.6747 sf 0 0 m ( \2557) show NC gr  black 1 1 1 c
 gsave  2268 2184 0 0 C 1592.71 500.566 t 0 r /Helvetica-Bold findfont 60.6747 sf 0 0 m ( \2552) show NC gr  black 1 1 1 c
 gsave  2268 2184 0 0 C 1721.64 500.566 t 0 r /Helvetica-Bold findfont 60.6747 sf 0 0 m (\25512) show NC gr  black 1 1 1 c
 gsave  2268 2184 0 0 C 1865.75 500.566 t 0 r /Helvetica-Bold findfont 60.6747 sf 0 0 m ( \2554) show NC gr  black 1 1 1 c
 gsave  2268 2184 0 0 C 367.84 633.292 t 0 r /Helvetica-Bold findfont 60.6747 sf 0 0 m ( \2553) show NC gr  black 1 1 1 c
 gsave  2268 2184 0 0 C 496.774 633.292 t 0 r /Helvetica-Bold findfont 60.6747 sf 0 0 m (\25538) show NC gr  black 1 1 1 c
 gsave  2268 2184 0 0 C 625.708 633.292 t 0 r /Helvetica-Bold findfont 60.6747 sf 0 0 m (100) show NC gr  black 1 1 1 c
 gsave  2268 2184 0 0 C 773.602 633.292 t 0 r /Helvetica-Bold findfont 60.6747 sf 0 0 m ( 29) show NC gr  black 1 1 1 c
 gsave  2268 2184 0 0 C 917.705 629.5 t 0 r /Helvetica-Bold findfont 60.6747 sf 0 0 m (  4) show NC gr  black 1 1 1 c
 gsave  2268 2184 0 0 C 1058.01 629.5 t 0 r /Helvetica-Bold findfont 60.6747 sf 0 0 m ( \2551) show NC gr  black 1 1 1 c
 gsave  2268 2184 0 0 C 1186.95 633.292 t 0 r /Helvetica-Bold findfont 60.6747 sf 0 0 m (  3) show NC gr  black 1 1 1 c
 gsave  2268 2184 0 0 C 1315.88 633.292 t 0 r /Helvetica-Bold findfont 60.6747 sf 0 0 m ( 16) show NC gr  black 1 1 1 c
 gsave  2268 2184 0 0 C 1452.4 633.292 t 0 r /Helvetica-Bold findfont 60.6747 sf 0 0 m ( 55) show NC gr  black 1 1 1 c
 gsave  2268 2184 0 0 C 1588.92 633.292 t 0 r /Helvetica-Bold findfont 60.6747 sf 0 0 m ( 25) show NC gr  black 1 1 1 c
 gsave  2268 2184 0 0 C 1725.44 633.292 t 0 r /Helvetica-Bold findfont 60.6747 sf 0 0 m ( 40) show NC gr  black 1 1 1 c
 gsave  2268 2184 0 0 C 1861.95 629.5 t 0 r /Helvetica-Bold findfont 60.6747 sf 0 0 m ( 22) show NC gr  black 1 1 1 c
 gsave  2268 2184 0 0 C 375.425 762.226 t 0 r /Helvetica-Bold findfont 60.6747 sf 0 0 m ( \2551) show NC gr  black 1 1 1 c
 gsave  2268 2184 0 0 C 511.943 762.226 t 0 r /Helvetica-Bold findfont 60.6747 sf 0 0 m ( \2551) show NC gr  black 1 1 1 c
 gsave  2268 2184 0 0 C 637.084 766.018 t 0 r /Helvetica-Bold findfont 60.6747 sf 0 0 m ( 29) show NC gr  black 1 1 1 c
 gsave  2268 2184 0 0 C 762.226 766.018 t 0 r /Helvetica-Bold findfont 60.6747 sf 0 0 m (100) show NC gr  black 1 1 1 c
 gsave  2268 2184 0 0 C 906.328 762.226 t 0 r /Helvetica-Bold findfont 60.6747 sf 0 0 m (\25524) show NC gr  black 1 1 1 c
 gsave  2268 2184 0 0 C 1042.85 762.226 t 0 r /Helvetica-Bold findfont 60.6747 sf 0 0 m (\25514) show NC gr  black 1 1 1 c
 gsave  2268 2184 0 0 C 1190.74 762.226 t 0 r /Helvetica-Bold findfont 60.6747 sf 0 0 m (  1) show NC gr  black 1 1 1 c
 gsave  2268 2184 0 0 C 1315.88 766.018 t 0 r /Helvetica-Bold findfont 60.6747 sf 0 0 m ( 10) show NC gr  black 1 1 1 c
 gsave  2268 2184 0 0 C 1452.4 766.018 t 0 r /Helvetica-Bold findfont 60.6747 sf 0 0 m ( 50) show NC gr  black 1 1 1 c
 gsave  2268 2184 0 0 C 1588.92 766.018 t 0 r /Helvetica-Bold findfont 60.6747 sf 0 0 m ( 20) show NC gr  black 1 1 1 c
 gsave  2268 2184 0 0 C 1725.44 766.018 t 0 r /Helvetica-Bold findfont 60.6747 sf 0 0 m ( 34) show NC gr  black 1 1 1 c
 gsave  2268 2184 0 0 C 1861.95 766.018 t 0 r /Helvetica-Bold findfont 60.6747 sf 0 0 m ( 20) show NC gr  black 1 1 1 c
 gsave  2268 2184 0 0 C 375.425 891.159 t 0 r /Helvetica-Bold findfont 60.6747 sf 0 0 m ( \2551) show NC gr  black 1 1 1 c
 gsave  2268 2184 0 0 C 508.151 891.159 t 0 r /Helvetica-Bold findfont 60.6747 sf 0 0 m (  4) show NC gr  black 1 1 1 c
 gsave  2268 2184 0 0 C 644.669 891.159 t 0 r /Helvetica-Bold findfont 60.6747 sf 0 0 m (  4) show NC gr  black 1 1 1 c
 gsave  2268 2184 0 0 C 769.81 891.159 t 0 r /Helvetica-Bold findfont 60.6747 sf 0 0 m (\25524) show NC gr  black 1 1 1 c
 gsave  2268 2184 0 0 C 898.744 894.952 t 0 r /Helvetica-Bold findfont 60.6747 sf 0 0 m (100) show NC gr  black 1 1 1 c
 gsave  2268 2184 0 0 C 1042.85 894.952 t 0 r /Helvetica-Bold findfont 60.6747 sf 0 0 m (\25526) show NC gr  black 1 1 1 c
 gsave  2268 2184 0 0 C 1179.36 894.952 t 0 r /Helvetica-Bold findfont 60.6747 sf 0 0 m ( 48) show NC gr  black 1 1 1 c
 gsave  2268 2184 0 0 C 1319.67 894.952 t 0 r /Helvetica-Bold findfont 60.6747 sf 0 0 m ( \2553) show NC gr  black 1 1 1 c
 gsave  2268 2184 0 0 C 1459.98 894.952 t 0 r /Helvetica-Bold findfont 60.6747 sf 0 0 m (  3) show NC gr  black 1 1 1 c
 gsave  2268 2184 0 0 C 1729.23 891.159 t 0 r /Helvetica-Bold findfont 60.6747 sf 0 0 m ( \2552) show NC gr  black 1 1 1 c
 gsave  2268 2184 0 0 C 371.632 1023.89 t 0 r /Helvetica-Bold findfont 60.6747 sf 0 0 m (  4) show NC gr  black 1 1 1 c
 gsave  2268 2184 0 0 C 511.943 1023.89 t 0 r /Helvetica-Bold findfont 60.6747 sf 0 0 m ( \2551) show NC gr  black 1 1 1 c
 gsave  2268 2184 0 0 C 648.461 1023.89 t 0 r /Helvetica-Bold findfont 60.6747 sf 0 0 m ( \2551) show NC gr  black 1 1 1 c
 gsave  2268 2184 0 0 C 769.81 1023.89 t 0 r /Helvetica-Bold findfont 60.6747 sf 0 0 m (\25514) show NC gr  black 1 1 1 c
 gsave  2268 2184 0 0 C 906.328 1027.68 t 0 r /Helvetica-Bold findfont 60.6747 sf 0 0 m (\25526) show NC gr  black 1 1 1 c
 gsave  2268 2184 0 0 C 1035.26 1027.68 t 0 r /Helvetica-Bold findfont 60.6747 sf 0 0 m (100) show NC gr  black 1 1 1 c
 gsave  2268 2184 0 0 C 1179.36 1023.89 t 0 r /Helvetica-Bold findfont 60.6747 sf 0 0 m (\25511) show NC gr  black 1 1 1 c
 gsave  2268 2184 0 0 C 1315.88 1023.89 t 0 r /Helvetica-Bold findfont 60.6747 sf 0 0 m ( 27) show NC gr  black 1 1 1 c
 gsave  2268 2184 0 0 C 1456.19 1027.68 t 0 r /Helvetica-Bold findfont 60.6747 sf 0 0 m ( \2558) show NC gr  black 1 1 1 c
 gsave  2268 2184 0 0 C 1592.71 1027.68 t 0 r /Helvetica-Bold findfont 60.6747 sf 0 0 m ( \2553) show NC gr  black 1 1 1 c
 gsave  2268 2184 0 0 C 1729.23 1027.68 t 0 r /Helvetica-Bold findfont 60.6747 sf 0 0 m ( \2558) show NC gr  black 1 1 1 c
 gsave  2268 2184 0 0 C 1865.75 1023.89 t 0 r /Helvetica-Bold findfont 60.6747 sf 0 0 m ( \2552) show NC gr  black 1 1 1 c
 gsave  2268 2184 0 0 C 360.256 1156.61 t 0 r /Helvetica-Bold findfont 60.6747 sf 0 0 m (\25517) show NC gr  black 1 1 1 c
 gsave  2268 2184 0 0 C 500.566 1160.4 t 0 r /Helvetica-Bold findfont 60.6747 sf 0 0 m ( 46) show NC gr  black 1 1 1 c
 gsave  2268 2184 0 0 C 644.669 1160.4 t 0 r /Helvetica-Bold findfont 60.6747 sf 0 0 m (  3) show NC gr  black 1 1 1 c
 gsave  2268 2184 0 0 C 784.979 1156.61 t 0 r /Helvetica-Bold findfont 60.6747 sf 0 0 m (  1) show NC gr  black 1 1 1 c
 gsave  2268 2184 0 0 C 910.12 1160.4 t 0 r /Helvetica-Bold findfont 60.6747 sf 0 0 m ( 48) show NC gr  black 1 1 1 c
 gsave  2268 2184 0 0 C 1046.64 1156.61 t 0 r /Helvetica-Bold findfont 60.6747 sf 0 0 m (\25511) show NC gr  black 1 1 1 c
 gsave  2268 2184 0 0 C 1167.99 1160.4 t 0 r /Helvetica-Bold findfont 60.6747 sf 0 0 m (100) show NC gr  black 1 1 1 c
 gsave  2268 2184 0 0 C 1323.47 1160.4 t 0 r /Helvetica-Bold findfont 60.6747 sf 0 0 m (  6) show NC gr  black 1 1 1 c
 gsave  2268 2184 0 0 C 1452.4 1160.4 t 0 r /Helvetica-Bold findfont 60.6747 sf 0 0 m ( 29) show NC gr  black 1 1 1 c
 gsave  2268 2184 0 0 C 1588.92 1160.4 t 0 r /Helvetica-Bold findfont 60.6747 sf 0 0 m ( 15) show NC gr  black 1 1 1 c
 gsave  2268 2184 0 0 C 1733.02 1160.4 t 0 r /Helvetica-Bold findfont 60.6747 sf 0 0 m (  5) show NC gr  black 1 1 1 c
 gsave  2268 2184 0 0 C 1865.75 1156.61 t 0 r /Helvetica-Bold findfont 60.6747 sf 0 0 m ( 21) show NC gr  black 1 1 1 c
 gsave  2268 2184 0 0 C 367.84 1289.34 t 0 r /Helvetica-Bold findfont 60.6747 sf 0 0 m ( 31) show NC gr  black 1 1 1 c
 gsave  2268 2184 0 0 C 504.358 1289.34 t 0 r /Helvetica-Bold findfont 60.6747 sf 0 0 m ( \2556) show NC gr  black 1 1 1 c
 gsave  2268 2184 0 0 C 637.084 1289.34 t 0 r /Helvetica-Bold findfont 60.6747 sf 0 0 m ( 16) show NC gr  black 1 1 1 c
 gsave  2268 2184 0 0 C 773.602 1289.34 t 0 r /Helvetica-Bold findfont 60.6747 sf 0 0 m ( 10) show NC gr  black 1 1 1 c
 gsave  2268 2184 0 0 C 913.913 1289.34 t 0 r /Helvetica-Bold findfont 60.6747 sf 0 0 m ( \2553) show NC gr  black 1 1 1 c
 gsave  2268 2184 0 0 C 1046.64 1285.54 t 0 r /Helvetica-Bold findfont 60.6747 sf 0 0 m ( 27) show NC gr  black 1 1 1 c
 gsave  2268 2184 0 0 C 1186.95 1289.34 t 0 r /Helvetica-Bold findfont 60.6747 sf 0 0 m (  6) show NC gr  black 1 1 1 c
 gsave  2268 2184 0 0 C 1304.51 1289.34 t 0 r /Helvetica-Bold findfont 60.6747 sf 0 0 m (100) show NC gr  black 1 1 1 c
 gsave  2268 2184 0 0 C 1452.4 1289.34 t 0 r /Helvetica-Bold findfont 60.6747 sf 0 0 m ( 28) show NC gr  black 1 1 1 c
 gsave  2268 2184 0 0 C 1588.92 1285.54 t 0 r /Helvetica-Bold findfont 60.6747 sf 0 0 m ( 27) show NC gr  black 1 1 1 c
 gsave  2268 2184 0 0 C 1725.44 1289.34 t 0 r /Helvetica-Bold findfont 60.6747 sf 0 0 m ( 19) show NC gr  black 1 1 1 c
 gsave  2268 2184 0 0 C 1861.95 1289.34 t 0 r /Helvetica-Bold findfont 60.6747 sf 0 0 m ( 19) show NC gr  black 1 1 1 c
 gsave  2268 2184 0 0 C 367.84 1422.06 t 0 r /Helvetica-Bold findfont 60.6747 sf 0 0 m ( \2556) show NC gr  black 1 1 1 c
 gsave  2268 2184 0 0 C 504.358 1418.27 t 0 r /Helvetica-Bold findfont 60.6747 sf 0 0 m ( \2557) show NC gr  black 1 1 1 c
 gsave  2268 2184 0 0 C 637.084 1422.06 t 0 r /Helvetica-Bold findfont 60.6747 sf 0 0 m ( 55) show NC gr  black 1 1 1 c
 gsave  2268 2184 0 0 C 773.602 1422.06 t 0 r /Helvetica-Bold findfont 60.6747 sf 0 0 m ( 50) show NC gr  black 1 1 1 c
 gsave  2268 2184 0 0 C 917.705 1422.06 t 0 r /Helvetica-Bold findfont 60.6747 sf 0 0 m (  3) show NC gr  black 1 1 1 c
 gsave  2268 2184 0 0 C 1050.43 1422.06 t 0 r /Helvetica-Bold findfont 60.6747 sf 0 0 m ( \2558) show NC gr  black 1 1 1 c
 gsave  2268 2184 0 0 C 1179.36 1422.06 t 0 r /Helvetica-Bold findfont 60.6747 sf 0 0 m ( 29) show NC gr  black 1 1 1 c
 gsave  2268 2184 0 0 C 1315.88 1422.06 t 0 r /Helvetica-Bold findfont 60.6747 sf 0 0 m ( 28) show NC gr  black 1 1 1 c
 gsave  2268 2184 0 0 C 1441.02 1422.06 t 0 r /Helvetica-Bold findfont 60.6747 sf 0 0 m (100) show NC gr  black 1 1 1 c
 gsave  2268 2184 0 0 C 1588.92 1422.06 t 0 r /Helvetica-Bold findfont 60.6747 sf 0 0 m ( 39) show NC gr  black 1 1 1 c
 gsave  2268 2184 0 0 C 1725.44 1422.06 t 0 r /Helvetica-Bold findfont 60.6747 sf 0 0 m ( 65) show NC gr  black 1 1 1 c
 gsave  2268 2184 0 0 C 1861.95 1422.06 t 0 r /Helvetica-Bold findfont 60.6747 sf 0 0 m ( 33) show NC gr  black 1 1 1 c
 gsave  2268 2184 0 0 C 367.84 1547.2 t 0 r /Helvetica-Bold findfont 60.6747 sf 0 0 m ( \2554) show NC gr  black 1 1 1 c
 gsave  2268 2184 0 0 C 504.358 1547.2 t 0 r /Helvetica-Bold findfont 60.6747 sf 0 0 m ( \2552) show NC gr  black 1 1 1 c
 gsave  2268 2184 0 0 C 637.084 1551 t 0 r /Helvetica-Bold findfont 60.6747 sf 0 0 m ( 25) show NC gr  black 1 1 1 c
 gsave  2268 2184 0 0 C 773.602 1551 t 0 r /Helvetica-Bold findfont 60.6747 sf 0 0 m ( 20) show NC gr  black 1 1 1 c
 gsave  2268 2184 0 0 C 1050.43 1551 t 0 r /Helvetica-Bold findfont 60.6747 sf 0 0 m ( \2553) show NC gr  black 1 1 1 c
 gsave  2268 2184 0 0 C 1179.36 1551 t 0 r /Helvetica-Bold findfont 60.6747 sf 0 0 m ( 15) show NC gr  black 1 1 1 c
 gsave  2268 2184 0 0 C 1315.88 1547.2 t 0 r /Helvetica-Bold findfont 60.6747 sf 0 0 m ( 27) show NC gr  black 1 1 1 c
 gsave  2268 2184 0 0 C 1452.4 1551 t 0 r /Helvetica-Bold findfont 60.6747 sf 0 0 m ( 39) show NC gr  black 1 1 1 c
 gsave  2268 2184 0 0 C 1577.54 1551 t 0 r /Helvetica-Bold findfont 60.6747 sf 0 0 m (100) show NC gr  black 1 1 1 c
 gsave  2268 2184 0 0 C 1729.23 1547.2 t 0 r /Helvetica-Bold findfont 60.6747 sf 0 0 m ( 41) show NC gr  black 1 1 1 c
 gsave  2268 2184 0 0 C 1861.95 1551 t 0 r /Helvetica-Bold findfont 60.6747 sf 0 0 m ( 23) show NC gr  black 1 1 1 c
 gsave  2268 2184 0 0 C 367.84 1683.72 t 0 r /Helvetica-Bold findfont 60.6747 sf 0 0 m ( \2553) show NC gr  black 1 1 1 c
 gsave  2268 2184 0 0 C 496.774 1679.93 t 0 r /Helvetica-Bold findfont 60.6747 sf 0 0 m (\25512) show NC gr  black 1 1 1 c
 gsave  2268 2184 0 0 C 637.084 1683.72 t 0 r /Helvetica-Bold findfont 60.6747 sf 0 0 m ( 40) show NC gr  black 1 1 1 c
 gsave  2268 2184 0 0 C 773.602 1683.72 t 0 r /Helvetica-Bold findfont 60.6747 sf 0 0 m ( 34) show NC gr  black 1 1 1 c
 gsave  2268 2184 0 0 C 913.913 1679.93 t 0 r /Helvetica-Bold findfont 60.6747 sf 0 0 m ( \2552) show NC gr  black 1 1 1 c
 gsave  2268 2184 0 0 C 1050.43 1683.72 t 0 r /Helvetica-Bold findfont 60.6747 sf 0 0 m ( \2558) show NC gr  black 1 1 1 c
 gsave  2268 2184 0 0 C 1186.95 1683.72 t 0 r /Helvetica-Bold findfont 60.6747 sf 0 0 m (  5) show NC gr  black 1 1 1 c
 gsave  2268 2184 0 0 C 1315.88 1683.72 t 0 r /Helvetica-Bold findfont 60.6747 sf 0 0 m ( 19) show NC gr  black 1 1 1 c
 gsave  2268 2184 0 0 C 1452.4 1683.72 t 0 r /Helvetica-Bold findfont 60.6747 sf 0 0 m ( 65) show NC gr  black 1 1 1 c
 gsave  2268 2184 0 0 C 1592.71 1679.93 t 0 r /Helvetica-Bold findfont 60.6747 sf 0 0 m ( 41) show NC gr  black 1 1 1 c
 gsave  2268 2184 0 0 C 1714.06 1683.72 t 0 r /Helvetica-Bold findfont 60.6747 sf 0 0 m (100) show NC gr  black 1 1 1 c
 gsave  2268 2184 0 0 C 1861.95 1683.72 t 0 r /Helvetica-Bold findfont 60.6747 sf 0 0 m ( 16) show NC gr  black 1 1 1 c
 gsave  2268 2184 0 0 C 504.358 1808.86 t 0 r /Helvetica-Bold findfont 60.6747 sf 0 0 m ( \2554) show NC gr  black 1 1 1 c
 gsave  2268 2184 0 0 C 637.084 1808.86 t 0 r /Helvetica-Bold findfont 60.6747 sf 0 0 m ( 22) show NC gr  black 1 1 1 c
 gsave  2268 2184 0 0 C 773.602 1812.66 t 0 r /Helvetica-Bold findfont 60.6747 sf 0 0 m ( 20) show NC gr  black 1 1 1 c
 gsave  2268 2184 0 0 C 1050.43 1808.86 t 0 r /Helvetica-Bold findfont 60.6747 sf 0 0 m ( \2552) show NC gr  black 1 1 1 c
 gsave  2268 2184 0 0 C 1183.16 1808.86 t 0 r /Helvetica-Bold findfont 60.6747 sf 0 0 m ( 21) show NC gr  black 1 1 1 c
 gsave  2268 2184 0 0 C 1315.88 1812.66 t 0 r /Helvetica-Bold findfont 60.6747 sf 0 0 m ( 19) show NC gr  black 1 1 1 c
 gsave  2268 2184 0 0 C 1452.4 1812.66 t 0 r /Helvetica-Bold findfont 60.6747 sf 0 0 m ( 33) show NC gr  black 1 1 1 c
 gsave  2268 2184 0 0 C 1588.92 1812.66 t 0 r /Helvetica-Bold findfont 60.6747 sf 0 0 m ( 23) show NC gr  black 1 1 1 c
 gsave  2268 2184 0 0 C 1725.44 1812.66 t 0 r /Helvetica-Bold findfont 60.6747 sf 0 0 m ( 16) show NC gr  black 1 1 1 c
 gsave  2268 2184 0 0 C 1850.58 1812.66 t 0 r /Helvetica-Bold findfont 60.6747 sf 0 0 m (100) show NC gr  black
 gsave  2268 2184 0 0 C 1201.89 1922.17 t 0 r /Helvetica-Bold findfont 53.0903 sf 0 0 m (Linear correlation coefficients in %) show NC gr 
 gr  gr showpage
end
%%EOF
