%!PS-Adobe-2.0 EPSF-2.0
%%BoundingBox:  0 0 567 421
%%Title: dataset_class_comb/plots/mvaeffs_RuleFit.eps: Cut efficiencies for RuleFit classifier
%%Creator: ROOT Version 6.18/00
%%CreationDate: Sat Sep 14 13:56:13 2019
%%DocumentNeededResources: ProcSet (FontSetInit)
%%EndComments
%%BeginProlog
80 dict begin
/s {stroke} def /l {lineto} def /m {moveto} def /t {translate} def
/r {rotate} def /rl {roll}  def /R {repeat} def
/d {rlineto} def /rm {rmoveto} def /gr {grestore} def /f {eofill} def
/c {setrgbcolor} def /black {0 setgray} def /sd {setdash} def
/cl {closepath} def /sf {scalefont setfont} def /lw {setlinewidth} def
/box {m dup 0 exch d exch 0 d 0 exch neg d cl} def
/NC{systemdict begin initclip end}def/C{NC box clip newpath}def
/bl {box s} def /bf {gsave box gsave f grestore 1 lw [] 0 sd s grestore} def /Y { 0 exch d} def /X { 0 d} def 
/K {{pop pop 0 moveto} exch kshow} bind def
/ita {/ang 15 def gsave [1 0 ang dup sin exch cos div 1 0 0] concat} def 
/mp {newpath /y exch def /x exch def} def
/side {[w .77 mul w .23 mul] .385 w mul sd w 0 l currentpoint t -144 r} def
/mr {mp x y w2 0 360 arc} def /m24 {mr s} def /m20 {mr f} def
/mb {mp x y w2 add m w2 neg 0 d 0 w neg d w 0 d 0 w d cl} def
/mt {mp x y w2 add m w2 neg w neg d w 0 d cl} def
/w4 {w 4 div} def
/w6 {w 6 div} def
/w8 {w 8 div} def
/m21 {mb f} def /m25 {mb s} def /m22 {mt f} def /m26{mt s} def
/m23 {mp x y w2 sub m w2 w d w neg 0 d cl f} def
/m27 {mp x y w2 add m w3 neg w2 neg d w3 w2 neg d w3 w2 d cl s} def
/m28 {mp x w2 sub y w2 sub w3 add m w3 0 d  0 w3 neg d w3 0 d 0 w3 d w3 0 d  0 w3 d w3 neg 0 d 0 w3 d w3 neg 0 d 0 w3 neg d w3 neg 0 d cl s } def
/m29 {mp gsave x w2 sub y w2 add w3 sub m currentpoint t 4 {side} repeat cl fill gr} def
/m30 {mp gsave x w2 sub y w2 add w3 sub m currentpoint t 4 {side} repeat cl s gr} def
/m31 {mp x y w2 sub m 0 w d x w2 sub y m w 0 d x w2 sub y w2 add m w w neg d x w2 sub y w2 sub m w w d s} def
/m32 {mp x y w2 sub m w2 w d w neg 0 d cl s} def
/m33 {mp x y w2 add m w3 neg w2 neg d w3 w2 neg d w3 w2 d cl f} def
/m34 {mp x w2 sub y w2 sub w3 add m w3 0 d  0 w3 neg d w3 0 d 0 w3 d w3 0 d  0 w3 d w3 neg 0 d 0 w3 d w3 neg 0 d 0 w3 neg d w3 neg 0 d cl f } def
/m35 {mp x y w2 add m w2 neg w2 neg d w2 w2 neg d w2 w2 d w2 neg w2 d x y w2 sub m 0 w d x w2 sub y m w 0 d s} def
/m36 {mb x w2 sub y w2 add m w w neg d x w2 sub y w2 sub m w w d s} def
/m37 {mp x y m w4 neg w2 d w4 neg w2 neg d w2 0 d  w4 neg w2 neg d w2 0 d w4 neg w2 d w2 0 d w4 neg w2 d w4 neg w2 neg d cl s} def
/m38 {mp x w4 sub y w2 add m w4 neg w4 neg d 0 w2 neg d w4 w4 neg d w2 0 d w4 w4 d 0 w2 d w4 neg w4 d w2 neg 0 d x y w2 sub m 0 w d x w2 sub y m w 0 d cl s} def
/m39 {mp x y m w4 neg w2 d w4 neg w2 neg d w2 0 d  w4 neg w2 neg d w2 0 d w4 neg w2 d w2 0 d w4 neg w2 d w4 neg w2 neg d cl f} def
/m40 {mp x y m w4 w2 d w4 w4 neg d w2 neg w4 neg d w2 w4 neg d w4 neg w4 neg d w4 neg w2 d w4 neg w2 neg d w4 neg w4 d w2 w4 d w2 neg w4 d w4 w4 d w4 w2 neg d cl s} def
/m41 {mp x y m w4 w2 d w4 w4 neg d w2 neg w4 neg d w2 w4 neg d w4 neg w4 neg d w4 neg w2 d w4 neg w2 neg d w4 neg w4 d w2 w4 d w2 neg w4 d w4 w4 d w4 w2 neg d cl f} def
/m42 {mp x y w2 add m w8 neg w2 -3 4 div mul d w2 -3 4 div mul w8 neg d w2 3 4 div mul w8 neg d w8 w2 -3 4 div mul d w8 w2 3 4 div mul d w2 3 4 div mul w8 d w2 -3 4 div mul w8 d w8 neg w2 3 4 div mul d cl s} def
/m43 {mp x y w2 add m w8 neg w2 -3 4 div mul d w2 -3 4 div mul w8 neg d w2 3 4 div mul w8 neg d w8 w2 -3 4 div mul d w8 w2 3 4 div mul d w2 3 4 div mul w8 d w2 -3 4 div mul w8 d w8 neg w2 3 4 div mul d cl f} def
/m44 {mp x y m w6 neg w2 d w2 2 3 div mul 0 d w6 neg w2 neg d w2 w6 d 0 w2 -2 3 div mul d w2 neg w6 d w6 w2 neg d w2 -2 3 div mul 0 d w6 w2 d w2 neg w6 neg d 0 w2 2 3 div mul d w2 w6 neg d cl s} def
/m45 {mp x y m w6 neg w2 d w2 2 3 div mul 0 d w6 neg w2 neg d w2 w6 d 0 w2 -2 3 div mul d w2 neg w6 d w6 w2 neg d w2 -2 3 div mul 0 d w6 w2 d w2 neg w6 neg d 0 w2 2 3 div mul d w2 w6 neg d cl f} def
/m46 {mp x y w4 add m w4 neg w4 d w4 neg w4 neg d  w4 w4 neg d w4 neg w4 neg d w4 w4 neg d w4 w4 d w4 w4 neg d w4 w4 d w4 neg w4 d w4 w4 d w4 neg w4 d w4 neg w4 neg d cl s} def
/m47 {mp x y w4 add m w4 neg w4 d w4 neg w4 neg d w4 w4 neg d w4 neg w4 neg d  w4 w4 neg d w4 w4 d w4 w4 neg d w4 w4 d w4 neg w4 d w4 w4 d w4 neg w4 d w4 neg w4 neg d cl f} def
/m48 {mp x y w4 add m w4 neg w4 d w4 neg w4 neg d w4 w4 neg d  w4 neg w4 neg d w4 w4 neg d w4 w4 d w4 w4 neg d w4 w4 d w4 neg w4 d w4 w4 d w4 neg w4 d w4 neg w4 neg d  w4 w4 neg d w4 neg w4 neg d w4 neg w4 d w4 w4 d cl f} def
/m49 {mp x w2 sub w3 add y w2 sub w3 add m  0 w3 neg d w3 0 d 0 w3 d w3 0 d 0 w3 d w3 neg 0 d 0 w3 d w3 neg 0 d 0 w3 neg d w3 neg 0 d 0 w3 neg d w3 0 d 0 w3 d w3 0 d 0 w3 neg d w3 neg 0 d cl f } def
/m2 {mp x y w2 sub m 0 w d x w2 sub y m w 0 d s} def
/m5 {mp x w2 sub y w2 sub m w w d x w2 sub y w2 add m w w neg d s} def
%%IncludeResource: ProcSet (FontSetInit)
%%IncludeResource: font Times-Roman
%%IncludeResource: font Times-Italic
%%IncludeResource: font Times-Bold
%%IncludeResource: font Times-BoldItalic
%%IncludeResource: font Helvetica
%%IncludeResource: font Helvetica-Oblique
%%IncludeResource: font Helvetica-Bold
%%IncludeResource: font Helvetica-BoldOblique
%%IncludeResource: font Courier
%%IncludeResource: font Courier-Oblique
%%IncludeResource: font Courier-Bold
%%IncludeResource: font Courier-BoldOblique
%%IncludeResource: font Symbol
%%IncludeResource: font ZapfDingbats
/reEncode {exch findfont dup length dict begin {1 index /FID eq  {pop pop} {def} ifelse } forall /Encoding exch def currentdict end dup /FontName get exch definefont pop } def [/Times-Bold /Times-Italic /Times-BoldItalic /Helvetica /Helvetica-Oblique
 /Helvetica-Bold /Helvetica-BoldOblique /Courier /Courier-Oblique /Courier-Bold /Courier-BoldOblique /Times-Roman /AvantGarde-Book /AvantGarde-BookOblique /AvantGarde-Demi /AvantGarde-DemiOblique /Bookman-Demi /Bookman-DemiItalic /Bookman-Light
 /Bookman-LightItalic /Helvetica-Narrow /Helvetica-Narrow-Bold /Helvetica-Narrow-BoldOblique /Helvetica-Narrow-Oblique /NewCenturySchlbk-Roman /NewCenturySchlbk-Bold /NewCenturySchlbk-BoldItalic /NewCenturySchlbk-Italic /Palatino-Bold
 /Palatino-BoldItalic /Palatino-Italic /Palatino-Roman ] {ISOLatin1Encoding reEncode } forall
%%EndProlog
%%BeginSetup
%%EndSetup
newpath  gsave  .25 .25 scale  gsave  0 0 t 0.490196 0.545098 0.615686 c[  ] 0 sd 3 lw 0.941176 0.941176 0.941176 c 2268 1684 0 0 bf black 1 1 0.992157 c 1796 1145 245 202 bf black 1796 1145 245 202 bl 1 1 0.992157 c 1796 1145 245 202 bf black 1796
 1145 245 202 bl 245 202 m 1796 X s[ 4 8] 0 sd 412 1347 m -1145 Y s 631 1347 m -1145 Y s 849 1347 m -1145 Y s 1068 1347 m -1145 Y s 1287 1347 m -1145 Y s 1505 1347 m -1145 Y s 1724 1347 m -1145 Y s 1943 1347 m -1145 Y s 412 1347 m -1145 Y s 1943 1347
 m -1145 Y s[  ] 0 sd 245 202 m 1145 Y s[ 4 8] 0 sd 2041 202 m -1796 X s 2041 410 m -1796 X s 2041 618 m -1796 X s 2041 827 m -1796 X s 2041 1035 m -1796 X s 2041 1243 m -1796 X s 2041 1243 m -1796 X s 0 0 0.933333 c[  22 12 ] 0 sd 6 lw 0.49 0.6 0.82
 c black 0 0 0.933333 c 245 722 m 9 X s 254 722 m 9 X s 263 722 m 8 X s 271 722 m 9 X s 280 722 m 9 X s 289 722 m 9 X s 298 722 m 9 X s 307 722 m 8 X s 315 722 m 9 X s 324 722 m 9 X s 333 722 m 9 X s 342 722 m 9 X s 351 722 m 8 X s 359 722 m 9 X s
 368 722 m 9 X s 377 722 m 9 X s 386 722 m 9 X s 395 722 m 8 X s 403 722 m 9 X s 412 722 m 9 X s 421 722 m 9 X s 430 722 m 9 X s 439 722 m 8 X s 447 722 m 8 X 1 Y 1 X s 456 723 m 9 X s 465 723 m 9 X s 474 723 m 9 X s 483 723 m 8 X s 491 723 m 9 X s
 500 723 m 9 X s 509 723 m 1 X 1 1 d 7 X s 518 724 m 9 X s 527 724 m 8 X s 535 724 m 9 X s 544 724 m 1 X 1 Y 8 X s 553 725 m 9 X s 562 725 m 8 X 1 1 d s 571 726 m 8 X s 579 726 m 9 X 1 Y s 588 727 m 9 X s 597 727 m 6 X 1 Y 3 X s 606 728 m 9 X s 615
 728 m 4 X 1 Y 4 X s 623 729 m 7 X 1 Y 2 X s 632 730 m 7 X 1 Y 2 X s 641 731 m 9 X s 650 731 m 2 X 1 Y 7 X s 659 732 m 6 X 1 Y 2 X s 667 733 m 9 X 1 Y s 676 734 m 7 X 1 Y 2 X s 685 735 m 3 X 1 Y 6 X s 694 736 m 1 X 1 Y 7 X 1 Y 1 X s 703 738 m 4 X 1 Y
 4 X s 711 739 m 2 X 1 Y 5 X 1 Y 2 X s 720 741 m 3 X 1 Y 4 X 1 Y 2 X s 729 743 m 3 X 1 1 d 5 X s 738 744 m 1 Y 5 X 1 Y 3 X 1 Y 1 X s 747 747 m 7 X 1 Y 1 X s 755 748 m 2 X -1 Y 1 X 1 Y 3 X 1 1 d 2 X s 764 749 m 2 X 1 Y 6 X 1 Y 1 X s 773 751 m 3 X 1 Y
 4 X 1 Y 2 X s 782 753 m 2 X 1 Y 4 X 1 Y 3 X s 791 755 m 1 X 1 Y 3 X 1 Y 3 X 1 Y 1 X s 799 758 m 3 X 1 Y 2 X 1 1 d 3 X s 808 760 m 1 Y 3 X 1 1 d 1 X 1 Y 3 X 1 Y 1 X s 817 764 m 3 X 1 Y 4 X 1 Y 2 X s 826 766 m 2 X 1 Y 2 X 1 1 d 1 X 1 Y 3 X s 835 769 m
 1 Y 3 X 1 Y 1 X 1 1 d 2 X 1 Y 1 X -1 Y s 843 772 m 2 X 1 Y 3 X 1 Y 3 X 1 Y 1 X s 852 775 m 1 X 1 Y 2 X 1 1 d 2 X 1 Y 1 X 1 Y 2 X 1 Y s 861 780 m 1 X 1 -1 d 1 Y -1 Y 1 X 1 Y 1 X 1 Y 2 X 1 Y 3 X 1 Y s 870 783 m 3 X 1 Y 1 X 1 Y 2 X 1 Y 2 X 1 Y 1 X s
 879 787 m 1 X 1 Y 1 X 1 Y 2 X 1 Y 2 X 1 Y 2 X 1 Y s 887 792 m 2 X 1 Y 1 X 1 Y 2 X 1 Y 2 X 1 Y 1 1 d 1 1 d s 896 798 m 2 X 1 Y 1 1 d 1 X -1 Y 1 Y 2 X 1 1 d 1 X 1 Y 1 X s 905 802 m 1 X 1 Y 1 X 1 Y 2 X 1 Y 1 X 1 Y 2 X 1 Y 1 X 1 Y 1 X 1 Y s 914 809 m 1
 X 1 Y 1 X 1 1 d 1 X 1 Y 1 X 1 Y 1 X 1 Y 1 1 d 1 X 1 Y 1 X s 923 816 m 1 1 d 1 X 1 Y 1 X 1 Y 1 X 1 Y 2 X 1 Y 1 X 1 Y 1 X 1 Y s 931 823 m 1 X 1 Y 1 X 1 1 d 1 Y 1 X 1 Y 2 X 1 Y 1 X 1 1 d 1 X s 940 829 m 1 1 d 1 X 1 Y 1 X 1 Y -1 Y 1 X 1 Y 1 X 1 Y 1 1 d
 -1 Y 1 Y 1 X 1 Y 1 X 1 Y 1 X s 949 836 m 1 X 1 Y 2 X 1 Y 1 X 1 Y -1 Y 1 Y 2 X 1 Y 1 X 1 Y -1 Y 1 1 d 1 1 d s 958 842 m 1 X 2 Y 1 X 1 Y 1 X 1 Y 1 X 1 Y 1 X 1 Y 2 X 1 Y 1 X 1 Y 1 X s 967 850 m 1 Y 1 X 2 Y 1 X -2 Y 1 Y 1 X 1 1 d 1 1 d 1 X 1 Y 1 X 1 Y 1
 X s 975 856 m 1 1 d 1 X 1 Y 2 X 1 Y 1 X 1 Y 1 X 1 Y 2 X 1 Y 1 X s 984 862 m 1 1 d 1 X 2 Y 1 X 1 Y 1 X 1 Y 2 X 1 Y 1 X 1 Y 1 X 1 Y 1 X 1 Y s 993 871 m 1 Y 1 X 1 Y 1 X 1 Y 1 X 1 Y -1 Y 1 1 d 1 Y 1 X -1 Y 1 Y 1 X 1 Y 1 X 1 Y 1 X 1 Y 1 X s 1002 879 m 1
 Y 1 X 1 Y 1 X 2 Y 1 X 1 Y 1 -1 d 1 Y 1 X 1 Y -1 Y 1 Y 1 X 1 Y 1 X 1 Y 1 X 1 Y 1 X s 1011 888 m 1 Y 1 X 1 Y 1 X 1 Y 1 -2 d 1 Y 1 X 1 Y 1 X 1 Y 1 1 d 1 Y 2 X 1 Y s 1019 895 m 1 X 1 Y 1 1 d 1 1 d 1 X 1 Y 1 1 d 1 Y 1 X 1 Y 2 X 1 Y -1 Y 1 X 1 Y s 1028
 903 m 1 X 1 Y 1 X 1 Y 2 X 2 Y 1 X -1 Y 1 X 1 Y 1 X 1 Y -2 Y 1 X 1 Y 1 X 1 Y s 1037 908 m 1 X 1 Y 1 X 1 Y 1 X 1 1 d 1 Y 1 X 1 Y 1 X 1 1 d 1 X 1 Y 1 X s 1046 915 m 1 Y 1 1 d 1 X 1 1 d 1 X 1 Y -1 Y 1 1 d 1 Y 1 1 d 1 X 1 Y 1 X 1 Y 1 X s 1055 923 m 1 Y 1
 X 1 Y 1 X 1 Y 1 X 1 Y 1 X 1 Y 1 1 d 1 1 d 1 Y 2 X 1 Y s 1063 932 m 2 X 1 Y 1 X 1 Y 2 X 1 Y 1 X 1 Y 1 -1 d 1 Y 1 X 1 Y -1 Y 1 Y 1 X 1 Y s 1072 938 m 1 X 1 Y 2 X 1 Y 1 X 1 Y 1 X 1 Y 2 X 1 Y 1 X 1 Y 1 1 d s 1081 945 m 1 1 d -1 Y 1 1 d 1 X 1 Y -1 Y 1 X
 1 Y 1 X 1 Y 1 X 1 Y 1 X 1 Y -1 Y 1 1 d 1 Y 1 X s 1090 951 m 1 1 d 1 Y 1 X 1 1 d 1 Y 1 -1 d 1 X 1 Y -1 Y 1 Y -1 Y 1 X 1 1 d 1 X 1 Y 1 X s 1099 956 m 1 Y 2 X 1 Y 1 1 d 1 Y 1 X 1 Y 1 X 1 Y -1 Y 1 1 d 1 Y 1 X -1 Y 1 Y 1 X s 1107 963 m 1 X 2 Y 1 X 1 Y 1
 X 1 1 d 1 Y 1 X 1 Y -1 Y 1 1 d -2 Y 1 1 d 1 1 d -1 Y 1 1 d s 1116 969 m 1 1 d 1 Y 1 X 1 Y 1 1 d -1 Y 1 Y 1 X 1 1 d 1 X 1 Y 1 1 d 1 Y 1 X 1 1 d s 1125 978 m 2 X 1 Y 2 X 1 Y 2 X 1 1 d 1 X 1 Y 1 X s 1134 982 m 1 Y 1 X 1 1 d 1 X 1 Y 1 -1 d 1 Y -1 Y 1 1
 d 1 Y 1 X 1 Y 2 X 1 Y 1 X s 1143 988 m 1 Y 2 X 1 1 d 1 X 1 1 d 1 X 1 1 d -1 Y 1 Y 1 X 1 Y s 1151 993 m 2 X 2 Y 2 X 1 Y 1 X 1 1 d 1 X 1 Y -1 Y 1 Y 1 X 1 Y -1 Y 1 X 1 Y s 1160 999 m 1 Y 1 X -1 Y 2 X 1 Y 1 X 1 Y 1 X -1 Y 1 -1 d 2 Y 2 X 1 Y -1 Y 1 X 1 Y
 s 1169 1002 m 2 X 1 Y -1 Y 1 Y 2 X 1 Y -1 Y 1 X 1 Y -1 Y 1 Y 1 X -1 Y 1 X -2 Y 2 X s 1178 1001 m 1 1 d -1 Y 2 X 1 Y 2 X 1 Y -1 Y 1 1 d 1 X 1 Y 2 X s 1187 1004 m -3 Y 1 2 d 2 X 1 Y 1 X 1 -2 d 1 Y 1 X 1 Y 1 X 1 Y 1 X -1 Y 1 Y s 1195 1005 m 1 X -2 Y 1
 X 1 1 d 2 X 1 Y 1 X 1 Y 1 X 1 Y 1 -1 d 1 X 1 Y s 1204 1007 m -1 Y 1 1 d 1 X 1 Y 1 X 1 Y -1 Y 1 1 d -1 Y 1 X -1 Y 1 1 d -1 Y 1 X -1 Y 1 Y 2 X s 1213 1007 m 1 X -1 Y 1 -1 d 1 Y 2 X 1 Y 2 X 1 Y 1 -1 d 1 Y 2 X s 1222 1008 m 1 Y 3 X 1 Y 1 X 1 1 d 2 X 1 Y
 2 X s 1231 1012 m 1 X 1 Y -1 Y 1 X 1 Y 2 X 1 Y -2 Y 1 X -1 Y 1 X 1 Y 1 X 1 Y 1 -2 d 2 Y s 1239 1013 m 1 X -1 Y 1 X 1 Y 2 X 1 Y 1 X -2 Y 1 X 1 Y 1 X -2 Y 1 -1 d 1 X s 1248 1010 m 1 X 1 Y -1 Y 1 -1 d 1 Y 1 X 1 Y 1 1 d 1 X 1 Y 1 X 1 1 d 1 Y 2 X s 1257
 1015 m 1 Y 1 X -1 Y 1 Y 2 X 1 Y -1 Y 1 X 1 Y 2 X 1 -1 d -2 Y 1 X 1 Y 1 X s 1266 1015 m 1 1 d -1 Y 1 Y 1 X 1 1 d -1 Y 1 Y 1 X -1 Y 1 X 1 Y 2 X 1 -3 d 1 -1 d s 1275 1013 m -1 Y 2 X 1 Y 3 X 1 Y 1 -2 d 1 Y 1 X 1 Y 1 X s 1283 1014 m 1 X -1 Y 1 Y 1 X 1 Y
 2 X 1 Y 1 X -3 Y 4 X 1 Y s 1292 1014 m 1 -2 d 3 X 1 Y 2 X 1 Y 1 X 1 Y 1 X -2 Y 1 X s 1301 1013 m 1 X -1 Y 1 X 1 Y 1 X -1 Y 1 1 d 1 X -1 Y 1 X 1 -1 d 2 Y 1 -1 d 1 X s 1310 1012 m 1 Y 1 X -6 Y 3 X -1 Y 3 X 1 Y 1 X -3 Y 1 X s 1319 1004 m 1 -1 d 2 X -1
 Y 1 Y -2 Y 1 1 d 1 X -1 Y 1 Y -1 Y 1 X 1 -3 d 1 X -1 Y s 1327 997 m 1 -1 d 1 Y 1 X -2 Y 1 1 d 1 X -1 Y 3 X 2 Y 2 X s 1336 997 m 2 X 1 -1 d -2 Y 1 X 1 1 d 1 X 1 Y 2 X -2 Y 1 X 1 Y s 1345 995 m 1 X -1 Y 1 X -2 Y 1 X -2 Y 1 -1 d 1 X 2 Y 2 X 1 1 d 1 -1
 d -1 Y s 1354 990 m 1 Y 1 X 1 Y 1 X 1 -1 d 1 Y 1 X -3 Y 1 X -2 Y 1 Y -2 Y 1 X -3 Y 1 X 1 Y 1 X -1 Y 1 Y -1 Y 1 X s 1363 983 m 1 X -2 Y 1 Y 3 X 1 Y -1 Y 2 X -1 Y 2 X -2 Y s 1371 979 m 1 X 1 -1 d 1 Y 1 X -1 Y 1 Y 2 X -2 Y 2 X 1 Y 2 X -3 Y s 1380 975 m
 1 Y 1 1 d 1 X -2 Y 1 X -1 Y 1 X -1 Y 1 -1 d 1 Y -1 Y 1 -2 d -1 Y 1 Y 1 X -1 Y 1 X -4 Y 1 X s 1389 965 m -1 Y 1 X 1 -2 d -1 Y 1 X 1 1 d 1 X 1 Y -1 Y 1 Y 1 -1 d 2 X -1 Y 2 Y 1 X -2 Y s 1398 961 m 1 1 d -6 Y 1 X -1 Y 1 X 1 Y 1 X -2 Y 1 X 1 Y -1 Y 1 X 1
 1 d -2 Y 1 X -2 Y 1 -1 d s 1407 950 m 1 -1 d 1 -1 d -2 Y 1 -1 d -2 Y 1 Y 1 X -1 Y 1 -1 d -1 Y 1 Y -2 Y 1 -1 d -1 Y 1 X -2 Y 1 X -1 Y s 1415 935 m 2 X -3 Y 1 -1 d -3 Y 1 X -3 Y 1 1 d -2 Y 1 -1 d -1 Y 1 X 1 -1 d -1 Y 2 Y 1 X -1 Y 10 Y -3 Y s 1424 928
 m 2 X -2 Y 1 X -1 Y 1 X -1 Y 1 -1 d -1 Y 1 -3 d -2 Y 1 X -3 Y 1 X 1 Y -1 Y 1 X 2 Y -2 Y s 1433 914 m -1 Y 2 X -3 Y 1 X -2 Y 1 X 1 -1 d -1 Y 1 -1 d -1 Y 1 X 1 Y -1 Y 1 X -3 Y 1 -1 d -1 Y s 1442 899 m -2 Y 1 -1 d -1 Y 1 Y 1 X -2 Y 1 -1 d 1 Y -1 Y 1 Y
 1 X -1 Y 1 X -1 Y 1 X -1 Y 1 1 d -2 Y 1 -1 d 1 X s 1451 889 m 1 -2 d -4 Y 2 X -6 Y 1 X -2 Y 1 Y 1 -1 d 1 Y -2 Y 2 X -4 Y 1 -1 d -2 Y s 1459 867 m 1 X -2 Y 1 X 1 Y 1 -1 d -2 Y 1 X -1 Y 1 -1 d 1 -1 d 5 Y -2 Y 1 X -2 Y 1 X -1 Y 1 X -2 Y s 1468 858 m -1
 Y 1 X -1 Y 2 X 1 -1 d -2 Y 1 X -3 Y 1 X -2 Y 1 X -1 Y 1 X -1 Y 1 X -1 Y s 1477 845 m -2 Y 1 Y 2 X -3 Y 1 X -1 Y 1 -1 d -1 Y 1 X -1 Y 1 X -1 Y 1 X -2 Y 1 X 1 -1 d s 1486 833 m 1 -1 d -1 Y 2 X 1 -1 d -1 Y 1 X -1 Y 2 X -6 Y 1 -1 d -1 Y 1 Y -2 Y 1 X s
 1495 819 m 1 X 1 Y -1 Y 1 X -1 Y 1 X -1 Y 1 -1 d -1 Y 1 -1 d -5 Y 1 X -3 Y 1 1 d 1 X 6 Y -1 Y s 1503 812 m 1 X 1 Y -2 Y 1 -1 d -1 Y 1 X -1 Y 1 X -2 Y 1 -1 d 1 Y -1 Y 1 X -1 Y 1 Y -1 Y 1 -1 d -1 Y 1 X -1 Y 1 -2 d -3 Y s 1512 796 m 1 Y 1 -1 d -2 Y 1 X
 -3 Y 1 X -1 Y 1 X -2 Y 1 X -4 Y 1 1 d -4 Y 1 X -2 Y 1 -1 d -1 Y 1 -1 d -1 Y s 1521 775 m 1 X -1 Y 1 -1 d -1 Y 1 Y -2 Y 1 -1 d -3 Y 1 -1 d -3 Y 1 2 d -2 Y 1 X 1 -1 d -1 Y 1 -1 d 1 Y -3 Y 1 X -2 Y s 1530 756 m -2 Y 1 X -5 Y 1 X -3 Y 1 X -2 Y 1 X -2 Y
 1 X -3 Y 1 X 1 -1 d -3 Y 1 X -2 Y 1 -1 d s 1539 732 m -1 Y 1 X -2 Y 1 X -2 Y 1 -2 d -5 Y 1 X -1 Y 1 1 d -3 Y 1 -2 d 1 -1 d -2 Y 1 X -1 Y s 1547 711 m 1 X -5 Y 1 X -4 Y 1 X -7 Y 1 X -4 Y 1 X -1 Y 1 X -2 Y 1 X -1 Y 1 Y 1 -1 d -3 Y 1 X -2 Y s 1556 682
 m 1 X -2 Y 1 X -1 Y 1 -1 d -2 Y 1 Y -3 Y 1 X -2 Y 1 X -1 Y 1 X -3 Y 1 Y -1 Y 1 X -2 Y 1 X -2 Y 1 X -1 Y s 1565 663 m -2 Y 1 X 1 -1 d -2 Y 1 -1 d -2 Y 1 -1 d -2 Y 1 X -2 Y 1 X -1 Y 1 -1 d -3 Y 1 -2 d -2 Y 1 X -2 Y s 1574 639 m 1 X -3 Y 1 X -6 Y 1 -2
 d -3 Y 1 -1 d -2 Y 1 -1 d -2 Y 1 -1 d -3 Y 1 -2 d -3 Y 1 X -3 Y 1 X s 1583 607 m -1 Y 1 -2 d -1 Y 1 Y -1 Y 1 X -1 Y 1 -1 d -2 Y 1 -1 d -3 Y 1 Y 1 X -2 Y 1 -1 d -2 Y 1 -1 d -1 Y 1 X -2 Y s 1591 587 m 1 -1 d -3 Y 1 X -3 Y 1 X -2 Y 1 -1 d -2 Y 1 X -2 Y
 1 X -1 Y 1 X -4 Y 1 X -3 Y 1 X -5 Y s 1600 560 m 1 -1 d -4 Y 1 -1 d -3 Y 1 -1 d -2 Y 1 -2 d 1 -1 d -1 Y 1 -2 d -1 Y 1 X -1 Y 1 -1 d -2 Y 1 -1 d -1 Y s 1609 535 m -1 Y 1 X -1 Y 1 Y -4 Y 1 X -1 Y 1 -1 d 1 X -1 Y 1 -1 d -1 Y 1 Y 1 -2 d 1 Y -3 Y 1 X -2
 Y 1 X -2 Y 1 X -1 Y s 1618 517 m -2 Y 1 X -1 Y 1 X -3 Y 1 -1 d -2 Y 1 X -5 Y 1 X -4 Y 1 -1 d -1 Y 1 X -3 Y 1 X -1 Y 1 Y 1 -1 d s 1627 493 m -4 Y 1 X -4 Y 1 X -3 Y 1 X -5 Y 1 X -3 Y 1 X -1 Y 1 X -4 Y 1 -3 d -1 Y 1 -1 d -1 Y s 1635 463 m 1 -1 d -1 Y 1
 -2 d -1 Y 1 -1 d -1 Y 1 -1 d -2 Y 1 1 d -3 Y 1 1 d -2 Y 1 X -3 Y 1 Y 1 -1 d -1 Y 1 X -4 Y 1 Y s 1644 443 m 1 X -1 Y 1 -1 d -2 Y 1 X -3 Y 1 -2 d 1 X -1 Y 1 -1 d -1 Y 1 X -1 Y 1 -1 d -1 Y 1 X -1 Y 1 Y s 1653 428 m -1 Y 1 -1 d -3 Y 1 X -3 Y 1 X -2 Y 1
 X -3 Y 1 -1 d -3 Y 1 X -2 Y 1 X -2 Y 1 X -2 Y 1 -1 d s 1662 404 m -1 Y 1 1 d -2 Y 1 Y -1 Y 1 X -1 Y 1 -1 d -2 Y 1 -2 d 1 X -2 Y 1 X -2 Y 1 X 1 -1 d 1 -1 d s 1671 390 m -1 Y 1 -1 d -1 Y 1 X -2 Y 1 X -2 Y 1 -1 d -1 Y 1 X -1 Y 1 -2 d 2 X -2 Y s 1679
 376 m 1 X 1 -1 d -4 Y 1 X -2 Y 1 X -4 Y 1 X -1 Y 1 X 1 -1 d -1 Y 1 X -2 Y 1 X -1 Y s 1688 359 m -1 Y 1 X -1 Y 1 -1 d 1 X 1 -1 d 1 Y -2 Y 1 -1 d -3 Y 1 X -2 Y 1 X -1 Y 1 Y -1 Y 2 X -1 Y s 1697 346 m -1 Y 1 Y 1 X -3 Y 1 X -1 Y 1 X -3 Y 1 Y -1 Y 1 X -1
 Y 1 Y 1 X -1 Y 1 -1 d 1 -1 d -1 Y 1 -1 d 1 Y -1 Y 1 X s 1706 334 m -1 Y 1 -1 d -1 Y 1 -2 d 1 Y -1 Y 1 X -1 Y 1 X -2 Y 1 X -1 Y 1 X -2 Y 1 X -2 Y 1 X -1 Y 1 X s 1715 320 m -3 Y 1 X 1 -1 d 1 -1 d -1 Y 1 X -2 Y 1 X -3 Y 2 X 1 -1 d -1 Y s 1723 307 m 1 X
 -1 Y 3 X -1 Y 1 X -1 Y 1 X -1 Y 1 X 1 -1 d -2 Y 1 X -1 Y s 1732 299 m 1 -1 d -1 Y 1 X -2 Y 1 -1 d -1 Y 1 -1 d 1 -1 d 1 -1 d -2 Y 1 X -1 Y 1 X -1 Y 1 X 1 Y -1 Y s 1741 286 m 2 X -1 Y 1 X -1 Y 1 X 1 -1 d -3 Y 1 X -1 Y 1 X -1 Y 2 X s 1750 278 m -1 Y 1
 X -1 Y 1 X 1 -1 d 2 X -1 Y 1 X 1 -1 d -2 Y 2 X s 1759 271 m -1 Y 1 X -3 Y 1 X -1 Y 2 X -1 Y 2 X 1 -1 d -1 Y 1 X -1 Y 1 Y -2 Y s 1767 261 m 1 X -2 Y 1 X 1 -1 d 1 X -1 Y 2 X -1 Y 1 X -1 Y 1 X -1 Y 1 X s 1776 254 m 1 X -1 Y 2 X -1 Y 1 Y -1 Y 1 X 1 -1 d
 -1 Y 2 X -1 Y 1 X -1 Y 1 X 1 Y s 1785 249 m -1 Y 2 X -1 Y 2 X -1 Y 5 X -1 Y s 1794 245 m 1 X 1 -1 d -1 Y 2 X -1 Y 1 X -1 Y 1 X -1 Y 1 X 1 -1 d 1 -1 d s 1803 238 m 1 X -1 Y 2 X 1 -1 d 1 X 1 -1 d 1 X -1 Y 1 X -1 Y 1 X s 1812 233 m -1 Y 1 -1 d 1 X -1 Y
 3 X -1 Y 2 X -1 Y 1 X s 1820 228 m -1 Y 3 X 1 -1 d 1 X -1 Y 4 X s 1829 225 m 2 X 1 -1 d 1 X 1 -1 d 1 Y -1 Y 2 X -1 Y 1 X 1 Y -1 Y 1 X s 1838 222 m 2 X -1 Y 2 X -1 Y 3 X -1 Y 2 X s 1847 219 m -1 Y 3 X -1 Y 5 X -2 Y 1 X s 1856 215 m -1 Y 5 X -1 Y 3 X
 s 1864 213 m 2 X -1 Y 3 X -1 Y 4 X s 1873 211 m 1 X -1 Y 6 X -1 Y 2 X s 1882 209 m 4 X -1 Y 5 X s 1891 208 m 2 X -2 Y 1 X 2 Y 2 X -1 Y 4 X s 1900 207 m 4 X 1 -1 d 3 X s 1908 206 m 6 X -2 Y 3 X s 1917 204 m 3 X 1 1 d 1 X -1 Y 4 X s 1926 204 m 7 X -1
 Y 2 X s 1935 203 m 1 X 1 Y 6 X -1 Y 2 X s 1944 203 m 8 X s 1952 203 m 9 X s 1961 203 m 9 X s 1970 203 m 9 X s 1979 203 m 9 X s 1988 203 m -1 Y 8 X s 1996 202 m 9 X s 2005 202 m 9 X s 2014 202 m 9 X s 2023 202 m 9 X s 2032 202 m 8 X s 2040 202 m 1 X
 s black[  ] 0 sd 3 lw 245 202 m 1796 X s 412 242 m -40 Y s 456 222 m -20 Y s 499 222 m -20 Y s 543 222 m -20 Y s 587 222 m -20 Y s 631 242 m -40 Y s 674 222 m -20 Y s 718 222 m -20 Y s 762 222 m -20 Y s 806 222 m -20 Y s 849 242 m -40 Y s 893 222 m
 -20 Y s 937 222 m -20 Y s 981 222 m -20 Y s 1024 222 m -20 Y s 1068 242 m -40 Y s 1112 222 m -20 Y s 1156 222 m -20 Y s 1199 222 m -20 Y s 1243 222 m -20 Y s 1287 242 m -40 Y s 1330 222 m -20 Y s 1374 222 m -20 Y s 1418 222 m -20 Y s 1462 222 m -20
 Y s 1505 242 m -40 Y s 1549 222 m -20 Y s 1593 222 m -20 Y s 1637 222 m -20 Y s 1680 222 m -20 Y s 1724 242 m -40 Y s 1768 222 m -20 Y s 1812 222 m -20 Y s 1855 222 m -20 Y s 1899 222 m -20 Y s 1943 242 m -40 Y s 412 242 m -40 Y s 368 222 m -20 Y s
 324 222 m -20 Y s 281 222 m -20 Y s 1943 242 m -40 Y s 1987 222 m -20 Y s 2030 222 m -20 Y s
 gsave  2268 1684 0 0 C 405.762 128.934 t 0 r /Helvetica-Bold findfont 64.4669 sf 0 0 m (4) show NC gr 
 gsave  2268 1684 0 0 C 375.425 128.934 t 0 r /Symbol findfont 64.4669 sf 0 0 m (-) show NC gr 
 gsave  2268 1684 0 0 C 625.708 128.934 t 0 r /Helvetica-Bold findfont 64.4669 sf 0 0 m (3) show NC gr 
 gsave  2268 1684 0 0 C 595.37 128.934 t 0 r /Symbol findfont 64.4669 sf 0 0 m (-) show NC gr 
 gsave  2268 1684 0 0 C 841.861 128.934 t 0 r /Helvetica-Bold findfont 64.4669 sf 0 0 m (2) show NC gr 
 gsave  2268 1684 0 0 C 811.524 128.934 t 0 r /Symbol findfont 64.4669 sf 0 0 m (-) show NC gr 
 gsave  2268 1684 0 0 C 1065.6 128.934 t 0 r /Helvetica-Bold findfont 64.4669 sf 0 0 m (1) show NC gr 
 gsave  2268 1684 0 0 C 1035.26 128.934 t 0 r /Symbol findfont 64.4669 sf 0 0 m (-) show NC gr 
 gsave  2268 1684 0 0 C 1266.58 128.934 t 0 r /Helvetica-Bold findfont 64.4669 sf 0 0 m (0) show NC gr 
 gsave  2268 1684 0 0 C 1486.53 128.934 t 0 r /Helvetica-Bold findfont 64.4669 sf 0 0 m (1) show NC gr 
 gsave  2268 1684 0 0 C 1702.68 128.934 t 0 r /Helvetica-Bold findfont 64.4669 sf 0 0 m (2) show NC gr 
 gsave  2268 1684 0 0 C 1922.63 128.934 t 0 r /Helvetica-Bold findfont 64.4669 sf 0 0 m (3) show NC gr 
 gsave  2268 1684 0 0 C 815.316 30.3373 t 0 r /Helvetica-Bold findfont 72.0512 sf 0 0 m (Cut value applied on RuleFit output) show NC gr  245 202 m 1145 Y s 291 202 m -46 X s 268 254 m -23 X s 268 306 m -23 X s 268 358 m -23 X s 291 410 m -46 X s 268
 462 m -23 X s 268 514 m -23 X s 268 566 m -23 X s 291 618 m -46 X s 268 670 m -23 X s 268 722 m -23 X s 268 775 m -23 X s 291 827 m -46 X s 268 879 m -23 X s 268 931 m -23 X s 268 983 m -23 X s 291 1035 m -46 X s 268 1087 m -23 X s 268 1139 m -23 X
 s 268 1191 m -23 X s 291 1243 m -46 X s 291 1243 m -46 X s 268 1295 m -23 X s 268 1347 m -23 X s
 gsave  2268 1684 0 0 C 182.024 178.232 t 0 r /Helvetica-Bold findfont 64.4669 sf 0 0 m (0) show NC gr 
 gsave  2268 1684 0 0 C 128.934 386.801 t 0 r /Helvetica-Bold findfont 64.4669 sf 0 0 m (0.2) show NC gr 
 gsave  2268 1684 0 0 C 128.934 595.37 t 0 r /Helvetica-Bold findfont 64.4669 sf 0 0 m (0.4) show NC gr 
 gsave  2268 1684 0 0 C 128.934 800.148 t 0 r /Helvetica-Bold findfont 64.4669 sf 0 0 m (0.6) show NC gr 
 gsave  2268 1684 0 0 C 128.934 1008.72 t 0 r /Helvetica-Bold findfont 64.4669 sf 0 0 m (0.8) show NC gr 
 gsave  2268 1684 0 0 C 189.608 1217.29 t 0 r /Helvetica-Bold findfont 64.4669 sf 0 0 m (1) show NC gr 
 gsave  2268 1684 0 0 C 64.4669 735.681 t 90 r /Helvetica-Bold findfont 72.0512 sf 0 0 m (Efficiency \(Purity\)) show NC gr  0 0 0.933333 c[  52 12 ] 0 sd 6 lw 0.49 0.6 0.82 c black 0 0 0.933333 c 245 722 m 9 X s 254 722 m 9 X s 263 722 m 8 X s 271
 722 m 9 X s 280 722 m 9 X s 289 722 m 9 X s 298 722 m 9 X s 307 722 m 8 X s 315 722 m 9 X s 324 722 m 9 X s 333 722 m 9 X s 342 722 m 9 X s 351 722 m 8 X s 359 722 m 9 X s 368 722 m 9 X s 377 722 m 9 X s 386 722 m 9 X s 395 722 m 8 X s 403 722 m 4 X
 1 1 d 4 X s 412 723 m 9 X s 421 723 m 9 X s 430 723 m 9 X s 439 723 m 8 X s 447 723 m 9 X s 456 723 m 9 X s 465 723 m 9 X s 474 723 m 9 X s 483 723 m 8 X s 491 723 m 4 X 1 Y 5 X s 500 724 m 9 X s 509 724 m 9 X s 518 724 m 9 X s 527 724 m 8 X s 535
 724 m 3 X 1 Y 6 X s 544 725 m 9 X s 553 725 m 9 X s 562 725 m 1 Y 9 X s 571 726 m 8 X s 579 726 m 3 X 1 Y 6 X s 588 727 m 9 X s 597 727 m 2 X 1 Y 7 X s 606 728 m 6 X 1 Y 3 X s 615 729 m 8 X s 623 729 m 3 X 1 Y 6 X s 632 730 m 4 X 1 1 d 4 X s 641 731
 m 6 X 1 1 d 2 X s 650 732 m 9 X s 659 732 m 1 X 1 Y 7 X s 667 733 m 1 X 1 1 d -1 Y 1 X 1 Y 6 X s 676 734 m 3 X 1 Y 6 X s 685 735 m 1 X 1 Y 6 X 1 Y 2 X s 694 737 m 3 X 1 Y 6 X s 703 738 m 2 X 1 Y 6 X 1 Y s 711 740 m 4 X 1 Y 5 X s 720 741 m 3 X 1 Y 4
 X 1 Y 2 X s 729 743 m 3 X 1 1 d 5 X s 738 744 m 1 Y 5 X 1 Y 3 X 1 Y 1 X s 747 747 m 5 X 1 Y 3 X s 755 748 m 3 X 1 1 d 4 X 1 Y 1 X s 764 750 m 4 X 1 Y 5 X 1 Y s 773 752 m 5 X 1 Y 2 X 1 1 d 1 X s 782 754 m 2 X 1 1 d 3 X 1 1 d 2 X s 791 756 m 2 X 1 Y 2
 X 1 Y 4 X 1 Y s 799 759 m 3 X 1 1 d 2 X 1 Y 3 X s 808 761 m 1 1 d 2 X 1 1 d 1 X 1 Y 3 X 1 1 d s 817 765 m 2 X 1 1 d 3 X 1 Y 3 X s 826 767 m 1 X 1 1 d 2 X 1 Y 2 X 1 Y 3 X s 835 770 m 1 Y 2 X 1 Y 2 X 1 Y 2 X 1 1 d 1 X s 843 774 m 2 X 1 Y 2 X 1 Y 3 X 1
 Y 2 X s 852 777 m 1 1 d 2 X 1 Y 2 X 1 Y 2 X 2 Y 2 X s 861 782 m 1 X 1 Y 1 -1 d 1 Y -1 Y 1 Y 1 X 1 Y 2 X 1 Y 3 X 1 Y 1 X s 870 786 m 1 X 1 Y 2 X 1 Y 2 X 1 Y 2 X 1 Y 2 X s 879 790 m 1 Y 1 X 1 1 d 1 X 1 1 d 1 X 1 Y 3 X 1 Y s 887 795 m 1 X 1 Y 2 X 1 Y 1
 X 1 Y 2 X 1 Y 1 X 1 Y 1 X 1 Y 1 X 1 Y s 896 802 m 1 X 1 Y 1 X 1 Y 3 X 1 Y 1 X 1 1 d 1 X 1 Y 1 X s 905 807 m 1 X 1 Y 1 X 1 Y 2 X 1 Y 1 X 1 Y 2 X 1 Y 1 X 1 Y 1 X 1 Y s 914 814 m 1 X 1 Y 1 X 1 1 d 1 X 1 Y 1 X 1 Y 1 X 2 Y 2 X 1 Y 1 X s 923 821 m 1 1 d 1
 X 1 Y 1 X 1 Y 1 X 1 Y 1 X 1 Y 1 X 1 Y 1 X 1 Y 1 X 1 Y s 931 829 m 2 X 1 Y 1 X 1 Y 1 X 1 Y 1 X 1 Y 2 X 1 Y 1 X 1 Y 1 X s 940 835 m 1 1 d 1 X 1 Y 1 X 1 1 d 1 X 1 Y 1 X 1 Y 1 X 1 Y 1 X 1 Y 1 X s 949 842 m 1 Y 2 X 1 Y 1 X 1 Y 1 X 1 Y 2 X 1 Y 1 X 1 Y 1 X
 1 Y 1 X s 958 849 m 1 Y 1 X 1 Y 1 X 1 Y 1 X 1 Y 1 X 1 Y 1 X 1 Y 2 X 1 Y 1 X 1 Y 1 X s 967 857 m 1 Y 1 X 2 Y 2 X 1 Y 1 X 1 Y 1 X 1 Y 1 X 1 1 d 1 X 1 Y s 975 865 m 2 X 1 Y 1 X 1 Y 1 X 1 Y 1 X 1 Y 1 X 1 1 d 1 X 1 Y 1 X 1 Y s 984 872 m 1 X 1 Y 1 X 1 Y 1
 1 d 1 Y 2 X 1 Y 1 X 1 Y 1 X 1 Y 1 X 1 Y 1 X 1 Y s 993 881 m 1 Y 1 X 1 Y 1 X 1 Y 1 X 1 Y 1 X 1 Y 1 X 1 1 d 1 1 d 1 X 1 Y 1 X s 1002 889 m 1 Y 1 X 2 Y 1 X 1 Y 1 1 d 1 X 1 Y 1 X 1 Y 1 X 1 Y 1 X 1 Y 1 X 1 Y 1 X s 1011 899 m 1 Y 1 X 1 Y 1 X 1 Y 1 X 1 Y 1
 X 1 Y 1 1 d 1 Y 1 X 1 Y 1 X 1 Y 1 X 1 Y s 1019 909 m 1 X 1 Y 1 X 1 Y 1 X 1 Y 1 X 1 Y 1 1 d 1 1 d 1 Y 1 X 1 Y 2 X 1 Y s 1028 918 m 1 X 1 Y 1 X 2 Y -1 Y 1 1 d 1 X 2 Y 2 X 1 Y 2 X 1 Y 1 X 1 Y s 1037 926 m 1 X 1 Y 1 X 1 Y 1 X 1 Y 1 X 1 Y 1 X 1 Y 1 X 1 Y
 1 X 1 Y 1 X 1 1 d s 1046 934 m 1 Y 1 X 1 Y 1 X 1 Y 1 X 1 Y 1 X 1 1 d 1 1 d 1 Y 1 X 1 Y 1 X 1 Y 1 1 d s 1055 944 m 1 Y 1 X 1 Y 2 X 2 Y 1 X 1 Y 1 X 1 Y 1 X 2 Y 1 X 1 1 d s 1063 953 m 1 X 1 Y 1 X 1 Y 1 X 1 Y 1 X 1 Y 1 X 1 Y 2 X 1 Y 1 X 1 Y 1 X 1 Y s
 1072 961 m 1 X 1 Y 1 X 1 Y 1 X 1 Y 1 X 1 Y 1 X 1 1 d 1 X 1 Y 1 1 d 1 Y 1 X 1 Y s 1081 970 m 1 X 1 Y 2 X 1 Y 1 X 1 Y 1 X 1 Y 1 X 1 Y 1 X 1 Y 1 X 1 Y 1 X 1 Y s 1090 978 m 1 1 d 1 Y 1 X 1 Y 1 X 1 Y 1 X 1 1 d 1 X 1 Y 1 X 1 1 d 1 1 d s 1099 986 m 1 X 1 Y
 1 X 1 Y 1 1 d 1 Y 1 X 1 Y 1 X 1 Y 1 1 d 1 Y 2 X 1 Y s 1107 995 m 1 X 1 Y 1 X 1 Y 1 X 1 Y 1 X 1 Y 1 X 1 Y 1 1 d 1 X 1 Y 2 X 1 Y s 1116 1003 m 1 X 2 Y 1 X 1 Y 1 1 d 1 Y 1 X 1 1 d 1 X 1 Y 1 1 d 1 Y 1 X 1 Y 1 X 1 Y s 1125 1014 m 1 X 1 Y 1 X 1 Y 1 X 1 Y
 2 X 1 Y 1 X 1 1 d 1 Y 1 X 1 Y 1 X s 1134 1021 m 1 1 d 1 1 d 1 X 1 Y 1 X 1 Y 1 X 1 Y 1 X 1 Y 1 X 1 Y 2 X s 1143 1028 m 1 Y 1 X 1 Y 1 X 1 2 d 1 1 d 1 X 1 Y 1 X 1 1 d 1 X 1 Y s 1151 1036 m 1 X 1 Y 1 X 2 Y 2 X 1 Y 1 X 1 Y 1 1 d 1 X 1 Y 1 X 1 Y 1 X 1 Y s
 1160 1045 m 1 X 1 1 d 1 X 1 Y 1 X 1 1 d 1 X 2 Y 1 X 1 1 d 1 X s 1169 1051 m 1 Y 1 X 1 Y 1 X 1 Y 2 X 1 Y 1 X 1 Y 3 X 1 Y 1 X s 1178 1057 m 1 Y 2 X 1 Y 1 X 1 Y 2 X 2 Y 1 X 1 1 d 1 Y 2 X s 1187 1064 m 1 1 d 2 X 1 Y 2 X 1 Y 1 X 1 Y 2 X 1 Y s 1195 1069 m
 1 X 1 Y 2 X 1 Y 1 -1 d 1 Y 1 X 1 Y 2 X 2 Y 1 -1 d 1 Y 1 X 1 Y s 1204 1075 m 1 X 1 Y 2 X 1 Y 1 X 1 1 d 2 X 1 Y 2 X 1 Y s 1213 1080 m 1 X 1 Y -1 Y 1 X 1 Y 1 1 d 1 X 1 Y 2 X 1 Y 2 X 1 Y 1 X s 1222 1085 m 1 1 d 1 X 1 Y 1 X 1 Y 2 X 1 Y 2 X 1 Y 1 X 1 Y 1
 X s 1231 1091 m 1 X 1 Y 2 X 1 1 d 2 X 1 Y 1 X 1 Y 1 X 1 Y s 1239 1096 m 2 X 1 Y 2 X 1 Y 2 X 1 Y 2 X 1 Y 1 X s 1248 1100 m 1 X 1 Y 1 -1 d 1 Y 1 X 1 Y 1 X 1 Y 1 X 1 Y 2 X 1 Y 1 X 1 1 d s 1257 1106 m 1 X 1 Y 1 X 1 Y 2 X 2 Y 2 X 1 Y 2 X 1 1 d s 1266
 1112 m 1 X 1 Y 1 1 d 1 X 1 Y 1 X -1 Y 1 Y 1 X 1 1 d 1 X 1 Y 2 X s 1275 1117 m 1 X 1 Y 1 X 1 Y 3 X 1 Y 2 X 1 Y 1 X s 1283 1121 m 1 X 1 Y 1 1 d 2 X 1 Y 4 X 1 Y 1 X s 1292 1125 m 1 Y 1 -1 d 1 Y 3 X 1 Y 1 X 1 Y 2 X 1 Y 2 X s 1301 1129 m 1 1 d 2 X 1 1 d
 2 X 1 Y 3 X 1 Y s 1310 1133 m 1 Y 1 X -1 Y 2 X 1 Y 3 X 1 Y 1 X 1 Y 2 X s 1319 1136 m 1 X 1 Y 4 X 1 Y 3 X s 1327 1138 m 3 X 1 Y 4 X 2 Y 2 X 1 Y s 1336 1142 m 4 X 1 1 d 1 X 1 1 d 2 X 1 Y s 1345 1145 m 5 X 2 Y 1 X 1 Y 3 X s 1354 1148 m 1 X 1 Y 2 X 1 Y
 5 X 2 Y 1 X s 1363 1152 m 3 X 1 Y 3 X 1 Y 2 X s 1371 1154 m 1 X 1 1 d 2 X 1 1 d 2 X 1 Y 2 X s 1380 1157 m 3 X 1 1 d -1 Y 1 1 d 4 X s 1389 1158 m 3 X 1 Y 1 X 1 Y 1 X 1 Y 2 X 1 Y 2 X s 1398 1162 m 5 X 1 Y 2 X 1 Y -1 Y 1 X 1 Y 1 X s 1407 1164 m 8 X s
 1415 1164 m 9 X 2 Y s 1424 1166 m 5 X 1 Y 4 X s 1433 1167 m 2 X 1 Y 2 X 1 Y 1 X 1 -1 d 1 Y 3 X s 1442 1169 m 5 X 1 Y 2 X 1 Y 2 X s 1451 1171 m 1 X -1 Y 1 X 1 Y 6 X s 1459 1171 m 2 X 1 Y 1 X -1 Y 3 X 1 Y 3 X s 1468 1172 m 2 X 1 Y 1 X 1 Y 1 -1 d 1 Y 1
 X -1 Y 4 X 1 Y s 1477 1174 m 5 X 1 Y 1 -1 d 1 Y 3 X 1 Y s 1486 1176 m 2 X 1 Y 3 X 1 Y 2 X -1 Y 2 X s 1495 1177 m 1 X 1 Y -1 Y 1 1 d 5 X 1 Y 1 X 1 Y s 1503 1180 m 1 X 1 1 d 4 X 1 Y 1 -1 d 1 Y 2 X s 1512 1182 m 1 Y 6 X -1 Y 1 X 1 Y 1 X -1 Y 1 Y -1 Y 1
 X s 1521 1182 m 1 X 1 Y 2 X -1 Y 1 Y 4 X 1 Y 2 X s 1530 1184 m 2 X -1 Y 1 X 1 Y 2 X 1 Y 4 X s 1539 1185 m 5 X 1 Y -1 Y 3 X s 1547 1185 m 2 X -1 Y 1 Y -1 Y 7 X s 1556 1184 m 1 X 1 Y 1 1 d -1 Y 1 Y 1 X -1 Y 1 X 1 Y -1 Y 1 1 d -1 Y 4 X s 1565 1185 m 1
 Y 8 X -1 Y 1 X s 1574 1185 m 1 X 1 Y 1 X 1 -1 d 4 X -1 Y 2 X 1 Y s 1583 1185 m 4 X -1 Y 1 Y 4 X 1 Y s 1591 1186 m 2 X -1 Y 1 Y 2 X 1 Y 1 X -1 Y 1 X 1 Y 1 X -1 Y 1 1 d -1 Y 1 Y 1 X -1 Y s 1600 1186 m 4 X 1 Y 1 X -1 Y 2 X 2 Y 1 X 1 -1 d s 1609 1187 m
 1 1 d -1 Y 2 X 1 Y 1 1 d 4 X -1 Y 1 Y 1 X -1 Y 1 Y s 1618 1189 m -1 Y 1 1 d -1 Y 1 Y 1 X -1 Y 1 Y 1 X -1 Y 1 1 d -1 Y 3 X -1 Y 2 X s 1627 1187 m 1 X -1 Y 2 X -1 Y 3 X -1 Y 2 X s 1635 1184 m 1 -1 d 1 Y -1 Y 4 X 1 1 d 2 X 1 Y 1 X -1 Y 1 Y s 1644 1185
 m 1 -1 d 1 1 d -1 Y 3 X 1 Y 1 X -1 Y 1 Y 3 X s 1653 1185 m 1 -1 d 1 X -1 Y 1 X 2 Y 1 X -1 Y 1 Y -1 Y 3 X -1 Y 1 X 1 Y 1 -1 d s 1662 1183 m 2 X 1 -1 d 1 Y 2 X -1 Y 2 X 1 -1 d 1 X s 1671 1181 m 2 X -1 Y 1 X 2 Y 1 -1 d 1 X 1 -1 d 1 2 d 1 X -1 Y s 1679
 1181 m 1 1 d 1 Y 1 -1 d -1 Y 1 X 4 Y 1 X -1 Y 1 1 d -1 Y 1 Y 3 X -1 Y 1 X s 1688 1184 m 1 X -1 Y 2 X 1 Y -1 Y 1 Y 1 X -1 Y 1 X -1 Y 1 X -1 Y 1 Y 3 X s 1697 1182 m 1 Y 1 X -1 Y 1 X 2 Y 1 X -1 Y 1 X 6 Y 3 X -1 Y 1 X 1 Y 1 5 d s 1706 1194 m 1 -1 d 2 Y
 1 -1 d 2 X -1 Y 2 X -1 Y 2 X -1 Y 1 X s 1715 1191 m -1 Y 1 X 1 Y -1 Y 2 X -1 Y 1 Y 1 X -1 Y 1 X -1 Y 1 2 d 1 X -1 Y 1 X s 1723 1189 m 1 X -1 Y 1 X 4 Y 4 X 2 Y 2 X 1 Y -1 Y 1 X s 1732 1194 m -1 Y 2 X -1 Y 1 X -1 Y 1 X 1 -1 d 1 1 d -1 Y 1 X -1 Y 1 X 2
 Y -1 Y 3 Y 1 X 1 Y s 1741 1194 m -1 Y 1 3 d 4 X -1 Y 1 Y -1 Y 1 X -1 Y 1 X 1 1 d 3 Y 1 X s 1750 1198 m -1 Y 2 X -1 Y 3 X 2 Y 1 -1 d 1 X -1 Y 1 X 1 -1 d 2 Y s 1759 1197 m -1 Y 1 X -2 Y 5 X -1 Y 1 X 1 Y 1 X -1 Y 5 Y -1 Y s 1767 1197 m 1 X -1 Y 1 1 d 1
 Y -1 Y 1 1 d -1 Y 3 X 1 Y 1 -1 d 1 X -1 Y 1 X s 1776 1196 m 1 X -1 Y 1 Y 1 X -1 Y 2 X -1 Y 1 X -1 Y 1 X -1 Y 2 X -1 Y 1 X s 1785 1191 m 1 Y 2 X -1 Y 1 X 5 Y 1 X -1 Y 1 Y -1 Y 5 X s 1794 1195 m 1 -1 d 1 Y -1 Y 1 -1 d 1 Y -1 Y 3 X -2 Y 1 X -1 Y 1 X 1
 -1 d -1 Y 1 X s 1803 1188 m -1 Y 1 X -1 Y 1 Y 1 -1 d 1 X -1 Y 2 X -1 Y 1 X -1 Y 1 X 5 Y -2 Y 1 X -1 Y 1 Y -1 Y 1 X s 1812 1185 m -3 Y 1 X -1 Y 1 X -1 Y 1 -1 d 1 X 1 -1 d 1 Y 1 X -1 Y 1 X -1 Y 2 Y -1 Y 1 X -1 Y s 1820 1177 m -1 Y 3 X -1 Y 1 -1 d 1 -1
 d -1 Y 2 X 1 Y 1 X -1 Y 1 X 2 Y s 1829 1174 m 1 X -2 Y 1 Y 1 -1 d 1 X -1 Y 3 Y 1 X -1 Y 1 -1 d 11 Y -1 Y 2 X 2 Y -1 Y 1 X -1 Y 2 Y 1 X -1 Y s 1838 1183 m 1 X -1 Y 1 Y 1 X -1 Y 1 5 d 1 -1 d -1 Y 1 X 1 -1 d 1 X -3 Y 2 X -1 Y s 1847 1180 m -1 Y 1 X -2
 Y 1 X 1 -1 d 1 X -1 Y 1 X -1 Y 1 Y -1 Y 1 9 d 2 Y 1 1 d -1 Y 1 1 d -10 Y 1 X s 1856 1176 m -1 Y 1 3 d -1 Y 1 X -1 Y 2 X -1 Y 1 X -2 Y 1 X -2 Y 1 X 19 Y 1 X -1 Y s 1864 1189 m 1 X -1 Y 1 X -3 Y 1 X 1 -1 d -1 Y 1 X -1 Y 1 X -1 Y 1 3 d 1 X -1 Y 1 -1 d
 -1 Y s 1873 1181 m 1 X -2 Y 1 X -1 Y 2 X -2 Y 1 X -1 Y 1 X 1 Y 1 X -7 Y 1 X -1 Y 1 X s 1882 1168 m 1 X -1 Y 1 X 1 -2 d -1 Y 1 X -1 Y 1 X -2 Y 1 X -1 Y 1 -2 d -1 Y 1 1 d -1 Y 1 -1 d s 1891 1156 m -1 Y 1 X -2 Y 1 X -20 Y 1 -2 d -2 Y 27 Y 1 X -2 Y 1 X
 -4 Y 1 X -2 Y 1 X -3 Y 1 Y 1 X -1 Y 1 X s 1900 1145 m -1 Y 1 X -1 Y 1 -2 d 1 X -3 Y 1 X -1 Y 1 -2 d 1 Y -2 Y 1 X -1 Y 1 X -1 Y 1 4 d s 1908 1136 m 1 -1 d 1 -1 d -3 Y 1 X -3 Y 1 X -8 Y 1 X -1 Y 1 X -40 Y 1 -3 d -3 Y 1 X 1 6 d -5 Y s 1917 1074 m 1 X
 -7 Y 1 X -3 Y 1 -10 d 15 Y 1 14 d -1 Y 1 X -2 Y 1 X -4 Y 1 -1 d -3 Y 1 X -10 Y 1 X s 1926 1062 m 1 X -7 Y 1 -1 d -2 Y 7 Y 1 X -1 Y 3 Y 1 -2 d -1 Y 1 -1 d -30 Y 1 X -2 Y 1 -8 d 1 Y -6 Y 1 X -4 Y 1 X s 1935 1008 m 1 X 15 Y 1 -2 d -1 Y 1 X -1 Y 1 X -1
 Y 1 X -5 Y 2 X -1 Y 1 X -2 Y 1 X s 1944 1010 m 1 X -1 Y 1 X -18 Y 1 X -2 Y 1 X 1 -2 d -4 Y 1 -3 d -1 Y 1 -5 d 1 -2 d 1 Y -6 Y s 1952 967 m 1 X -2 Y 1 X -3 Y 2 X 2 Y -8 Y 1 -3 d -4 Y 2 Y -9 Y 2 X -7 Y 1 X 1 Y 1 X s 1961 936 m 1 Y 1 -11 d -2 Y 1 -2 d
 5 X -3 Y 1 X -4 Y 1 219 d s 1970 1134 m 1 X -1 Y 1 X -1 Y 1 X -4 Y 1 X 1 -11 d -1 Y 1 Y 1 X -1 Y 1 -19 d -12 Y 1 -1 d 1 X s 1979 1084 m 1 X 1 -1 d 1 X -12 Y 1 X -5 Y 2 X -4 Y 1 -1 d 1 X -3 Y 1 X s 1988 1058 m -70 Y 1 -16 d 269 Y 1 -1 d -1 Y 3 X 4 Y
 3 X s 1996 1243 m 9 X s 2005 1243 m 9 X s 2014 1243 m 9 X s 2023 1243 m 9 X s 2032 1243 m 8 X s 2040 1243 m 1 X s[  ] 0 sd 9 lw 0.49 0.6 0.82 c black 0 0 0.933333 c 245 1242 m 9 X s 254 1242 m 9 X s 263 1242 m 8 X s 271 1242 m 9 X s 280 1242 m 9 X s
 289 1242 m 9 X s 298 1242 m 9 X s 307 1242 m 8 X s 315 1242 m 9 X s 324 1242 m 9 X s 333 1242 m 9 X s 342 1242 m 9 X s 351 1242 m 8 X s 359 1242 m 9 X s 368 1242 m 9 X s 377 1242 m 9 X s 386 1242 m 9 X s 395 1242 m 8 X s 403 1242 m 9 X s 412 1242 m
 9 X s 421 1242 m 9 X s 430 1242 m 9 X s 439 1242 m 8 X s 447 1242 m 9 X s 456 1242 m 9 X s 465 1242 m 9 X s 474 1242 m 9 X s 483 1242 m 8 X s 491 1242 m 9 X s 500 1242 m 9 X s 509 1242 m 9 X s 518 1242 m 9 X s 527 1242 m 8 X s 535 1242 m 9 X s 544
 1242 m 9 X s 553 1242 m 9 X s 562 1242 m 9 X s 571 1242 m 8 X s 579 1242 m 9 X s 588 1242 m 9 X s 597 1242 m 9 X s 606 1242 m 9 X s 615 1242 m 8 X s 623 1242 m 9 X s 632 1242 m 9 X s 641 1242 m 9 X s 650 1242 m 9 X s 659 1242 m 8 X s 667 1242 m 9 X
 s 676 1242 m 9 X s 685 1242 m 9 X s 694 1242 m 9 X s 703 1242 m 8 X s 711 1242 m 9 X s 720 1242 m 3 X 1 Y 6 X s 729 1243 m 9 X s 738 1243 m 9 X s 747 1243 m 8 X s 755 1243 m 2 X -2 Y 7 X s 764 1241 m 9 X s 773 1241 m 9 X s 782 1241 m 9 X s 791 1241
 m 8 X s 799 1241 m 9 X s 808 1241 m 9 X s 817 1241 m 9 X s 826 1241 m 9 X s 835 1241 m 8 X -2 Y s 843 1239 m 9 X s 852 1239 m 7 X -1 Y 2 X s 861 1238 m 2 X -1 Y 7 X s 870 1237 m 9 X s 879 1237 m 8 X s 887 1237 m 5 X -1 Y 4 X s 896 1236 m 4 X -2 Y 5
 X s 905 1234 m 9 X s 914 1234 m 9 X s 923 1234 m 8 X s 931 1234 m 8 X 1 -1 d s 940 1233 m 5 X 1 Y 1 X -1 Y 3 X -1 Y s 949 1232 m 7 X -1 Y 2 X s 958 1231 m 1 X 1 Y 8 X s 967 1232 m 2 X -2 Y 6 X s 975 1230 m 5 X 1 -1 d 1 X -1 Y 2 X s 984 1228 m 9 X s
 993 1228 m 3 X -1 Y 6 X s 1002 1227 m 3 X 1 -1 d 5 X s 1011 1226 m 2 X 1 -2 d 4 X -1 Y 1 X s 1019 1223 m 7 X -1 Y 1 X -1 Y 1 X s 1028 1221 m 2 X -1 Y 3 X -1 Y 2 X -2 Y 2 X s 1037 1217 m 4 X 1 -1 d 4 X s 1046 1216 m 2 X -1 Y 4 X -1 Y 3 X s 1055 1214
 m 7 X 1 -1 d 1 Y s 1063 1214 m 1 X -1 Y 2 X 1 -1 d 2 X 1 -1 d 2 X s 1072 1211 m 3 X -1 Y 6 X s 1081 1210 m 1 X -1 Y 2 X -1 Y 2 X 1 -1 d 3 X s 1090 1207 m 1 X -1 Y 1 1 d 1 X 1 -1 d -1 Y 1 X -1 Y 4 X s 1099 1204 m 2 X -1 Y 3 X -1 Y 3 X s 1107 1202 m 5
 X -1 Y 1 X -1 Y 2 X -1 Y 1 X s 1116 1199 m 1 X 1 -1 d 3 X -1 Y 4 X s 1125 1197 m -1 Y 1 X -1 Y 4 X 1 -1 d 3 X s 1134 1194 m 1 X -1 Y 3 X -1 Y 5 X s 1143 1192 m 2 X -1 Y 1 X -1 Y 1 X -1 Y 3 X -1 Y 1 X s 1151 1188 m 4 X -1 Y 5 X s 1160 1187 m 1 X -1 Y
 1 X -1 Y 3 X -2 Y 1 Y 1 -1 d 1 X -1 Y 2 X s 1169 1182 m 1 X -1 Y 3 X -1 Y 1 X -1 Y 2 X -3 Y 1 -1 d 1 X -1 Y s 1178 1174 m 1 X -1 Y 3 X 1 -1 d -1 Y 3 X -1 Y 1 X s 1187 1170 m -3 Y 1 1 d 3 X 1 -2 d 3 X s 1195 1166 m 1 X -3 Y 6 X 1 -1 d -1 Y 1 X s 1204
 1161 m 3 X 1 Y 1 X -2 Y 1 X -1 Y 1 X -1 Y 1 X -1 Y 2 X s 1213 1157 m 1 -1 d -2 Y 2 X -1 Y 6 X -1 Y s 1222 1152 m 7 X -1 Y 1 Y 1 X -2 Y 1 X s 1231 1150 m 4 X -1 Y 1 -1 d -1 Y 2 X 1 -2 d 1 Y s 1239 1146 m 1 X -1 Y 4 X -2 Y 2 X -2 Y 1 -2 d 1 X s 1248
 1139 m 1 X -1 Y 1 -1 d 1 X 1 1 d 3 X 1 Y 2 X s 1257 1139 m 1 -1 d 2 X -1 Y 1 X -1 Y 2 X -1 Y 1 -1 d -2 Y 1 X 1 Y -1 Y 1 X s 1266 1132 m 3 X -1 Y 1 X -1 Y 3 X -1 Y 1 -3 d -1 Y 1 -1 d s 1275 1124 m -1 Y 2 X -1 Y 3 X 1 -1 d 1 Y 1 -1 d 1 X s 1283 1121 m
 1 X -1 Y 1 Y 1 -1 d 1 Y 3 X -3 Y 2 X 1 -1 d 1 X s 1292 1117 m 1 -2 d 1 X 1 -1 d 4 X 1 Y 1 X -2 Y 1 -1 d s 1301 1112 m 1 X -1 Y 3 X -1 Y 1 X 1 -1 d 1 -1 d 2 Y 1 -2 d 1 X s 1310 1108 m 1 X -6 Y 2 X -1 Y 1 X -1 Y 2 X -1 Y 2 X -3 Y 1 X s 1319 1096 m 1
 -2 d 2 X -1 Y 1 Y -2 Y 2 X -1 Y 1 X -1 Y 1 -3 d 1 X -1 Y s 1327 1086 m 2 X -2 Y 1 1 d 1 X -2 Y 4 X -1 Y 1 X s 1336 1082 m 2 X 1 -1 d -2 Y 5 X -2 Y 1 X s 1345 1077 m 1 X 1 -1 d -2 Y 1 X -2 Y 1 -1 d 3 X -1 Y 1 1 d 1 -1 d -1 Y s 1354 1069 m 1 Y 1 X 1 Y
 1 X -1 Y 1 X -1 Y 1 X -2 Y 1 -1 d -4 Y 1 X -2 Y 2 X -2 Y 1 X s 1363 1058 m 1 X -2 Y 1 Y 1 X -1 Y 2 X -1 Y 2 X -1 Y 1 X 1 -1 d -2 Y s 1371 1051 m 1 X 1 -1 d 1 X 1 Y 1 X -1 Y 1 X -2 Y 1 X -1 Y 1 X 1 Y 2 X -3 Y s 1380 1045 m 1 2 d 1 X -3 Y 1 X -1 Y 1 X
 -1 Y 1 -1 d 1 -2 d -1 Y 1 X -1 Y 1 X -3 Y 1 -1 d s 1389 1033 m -1 Y 1 X -1 Y 1 -2 d -1 Y 2 X 1 -1 d 1 Y 1 -1 d 2 X -2 Y 2 Y 1 X -2 Y s 1398 1025 m 1 X -6 Y 3 X -2 Y 1 X 1 Y -1 Y 2 X -2 Y 1 X -2 Y 1 -1 d s 1407 1012 m -1 Y 1 -1 d 1 X -3 Y 1 X -3 Y 1
 Y 1 X -1 Y 1 -1 d -3 Y 1 X -2 Y 1 X -2 Y 1 X -1 Y s 1415 995 m 2 X -3 Y 1 -1 d -3 Y 1 -1 d -3 Y 1 1 d -2 Y 1 X -2 Y 1 X 1 -1 d -1 Y 1 Y 1 X -1 Y 10 Y -3 Y s 1424 986 m 1 X -1 Y 1 X -1 Y 1 X -1 Y 1 X -2 Y 1 -1 d -1 Y 1 -3 d -3 Y 1 X -3 Y 1 X 1 Y -1 Y
 1 X 2 Y -2 Y s 1433 970 m -1 Y 2 X -4 Y 1 X -2 Y 1 X -1 Y 1 X -2 Y 1 -1 d -1 Y 1 X 1 Y -1 Y 1 X -3 Y 1 -1 d -2 Y s 1442 952 m -2 Y 1 X -1 Y 1 X -2 Y 1 -1 d 1 X 1 Y -2 Y 1 X -1 Y 1 X -1 Y 1 X -2 Y 1 X -1 Y 1 X s 1451 940 m 1 -2 d -4 Y 1 X -1 Y 1 X -6
 Y 1 X -2 Y 1 Y 1 -1 d 1 Y -2 Y 1 X -1 Y 1 X -3 Y 1 -1 d -2 Y s 1459 917 m 1 X -3 Y 1 X 1 -1 d -1 Y 1 X -2 Y 1 X 1 -1 d 5 Y -2 Y 1 X -3 Y 1 X -1 Y 1 X -2 Y s 1468 906 m -1 Y 1 X -1 Y 1 X -1 Y 1 -1 d 1 X -2 Y 1 X -4 Y 1 X -1 Y 1 X -2 Y 1 X -1 Y 1 -1 d
 s 1477 891 m -2 Y 2 X -3 Y 1 X -1 Y 1 X -2 Y 1 X -1 Y 1 -1 d -1 Y 1 X -2 Y 1 -1 d 1 Y 1 -1 d s 1486 877 m -1 Y 1 X -2 Y 2 X -1 Y 1 X -1 Y 1 -1 d -1 Y 1 X -1 Y 1 X -6 Y 1 X -3 Y 1 X 1 Y s 1495 861 m -1 Y 1 X 1 Y -1 Y 1 X -1 Y 1 X -2 Y 1 X -1 Y 1 -1 d
 -5 Y 1 -1 d -3 Y 1 1 d 1 X 5 Y s 1503 852 m 1 X -2 Y 1 -1 d -2 Y 1 X 1 -1 d -2 Y 1 X -1 Y 1 X -1 Y 1 -1 d -1 Y 1 -1 d -1 Y 1 -2 d -3 Y s 1512 833 m 1 -1 d -1 Y 1 X -4 Y 1 X -1 Y 1 X -2 Y 1 X -4 Y 1 X -3 Y 1 X -2 Y 1 -1 d -2 Y 1 X -1 Y s 1521 811 m
 -1 Y 1 X -1 Y 1 -1 d -3 Y 1 X -4 Y 1 -1 d -2 Y 1 2 d -2 Y 1 -1 d 1 X -3 Y 1 X 1 Y -4 Y 1 X -2 Y s 1530 789 m -2 Y 1 X -5 Y 1 X -3 Y 1 X -3 Y 1 X -1 Y 1 -1 d -3 Y 1 X -1 Y 1 X -3 Y 1 X -2 Y 1 -1 d -1 Y s 1539 763 m -1 Y 1 X -2 Y 1 X -2 Y 1 -2 d -5 Y
 1 -1 d 1 1 d -4 Y 1 -2 d 1 -1 d -2 Y 1 X -1 Y s 1547 741 m 1 -1 d -4 Y 1 X -4 Y 1 X -7 Y 1 X -4 Y 1 X -2 Y 1 X -1 Y 1 X -1 Y 1 -1 d -3 Y 1 X -2 Y s 1556 711 m 1 -1 d -2 Y 1 X -1 Y 1 -1 d -3 Y 1 Y -2 Y 1 X -2 Y 1 X -1 Y 1 -1 d -3 Y 1 X -2 Y 1 X -2 Y
 1 X -1 Y s 1565 690 m -2 Y 1 X -1 Y 1 -1 d -1 Y 1 -2 d -2 Y 1 X -3 Y 1 X -2 Y 1 X -1 Y 1 -1 d -3 Y 1 -2 d -3 Y 1 X -1 Y s 1574 665 m -1 Y 1 X -3 Y 1 X -6 Y 1 -2 d -4 Y 1 X -2 Y 1 -1 d -3 Y 1 X -3 Y 1 -2 d -4 Y 1 X -2 Y 1 -1 d s 1583 631 m -2 Y 1 -1
 d -1 Y 1 X -1 Y 1 -1 d -3 Y 1 X -3 Y 1 X -2 Y 1 -1 d -2 Y 1 -1 d -1 Y 1 X -3 Y s 1591 609 m 1 X -4 Y 1 Y 1 -1 d -3 Y 1 X -2 Y 1 -1 d -3 Y 1 X -1 Y 1 -1 d -1 Y 1 Y 1 -1 d -4 Y 1 X -3 Y 1 X -5 Y s 1600 581 m -1 Y 1 X -4 Y 1 -2 d -3 Y 1 -1 d -3 Y 1 -1
 d -1 Y 1 X -1 Y 1 -2 d -1 Y 1 X -3 Y 1 X -3 Y 1 X -2 Y s 1609 553 m 1 X -1 Y 1 Y -4 Y 1 X -2 Y 1 X -1 Y 1 X -2 Y 1 X -1 Y 1 -1 d -2 Y 1 -1 d -2 Y 1 X -2 Y 1 X -1 Y s 1618 534 m -1 Y 1 -1 d -1 Y 1 X -3 Y 1 -1 d -2 Y 1 X -5 Y 1 X -5 Y 1 -1 d 1 -1 d -2
 Y 1 -1 d 1 X -1 Y s 1627 509 m -3 Y 1 X -5 Y 1 X -3 Y 1 X -1 Y 1 Y -5 Y 1 X -3 Y 1 X -1 Y 1 X -4 Y 1 -3 d -2 Y 1 X -1 Y s 1635 479 m 1 -1 d -2 Y 1 -1 d -2 Y 1 Y 1 -1 d -2 Y 1 X -3 Y 1 1 d -2 Y 1 X -2 Y 1 -1 d -2 Y 1 Y 1 -1 d -1 Y 1 X -4 Y s 1644 457
 m 1 X -1 Y 1 X -3 Y 1 X -3 Y 1 -2 d 1 X -1 Y 1 -1 d -2 Y 1 X -1 Y 1 X -1 Y 1 -1 d s 1653 441 m -1 Y 1 -1 d -3 Y 1 X -3 Y 1 X -3 Y 1 1 d -4 Y 1 X -3 Y 1 -1 d -1 Y 1 X -3 Y 1 X -2 Y 1 -1 d s 1662 416 m -1 Y 1 1 d -2 Y 1 Y -1 Y 1 X -1 Y 1 -1 d -2 Y 1
 -2 d 1 X -2 Y 1 -1 d -1 Y 1 X -1 Y 1 X -1 Y 1 X s 1671 402 m -1 Y 1 -1 d -1 Y 1 -1 d -1 Y 1 X -2 Y 1 -2 d 1 -1 d -1 Y 1 -1 d -1 Y 2 X -2 Y s 1679 387 m 1 X -1 Y 1 X -5 Y 1 X -2 Y 1 X -4 Y 1 -1 d 1 -1 d 1 X -1 Y 1 -1 d -2 Y 1 X -1 Y s 1688 368 m 1 X
 -2 Y 1 X -1 Y 1 Y 1 X -1 Y 1 X -2 Y 1 X -3 Y 1 -1 d -2 Y 1 X -1 Y 1 Y -1 Y 1 X -1 Y 1 X s 1697 355 m -1 Y 1 X -2 Y 1 X -1 Y 1 X -4 Y 1 X 1 -1 d -1 Y 1 X -1 Y 1 X -2 Y 1 X -1 Y 1 X -1 Y s 1706 340 m 1 -2 d -1 Y 1 -1 d -1 Y 1 X -1 Y 1 X -2 Y 1 X -1 Y
 1 X -2 Y 1 X -2 Y 1 X -1 Y 1 X s 1715 326 m -3 Y 1 X 1 -1 d 1 -1 d -1 Y 1 X -2 Y 1 X -3 Y 2 X -1 Y 1 Y -1 Y 1 -1 d s 1723 313 m 1 X -1 Y 1 X -1 Y 1 Y -1 Y 2 X -1 Y 1 X -1 Y 1 X -1 Y 1 X 1 -1 d -2 Y 1 X -1 Y s 1732 304 m -1 Y 1 X -1 Y 1 X -3 Y 1 X -2
 Y 1 X 1 -1 d -1 Y 1 X -2 Y 1 X -1 Y 1 -1 d -1 Y 1 X 1 Y -1 Y s 1741 290 m 2 X -1 Y 1 X -1 Y 1 X 1 -1 d -3 Y 1 X -2 Y 1 X 1 -1 d 1 X s 1750 281 m 1 X -1 Y 1 X -1 Y 1 X -1 Y 1 X 1 Y 1 -1 d 1 -1 d 1 -1 d -1 Y 1 X -1 Y 1 X s 1759 274 m -1 Y 1 X -3 Y 1 X
 -1 Y 2 X -1 Y 2 X 1 -1 d 1 -1 d -2 Y s 1767 264 m 1 X -2 Y 1 X -1 Y 1 X -1 Y 1 X -1 Y 2 X 1 -1 d 1 X -1 Y 1 X -1 Y s 1776 256 m 2 X -1 Y 2 X -1 Y 1 X -1 Y 1 X -1 Y 2 X -1 Y 1 X s 1785 251 m 1 X -1 Y 2 X -1 Y 2 X -1 Y 4 X s 1794 248 m -1 Y 1 X 1 -1 d
 -1 Y 2 X -1 Y 1 Y -1 Y 1 X -1 Y 1 X -1 Y 1 X 1 -1 d 1 -1 d s 1803 240 m 1 X -1 Y 2 X 1 -1 d 1 X 1 -1 d 1 X -1 Y 1 -1 d 1 X s 1812 235 m -2 Y 2 X -1 Y 2 X 1 -1 d 1 X -1 Y 2 X -1 Y s 1820 229 m 3 X -1 Y 1 X 1 -1 d 3 X -1 Y 1 X 1 Y s 1829 227 m 1 X -1
 Y 1 Y 1 -1 d 2 X -1 Y 1 X -1 Y 4 X -1 Y s 1838 223 m 2 X 1 -1 d 1 X -1 Y 3 X -1 Y 2 X s 1847 220 m -1 Y 4 X -1 Y 4 X -2 Y 1 X s 1856 216 m -1 Y 4 X -1 Y 4 X s 1864 214 m 1 X -1 Y 2 X 1 -1 d 4 X 1 -1 d s 1873 211 m 4 X 1 -1 d 4 X s 1882 210 m -1 Y 1
 Y -1 Y 6 X 1 -1 d 1 Y -1 Y 2 X s 1891 208 m 2 X -1 Y 1 X 1 Y 6 X s 1900 208 m -1 Y 8 X s 1908 207 m 3 X -1 Y 3 X -1 Y 3 X s 1917 205 m 2 X 1 -1 d 1 Y 6 X s 1926 205 m 1 X -1 Y 1 X 1 Y 2 X 1 -1 d 1 Y -1 Y 4 X s 1935 204 m 9 X s 1944 204 m 8 X s 1952
 204 m 2 X -1 Y 7 X s 1961 203 m 9 X s 1970 203 m 9 X s 1979 203 m 9 X s 1988 203 m -1 Y 8 X s 1996 202 m 9 X s 2005 202 m 9 X s 2014 202 m 9 X s 2023 202 m 9 X s 2032 202 m 8 X s 2040 202 m 1 X s 1 0 0 c black 1 0 0 c 245 1243 m 9 X s 254 1243 m 9 X
 s 263 1243 m 8 X s 271 1243 m 9 X s 280 1243 m 9 X s 289 1243 m 9 X s 298 1243 m 9 X s 307 1243 m 8 X s 315 1243 m 9 X s 324 1243 m 9 X s 333 1243 m 9 X s 342 1243 m 9 X s 351 1243 m 8 X s 359 1243 m 9 X s 368 1243 m 1 X -1 Y 8 X s 377 1242 m 9 X s
 386 1242 m 9 X s 395 1242 m 8 X s 403 1242 m 9 X s 412 1242 m 9 X s 421 1242 m 4 X -1 Y 5 X s 430 1241 m 9 X s 439 1241 m 8 X s 447 1241 m 7 X -1 Y 2 X s 456 1240 m 9 X s 465 1240 m -1 Y 9 X s 474 1239 m 8 X -1 Y 1 X s 483 1238 m 8 X s 491 1238 m 6
 X -1 Y 3 X s 500 1237 m 9 X s 509 1237 m 1 X 1 -1 d 7 X s 518 1236 m 2 X 1 -1 d 6 X s 527 1235 m 1 X -1 Y 7 X s 535 1234 m 5 X -1 Y 4 X s 544 1233 m 1 X -1 Y 5 X -1 Y 3 X s 553 1231 m 5 X -1 Y 4 X s 562 1230 m 6 X -1 Y 3 X s 571 1229 m -1 Y 5 X -1 Y
 3 X s 579 1227 m 1 X 1 -1 d 3 X -1 Y 4 X -1 Y s 588 1224 m 6 X -1 Y 3 X s 597 1223 m 1 X -1 Y 2 X 1 -1 d 4 X -1 Y 1 X s 606 1220 m 1 X 1 -1 d 3 X -1 Y 4 X s 615 1218 m 1 -1 d 4 X -1 Y 2 X 1 -1 d s 623 1215 m 3 X -1 Y 1 X 1 -1 d 3 X 1 -1 d s 632 1212
 m 3 X -1 Y 1 X 1 -1 d 1 X -1 Y 3 X s 641 1209 m 1 -1 d 4 X -1 Y 3 X -1 Y 1 X s 650 1206 m 1 X -1 Y 5 X -1 Y 2 X -1 Y 1 X s 659 1203 m 3 X -1 Y 2 X -1 Y 3 X -1 Y s 667 1200 m 1 X -1 Y 3 X -1 Y 2 X -1 Y 2 X 1 -1 d s 676 1196 m 2 X -1 Y 3 X -1 Y 1 X 1
 -1 d 1 X 1 -1 d s 685 1192 m -1 Y 2 X -1 Y 1 X -1 Y 3 X -1 Y 1 X -1 Y 2 X s 694 1187 m -1 Y 1 X 1 -1 d 1 X -1 Y 1 -1 d 2 X 1 -1 d 1 X -1 Y 1 X s 703 1181 m 1 X -1 Y 1 X -1 Y 1 X -1 Y 2 X -1 Y 3 X -1 Y s 711 1176 m 1 X -1 Y 1 X -1 Y 1 X -1 Y 1 X -1 Y
 1 X -1 Y 2 X 1 -1 d 1 X s 720 1170 m 1 -1 d 2 X -1 Y 1 X -1 Y 2 X -1 Y 1 X 1 -1 d 1 X s 729 1165 m -1 Y 2 X 1 -1 d -1 Y 1 X 1 -1 d 1 X -1 Y 2 X -1 Y 1 X s 738 1159 m -1 Y 2 X -1 Y 1 -1 d 1 -1 d 1 X -1 Y 1 -1 d 1 X -1 Y 1 -1 d 1 X s 747 1151 m -1 Y 2
 X -1 Y 1 X -1 Y 1 X 1 -1 d 2 X -1 Y 1 -1 d s 755 1145 m 1 X -1 Y 1 X 1 -1 d -1 Y 2 X 1 -2 d 1 X -1 Y 1 X 1 -1 d s 764 1138 m -1 Y 2 X -1 Y 1 X -1 Y 2 X -1 Y 2 X -1 Y 1 X -1 Y 1 X -1 Y s 773 1131 m 1 X -1 Y 1 X 1 -1 d 1 X -1 Y 1 X -1 Y 1 X -2 Y 1 X 1
 -1 d 1 X s 782 1124 m -1 Y 1 X -1 Y 1 X -1 Y 1 X -1 Y 1 X 1 -1 d -1 Y 1 X -1 Y 2 X -1 Y 1 -1 d s 791 1115 m 1 X -1 Y 1 X -1 Y 1 X -1 Y 1 -1 d -1 Y 1 X -1 Y 1 X -1 Y 1 X -1 Y 1 X -1 Y s 799 1106 m 2 X -2 Y 1 X 1 -1 d 1 X -2 Y 1 -1 d 1 -1 d -1 Y 1 X
 -1 Y 1 X -1 Y s 808 1096 m 1 X 1 -1 d -1 Y 1 X -1 Y 1 X -3 Y 1 X -1 Y 1 -1 d 1 X -1 Y 1 X -1 Y 1 X -1 Y s 817 1085 m -1 Y 1 X -1 Y 1 X -1 Y 1 X 1 -1 d 1 X -1 Y 1 X -1 Y 1 X -1 Y 1 X 1 -1 d s 826 1077 m 1 X -2 Y 1 X -1 Y 1 X -2 Y 2 X -3 Y 1 X -1 Y 1
 X -1 Y 1 X -1 Y 1 X s 835 1066 m -1 Y 1 -1 d -1 Y 1 X -1 Y 1 X -2 Y 1 X -2 Y 1 X -1 Y 1 X -2 Y 1 X -1 Y 1 X -1 Y s 843 1053 m 1 X -1 Y 1 -1 d -1 Y 1 X -2 Y 1 X -1 Y 1 X -1 Y 1 X -1 Y 1 X -1 Y 1 -1 d 1 -1 d -1 Y s 852 1041 m 1 -1 d -1 Y 1 X -1 Y 1 X
 -1 Y 1 X -2 Y 1 X -1 Y 1 -1 d -1 Y 1 X -5 Y 1 X 1 -1 d -1 Y s 861 1025 m 1 -1 d 1 -1 d -1 Y 1 X -3 Y 1 X -1 Y 1 X -2 Y 1 X -1 Y 1 -1 d 1 X -2 Y 1 X s 870 1012 m -1 Y 1 X -1 Y 1 X -1 Y 1 X -3 Y 1 X -1 Y 1 -1 d -1 Y 1 X -2 Y 1 X -1 Y 1 X -1 Y 1 X s
 879 999 m -2 Y 1 X -2 Y 1 -1 d -1 Y 1 -1 d 1 -1 d -2 Y 1 X -1 Y 1 X -1 Y 1 X -2 Y 1 X -2 Y s 887 983 m 1 X -1 Y 1 X -2 Y 1 X -3 Y 1 X -1 Y 1 -1 d -1 Y 1 -1 d -2 Y 1 X -3 Y 1 X -2 Y 1 -2 d -1 Y s 896 963 m -1 Y 1 X -2 Y 1 X -3 Y 1 -1 d -1 Y 1 X -2 Y
 1 X -1 Y 1 X -1 Y 1 -1 d -2 Y 1 X -2 Y 1 X -1 Y s 905 945 m 1 X -2 Y 1 X -2 Y 1 X -1 Y 1 -1 d -2 Y 1 X -2 Y 1 X -2 Y 1 X -1 Y 1 X -4 Y 1 -1 d s 914 927 m -1 Y 1 -1 d -2 Y 1 X -1 Y 1 -1 d -2 Y 1 X -3 Y 1 X -2 Y 1 X -4 Y 1 X -2 Y 1 X -2 Y 1 X s 923
 906 m -2 Y 1 X -2 Y 1 X -2 Y 1 -1 d -2 Y 1 X -2 Y 1 -1 d -1 Y 1 X -4 Y 1 X -2 Y 1 -1 d -2 Y s 931 884 m 1 X -1 Y 1 X -2 Y 1 -1 d -2 Y 1 -2 d -1 Y 1 X -2 Y 1 X -1 Y 1 -1 d -1 Y 1 -1 d -2 Y 1 X -1 Y s 940 866 m -1 Y 1 X -2 Y 1 X -1 Y 1 -1 d -1 Y 1 -1
 d -1 Y 1 X -2 Y 1 -1 d -2 Y 1 X -3 Y 1 -1 d -1 Y 1 -1 d -1 Y s 949 846 m 1 X -2 Y 1 X -2 Y 1 X -2 Y 1 -1 d -1 Y 1 -1 d -1 Y 1 X -3 Y 1 X -1 Y 1 -1 d -2 Y 1 X -1 Y s 958 828 m -1 Y 1 X -4 Y 1 X -1 Y 1 -1 d -2 Y 1 -1 d -1 Y 1 X -2 Y 1 -1 d -1 Y 1 X -2
 Y 1 X -3 Y 1 X s 967 808 m -2 Y 1 X -4 Y 1 X -2 Y 1 X -2 Y 1 X -2 Y 1 X -2 Y 1 X -2 Y 1 -1 d -1 Y 1 X -2 Y s 975 788 m 1 X 1 -1 d -2 Y 1 X -1 Y 1 -1 d -1 Y 1 -1 d -2 Y 1 -1 d -1 Y 1 -1 d -2 Y 1 X -2 Y 1 X -2 Y s 984 770 m 1 X -2 Y 1 -1 d -3 Y 1 X -3
 Y 1 X -1 Y 1 -1 d -1 Y 1 -1 d -1 Y 1 -1 d -1 Y 1 -1 d -2 Y 1 X -3 Y s 993 748 m -1 Y 1 X -2 Y 1 -1 d -2 Y 1 X -2 Y 1 -1 d -2 Y 1 X -1 Y 1 X -2 Y 1 -1 d -2 Y 1 X -1 Y 1 -1 d s 1002 729 m -1 Y 1 -1 d -3 Y 1 X -4 Y 1 X -2 Y 1 X -2 Y 1 -1 d -2 Y 1 X -2
 Y 1 X -2 Y 1 X -2 Y 1 -1 d s 1011 706 m -1 Y 1 -1 d -2 Y 1 X -2 Y 1 X -3 Y 1 X -2 Y 1 -1 d -2 Y 1 X -3 Y 1 -1 d -1 Y 1 -1 d -1 Y s 1019 685 m 1 -1 d -2 Y 1 -1 d -2 Y 1 X -1 Y 1 X -3 Y 1 X -2 Y 1 -1 d -2 Y 1 X -2 Y 1 X -1 Y 1 -1 d -1 Y s 1028 665 m
 -1 Y 1 X -1 Y 1 -1 d -3 Y 1 X -2 Y 1 X -3 Y 1 X -1 Y 1 X -1 Y 1 -1 d -1 Y 1 X -2 Y 1 X -1 Y s 1037 647 m -1 Y 1 X -1 Y 1 -1 d -1 Y 1 -1 d -1 Y 1 X -3 Y 1 X -2 Y 1 X -1 Y 1 -1 d -1 Y 1 X -2 Y 1 -1 d s 1046 630 m -2 Y 1 X -2 Y 1 X -1 Y 1 -1 d -1 Y 1
 -1 d -1 Y 1 X -2 Y 1 -2 d -1 Y 1 -1 d -2 Y 1 X -2 Y 1 -1 d s 1055 610 m -1 Y 1 X -2 Y 1 -1 d -1 Y 1 X -2 Y 1 -1 d -2 Y 1 -1 d -1 Y 1 -1 d -2 Y 1 X -1 Y 1 -1 d -1 Y s 1063 592 m 1 X -1 Y 1 X -2 Y 1 -1 d -1 Y 1 -1 d -2 Y 1 X -1 Y 1 X -1 Y 1 X -1 Y 1
 -1 d -1 Y 1 -1 d -1 Y s 1072 577 m 1 -1 d -1 Y 1 X -2 Y 1 X -1 Y 1 -1 d -1 Y 1 X -2 Y 1 X -1 Y 1 X -2 Y 1 X -3 Y 1 X -1 Y s 1081 561 m -1 Y 1 X -1 Y 1 X -1 Y 1 X -2 Y 1 X -1 Y 1 -1 d -2 Y 1 X -1 Y 1 -1 d -1 Y 1 -1 d -2 Y 1 X s 1090 546 m -1 Y 1 -2 d
 -2 Y 1 X 1 -1 d -2 Y 1 X -1 Y 1 X -1 Y 1 -1 d 1 -1 d -1 Y 1 X -2 Y 1 X s 1099 531 m -1 Y 1 X -1 Y 1 -1 d -1 Y 1 -1 d -3 Y 1 X -2 Y 1 X -2 Y 1 Y 1 -1 d -2 Y 1 X -1 Y 1 X -1 Y s 1107 515 m 1 X -1 Y 1 -1 d -2 Y 1 X 1 -1 d -2 Y 1 X -3 Y 1 X 1 -1 d -1 Y
 1 X -1 Y 1 -1 d s 1116 501 m -1 Y 1 X -2 Y 1 -1 d -1 Y 1 -2 d -1 Y 1 -1 d 1 -1 d -1 Y 1 X -2 Y 1 -1 d -2 Y 1 X -1 Y 1 X -1 Y s 1125 483 m -1 Y 1 X -1 Y 1 X -2 Y 1 X -1 Y 1 X -1 Y 1 X -2 Y 2 X -2 Y 1 X -2 Y 1 X s 1134 471 m -1 Y 1 X -1 Y 1 -1 d 1 -1
 d -1 Y 1 X -1 Y 1 X -2 Y 1 -1 d -1 Y 1 X -1 Y 1 X -1 Y 1 X s 1143 459 m -1 Y 1 X -1 Y 1 X -1 Y 1 -2 d -1 Y 1 -1 d -1 Y 1 X -1 Y 1 X 1 -1 d -1 Y 1 X -2 Y s 1151 446 m 1 X -1 Y 1 X -2 Y 1 X -1 Y 1 X -2 Y 1 X -1 Y 1 -1 d 1 X -2 Y 1 X -1 Y 1 X -2 Y s
 1160 433 m 1 X -1 Y 1 X -1 Y 1 X -1 Y 1 X -1 Y 1 X -1 Y 1 X -3 Y 1 X 1 -1 d -1 Y 1 X s 1169 423 m 1 -1 d -1 Y 1 X -1 Y 1 X -1 Y 1 X -1 Y 1 X -2 Y 1 X -1 Y 2 X -1 Y 1 X -1 Y s 1178 413 m 1 -1 d 1 X -1 Y 1 X -1 Y 1 -1 d 1 X -3 Y 1 X -1 Y 1 X -1 Y 1 X
 -1 Y 1 X s 1187 403 m -1 Y 1 X -1 Y 2 X -1 Y 1 X -1 Y 1 X -1 Y 1 X -1 Y 1 X -1 Y 1 X s 1195 396 m 1 -1 d -1 Y 1 X 1 -1 d 1 X -1 Y 1 X -1 Y 1 X -1 Y 1 X -1 Y 1 X -1 Y 1 -1 d s 1204 387 m 1 -1 d 1 X -1 Y 1 X -1 Y 1 X -1 Y 1 X -1 Y 1 X 1 -1 d 1 X -1 Y
 1 X -1 Y s 1213 379 m 1 -1 d 1 X -1 Y 1 X -1 Y 1 X -1 Y 2 X -1 Y 1 X -1 Y 1 X 1 -1 d s 1222 372 m -1 Y 1 X -1 Y 2 X -2 Y 2 X -1 Y 2 X -1 Y 1 -1 d 1 X s 1231 365 m -1 Y 1 X -1 Y 2 X -1 Y 1 X -1 Y 2 X -1 Y 1 -1 d -1 Y 1 X -1 Y s 1239 357 m 2 X -1 Y 2
 X -1 Y 1 X -1 Y 1 X -1 Y 1 X -1 Y 1 X 1 -1 d s 1248 351 m 1 X -1 Y 1 X 1 -1 d -1 Y 1 X -1 Y 1 X -1 Y 2 X -1 Y 1 X 1 -1 d s 1257 344 m 1 -1 d -1 Y 1 X 1 -1 d 1 X -2 Y 1 X -1 Y 2 X 1 -1 d -1 Y 1 X s 1266 336 m 1 -1 d -1 Y 1 -1 d 2 X -1 Y 1 X 1 -1 d 1
 X -1 Y 1 X -1 Y 1 X s 1275 329 m -1 Y 2 X -1 Y 1 X -1 Y 2 X -1 Y 2 X -1 Y 1 X s 1283 324 m 1 X -2 Y 2 X -1 Y 2 X -1 Y 3 X -1 Y 1 X s 1292 319 m -1 Y 2 X -1 Y 2 X -1 Y 1 X 1 -1 d 2 X -1 Y 1 X s 1301 314 m 1 -1 d 1 X -1 Y 2 X -1 Y 2 X 1 -1 d 2 X -1 Y
 s 1310 309 m -1 Y 4 X -1 Y 2 X -1 Y 1 X -1 Y 1 X -1 Y 1 X s 1319 304 m 1 X 1 -1 d 3 X -1 Y 3 X s 1327 302 m 1 -1 d 1 X 1 -1 d 4 X -3 Y 2 X s 1336 297 m 3 X -1 Y 1 X 1 -1 d 2 X -1 Y 2 X -1 Y s 1345 293 m 3 X -1 Y 2 X -2 Y 2 X -1 Y 2 X s 1354 289 m 1
 X -1 Y 2 X -1 Y 3 X -1 Y 2 X -2 Y 1 X s 1363 284 m 3 X -1 Y 1 X -1 Y 4 X -1 Y s 1371 281 m 3 X -1 Y 2 X -1 Y 2 X 1 -1 d 1 X s 1380 278 m 3 X -1 Y 3 X -1 Y 3 X s 1389 276 m 1 X -1 Y 2 X -1 Y 1 X -1 Y 1 X -1 Y 4 X s 1398 272 m -1 Y 3 X -1 Y 3 X 1 -1 d
 2 X s 1407 269 m 2 X -1 Y 3 X -1 Y 3 X s 1415 267 m 3 X -1 Y 6 X -2 Y s 1424 264 m 5 X -1 Y 3 X -1 Y 1 X s 1433 262 m 2 X -1 Y 2 X -1 Y 5 X s 1442 260 m 1 X -1 Y 3 X -1 Y 3 X -1 Y 2 X s 1451 257 m 2 X -1 Y 4 X -1 Y 2 X s 1459 255 m 2 X -1 Y 7 X -1 Y
 s 1468 253 m 2 X -1 Y 5 X -1 Y 2 X s 1477 251 m 3 X -1 Y 3 X 1 -1 d 2 X -1 Y s 1486 248 m 4 X -1 Y 3 X -1 Y 2 X s 1495 246 m 3 X -1 Y 4 X -1 Y 1 X s 1503 244 m 1 X -1 Y 4 X -1 Y 4 X -1 Y s 1512 241 m 2 X -1 Y 7 X s 1521 240 m 1 X -1 Y 6 X -2 Y 2 X s
 1530 237 m 3 X -1 Y 4 X -1 Y 2 X s 1539 235 m 4 X -1 Y 4 X s 1547 234 m 3 X -1 Y 5 X 1 -1 d s 1556 232 m 2 X -1 Y 7 X s 1565 231 m -1 Y 5 X -1 Y 4 X s 1574 229 m 2 X -1 Y 7 X s 1583 228 m -1 Y 6 X -1 Y 2 X s 1591 226 m 1 X 1 -1 d 4 X -1 Y 3 X s 1600
 224 m 2 X -1 Y 5 X -1 Y 2 X s 1609 222 m 3 X -1 Y 5 X -1 Y 1 X s 1618 220 m 6 X -1 Y 3 X s 1627 219 m 8 X s 1635 219 m 3 X -1 Y 5 X -1 Y 1 X s 1644 217 m 6 X -1 Y 3 X s 1653 216 m 4 X -1 Y 5 X s 1662 215 m 9 X s 1671 215 m 2 X 1 -1 d 5 X s 1679 214
 m 1 X -1 Y 2 X -1 Y 6 X s 1688 212 m 9 X s 1697 212 m -1 Y 4 X -1 Y 4 X 1 -1 d s 1706 209 m 9 X s 1715 209 m 1 X -1 Y 7 X s 1723 208 m 6 X -1 Y 3 X s 1732 207 m 8 X -1 Y 1 X s 1741 206 m 9 X s 1750 206 m 5 X -1 Y 4 X s 1759 205 m 8 X s 1767 205 m 9
 X s 1776 205 m 9 X s 1785 205 m 3 X -1 Y 6 X s 1794 204 m 9 X s 1803 204 m 9 X s 1812 204 m 8 X s 1820 204 m 9 X s 1829 204 m 5 X -1 Y 4 X s 1838 203 m 9 X s 1847 203 m 9 X s 1856 203 m 8 X s 1864 203 m 9 X s 1873 203 m 9 X s 1882 203 m 9 X s 1891
 203 m 9 X s 1900 203 m 8 X s 1908 203 m 9 X s 1917 203 m 9 X s 1926 203 m 9 X s 1935 203 m 9 X s 1944 203 m 8 X s 1952 203 m 9 X s 1961 203 m 8 X 1 -1 d s 1970 202 m 9 X s 1979 202 m 9 X s 1988 202 m 8 X s 1996 202 m 9 X s 2005 202 m 9 X s 2014 202
 m 9 X s 2023 202 m 9 X s 2032 202 m 8 X s 2040 202 m 1 X s 0 0.666667 0 c 1 1 1 c black 0 0.666667 0 c 245 1033 m 9 X s 254 1033 m 9 X s 263 1033 m 8 X s 271 1033 m 9 X s 280 1033 m 9 X s 289 1033 m 9 X s 298 1033 m 9 X s 307 1033 m 8 X s 315 1033 m
 9 X s 324 1033 m 9 X s 333 1033 m 9 X s 342 1033 m 9 X s 351 1033 m 8 X s 359 1033 m 9 X s 368 1033 m 9 X s 377 1033 m 9 X s 386 1033 m 9 X s 395 1033 m 8 X s 403 1033 m 9 X s 412 1033 m 9 X s 421 1033 m 9 X s 430 1033 m 8 X 1 Y 1 X s 439 1034 m 8 X
 s 447 1034 m 9 X s 456 1034 m 9 X s 465 1034 m 9 X s 474 1034 m 9 X s 483 1034 m 8 X s 491 1034 m 9 X s 500 1034 m 9 X s 509 1034 m 7 X 1 Y 2 X s 518 1035 m 9 X s 527 1035 m 8 X s 535 1035 m 9 X s 544 1035 m 7 X 1 Y 2 X s 553 1036 m 9 X s 562 1036 m
 9 X s 571 1036 m 8 X s 579 1036 m 4 X 1 Y 5 X s 588 1037 m 9 X s 597 1037 m 4 X 1 Y 5 X s 606 1038 m 9 X s 615 1038 m 6 X 1 Y 2 X s 623 1039 m 9 X s 632 1039 m 3 X 1 Y 6 X s 641 1040 m 8 X 1 Y 1 X s 650 1041 m 9 X s 659 1041 m 5 X 1 Y 3 X s 667 1042
 m 9 X s 676 1042 m 1 X 1 Y 8 X s 685 1043 m 1 Y 8 X 1 Y 1 X s 694 1045 m 8 X 1 Y 1 X s 703 1046 m 6 X 1 Y 2 X s 711 1047 m 4 X 1 Y 5 X s 720 1048 m 3 X 1 Y 5 X 1 Y 1 X s 729 1050 m 6 X 1 Y 3 X s 738 1051 m 3 X 1 Y 5 X 1 Y 1 X s 747 1053 m 7 X 1 Y 1
 X s 755 1054 m 2 X -1 Y 1 X 1 Y 6 X 1 Y s 764 1055 m 7 X 1 Y 2 X s 773 1056 m 3 X 1 Y 1 -1 d 1 Y 4 X 1 Y 1 X s 782 1058 m 4 X 1 1 d 4 X s 791 1059 m 1 Y 4 X 1 Y 4 X s 799 1061 m 1 X 1 1 d 3 X 1 Y 4 X s 808 1063 m 1 X 1 Y 3 X 1 Y 3 X 1 Y 2 X s 817
 1066 m 3 X 1 Y 5 X 1 Y 1 X s 826 1068 m 3 X 1 Y 3 X 1 Y 3 X s 835 1070 m 1 X 1 Y 3 X 1 Y 2 X 1 Y 2 X -1 Y s 843 1072 m 2 X 1 Y 3 X 1 Y 3 X 1 1 d s 852 1075 m 3 X 1 Y 3 X 1 Y 1 X 1 Y 2 X s 861 1078 m 4 X 1 Y 2 X 1 Y 3 X s 870 1080 m 1 1 d 2 X 1 Y 3 X
 1 Y 3 X s 879 1083 m 1 Y 2 X 1 Y 2 X 1 Y 3 X 1 Y 1 X s 887 1087 m 2 X 1 Y 1 X 1 Y 3 X 1 Y 1 X 1 Y 1 X 1 1 d s 896 1092 m 2 X 1 Y 2 X 1 Y -1 Y 2 X 1 Y 2 X 1 Y 1 X s 905 1095 m 1 X 1 Y 2 X 1 1 d 1 X 1 Y 2 X 1 1 d 1 Y 1 X s 914 1100 m 1 X 1 Y 2 X 1 Y 1
 X 1 1 d 1 X 1 Y 1 X 1 Y 2 X s 923 1105 m 1 Y 2 X 1 Y 2 X 1 Y 2 X 1 Y 1 X 1 Y 1 X s 931 1110 m 1 1 d 2 X 1 Y 1 1 d 2 X 1 Y 2 X 1 Y 1 X s 940 1115 m 1 X 1 Y 2 X 1 Y -1 Y 1 1 d 1 X 1 Y 2 X 1 Y 1 X 1 Y 1 X s 949 1120 m 2 X 1 Y 1 X 1 1 d 2 X 1 Y 2 X 1 Y
 1 X s 958 1124 m 1 X 2 Y 1 X 1 1 d 1 X 1 1 d 1 X 1 Y 2 X 1 Y 1 X s 967 1130 m 1 Y 1 X 1 Y 1 X -1 Y 1 X 1 Y 2 X 1 Y 1 X 1 Y 2 X 1 Y s 975 1135 m 2 X 1 Y 3 X 1 Y 1 X 1 1 d -1 Y 1 Y 2 X 1 Y s 984 1139 m 2 X 1 Y 1 X 1 Y 1 X 1 Y 2 X 1 Y 1 X 1 1 d 1 X 1 Y
 s 993 1145 m 1 X 1 Y 1 X 1 Y 1 X 1 1 d 2 X 1 Y 1 X 1 Y 2 X s 1002 1150 m 1 Y 1 X 1 Y 1 X 1 Y 1 X 1 Y 1 -1 d 1 Y 1 X 1 Y 2 X 1 Y 1 X 1 Y 1 X s 1011 1157 m 1 X 1 Y 1 X 1 Y 1 -2 d 1 Y 1 X 1 Y 1 X 1 Y 1 X 1 Y 2 X 1 Y s 1019 1162 m 1 X 1 Y 2 X 1 Y 1 X 1
 Y 1 X 1 1 d 1 X 1 Y -1 Y 1 Y 1 X -1 Y 1 Y 1 X s 1028 1167 m 1 X 1 Y 1 X 1 Y -1 Y 1 X 1 Y 1 X 1 Y 1 X -1 Y 1 X 1 Y 1 X -1 Y 1 Y 1 -1 d 1 Y 1 X s 1037 1170 m 1 Y 2 X 1 Y 2 X 1 Y 1 X 1 Y 2 X 1 Y 1 X 1 1 d s 1046 1176 m 1 X 1 Y 2 X 1 Y 1 X -1 Y 1 Y 1 X
 1 Y 1 X 1 Y -1 Y 1 X 1 Y 1 X 1 Y 1 X s 1055 1181 m 1 1 d 1 X 1 Y 2 X 1 Y 1 1 d 1 X 1 Y 2 X 1 Y s 1063 1187 m 2 X 1 Y 3 X 1 Y 2 X 1 Y 2 X 1 Y s 1072 1191 m 2 X 1 Y 2 X 1 Y 2 X 1 Y -1 Y 1 1 d 1 X 1 Y 1 X 1 Y s 1081 1196 m 3 X 1 Y -1 Y 1 X 1 Y 1 X 1 Y
 2 X 1 Y 2 X 1 Y s 1090 1200 m -1 Y 1 Y 1 X 1 Y 2 X 1 Y 2 X -1 Y 1 X 1 Y 2 X 1 Y 1 X s 1099 1203 m 1 X 1 Y 1 X 1 1 d 1 Y 2 X 1 Y -1 Y 1 1 d 1 X 1 1 d s 1107 1208 m 1 X 1 Y 1 X 1 Y 2 X 1 Y 5 X 1 Y s 1116 1212 m 1 X 1 Y 1 X 1 1 d 1 X 1 1 d 1 X 1 1 d 1
 Y 2 X 1 Y s 1125 1218 m -1 Y 2 X 1 Y 2 X 1 Y 1 -1 d 1 Y 2 X 1 Y -1 Y 1 Y 2 X s 1134 1220 m 1 1 d 2 X 1 Y 1 X -1 Y 1 Y 2 X 1 Y 2 X 1 Y 1 X s 1143 1224 m 1 X 1 Y 1 X -1 Y 1 Y 1 X 1 1 d -1 Y 1 1 d 3 X 1 Y s 1151 1227 m 2 X 1 Y 1 X 1 Y 2 X 1 1 d 1 X 1 1
 d 1 X s 1160 1231 m 1 X 1 Y -1 Y 2 X 1 Y 2 X -1 Y 1 Y 1 -1 d 1 Y 2 X 1 Y 1 X s 1169 1233 m 2 X 1 1 d 4 X -2 Y 1 X 1 Y 1 X -1 Y s 1178 1232 m 1 Y 1 X -1 Y 1 X 1 Y 3 X 1 Y -1 Y 1 X 1 Y 3 X s 1187 1234 m -2 Y 1 Y 1 1 d 3 X 1 -1 d 1 Y 2 X 1 Y 1 X s 1195
 1235 m 1 X -1 Y 4 X 1 Y 2 X 1 Y 1 X -1 Y 1 Y 1 X s 1204 1236 m 2 X 1 Y 2 X 1 Y -1 Y 1 X -1 Y 1 Y 1 X -1 Y 3 X s 1213 1236 m 1 X -1 Y 1 X 1 Y 4 X 1 Y 3 X s 1222 1237 m 1 X 1 Y 3 X 1 1 d 2 X 1 Y 1 X -1 Y 1 X s 1231 1239 m 1 1 d -1 Y 1 X 1 Y 2 X 1 Y -1
 Y 1 -1 d 1 X 1 Y 1 X 1 -1 d 1 Y s 1239 1240 m 4 X 1 1 d -1 Y 1 Y -2 Y 1 X 1 Y 1 X -1 Y 1 -1 d 1 X s 1248 1238 m 1 X 1 Y -1 Y 2 X 1 1 d 1 Y 3 X 1 Y 2 X 1 Y s 1257 1242 m 3 X 1 Y -1 Y 2 X 1 Y -1 Y 1 X 1 Y -1 Y 1 X -1 Y 2 X s 1266 1241 m 1 Y 5 X 1 1 d
 1 X -1 Y 1 -1 d 1 -1 d s 1275 1240 m -1 Y 1 Y 1 -1 d 1 Y 4 X 1 Y 1 -1 d 1 X 1 Y 1 X s 1283 1241 m 1 X -1 Y 1 Y 1 X 1 Y 1 X -1 Y 1 1 d 1 X -2 Y 4 X 1 Y s 1292 1241 m 1 -1 d -1 Y 1 Y -1 Y 1 X 1 Y 1 -1 d 1 Y 1 X -1 Y 1 Y 2 X 1 Y 2 X -1 Y 1 X s 1301
 1240 m 5 X 1 -1 d 1 X 1 Y 1 -1 d 1 X 1 Y s 1310 1240 m -1 Y 1 Y 1 X -4 Y 5 X -1 Y 1 Y 2 X -2 Y 1 X s 1319 1234 m 1 -1 d 1 Y 2 X -1 Y 1 Y -1 Y 3 X -1 Y 1 -2 d 1 X s 1327 1230 m 1 -1 d 1 X 1 Y -1 Y 5 X -1 Y 2 Y 1 X 1 -1 d 1 Y s 1336 1230 m 2 X 1 -1 d
 -1 Y 2 X 1 Y 3 X -1 Y 1 X s 1345 1228 m 2 X -1 Y 1 X -2 Y 1 X -1 Y 1 Y 1 X 1 Y 2 X 1 1 d -1 Y 1 X s 1354 1226 m 1 X 1 Y 1 X -1 Y 2 X -1 Y 1 -1 d -2 Y 1 X -1 Y 3 X s 1363 1221 m 1 X -2 Y 1 Y 5 X -1 Y 1 Y 1 X 1 -1 d -1 Y s 1371 1218 m 5 X -1 Y 4 X -1
 Y s 1380 1216 m 1 1 d 1 X -2 Y 2 X -1 Y 1 X 1 -2 d 2 X -3 Y 1 X s 1389 1209 m -1 Y 1 X 1 -1 d -1 Y 1 X 1 1 d 4 X -1 Y 1 Y 1 X -1 Y s 1398 1206 m 1 Y 1 X -4 Y 1 X -1 Y 1 X 1 Y 1 X -2 Y 1 X 1 Y 2 X -1 Y 1 X -2 Y 1 Y 1 -1 d s 1407 1199 m 1 -1 d 1 X -2
 Y 1 X -1 Y 1 X -1 Y 1 X -2 Y 1 X -1 Y 1 X -1 Y 1 -1 d s 1415 1189 m 2 X -2 Y 1 -1 d -2 Y 1 X -2 Y 1 1 d -2 Y 1 X -1 Y 1 X 1 -1 d 1 Y 1 X -1 Y 7 Y -2 Y s 1424 1184 m 2 X -1 Y 1 X -1 Y 1 X -1 Y 1 X -1 Y 1 -2 d -1 Y 1 X -2 Y 2 X 1 Y -1 Y s 1433 1175 m
 -1 Y 2 X -2 Y 1 X -1 Y 1 X -1 Y 1 X -1 Y 1 -1 d 2 X -2 Y 1 -1 d -1 Y s 1442 1164 m -1 Y 1 -1 d 1 X -1 Y 1 -1 d 1 Y 1 X -1 Y 1 X -1 Y 1 Y 1 -1 d 1 Y -1 Y 1 X -1 Y 1 X -1 Y 1 Y -1 Y 1 1 d s 1451 1158 m -1 Y 1 -1 d -3 Y 2 X -4 Y 1 X -1 Y 1 X -1 Y 2 X
 -3 Y 1 -1 d -1 Y s 1459 1142 m 1 X -1 Y 1 X 1 -1 d -1 Y 1 X -1 Y 1 X 1 -1 d 4 Y -2 Y 1 X -1 Y 1 X -1 Y 1 X -2 Y s 1468 1135 m 1 X -1 Y 3 X -2 Y 1 X -2 Y 1 X -1 Y 1 X -1 Y 1 X -1 Y 1 X -1 Y s 1477 1126 m -1 Y 2 X 1 Y -3 Y 1 X 1 -1 d -1 Y 1 X 1 Y -1 Y
 1 -1 d 1 X -2 Y 2 X s 1486 1118 m -1 Y 1 X -1 Y 3 X -1 Y 1 X -1 Y 2 X -5 Y 1 X -2 Y 1 X 1 Y s 1495 1108 m -1 Y 1 X 1 Y -1 Y 1 X 1 -1 d 1 Y -1 Y 1 -1 d -1 Y 1 X -4 Y 1 X -2 Y 1 X 1 Y 1 X 4 Y s 1503 1103 m 1 X -1 Y 1 -1 d -1 Y 1 X 1 -1 d -1 Y 1 -1 d 1
 X -1 Y 1 X -1 Y 1 X -1 Y 1 -2 d 1 Y -2 Y s 1512 1091 m 1 -1 d -1 Y 1 X -2 Y 1 X -1 Y 1 X -2 Y 1 X -2 Y 1 X -3 Y 1 X -1 Y 1 -1 d -1 Y 1 X -1 Y s 1521 1075 m 1 X -1 Y 1 -1 d -2 Y 1 X -3 Y 1 -1 d -1 Y 1 1 d -1 Y 1 -1 d 1 X -1 Y 1 -1 d 1 Y -3 Y 1 X -1 Y
 s 1530 1060 m -2 Y 1 X -3 Y 1 X -3 Y 1 X -2 Y 1 X -1 Y 1 X -2 Y 1 X -1 Y 1 X -2 Y 1 X -2 Y 1 X -1 Y s 1539 1041 m -1 Y 1 X -1 Y 1 X -2 Y 1 -2 d -3 Y 1 -1 d 1 1 d -3 Y 1 -1 d -1 Y 1 Y -1 Y 1 X -2 Y 1 X -1 Y s 1547 1024 m 1 X -3 Y 1 -1 d -3 Y 1 X -5 Y
 1 X -4 Y 1 X -1 Y 1 X -1 Y 1 X -1 Y 1 X -2 Y 1 X -2 Y s 1556 1001 m 1 -1 d -1 Y 1 X -1 Y 1 X -3 Y 1 Y -2 Y 1 X -2 Y 1 1 d -2 Y 1 X -2 Y 1 X -2 Y 1 X -1 Y 1 -1 d -1 Y s 1565 984 m -1 Y 1 X 1 -1 d -1 Y 1 -2 d -1 Y 1 -1 d -2 Y 1 1 d -2 Y 1 -1 d 1 -1 d
 -2 Y 1 -2 d -2 Y 1 -1 d -1 Y s 1574 964 m 1 X -3 Y 1 X -5 Y 1 -2 d -3 Y 1 X -2 Y 1 -1 d -2 Y 1 X -3 Y 1 -2 d -3 Y 1 X -2 Y 1 -1 d 1 Y s 1583 936 m -2 Y 1 -1 d -1 Y 1 Y -1 Y 1 X -1 Y 1 -1 d -2 Y 1 X -3 Y 1 X -2 Y 1 X -3 Y 1 X -1 Y 1 X -2 Y s 1591 917
 m 1 X -3 Y 1 -1 d -2 Y 1 -1 d -1 Y 1 -1 d -2 Y 1 X -2 Y 1 X -1 Y 1 Y 1 -1 d -3 Y 1 X -4 Y 1 X -4 Y s 1600 892 m 1 -1 d -4 Y 1 -1 d -3 Y 1 -1 d -2 Y 1 -2 d 1 -1 d -1 Y 1 -2 d -1 Y 1 X -1 Y 1 -1 d -2 Y 1 -1 d -1 Y s 1609 867 m -1 Y 1 X 1 Y -5 Y 1 X -1
 Y 1 -1 d 1 X -1 Y 1 X -2 Y 1 Y 1 -2 d 1 Y -3 Y 1 X -2 Y 1 X -2 Y 1 X -1 Y s 1618 849 m -2 Y 1 X -1 Y 1 -1 d -3 Y 1 X -3 Y 1 1 d -5 Y 1 -1 d -4 Y 1 -1 d -1 Y 1 X -3 Y 1 X -1 Y 1 Y 1 -1 d s 1627 824 m -4 Y 1 X -5 Y 1 X -3 Y 1 X -5 Y 1 -1 d -3 Y 1 X -1
 Y 1 X -4 Y 1 -3 d -2 Y 1 -1 d -1 Y s 1635 791 m 1 -1 d -2 Y 1 -1 d -2 Y 1 -1 d -2 Y 1 X -3 Y 1 1 d -2 Y 1 X -2 Y 1 -1 d -2 Y 1 Y 1 -1 d -1 Y 1 X -5 Y 1 Y s 1644 768 m 1 X -2 Y 1 X -3 Y 1 X -3 Y 1 -2 d -1 Y 1 Y 1 -1 d -1 Y 1 -1 d -2 Y 1 X -1 Y 1 -1 d
 -1 Y 1 X -1 Y 1 Y s 1653 750 m -2 Y 1 -1 d -3 Y 1 X -4 Y 1 X -3 Y 1 1 d -5 Y 1 X -4 Y 1 X -2 Y 1 -1 d -3 Y 1 X 1 Y -3 Y 1 -1 d s 1662 720 m -1 Y 1 1 d -3 Y 2 Y -1 Y 1 X -2 Y 1 -1 d -3 Y 1 -2 d 1 X -3 Y 1 -1 d -2 Y 1 Y 1 -1 d 1 -1 d 1 -1 d s 1671 702
 m -2 Y 1 X -2 Y 1 -1 d -2 Y 1 X -2 Y 1 -2 d -1 Y 1 X -2 Y 1 -2 d 1 X -1 Y 1 X -2 Y s 1679 683 m 1 X -1 Y 1 X -6 Y 1 -1 d -3 Y 1 Y 1 X -5 Y 1 -1 d -1 Y 1 X -1 Y 1 Y -1 Y 1 X -2 Y 1 X -3 Y 1 X -2 Y s 1688 658 m 1 X -3 Y 1 X -1 Y 1 Y 1 X -1 Y 1 -1 d 1
 Y -3 Y 1 X -5 Y 1 X -4 Y 1 X -1 Y 1 Y -1 Y 1 X -1 Y 1 X -1 Y s 1697 639 m -1 Y 1 Y 1 X -4 Y 1 X -1 Y 1 X -5 Y 1 Y -1 Y 1 X -1 Y 1 Y 1 -1 d -1 Y 1 Y -2 Y 1 X -1 Y 1 -1 d -2 Y 1 -1 d 1 Y -2 Y 1 1 d s 1706 621 m -2 Y 1 -2 d -2 Y 1 -1 d -2 Y 1 X -1 Y 1
 X -3 Y 1 X -2 Y 1 X -3 Y 1 X -3 Y 1 -1 d -1 Y 1 X s 1715 598 m -5 Y 1 X -1 Y 1 -1 d 1 -1 d -3 Y 1 X -3 Y 1 X -4 Y 1 X -1 Y 1 X -1 Y 1 Y 1 -3 d s 1723 576 m 1 -1 d -1 Y 1 X -1 Y 1 Y 1 X -1 Y 1 X -1 Y 1 X -2 Y 1 1 d -2 Y 1 -1 d 1 -2 d -3 Y 1 X -2 Y s
 1732 561 m -1 Y 1 X -2 Y 1 -1 d -4 Y 1 -1 d -3 Y 1 -1 d 1 -2 d -1 Y 1 X -4 Y 1 -1 d -2 Y 1 -1 d -1 Y 1 X 1 Y -1 Y s 1741 536 m 1 1 d -1 Y 1 X -2 Y 1 X -1 Y 1 -1 d 1 Y -1 Y 1 -1 d -6 Y 1 X -4 Y 1 X -2 Y 1 X 1 Y 1 X -1 Y s 1750 519 m -1 Y 1 X -2 Y 1 X
 -1 Y 1 -1 d -1 Y 1 X 1 Y 1 -1 d -1 Y 1 -1 d -1 Y 1 -1 d -3 Y 1 X -1 Y 1 -1 d s 1759 504 m -1 Y 1 -1 d -6 Y 1 X -2 Y 1 -1 d 1 X -1 Y 1 X -1 Y 1 X -1 Y 1 -1 d -1 Y 1 X -3 Y 1 Y -4 Y s 1767 482 m 1 X -4 Y 1 -1 d -1 Y 1 X -2 Y 1 X -2 Y 1 X -1 Y 1 X 1 -2
 d -1 Y 1 X -2 Y 1 X -2 Y s 1776 464 m 1 X -1 Y 1 X -1 Y 1 X -1 Y 1 X -3 Y 1 X -3 Y 1 X -2 Y 1 X 1 -1 d -2 Y 1 X s 1785 450 m 1 X -1 Y 1 X -2 Y 1 X -1 Y 1 X -1 Y 1 Y -1 Y 1 X -1 Y 1 X -1 Y 3 X -1 Y s 1794 442 m -1 Y 1 X -1 Y 1 -2 d -4 Y 1 X 1 Y 1 -1
 d 1 -1 d -4 Y 1 X -2 Y 1 X -1 Y 1 -1 d -3 Y 1 X s 1803 422 m -1 Y 1 -2 d -1 Y 1 Y 1 -1 d -1 Y 1 X -1 Y 1 X -1 Y 1 X -1 Y 1 -1 d -1 Y 1 X -5 Y 1 X -1 Y 1 -1 d s 1812 405 m -5 Y 1 X -3 Y 1 X -1 Y 1 -1 d 1 -1 d 1 X -2 Y 1 X -2 Y 1 X -2 Y 1 X -1 Y s
 1820 387 m -1 Y 1 X -1 Y 1 1 d -1 Y 1 X -3 Y 1 -1 d -1 Y 1 Y 1 -1 d -2 Y 1 X -1 Y 1 Y -1 Y 1 X -1 Y 2 X 2 Y s 1829 378 m -1 Y 1 X -1 Y 1 -1 d 1 -1 d 1 X -2 Y 1 -2 d 1 Y -2 Y 2 X -2 Y 1 X -1 Y 1 X -1 Y s 1838 365 m 1 -1 d 1 Y 1 -1 d -2 Y 1 -1 d -1 Y
 1 X -2 Y 1 X -1 Y 1 X 1 -1 d -4 Y 1 X -1 Y 1 X s 1847 351 m -2 Y 1 X -2 Y 1 X -1 Y 1 X -1 Y 1 X -1 Y 1 X -1 Y 3 X -11 Y 1 X s 1856 332 m -2 Y 1 X -1 Y 1 X -1 Y 1 X -1 Y 1 X -1 Y 1 X -2 Y 1 X -1 Y 1 -1 d 2 Y -1 Y 1 Y 1 X -1 Y s 1864 323 m 1 X -1 Y 1
 X -1 Y 1 Y -4 Y 1 -1 d 1 -1 d -1 Y 1 X -1 Y 1 X -1 Y 2 X -1 Y 1 Y -2 Y 1 X -1 Y s 1873 310 m -1 Y 1 X -1 Y 1 X -1 Y 1 X -1 Y 1 X -1 Y 1 -1 d -1 Y 1 Y 2 X -6 Y 2 X s 1882 298 m 1 X -1 Y 1 X 1 -2 d 1 X -1 Y 1 X -1 Y 1 -1 d 1 -1 d -1 Y 2 X s 1891 290 m
 -1 Y 1 X -1 Y 1 X -10 Y 1 -1 d -1 Y 13 Y 1 X -1 Y 1 X -2 Y 1 X -1 Y 1 X -2 Y 2 X s 1900 283 m 1 X -1 Y 1 -1 d 1 X -1 Y 1 X -1 Y 1 -1 d 1 X -1 Y 2 X s 1908 277 m 2 X -2 Y 1 X -1 Y 1 X -3 Y 2 X -12 Y 1 -1 d 1 X 1 1 d -1 Y s 1917 258 m 1 X -2 Y 1 X -1
 Y 1 -1 d 3 Y -1 Y 1 4 d 1 -1 d 1 Y -1 Y 1 X -1 Y 1 X -1 Y 1 X -2 Y 1 X s 1926 255 m 1 X -2 Y 1 X 1 Y 1 X 1 Y 1 -1 d 1 X -6 Y 1 X 1 -1 d -1 Y 1 X -1 Y 1 X s 1935 245 m 1 X 3 Y 1 -1 d 3 X -1 Y 4 X s 1944 246 m 2 X -3 Y 2 X 1 -1 d 1 X -1 Y 2 X -1 Y s
 1952 240 m 2 X -1 Y 2 X 1 Y -1 Y 1 -1 d -1 Y 2 X -1 Y 2 X s 1961 236 m 1 -1 d 7 X -1 Y 1 5 d s 1970 239 m 3 X -1 Y 1 X 1 -2 d 1 X -1 Y 1 -2 d -2 Y 2 X s 1979 231 m 3 X -2 Y 3 X -1 Y 3 X s 1988 228 m -6 Y 1 -1 d 3 Y 1 -1 d -3 Y 3 X -1 Y 3 X s 1996
 219 m 1 X 1 Y 3 X 2 Y -1 Y 1 X -4 Y 1 X -1 Y 3 X s 2005 216 m 1 X -1 Y 1 X 1 Y 5 X -1 Y 2 X s 2014 215 m 9 X s 2023 215 m 9 X s 2032 215 m 8 X s 2040 215 m 1 X s black 3 lw 245 202 m 1796 X s 412 242 m -40 Y s 456 222 m -20 Y s 499 222 m -20 Y s 543
 222 m -20 Y s 587 222 m -20 Y s 631 242 m -40 Y s 674 222 m -20 Y s 718 222 m -20 Y s 762 222 m -20 Y s 806 222 m -20 Y s 849 242 m -40 Y s 893 222 m -20 Y s 937 222 m -20 Y s 981 222 m -20 Y s 1024 222 m -20 Y s 1068 242 m -40 Y s 1112 222 m -20 Y
 s 1156 222 m -20 Y s 1199 222 m -20 Y s 1243 222 m -20 Y s 1287 242 m -40 Y s 1330 222 m -20 Y s 1374 222 m -20 Y s 1418 222 m -20 Y s 1462 222 m -20 Y s 1505 242 m -40 Y s 1549 222 m -20 Y s 1593 222 m -20 Y s 1637 222 m -20 Y s 1680 222 m -20 Y s
 1724 242 m -40 Y s 1768 222 m -20 Y s 1812 222 m -20 Y s 1855 222 m -20 Y s 1899 222 m -20 Y s 1943 242 m -40 Y s 412 242 m -40 Y s 368 222 m -20 Y s 324 222 m -20 Y s 281 222 m -20 Y s 1943 242 m -40 Y s 1987 222 m -20 Y s 2030 222 m -20 Y s 245
 202 m 1145 Y s 291 202 m -46 X s 268 254 m -23 X s 268 306 m -23 X s 268 358 m -23 X s 291 410 m -46 X s 268 462 m -23 X s 268 514 m -23 X s 268 566 m -23 X s 291 618 m -46 X s 268 670 m -23 X s 268 722 m -23 X s 268 775 m -23 X s 291 827 m -46 X s
 268 879 m -23 X s 268 931 m -23 X s 268 983 m -23 X s 291 1035 m -46 X s 268 1087 m -23 X s 268 1139 m -23 X s 268 1191 m -23 X s 291 1243 m -46 X s 291 1243 m -46 X s 268 1295 m -23 X s 268 1347 m -23 X s 0.490196 0.545098 0.615686 c 1 1 1 c
 0.490196 0.545098 0.615686 c 907 202 245 1347 bl 245 1347 m 907 X s 1152 1347 m 202 Y s 1152 1549 m -907 X s 245 1549 m -202 Y s black
 gsave  2268 1684 0 0 C 515.735 1478.95 t 0 r /Helvetica-Bold findfont 53.0904 sf 0 0 m (Signal efficiency) show NC gr  0 0 0.933333 c 9 lw 286 1499 m 190 X s black
 gsave  2268 1684 0 0 C 515.735 1376.56 t 0 r /Helvetica-Bold findfont 53.0904 sf 0 0 m (Background efficiency) show NC gr  1 0 0 c 286 1397 m 190 X s 0.490196 0.545098 0.615686 c 3 lw 1 1 1 c 0.490196 0.545098 0.615686 c 889 202 1152 1347 bl 1152
 1347 m 889 X s 2041 1347 m 202 Y s 2041 1549 m -889 X s 1152 1549 m -202 Y s black
 gsave  2268 1684 0 0 C 1418.27 1501.7 t 0 r /Helvetica-Bold findfont 56.8825 sf 0 0 m (Signal purity) show NC gr  0 0 0.933333 c[  52 12 ] 0 sd 6 lw 1192 1515 m 187 X s black
 gsave  2268 1684 0 0 C 1418.27 1433.44 t 0 r /Helvetica-Bold findfont 56.8825 sf 0 0 m (Signal efficiency*purity) show NC gr  0 0 0.933333 c[  22 12 ] 0 sd 1192 1448 m 187 X s black
 gsave  2268 1684 0 0 C 1501.7 1368.97 t 0 r /Helvetica-Bold findfont 56.8825 sf 0 0 m (S+B) show NC gr [  ] 0 sd 1483 1414 m 7 -49 d s 3 lw 1490 1365 m 8 65 d s 1498 1430 m 114 X s
 gsave  2268 1684 0 0 C 1418.27 1368.97 t 0 r /Helvetica-Bold findfont 56.8825 sf 0 0 m (S/) show NC gr  0 0.666667 0 c 9 lw 1192 1381 m 187 X s black 3 lw 245 1243 m 1796 X s
 gsave  2268 1684 0 0 C 337.503 390.593 t 0 r /Helvetica-Bold findfont 53.0904 sf 0 0 m (For 1000 signal and 1000 background) show NC gr 
 gsave  2268 1684 0 0 C 1065.6 322.334 t 0 r /Helvetica-Bold findfont 53.0904 sf 0 0 m ( is) show NC gr 
 gsave  2268 1684 0 0 C 963.211 322.334 t 0 r /Helvetica-Bold findfont 53.0904 sf 0 0 m (S+B) show NC gr  6 lw 940 364 m 8 -45 d s 3 lw 948 319 m 8 60 d s 956 379 m 110 X s
 gsave  2268 1684 0 0 C 337.503 322.334 t 0 r /Helvetica-Bold findfont 53.0904 sf 0 0 m (events the maximum S/) show NC gr 
 gsave  2268 1684 0 0 C 337.503 254.075 t 0 r /Helvetica-Bold findfont 53.0904 sf 0 0 m (27.99 when cutting at \2550.07) show NC gr  0.490196 0.545098 0.615686 c 0.364706 0.419608 0.490196 c 1554 100 23 1575 bf 0.490196 0.545098 0.615686 c 23 1575 m
 1554 X s 1577 1575 m 100 Y s 1577 1675 m -1554 X s 23 1675 m -100 Y s 1 1 1 c black 1 1 1 c
 gsave  2268 1684 0 0 C 75.8434 1604.09 t 0 r /Helvetica-Bold findfont 79.6355 sf 0 0 m (Cut efficiencies and optimal cut value) show NC gr  0 0.666667 0 c 2041 202 m 1145 Y s 1995 202 m 46 X s 2018 239 m 23 X s 2018 276 m 23 X s 2018 314 m 23 X s
 2018 351 m 23 X s 1995 388 m 46 X s 2018 425 m 23 X s 2018 462 m 23 X s 2018 500 m 23 X s 2018 537 m 23 X s 1995 574 m 46 X s 2018 611 m 23 X s 2018 648 m 23 X s 2018 685 m 23 X s 2018 723 m 23 X s 1995 760 m 46 X s 2018 797 m 23 X s 2018 834 m 23 X
 s 2018 871 m 23 X s 2018 909 m 23 X s 1995 946 m 46 X s 2018 983 m 23 X s 2018 1020 m 23 X s 2018 1057 m 23 X s 2018 1095 m 23 X s 1995 1132 m 46 X s 2018 1169 m 23 X s 2018 1206 m 23 X s 2018 1243 m 23 X s 2018 1280 m 23 X s 1995 1318 m 46 X s 1995
 1318 m 46 X s black 0 0.666667 0 c
 gsave  2268 1684 0 0 C 2051.56 178.232 t 0 r /Helvetica-Bold findfont 64.4669 sf 0 0 m (0) show NC gr  black 0 0.666667 0 c
 gsave  2268 1684 0 0 C 2051.56 364.048 t 0 r /Helvetica-Bold findfont 64.4669 sf 0 0 m (5) show NC gr  black 0 0.666667 0 c
 gsave  2268 1684 0 0 C 2051.56 549.864 t 0 r /Helvetica-Bold findfont 64.4669 sf 0 0 m (10) show NC gr  black 0 0.666667 0 c
 gsave  2268 1684 0 0 C 2051.56 735.681 t 0 r /Helvetica-Bold findfont 64.4669 sf 0 0 m (15) show NC gr  black 0 0.666667 0 c
 gsave  2268 1684 0 0 C 2051.56 921.497 t 0 r /Helvetica-Bold findfont 64.4669 sf 0 0 m (20) show NC gr  black 0 0.666667 0 c
 gsave  2268 1684 0 0 C 2051.56 1107.31 t 0 r /Helvetica-Bold findfont 64.4669 sf 0 0 m (25) show NC gr  black 0 0.666667 0 c
 gsave  2268 1684 0 0 C 2051.56 1293.13 t 0 r /Helvetica-Bold findfont 64.4669 sf 0 0 m (30) show NC gr  black 0 0.666667 0 c
 gsave  2268 1684 0 0 C 2203.25 967.003 t 90 r /Helvetica-Bold findfont 64.4669 sf 0 0 m (Significance) show NC gr 
 gr  gr showpage
end
%%EOF
