%!PS-Adobe-2.0 EPSF-2.0
%%BoundingBox:  0 0 567 421
%%Title: dataset_class_comb/plots/overtrain_RuleFit.eps: TMVA comparison RuleFit
%%Creator: ROOT Version 6.18/00
%%CreationDate: Sat Sep 14 13:56:48 2019
%%DocumentNeededResources: ProcSet (FontSetInit)
%%EndComments
%%BeginProlog
80 dict begin
/s {stroke} def /l {lineto} def /m {moveto} def /t {translate} def
/r {rotate} def /rl {roll}  def /R {repeat} def
/d {rlineto} def /rm {rmoveto} def /gr {grestore} def /f {eofill} def
/c {setrgbcolor} def /black {0 setgray} def /sd {setdash} def
/cl {closepath} def /sf {scalefont setfont} def /lw {setlinewidth} def
/box {m dup 0 exch d exch 0 d 0 exch neg d cl} def
/NC{systemdict begin initclip end}def/C{NC box clip newpath}def
/bl {box s} def /bf {gsave box gsave f grestore 1 lw [] 0 sd s grestore} def /Y { 0 exch d} def /X { 0 d} def 
/K {{pop pop 0 moveto} exch kshow} bind def
/ita {/ang 15 def gsave [1 0 ang dup sin exch cos div 1 0 0] concat} def 
/mp {newpath /y exch def /x exch def} def
/side {[w .77 mul w .23 mul] .385 w mul sd w 0 l currentpoint t -144 r} def
/mr {mp x y w2 0 360 arc} def /m24 {mr s} def /m20 {mr f} def
/mb {mp x y w2 add m w2 neg 0 d 0 w neg d w 0 d 0 w d cl} def
/mt {mp x y w2 add m w2 neg w neg d w 0 d cl} def
/w4 {w 4 div} def
/w6 {w 6 div} def
/w8 {w 8 div} def
/m21 {mb f} def /m25 {mb s} def /m22 {mt f} def /m26{mt s} def
/m23 {mp x y w2 sub m w2 w d w neg 0 d cl f} def
/m27 {mp x y w2 add m w3 neg w2 neg d w3 w2 neg d w3 w2 d cl s} def
/m28 {mp x w2 sub y w2 sub w3 add m w3 0 d  0 w3 neg d w3 0 d 0 w3 d w3 0 d  0 w3 d w3 neg 0 d 0 w3 d w3 neg 0 d 0 w3 neg d w3 neg 0 d cl s } def
/m29 {mp gsave x w2 sub y w2 add w3 sub m currentpoint t 4 {side} repeat cl fill gr} def
/m30 {mp gsave x w2 sub y w2 add w3 sub m currentpoint t 4 {side} repeat cl s gr} def
/m31 {mp x y w2 sub m 0 w d x w2 sub y m w 0 d x w2 sub y w2 add m w w neg d x w2 sub y w2 sub m w w d s} def
/m32 {mp x y w2 sub m w2 w d w neg 0 d cl s} def
/m33 {mp x y w2 add m w3 neg w2 neg d w3 w2 neg d w3 w2 d cl f} def
/m34 {mp x w2 sub y w2 sub w3 add m w3 0 d  0 w3 neg d w3 0 d 0 w3 d w3 0 d  0 w3 d w3 neg 0 d 0 w3 d w3 neg 0 d 0 w3 neg d w3 neg 0 d cl f } def
/m35 {mp x y w2 add m w2 neg w2 neg d w2 w2 neg d w2 w2 d w2 neg w2 d x y w2 sub m 0 w d x w2 sub y m w 0 d s} def
/m36 {mb x w2 sub y w2 add m w w neg d x w2 sub y w2 sub m w w d s} def
/m37 {mp x y m w4 neg w2 d w4 neg w2 neg d w2 0 d  w4 neg w2 neg d w2 0 d w4 neg w2 d w2 0 d w4 neg w2 d w4 neg w2 neg d cl s} def
/m38 {mp x w4 sub y w2 add m w4 neg w4 neg d 0 w2 neg d w4 w4 neg d w2 0 d w4 w4 d 0 w2 d w4 neg w4 d w2 neg 0 d x y w2 sub m 0 w d x w2 sub y m w 0 d cl s} def
/m39 {mp x y m w4 neg w2 d w4 neg w2 neg d w2 0 d  w4 neg w2 neg d w2 0 d w4 neg w2 d w2 0 d w4 neg w2 d w4 neg w2 neg d cl f} def
/m40 {mp x y m w4 w2 d w4 w4 neg d w2 neg w4 neg d w2 w4 neg d w4 neg w4 neg d w4 neg w2 d w4 neg w2 neg d w4 neg w4 d w2 w4 d w2 neg w4 d w4 w4 d w4 w2 neg d cl s} def
/m41 {mp x y m w4 w2 d w4 w4 neg d w2 neg w4 neg d w2 w4 neg d w4 neg w4 neg d w4 neg w2 d w4 neg w2 neg d w4 neg w4 d w2 w4 d w2 neg w4 d w4 w4 d w4 w2 neg d cl f} def
/m42 {mp x y w2 add m w8 neg w2 -3 4 div mul d w2 -3 4 div mul w8 neg d w2 3 4 div mul w8 neg d w8 w2 -3 4 div mul d w8 w2 3 4 div mul d w2 3 4 div mul w8 d w2 -3 4 div mul w8 d w8 neg w2 3 4 div mul d cl s} def
/m43 {mp x y w2 add m w8 neg w2 -3 4 div mul d w2 -3 4 div mul w8 neg d w2 3 4 div mul w8 neg d w8 w2 -3 4 div mul d w8 w2 3 4 div mul d w2 3 4 div mul w8 d w2 -3 4 div mul w8 d w8 neg w2 3 4 div mul d cl f} def
/m44 {mp x y m w6 neg w2 d w2 2 3 div mul 0 d w6 neg w2 neg d w2 w6 d 0 w2 -2 3 div mul d w2 neg w6 d w6 w2 neg d w2 -2 3 div mul 0 d w6 w2 d w2 neg w6 neg d 0 w2 2 3 div mul d w2 w6 neg d cl s} def
/m45 {mp x y m w6 neg w2 d w2 2 3 div mul 0 d w6 neg w2 neg d w2 w6 d 0 w2 -2 3 div mul d w2 neg w6 d w6 w2 neg d w2 -2 3 div mul 0 d w6 w2 d w2 neg w6 neg d 0 w2 2 3 div mul d w2 w6 neg d cl f} def
/m46 {mp x y w4 add m w4 neg w4 d w4 neg w4 neg d  w4 w4 neg d w4 neg w4 neg d w4 w4 neg d w4 w4 d w4 w4 neg d w4 w4 d w4 neg w4 d w4 w4 d w4 neg w4 d w4 neg w4 neg d cl s} def
/m47 {mp x y w4 add m w4 neg w4 d w4 neg w4 neg d w4 w4 neg d w4 neg w4 neg d  w4 w4 neg d w4 w4 d w4 w4 neg d w4 w4 d w4 neg w4 d w4 w4 d w4 neg w4 d w4 neg w4 neg d cl f} def
/m48 {mp x y w4 add m w4 neg w4 d w4 neg w4 neg d w4 w4 neg d  w4 neg w4 neg d w4 w4 neg d w4 w4 d w4 w4 neg d w4 w4 d w4 neg w4 d w4 w4 d w4 neg w4 d w4 neg w4 neg d  w4 w4 neg d w4 neg w4 neg d w4 neg w4 d w4 w4 d cl f} def
/m49 {mp x w2 sub w3 add y w2 sub w3 add m  0 w3 neg d w3 0 d 0 w3 d w3 0 d 0 w3 d w3 neg 0 d 0 w3 d w3 neg 0 d 0 w3 neg d w3 neg 0 d 0 w3 neg d w3 0 d 0 w3 d w3 0 d 0 w3 neg d w3 neg 0 d cl f } def
/m2 {mp x y w2 sub m 0 w d x w2 sub y m w 0 d s} def
/m5 {mp x w2 sub y w2 sub m w w d x w2 sub y w2 add m w w neg d s} def
%%IncludeResource: ProcSet (FontSetInit)
%%IncludeResource: font Times-Roman
%%IncludeResource: font Times-Italic
%%IncludeResource: font Times-Bold
%%IncludeResource: font Times-BoldItalic
%%IncludeResource: font Helvetica
%%IncludeResource: font Helvetica-Oblique
%%IncludeResource: font Helvetica-Bold
%%IncludeResource: font Helvetica-BoldOblique
%%IncludeResource: font Courier
%%IncludeResource: font Courier-Oblique
%%IncludeResource: font Courier-Bold
%%IncludeResource: font Courier-BoldOblique
%%IncludeResource: font Symbol
%%IncludeResource: font ZapfDingbats
/reEncode {exch findfont dup length dict begin {1 index /FID eq  {pop pop} {def} ifelse } forall /Encoding exch def currentdict end dup /FontName get exch definefont pop } def [/Times-Bold /Times-Italic /Times-BoldItalic /Helvetica /Helvetica-Oblique
 /Helvetica-Bold /Helvetica-BoldOblique /Courier /Courier-Oblique /Courier-Bold /Courier-BoldOblique /Times-Roman /AvantGarde-Book /AvantGarde-BookOblique /AvantGarde-Demi /AvantGarde-DemiOblique /Bookman-Demi /Bookman-DemiItalic /Bookman-Light
 /Bookman-LightItalic /Helvetica-Narrow /Helvetica-Narrow-Bold /Helvetica-Narrow-BoldOblique /Helvetica-Narrow-Oblique /NewCenturySchlbk-Roman /NewCenturySchlbk-Bold /NewCenturySchlbk-BoldItalic /NewCenturySchlbk-Italic /Palatino-Bold
 /Palatino-BoldItalic /Palatino-Italic /Palatino-Roman ] {ISOLatin1Encoding reEncode } forall
%%EndProlog
%%BeginSetup
%%EndSetup
newpath  gsave  .25 .25 scale  gsave  0 0 t 0.490196 0.545098 0.615686 c[  ] 0 sd 3 lw 0.941176 0.941176 0.941176 c 2268 1684 0 0 bf black 1 1 0.992157 c 1916 1313 238 202 bf black 1916 1313 238 202 bl 1 1 0.992157 c 1916 1313 238 202 bf black 1916
 1313 238 202 bl 238 202 m 1916 X s 416 245 m -43 Y s 463 223 m -21 Y s 510 223 m -21 Y s 556 223 m -21 Y s 603 223 m -21 Y s 650 245 m -43 Y s 696 223 m -21 Y s 743 223 m -21 Y s 790 223 m -21 Y s 836 223 m -21 Y s 883 245 m -43 Y s 930 223 m -21 Y
 s 976 223 m -21 Y s 1023 223 m -21 Y s 1070 223 m -21 Y s 1116 245 m -43 Y s 1163 223 m -21 Y s 1210 223 m -21 Y s 1256 223 m -21 Y s 1303 223 m -21 Y s 1350 245 m -43 Y s 1396 223 m -21 Y s 1443 223 m -21 Y s 1490 223 m -21 Y s 1536 223 m -21 Y s
 1583 245 m -43 Y s 1630 223 m -21 Y s 1676 223 m -21 Y s 1723 223 m -21 Y s 1770 223 m -21 Y s 1816 245 m -43 Y s 1863 223 m -21 Y s 1910 223 m -21 Y s 1956 223 m -21 Y s 2003 223 m -21 Y s 2050 245 m -43 Y s 416 245 m -43 Y s 370 223 m -21 Y s 323
 223 m -21 Y s 276 223 m -21 Y s 2050 245 m -43 Y s 2096 223 m -21 Y s 2143 223 m -21 Y s
 gsave  2268 1684 0 0 C 409.554 128.934 t 0 r /Helvetica-Bold findfont 64.4669 sf 0 0 m (4) show NC gr 
 gsave  2268 1684 0 0 C 379.217 128.934 t 0 r /Symbol findfont 64.4669 sf 0 0 m (-) show NC gr 
 gsave  2268 1684 0 0 C 644.669 128.934 t 0 r /Helvetica-Bold findfont 64.4669 sf 0 0 m (3) show NC gr 
 gsave  2268 1684 0 0 C 614.331 128.934 t 0 r /Symbol findfont 64.4669 sf 0 0 m (-) show NC gr 
 gsave  2268 1684 0 0 C 875.991 128.934 t 0 r /Helvetica-Bold findfont 64.4669 sf 0 0 m (2) show NC gr 
 gsave  2268 1684 0 0 C 845.654 128.934 t 0 r /Symbol findfont 64.4669 sf 0 0 m (-) show NC gr 
 gsave  2268 1684 0 0 C 1114.9 128.934 t 0 r /Helvetica-Bold findfont 64.4669 sf 0 0 m (1) show NC gr 
 gsave  2268 1684 0 0 C 1084.56 128.934 t 0 r /Symbol findfont 64.4669 sf 0 0 m (-) show NC gr 
 gsave  2268 1684 0 0 C 1327.26 128.934 t 0 r /Helvetica-Bold findfont 64.4669 sf 0 0 m (0) show NC gr 
 gsave  2268 1684 0 0 C 1566.17 128.934 t 0 r /Helvetica-Bold findfont 64.4669 sf 0 0 m (1) show NC gr 
 gsave  2268 1684 0 0 C 1793.7 128.934 t 0 r /Helvetica-Bold findfont 64.4669 sf 0 0 m (2) show NC gr 
 gsave  2268 1684 0 0 C 2028.81 128.934 t 0 r /Helvetica-Bold findfont 64.4669 sf 0 0 m (3) show NC gr 
 gsave  2268 1684 0 0 C 1562.37 34.1295 t 0 r /Helvetica-Bold findfont 72.0512 sf 0 0 m (RuleFit response) show NC gr  238 1515 m 1916 X s 416 1473 m 42 Y s 463 1494 m 21 Y s 510 1494 m 21 Y s 556 1494 m 21 Y s 603 1494 m 21 Y s 650 1473 m 42 Y s 696
 1494 m 21 Y s 743 1494 m 21 Y s 790 1494 m 21 Y s 836 1494 m 21 Y s 883 1473 m 42 Y s 930 1494 m 21 Y s 976 1494 m 21 Y s 1023 1494 m 21 Y s 1070 1494 m 21 Y s 1116 1473 m 42 Y s 1163 1494 m 21 Y s 1210 1494 m 21 Y s 1256 1494 m 21 Y s 1303 1494 m
 21 Y s 1350 1473 m 42 Y s 1396 1494 m 21 Y s 1443 1494 m 21 Y s 1490 1494 m 21 Y s 1536 1494 m 21 Y s 1583 1473 m 42 Y s 1630 1494 m 21 Y s 1676 1494 m 21 Y s 1723 1494 m 21 Y s 1770 1494 m 21 Y s 1816 1473 m 42 Y s 1863 1494 m 21 Y s 1910 1494 m 21
 Y s 1956 1494 m 21 Y s 2003 1494 m 21 Y s 2050 1473 m 42 Y s 416 1473 m 42 Y s 370 1494 m 21 Y s 323 1494 m 21 Y s 276 1494 m 21 Y s 2050 1473 m 42 Y s 2096 1494 m 21 Y s 2143 1494 m 21 Y s 238 202 m 1313 Y s 291 202 m -53 X s 265 234 m -27 X s 265
 266 m -27 X s 265 298 m -27 X s 265 330 m -27 X s 291 361 m -53 X s 265 393 m -27 X s 265 425 m -27 X s 265 457 m -27 X s 265 489 m -27 X s 291 521 m -53 X s 265 553 m -27 X s 265 585 m -27 X s 265 617 m -27 X s 265 648 m -27 X s 291 680 m -53 X s
 265 712 m -27 X s 265 744 m -27 X s 265 776 m -27 X s 265 808 m -27 X s 291 840 m -53 X s 265 872 m -27 X s 265 903 m -27 X s 265 935 m -27 X s 265 967 m -27 X s 291 999 m -53 X s 265 1031 m -27 X s 265 1063 m -27 X s 265 1095 m -27 X s 265 1127 m
 -27 X s 291 1159 m -53 X s 265 1190 m -27 X s 265 1222 m -27 X s 265 1254 m -27 X s 265 1286 m -27 X s 291 1318 m -53 X s 265 1350 m -27 X s 265 1382 m -27 X s 265 1414 m -27 X s 265 1446 m -27 X s 291 1477 m -53 X s 291 1477 m -53 X s 265 1509 m
 -27 X s
 gsave  2268 1684 0 0 C 174.44 178.232 t 0 r /Helvetica-Bold findfont 64.4669 sf 0 0 m (0) show NC gr 
 gsave  2268 1684 0 0 C 128.934 337.503 t 0 r /Helvetica-Bold findfont 64.4669 sf 0 0 m (0.1) show NC gr 
 gsave  2268 1684 0 0 C 121.349 496.774 t 0 r /Helvetica-Bold findfont 64.4669 sf 0 0 m (0.2) show NC gr 
 gsave  2268 1684 0 0 C 121.349 656.045 t 0 r /Helvetica-Bold findfont 64.4669 sf 0 0 m (0.3) show NC gr 
 gsave  2268 1684 0 0 C 121.349 815.316 t 0 r /Helvetica-Bold findfont 64.4669 sf 0 0 m (0.4) show NC gr 
 gsave  2268 1684 0 0 C 121.349 974.587 t 0 r /Helvetica-Bold findfont 64.4669 sf 0 0 m (0.5) show NC gr 
 gsave  2268 1684 0 0 C 121.349 1133.86 t 0 r /Helvetica-Bold findfont 64.4669 sf 0 0 m (0.6) show NC gr 
 gsave  2268 1684 0 0 C 121.349 1293.13 t 0 r /Helvetica-Bold findfont 64.4669 sf 0 0 m (0.7) show NC gr 
 gsave  2268 1684 0 0 C 121.349 1452.4 t 0 r /Helvetica-Bold findfont 64.4669 sf 0 0 m (0.8) show NC gr 
 gsave  2268 1684 0 0 C 64.4669 1433.44 t 90 r /Helvetica-Bold findfont 72.0512 sf 0 0 m (dx) show NC gr 
 gsave  2268 1684 0 0 C 30.3373 1422.06 t 90 r /Helvetica-Bold findfont 45.506 sf 0 0 m ( ) show NC gr 
 gsave  2268 1684 0 0 C 64.4669 1399.31 t 90 r /Helvetica-Bold findfont 72.0512 sf 0 0 m (/) show NC gr 
 gsave  2268 1684 0 0 C 30.3373 1387.93 t 90 r /Helvetica-Bold findfont 45.506 sf 0 0 m ( ) show NC gr 
 gsave  2268 1684 0 0 C 60.6747 1111.11 t 90 r /Helvetica-Bold findfont 72.0512 sf 0 0 m (\(1/N\) dN) show NC gr  2154 202 m 1313 Y s 2101 202 m 53 X s 2128 234 m 26 X s 2128 266 m 26 X s 2128 298 m 26 X s 2128 330 m 26 X s 2101 361 m 53 X s 2128 393
 m 26 X s 2128 425 m 26 X s 2128 457 m 26 X s 2128 489 m 26 X s 2101 521 m 53 X s 2128 553 m 26 X s 2128 585 m 26 X s 2128 617 m 26 X s 2128 648 m 26 X s 2101 680 m 53 X s 2128 712 m 26 X s 2128 744 m 26 X s 2128 776 m 26 X s 2128 808 m 26 X s 2101
 840 m 53 X s 2128 872 m 26 X s 2128 903 m 26 X s 2128 935 m 26 X s 2128 967 m 26 X s 2101 999 m 53 X s 2128 1031 m 26 X s 2128 1063 m 26 X s 2128 1095 m 26 X s 2128 1127 m 26 X s 2101 1159 m 53 X s 2128 1190 m 26 X s 2128 1222 m 26 X s 2128 1254 m
 26 X s 2128 1286 m 26 X s 2101 1318 m 53 X s 2128 1350 m 26 X s 2128 1382 m 26 X s 2128 1414 m 26 X s 2128 1446 m 26 X s 2101 1477 m 53 X s 2101 1477 m 53 X s 2128 1509 m 26 X s 0.490196 0.545098 0.615686 c 1 1 1 c 0.490196 0.545098 0.615686 c 907
 202 238 1313 bl 238 1313 m 907 X s 1145 1313 m 202 Y s 1145 1515 m -907 X s 238 1515 m -202 Y s black
 gsave  2268 1684 0 0 C 417.138 1444.82 t 0 r /Helvetica-Bold findfont 53.0904 sf 0 0 m (Signal \(test sample\)) show NC gr  0.49 0.6 0.82 c 265 1429 m 127 X 71 Y -127 X f 0 0 0.933333 c 265 1500 m 127 X s 265 1429 m 127 X s 392 1429 m 71 Y s 265
 1429 m 71 Y s black
 gsave  2268 1684 0 0 C 417.138 1342.43 t 0 r /Helvetica-Bold findfont 53.0904 sf 0 0 m (Background \(test sample\)) show NC gr  1 0 0 c 392 1354 m -26 -26 d s 389 1399 m -71 -71 d s 341 1399 m -71 -71 d s 293 1399 m -28 -27 d s 0 0 0.933333 c 1 0 0
 c 265 1399 m 127 X s 265 1328 m 127 X s 392 1328 m 71 Y s 265 1328 m 71 Y s 0 0 0.933333 c 0.49 0.6 0.82 c black 0.49 0.6 0.82 c 238 202 m 431 X 1 Y 48 X -1 Y 48 X 11 Y 48 X -7 Y 48 X 27 Y 48 X -13 Y 48 X 2 Y 48 X 23 Y 48 X 45 Y 47 X -8 Y 48 X 4 Y
 48 X 94 Y 48 X -37 Y 48 X 61 Y 48 X 23 Y 48 X 51 Y 48 X 135 Y 48 X 163 Y 48 X -1 Y 47 X 216 Y 48 X 221 Y 48 X -26 Y 48 X -287 Y 48 X -179 Y 48 X -133 Y 48 X -176 Y 48 X -79 Y 48 X -76 Y 48 X -30 Y 48 X -14 Y 47 X -8 Y 48 X -2 Y f 0 0 0.933333 c 0.49
 0.6 0.82 c 0 0 0.933333 c 238 202 m 431 X 1 Y 48 X -1 Y 48 X 11 Y 48 X -7 Y 48 X 27 Y 48 X -13 Y 48 X 2 Y 48 X 23 Y 48 X 45 Y 47 X -8 Y 48 X 4 Y 48 X 94 Y 48 X -37 Y 48 X 61 Y 48 X 23 Y 48 X 51 Y 48 X 135 Y 48 X 163 Y 48 X -1 Y 47 X 216 Y 48 X 221 Y
 48 X -26 Y 48 X -287 Y 48 X -179 Y 48 X -133 Y 48 X -176 Y 48 X -79 Y 48 X -76 Y 48 X -30 Y 48 X -14 Y 47 X -8 Y 48 X -2 Y s 1 0 0 c black 1 0 0 c 2126 202 m s 2082 206 m -4 -4 d s 2030 202 m s 1984 204 m -2 -2 d s 1942 210 m -8 -8 d s 1891 207 m -5
 -5 d s 1860 224 m -22 -22 d s 1819 232 m -29 -30 d s 1784 244 m -43 -42 d s 1733 242 m -40 -40 d s 1697 254 m -52 -52 d s 1659 264 m -62 -62 d s 1624 277 m -75 -75 d s 1579 281 m -78 -79 d s 1538 288 m -85 -86 d s 1494 292 m -89 -90 d s 1468 313 m
 -111 -111 d s 1436 329 m -128 -127 d s 1415 357 m -155 -155 d s 1388 378 m -176 -176 d s 1340 378 m -176 -176 d s 1340 426 m -224 -224 d s 1338 472 m -270 -270 d s 1292 474 m -272 -272 d s 1262 492 m -290 -290 d s 1244 523 m -320 -321 d s 1244 571 m
 -368 -369 d s 1244 619 m -417 -417 d s 1204 627 m -425 -425 d s 1196 667 m -465 -465 d s 1196 715 m -513 -513 d s 1181 748 m -546 -546 d s 1148 763 m -561 -561 d s 1148 812 m -335 -336 d s 806 470 m -41 -42 d s 752 415 m -35 -35 d s 688 351 m -19
 -18 d s 644 308 m -23 -23 d s 612 276 m -73 -74 d s 1102 813 m -241 -241 d s 851 562 m -38 -38 d s 535 246 m -9 -9 d s 510 221 m -19 -19 d s 1100 860 m -239 -240 d s 462 221 m -19 -19 d s 1100 908 m -191 -192 d s 899 707 m -38 -39 d s 401 209 m -7
 -7 d s 1073 928 m -164 -164 d s 349 204 m -3 -2 d s 1053 956 m -144 -143 d s 299 203 m -1 -1 d s 1021 973 m -64 -64 d s 921 873 m -12 -12 d s 250 202 m s 960 960 m -3 -3 d s 238 202 m 48 X 1 Y 48 X 1 Y 48 X 5 Y 48 X 12 Y 96 X 25 Y 47 X 30 Y 48 X 32
 Y 48 X 43 Y 48 X 64 Y 48 X 55 Y 48 X 92 Y 48 X 145 Y 48 X 166 Y 48 X 87 Y 48 X 13 Y 48 X -45 Y 47 X -115 Y 48 X -65 Y 48 X -121 Y 48 X -135 Y 48 X -20 Y 48 X -94 Y 48 X -21 Y 48 X -44 Y 48 X -21 Y 48 X -4 Y 47 X -11 Y 48 X -13 Y 48 X -10 Y 48 X -12
 Y 48 X 2 Y 48 X -20 Y 48 X -17 Y 48 X 3 Y 48 X -6 Y 48 X -2 Y 48 X 4 Y 47 X -4 Y 48 X s 0.490196 0.545098 0.615686 c 1 1 1 c 0.490196 0.545098 0.615686 c 952 202 1202 1313 bl 1202 1313 m 952 X s 2154 1313 m 202 Y s 2154 1515 m -952 X s 1202 1515 m
 -202 Y s black
 gsave  2268 1684 0 0 C 1296.92 1444.82 t 0 r /Helvetica-Bold findfont 56.8825 sf 0 0 m (Signal \(training sample\)) show NC gr  0 0 0.933333 c /w 21 def /w2 {w 2 div} def /w3 {w 3 div} def 1250 1465 m20 black
 gsave  2268 1684 0 0 C 1296.92 1342.43 t 0 r /Helvetica-Bold findfont 56.8825 sf 0 0 m (Background \(training sample\)) show NC gr  1 0 0 c 1250 1364 m20 0 0 0.933333 c 1 1 1 c 0 0 0.933333 c 573 203 m 17 X s 605 203 m 16 X s 573 195 m 15 Y s 621
 195 m 15 Y s 597 203 m20 621 204 m 17 X s 653 204 m 16 X s 621 197 m 15 Y s 669 197 m 15 Y s 645 204 m20 669 206 m 17 X s 701 206 m 16 X s 669 198 m 15 Y s 717 198 m 15 Y s 693 206 m20 717 204 m 17 X s 749 204 m 16 X s 717 196 m 15 Y s 765 196 m 15
 Y s 741 204 m20 765 203 m 16 X s 797 203 m 16 X s 765 195 m 15 Y s 813 195 m 15 Y s 789 203 m20 813 212 m 16 X s 845 212 m 16 X s 813 205 m 15 Y s 861 205 m 15 Y s 837 212 m20 861 218 m 16 X s 892 218 m 17 X s 861 211 m 15 Y s 909 211 m 15 Y s 885
 218 m20 909 223 m 16 X s 940 223 m 17 X s 909 216 m 15 Y s 957 216 m 15 Y s 933 223 m20 981 230 m s 981 245 m 1 Y s 957 238 m 16 X s 988 238 m 17 X s 973 230 m 15 X s 973 246 m 15 X s 957 230 m 15 Y s 1005 230 m 15 Y s 981 238 m20 1029 234 m 1 Y s
 1029 250 m 1 Y s 1005 243 m 16 X s 1036 243 m 17 X s 1021 234 m 15 X s 1021 251 m 15 X s 1005 235 m 15 Y s 1053 235 m 15 Y s 1029 243 m20 1076 254 m 2 Y s 1076 271 m 1 Y s 1053 263 m 16 X s 1084 263 m 16 X s 1069 254 m 15 X s 1069 272 m 15 X s 1053
 256 m 15 Y s 1100 256 m 15 Y s 1076 263 m20 1124 210 m 17 Y s 1124 243 m 17 Y s 1100 235 m 17 X s 1132 235 m 16 X s 1117 210 m 15 X s 1117 260 m 15 X s 1100 227 m 16 Y s 1148 227 m 16 Y s 1124 235 m20 1172 288 m 4 Y s 1172 308 m 4 Y s 1148 300 m 17
 X s 1180 300 m 16 X s 1165 288 m 15 X s 1165 312 m 15 X s 1148 292 m 16 Y s 1196 292 m 16 Y s 1172 300 m20 1220 296 m 11 Y s 1220 322 m 11 Y s 1196 314 m 17 X s 1228 314 m 16 X s 1213 296 m 15 X s 1213 333 m 15 X s 1196 307 m 15 Y s 1244 307 m 15 Y
 s 1220 314 m20 1268 329 m 7 Y s 1268 351 m 7 Y s 1244 343 m 16 X s 1276 343 m 16 X s 1260 329 m 16 X s 1260 358 m 16 X s 1244 336 m 15 Y s 1292 336 m 15 Y s 1268 343 m20 1316 346 m 8 Y s 1316 369 m 8 Y s 1292 362 m 16 X s 1324 362 m 16 X s 1308 346
 m 16 X s 1308 377 m 16 X s 1292 354 m 15 Y s 1340 354 m 15 Y s 1316 362 m20 1364 408 m 10 Y s 1364 434 m 10 Y s 1340 426 m 16 X s 1371 426 m 17 X s 1356 408 m 15 X s 1356 444 m 15 X s 1340 418 m 16 Y s 1388 418 m 16 Y s 1364 426 m20 1412 468 m 14 Y
 s 1412 498 m 14 Y s 1388 490 m 16 X s 1419 490 m 17 X s 1404 468 m 15 X s 1404 512 m 15 X s 1388 482 m 16 Y s 1436 482 m 16 Y s 1412 490 m20 1460 529 m 16 Y s 1460 561 m 16 Y s 1436 553 m 16 X s 1467 553 m 17 X s 1452 529 m 15 X s 1452 577 m 15 X s
 1436 545 m 16 Y s 1484 545 m 16 Y s 1460 553 m20 1508 791 m 25 Y s 1508 831 m 25 Y s 1484 823 m 16 X s 1515 823 m 17 X s 1500 791 m 15 X s 1500 856 m 15 X s 1484 816 m 15 Y s 1532 816 m 15 Y s 1508 823 m20 1556 789 m 26 Y s 1556 830 m 26 Y s 1532
 823 m 16 X s 1563 823 m 16 X s 1548 789 m 15 X s 1548 856 m 15 X s 1532 815 m 15 Y s 1579 815 m 15 Y s 1556 823 m20 1603 1028 m 28 Y s 1603 1071 m 28 Y s 1579 1063 m 17 X s 1611 1063 m 16 X s 1596 1028 m 15 X s 1596 1099 m 15 X s 1579 1056 m 15 Y s
 1627 1056 m 15 Y s 1603 1063 m20 1651 1097 m 33 Y s 1651 1145 m 32 Y s 1627 1137 m 17 X s 1659 1137 m 16 X s 1644 1097 m 15 X s 1644 1177 m 15 X s 1627 1130 m 15 Y s 1675 1130 m 15 Y s 1651 1137 m20 1699 1131 m 24 Y s 1699 1171 m 24 Y s 1675 1163 m
 17 X s 1707 1163 m 16 X s 1692 1131 m 15 X s 1692 1195 m 15 X s 1675 1155 m 16 Y s 1723 1155 m 16 Y s 1699 1163 m20 1747 967 m 21 Y s 1747 1003 m 20 Y s 1723 995 m 17 X s 1755 995 m 16 X s 1740 967 m 15 X s 1740 1023 m 15 X s 1723 988 m 15 Y s 1771
 988 m 15 Y s 1747 995 m20 1795 699 m 11 Y s 1795 725 m 12 Y s 1771 718 m 16 X s 1803 718 m 16 X s 1787 699 m 16 X s 1787 737 m 16 X s 1771 710 m 15 Y s 1819 710 m 15 Y s 1795 718 m20 1843 576 m 9 Y s 1843 600 m 8 Y s 1819 592 m 16 X s 1851 592 m 16
 X s 1835 576 m 16 X s 1835 608 m 16 X s 1819 585 m 15 Y s 1867 585 m 15 Y s 1843 592 m20 1891 410 m 3 Y s 1891 428 m 4 Y s 1867 421 m 16 X s 1898 421 m 17 X s 1883 410 m 15 X s 1883 432 m 15 X s 1867 413 m 15 Y s 1915 413 m 15 Y s 1891 421 m20 1915
 349 m 16 X s 1946 349 m 17 X s 1915 342 m 15 Y s 1963 342 m 15 Y s 1939 349 m20 1963 265 m 16 X s 1994 265 m 17 X s 1963 258 m 15 Y s 2011 258 m 15 Y s 1987 265 m20 2011 230 m 16 X s 2042 230 m 17 X s 2011 222 m 15 Y s 2059 222 m 15 Y s 2035 230 m20
 2059 210 m 16 X s 2090 210 m 16 X s 2059 203 m 15 Y s 2106 203 m 15 Y s 2082 210 m20 2106 203 m 17 X s 2138 203 m 16 X s 2106 195 m 15 Y s 2154 195 m 15 Y s 2130 203 m20 1 0 0 c 1 1 1 c 1 0 0 c 286 203 m 16 X s 318 203 m 16 X s 286 195 m 15 Y s 334
 195 m 15 Y s 310 203 m20 334 204 m 16 X s 365 204 m 17 X s 334 197 m 15 Y s 382 197 m 15 Y s 358 204 m20 382 206 m 16 X s 413 206 m 17 X s 382 199 m 15 Y s 430 199 m 15 Y s 406 206 m20 430 209 m 16 X s 461 209 m 17 X s 430 201 m 16 Y s 478 201 m 16
 Y s 454 209 m20 478 221 m 16 X s 509 221 m 17 X s 478 213 m 16 Y s 526 213 m 16 Y s 502 221 m20 549 237 m s 549 252 m s 526 245 m 16 X s 557 245 m 16 X s 542 237 m 15 X s 542 252 m 15 X s 526 237 m 15 Y s 573 237 m 15 Y s 549 245 m20 597 242 m 6 Y s
 597 264 m 6 Y s 573 256 m 17 X s 605 256 m 16 X s 590 242 m 15 X s 590 270 m 15 X s 573 248 m 16 Y s 621 248 m 16 Y s 597 256 m20 645 270 m 3 Y s 645 288 m 3 Y s 621 280 m 17 X s 653 280 m 16 X s 638 270 m 15 X s 638 291 m 15 X s 621 273 m 15 Y s
 669 273 m 15 Y s 645 280 m20 693 340 m 9 Y s 693 364 m 8 Y s 669 356 m 17 X s 701 356 m 16 X s 686 340 m 15 X s 686 372 m 15 X s 669 349 m 15 Y s 717 349 m 15 Y s 693 356 m20 741 429 m 15 Y s 741 459 m 15 Y s 717 451 m 17 X s 749 451 m 16 X s 734
 429 m 15 X s 734 474 m 15 X s 717 444 m 15 Y s 765 444 m 15 Y s 741 451 m20 789 460 m 15 Y s 789 490 m 15 Y s 765 482 m 16 X s 797 482 m 16 X s 781 460 m 16 X s 781 505 m 16 X s 765 475 m 15 Y s 813 475 m 15 Y s 789 482 m20 837 543 m 21 Y s 837 580
 m 20 Y s 813 572 m 16 X s 845 572 m 16 X s 829 543 m 16 X s 829 600 m 16 X s 813 564 m 16 Y s 861 564 m 16 Y s 837 572 m20 885 654 m 23 Y s 885 692 m 23 Y s 861 685 m 16 X s 892 685 m 17 X s 877 654 m 15 X s 877 715 m 15 X s 861 677 m 15 Y s 909 677
 m 15 Y s 885 685 m20 933 768 m 27 Y s 933 811 m 28 Y s 909 803 m 16 X s 940 803 m 17 X s 925 768 m 15 X s 925 839 m 15 X s 909 795 m 16 Y s 957 795 m 16 Y s 933 803 m20 981 894 m 34 Y s 981 944 m 33 Y s 957 936 m 16 X s 988 936 m 17 X s 973 894 m 15
 X s 973 977 m 15 X s 957 928 m 16 Y s 1005 928 m 16 Y s 981 936 m20 1029 951 m 34 Y s 1029 1000 m 34 Y s 1005 992 m 16 X s 1036 992 m 17 X s 1021 951 m 15 X s 1021 1034 m 15 X s 1005 985 m 15 Y s 1053 985 m 15 Y s 1029 992 m20 1076 882 m 31 Y s 1076
 929 m 31 Y s 1053 921 m 16 X s 1084 921 m 16 X s 1069 882 m 15 X s 1069 960 m 15 X s 1053 913 m 16 Y s 1100 913 m 16 Y s 1076 921 m20 1124 828 m 28 Y s 1124 871 m 27 Y s 1100 863 m 17 X s 1132 863 m 16 X s 1117 828 m 15 X s 1117 898 m 15 X s 1100
 856 m 15 Y s 1148 856 m 15 Y s 1124 863 m20 1172 730 m 25 Y s 1172 770 m 25 Y s 1148 762 m 17 X s 1180 762 m 16 X s 1165 730 m 15 X s 1165 795 m 15 X s 1148 755 m 15 Y s 1196 755 m 15 Y s 1172 762 m20 1220 658 m 23 Y s 1220 696 m 24 Y s 1196 689 m
 17 X s 1228 689 m 16 X s 1213 658 m 15 X s 1213 720 m 15 X s 1196 681 m 15 Y s 1244 681 m 15 Y s 1220 689 m20 1268 554 m 32 Y s 1268 601 m 32 Y s 1244 594 m 16 X s 1276 594 m 16 X s 1260 554 m 16 X s 1260 633 m 16 X s 1244 586 m 15 Y s 1292 586 m 15
 Y s 1268 594 m20 1316 434 m 17 Y s 1316 466 m 17 Y s 1292 458 m 16 X s 1324 458 m 16 X s 1308 434 m 16 X s 1308 483 m 16 X s 1292 451 m 15 Y s 1340 451 m 15 Y s 1316 458 m20 1364 354 m 9 Y s 1364 378 m 10 Y s 1340 371 m 16 X s 1371 371 m 17 X s 1356
 354 m 15 X s 1356 388 m 15 X s 1340 363 m 15 Y s 1388 363 m 15 Y s 1364 371 m20 1412 312 m 7 Y s 1412 334 m 8 Y s 1388 327 m 16 X s 1419 327 m 17 X s 1404 312 m 15 X s 1404 342 m 15 X s 1388 319 m 15 Y s 1436 319 m 15 Y s 1412 327 m20 1460 292 m 5 Y
 s 1460 312 m 5 Y s 1436 305 m 16 X s 1467 305 m 17 X s 1452 292 m 15 X s 1452 317 m 15 X s 1436 297 m 15 Y s 1484 297 m 15 Y s 1460 305 m20 1508 286 m 5 Y s 1508 306 m 5 Y s 1484 299 m 16 X s 1515 299 m 17 X s 1500 286 m 15 X s 1500 311 m 15 X s
 1484 291 m 15 Y s 1532 291 m 15 Y s 1508 299 m20 1556 269 m 4 Y s 1556 288 m 4 Y s 1532 281 m 16 X s 1563 281 m 16 X s 1548 269 m 15 X s 1548 292 m 15 X s 1532 273 m 15 Y s 1579 273 m 15 Y s 1556 281 m20 1603 248 m 1 Y s 1603 264 m 1 Y s 1579 257 m
 17 X s 1611 257 m 16 X s 1596 248 m 15 X s 1596 265 m 15 X s 1579 249 m 15 Y s 1627 249 m 15 Y s 1603 257 m20 1651 259 m 3 Y s 1651 277 m 3 Y s 1627 269 m 17 X s 1659 269 m 16 X s 1644 259 m 15 X s 1644 280 m 15 X s 1627 262 m 15 Y s 1675 262 m 15 Y
 s 1651 269 m20 1699 250 m 4 Y s 1699 270 m 4 Y s 1675 262 m 17 X s 1707 262 m 16 X s 1692 250 m 15 X s 1692 274 m 15 X s 1675 254 m 16 Y s 1723 254 m 16 Y s 1699 262 m20 1747 223 m 2 Y s 1747 240 m 2 Y s 1723 233 m 17 X s 1755 233 m 16 X s 1740 223
 m 15 X s 1740 242 m 15 X s 1723 225 m 15 Y s 1771 225 m 15 Y s 1747 233 m20 1771 218 m 16 X s 1803 218 m 16 X s 1771 211 m 15 Y s 1819 211 m 15 Y s 1795 218 m20 1819 214 m 16 X s 1851 214 m 16 X s 1819 207 m 15 Y s 1867 207 m 15 Y s 1843 214 m20
 1867 207 m 16 X s 1898 207 m 17 X s 1867 199 m 15 Y s 1915 199 m 15 Y s 1891 207 m20 1915 204 m 16 X s 1946 204 m 17 X s 1915 197 m 15 Y s 1963 197 m 15 Y s 1939 204 m20 1963 203 m 16 X s 1994 203 m 17 X s 1963 196 m 15 Y s 2011 196 m 15 Y s 1987
 203 m20 2011 202 m 16 X s 2042 202 m 17 X s 2011 195 m 15 Y s 2059 195 m 15 Y s 2035 202 m20 2059 202 m 16 X s 2090 202 m 16 X s 2059 194 m 16 Y s 2106 194 m 16 Y s 2082 202 m20 2106 202 m 17 X s 2138 202 m 16 X s 2106 194 m 16 Y s 2154 194 m 16 Y s
 2130 202 m20 black
 gsave  2268 1684 0 0 C 272.126 1245.95 t 0 r /Helvetica-Bold findfont 49.2982 sf 0 0 m (Kolmogorov\255Smirnov test: signal \(background\) probability =     0 \(0.141\)) show NC gr  238 202 m 1916 X s 416 245 m -43 Y s 463 223 m -21 Y s 510 223 m -21
 Y s 556 223 m -21 Y s 603 223 m -21 Y s 650 245 m -43 Y s 696 223 m -21 Y s 743 223 m -21 Y s 790 223 m -21 Y s 836 223 m -21 Y s 883 245 m -43 Y s 930 223 m -21 Y s 976 223 m -21 Y s 1023 223 m -21 Y s 1070 223 m -21 Y s 1116 245 m -43 Y s 1163 223
 m -21 Y s 1210 223 m -21 Y s 1256 223 m -21 Y s 1303 223 m -21 Y s 1350 245 m -43 Y s 1396 223 m -21 Y s 1443 223 m -21 Y s 1490 223 m -21 Y s 1536 223 m -21 Y s 1583 245 m -43 Y s 1630 223 m -21 Y s 1676 223 m -21 Y s 1723 223 m -21 Y s 1770 223 m
 -21 Y s 1816 245 m -43 Y s 1863 223 m -21 Y s 1910 223 m -21 Y s 1956 223 m -21 Y s 2003 223 m -21 Y s 2050 245 m -43 Y s 416 245 m -43 Y s 370 223 m -21 Y s 323 223 m -21 Y s 276 223 m -21 Y s 2050 245 m -43 Y s 2096 223 m -21 Y s 2143 223 m -21 Y
 s 238 1515 m 1916 X s 416 1473 m 42 Y s 463 1494 m 21 Y s 510 1494 m 21 Y s 556 1494 m 21 Y s 603 1494 m 21 Y s 650 1473 m 42 Y s 696 1494 m 21 Y s 743 1494 m 21 Y s 790 1494 m 21 Y s 836 1494 m 21 Y s 883 1473 m 42 Y s 930 1494 m 21 Y s 976 1494 m
 21 Y s 1023 1494 m 21 Y s 1070 1494 m 21 Y s 1116 1473 m 42 Y s 1163 1494 m 21 Y s 1210 1494 m 21 Y s 1256 1494 m 21 Y s 1303 1494 m 21 Y s 1350 1473 m 42 Y s 1396 1494 m 21 Y s 1443 1494 m 21 Y s 1490 1494 m 21 Y s 1536 1494 m 21 Y s 1583 1473 m 42
 Y s 1630 1494 m 21 Y s 1676 1494 m 21 Y s 1723 1494 m 21 Y s 1770 1494 m 21 Y s 1816 1473 m 42 Y s 1863 1494 m 21 Y s 1910 1494 m 21 Y s 1956 1494 m 21 Y s 2003 1494 m 21 Y s 2050 1473 m 42 Y s 416 1473 m 42 Y s 370 1494 m 21 Y s 323 1494 m 21 Y s
 276 1494 m 21 Y s 2050 1473 m 42 Y s 2096 1494 m 21 Y s 2143 1494 m 21 Y s 238 202 m 1313 Y s 291 202 m -53 X s 265 234 m -27 X s 265 266 m -27 X s 265 298 m -27 X s 265 330 m -27 X s 291 361 m -53 X s 265 393 m -27 X s 265 425 m -27 X s 265 457 m
 -27 X s 265 489 m -27 X s 291 521 m -53 X s 265 553 m -27 X s 265 585 m -27 X s 265 617 m -27 X s 265 648 m -27 X s 291 680 m -53 X s 265 712 m -27 X s 265 744 m -27 X s 265 776 m -27 X s 265 808 m -27 X s 291 840 m -53 X s 265 872 m -27 X s 265 903
 m -27 X s 265 935 m -27 X s 265 967 m -27 X s 291 999 m -53 X s 265 1031 m -27 X s 265 1063 m -27 X s 265 1095 m -27 X s 265 1127 m -27 X s 291 1159 m -53 X s 265 1190 m -27 X s 265 1222 m -27 X s 265 1254 m -27 X s 265 1286 m -27 X s 291 1318 m -53
 X s 265 1350 m -27 X s 265 1382 m -27 X s 265 1414 m -27 X s 265 1446 m -27 X s 291 1477 m -53 X s 291 1477 m -53 X s 265 1509 m -27 X s 2154 202 m 1313 Y s 2101 202 m 53 X s 2128 234 m 26 X s 2128 266 m 26 X s 2128 298 m 26 X s 2128 330 m 26 X s
 2101 361 m 53 X s 2128 393 m 26 X s 2128 425 m 26 X s 2128 457 m 26 X s 2128 489 m 26 X s 2101 521 m 53 X s 2128 553 m 26 X s 2128 585 m 26 X s 2128 617 m 26 X s 2128 648 m 26 X s 2101 680 m 53 X s 2128 712 m 26 X s 2128 744 m 26 X s 2128 776 m 26 X
 s 2128 808 m 26 X s 2101 840 m 53 X s 2128 872 m 26 X s 2128 903 m 26 X s 2128 935 m 26 X s 2128 967 m 26 X s 2101 999 m 53 X s 2128 1031 m 26 X s 2128 1063 m 26 X s 2128 1095 m 26 X s 2128 1127 m 26 X s 2101 1159 m 53 X s 2128 1190 m 26 X s 2128
 1222 m 26 X s 2128 1254 m 26 X s 2128 1286 m 26 X s 2101 1318 m 53 X s 2128 1350 m 26 X s 2128 1382 m 26 X s 2128 1414 m 26 X s 2128 1446 m 26 X s 2101 1477 m 53 X s 2101 1477 m 53 X s 2128 1509 m 26 X s
 gsave  2268 1684 0 0 C 2211.02 193.628 t 90 r /Helvetica-Bold findfont 45.506 sf 0 0 m (U/O\255flow \(S,B\): \(0.0, 0.0\)% / \(0.0, 0.0\)%) show NC gr  0.490196 0.545098 0.615686 c 0.364706 0.419608 0.490196 c 1587 100 23 1575 bf 0.490196 0.545098
 0.615686 c 23 1575 m 1587 X s 1610 1575 m 100 Y s 1610 1675 m -1587 X s 23 1675 m -100 Y s 1 1 1 c black 1 1 1 c
 gsave  2268 1684 0 0 C 94.8042 1607.88 t 0 r /Helvetica-Bold findfont 64.4669 sf 0 0 m (TMVA overtraining check for classifier: RuleFit) show NC gr 
 gr  gr showpage
end
%%EOF
