%!PS-Adobe-2.0 EPSF-2.0
%%BoundingBox:  0 0 567 296
%%Title: dataset_class_comb/plots/variables_id_c1.eps: Input variables (training sample)
%%Creator: ROOT Version 6.18/00
%%CreationDate: Sat Sep 14 13:41:43 2019
%%DocumentNeededResources: ProcSet (FontSetInit)
%%EndComments
%%BeginProlog
80 dict begin
/s {stroke} def /l {lineto} def /m {moveto} def /t {translate} def
/r {rotate} def /rl {roll}  def /R {repeat} def
/d {rlineto} def /rm {rmoveto} def /gr {grestore} def /f {eofill} def
/c {setrgbcolor} def /black {0 setgray} def /sd {setdash} def
/cl {closepath} def /sf {scalefont setfont} def /lw {setlinewidth} def
/box {m dup 0 exch d exch 0 d 0 exch neg d cl} def
/NC{systemdict begin initclip end}def/C{NC box clip newpath}def
/bl {box s} def /bf {gsave box gsave f grestore 1 lw [] 0 sd s grestore} def /Y { 0 exch d} def /X { 0 d} def 
/K {{pop pop 0 moveto} exch kshow} bind def
/ita {/ang 15 def gsave [1 0 ang dup sin exch cos div 1 0 0] concat} def 
/mp {newpath /y exch def /x exch def} def
/side {[w .77 mul w .23 mul] .385 w mul sd w 0 l currentpoint t -144 r} def
/mr {mp x y w2 0 360 arc} def /m24 {mr s} def /m20 {mr f} def
/mb {mp x y w2 add m w2 neg 0 d 0 w neg d w 0 d 0 w d cl} def
/mt {mp x y w2 add m w2 neg w neg d w 0 d cl} def
/w4 {w 4 div} def
/w6 {w 6 div} def
/w8 {w 8 div} def
/m21 {mb f} def /m25 {mb s} def /m22 {mt f} def /m26{mt s} def
/m23 {mp x y w2 sub m w2 w d w neg 0 d cl f} def
/m27 {mp x y w2 add m w3 neg w2 neg d w3 w2 neg d w3 w2 d cl s} def
/m28 {mp x w2 sub y w2 sub w3 add m w3 0 d  0 w3 neg d w3 0 d 0 w3 d w3 0 d  0 w3 d w3 neg 0 d 0 w3 d w3 neg 0 d 0 w3 neg d w3 neg 0 d cl s } def
/m29 {mp gsave x w2 sub y w2 add w3 sub m currentpoint t 4 {side} repeat cl fill gr} def
/m30 {mp gsave x w2 sub y w2 add w3 sub m currentpoint t 4 {side} repeat cl s gr} def
/m31 {mp x y w2 sub m 0 w d x w2 sub y m w 0 d x w2 sub y w2 add m w w neg d x w2 sub y w2 sub m w w d s} def
/m32 {mp x y w2 sub m w2 w d w neg 0 d cl s} def
/m33 {mp x y w2 add m w3 neg w2 neg d w3 w2 neg d w3 w2 d cl f} def
/m34 {mp x w2 sub y w2 sub w3 add m w3 0 d  0 w3 neg d w3 0 d 0 w3 d w3 0 d  0 w3 d w3 neg 0 d 0 w3 d w3 neg 0 d 0 w3 neg d w3 neg 0 d cl f } def
/m35 {mp x y w2 add m w2 neg w2 neg d w2 w2 neg d w2 w2 d w2 neg w2 d x y w2 sub m 0 w d x w2 sub y m w 0 d s} def
/m36 {mb x w2 sub y w2 add m w w neg d x w2 sub y w2 sub m w w d s} def
/m37 {mp x y m w4 neg w2 d w4 neg w2 neg d w2 0 d  w4 neg w2 neg d w2 0 d w4 neg w2 d w2 0 d w4 neg w2 d w4 neg w2 neg d cl s} def
/m38 {mp x w4 sub y w2 add m w4 neg w4 neg d 0 w2 neg d w4 w4 neg d w2 0 d w4 w4 d 0 w2 d w4 neg w4 d w2 neg 0 d x y w2 sub m 0 w d x w2 sub y m w 0 d cl s} def
/m39 {mp x y m w4 neg w2 d w4 neg w2 neg d w2 0 d  w4 neg w2 neg d w2 0 d w4 neg w2 d w2 0 d w4 neg w2 d w4 neg w2 neg d cl f} def
/m40 {mp x y m w4 w2 d w4 w4 neg d w2 neg w4 neg d w2 w4 neg d w4 neg w4 neg d w4 neg w2 d w4 neg w2 neg d w4 neg w4 d w2 w4 d w2 neg w4 d w4 w4 d w4 w2 neg d cl s} def
/m41 {mp x y m w4 w2 d w4 w4 neg d w2 neg w4 neg d w2 w4 neg d w4 neg w4 neg d w4 neg w2 d w4 neg w2 neg d w4 neg w4 d w2 w4 d w2 neg w4 d w4 w4 d w4 w2 neg d cl f} def
/m42 {mp x y w2 add m w8 neg w2 -3 4 div mul d w2 -3 4 div mul w8 neg d w2 3 4 div mul w8 neg d w8 w2 -3 4 div mul d w8 w2 3 4 div mul d w2 3 4 div mul w8 d w2 -3 4 div mul w8 d w8 neg w2 3 4 div mul d cl s} def
/m43 {mp x y w2 add m w8 neg w2 -3 4 div mul d w2 -3 4 div mul w8 neg d w2 3 4 div mul w8 neg d w8 w2 -3 4 div mul d w8 w2 3 4 div mul d w2 3 4 div mul w8 d w2 -3 4 div mul w8 d w8 neg w2 3 4 div mul d cl f} def
/m44 {mp x y m w6 neg w2 d w2 2 3 div mul 0 d w6 neg w2 neg d w2 w6 d 0 w2 -2 3 div mul d w2 neg w6 d w6 w2 neg d w2 -2 3 div mul 0 d w6 w2 d w2 neg w6 neg d 0 w2 2 3 div mul d w2 w6 neg d cl s} def
/m45 {mp x y m w6 neg w2 d w2 2 3 div mul 0 d w6 neg w2 neg d w2 w6 d 0 w2 -2 3 div mul d w2 neg w6 d w6 w2 neg d w2 -2 3 div mul 0 d w6 w2 d w2 neg w6 neg d 0 w2 2 3 div mul d w2 w6 neg d cl f} def
/m46 {mp x y w4 add m w4 neg w4 d w4 neg w4 neg d  w4 w4 neg d w4 neg w4 neg d w4 w4 neg d w4 w4 d w4 w4 neg d w4 w4 d w4 neg w4 d w4 w4 d w4 neg w4 d w4 neg w4 neg d cl s} def
/m47 {mp x y w4 add m w4 neg w4 d w4 neg w4 neg d w4 w4 neg d w4 neg w4 neg d  w4 w4 neg d w4 w4 d w4 w4 neg d w4 w4 d w4 neg w4 d w4 w4 d w4 neg w4 d w4 neg w4 neg d cl f} def
/m48 {mp x y w4 add m w4 neg w4 d w4 neg w4 neg d w4 w4 neg d  w4 neg w4 neg d w4 w4 neg d w4 w4 d w4 w4 neg d w4 w4 d w4 neg w4 d w4 w4 d w4 neg w4 d w4 neg w4 neg d  w4 w4 neg d w4 neg w4 neg d w4 neg w4 d w4 w4 d cl f} def
/m49 {mp x w2 sub w3 add y w2 sub w3 add m  0 w3 neg d w3 0 d 0 w3 d w3 0 d 0 w3 d w3 neg 0 d 0 w3 d w3 neg 0 d 0 w3 neg d w3 neg 0 d 0 w3 neg d w3 0 d 0 w3 d w3 0 d 0 w3 neg d w3 neg 0 d cl f } def
/m2 {mp x y w2 sub m 0 w d x w2 sub y m w 0 d s} def
/m5 {mp x w2 sub y w2 sub m w w d x w2 sub y w2 add m w w neg d s} def
%%IncludeResource: ProcSet (FontSetInit)
%%IncludeResource: font Times-Roman
%%IncludeResource: font Times-Italic
%%IncludeResource: font Times-Bold
%%IncludeResource: font Times-BoldItalic
%%IncludeResource: font Helvetica
%%IncludeResource: font Helvetica-Oblique
%%IncludeResource: font Helvetica-Bold
%%IncludeResource: font Helvetica-BoldOblique
%%IncludeResource: font Courier
%%IncludeResource: font Courier-Oblique
%%IncludeResource: font Courier-Bold
%%IncludeResource: font Courier-BoldOblique
%%IncludeResource: font Symbol
%%IncludeResource: font ZapfDingbats
/reEncode {exch findfont dup length dict begin {1 index /FID eq  {pop pop} {def} ifelse } forall /Encoding exch def currentdict end dup /FontName get exch definefont pop } def [/Times-Bold /Times-Italic /Times-BoldItalic /Helvetica /Helvetica-Oblique
 /Helvetica-Bold /Helvetica-BoldOblique /Courier /Courier-Oblique /Courier-Bold /Courier-BoldOblique /Times-Roman /AvantGarde-Book /AvantGarde-BookOblique /AvantGarde-Demi /AvantGarde-DemiOblique /Bookman-Demi /Bookman-DemiItalic /Bookman-Light
 /Bookman-LightItalic /Helvetica-Narrow /Helvetica-Narrow-Bold /Helvetica-Narrow-BoldOblique /Helvetica-Narrow-Oblique /NewCenturySchlbk-Roman /NewCenturySchlbk-Bold /NewCenturySchlbk-BoldItalic /NewCenturySchlbk-Italic /Palatino-Bold
 /Palatino-BoldItalic /Palatino-Italic /Palatino-Roman ] {ISOLatin1Encoding reEncode } forall
%%EndProlog
%%BeginSetup
%%EndSetup
newpath  gsave  .25 .25 scale  gsave  0 0 t 0.490196 0.545098 0.615686 c[  ] 0 sd 3 lw 0.941176 0.941176 0.941176 c 2268 1182 0 0 bf 0.490196 0.545098 0.615686 c 0.941176 0.941176 0.941176 c 710 567 23 603 bf black 1 1 0.992157 c 548 429 143 685 bf
 black 548 429 143 685 bl 0 0 0.933333 c 6 lw 0.49 0.6 0.82 c black 3 lw 0.49 0.6 0.82 c 143 705 m 55 X 1 Y 14 X -1 Y 27 X 1 Y 14 X 313 Y 14 X -150 Y 13 X -49 Y 14 X -18 Y 14 X -19 Y 13 X -5 Y 14 X -18 Y 27 X -6 Y 14 X 3 Y 14 X -24 Y 13 X -7 Y 14 X
 -4 Y 14 X -7 Y 13 X -4 Y 14 X -5 Y 14 X -1 Y 219 X f 6 lw 0 0 0.933333 c 0.49 0.6 0.82 c 0 0 0.933333 c 143 705 m 55 X 1 Y 14 X -1 Y 27 X 1 Y 14 X 313 Y 14 X -150 Y 13 X -49 Y 14 X -18 Y 14 X -19 Y 13 X -5 Y 14 X -18 Y 27 X -6 Y 14 X 3 Y 14 X -24 Y
 13 X -7 Y 14 X -4 Y 14 X -7 Y 13 X -4 Y 14 X -5 Y 14 X -1 Y 219 X s black 3 lw 143 685 m 548 X s 174 698 m -13 Y s 189 691 m -6 Y s 204 691 m -6 Y s 219 691 m -6 Y s 234 691 m -6 Y s 248 698 m -13 Y s 263 691 m -6 Y s 278 691 m -6 Y s 293 691 m -6 Y
 s 308 691 m -6 Y s 322 698 m -13 Y s 337 691 m -6 Y s 352 691 m -6 Y s 367 691 m -6 Y s 382 691 m -6 Y s 396 698 m -13 Y s 411 691 m -6 Y s 426 691 m -6 Y s 441 691 m -6 Y s 456 691 m -6 Y s 471 698 m -13 Y s 485 691 m -6 Y s 500 691 m -6 Y s 515
 691 m -6 Y s 530 691 m -6 Y s 545 698 m -13 Y s 559 691 m -6 Y s 574 691 m -6 Y s 589 691 m -6 Y s 604 691 m -6 Y s 619 698 m -13 Y s 174 698 m -13 Y s 160 691 m -6 Y s 145 691 m -6 Y s 619 698 m -13 Y s 633 691 m -6 Y s 648 691 m -6 Y s 663 691 m
 -6 Y s 678 691 m -6 Y s
 gsave  710 567 23 603 C 173.347 656.444 t 0 r /Helvetica findfont 25.6631 sf 0 0 m (1) show NC gr 
 gsave  710 567 23 603 C 159.138 656.444 t 0 r /Symbol findfont 25.6631 sf 0 0 m (-) show NC gr 
 gsave  710 567 23 603 C 235.865 656.444 t 0 r /Helvetica findfont 25.6631 sf 0 0 m (0.5) show NC gr 
 gsave  710 567 23 603 C 221.657 656.444 t 0 r /Symbol findfont 25.6631 sf 0 0 m (-) show NC gr 
 gsave  710 567 23 603 C 312.592 656.444 t 0 r /Helvetica findfont 25.6631 sf 0 0 m (0) show NC gr 
 gsave  710 567 23 603 C 377.953 656.444 t 0 r /Helvetica findfont 25.6631 sf 0 0 m (0.5) show NC gr 
 gsave  710 567 23 603 C 463.205 656.444 t 0 r /Helvetica findfont 25.6631 sf 0 0 m (1) show NC gr 
 gsave  710 567 23 603 C 525.724 656.444 t 0 r /Helvetica findfont 25.6631 sf 0 0 m (1.5) show NC gr 
 gsave  710 567 23 603 C 608.135 656.444 t 0 r /Helvetica findfont 25.6631 sf 0 0 m (2) show NC gr 
 gsave  710 567 23 603 C 582.559 616.66 t 0 r /Helvetica findfont 28.5146 sf 0 0 m (yy.H1_l3) show NC gr  143 1114 m 548 X s 174 1100 m 14 Y s 189 1107 m 7 Y s 204 1107 m 7 Y s 219 1107 m 7 Y s 234 1107 m 7 Y s 248 1100 m 14 Y s 263 1107 m 7 Y s 278
 1107 m 7 Y s 293 1107 m 7 Y s 308 1107 m 7 Y s 322 1100 m 14 Y s 337 1107 m 7 Y s 352 1107 m 7 Y s 367 1107 m 7 Y s 382 1107 m 7 Y s 396 1100 m 14 Y s 411 1107 m 7 Y s 426 1107 m 7 Y s 441 1107 m 7 Y s 456 1107 m 7 Y s 471 1100 m 14 Y s 485 1107 m 7
 Y s 500 1107 m 7 Y s 515 1107 m 7 Y s 530 1107 m 7 Y s 545 1100 m 14 Y s 559 1107 m 7 Y s 574 1107 m 7 Y s 589 1107 m 7 Y s 604 1107 m 7 Y s 619 1100 m 14 Y s 174 1100 m 14 Y s 160 1107 m 7 Y s 145 1107 m 7 Y s 619 1100 m 14 Y s 633 1107 m 7 Y s 648
 1107 m 7 Y s 663 1107 m 7 Y s 678 1107 m 7 Y s 143 685 m 429 Y s 160 705 m -17 X s 152 716 m -9 X s 152 726 m -9 X s 152 737 m -9 X s 152 747 m -9 X s 160 758 m -17 X s 152 768 m -9 X s 152 779 m -9 X s 152 789 m -9 X s 152 800 m -9 X s 160 810 m
 -17 X s 152 821 m -9 X s 152 831 m -9 X s 152 842 m -9 X s 152 852 m -9 X s 160 863 m -17 X s 152 873 m -9 X s 152 884 m -9 X s 152 894 m -9 X s 152 905 m -9 X s 160 915 m -17 X s 152 926 m -9 X s 152 937 m -9 X s 152 947 m -9 X s 152 958 m -9 X s
 160 968 m -17 X s 152 979 m -9 X s 152 989 m -9 X s 152 1000 m -9 X s 152 1010 m -9 X s 160 1021 m -17 X s 152 1031 m -9 X s 152 1042 m -9 X s 152 1052 m -9 X s 152 1063 m -9 X s 160 1073 m -17 X s 160 705 m -17 X s 152 695 m -9 X s 160 1073 m -17 X
 s 152 1084 m -9 X s 152 1094 m -9 X s 152 1105 m -9 X s
 gsave  710 567 23 603 C 119.354 696.229 t 0 r /Helvetica findfont 25.6631 sf 0 0 m (0) show NC gr 
 gsave  710 567 23 603 C 99.4613 747.38 t 0 r /Helvetica findfont 25.6631 sf 0 0 m (0.5) show NC gr 
 gsave  710 567 23 603 C 122.195 801.374 t 0 r /Helvetica findfont 25.6631 sf 0 0 m (1) show NC gr 
 gsave  710 567 23 603 C 99.4613 852.525 t 0 r /Helvetica findfont 25.6631 sf 0 0 m (1.5) show NC gr 
 gsave  710 567 23 603 C 119.354 906.518 t 0 r /Helvetica findfont 25.6631 sf 0 0 m (2) show NC gr 
 gsave  710 567 23 603 C 99.4613 957.67 t 0 r /Helvetica findfont 25.6631 sf 0 0 m (2.5) show NC gr 
 gsave  710 567 23 603 C 119.354 1011.66 t 0 r /Helvetica findfont 25.6631 sf 0 0 m (3) show NC gr 
 gsave  710 567 23 603 C 99.4613 1062.81 t 0 r /Helvetica findfont 25.6631 sf 0 0 m (3.5) show NC gr 
 gsave  710 567 23 603 C 45.468 1023.03 t 90 r /Helvetica findfont 28.5146 sf 0 0 m (0.0923 ) show NC gr 
 gsave  710 567 23 603 C 31.2593 1020.19 t 90 r /Helvetica findfont 19.9602 sf 0 0 m ( ) show NC gr 
 gsave  710 567 23 603 C 45.468 1008.82 t 90 r /Helvetica findfont 28.5146 sf 0 0 m (/) show NC gr 
 gsave  710 567 23 603 C 53.9933 1005.98 t 90 r /Helvetica findfont 19.9602 sf 0 0 m ( ) show NC gr 
 gsave  710 567 23 603 C 45.468 900.835 t 90 r /Helvetica findfont 28.5146 sf 0 0 m (\(1/N\) dN) show NC gr  691 685 m 429 Y s 674 705 m 17 X s 683 716 m 8 X s 683 726 m 8 X s 683 737 m 8 X s 683 747 m 8 X s 674 758 m 17 X s 683 768 m 8 X s 683 779 m
 8 X s 683 789 m 8 X s 683 800 m 8 X s 674 810 m 17 X s 683 821 m 8 X s 683 831 m 8 X s 683 842 m 8 X s 683 852 m 8 X s 674 863 m 17 X s 683 873 m 8 X s 683 884 m 8 X s 683 894 m 8 X s 683 905 m 8 X s 674 915 m 17 X s 683 926 m 8 X s 683 937 m 8 X s
 683 947 m 8 X s 683 958 m 8 X s 674 968 m 17 X s 683 979 m 8 X s 683 989 m 8 X s 683 1000 m 8 X s 683 1010 m 8 X s 674 1021 m 17 X s 683 1031 m 8 X s 683 1042 m 8 X s 683 1052 m 8 X s 683 1063 m 8 X s 674 1073 m 17 X s 674 705 m 17 X s 683 695 m 8 X
 s 674 1073 m 17 X s 683 1084 m 8 X s 683 1094 m 8 X s 683 1105 m 8 X s 0.490196 0.545098 0.615686 c 0.364706 0.419608 0.490196 c 332 38 30 1130 bf 0.490196 0.545098 0.615686 c 30 1130 m 332 X s 362 1130 m 38 Y s 362 1168 m -332 X s 30 1168 m -38 Y s
 1 1 1 c black 1 1 1 c
 gsave  710 567 23 603 C 34.101 1142.38 t 0 r /Helvetica-Bold findfont 28.5146 sf 0 0 m (Input variable: yy.H1_l3) show NC gr  1 0 0 c 6 lw black 3 lw 1 0 0 c 682 705 m s 667 705 m s 652 705 m s 637 705 m s 621 705 m s 606 705 m s 591 705 m s 576 705
 m s 561 705 m s 546 705 m s 531 705 m s 516 705 m s 501 705 m s 486 705 m s 471 705 m s 456 705 m s 442 706 m -1 -1 d s 427 706 m -1 -1 d s 415 709 m -5 -4 d s 402 712 m -7 -7 d s 390 714 m -10 -9 d s 390 730 m -25 -25 d s 390 745 m -40 -40 d s 390
 760 m -55 -55 d s 390 775 m -70 -70 d s 390 790 m -85 -85 d s 390 806 m -100 -101 d s 390 821 m -28 -28 d s 360 791 m -85 -86 d s 390 836 m -14 -14 d s 365 811 m -3 -3 d s 337 783 m -2 -2 d s 326 772 m -66 -67 d s 390 851 m -14 -14 d s 318 779 m -73
 -74 d s 390 866 m -14 -13 d s 302 778 m -49 -49 d s 247 723 m -17 -18 d s 390 881 m -14 -13 d s 294 785 m -41 -41 d s 234 724 m -19 -19 d s 390 897 m -14 -14 d s 280 786 m -27 -27 d s 215 721 m -16 -16 d s 381 903 m -5 -5 d s 280 802 m -27 -28 d s
 199 720 m -1 -1 d s 197 718 m -13 -13 d s 279 816 m -26 -27 d s 179 715 m -8 -8 d s 169 705 m s 267 818 m -14 -14 d s 154 705 m s 267 833 m -14 -13 d s 267 849 m -14 -14 d s 267 864 m -14 -14 d s 255 867 m -2 -2 d s 6 lw 143 705 m 28 X 10 Y 14 X 3 Y
 13 X 2 Y 14 X 1 Y 14 X 3 Y 13 X -1 Y 14 X 144 Y 14 X -51 Y 13 X -30 Y 14 X -8 Y 14 X 1 Y 13 X -7 Y 14 X 11 Y 14 X 8 Y 13 X 20 Y 14 X 92 Y 14 X -191 Y 13 X -3 Y 14 X -3 Y 27 X -1 Y 247 X s 0.490196 0.545098 0.615686 c 3 lw 1 1 1 c 0.490196 0.545098
 0.615686 c 285 86 143 1028 bl 143 1028 m 285 X s 428 1028 m 86 Y s 428 1114 m -285 X s 143 1114 m -86 Y s black
 gsave  710 567 23 603 C 227.34 1085.55 t 0 r /Helvetica-Bold findfont 31.3661 sf 0 0 m (Signal) show NC gr  0.49 0.6 0.82 c 156 1077 m 60 X 30 Y -60 X f 0 0 0.933333 c 6 lw 156 1107 m 60 X s 156 1077 m 60 X s 216 1077 m 30 Y s 156 1077 m 30 Y s
 black
 gsave  710 567 23 603 C 227.34 1042.92 t 0 r /Helvetica-Bold findfont 31.3661 sf 0 0 m (Background) show NC gr  1 0 0 c 3 lw 216 1041 m -6 -6 d s 216 1056 m -21 -21 d s 210 1065 m -30 -30 d s 195 1065 m -30 -30 d s 180 1065 m -24 -24 d s 165 1065 m
 -9 -9 d s 6 lw 0 0 0.933333 c 1 0 0 c 156 1065 m 60 X s 156 1035 m 60 X s 216 1035 m 30 Y s 156 1035 m 30 Y s black 3 lw 143 685 m 548 X s 174 698 m -13 Y s 189 691 m -6 Y s 204 691 m -6 Y s 219 691 m -6 Y s 234 691 m -6 Y s 248 698 m -13 Y s 263
 691 m -6 Y s 278 691 m -6 Y s 293 691 m -6 Y s 308 691 m -6 Y s 322 698 m -13 Y s 337 691 m -6 Y s 352 691 m -6 Y s 367 691 m -6 Y s 382 691 m -6 Y s 396 698 m -13 Y s 411 691 m -6 Y s 426 691 m -6 Y s 441 691 m -6 Y s 456 691 m -6 Y s 471 698 m -13
 Y s 485 691 m -6 Y s 500 691 m -6 Y s 515 691 m -6 Y s 530 691 m -6 Y s 545 698 m -13 Y s 559 691 m -6 Y s 574 691 m -6 Y s 589 691 m -6 Y s 604 691 m -6 Y s 619 698 m -13 Y s 174 698 m -13 Y s 160 691 m -6 Y s 145 691 m -6 Y s 619 698 m -13 Y s 633
 691 m -6 Y s 648 691 m -6 Y s 663 691 m -6 Y s 678 691 m -6 Y s 143 1114 m 548 X s 174 1100 m 14 Y s 189 1107 m 7 Y s 204 1107 m 7 Y s 219 1107 m 7 Y s 234 1107 m 7 Y s 248 1100 m 14 Y s 263 1107 m 7 Y s 278 1107 m 7 Y s 293 1107 m 7 Y s 308 1107 m
 7 Y s 322 1100 m 14 Y s 337 1107 m 7 Y s 352 1107 m 7 Y s 367 1107 m 7 Y s 382 1107 m 7 Y s 396 1100 m 14 Y s 411 1107 m 7 Y s 426 1107 m 7 Y s 441 1107 m 7 Y s 456 1107 m 7 Y s 471 1100 m 14 Y s 485 1107 m 7 Y s 500 1107 m 7 Y s 515 1107 m 7 Y s
 530 1107 m 7 Y s 545 1100 m 14 Y s 559 1107 m 7 Y s 574 1107 m 7 Y s 589 1107 m 7 Y s 604 1107 m 7 Y s 619 1100 m 14 Y s 174 1100 m 14 Y s 160 1107 m 7 Y s 145 1107 m 7 Y s 619 1100 m 14 Y s 633 1107 m 7 Y s 648 1107 m 7 Y s 663 1107 m 7 Y s 678
 1107 m 7 Y s 143 685 m 429 Y s 160 705 m -17 X s 152 716 m -9 X s 152 726 m -9 X s 152 737 m -9 X s 152 747 m -9 X s 160 758 m -17 X s 152 768 m -9 X s 152 779 m -9 X s 152 789 m -9 X s 152 800 m -9 X s 160 810 m -17 X s 152 821 m -9 X s 152 831 m
 -9 X s 152 842 m -9 X s 152 852 m -9 X s 160 863 m -17 X s 152 873 m -9 X s 152 884 m -9 X s 152 894 m -9 X s 152 905 m -9 X s 160 915 m -17 X s 152 926 m -9 X s 152 937 m -9 X s 152 947 m -9 X s 152 958 m -9 X s 160 968 m -17 X s 152 979 m -9 X s
 152 989 m -9 X s 152 1000 m -9 X s 152 1010 m -9 X s 160 1021 m -17 X s 152 1031 m -9 X s 152 1042 m -9 X s 152 1052 m -9 X s 152 1063 m -9 X s 160 1073 m -17 X s 160 705 m -17 X s 152 695 m -9 X s 160 1073 m -17 X s 152 1084 m -9 X s 152 1094 m -9
 X s 152 1105 m -9 X s 691 685 m 429 Y s 674 705 m 17 X s 683 716 m 8 X s 683 726 m 8 X s 683 737 m 8 X s 683 747 m 8 X s 674 758 m 17 X s 683 768 m 8 X s 683 779 m 8 X s 683 789 m 8 X s 683 800 m 8 X s 674 810 m 17 X s 683 821 m 8 X s 683 831 m 8 X
 s 683 842 m 8 X s 683 852 m 8 X s 674 863 m 17 X s 683 873 m 8 X s 683 884 m 8 X s 683 894 m 8 X s 683 905 m 8 X s 674 915 m 17 X s 683 926 m 8 X s 683 937 m 8 X s 683 947 m 8 X s 683 958 m 8 X s 674 968 m 17 X s 683 979 m 8 X s 683 989 m 8 X s 683
 1000 m 8 X s 683 1010 m 8 X s 674 1021 m 17 X s 683 1031 m 8 X s 683 1042 m 8 X s 683 1052 m 8 X s 683 1063 m 8 X s 674 1073 m 17 X s 674 705 m 17 X s 683 695 m 8 X s 674 1073 m 17 X s 683 1084 m 8 X s 683 1094 m 8 X s 683 1105 m 8 X s
 gsave  710 567 23 603 C 719.017 682.347 t 90 r /Helvetica-Bold findfont 19.9602 sf 0 0 m (U/O\255flow \(S,B\): \(0.0, 0.0\)% / \(0.0, 0.0\)%) show NC gr  0.490196 0.545098 0.615686 c 0.364706 0.419608 0.490196 c 332 38 30 1130 bf 0.490196 0.545098
 0.615686 c 30 1130 m 332 X s 362 1130 m 38 Y s 362 1168 m -332 X s 30 1168 m -38 Y s 1 1 1 c black 1 1 1 c
 gsave  710 567 23 603 C 34.101 1142.38 t 0 r /Helvetica-Bold findfont 28.5146 sf 0 0 m (Input variable: yy.H1_l3) show NC gr  0.490196 0.545098 0.615686 c 0.941176 0.941176 0.941176 c 710 567 779 603 bf black 1 1 0.992157 c 548 429 899 685 bf black
 548 429 899 685 bl 0 0 0.933333 c 6 lw 0.49 0.6 0.82 c black 3 lw 0.49 0.6 0.82 c 899 685 m 41 X 56 Y 14 X 127 Y 14 X 20 Y 13 X 17 Y 14 X -9 Y 14 X 31 Y 13 X -24 Y 14 X -34 Y 14 X -21 Y 14 X -2 Y 13 X 3 Y 14 X -17 Y 14 X 7 Y 13 X -1 Y 14 X -15 Y 14
 X -6 Y 13 X -1 Y 14 X -2 Y 14 X 7 Y 13 X -6 Y 14 X -12 Y 14 X -21 Y 13 X -16 Y 14 X 2 Y 14 X 4 Y 13 X -19 Y 14 X -4 Y 14 X 3 Y 13 X -17 Y 14 X -17 Y 14 X -6 Y 13 X -12 Y 14 X -8 Y 14 X -6 Y 13 X -1 Y 42 X f 6 lw 0 0 0.933333 c 0.49 0.6 0.82 c 0 0
 0.933333 c 899 685 m 41 X 56 Y 14 X 127 Y 14 X 20 Y 13 X 17 Y 14 X -9 Y 14 X 31 Y 13 X -24 Y 14 X -34 Y 14 X -21 Y 14 X -2 Y 13 X 3 Y 14 X -17 Y 14 X 7 Y 13 X -1 Y 14 X -15 Y 14 X -6 Y 13 X -1 Y 14 X -2 Y 14 X 7 Y 13 X -6 Y 14 X -12 Y 14 X -21 Y 13
 X -16 Y 14 X 2 Y 14 X 4 Y 13 X -19 Y 14 X -4 Y 14 X 3 Y 13 X -17 Y 14 X -17 Y 14 X -6 Y 13 X -12 Y 14 X -8 Y 14 X -6 Y 13 X -1 Y 42 X s black 3 lw 899 685 m 548 X s 919 698 m -13 Y s 931 691 m -6 Y s 943 691 m -6 Y s 955 691 m -6 Y s 967 691 m -6 Y
 s 979 698 m -13 Y s 992 691 m -6 Y s 1004 691 m -6 Y s 1016 691 m -6 Y s 1028 691 m -6 Y s 1040 698 m -13 Y s 1052 691 m -6 Y s 1065 691 m -6 Y s 1077 691 m -6 Y s 1089 691 m -6 Y s 1101 698 m -13 Y s 1113 691 m -6 Y s 1125 691 m -6 Y s 1138 691 m
 -6 Y s 1150 691 m -6 Y s 1162 698 m -13 Y s 1174 691 m -6 Y s 1186 691 m -6 Y s 1198 691 m -6 Y s 1211 691 m -6 Y s 1223 698 m -13 Y s 1235 691 m -6 Y s 1247 691 m -6 Y s 1259 691 m -6 Y s 1271 691 m -6 Y s 1284 698 m -13 Y s 1296 691 m -6 Y s 1308
 691 m -6 Y s 1320 691 m -6 Y s 1332 691 m -6 Y s 1344 698 m -13 Y s 1357 691 m -6 Y s 1369 691 m -6 Y s 1381 691 m -6 Y s 1393 691 m -6 Y s 1405 698 m -13 Y s 919 698 m -13 Y s 906 691 m -6 Y s 1405 698 m -13 Y s 1417 691 m -6 Y s 1430 691 m -6 Y s
 1442 691 m -6 Y s
 gsave  710 567 779 603 C 897.993 656.444 t 0 r /Helvetica findfont 25.6631 sf 0 0 m (0.15) show NC gr 
 gsave  710 567 779 603 C 886.626 656.444 t 0 r /Symbol findfont 25.6631 sf 0 0 m (-) show NC gr 
 gsave  710 567 779 603 C 966.195 656.444 t 0 r /Helvetica findfont 25.6631 sf 0 0 m (0.1) show NC gr 
 gsave  710 567 779 603 C 954.828 656.444 t 0 r /Symbol findfont 25.6631 sf 0 0 m (-) show NC gr 
 gsave  710 567 779 603 C 1020.19 656.444 t 0 r /Helvetica findfont 25.6631 sf 0 0 m (0.05) show NC gr 
 gsave  710 567 779 603 C 1008.82 656.444 t 0 r /Symbol findfont 25.6631 sf 0 0 m (-) show NC gr 
 gsave  710 567 779 603 C 1091.23 656.444 t 0 r /Helvetica findfont 25.6631 sf 0 0 m (0) show NC gr 
 gsave  710 567 779 603 C 1133.86 656.444 t 0 r /Helvetica findfont 25.6631 sf 0 0 m (0.05) show NC gr 
 gsave  710 567 779 603 C 1204.9 656.444 t 0 r /Helvetica findfont 25.6631 sf 0 0 m (0.1) show NC gr 
 gsave  710 567 779 603 C 1256.05 656.444 t 0 r /Helvetica findfont 25.6631 sf 0 0 m (0.15) show NC gr 
 gsave  710 567 779 603 C 1327.1 656.444 t 0 r /Helvetica findfont 25.6631 sf 0 0 m (0.2) show NC gr 
 gsave  710 567 779 603 C 1378.25 656.444 t 0 r /Helvetica findfont 25.6631 sf 0 0 m (0.25) show NC gr 
 gsave  710 567 779 603 C 1335.62 616.66 t 0 r /Helvetica findfont 28.5146 sf 0 0 m (yy.HT_l2) show NC gr  899 1114 m 548 X s 919 1100 m 14 Y s 931 1107 m 7 Y s 943 1107 m 7 Y s 955 1107 m 7 Y s 967 1107 m 7 Y s 979 1100 m 14 Y s 992 1107 m 7 Y s
 1004 1107 m 7 Y s 1016 1107 m 7 Y s 1028 1107 m 7 Y s 1040 1100 m 14 Y s 1052 1107 m 7 Y s 1065 1107 m 7 Y s 1077 1107 m 7 Y s 1089 1107 m 7 Y s 1101 1100 m 14 Y s 1113 1107 m 7 Y s 1125 1107 m 7 Y s 1138 1107 m 7 Y s 1150 1107 m 7 Y s 1162 1100 m
 14 Y s 1174 1107 m 7 Y s 1186 1107 m 7 Y s 1198 1107 m 7 Y s 1211 1107 m 7 Y s 1223 1100 m 14 Y s 1235 1107 m 7 Y s 1247 1107 m 7 Y s 1259 1107 m 7 Y s 1271 1107 m 7 Y s 1284 1100 m 14 Y s 1296 1107 m 7 Y s 1308 1107 m 7 Y s 1320 1107 m 7 Y s 1332
 1107 m 7 Y s 1344 1100 m 14 Y s 1357 1107 m 7 Y s 1369 1107 m 7 Y s 1381 1107 m 7 Y s 1393 1107 m 7 Y s 1405 1100 m 14 Y s 919 1100 m 14 Y s 906 1107 m 7 Y s 1405 1100 m 14 Y s 1417 1107 m 7 Y s 1430 1107 m 7 Y s 1442 1107 m 7 Y s 899 685 m 429 Y s
 915 685 m -16 X s 907 694 m -8 X s 907 703 m -8 X s 907 712 m -8 X s 907 721 m -8 X s 915 730 m -16 X s 907 739 m -8 X s 907 749 m -8 X s 907 758 m -8 X s 907 767 m -8 X s 915 776 m -16 X s 907 785 m -8 X s 907 794 m -8 X s 907 804 m -8 X s 907 813
 m -8 X s 915 822 m -16 X s 907 831 m -8 X s 907 840 m -8 X s 907 849 m -8 X s 907 858 m -8 X s 915 868 m -16 X s 907 877 m -8 X s 907 886 m -8 X s 907 895 m -8 X s 907 904 m -8 X s 915 913 m -16 X s 907 922 m -8 X s 907 932 m -8 X s 907 941 m -8 X s
 907 950 m -8 X s 915 959 m -16 X s 907 968 m -8 X s 907 977 m -8 X s 907 986 m -8 X s 907 996 m -8 X s 915 1005 m -16 X s 907 1014 m -8 X s 907 1023 m -8 X s 907 1032 m -8 X s 907 1041 m -8 X s 915 1050 m -16 X s 907 1060 m -8 X s 907 1069 m -8 X s
 907 1078 m -8 X s 907 1087 m -8 X s 915 1096 m -16 X s 915 1096 m -16 X s 907 1105 m -8 X s
 gsave  710 567 779 603 C 875.259 673.495 t 0 r /Helvetica findfont 25.6631 sf 0 0 m (0) show NC gr 
 gsave  710 567 779 603 C 878.101 721.805 t 0 r /Helvetica findfont 25.6631 sf 0 0 m (1) show NC gr 
 gsave  710 567 779 603 C 875.259 767.273 t 0 r /Helvetica findfont 25.6631 sf 0 0 m (2) show NC gr 
 gsave  710 567 779 603 C 875.259 812.741 t 0 r /Helvetica findfont 25.6631 sf 0 0 m (3) show NC gr 
 gsave  710 567 779 603 C 875.259 858.209 t 0 r /Helvetica findfont 25.6631 sf 0 0 m (4) show NC gr 
 gsave  710 567 779 603 C 875.259 903.677 t 0 r /Helvetica findfont 25.6631 sf 0 0 m (5) show NC gr 
 gsave  710 567 779 603 C 875.259 949.145 t 0 r /Helvetica findfont 25.6631 sf 0 0 m (6) show NC gr 
 gsave  710 567 779 603 C 875.259 994.613 t 0 r /Helvetica findfont 25.6631 sf 0 0 m (7) show NC gr 
 gsave  710 567 779 603 C 875.259 1040.08 t 0 r /Helvetica findfont 25.6631 sf 0 0 m (8) show NC gr 
 gsave  710 567 779 603 C 875.259 1085.55 t 0 r /Helvetica findfont 25.6631 sf 0 0 m (9) show NC gr 
 gsave  710 567 779 603 C 801.374 1023.03 t 90 r /Helvetica findfont 28.5146 sf 0 0 m (0.0112 ) show NC gr 
 gsave  710 567 779 603 C 787.165 1020.19 t 90 r /Helvetica findfont 19.9602 sf 0 0 m ( ) show NC gr 
 gsave  710 567 779 603 C 801.374 1008.82 t 90 r /Helvetica findfont 28.5146 sf 0 0 m (/) show NC gr 
 gsave  710 567 779 603 C 809.899 1005.98 t 90 r /Helvetica findfont 19.9602 sf 0 0 m ( ) show NC gr 
 gsave  710 567 779 603 C 801.374 900.835 t 90 r /Helvetica findfont 28.5146 sf 0 0 m (\(1/N\) dN) show NC gr  1447 685 m 429 Y s 1430 685 m 17 X s 1438 694 m 9 X s 1438 703 m 9 X s 1438 712 m 9 X s 1438 721 m 9 X s 1430 730 m 17 X s 1438 739 m 9 X s
 1438 749 m 9 X s 1438 758 m 9 X s 1438 767 m 9 X s 1430 776 m 17 X s 1438 785 m 9 X s 1438 794 m 9 X s 1438 804 m 9 X s 1438 813 m 9 X s 1430 822 m 17 X s 1438 831 m 9 X s 1438 840 m 9 X s 1438 849 m 9 X s 1438 858 m 9 X s 1430 868 m 17 X s 1438 877
 m 9 X s 1438 886 m 9 X s 1438 895 m 9 X s 1438 904 m 9 X s 1430 913 m 17 X s 1438 922 m 9 X s 1438 932 m 9 X s 1438 941 m 9 X s 1438 950 m 9 X s 1430 959 m 17 X s 1438 968 m 9 X s 1438 977 m 9 X s 1438 986 m 9 X s 1438 996 m 9 X s 1430 1005 m 17 X s
 1438 1014 m 9 X s 1438 1023 m 9 X s 1438 1032 m 9 X s 1438 1041 m 9 X s 1430 1050 m 17 X s 1438 1060 m 9 X s 1438 1069 m 9 X s 1438 1078 m 9 X s 1438 1087 m 9 X s 1430 1096 m 17 X s 1430 1096 m 17 X s 1438 1105 m 9 X s 0.490196 0.545098 0.615686 c
 0.364706 0.419608 0.490196 c 332 38 786 1130 bf 0.490196 0.545098 0.615686 c 786 1130 m 332 X s 1118 1130 m 38 Y s 1118 1168 m -332 X s 786 1168 m -38 Y s 1 1 1 c black 1 1 1 c
 gsave  710 567 779 603 C 790.007 1142.38 t 0 r /Helvetica-Bold findfont 28.5146 sf 0 0 m (Input variable: yy.HT_l2) show NC gr  1 0 0 c 6 lw black 3 lw 1 0 0 c 1432 685 m s 1417 685 m cl s 1405 688 m -3 -3 d s 1400 697 m -13 -12 d s 1392 704 m -20
 -19 d s 1378 706 m -21 -21 d s 1378 721 m -36 -36 d s 1371 729 m -44 -44 d s 1357 730 m -45 -45 d s 1351 739 m -54 -54 d s 1343 746 m -61 -61 d s 1325 744 m -58 -59 d s 1316 749 m -64 -64 d s 1308 757 m -71 -72 d s 1296 760 m -75 -75 d s 1282 761 m
 -76 -76 d s 1277 771 m -86 -86 d s 1258 767 m -82 -82 d s 1245 769 m -84 -84 d s 1233 772 m -5 -5 d s 1223 763 m -77 -78 d s 1211 765 m -80 -80 d s 1200 770 m -84 -85 d s 1197 781 m -10 -10 d s 1186 771 m -85 -86 d s 1173 772 m -87 -87 d s 1159 774
 m -88 -89 d s 1155 785 m -99 -100 d s 1141 786 m -100 -101 d s 1129 789 m -103 -104 d s 1118 793 m -108 -108 d s 1118 808 m -123 -123 d s 1118 824 m -13 -14 d s 1104 809 m -124 -124 d s 1077 797 m -112 -112 d s 1077 813 m -127 -128 d s 1066 817 m -2
 -3 d s 1063 814 m -123 -124 d s 935 685 m s 1048 814 m -108 -109 d s 920 685 m s 1036 817 m -96 -97 d s 905 685 m s 1036 832 m -96 -96 d s 1036 847 m -96 -96 d s 1036 862 m -96 -96 d s 1023 864 m -83 -83 d s 1020 876 m -66 -66 d s 942 798 m -2 -2 d
 s 1009 880 m -55 -55 d s 1009 896 m -55 -56 d s 1009 911 m -55 -55 d s 1008 925 m -54 -54 d s 995 927 m -41 -41 d s 995 942 m -41 -41 d s 995 958 m -41 -42 d s 995 973 m -41 -41 d s 995 988 m -41 -41 d s 984 992 m -30 -30 d s 981 1005 m -27 -28 d s
 981 1020 m -27 -28 d s 979 1033 m -25 -26 d s 968 1036 m -14 -13 d s 968 1052 m -14 -14 d s 968 1067 m -14 -14 d s 960 1075 m -6 -7 d s 6 lw 899 685 m 41 X 113 Y 14 X 277 Y 14 X -42 Y 13 X -41 Y 14 X -67 Y 14 X -49 Y 13 X -12 Y 14 X -50 Y 28 X 3 Y
 13 X -21 Y 14 X 13 Y 14 X 15 Y 13 X -35 Y 14 X -3 Y 14 X -1 Y 13 X -11 Y 14 X -3 Y 14 X 10 Y 13 X -16 Y 14 X -2 Y 14 X 9 Y 13 X -3 Y 14 X -2 Y 14 X 4 Y 13 X -11 Y 14 X -3 Y 14 X -8 Y 13 X -5 Y 14 X 2 Y 14 X -16 Y 13 X -1 Y 14 X -24 Y 14 X -8 Y 13 X
 -12 Y 42 X s black 3 lw 899 685 m 548 X s 919 698 m -13 Y s 931 691 m -6 Y s 943 691 m -6 Y s 955 691 m -6 Y s 967 691 m -6 Y s 979 698 m -13 Y s 992 691 m -6 Y s 1004 691 m -6 Y s 1016 691 m -6 Y s 1028 691 m -6 Y s 1040 698 m -13 Y s 1052 691 m -6
 Y s 1065 691 m -6 Y s 1077 691 m -6 Y s 1089 691 m -6 Y s 1101 698 m -13 Y s 1113 691 m -6 Y s 1125 691 m -6 Y s 1138 691 m -6 Y s 1150 691 m -6 Y s 1162 698 m -13 Y s 1174 691 m -6 Y s 1186 691 m -6 Y s 1198 691 m -6 Y s 1211 691 m -6 Y s 1223 698
 m -13 Y s 1235 691 m -6 Y s 1247 691 m -6 Y s 1259 691 m -6 Y s 1271 691 m -6 Y s 1284 698 m -13 Y s 1296 691 m -6 Y s 1308 691 m -6 Y s 1320 691 m -6 Y s 1332 691 m -6 Y s 1344 698 m -13 Y s 1357 691 m -6 Y s 1369 691 m -6 Y s 1381 691 m -6 Y s
 1393 691 m -6 Y s 1405 698 m -13 Y s 919 698 m -13 Y s 906 691 m -6 Y s 1405 698 m -13 Y s 1417 691 m -6 Y s 1430 691 m -6 Y s 1442 691 m -6 Y s 899 1114 m 548 X s 919 1100 m 14 Y s 931 1107 m 7 Y s 943 1107 m 7 Y s 955 1107 m 7 Y s 967 1107 m 7 Y s
 979 1100 m 14 Y s 992 1107 m 7 Y s 1004 1107 m 7 Y s 1016 1107 m 7 Y s 1028 1107 m 7 Y s 1040 1100 m 14 Y s 1052 1107 m 7 Y s 1065 1107 m 7 Y s 1077 1107 m 7 Y s 1089 1107 m 7 Y s 1101 1100 m 14 Y s 1113 1107 m 7 Y s 1125 1107 m 7 Y s 1138 1107 m 7
 Y s 1150 1107 m 7 Y s 1162 1100 m 14 Y s 1174 1107 m 7 Y s 1186 1107 m 7 Y s 1198 1107 m 7 Y s 1211 1107 m 7 Y s 1223 1100 m 14 Y s 1235 1107 m 7 Y s 1247 1107 m 7 Y s 1259 1107 m 7 Y s 1271 1107 m 7 Y s 1284 1100 m 14 Y s 1296 1107 m 7 Y s 1308
 1107 m 7 Y s 1320 1107 m 7 Y s 1332 1107 m 7 Y s 1344 1100 m 14 Y s 1357 1107 m 7 Y s 1369 1107 m 7 Y s 1381 1107 m 7 Y s 1393 1107 m 7 Y s 1405 1100 m 14 Y s 919 1100 m 14 Y s 906 1107 m 7 Y s 1405 1100 m 14 Y s 1417 1107 m 7 Y s 1430 1107 m 7 Y s
 1442 1107 m 7 Y s 899 685 m 429 Y s 915 685 m -16 X s 907 694 m -8 X s 907 703 m -8 X s 907 712 m -8 X s 907 721 m -8 X s 915 730 m -16 X s 907 739 m -8 X s 907 749 m -8 X s 907 758 m -8 X s 907 767 m -8 X s 915 776 m -16 X s 907 785 m -8 X s 907
 794 m -8 X s 907 804 m -8 X s 907 813 m -8 X s 915 822 m -16 X s 907 831 m -8 X s 907 840 m -8 X s 907 849 m -8 X s 907 858 m -8 X s 915 868 m -16 X s 907 877 m -8 X s 907 886 m -8 X s 907 895 m -8 X s 907 904 m -8 X s 915 913 m -16 X s 907 922 m -8
 X s 907 932 m -8 X s 907 941 m -8 X s 907 950 m -8 X s 915 959 m -16 X s 907 968 m -8 X s 907 977 m -8 X s 907 986 m -8 X s 907 996 m -8 X s 915 1005 m -16 X s 907 1014 m -8 X s 907 1023 m -8 X s 907 1032 m -8 X s 907 1041 m -8 X s 915 1050 m -16 X
 s 907 1060 m -8 X s 907 1069 m -8 X s 907 1078 m -8 X s 907 1087 m -8 X s 915 1096 m -16 X s 915 1096 m -16 X s 907 1105 m -8 X s 1447 685 m 429 Y s 1430 685 m 17 X s 1438 694 m 9 X s 1438 703 m 9 X s 1438 712 m 9 X s 1438 721 m 9 X s 1430 730 m 17
 X s 1438 739 m 9 X s 1438 749 m 9 X s 1438 758 m 9 X s 1438 767 m 9 X s 1430 776 m 17 X s 1438 785 m 9 X s 1438 794 m 9 X s 1438 804 m 9 X s 1438 813 m 9 X s 1430 822 m 17 X s 1438 831 m 9 X s 1438 840 m 9 X s 1438 849 m 9 X s 1438 858 m 9 X s 1430
 868 m 17 X s 1438 877 m 9 X s 1438 886 m 9 X s 1438 895 m 9 X s 1438 904 m 9 X s 1430 913 m 17 X s 1438 922 m 9 X s 1438 932 m 9 X s 1438 941 m 9 X s 1438 950 m 9 X s 1430 959 m 17 X s 1438 968 m 9 X s 1438 977 m 9 X s 1438 986 m 9 X s 1438 996 m 9
 X s 1430 1005 m 17 X s 1438 1014 m 9 X s 1438 1023 m 9 X s 1438 1032 m 9 X s 1438 1041 m 9 X s 1430 1050 m 17 X s 1438 1060 m 9 X s 1438 1069 m 9 X s 1438 1078 m 9 X s 1438 1087 m 9 X s 1430 1096 m 17 X s 1430 1096 m 17 X s 1438 1105 m 9 X s
 gsave  710 567 779 603 C 1474.92 682.347 t 90 r /Helvetica-Bold findfont 19.9602 sf 0 0 m (U/O\255flow \(S,B\): \(0.0, 0.0\)% / \(0.0, 0.0\)%) show NC gr  0.490196 0.545098 0.615686 c 0.364706 0.419608 0.490196 c 332 38 786 1130 bf 0.490196 0.545098
 0.615686 c 786 1130 m 332 X s 1118 1130 m 38 Y s 1118 1168 m -332 X s 786 1168 m -38 Y s 1 1 1 c black 1 1 1 c
 gsave  710 567 779 603 C 790.007 1142.38 t 0 r /Helvetica-Bold findfont 28.5146 sf 0 0 m (Input variable: yy.HT_l2) show NC gr  0.490196 0.545098 0.615686 c 0.941176 0.941176 0.941176 c 711 567 1534 603 bf black 1 1 0.992157 c 547 429 1655 685 bf
 black 547 429 1655 685 bl 0 0 0.933333 c 6 lw 0.49 0.6 0.82 c black 3 lw 0.49 0.6 0.82 c 1655 685 m 14 X 3 Y 14 X 2 Y 13 X 3 Y 14 X 6 Y 14 X -1 Y 13 X -4 Y 14 X 7 Y 14 X -9 Y 13 X 14 Y 14 X -6 Y 14 X 12 Y 13 X 14 Y 14 X -3 Y 14 X 40 Y 27 X 16 Y 14 X
 72 Y 13 X 4 Y 14 X 88 Y 14 X 24 Y 14 X 62 Y 13 X -5 Y 14 X 11 Y 14 X 15 Y 13 X -43 Y 14 X 68 Y 14 X -41 Y 13 X -4 Y 14 X -15 Y 14 X -19 Y 13 X -47 Y 14 X -49 Y 14 X -72 Y 13 X -97 Y 14 X -46 Y 68 X f 6 lw 0 0 0.933333 c 0.49 0.6 0.82 c 0 0 0.933333
 c 1655 685 m 14 X 3 Y 14 X 2 Y 13 X 3 Y 14 X 6 Y 14 X -1 Y 13 X -4 Y 14 X 7 Y 14 X -9 Y 13 X 14 Y 14 X -6 Y 14 X 12 Y 13 X 14 Y 14 X -3 Y 14 X 40 Y 27 X 16 Y 14 X 72 Y 13 X 4 Y 14 X 88 Y 14 X 24 Y 14 X 62 Y 13 X -5 Y 14 X 11 Y 14 X 15 Y 13 X -43 Y
 14 X 68 Y 14 X -41 Y 13 X -4 Y 14 X -15 Y 14 X -19 Y 13 X -47 Y 14 X -49 Y 14 X -72 Y 13 X -97 Y 14 X -46 Y 68 X s black 3 lw 1655 685 m 547 X s 1703 698 m -13 Y s 1723 691 m -6 Y s 1742 691 m -6 Y s 1761 691 m -6 Y s 1780 691 m -6 Y s 1800 698 m
 -13 Y s 1819 691 m -6 Y s 1838 691 m -6 Y s 1857 691 m -6 Y s 1876 691 m -6 Y s 1896 698 m -13 Y s 1915 691 m -6 Y s 1934 691 m -6 Y s 1953 691 m -6 Y s 1973 691 m -6 Y s 1992 698 m -13 Y s 2011 691 m -6 Y s 2030 691 m -6 Y s 2050 691 m -6 Y s 2069
 691 m -6 Y s 2088 698 m -13 Y s 2107 691 m -6 Y s 2127 691 m -6 Y s 2146 691 m -6 Y s 2165 691 m -6 Y s 2184 698 m -13 Y s 1703 698 m -13 Y s 1684 691 m -6 Y s 1665 691 m -6 Y s 2184 698 m -13 Y s
 gsave  711 567 1534 603 C 1690.84 656.444 t 0 r /Helvetica findfont 25.6631 sf 0 0 m (0.2) show NC gr 
 gsave  711 567 1534 603 C 1676.63 656.444 t 0 r /Symbol findfont 25.6631 sf 0 0 m (-) show NC gr 
 gsave  711 567 1534 603 C 1787.46 656.444 t 0 r /Helvetica findfont 25.6631 sf 0 0 m (0.1) show NC gr 
 gsave  711 567 1534 603 C 1776.09 656.444 t 0 r /Symbol findfont 25.6631 sf 0 0 m (-) show NC gr 
 gsave  711 567 1534 603 C 1886.92 656.444 t 0 r /Helvetica findfont 25.6631 sf 0 0 m (0) show NC gr 
 gsave  711 567 1534 603 C 1972.17 656.444 t 0 r /Helvetica findfont 25.6631 sf 0 0 m (0.1) show NC gr 
 gsave  711 567 1534 603 C 2068.79 656.444 t 0 r /Helvetica findfont 25.6631 sf 0 0 m (0.2) show NC gr 
 gsave  711 567 1534 603 C 2165.41 656.444 t 0 r /Helvetica findfont 25.6631 sf 0 0 m (0.3) show NC gr 
 gsave  711 567 1534 603 C 2097.21 616.66 t 0 r /Helvetica findfont 28.5146 sf 0 0 m (yy.HP_l1) show NC gr  1655 1114 m 547 X s 1703 1100 m 14 Y s 1723 1107 m 7 Y s 1742 1107 m 7 Y s 1761 1107 m 7 Y s 1780 1107 m 7 Y s 1800 1100 m 14 Y s 1819 1107 m
 7 Y s 1838 1107 m 7 Y s 1857 1107 m 7 Y s 1876 1107 m 7 Y s 1896 1100 m 14 Y s 1915 1107 m 7 Y s 1934 1107 m 7 Y s 1953 1107 m 7 Y s 1973 1107 m 7 Y s 1992 1100 m 14 Y s 2011 1107 m 7 Y s 2030 1107 m 7 Y s 2050 1107 m 7 Y s 2069 1107 m 7 Y s 2088
 1100 m 14 Y s 2107 1107 m 7 Y s 2127 1107 m 7 Y s 2146 1107 m 7 Y s 2165 1107 m 7 Y s 2184 1100 m 14 Y s 1703 1100 m 14 Y s 1684 1107 m 7 Y s 1665 1107 m 7 Y s 2184 1100 m 14 Y s 1655 685 m 429 Y s 1671 685 m -16 X s 1663 700 m -8 X s 1663 716 m -8
 X s 1663 731 m -8 X s 1663 747 m -8 X s 1671 762 m -16 X s 1663 778 m -8 X s 1663 793 m -8 X s 1663 809 m -8 X s 1663 825 m -8 X s 1671 840 m -16 X s 1663 856 m -8 X s 1663 871 m -8 X s 1663 887 m -8 X s 1663 902 m -8 X s 1671 918 m -16 X s 1663 933
 m -8 X s 1663 949 m -8 X s 1663 964 m -8 X s 1663 980 m -8 X s 1671 996 m -16 X s 1663 1011 m -8 X s 1663 1027 m -8 X s 1663 1042 m -8 X s 1663 1058 m -8 X s 1671 1073 m -16 X s 1671 1073 m -16 X s 1663 1089 m -8 X s 1663 1104 m -8 X s
 gsave  711 567 1534 603 C 1631.16 673.495 t 0 r /Helvetica findfont 25.6631 sf 0 0 m (0) show NC gr 
 gsave  711 567 1534 603 C 1634.01 753.064 t 0 r /Helvetica findfont 25.6631 sf 0 0 m (1) show NC gr 
 gsave  711 567 1534 603 C 1631.16 829.791 t 0 r /Helvetica findfont 25.6631 sf 0 0 m (2) show NC gr 
 gsave  711 567 1534 603 C 1631.16 906.518 t 0 r /Helvetica findfont 25.6631 sf 0 0 m (3) show NC gr 
 gsave  711 567 1534 603 C 1631.16 986.087 t 0 r /Helvetica findfont 25.6631 sf 0 0 m (4) show NC gr 
 gsave  711 567 1534 603 C 1631.16 1062.81 t 0 r /Helvetica findfont 25.6631 sf 0 0 m (5) show NC gr 
 gsave  711 567 1534 603 C 1557.28 1023.03 t 90 r /Helvetica findfont 28.5146 sf 0 0 m (0.0142 ) show NC gr 
 gsave  711 567 1534 603 C 1543.07 1020.19 t 90 r /Helvetica findfont 19.9602 sf 0 0 m ( ) show NC gr 
 gsave  711 567 1534 603 C 1557.28 1008.82 t 90 r /Helvetica findfont 28.5146 sf 0 0 m (/) show NC gr 
 gsave  711 567 1534 603 C 1565.8 1005.98 t 90 r /Helvetica findfont 19.9602 sf 0 0 m ( ) show NC gr 
 gsave  711 567 1534 603 C 1557.28 900.835 t 90 r /Helvetica findfont 28.5146 sf 0 0 m (\(1/N\) dN) show NC gr  2202 685 m 429 Y s 2186 685 m 16 X s 2194 700 m 8 X s 2194 716 m 8 X s 2194 731 m 8 X s 2194 747 m 8 X s 2186 762 m 16 X s 2194 778 m 8 X
 s 2194 793 m 8 X s 2194 809 m 8 X s 2194 825 m 8 X s 2186 840 m 16 X s 2194 856 m 8 X s 2194 871 m 8 X s 2194 887 m 8 X s 2194 902 m 8 X s 2186 918 m 16 X s 2194 933 m 8 X s 2194 949 m 8 X s 2194 964 m 8 X s 2194 980 m 8 X s 2186 996 m 16 X s 2194
 1011 m 8 X s 2194 1027 m 8 X s 2194 1042 m 8 X s 2194 1058 m 8 X s 2186 1073 m 16 X s 2186 1073 m 16 X s 2194 1089 m 8 X s 2194 1104 m 8 X s 0.490196 0.545098 0.615686 c 0.364706 0.419608 0.490196 c 329 38 1542 1130 bf 0.490196 0.545098 0.615686 c
 1542 1130 m 329 X s 1871 1130 m 38 Y s 1871 1168 m -329 X s 1542 1168 m -38 Y s 1 1 1 c black 1 1 1 c
 gsave  711 567 1534 603 C 1545.91 1142.38 t 0 r /Helvetica-Bold findfont 28.5146 sf 0 0 m (Input variable: yy.HP_l1) show NC gr  1 0 0 c 6 lw black 3 lw 1 0 0 c 2188 685 m s 2173 685 m s 2158 685 m s 2143 685 m s 2131 688 m -3 -3 d s 2120 692 m -7
 -7 d s 2120 707 m -22 -22 d s 2114 716 m -31 -31 d s 2107 724 m -39 -39 d s 2103 735 m -50 -50 d s 2093 740 m -55 -55 d s 2091 754 m -68 -69 d s 2079 757 m -71 -72 d s 2070 763 m -78 -78 d s 2062 770 m -85 -85 d s 2046 769 m -84 -84 d s 2038 776 m
 -91 -91 d s 2038 792 m -106 -107 d s 2038 807 m -121 -122 d s 2025 808 m -123 -123 d s 2015 814 m -4 -4 d s 2004 803 m -117 -118 d s 1997 811 m -125 -126 d s 1997 826 m -140 -141 d s 1997 841 m -155 -156 d s 1984 843 m -157 -158 d s 1984 858 m -172
 -173 d s 1980 870 m -184 -185 d s 1970 874 m -189 -189 d s 1957 877 m -1 -1 d s 1953 872 m -187 -187 d s 1943 877 m -192 -192 d s 1943 892 m -207 -207 d s 1938 903 m -9 -9 d s 1924 889 m -203 -204 d s 1915 895 m -14 -14 d s 1894 874 m -188 -189 d s
 1905 900 m -4 -3 d s 1888 883 m -197 -198 d s 1888 898 m -41 -41 d s 1846 856 m -170 -171 d s 1888 913 m -14 -14 d s 1864 889 m -4 -3 d s 1850 875 m -3 -3 d s 1833 858 m -14 -14 d s 1815 840 m -154 -155 d s 1877 918 m -3 -3 d s 1833 873 m -14 -13 d
 s 1806 846 m -151 -152 d s 1825 881 m -6 -6 d s 1806 861 m -151 -152 d s 1806 876 m -14 -14 d s 1790 860 m -135 -135 d s 1794 880 m -2 -2 d s 1778 864 m -123 -124 d s 1775 876 m -10 -11 d s 1761 861 m -106 -106 d s 1751 867 m -82 -83 d s 1744 875 m
 -75 -76 d s 1737 883 m -68 -69 d s 1737 898 m -27 -27 d s 1706 867 m -37 -38 d s 1737 914 m -13 -14 d s 1712 888 m -2 -2 d s 1696 872 m -13 -14 d s 1670 846 m -1 -1 d s 1726 917 m -2 -2 d s 1696 887 m -13 -13 d s 6 lw 1655 769 m 14 X 77 Y 14 X 41 Y
 13 X -20 Y 14 X 21 Y 14 X 29 Y 13 X -42 Y 14 X -14 Y 14 X 15 Y 13 X -16 Y 14 X 20 Y 14 X -40 Y 13 X 41 Y 14 X -25 Y 14 X 19 Y 13 X 14 Y 14 X 29 Y 14 X -44 Y 13 X 26 Y 14 X -11 Y 14 X 14 Y 14 X -31 Y 13 X 5 Y 14 X -7 Y 14 X -28 Y 13 X -39 Y 14 X 11 Y
 14 X -6 Y 13 X -39 Y 14 X 1 Y 14 X -7 Y 13 X -9 Y 14 X -19 Y 14 X -19 Y 13 X -28 Y 14 X -3 Y 68 X s black 3 lw 1655 685 m 547 X s 1703 698 m -13 Y s 1723 691 m -6 Y s 1742 691 m -6 Y s 1761 691 m -6 Y s 1780 691 m -6 Y s 1800 698 m -13 Y s 1819 691
 m -6 Y s 1838 691 m -6 Y s 1857 691 m -6 Y s 1876 691 m -6 Y s 1896 698 m -13 Y s 1915 691 m -6 Y s 1934 691 m -6 Y s 1953 691 m -6 Y s 1973 691 m -6 Y s 1992 698 m -13 Y s 2011 691 m -6 Y s 2030 691 m -6 Y s 2050 691 m -6 Y s 2069 691 m -6 Y s 2088
 698 m -13 Y s 2107 691 m -6 Y s 2127 691 m -6 Y s 2146 691 m -6 Y s 2165 691 m -6 Y s 2184 698 m -13 Y s 1703 698 m -13 Y s 1684 691 m -6 Y s 1665 691 m -6 Y s 2184 698 m -13 Y s 1655 1114 m 547 X s 1703 1100 m 14 Y s 1723 1107 m 7 Y s 1742 1107 m 7
 Y s 1761 1107 m 7 Y s 1780 1107 m 7 Y s 1800 1100 m 14 Y s 1819 1107 m 7 Y s 1838 1107 m 7 Y s 1857 1107 m 7 Y s 1876 1107 m 7 Y s 1896 1100 m 14 Y s 1915 1107 m 7 Y s 1934 1107 m 7 Y s 1953 1107 m 7 Y s 1973 1107 m 7 Y s 1992 1100 m 14 Y s 2011
 1107 m 7 Y s 2030 1107 m 7 Y s 2050 1107 m 7 Y s 2069 1107 m 7 Y s 2088 1100 m 14 Y s 2107 1107 m 7 Y s 2127 1107 m 7 Y s 2146 1107 m 7 Y s 2165 1107 m 7 Y s 2184 1100 m 14 Y s 1703 1100 m 14 Y s 1684 1107 m 7 Y s 1665 1107 m 7 Y s 2184 1100 m 14 Y
 s 1655 685 m 429 Y s 1671 685 m -16 X s 1663 700 m -8 X s 1663 716 m -8 X s 1663 731 m -8 X s 1663 747 m -8 X s 1671 762 m -16 X s 1663 778 m -8 X s 1663 793 m -8 X s 1663 809 m -8 X s 1663 825 m -8 X s 1671 840 m -16 X s 1663 856 m -8 X s 1663 871
 m -8 X s 1663 887 m -8 X s 1663 902 m -8 X s 1671 918 m -16 X s 1663 933 m -8 X s 1663 949 m -8 X s 1663 964 m -8 X s 1663 980 m -8 X s 1671 996 m -16 X s 1663 1011 m -8 X s 1663 1027 m -8 X s 1663 1042 m -8 X s 1663 1058 m -8 X s 1671 1073 m -16 X
 s 1671 1073 m -16 X s 1663 1089 m -8 X s 1663 1104 m -8 X s 2202 685 m 429 Y s 2186 685 m 16 X s 2194 700 m 8 X s 2194 716 m 8 X s 2194 731 m 8 X s 2194 747 m 8 X s 2186 762 m 16 X s 2194 778 m 8 X s 2194 793 m 8 X s 2194 809 m 8 X s 2194 825 m 8 X
 s 2186 840 m 16 X s 2194 856 m 8 X s 2194 871 m 8 X s 2194 887 m 8 X s 2194 902 m 8 X s 2186 918 m 16 X s 2194 933 m 8 X s 2194 949 m 8 X s 2194 964 m 8 X s 2194 980 m 8 X s 2186 996 m 16 X s 2194 1011 m 8 X s 2194 1027 m 8 X s 2194 1042 m 8 X s
 2194 1058 m 8 X s 2186 1073 m 16 X s 2186 1073 m 16 X s 2194 1089 m 8 X s 2194 1104 m 8 X s
 gsave  711 567 1534 603 C 2230.83 682.347 t 90 r /Helvetica-Bold findfont 19.9602 sf 0 0 m (U/O\255flow \(S,B\): \(0.0, 0.0\)% / \(0.0, 0.0\)%) show NC gr  0.490196 0.545098 0.615686 c 0.364706 0.419608 0.490196 c 329 38 1542 1130 bf 0.490196
 0.545098 0.615686 c 1542 1130 m 329 X s 1871 1130 m 38 Y s 1871 1168 m -329 X s 1542 1168 m -38 Y s 1 1 1 c black 1 1 1 c
 gsave  711 567 1534 603 C 1545.91 1142.38 t 0 r /Helvetica-Bold findfont 28.5146 sf 0 0 m (Input variable: yy.HP_l1) show NC gr  0.490196 0.545098 0.615686 c 0.941176 0.941176 0.941176 c 710 567 23 12 bf black 1 1 0.992157 c 548 429 143 94 bf black
 548 429 143 94 bl 0 0 0.933333 c 6 lw 0.49 0.6 0.82 c black 3 lw 0.49 0.6 0.82 c 143 94 m 7 Y 14 X 6 Y 14 X -7 Y 14 X 5 Y 13 X -2 Y 14 X 1 Y 14 X 5 Y 41 X 6 Y 13 X -10 Y 14 X 18 Y 14 X -7 Y 13 X 8 Y 14 X 12 Y 14 X 3 Y 13 X 9 Y 14 X 7 Y 14 X 1 Y 13 X
 30 Y 14 X -23 Y 14 X 30 Y 13 X 46 Y 14 X 8 Y 14 X -3 Y 13 X 28 Y 14 X 42 Y 14 X 7 Y 13 X 44 Y 14 X 18 Y 14 X 25 Y 13 X 15 Y 14 X 24 Y 14 X 3 Y 14 X 33 Y 13 X -7 Y 14 X 8 Y 14 X -24 Y 13 X -192 Y 14 X -174 Y 14 X f 6 lw 0 0 0.933333 c 0.49 0.6 0.82 c
 0 0 0.933333 c 143 101 m 14 X 6 Y 14 X -7 Y 14 X 5 Y 13 X -2 Y 14 X 1 Y 14 X 5 Y 41 X 6 Y 13 X -10 Y 14 X 18 Y 14 X -7 Y 13 X 8 Y 14 X 12 Y 14 X 3 Y 13 X 9 Y 14 X 7 Y 14 X 1 Y 13 X 30 Y 14 X -23 Y 14 X 30 Y 13 X 46 Y 14 X 8 Y 14 X -3 Y 13 X 28 Y 14
 X 42 Y 14 X 7 Y 13 X 44 Y 14 X 18 Y 14 X 25 Y 13 X 15 Y 14 X 24 Y 14 X 3 Y 14 X 33 Y 13 X -7 Y 14 X 8 Y 14 X -24 Y 13 X -192 Y 14 X -174 Y 14 X s black 3 lw 143 94 m 548 X s 197 107 m -13 Y s 210 100 m -6 Y s 224 100 m -6 Y s 237 100 m -6 Y s 250
 107 m -13 Y s 264 100 m -6 Y s 277 100 m -6 Y s 291 100 m -6 Y s 304 107 m -13 Y s 317 100 m -6 Y s 331 100 m -6 Y s 344 100 m -6 Y s 357 107 m -13 Y s 371 100 m -6 Y s 384 100 m -6 Y s 397 100 m -6 Y s 411 107 m -13 Y s 424 100 m -6 Y s 438 100 m
 -6 Y s 451 100 m -6 Y s 464 107 m -13 Y s 478 100 m -6 Y s 491 100 m -6 Y s 504 100 m -6 Y s 518 107 m -13 Y s 531 100 m -6 Y s 544 100 m -6 Y s 558 100 m -6 Y s 571 107 m -13 Y s 585 100 m -6 Y s 598 100 m -6 Y s 611 100 m -6 Y s 625 107 m -13 Y s
 638 100 m -6 Y s 651 100 m -6 Y s 665 100 m -6 Y s 678 107 m -13 Y s 197 107 m -13 Y s 184 100 m -6 Y s 170 100 m -6 Y s 157 100 m -6 Y s 678 107 m -13 Y s
 gsave  710 567 23 12 C 184.714 65.3603 t 0 r /Helvetica findfont 25.6631 sf 0 0 m (0.8) show NC gr 
 gsave  710 567 23 12 C 170.505 65.3603 t 0 r /Symbol findfont 25.6631 sf 0 0 m (-) show NC gr 
 gsave  710 567 23 12 C 238.707 65.3603 t 0 r /Helvetica findfont 25.6631 sf 0 0 m (0.6) show NC gr 
 gsave  710 567 23 12 C 224.498 65.3603 t 0 r /Symbol findfont 25.6631 sf 0 0 m (-) show NC gr 
 gsave  710 567 23 12 C 289.858 65.3603 t 0 r /Helvetica findfont 25.6631 sf 0 0 m (0.4) show NC gr 
 gsave  710 567 23 12 C 275.65 65.3603 t 0 r /Symbol findfont 25.6631 sf 0 0 m (-) show NC gr 
 gsave  710 567 23 12 C 343.852 65.3603 t 0 r /Helvetica findfont 25.6631 sf 0 0 m (0.2) show NC gr 
 gsave  710 567 23 12 C 329.643 65.3603 t 0 r /Symbol findfont 25.6631 sf 0 0 m (-) show NC gr 
 gsave  710 567 23 12 C 400.687 65.3603 t 0 r /Helvetica findfont 25.6631 sf 0 0 m (0) show NC gr 
 gsave  710 567 23 12 C 446.155 65.3603 t 0 r /Helvetica findfont 25.6631 sf 0 0 m (0.2) show NC gr 
 gsave  710 567 23 12 C 500.148 65.3603 t 0 r /Helvetica findfont 25.6631 sf 0 0 m (0.4) show NC gr 
 gsave  710 567 23 12 C 554.141 65.3603 t 0 r /Helvetica findfont 25.6631 sf 0 0 m (0.6) show NC gr 
 gsave  710 567 23 12 C 605.293 65.3603 t 0 r /Helvetica findfont 25.6631 sf 0 0 m (0.8) show NC gr 
 gsave  710 567 23 12 C 670.653 65.3603 t 0 r /Helvetica findfont 25.6631 sf 0 0 m (1) show NC gr 
 gsave  710 567 23 12 C 582.559 22.734 t 0 r /Helvetica findfont 28.5146 sf 0 0 m (bb.H1_l1) show NC gr  143 523 m 548 X s 197 509 m 14 Y s 210 516 m 7 Y s 224 516 m 7 Y s 237 516 m 7 Y s 250 509 m 14 Y s 264 516 m 7 Y s 277 516 m 7 Y s 291 516 m 7 Y
 s 304 509 m 14 Y s 317 516 m 7 Y s 331 516 m 7 Y s 344 516 m 7 Y s 357 509 m 14 Y s 371 516 m 7 Y s 384 516 m 7 Y s 397 516 m 7 Y s 411 509 m 14 Y s 424 516 m 7 Y s 438 516 m 7 Y s 451 516 m 7 Y s 464 509 m 14 Y s 478 516 m 7 Y s 491 516 m 7 Y s 504
 516 m 7 Y s 518 509 m 14 Y s 531 516 m 7 Y s 544 516 m 7 Y s 558 516 m 7 Y s 571 509 m 14 Y s 585 516 m 7 Y s 598 516 m 7 Y s 611 516 m 7 Y s 625 509 m 14 Y s 638 516 m 7 Y s 651 516 m 7 Y s 665 516 m 7 Y s 678 509 m 14 Y s 197 509 m 14 Y s 184 516
 m 7 Y s 170 516 m 7 Y s 157 516 m 7 Y s 678 509 m 14 Y s 143 94 m 429 Y s 160 94 m -17 X s 152 107 m -9 X s 152 121 m -9 X s 152 135 m -9 X s 160 149 m -17 X s 152 163 m -9 X s 152 177 m -9 X s 152 191 m -9 X s 160 205 m -17 X s 152 219 m -9 X s 152
 233 m -9 X s 152 247 m -9 X s 160 261 m -17 X s 152 275 m -9 X s 152 288 m -9 X s 152 302 m -9 X s 160 316 m -17 X s 152 330 m -9 X s 152 344 m -9 X s 152 358 m -9 X s 160 372 m -17 X s 152 386 m -9 X s 152 400 m -9 X s 152 414 m -9 X s 160 428 m
 -17 X s 152 442 m -9 X s 152 456 m -9 X s 152 470 m -9 X s 160 483 m -17 X s 160 483 m -17 X s 152 497 m -9 X s 152 511 m -9 X s
 gsave  710 567 23 12 C 119.354 82.4108 t 0 r /Helvetica findfont 25.6631 sf 0 0 m (0) show NC gr 
 gsave  710 567 23 12 C 99.4613 139.246 t 0 r /Helvetica findfont 25.6631 sf 0 0 m (0.2) show NC gr 
 gsave  710 567 23 12 C 99.4613 196.081 t 0 r /Helvetica findfont 25.6631 sf 0 0 m (0.4) show NC gr 
 gsave  710 567 23 12 C 99.4613 250.074 t 0 r /Helvetica findfont 25.6631 sf 0 0 m (0.6) show NC gr 
 gsave  710 567 23 12 C 99.4613 306.909 t 0 r /Helvetica findfont 25.6631 sf 0 0 m (0.8) show NC gr 
 gsave  710 567 23 12 C 122.195 360.902 t 0 r /Helvetica findfont 25.6631 sf 0 0 m (1) show NC gr 
 gsave  710 567 23 12 C 99.4613 417.737 t 0 r /Helvetica findfont 25.6631 sf 0 0 m (1.2) show NC gr 
 gsave  710 567 23 12 C 99.4613 474.572 t 0 r /Helvetica findfont 25.6631 sf 0 0 m (1.4) show NC gr 
 gsave  710 567 23 12 C 45.468 431.946 t 90 r /Helvetica findfont 28.5146 sf 0 0 m (0.0512 ) show NC gr 
 gsave  710 567 23 12 C 31.2593 429.104 t 90 r /Helvetica findfont 19.9602 sf 0 0 m ( ) show NC gr 
 gsave  710 567 23 12 C 45.468 417.737 t 90 r /Helvetica findfont 28.5146 sf 0 0 m (/) show NC gr 
 gsave  710 567 23 12 C 53.9933 414.896 t 90 r /Helvetica findfont 19.9602 sf 0 0 m ( ) show NC gr 
 gsave  710 567 23 12 C 45.468 309.751 t 90 r /Helvetica findfont 28.5146 sf 0 0 m (\(1/N\) dN) show NC gr  691 94 m 429 Y s 674 94 m 17 X s 683 107 m 8 X s 683 121 m 8 X s 683 135 m 8 X s 674 149 m 17 X s 683 163 m 8 X s 683 177 m 8 X s 683 191 m 8
 X s 674 205 m 17 X s 683 219 m 8 X s 683 233 m 8 X s 683 247 m 8 X s 674 261 m 17 X s 683 275 m 8 X s 683 288 m 8 X s 683 302 m 8 X s 674 316 m 17 X s 683 330 m 8 X s 683 344 m 8 X s 683 358 m 8 X s 674 372 m 17 X s 683 386 m 8 X s 683 400 m 8 X s
 683 414 m 8 X s 674 428 m 17 X s 683 442 m 8 X s 683 456 m 8 X s 683 470 m 8 X s 674 483 m 17 X s 674 483 m 17 X s 683 497 m 8 X s 683 511 m 8 X s 0.490196 0.545098 0.615686 c 0.364706 0.419608 0.490196 c 332 37 30 539 bf 0.490196 0.545098 0.615686
 c 30 539 m 332 X s 362 539 m 37 Y s 362 576 m -332 X s 30 576 m -37 Y s 1 1 1 c black 1 1 1 c
 gsave  710 567 23 12 C 34.101 551.299 t 0 r /Helvetica-Bold findfont 28.5146 sf 0 0 m (Input variable: bb.H1_l1) show NC gr  1 0 0 c 6 lw black 3 lw 1 0 0 c 677 94 m s 677 109 m -15 -15 d s 671 118 m -25 -24 d s 663 126 m -32 -32 d s 663 141 m -47
 -47 d s 663 156 m -62 -62 d s 656 164 m -70 -70 d s 650 173 m -79 -79 d s 649 187 m -93 -93 d s 636 189 m -95 -95 d s 626 194 m -100 -100 d s 622 206 m -111 -112 d s 619 217 m -10 -10 d s 607 205 m -12 -12 d s 590 188 m -94 -94 d s 581 195 m -100
 -101 d s 581 210 m -115 -116 d s 576 220 m -9 -9 d s 560 204 m -110 -110 d s 554 213 m -119 -119 d s 554 228 m -134 -134 d s 545 234 m -5 -5 d s 531 220 m -126 -126 d s 519 223 m -6 -6 d s 508 212 m -118 -118 d s 488 207 m -113 -113 d s 481 215 m
 -121 -121 d s 472 221 m -127 -127 d s 470 235 m -12 -12 d s 456 221 m -126 -127 d s 444 224 m -129 -130 d s 436 231 m -136 -137 d s 431 240 m -146 -146 d s 417 242 m -147 -148 d s 404 244 m -1 -1 d s 400 240 m -145 -146 d s 383 238 m -144 -144 d s
 376 246 m -152 -152 d s 376 261 m -167 -167 d s 372 273 m -10 -10 d s 355 255 m -161 -161 d s 346 261 m -11 -11 d s 334 250 m -155 -156 d s 312 243 m -148 -149 d s 308 253 m -159 -159 d s 301 262 m -158 -159 d s 294 270 m -27 -28 d s 260 236 m -117
 -118 d s 281 273 m -14 -16 d s 253 244 m -110 -111 d s 280 286 m -13 -13 d s 253 259 m -110 -110 d s 280 301 m -13 -13 d s 253 274 m -14 -14 d s 234 255 m -91 -91 d s 226 262 m -83 -83 d s 226 277 m -14 -14 d s 203 254 m -60 -60 d s 223 290 m -11
 -12 d s 193 260 m -8 -9 d s 182 248 m -39 -39 d s 158 239 m -15 -14 d s 157 254 m -14 -14 d s 149 261 m -6 -6 d s 6 lw 143 261 m 14 X -22 Y 14 X 9 Y 14 X 12 Y 13 X -6 Y 14 X 36 Y 14 X -35 Y 13 X 19 Y 14 X -38 Y 14 X 65 Y 13 X -28 Y 14 X -11 Y 14 X
 -19 Y 13 X 7 Y 14 X 11 Y 14 X -6 Y 13 X 18 Y 14 X -35 Y 14 X 2 Y 13 X 4 Y 14 X -4 Y 14 X -9 Y 13 X -10 Y 14 X 14 Y 14 X -20 Y 13 X -8 Y 14 X 5 Y 14 X 11 Y 13 X -3 Y 14 X 14 Y 14 X -30 Y 13 X 16 Y 14 X -32 Y 14 X 17 Y 14 X 12 Y 13 X -23 Y 14 X -7 Y
 14 X -23 Y 13 X -46 Y 14 X -24 Y 14 X s black 3 lw 143 94 m 548 X s 197 107 m -13 Y s 210 100 m -6 Y s 224 100 m -6 Y s 237 100 m -6 Y s 250 107 m -13 Y s 264 100 m -6 Y s 277 100 m -6 Y s 291 100 m -6 Y s 304 107 m -13 Y s 317 100 m -6 Y s 331 100
 m -6 Y s 344 100 m -6 Y s 357 107 m -13 Y s 371 100 m -6 Y s 384 100 m -6 Y s 397 100 m -6 Y s 411 107 m -13 Y s 424 100 m -6 Y s 438 100 m -6 Y s 451 100 m -6 Y s 464 107 m -13 Y s 478 100 m -6 Y s 491 100 m -6 Y s 504 100 m -6 Y s 518 107 m -13 Y
 s 531 100 m -6 Y s 544 100 m -6 Y s 558 100 m -6 Y s 571 107 m -13 Y s 585 100 m -6 Y s 598 100 m -6 Y s 611 100 m -6 Y s 625 107 m -13 Y s 638 100 m -6 Y s 651 100 m -6 Y s 665 100 m -6 Y s 678 107 m -13 Y s 197 107 m -13 Y s 184 100 m -6 Y s 170
 100 m -6 Y s 157 100 m -6 Y s 678 107 m -13 Y s 143 523 m 548 X s 197 509 m 14 Y s 210 516 m 7 Y s 224 516 m 7 Y s 237 516 m 7 Y s 250 509 m 14 Y s 264 516 m 7 Y s 277 516 m 7 Y s 291 516 m 7 Y s 304 509 m 14 Y s 317 516 m 7 Y s 331 516 m 7 Y s 344
 516 m 7 Y s 357 509 m 14 Y s 371 516 m 7 Y s 384 516 m 7 Y s 397 516 m 7 Y s 411 509 m 14 Y s 424 516 m 7 Y s 438 516 m 7 Y s 451 516 m 7 Y s 464 509 m 14 Y s 478 516 m 7 Y s 491 516 m 7 Y s 504 516 m 7 Y s 518 509 m 14 Y s 531 516 m 7 Y s 544 516 m
 7 Y s 558 516 m 7 Y s 571 509 m 14 Y s 585 516 m 7 Y s 598 516 m 7 Y s 611 516 m 7 Y s 625 509 m 14 Y s 638 516 m 7 Y s 651 516 m 7 Y s 665 516 m 7 Y s 678 509 m 14 Y s 197 509 m 14 Y s 184 516 m 7 Y s 170 516 m 7 Y s 157 516 m 7 Y s 678 509 m 14 Y
 s 143 94 m 429 Y s 160 94 m -17 X s 152 107 m -9 X s 152 121 m -9 X s 152 135 m -9 X s 160 149 m -17 X s 152 163 m -9 X s 152 177 m -9 X s 152 191 m -9 X s 160 205 m -17 X s 152 219 m -9 X s 152 233 m -9 X s 152 247 m -9 X s 160 261 m -17 X s 152
 275 m -9 X s 152 288 m -9 X s 152 302 m -9 X s 160 316 m -17 X s 152 330 m -9 X s 152 344 m -9 X s 152 358 m -9 X s 160 372 m -17 X s 152 386 m -9 X s 152 400 m -9 X s 152 414 m -9 X s 160 428 m -17 X s 152 442 m -9 X s 152 456 m -9 X s 152 470 m -9
 X s 160 483 m -17 X s 160 483 m -17 X s 152 497 m -9 X s 152 511 m -9 X s 691 94 m 429 Y s 674 94 m 17 X s 683 107 m 8 X s 683 121 m 8 X s 683 135 m 8 X s 674 149 m 17 X s 683 163 m 8 X s 683 177 m 8 X s 683 191 m 8 X s 674 205 m 17 X s 683 219 m 8
 X s 683 233 m 8 X s 683 247 m 8 X s 674 261 m 17 X s 683 275 m 8 X s 683 288 m 8 X s 683 302 m 8 X s 674 316 m 17 X s 683 330 m 8 X s 683 344 m 8 X s 683 358 m 8 X s 674 372 m 17 X s 683 386 m 8 X s 683 400 m 8 X s 683 414 m 8 X s 674 428 m 17 X s
 683 442 m 8 X s 683 456 m 8 X s 683 470 m 8 X s 674 483 m 17 X s 674 483 m 17 X s 683 497 m 8 X s 683 511 m 8 X s
 gsave  710 567 23 12 C 719.017 91.2634 t 90 r /Helvetica-Bold findfont 19.9602 sf 0 0 m (U/O\255flow \(S,B\): \(0.0, 0.0\)% / \(0.0, 0.0\)%) show NC gr  0.490196 0.545098 0.615686 c 0.364706 0.419608 0.490196 c 332 37 30 539 bf 0.490196 0.545098
 0.615686 c 30 539 m 332 X s 362 539 m 37 Y s 362 576 m -332 X s 30 576 m -37 Y s 1 1 1 c black 1 1 1 c
 gsave  710 567 23 12 C 34.101 551.299 t 0 r /Helvetica-Bold findfont 28.5146 sf 0 0 m (Input variable: bb.H1_l1) show NC gr  0.490196 0.545098 0.615686 c 0.941176 0.941176 0.941176 c 710 567 779 12 bf black 1 1 0.992157 c 548 429 899 94 bf black 548
 429 899 94 bl 0 0 0.933333 c 6 lw 0.49 0.6 0.82 c black 3 lw 0.49 0.6 0.82 c 899 94 m 118 Y 14 X 51 Y 14 X 19 Y 13 X -12 Y 14 X 37 Y 14 X 2 Y 13 X -16 Y 14 X 3 Y 14 X -7 Y 13 X -4 Y 14 X -14 Y 14 X 1 Y 14 X -5 Y 13 X -9 Y 14 X 5 Y 14 X -1 Y 13 X 2 Y
 14 X -28 Y 14 X 17 Y 13 X -18 Y 14 X 9 Y 14 X -12 Y 13 X 10 Y 14 X -18 Y 14 X -21 Y 13 X 23 Y 14 X -15 Y 14 X -6 Y 13 X -24 Y 14 X 18 Y 14 X -27 Y 13 X -1 Y 14 X -11 Y 14 X -14 Y 13 X -15 Y 14 X -4 Y 14 X -14 Y 13 X -11 Y 14 X -5 Y 14 X -3 Y 14 X f
 6 lw 0 0 0.933333 c 0.49 0.6 0.82 c 0 0 0.933333 c 899 212 m 14 X 51 Y 14 X 19 Y 13 X -12 Y 14 X 37 Y 14 X 2 Y 13 X -16 Y 14 X 3 Y 14 X -7 Y 13 X -4 Y 14 X -14 Y 14 X 1 Y 14 X -5 Y 13 X -9 Y 14 X 5 Y 14 X -1 Y 13 X 2 Y 14 X -28 Y 14 X 17 Y 13 X -18
 Y 14 X 9 Y 14 X -12 Y 13 X 10 Y 14 X -18 Y 14 X -21 Y 13 X 23 Y 14 X -15 Y 14 X -6 Y 13 X -24 Y 14 X 18 Y 14 X -27 Y 13 X -1 Y 14 X -11 Y 14 X -14 Y 13 X -15 Y 14 X -4 Y 14 X -14 Y 13 X -11 Y 14 X -5 Y 14 X -3 Y 14 X s black 3 lw 899 94 m 548 X s
 935 107 m -13 Y s 949 100 m -6 Y s 964 100 m -6 Y s 978 100 m -6 Y s 992 100 m -6 Y s 1006 107 m -13 Y s 1021 100 m -6 Y s 1035 100 m -6 Y s 1049 100 m -6 Y s 1063 100 m -6 Y s 1078 107 m -13 Y s 1092 100 m -6 Y s 1106 100 m -6 Y s 1120 100 m -6 Y s
 1135 100 m -6 Y s 1149 107 m -13 Y s 1163 100 m -6 Y s 1177 100 m -6 Y s 1192 100 m -6 Y s 1206 100 m -6 Y s 1220 107 m -13 Y s 1234 100 m -6 Y s 1249 100 m -6 Y s 1263 100 m -6 Y s 1277 100 m -6 Y s 1291 107 m -13 Y s 1306 100 m -6 Y s 1320 100 m
 -6 Y s 1334 100 m -6 Y s 1348 100 m -6 Y s 1363 107 m -13 Y s 1377 100 m -6 Y s 1391 100 m -6 Y s 1405 100 m -6 Y s 1420 100 m -6 Y s 1434 107 m -13 Y s 935 107 m -13 Y s 921 100 m -6 Y s 907 100 m -6 Y s 1434 107 m -13 Y s
 gsave  710 567 779 12 C 923.569 65.3603 t 0 r /Helvetica findfont 25.6631 sf 0 0 m (0.1) show NC gr 
 gsave  710 567 779 12 C 912.202 65.3603 t 0 r /Symbol findfont 25.6631 sf 0 0 m (-) show NC gr 
 gsave  710 567 779 12 C 986.087 65.3603 t 0 r /Helvetica findfont 25.6631 sf 0 0 m (0.05) show NC gr 
 gsave  710 567 779 12 C 974.72 65.3603 t 0 r /Symbol findfont 25.6631 sf 0 0 m (-) show NC gr 
 gsave  710 567 779 12 C 1068.5 65.3603 t 0 r /Helvetica findfont 25.6631 sf 0 0 m (0) show NC gr 
 gsave  710 567 779 12 C 1122.49 65.3603 t 0 r /Helvetica findfont 25.6631 sf 0 0 m (0.05) show NC gr 
 gsave  710 567 779 12 C 1202.06 65.3603 t 0 r /Helvetica findfont 25.6631 sf 0 0 m (0.1) show NC gr 
 gsave  710 567 779 12 C 1264.58 65.3603 t 0 r /Helvetica findfont 25.6631 sf 0 0 m (0.15) show NC gr 
 gsave  710 567 779 12 C 1344.15 65.3603 t 0 r /Helvetica findfont 25.6631 sf 0 0 m (0.2) show NC gr 
 gsave  710 567 779 12 C 1406.67 65.3603 t 0 r /Helvetica findfont 25.6631 sf 0 0 m (0.25) show NC gr 
 gsave  710 567 779 12 C 1329.94 22.734 t 0 r /Helvetica findfont 28.5146 sf 0 0 m (bb.HT_l2) show NC gr  899 523 m 548 X s 935 509 m 14 Y s 949 516 m 7 Y s 964 516 m 7 Y s 978 516 m 7 Y s 992 516 m 7 Y s 1006 509 m 14 Y s 1021 516 m 7 Y s 1035 516 m
 7 Y s 1049 516 m 7 Y s 1063 516 m 7 Y s 1078 509 m 14 Y s 1092 516 m 7 Y s 1106 516 m 7 Y s 1120 516 m 7 Y s 1135 516 m 7 Y s 1149 509 m 14 Y s 1163 516 m 7 Y s 1177 516 m 7 Y s 1192 516 m 7 Y s 1206 516 m 7 Y s 1220 509 m 14 Y s 1234 516 m 7 Y s
 1249 516 m 7 Y s 1263 516 m 7 Y s 1277 516 m 7 Y s 1291 509 m 14 Y s 1306 516 m 7 Y s 1320 516 m 7 Y s 1334 516 m 7 Y s 1348 516 m 7 Y s 1363 509 m 14 Y s 1377 516 m 7 Y s 1391 516 m 7 Y s 1405 516 m 7 Y s 1420 516 m 7 Y s 1434 509 m 14 Y s 935 509
 m 14 Y s 921 516 m 7 Y s 907 516 m 7 Y s 1434 509 m 14 Y s 899 94 m 429 Y s 915 94 m -16 X s 907 103 m -8 X s 907 113 m -8 X s 907 123 m -8 X s 907 133 m -8 X s 915 143 m -16 X s 907 153 m -8 X s 907 162 m -8 X s 907 172 m -8 X s 907 182 m -8 X s
 915 192 m -16 X s 907 202 m -8 X s 907 212 m -8 X s 907 221 m -8 X s 907 231 m -8 X s 915 241 m -16 X s 907 251 m -8 X s 907 261 m -8 X s 907 270 m -8 X s 907 280 m -8 X s 915 290 m -16 X s 907 300 m -8 X s 907 310 m -8 X s 907 320 m -8 X s 907 329
 m -8 X s 915 339 m -16 X s 907 349 m -8 X s 907 359 m -8 X s 907 369 m -8 X s 907 379 m -8 X s 915 388 m -16 X s 907 398 m -8 X s 907 408 m -8 X s 907 418 m -8 X s 907 428 m -8 X s 915 438 m -16 X s 907 447 m -8 X s 907 457 m -8 X s 907 467 m -8 X s
 907 477 m -8 X s 915 487 m -16 X s 915 487 m -16 X s 907 497 m -8 X s 907 506 m -8 X s 907 516 m -8 X s
 gsave  710 567 779 12 C 875.259 82.4108 t 0 r /Helvetica findfont 25.6631 sf 0 0 m (0) show NC gr 
 gsave  710 567 779 12 C 878.101 133.562 t 0 r /Helvetica findfont 25.6631 sf 0 0 m (1) show NC gr 
 gsave  710 567 779 12 C 875.259 181.872 t 0 r /Helvetica findfont 25.6631 sf 0 0 m (2) show NC gr 
 gsave  710 567 779 12 C 875.259 230.182 t 0 r /Helvetica findfont 25.6631 sf 0 0 m (3) show NC gr 
 gsave  710 567 779 12 C 875.259 281.333 t 0 r /Helvetica findfont 25.6631 sf 0 0 m (4) show NC gr 
 gsave  710 567 779 12 C 875.259 329.643 t 0 r /Helvetica findfont 25.6631 sf 0 0 m (5) show NC gr 
 gsave  710 567 779 12 C 875.259 377.953 t 0 r /Helvetica findfont 25.6631 sf 0 0 m (6) show NC gr 
 gsave  710 567 779 12 C 875.259 426.263 t 0 r /Helvetica findfont 25.6631 sf 0 0 m (7) show NC gr 
 gsave  710 567 779 12 C 875.259 477.414 t 0 r /Helvetica findfont 25.6631 sf 0 0 m (8) show NC gr 
 gsave  710 567 779 12 C 801.374 431.946 t 90 r /Helvetica findfont 28.5146 sf 0 0 m (0.0096 ) show NC gr 
 gsave  710 567 779 12 C 787.165 429.104 t 90 r /Helvetica findfont 19.9602 sf 0 0 m ( ) show NC gr 
 gsave  710 567 779 12 C 801.374 417.737 t 90 r /Helvetica findfont 28.5146 sf 0 0 m (/) show NC gr 
 gsave  710 567 779 12 C 809.899 414.896 t 90 r /Helvetica findfont 19.9602 sf 0 0 m ( ) show NC gr 
 gsave  710 567 779 12 C 801.374 309.751 t 90 r /Helvetica findfont 28.5146 sf 0 0 m (\(1/N\) dN) show NC gr  1447 94 m 429 Y s 1430 94 m 17 X s 1438 103 m 9 X s 1438 113 m 9 X s 1438 123 m 9 X s 1438 133 m 9 X s 1430 143 m 17 X s 1438 153 m 9 X s
 1438 162 m 9 X s 1438 172 m 9 X s 1438 182 m 9 X s 1430 192 m 17 X s 1438 202 m 9 X s 1438 212 m 9 X s 1438 221 m 9 X s 1438 231 m 9 X s 1430 241 m 17 X s 1438 251 m 9 X s 1438 261 m 9 X s 1438 270 m 9 X s 1438 280 m 9 X s 1430 290 m 17 X s 1438 300
 m 9 X s 1438 310 m 9 X s 1438 320 m 9 X s 1438 329 m 9 X s 1430 339 m 17 X s 1438 349 m 9 X s 1438 359 m 9 X s 1438 369 m 9 X s 1438 379 m 9 X s 1430 388 m 17 X s 1438 398 m 9 X s 1438 408 m 9 X s 1438 418 m 9 X s 1438 428 m 9 X s 1430 438 m 17 X s
 1438 447 m 9 X s 1438 457 m 9 X s 1438 467 m 9 X s 1438 477 m 9 X s 1430 487 m 17 X s 1430 487 m 17 X s 1438 497 m 9 X s 1438 506 m 9 X s 1438 516 m 9 X s 0.490196 0.545098 0.615686 c 0.364706 0.419608 0.490196 c 338 37 786 539 bf 0.490196 0.545098
 0.615686 c 786 539 m 338 X s 1124 539 m 37 Y s 1124 576 m -338 X s 786 576 m -37 Y s 1 1 1 c black 1 1 1 c
 gsave  710 567 779 12 C 790.007 551.299 t 0 r /Helvetica-Bold findfont 28.5146 sf 0 0 m (Input variable: bb.HT_l2) show NC gr  1 0 0 c 6 lw black 3 lw 1 0 0 c 1433 94 m -1 X s 1433 109 m -16 -15 d s 1423 115 m -21 -21 d s 1408 114 m -21 -20 d s 1395
 116 m -23 -22 d s 1392 128 m -35 -34 d s 1385 136 m -43 -42 d s 1370 137 m -43 -43 d s 1361 143 m -49 -49 d s 1344 142 m -7 -8 d s 1335 132 m -38 -38 d s 1323 135 m -41 -41 d s 1323 151 m -56 -57 d s 1310 152 m -58 -58 d s 1310 167 m -73 -73 d s
 1291 164 m -70 -70 d s 1269 156 m -63 -62 d s 1269 171 m -78 -77 d s 1259 177 m -83 -83 d s 1242 175 m -81 -81 d s 1236 184 m -90 -90 d s 1228 191 m -97 -97 d s 1216 195 m -2 -3 d s 1201 179 m -85 -85 d s 1190 184 m -89 -90 d s 1187 195 m -101 -101
 d s 1186 210 m -115 -116 d s 1168 206 m -112 -112 d s 1150 204 m -109 -110 d s 1137 206 m -5 -5 d s 1123 192 m -97 -98 d s 1118 202 m -108 -108 d s 1117 216 m -122 -122 d s 1092 206 m -112 -112 d s 1091 220 m -126 -126 d s 1085 230 m -8 -8 d s 1072
 217 m -122 -123 d s 1064 223 m -129 -129 d s 1064 238 m -144 -144 d s 1050 240 m -145 -146 d s 1050 255 m -151 -152 d s 1050 270 m -151 -152 d s 1036 271 m -137 -138 d s 1028 278 m -129 -129 d s 1014 280 m -115 -116 d s 995 275 m -96 -96 d s 995 291
 m -96 -97 d s 995 306 m -96 -97 d s 982 308 m -1 -1 d s 977 303 m -78 -78 d s 968 309 m -69 -69 d s 968 324 m -69 -69 d s 968 339 m -69 -69 d s 968 354 m -69 -69 d s 954 356 m -55 -55 d s 954 371 m -55 -55 d s 954 386 m -55 -55 d s 954 401 m -55 -55
 d s 954 416 m -55 -55 d s 953 430 m -54 -54 d s 928 421 m -29 -29 d s 927 434 m -28 -27 d s 927 450 m -28 -28 d s 927 465 m -28 -28 d s 927 480 m -28 -28 d s 915 484 m -2 -3 d s 903 471 m -4 -3 d s 6 lw 899 471 m 14 X 13 Y 14 X -63 Y 13 X 9 Y 14 X
 -74 Y 14 X -53 Y 13 X 5 Y 14 X -33 Y 14 X 5 Y 13 X -2 Y 14 X -7 Y 14 X -31 Y 14 X -23 Y 13 X 13 Y 14 X -24 Y 14 X 10 Y 13 X -24 Y 14 X 14 Y 14 X -2 Y 13 X 2 Y 14 X 4 Y 14 X -26 Y 13 X -5 Y 14 X 16 Y 14 X -11 Y 13 X -9 Y 14 X 2 Y 14 X -21 Y 13 X 8 Y
 14 X 3 Y 14 X -16 Y 13 X -19 Y 14 X 10 Y 14 X 1 Y 13 X -6 Y 14 X -1 Y 14 X -20 Y 13 X -2 Y 14 X 1 Y 14 X -21 Y 14 X s black 3 lw 899 94 m 548 X s 935 107 m -13 Y s 949 100 m -6 Y s 964 100 m -6 Y s 978 100 m -6 Y s 992 100 m -6 Y s 1006 107 m -13 Y
 s 1021 100 m -6 Y s 1035 100 m -6 Y s 1049 100 m -6 Y s 1063 100 m -6 Y s 1078 107 m -13 Y s 1092 100 m -6 Y s 1106 100 m -6 Y s 1120 100 m -6 Y s 1135 100 m -6 Y s 1149 107 m -13 Y s 1163 100 m -6 Y s 1177 100 m -6 Y s 1192 100 m -6 Y s 1206 100 m
 -6 Y s 1220 107 m -13 Y s 1234 100 m -6 Y s 1249 100 m -6 Y s 1263 100 m -6 Y s 1277 100 m -6 Y s 1291 107 m -13 Y s 1306 100 m -6 Y s 1320 100 m -6 Y s 1334 100 m -6 Y s 1348 100 m -6 Y s 1363 107 m -13 Y s 1377 100 m -6 Y s 1391 100 m -6 Y s 1405
 100 m -6 Y s 1420 100 m -6 Y s 1434 107 m -13 Y s 935 107 m -13 Y s 921 100 m -6 Y s 907 100 m -6 Y s 1434 107 m -13 Y s 899 523 m 548 X s 935 509 m 14 Y s 949 516 m 7 Y s 964 516 m 7 Y s 978 516 m 7 Y s 992 516 m 7 Y s 1006 509 m 14 Y s 1021 516 m
 7 Y s 1035 516 m 7 Y s 1049 516 m 7 Y s 1063 516 m 7 Y s 1078 509 m 14 Y s 1092 516 m 7 Y s 1106 516 m 7 Y s 1120 516 m 7 Y s 1135 516 m 7 Y s 1149 509 m 14 Y s 1163 516 m 7 Y s 1177 516 m 7 Y s 1192 516 m 7 Y s 1206 516 m 7 Y s 1220 509 m 14 Y s
 1234 516 m 7 Y s 1249 516 m 7 Y s 1263 516 m 7 Y s 1277 516 m 7 Y s 1291 509 m 14 Y s 1306 516 m 7 Y s 1320 516 m 7 Y s 1334 516 m 7 Y s 1348 516 m 7 Y s 1363 509 m 14 Y s 1377 516 m 7 Y s 1391 516 m 7 Y s 1405 516 m 7 Y s 1420 516 m 7 Y s 1434 509
 m 14 Y s 935 509 m 14 Y s 921 516 m 7 Y s 907 516 m 7 Y s 1434 509 m 14 Y s 899 94 m 429 Y s 915 94 m -16 X s 907 103 m -8 X s 907 113 m -8 X s 907 123 m -8 X s 907 133 m -8 X s 915 143 m -16 X s 907 153 m -8 X s 907 162 m -8 X s 907 172 m -8 X s
 907 182 m -8 X s 915 192 m -16 X s 907 202 m -8 X s 907 212 m -8 X s 907 221 m -8 X s 907 231 m -8 X s 915 241 m -16 X s 907 251 m -8 X s 907 261 m -8 X s 907 270 m -8 X s 907 280 m -8 X s 915 290 m -16 X s 907 300 m -8 X s 907 310 m -8 X s 907 320
 m -8 X s 907 329 m -8 X s 915 339 m -16 X s 907 349 m -8 X s 907 359 m -8 X s 907 369 m -8 X s 907 379 m -8 X s 915 388 m -16 X s 907 398 m -8 X s 907 408 m -8 X s 907 418 m -8 X s 907 428 m -8 X s 915 438 m -16 X s 907 447 m -8 X s 907 457 m -8 X s
 907 467 m -8 X s 907 477 m -8 X s 915 487 m -16 X s 915 487 m -16 X s 907 497 m -8 X s 907 506 m -8 X s 907 516 m -8 X s 1447 94 m 429 Y s 1430 94 m 17 X s 1438 103 m 9 X s 1438 113 m 9 X s 1438 123 m 9 X s 1438 133 m 9 X s 1430 143 m 17 X s 1438
 153 m 9 X s 1438 162 m 9 X s 1438 172 m 9 X s 1438 182 m 9 X s 1430 192 m 17 X s 1438 202 m 9 X s 1438 212 m 9 X s 1438 221 m 9 X s 1438 231 m 9 X s 1430 241 m 17 X s 1438 251 m 9 X s 1438 261 m 9 X s 1438 270 m 9 X s 1438 280 m 9 X s 1430 290 m 17
 X s 1438 300 m 9 X s 1438 310 m 9 X s 1438 320 m 9 X s 1438 329 m 9 X s 1430 339 m 17 X s 1438 349 m 9 X s 1438 359 m 9 X s 1438 369 m 9 X s 1438 379 m 9 X s 1430 388 m 17 X s 1438 398 m 9 X s 1438 408 m 9 X s 1438 418 m 9 X s 1438 428 m 9 X s 1430
 438 m 17 X s 1438 447 m 9 X s 1438 457 m 9 X s 1438 467 m 9 X s 1438 477 m 9 X s 1430 487 m 17 X s 1430 487 m 17 X s 1438 497 m 9 X s 1438 506 m 9 X s 1438 516 m 9 X s
 gsave  710 567 779 12 C 1474.92 91.2634 t 90 r /Helvetica-Bold findfont 19.9602 sf 0 0 m (U/O\255flow \(S,B\): \(0.0, 0.0\)% / \(0.0, 0.0\)%) show NC gr  0.490196 0.545098 0.615686 c 0.364706 0.419608 0.490196 c 338 37 786 539 bf 0.490196 0.545098
 0.615686 c 786 539 m 338 X s 1124 539 m 37 Y s 1124 576 m -338 X s 786 576 m -37 Y s 1 1 1 c black 1 1 1 c
 gsave  710 567 779 12 C 790.007 551.299 t 0 r /Helvetica-Bold findfont 28.5146 sf 0 0 m (Input variable: bb.HT_l2) show NC gr  0.490196 0.545098 0.615686 c 0.941176 0.941176 0.941176 c 711 567 1534 12 bf black 1 1 0.992157 c 547 429 1655 94 bf black
 547 429 1655 94 bl 0 0 0.933333 c 6 lw 0.49 0.6 0.82 c black 3 lw 0.49 0.6 0.82 c 1655 94 m 28 X 1 Y 13 X -1 Y 28 X 1 Y 13 X -1 Y 28 X 2 Y 13 X -1 Y 14 X 184 Y 14 X 205 Y 13 X -190 Y 14 X -44 Y 14 X -9 Y 13 X -26 Y 14 X -26 Y 14 X -3 Y 13 X -6 Y 14
 X 5 Y 14 X -17 Y 14 X 2 Y 13 X -12 Y 14 X 2 Y 27 X -9 Y 14 X 10 Y 14 X -3 Y 13 X 4 Y 14 X -29 Y 14 X -6 Y 13 X 4 Y 14 X -9 Y 14 X -12 Y 13 X 8 Y 14 X -6 Y 14 X -5 Y 13 X -7 Y 14 X -4 Y 14 X -2 Y 13 X f 6 lw 0 0 0.933333 c 0.49 0.6 0.82 c 0 0
 0.933333 c 1655 94 m 28 X 1 Y 13 X -1 Y 28 X 1 Y 13 X -1 Y 28 X 2 Y 13 X -1 Y 14 X 184 Y 14 X 205 Y 13 X -190 Y 14 X -44 Y 14 X -9 Y 13 X -26 Y 14 X -26 Y 14 X -3 Y 13 X -6 Y 14 X 5 Y 14 X -17 Y 14 X 2 Y 13 X -12 Y 14 X 2 Y 27 X -9 Y 14 X 10 Y 14 X
 -3 Y 13 X 4 Y 14 X -29 Y 14 X -6 Y 13 X 4 Y 14 X -9 Y 14 X -12 Y 13 X 8 Y 14 X -6 Y 14 X -5 Y 13 X -7 Y 14 X -4 Y 14 X -2 Y 13 X s black 3 lw 1655 94 m 547 X s 1709 107 m -13 Y s 1731 100 m -6 Y s 1752 100 m -6 Y s 1774 100 m -6 Y s 1795 100 m -6 Y
 s 1817 107 m -13 Y s 1839 100 m -6 Y s 1860 100 m -6 Y s 1882 100 m -6 Y s 1903 100 m -6 Y s 1925 107 m -13 Y s 1946 100 m -6 Y s 1968 100 m -6 Y s 1990 100 m -6 Y s 2011 100 m -6 Y s 2033 107 m -13 Y s 2054 100 m -6 Y s 2076 100 m -6 Y s 2098 100 m
 -6 Y s 2119 100 m -6 Y s 2141 107 m -13 Y s 1709 107 m -13 Y s 1688 100 m -6 Y s 1666 100 m -6 Y s 2141 107 m -13 Y s 2162 100 m -6 Y s 2184 100 m -6 Y s
 gsave  711 567 1534 12 C 1696.52 65.3603 t 0 r /Helvetica findfont 25.6631 sf 0 0 m (0.2) show NC gr 
 gsave  711 567 1534 12 C 1682.32 65.3603 t 0 r /Symbol findfont 25.6631 sf 0 0 m (-) show NC gr 
 gsave  711 567 1534 12 C 1804.51 65.3603 t 0 r /Helvetica findfont 25.6631 sf 0 0 m (0.1) show NC gr 
 gsave  711 567 1534 12 C 1793.14 65.3603 t 0 r /Symbol findfont 25.6631 sf 0 0 m (-) show NC gr 
 gsave  711 567 1534 12 C 1915.34 65.3603 t 0 r /Helvetica findfont 25.6631 sf 0 0 m (0) show NC gr 
 gsave  711 567 1534 12 C 2014.8 65.3603 t 0 r /Helvetica findfont 25.6631 sf 0 0 m (0.1) show NC gr 
 gsave  711 567 1534 12 C 2122.79 65.3603 t 0 r /Helvetica findfont 25.6631 sf 0 0 m (0.2) show NC gr 
 gsave  711 567 1534 12 C 2085.84 22.734 t 0 r /Helvetica findfont 28.5146 sf 0 0 m (bb.HY_l3) show NC gr  1655 523 m 547 X s 1709 509 m 14 Y s 1731 516 m 7 Y s 1752 516 m 7 Y s 1774 516 m 7 Y s 1795 516 m 7 Y s 1817 509 m 14 Y s 1839 516 m 7 Y s
 1860 516 m 7 Y s 1882 516 m 7 Y s 1903 516 m 7 Y s 1925 509 m 14 Y s 1946 516 m 7 Y s 1968 516 m 7 Y s 1990 516 m 7 Y s 2011 516 m 7 Y s 2033 509 m 14 Y s 2054 516 m 7 Y s 2076 516 m 7 Y s 2098 516 m 7 Y s 2119 516 m 7 Y s 2141 509 m 14 Y s 1709 509
 m 14 Y s 1688 516 m 7 Y s 1666 516 m 7 Y s 2141 509 m 14 Y s 2162 516 m 7 Y s 2184 516 m 7 Y s 1655 94 m 429 Y s 1671 94 m -16 X s 1663 109 m -8 X s 1663 124 m -8 X s 1663 139 m -8 X s 1671 155 m -16 X s 1663 170 m -8 X s 1663 185 m -8 X s 1663 200
 m -8 X s 1671 215 m -16 X s 1663 231 m -8 X s 1663 246 m -8 X s 1663 261 m -8 X s 1671 276 m -16 X s 1663 292 m -8 X s 1663 307 m -8 X s 1663 322 m -8 X s 1671 337 m -16 X s 1663 353 m -8 X s 1663 368 m -8 X s 1663 383 m -8 X s 1671 398 m -16 X s
 1663 414 m -8 X s 1663 429 m -8 X s 1663 444 m -8 X s 1671 459 m -16 X s 1663 475 m -8 X s 1663 490 m -8 X s 1663 505 m -8 X s 1671 520 m -16 X s 1671 520 m -16 X s
 gsave  711 567 1534 12 C 1631.16 82.4108 t 0 r /Helvetica findfont 25.6631 sf 0 0 m (0) show NC gr 
 gsave  711 567 1534 12 C 1631.16 144.929 t 0 r /Helvetica findfont 25.6631 sf 0 0 m (2) show NC gr 
 gsave  711 567 1534 12 C 1631.16 204.606 t 0 r /Helvetica findfont 25.6631 sf 0 0 m (4) show NC gr 
 gsave  711 567 1534 12 C 1631.16 267.125 t 0 r /Helvetica findfont 25.6631 sf 0 0 m (6) show NC gr 
 gsave  711 567 1534 12 C 1631.16 326.801 t 0 r /Helvetica findfont 25.6631 sf 0 0 m (8) show NC gr 
 gsave  711 567 1534 12 C 1616.96 389.32 t 0 r /Helvetica findfont 25.6631 sf 0 0 m (10) show NC gr 
 gsave  711 567 1534 12 C 1616.96 448.997 t 0 r /Helvetica findfont 25.6631 sf 0 0 m (12) show NC gr 
 gsave  711 567 1534 12 C 1616.96 511.515 t 0 r /Helvetica findfont 25.6631 sf 0 0 m (14) show NC gr 
 gsave  711 567 1534 12 C 1557.28 431.946 t 90 r /Helvetica findfont 28.5146 sf 0 0 m (0.0127 ) show NC gr 
 gsave  711 567 1534 12 C 1543.07 429.104 t 90 r /Helvetica findfont 19.9602 sf 0 0 m ( ) show NC gr 
 gsave  711 567 1534 12 C 1557.28 417.737 t 90 r /Helvetica findfont 28.5146 sf 0 0 m (/) show NC gr 
 gsave  711 567 1534 12 C 1565.8 414.896 t 90 r /Helvetica findfont 19.9602 sf 0 0 m ( ) show NC gr 
 gsave  711 567 1534 12 C 1557.28 309.751 t 90 r /Helvetica findfont 28.5146 sf 0 0 m (\(1/N\) dN) show NC gr  2202 94 m 429 Y s 2186 94 m 16 X s 2194 109 m 8 X s 2194 124 m 8 X s 2194 139 m 8 X s 2186 155 m 16 X s 2194 170 m 8 X s 2194 185 m 8 X s
 2194 200 m 8 X s 2186 215 m 16 X s 2194 231 m 8 X s 2194 246 m 8 X s 2194 261 m 8 X s 2186 276 m 16 X s 2194 292 m 8 X s 2194 307 m 8 X s 2194 322 m 8 X s 2186 337 m 16 X s 2194 353 m 8 X s 2194 368 m 8 X s 2194 383 m 8 X s 2186 398 m 16 X s 2194
 414 m 8 X s 2194 429 m 8 X s 2194 444 m 8 X s 2186 459 m 16 X s 2194 475 m 8 X s 2194 490 m 8 X s 2194 505 m 8 X s 2186 520 m 16 X s 2186 520 m 16 X s 0.490196 0.545098 0.615686 c 0.364706 0.419608 0.490196 c 338 37 1542 539 bf 0.490196 0.545098
 0.615686 c 1542 539 m 338 X s 1880 539 m 37 Y s 1880 576 m -338 X s 1542 576 m -37 Y s 1 1 1 c black 1 1 1 c
 gsave  711 567 1534 12 C 1545.91 551.299 t 0 r /Helvetica-Bold findfont 28.5146 sf 0 0 m (Input variable: bb.HY_l3) show NC gr  1 0 0 c 6 lw black 3 lw 1 0 0 c 2189 94 m -1 X s 2175 95 m -2 -1 d s 2159 94 m -1 X s 2146 97 m -3 -3 d s 2132 97 m -4 -3
 d s 2115 95 m -2 -1 d s 2101 96 m -3 -2 d s 2088 98 m -5 -4 d s 2073 98 m -5 -4 d s 2063 104 m -10 -10 d s 2052 108 m -14 -14 d s 2052 123 m -29 -29 d s 2052 138 m -44 -44 d s 2052 153 m -60 -59 d s 2052 169 m -75 -75 d s 2052 184 m -90 -90 d s 2052
 199 m -105 -105 d s 2052 214 m -120 -120 d s 2052 229 m -135 -135 d s 2052 245 m -150 -151 d s 2052 260 m -27 -28 d s 2022 230 m -11 -12 d s 2005 213 m -8 -8 d s 1991 199 m -104 -105 d s 2052 275 m -27 -28 d s 1973 195 m -3 -3 d s 1964 186 m -92 -92
 d s 2052 290 m -27 -27 d s 1941 178 m -84 -84 d s 2052 305 m -14 -13 d s 2029 282 m -4 -4 d s 1929 181 m -87 -87 d s 2052 320 m -14 -13 d s 1901 169 m -74 -75 d s 2052 336 m -14 -14 d s 1898 181 m -86 -87 d s 2052 351 m -14 -14 d s 1882 180 m -86
 -86 d s 2052 366 m -14 -14 d s 1866 179 m -85 -85 d s 2044 374 m -6 -7 d s 1860 188 m -68 -69 d s 1779 107 m -13 -13 d s 1847 190 m s 1841 184 m -49 -49 d s 1763 105 m -12 -11 d s 1833 191 m -41 -41 d s 1750 108 m -14 -14 d s 1833 206 m -41 -41 d s
 1737 110 m -16 -16 d s 1832 221 m -40 -41 d s 1725 112 m -1 -1 d s 1722 110 m -16 -16 d s 1819 223 m -13 -14 d s 1794 197 m -2 -2 d s 1703 105 m -12 -11 d s 1819 238 m -13 -14 d s 1686 104 m -10 -10 d s 1819 253 m -13 -14 d s 1672 105 m -11 -11 d s
 1819 268 m -13 -13 d s 1657 105 m -2 -2 d s 1819 284 m -13 -14 d s 1819 298 m -13 -13 d s 6 lw 1655 105 m 28 X -1 Y 13 X 1 Y 14 X 5 Y 14 X 2 Y 13 X -4 Y 14 X -3 Y 14 X 1 Y 13 X 1 Y 14 X 90 Y 14 X 101 Y 13 X -77 Y 14 X -37 Y 14 X 6 Y 13 X -11 Y 14 X
 1 Y 14 X 1 Y 13 X -12 Y 14 X 12 Y 14 X -3 Y 14 X 1 Y 13 X 7 Y 14 X 9 Y 14 X 4 Y 13 X 14 Y 14 X 17 Y 14 X 52 Y 13 X 92 Y 14 X -270 Y 14 X -6 Y 27 X -2 Y 14 X -1 Y 13 X 2 Y 28 X -3 Y 13 X 1 Y 14 X -1 Y 27 X s black 3 lw 1655 94 m 547 X s 1709 107 m
 -13 Y s 1731 100 m -6 Y s 1752 100 m -6 Y s 1774 100 m -6 Y s 1795 100 m -6 Y s 1817 107 m -13 Y s 1839 100 m -6 Y s 1860 100 m -6 Y s 1882 100 m -6 Y s 1903 100 m -6 Y s 1925 107 m -13 Y s 1946 100 m -6 Y s 1968 100 m -6 Y s 1990 100 m -6 Y s 2011
 100 m -6 Y s 2033 107 m -13 Y s 2054 100 m -6 Y s 2076 100 m -6 Y s 2098 100 m -6 Y s 2119 100 m -6 Y s 2141 107 m -13 Y s 1709 107 m -13 Y s 1688 100 m -6 Y s 1666 100 m -6 Y s 2141 107 m -13 Y s 2162 100 m -6 Y s 2184 100 m -6 Y s 1655 523 m 547 X
 s 1709 509 m 14 Y s 1731 516 m 7 Y s 1752 516 m 7 Y s 1774 516 m 7 Y s 1795 516 m 7 Y s 1817 509 m 14 Y s 1839 516 m 7 Y s 1860 516 m 7 Y s 1882 516 m 7 Y s 1903 516 m 7 Y s 1925 509 m 14 Y s 1946 516 m 7 Y s 1968 516 m 7 Y s 1990 516 m 7 Y s 2011
 516 m 7 Y s 2033 509 m 14 Y s 2054 516 m 7 Y s 2076 516 m 7 Y s 2098 516 m 7 Y s 2119 516 m 7 Y s 2141 509 m 14 Y s 1709 509 m 14 Y s 1688 516 m 7 Y s 1666 516 m 7 Y s 2141 509 m 14 Y s 2162 516 m 7 Y s 2184 516 m 7 Y s 1655 94 m 429 Y s 1671 94 m
 -16 X s 1663 109 m -8 X s 1663 124 m -8 X s 1663 139 m -8 X s 1671 155 m -16 X s 1663 170 m -8 X s 1663 185 m -8 X s 1663 200 m -8 X s 1671 215 m -16 X s 1663 231 m -8 X s 1663 246 m -8 X s 1663 261 m -8 X s 1671 276 m -16 X s 1663 292 m -8 X s 1663
 307 m -8 X s 1663 322 m -8 X s 1671 337 m -16 X s 1663 353 m -8 X s 1663 368 m -8 X s 1663 383 m -8 X s 1671 398 m -16 X s 1663 414 m -8 X s 1663 429 m -8 X s 1663 444 m -8 X s 1671 459 m -16 X s 1663 475 m -8 X s 1663 490 m -8 X s 1663 505 m -8 X s
 1671 520 m -16 X s 1671 520 m -16 X s 2202 94 m 429 Y s 2186 94 m 16 X s 2194 109 m 8 X s 2194 124 m 8 X s 2194 139 m 8 X s 2186 155 m 16 X s 2194 170 m 8 X s 2194 185 m 8 X s 2194 200 m 8 X s 2186 215 m 16 X s 2194 231 m 8 X s 2194 246 m 8 X s 2194
 261 m 8 X s 2186 276 m 16 X s 2194 292 m 8 X s 2194 307 m 8 X s 2194 322 m 8 X s 2186 337 m 16 X s 2194 353 m 8 X s 2194 368 m 8 X s 2194 383 m 8 X s 2186 398 m 16 X s 2194 414 m 8 X s 2194 429 m 8 X s 2194 444 m 8 X s 2186 459 m 16 X s 2194 475 m 8
 X s 2194 490 m 8 X s 2194 505 m 8 X s 2186 520 m 16 X s 2186 520 m 16 X s
 gsave  711 567 1534 12 C 2230.83 91.2634 t 90 r /Helvetica-Bold findfont 19.9602 sf 0 0 m (U/O\255flow \(S,B\): \(0.0, 0.0\)% / \(0.0, 0.0\)%) show NC gr  0.490196 0.545098 0.615686 c 0.364706 0.419608 0.490196 c 338 37 1542 539 bf 0.490196 0.545098
 0.615686 c 1542 539 m 338 X s 1880 539 m 37 Y s 1880 576 m -338 X s 1542 576 m -37 Y s 1 1 1 c black 1 1 1 c
 gsave  711 567 1534 12 C 1545.91 551.299 t 0 r /Helvetica-Bold findfont 28.5146 sf 0 0 m (Input variable: bb.HY_l3) show NC gr 
 gr  gr showpage
end
%%EOF
