%!PS-Adobe-2.0 EPSF-2.0
%%BoundingBox:  0 0 567 296
%%Title: dataset_class_comb/plots/variables_id_c2.eps: Input variables (training sample)
%%Creator: ROOT Version 6.18/00
%%CreationDate: Sat Sep 14 13:42:38 2019
%%DocumentNeededResources: ProcSet (FontSetInit)
%%EndComments
%%BeginProlog
80 dict begin
/s {stroke} def /l {lineto} def /m {moveto} def /t {translate} def
/r {rotate} def /rl {roll}  def /R {repeat} def
/d {rlineto} def /rm {rmoveto} def /gr {grestore} def /f {eofill} def
/c {setrgbcolor} def /black {0 setgray} def /sd {setdash} def
/cl {closepath} def /sf {scalefont setfont} def /lw {setlinewidth} def
/box {m dup 0 exch d exch 0 d 0 exch neg d cl} def
/NC{systemdict begin initclip end}def/C{NC box clip newpath}def
/bl {box s} def /bf {gsave box gsave f grestore 1 lw [] 0 sd s grestore} def /Y { 0 exch d} def /X { 0 d} def 
/K {{pop pop 0 moveto} exch kshow} bind def
/ita {/ang 15 def gsave [1 0 ang dup sin exch cos div 1 0 0] concat} def 
/mp {newpath /y exch def /x exch def} def
/side {[w .77 mul w .23 mul] .385 w mul sd w 0 l currentpoint t -144 r} def
/mr {mp x y w2 0 360 arc} def /m24 {mr s} def /m20 {mr f} def
/mb {mp x y w2 add m w2 neg 0 d 0 w neg d w 0 d 0 w d cl} def
/mt {mp x y w2 add m w2 neg w neg d w 0 d cl} def
/w4 {w 4 div} def
/w6 {w 6 div} def
/w8 {w 8 div} def
/m21 {mb f} def /m25 {mb s} def /m22 {mt f} def /m26{mt s} def
/m23 {mp x y w2 sub m w2 w d w neg 0 d cl f} def
/m27 {mp x y w2 add m w3 neg w2 neg d w3 w2 neg d w3 w2 d cl s} def
/m28 {mp x w2 sub y w2 sub w3 add m w3 0 d  0 w3 neg d w3 0 d 0 w3 d w3 0 d  0 w3 d w3 neg 0 d 0 w3 d w3 neg 0 d 0 w3 neg d w3 neg 0 d cl s } def
/m29 {mp gsave x w2 sub y w2 add w3 sub m currentpoint t 4 {side} repeat cl fill gr} def
/m30 {mp gsave x w2 sub y w2 add w3 sub m currentpoint t 4 {side} repeat cl s gr} def
/m31 {mp x y w2 sub m 0 w d x w2 sub y m w 0 d x w2 sub y w2 add m w w neg d x w2 sub y w2 sub m w w d s} def
/m32 {mp x y w2 sub m w2 w d w neg 0 d cl s} def
/m33 {mp x y w2 add m w3 neg w2 neg d w3 w2 neg d w3 w2 d cl f} def
/m34 {mp x w2 sub y w2 sub w3 add m w3 0 d  0 w3 neg d w3 0 d 0 w3 d w3 0 d  0 w3 d w3 neg 0 d 0 w3 d w3 neg 0 d 0 w3 neg d w3 neg 0 d cl f } def
/m35 {mp x y w2 add m w2 neg w2 neg d w2 w2 neg d w2 w2 d w2 neg w2 d x y w2 sub m 0 w d x w2 sub y m w 0 d s} def
/m36 {mb x w2 sub y w2 add m w w neg d x w2 sub y w2 sub m w w d s} def
/m37 {mp x y m w4 neg w2 d w4 neg w2 neg d w2 0 d  w4 neg w2 neg d w2 0 d w4 neg w2 d w2 0 d w4 neg w2 d w4 neg w2 neg d cl s} def
/m38 {mp x w4 sub y w2 add m w4 neg w4 neg d 0 w2 neg d w4 w4 neg d w2 0 d w4 w4 d 0 w2 d w4 neg w4 d w2 neg 0 d x y w2 sub m 0 w d x w2 sub y m w 0 d cl s} def
/m39 {mp x y m w4 neg w2 d w4 neg w2 neg d w2 0 d  w4 neg w2 neg d w2 0 d w4 neg w2 d w2 0 d w4 neg w2 d w4 neg w2 neg d cl f} def
/m40 {mp x y m w4 w2 d w4 w4 neg d w2 neg w4 neg d w2 w4 neg d w4 neg w4 neg d w4 neg w2 d w4 neg w2 neg d w4 neg w4 d w2 w4 d w2 neg w4 d w4 w4 d w4 w2 neg d cl s} def
/m41 {mp x y m w4 w2 d w4 w4 neg d w2 neg w4 neg d w2 w4 neg d w4 neg w4 neg d w4 neg w2 d w4 neg w2 neg d w4 neg w4 d w2 w4 d w2 neg w4 d w4 w4 d w4 w2 neg d cl f} def
/m42 {mp x y w2 add m w8 neg w2 -3 4 div mul d w2 -3 4 div mul w8 neg d w2 3 4 div mul w8 neg d w8 w2 -3 4 div mul d w8 w2 3 4 div mul d w2 3 4 div mul w8 d w2 -3 4 div mul w8 d w8 neg w2 3 4 div mul d cl s} def
/m43 {mp x y w2 add m w8 neg w2 -3 4 div mul d w2 -3 4 div mul w8 neg d w2 3 4 div mul w8 neg d w8 w2 -3 4 div mul d w8 w2 3 4 div mul d w2 3 4 div mul w8 d w2 -3 4 div mul w8 d w8 neg w2 3 4 div mul d cl f} def
/m44 {mp x y m w6 neg w2 d w2 2 3 div mul 0 d w6 neg w2 neg d w2 w6 d 0 w2 -2 3 div mul d w2 neg w6 d w6 w2 neg d w2 -2 3 div mul 0 d w6 w2 d w2 neg w6 neg d 0 w2 2 3 div mul d w2 w6 neg d cl s} def
/m45 {mp x y m w6 neg w2 d w2 2 3 div mul 0 d w6 neg w2 neg d w2 w6 d 0 w2 -2 3 div mul d w2 neg w6 d w6 w2 neg d w2 -2 3 div mul 0 d w6 w2 d w2 neg w6 neg d 0 w2 2 3 div mul d w2 w6 neg d cl f} def
/m46 {mp x y w4 add m w4 neg w4 d w4 neg w4 neg d  w4 w4 neg d w4 neg w4 neg d w4 w4 neg d w4 w4 d w4 w4 neg d w4 w4 d w4 neg w4 d w4 w4 d w4 neg w4 d w4 neg w4 neg d cl s} def
/m47 {mp x y w4 add m w4 neg w4 d w4 neg w4 neg d w4 w4 neg d w4 neg w4 neg d  w4 w4 neg d w4 w4 d w4 w4 neg d w4 w4 d w4 neg w4 d w4 w4 d w4 neg w4 d w4 neg w4 neg d cl f} def
/m48 {mp x y w4 add m w4 neg w4 d w4 neg w4 neg d w4 w4 neg d  w4 neg w4 neg d w4 w4 neg d w4 w4 d w4 w4 neg d w4 w4 d w4 neg w4 d w4 w4 d w4 neg w4 d w4 neg w4 neg d  w4 w4 neg d w4 neg w4 neg d w4 neg w4 d w4 w4 d cl f} def
/m49 {mp x w2 sub w3 add y w2 sub w3 add m  0 w3 neg d w3 0 d 0 w3 d w3 0 d 0 w3 d w3 neg 0 d 0 w3 d w3 neg 0 d 0 w3 neg d w3 neg 0 d 0 w3 neg d w3 0 d 0 w3 d w3 0 d 0 w3 neg d w3 neg 0 d cl f } def
/m2 {mp x y w2 sub m 0 w d x w2 sub y m w 0 d s} def
/m5 {mp x w2 sub y w2 sub m w w d x w2 sub y w2 add m w w neg d s} def
%%IncludeResource: ProcSet (FontSetInit)
%%IncludeResource: font Times-Roman
%%IncludeResource: font Times-Italic
%%IncludeResource: font Times-Bold
%%IncludeResource: font Times-BoldItalic
%%IncludeResource: font Helvetica
%%IncludeResource: font Helvetica-Oblique
%%IncludeResource: font Helvetica-Bold
%%IncludeResource: font Helvetica-BoldOblique
%%IncludeResource: font Courier
%%IncludeResource: font Courier-Oblique
%%IncludeResource: font Courier-Bold
%%IncludeResource: font Courier-BoldOblique
%%IncludeResource: font Symbol
%%IncludeResource: font ZapfDingbats
/reEncode {exch findfont dup length dict begin {1 index /FID eq  {pop pop} {def} ifelse } forall /Encoding exch def currentdict end dup /FontName get exch definefont pop } def [/Times-Bold /Times-Italic /Times-BoldItalic /Helvetica /Helvetica-Oblique
 /Helvetica-Bold /Helvetica-BoldOblique /Courier /Courier-Oblique /Courier-Bold /Courier-BoldOblique /Times-Roman /AvantGarde-Book /AvantGarde-BookOblique /AvantGarde-Demi /AvantGarde-DemiOblique /Bookman-Demi /Bookman-DemiItalic /Bookman-Light
 /Bookman-LightItalic /Helvetica-Narrow /Helvetica-Narrow-Bold /Helvetica-Narrow-BoldOblique /Helvetica-Narrow-Oblique /NewCenturySchlbk-Roman /NewCenturySchlbk-Bold /NewCenturySchlbk-BoldItalic /NewCenturySchlbk-Italic /Palatino-Bold
 /Palatino-BoldItalic /Palatino-Italic /Palatino-Roman ] {ISOLatin1Encoding reEncode } forall
%%EndProlog
%%BeginSetup
%%EndSetup
newpath  gsave  .25 .25 scale  gsave  0 0 t 0.490196 0.545098 0.615686 c[  ] 0 sd 3 lw 0.941176 0.941176 0.941176 c 2268 1182 0 0 bf 0.490196 0.545098 0.615686 c 0.941176 0.941176 0.941176 c 710 567 23 603 bf black 1 1 0.992157 c 548 429 143 685 bf
 black 548 429 143 685 bl 0 0 0.933333 c 6 lw 0.49 0.6 0.82 c black 3 lw 0.49 0.6 0.82 c 143 685 m 21 Y 14 X 72 Y 14 X 43 Y 14 X 62 Y 13 X 37 Y 14 X 24 Y 14 X 44 Y 13 X 52 Y 14 X -11 Y 14 X 4 Y 13 X -20 Y 14 X -40 Y 14 X -44 Y 13 X -53 Y 14 X -7 Y 14
 X -38 Y 13 X -22 Y 14 X -27 Y 14 X -17 Y 13 X 6 Y 14 X -31 Y 14 X 4 Y 13 X -6 Y 14 X -1 Y 14 X -13 Y 13 X -14 Y 14 X 5 Y 14 X 1 Y 13 X -10 Y 14 X -6 Y 14 X -4 Y 13 X 2 Y 14 X -3 Y 14 X -7 Y 14 X 2 Y 13 X -5 Y 14 X 1 Y 14 X -1 Y 41 X f 6 lw 0 0
 0.933333 c 0.49 0.6 0.82 c 0 0 0.933333 c 143 706 m 14 X 72 Y 14 X 43 Y 14 X 62 Y 13 X 37 Y 14 X 24 Y 14 X 44 Y 13 X 52 Y 14 X -11 Y 14 X 4 Y 13 X -20 Y 14 X -40 Y 14 X -44 Y 13 X -53 Y 14 X -7 Y 14 X -38 Y 13 X -22 Y 14 X -27 Y 14 X -17 Y 13 X 6 Y
 14 X -31 Y 14 X 4 Y 13 X -6 Y 14 X -1 Y 14 X -13 Y 13 X -14 Y 14 X 5 Y 14 X 1 Y 13 X -10 Y 14 X -6 Y 14 X -4 Y 13 X 2 Y 14 X -3 Y 14 X -7 Y 14 X 2 Y 13 X -5 Y 14 X 1 Y 14 X -1 Y 41 X s black 3 lw 143 685 m 548 X s 215 698 m -13 Y s 229 691 m -6 Y s
 244 691 m -6 Y s 258 691 m -6 Y s 273 691 m -6 Y s 287 698 m -13 Y s 302 691 m -6 Y s 316 691 m -6 Y s 331 691 m -6 Y s 345 691 m -6 Y s 360 698 m -13 Y s 374 691 m -6 Y s 389 691 m -6 Y s 403 691 m -6 Y s 417 691 m -6 Y s 432 698 m -13 Y s 446 691
 m -6 Y s 461 691 m -6 Y s 475 691 m -6 Y s 490 691 m -6 Y s 504 698 m -13 Y s 519 691 m -6 Y s 533 691 m -6 Y s 548 691 m -6 Y s 562 691 m -6 Y s 577 698 m -13 Y s 591 691 m -6 Y s 606 691 m -6 Y s 620 691 m -6 Y s 635 691 m -6 Y s 649 698 m -13 Y s
 215 698 m -13 Y s 200 691 m -6 Y s 186 691 m -6 Y s 171 691 m -6 Y s 157 691 m -6 Y s 649 698 m -13 Y s 663 691 m -6 Y s 678 691 m -6 Y s
 gsave  710 567 23 603 C 213.131 656.444 t 0 r /Helvetica findfont 25.6631 sf 0 0 m (1) show NC gr 
 gsave  710 567 23 603 C 198.923 656.444 t 0 r /Symbol findfont 25.6631 sf 0 0 m (-) show NC gr 
 gsave  710 567 23 603 C 278.492 656.444 t 0 r /Helvetica findfont 25.6631 sf 0 0 m (0) show NC gr 
 gsave  710 567 23 603 C 352.377 656.444 t 0 r /Helvetica findfont 25.6631 sf 0 0 m (1) show NC gr 
 gsave  710 567 23 603 C 420.579 656.444 t 0 r /Helvetica findfont 25.6631 sf 0 0 m (2) show NC gr 
 gsave  710 567 23 603 C 494.465 656.444 t 0 r /Helvetica findfont 25.6631 sf 0 0 m (3) show NC gr 
 gsave  710 567 23 603 C 565.508 656.444 t 0 r /Helvetica findfont 25.6631 sf 0 0 m (4) show NC gr 
 gsave  710 567 23 603 C 639.394 656.444 t 0 r /Helvetica findfont 25.6631 sf 0 0 m (5) show NC gr 
 gsave  710 567 23 603 C 551.299 616.66 t 0 r /Helvetica findfont 28.5146 sf 0 0 m (yybb.H1_l2) show NC gr  143 1114 m 548 X s 215 1100 m 14 Y s 229 1107 m 7 Y s 244 1107 m 7 Y s 258 1107 m 7 Y s 273 1107 m 7 Y s 287 1100 m 14 Y s 302 1107 m 7 Y s
 316 1107 m 7 Y s 331 1107 m 7 Y s 345 1107 m 7 Y s 360 1100 m 14 Y s 374 1107 m 7 Y s 389 1107 m 7 Y s 403 1107 m 7 Y s 417 1107 m 7 Y s 432 1100 m 14 Y s 446 1107 m 7 Y s 461 1107 m 7 Y s 475 1107 m 7 Y s 490 1107 m 7 Y s 504 1100 m 14 Y s 519 1107
 m 7 Y s 533 1107 m 7 Y s 548 1107 m 7 Y s 562 1107 m 7 Y s 577 1100 m 14 Y s 591 1107 m 7 Y s 606 1107 m 7 Y s 620 1107 m 7 Y s 635 1107 m 7 Y s 649 1100 m 14 Y s 215 1100 m 14 Y s 200 1107 m 7 Y s 186 1107 m 7 Y s 171 1107 m 7 Y s 157 1107 m 7 Y s
 649 1100 m 14 Y s 663 1107 m 7 Y s 678 1107 m 7 Y s 143 685 m 429 Y s 160 685 m -17 X s 152 702 m -9 X s 152 719 m -9 X s 152 736 m -9 X s 152 753 m -9 X s 160 770 m -17 X s 152 787 m -9 X s 152 804 m -9 X s 152 821 m -9 X s 152 838 m -9 X s 160 854
 m -17 X s 152 871 m -9 X s 152 888 m -9 X s 152 905 m -9 X s 152 922 m -9 X s 160 939 m -17 X s 152 956 m -9 X s 152 973 m -9 X s 152 990 m -9 X s 152 1007 m -9 X s 160 1024 m -17 X s 152 1041 m -9 X s 152 1058 m -9 X s 152 1075 m -9 X s 152 1092 m
 -9 X s 160 1109 m -17 X s 160 1109 m -17 X s
 gsave  710 567 23 603 C 119.354 673.495 t 0 r /Helvetica findfont 25.6631 sf 0 0 m (0) show NC gr 
 gsave  710 567 23 603 C 102.303 758.747 t 0 r /Helvetica findfont 25.6631 sf 0 0 m (0.1) show NC gr 
 gsave  710 567 23 603 C 99.4613 844 t 0 r /Helvetica findfont 25.6631 sf 0 0 m (0.2) show NC gr 
 gsave  710 567 23 603 C 99.4613 929.252 t 0 r /Helvetica findfont 25.6631 sf 0 0 m (0.3) show NC gr 
 gsave  710 567 23 603 C 99.4613 1014.5 t 0 r /Helvetica findfont 25.6631 sf 0 0 m (0.4) show NC gr 
 gsave  710 567 23 603 C 99.4613 1099.76 t 0 r /Helvetica findfont 25.6631 sf 0 0 m (0.5) show NC gr 
 gsave  710 567 23 603 C 45.468 1037.24 t 90 r /Helvetica findfont 28.5146 sf 0 0 m (0.189 ) show NC gr 
 gsave  710 567 23 603 C 31.2593 1034.4 t 90 r /Helvetica findfont 19.9602 sf 0 0 m ( ) show NC gr 
 gsave  710 567 23 603 C 45.468 1023.03 t 90 r /Helvetica findfont 28.5146 sf 0 0 m (/) show NC gr 
 gsave  710 567 23 603 C 53.9933 1020.19 t 90 r /Helvetica findfont 19.9602 sf 0 0 m ( ) show NC gr 
 gsave  710 567 23 603 C 45.468 915.044 t 90 r /Helvetica findfont 28.5146 sf 0 0 m (\(1/N\) dN) show NC gr  691 685 m 429 Y s 674 685 m 17 X s 683 702 m 8 X s 683 719 m 8 X s 683 736 m 8 X s 683 753 m 8 X s 674 770 m 17 X s 683 787 m 8 X s 683 804 m
 8 X s 683 821 m 8 X s 683 838 m 8 X s 674 854 m 17 X s 683 871 m 8 X s 683 888 m 8 X s 683 905 m 8 X s 683 922 m 8 X s 674 939 m 17 X s 683 956 m 8 X s 683 973 m 8 X s 683 990 m 8 X s 683 1007 m 8 X s 674 1024 m 17 X s 683 1041 m 8 X s 683 1058 m 8
 X s 683 1075 m 8 X s 683 1092 m 8 X s 674 1109 m 17 X s 674 1109 m 17 X s 0.490196 0.545098 0.615686 c 0.364706 0.419608 0.490196 c 366 38 30 1130 bf 0.490196 0.545098 0.615686 c 30 1130 m 366 X s 396 1130 m 38 Y s 396 1168 m -366 X s 30 1168 m -38
 Y s 1 1 1 c black 1 1 1 c
 gsave  710 567 23 603 C 34.101 1142.38 t 0 r /Helvetica-Bold findfont 28.5146 sf 0 0 m (Input variable: yybb.H1_l2) show NC gr  1 0 0 c 6 lw black 3 lw 1 0 0 c 677 685 m s 663 686 m -1 -1 d s 650 688 m -4 -3 d s 633 687 m -2 -2 d s 622 691 m -6 -6 d
 s 614 698 m -13 -13 d s 596 695 m -10 -10 d s 586 699 m -15 -14 d s 571 700 m -15 -15 d s 567 711 m -26 -26 d s 542 701 m -16 -16 d s 538 712 m -27 -27 d s 517 706 m -21 -21 d s 504 708 m -23 -23 d s 499 718 m -33 -33 d s 488 723 m -38 -38 d s 476
 725 m -41 -40 d s 460 724 m -40 -39 d s 450 730 m -45 -45 d s 444 739 m -54 -54 d s 433 743 m -58 -58 d s 428 753 m -68 -68 d s 417 757 m -72 -72 d s 417 772 m -87 -87 d s 403 774 m -88 -89 d s 392 778 m -92 -93 d s 390 790 m -105 -105 d s 390 806 m
 -120 -121 d s 383 814 m -128 -129 d s 376 822 m -137 -137 d s 363 825 m -139 -140 d s 362 839 m -153 -154 d s 362 854 m -168 -169 d s 353 860 m -174 -175 d s 349 871 m -185 -186 d s 349 886 m -200 -201 d s 348 900 m -191 -192 d s 335 902 m -178 -179
 d s 335 917 m -164 -165 d s 168 749 m -11 -11 d s 322 920 m -151 -153 d s 321 934 m -150 -152 d s 321 949 m -123 -124 d s 187 814 m -2 -3 d s 321 964 m -123 -124 d s 314 972 m -102 -103 d s 204 861 m -6 -5 d s 308 981 m -96 -96 d s 305 994 m -79 -80
 d s 220 908 m -8 -8 d s 294 998 m -55 -56 d s 239 942 m -13 -13 d s 294 1013 m -41 -42 d s 294 1028 m -41 -41 d s 290 1039 m -37 -37 d s 280 1045 m -27 -28 d s 268 1048 m -15 -16 d s 267 1061 m -14 -14 d s 265 1075 m -12 -12 d s 6 lw 143 694 m 14 X
 55 Y 14 X 48 Y 14 X 17 Y 13 X 47 Y 14 X 47 Y 14 X 34 Y 13 X 15 Y 14 X 118 Y 14 X -27 Y 13 X -9 Y 14 X -45 Y 14 X -22 Y 13 X -52 Y 14 X -20 Y 14 X -40 Y 13 X -35 Y 14 X -11 Y 14 X -36 Y 13 X -4 Y 14 X -21 Y 14 X -10 Y 13 X -13 Y 14 X -6 Y 14 X 1 Y 13
 X -2 Y 14 X -15 Y 14 X -2 Y 13 X 6 Y 14 X -11 Y 14 X 10 Y 13 X -11 Y 14 X -1 Y 14 X -4 Y 14 X 3 Y 13 X -11 Y 14 X 1 Y 14 X -2 Y 13 X -1 Y 28 X s black 3 lw 143 685 m 548 X s 215 698 m -13 Y s 229 691 m -6 Y s 244 691 m -6 Y s 258 691 m -6 Y s 273
 691 m -6 Y s 287 698 m -13 Y s 302 691 m -6 Y s 316 691 m -6 Y s 331 691 m -6 Y s 345 691 m -6 Y s 360 698 m -13 Y s 374 691 m -6 Y s 389 691 m -6 Y s 403 691 m -6 Y s 417 691 m -6 Y s 432 698 m -13 Y s 446 691 m -6 Y s 461 691 m -6 Y s 475 691 m -6
 Y s 490 691 m -6 Y s 504 698 m -13 Y s 519 691 m -6 Y s 533 691 m -6 Y s 548 691 m -6 Y s 562 691 m -6 Y s 577 698 m -13 Y s 591 691 m -6 Y s 606 691 m -6 Y s 620 691 m -6 Y s 635 691 m -6 Y s 649 698 m -13 Y s 215 698 m -13 Y s 200 691 m -6 Y s 186
 691 m -6 Y s 171 691 m -6 Y s 157 691 m -6 Y s 649 698 m -13 Y s 663 691 m -6 Y s 678 691 m -6 Y s 143 1114 m 548 X s 215 1100 m 14 Y s 229 1107 m 7 Y s 244 1107 m 7 Y s 258 1107 m 7 Y s 273 1107 m 7 Y s 287 1100 m 14 Y s 302 1107 m 7 Y s 316 1107 m
 7 Y s 331 1107 m 7 Y s 345 1107 m 7 Y s 360 1100 m 14 Y s 374 1107 m 7 Y s 389 1107 m 7 Y s 403 1107 m 7 Y s 417 1107 m 7 Y s 432 1100 m 14 Y s 446 1107 m 7 Y s 461 1107 m 7 Y s 475 1107 m 7 Y s 490 1107 m 7 Y s 504 1100 m 14 Y s 519 1107 m 7 Y s
 533 1107 m 7 Y s 548 1107 m 7 Y s 562 1107 m 7 Y s 577 1100 m 14 Y s 591 1107 m 7 Y s 606 1107 m 7 Y s 620 1107 m 7 Y s 635 1107 m 7 Y s 649 1100 m 14 Y s 215 1100 m 14 Y s 200 1107 m 7 Y s 186 1107 m 7 Y s 171 1107 m 7 Y s 157 1107 m 7 Y s 649 1100
 m 14 Y s 663 1107 m 7 Y s 678 1107 m 7 Y s 143 685 m 429 Y s 160 685 m -17 X s 152 702 m -9 X s 152 719 m -9 X s 152 736 m -9 X s 152 753 m -9 X s 160 770 m -17 X s 152 787 m -9 X s 152 804 m -9 X s 152 821 m -9 X s 152 838 m -9 X s 160 854 m -17 X
 s 152 871 m -9 X s 152 888 m -9 X s 152 905 m -9 X s 152 922 m -9 X s 160 939 m -17 X s 152 956 m -9 X s 152 973 m -9 X s 152 990 m -9 X s 152 1007 m -9 X s 160 1024 m -17 X s 152 1041 m -9 X s 152 1058 m -9 X s 152 1075 m -9 X s 152 1092 m -9 X s
 160 1109 m -17 X s 160 1109 m -17 X s 691 685 m 429 Y s 674 685 m 17 X s 683 702 m 8 X s 683 719 m 8 X s 683 736 m 8 X s 683 753 m 8 X s 674 770 m 17 X s 683 787 m 8 X s 683 804 m 8 X s 683 821 m 8 X s 683 838 m 8 X s 674 854 m 17 X s 683 871 m 8 X
 s 683 888 m 8 X s 683 905 m 8 X s 683 922 m 8 X s 674 939 m 17 X s 683 956 m 8 X s 683 973 m 8 X s 683 990 m 8 X s 683 1007 m 8 X s 674 1024 m 17 X s 683 1041 m 8 X s 683 1058 m 8 X s 683 1075 m 8 X s 683 1092 m 8 X s 674 1109 m 17 X s 674 1109 m 17
 X s
 gsave  710 567 23 603 C 719.017 682.347 t 90 r /Helvetica-Bold findfont 19.9602 sf 0 0 m (U/O\255flow \(S,B\): \(0.0, 0.0\)% / \(0.0, 0.0\)%) show NC gr  0.490196 0.545098 0.615686 c 0.364706 0.419608 0.490196 c 366 38 30 1130 bf 0.490196 0.545098
 0.615686 c 30 1130 m 366 X s 396 1130 m 38 Y s 396 1168 m -366 X s 30 1168 m -38 Y s 1 1 1 c black 1 1 1 c
 gsave  710 567 23 603 C 34.101 1142.38 t 0 r /Helvetica-Bold findfont 28.5146 sf 0 0 m (Input variable: yybb.H1_l2) show NC gr  0.490196 0.545098 0.615686 c 0.941176 0.941176 0.941176 c 710 567 779 603 bf black 1 1 0.992157 c 548 429 899 685 bf
 black 548 429 899 685 bl 0 0 0.933333 c 6 lw 0.49 0.6 0.82 c black 3 lw 0.49 0.6 0.82 c 899 706 m 28 X 1 Y 27 X 5 Y 14 X 6 Y 13 X 17 Y 14 X 25 Y 14 X 73 Y 13 X 36 Y 14 X 67 Y 14 X 47 Y 14 X 18 Y 13 X 73 Y 14 X 3 Y 14 X -20 Y 13 X -40 Y 14 X -2 Y 14
 X -49 Y 13 X -33 Y 14 X -69 Y 14 X -21 Y 13 X -40 Y 14 X -26 Y 14 X -13 Y 13 X -22 Y 14 X -7 Y 14 X -14 Y 13 X 1 Y 14 X -10 Y 14 X -2 Y 13 X -5 Y 14 X 3 Y 14 X -1 Y 13 X -2 Y 14 X 1 Y 69 X f 6 lw 0 0 0.933333 c 0.49 0.6 0.82 c 0 0 0.933333 c 899 706
 m 28 X 1 Y 27 X 5 Y 14 X 6 Y 13 X 17 Y 14 X 25 Y 14 X 73 Y 13 X 36 Y 14 X 67 Y 14 X 47 Y 14 X 18 Y 13 X 73 Y 14 X 3 Y 14 X -20 Y 13 X -40 Y 14 X -2 Y 14 X -49 Y 13 X -33 Y 14 X -69 Y 14 X -21 Y 13 X -40 Y 14 X -26 Y 14 X -13 Y 13 X -22 Y 14 X -7 Y
 14 X -14 Y 13 X 1 Y 14 X -10 Y 14 X -2 Y 13 X -5 Y 14 X 3 Y 14 X -1 Y 13 X -2 Y 14 X 1 Y 69 X s black 3 lw 899 685 m 548 X s 920 698 m -13 Y s 941 691 m -6 Y s 962 691 m -6 Y s 982 691 m -6 Y s 1003 691 m -6 Y s 1024 698 m -13 Y s 1045 691 m -6 Y s
 1066 691 m -6 Y s 1087 691 m -6 Y s 1107 691 m -6 Y s 1128 698 m -13 Y s 1149 691 m -6 Y s 1170 691 m -6 Y s 1191 691 m -6 Y s 1211 691 m -6 Y s 1232 698 m -13 Y s 1253 691 m -6 Y s 1274 691 m -6 Y s 1295 691 m -6 Y s 1315 691 m -6 Y s 1336 698 m
 -13 Y s 1357 691 m -6 Y s 1378 691 m -6 Y s 1399 691 m -6 Y s 1420 691 m -6 Y s 1440 698 m -13 Y s 920 698 m -13 Y s 1440 698 m -13 Y s
 gsave  710 567 779 603 C 906.518 656.444 t 0 r /Helvetica findfont 25.6631 sf 0 0 m (0.2) show NC gr 
 gsave  710 567 779 603 C 892.31 656.444 t 0 r /Symbol findfont 25.6631 sf 0 0 m (-) show NC gr 
 gsave  710 567 779 603 C 1011.66 656.444 t 0 r /Helvetica findfont 25.6631 sf 0 0 m (0.1) show NC gr 
 gsave  710 567 779 603 C 1000.3 656.444 t 0 r /Symbol findfont 25.6631 sf 0 0 m (-) show NC gr 
 gsave  710 567 779 603 C 1116.81 656.444 t 0 r /Helvetica findfont 25.6631 sf 0 0 m (0) show NC gr 
 gsave  710 567 779 603 C 1213.43 656.444 t 0 r /Helvetica findfont 25.6631 sf 0 0 m (0.1) show NC gr 
 gsave  710 567 779 603 C 1318.57 656.444 t 0 r /Helvetica findfont 25.6631 sf 0 0 m (0.2) show NC gr 
 gsave  710 567 779 603 C 1420.88 656.444 t 0 r /Helvetica findfont 25.6631 sf 0 0 m (0.3) show NC gr 
 gsave  710 567 779 603 C 1304.36 616.66 t 0 r /Helvetica findfont 28.5146 sf 0 0 m (yybb.HP_l3) show NC gr  899 1114 m 548 X s 920 1100 m 14 Y s 941 1107 m 7 Y s 962 1107 m 7 Y s 982 1107 m 7 Y s 1003 1107 m 7 Y s 1024 1100 m 14 Y s 1045 1107 m 7 Y
 s 1066 1107 m 7 Y s 1087 1107 m 7 Y s 1107 1107 m 7 Y s 1128 1100 m 14 Y s 1149 1107 m 7 Y s 1170 1107 m 7 Y s 1191 1107 m 7 Y s 1211 1107 m 7 Y s 1232 1100 m 14 Y s 1253 1107 m 7 Y s 1274 1107 m 7 Y s 1295 1107 m 7 Y s 1315 1107 m 7 Y s 1336 1100 m
 14 Y s 1357 1107 m 7 Y s 1378 1107 m 7 Y s 1399 1107 m 7 Y s 1420 1107 m 7 Y s 1440 1100 m 14 Y s 920 1100 m 14 Y s 1440 1100 m 14 Y s 899 685 m 429 Y s 915 706 m -16 X s 907 716 m -8 X s 907 727 m -8 X s 907 738 m -8 X s 907 748 m -8 X s 915 759 m
 -16 X s 907 769 m -8 X s 907 780 m -8 X s 907 790 m -8 X s 907 801 m -8 X s 915 812 m -16 X s 907 822 m -8 X s 907 833 m -8 X s 907 843 m -8 X s 907 854 m -8 X s 915 864 m -16 X s 907 875 m -8 X s 907 886 m -8 X s 907 896 m -8 X s 907 907 m -8 X s
 915 917 m -16 X s 907 928 m -8 X s 907 939 m -8 X s 907 949 m -8 X s 907 960 m -8 X s 915 970 m -16 X s 907 981 m -8 X s 907 991 m -8 X s 907 1002 m -8 X s 907 1013 m -8 X s 915 1023 m -16 X s 907 1034 m -8 X s 907 1044 m -8 X s 907 1055 m -8 X s
 907 1065 m -8 X s 915 1076 m -16 X s 915 706 m -16 X s 907 695 m -8 X s 915 1076 m -16 X s 907 1087 m -8 X s 907 1097 m -8 X s 907 1108 m -8 X s
 gsave  710 567 779 603 C 875.259 696.229 t 0 r /Helvetica findfont 25.6631 sf 0 0 m (0) show NC gr 
 gsave  710 567 779 603 C 878.101 747.38 t 0 r /Helvetica findfont 25.6631 sf 0 0 m (1) show NC gr 
 gsave  710 567 779 603 C 875.259 801.374 t 0 r /Helvetica findfont 25.6631 sf 0 0 m (2) show NC gr 
 gsave  710 567 779 603 C 875.259 855.367 t 0 r /Helvetica findfont 25.6631 sf 0 0 m (3) show NC gr 
 gsave  710 567 779 603 C 875.259 906.518 t 0 r /Helvetica findfont 25.6631 sf 0 0 m (4) show NC gr 
 gsave  710 567 779 603 C 875.259 960.512 t 0 r /Helvetica findfont 25.6631 sf 0 0 m (5) show NC gr 
 gsave  710 567 779 603 C 875.259 1014.5 t 0 r /Helvetica findfont 25.6631 sf 0 0 m (6) show NC gr 
 gsave  710 567 779 603 C 875.259 1065.66 t 0 r /Helvetica findfont 25.6631 sf 0 0 m (7) show NC gr 
 gsave  710 567 779 603 C 801.374 1025.87 t 90 r /Helvetica findfont 28.5146 sf 0 0 m (0.0131 ) show NC gr 
 gsave  710 567 779 603 C 787.165 1023.03 t 90 r /Helvetica findfont 19.9602 sf 0 0 m ( ) show NC gr 
 gsave  710 567 779 603 C 801.374 1011.66 t 90 r /Helvetica findfont 28.5146 sf 0 0 m (/) show NC gr 
 gsave  710 567 779 603 C 809.899 1008.82 t 90 r /Helvetica findfont 19.9602 sf 0 0 m ( ) show NC gr 
 gsave  710 567 779 603 C 801.374 903.677 t 90 r /Helvetica findfont 28.5146 sf 0 0 m (\(1/N\) dN) show NC gr  1447 685 m 429 Y s 1430 706 m 17 X s 1438 716 m 9 X s 1438 727 m 9 X s 1438 738 m 9 X s 1438 748 m 9 X s 1430 759 m 17 X s 1438 769 m 9 X s
 1438 780 m 9 X s 1438 790 m 9 X s 1438 801 m 9 X s 1430 812 m 17 X s 1438 822 m 9 X s 1438 833 m 9 X s 1438 843 m 9 X s 1438 854 m 9 X s 1430 864 m 17 X s 1438 875 m 9 X s 1438 886 m 9 X s 1438 896 m 9 X s 1438 907 m 9 X s 1430 917 m 17 X s 1438 928
 m 9 X s 1438 939 m 9 X s 1438 949 m 9 X s 1438 960 m 9 X s 1430 970 m 17 X s 1438 981 m 9 X s 1438 991 m 9 X s 1438 1002 m 9 X s 1438 1013 m 9 X s 1430 1023 m 17 X s 1438 1034 m 9 X s 1438 1044 m 9 X s 1438 1055 m 9 X s 1438 1065 m 9 X s 1430 1076 m
 17 X s 1430 706 m 17 X s 1438 695 m 9 X s 1430 1076 m 17 X s 1438 1087 m 9 X s 1438 1097 m 9 X s 1438 1108 m 9 X s 0.490196 0.545098 0.615686 c 0.364706 0.419608 0.490196 c 369 38 786 1130 bf 0.490196 0.545098 0.615686 c 786 1130 m 369 X s 1155 1130
 m 38 Y s 1155 1168 m -369 X s 786 1168 m -38 Y s 1 1 1 c black 1 1 1 c
 gsave  710 567 779 603 C 790.007 1142.38 t 0 r /Helvetica-Bold findfont 28.5146 sf 0 0 m (Input variable: yybb.HP_l3) show NC gr  1 0 0 c 6 lw black 3 lw 1 0 0 c 1438 706 m s 1423 706 m s 1408 706 m s 1393 706 m s 1378 706 m s 1363 706 m s 1351 709
 m -3 -3 d s 1338 711 m -5 -5 d s 1326 714 m -8 -8 d s 1321 725 m -18 -19 d s 1300 718 m -12 -12 d s 1296 729 m -23 -23 d s 1293 741 m -35 -35 d s 1282 746 m -40 -40 d s 1269 747 m -42 -41 d s 1269 763 m -57 -57 d s 1265 774 m -68 -68 d s 1255 779 m
 -73 -73 d s 1246 785 m -79 -79 d s 1241 796 m -89 -90 d s 1241 811 m -104 -105 d s 1229 814 m -107 -108 d s 1228 827 m -121 -121 d s 1227 842 m -135 -136 d s 1214 844 m -137 -138 d s 1214 859 m -152 -153 d s 1214 874 m -168 -168 d s 1201 877 m -170
 -171 d s 1187 877 m -171 -171 d s 1187 892 m -186 -186 d s 1187 908 m -201 -202 d s 1187 923 m -178 -179 d s 1003 737 m -8 -7 d s 983 718 m -2 -2 d s 975 709 m -4 -3 d s 1180 931 m -171 -172 d s 957 706 m -1 X s 1167 933 m -145 -145 d s 1017 783 m
 -8 -9 d s 942 707 m -1 -1 d s 1159 941 m -123 -124 d s 1028 809 m -6 -6 d s 926 706 m s 1159 956 m -123 -124 d s 911 706 m s 1146 957 m -110 -110 d s 1146 973 m -110 -111 d s 1146 988 m -96 -97 d s 1047 888 m -11 -10 d s 1139 997 m -89 -91 d s 1132
 1004 m -68 -69 d s 1052 924 m -2 -2 d s 1132 1020 m -68 -69 d s 1121 1024 m -57 -58 d s 1107 1025 m -2 -3 d s 1100 1018 m -23 -23 d s 1068 985 m -4 -4 d s 1088 1021 m -11 -11 d s 6 lw 899 706 m 41 X 1 Y 14 X -1 Y 14 X 3 Y 13 X 9 Y 14 X 19 Y 14 X 46
 Y 13 X 26 Y 14 X 79 Y 14 X 36 Y 14 X 61 Y 13 X 36 Y 14 X -3 Y 14 X 7 Y 13 X -1 Y 14 X -27 Y 14 X -40 Y 13 X -24 Y 14 X -2 Y 14 X -54 Y 27 X -35 Y 14 X -28 Y 13 X -29 Y 14 X -11 Y 14 X -28 Y 13 X -5 Y 14 X -23 Y 14 X 7 Y 13 X -11 Y 14 X -3 Y 14 X -5
 Y 96 X s black 3 lw 899 685 m 548 X s 920 698 m -13 Y s 941 691 m -6 Y s 962 691 m -6 Y s 982 691 m -6 Y s 1003 691 m -6 Y s 1024 698 m -13 Y s 1045 691 m -6 Y s 1066 691 m -6 Y s 1087 691 m -6 Y s 1107 691 m -6 Y s 1128 698 m -13 Y s 1149 691 m -6
 Y s 1170 691 m -6 Y s 1191 691 m -6 Y s 1211 691 m -6 Y s 1232 698 m -13 Y s 1253 691 m -6 Y s 1274 691 m -6 Y s 1295 691 m -6 Y s 1315 691 m -6 Y s 1336 698 m -13 Y s 1357 691 m -6 Y s 1378 691 m -6 Y s 1399 691 m -6 Y s 1420 691 m -6 Y s 1440 698
 m -13 Y s 920 698 m -13 Y s 1440 698 m -13 Y s 899 1114 m 548 X s 920 1100 m 14 Y s 941 1107 m 7 Y s 962 1107 m 7 Y s 982 1107 m 7 Y s 1003 1107 m 7 Y s 1024 1100 m 14 Y s 1045 1107 m 7 Y s 1066 1107 m 7 Y s 1087 1107 m 7 Y s 1107 1107 m 7 Y s 1128
 1100 m 14 Y s 1149 1107 m 7 Y s 1170 1107 m 7 Y s 1191 1107 m 7 Y s 1211 1107 m 7 Y s 1232 1100 m 14 Y s 1253 1107 m 7 Y s 1274 1107 m 7 Y s 1295 1107 m 7 Y s 1315 1107 m 7 Y s 1336 1100 m 14 Y s 1357 1107 m 7 Y s 1378 1107 m 7 Y s 1399 1107 m 7 Y s
 1420 1107 m 7 Y s 1440 1100 m 14 Y s 920 1100 m 14 Y s 1440 1100 m 14 Y s 899 685 m 429 Y s 915 706 m -16 X s 907 716 m -8 X s 907 727 m -8 X s 907 738 m -8 X s 907 748 m -8 X s 915 759 m -16 X s 907 769 m -8 X s 907 780 m -8 X s 907 790 m -8 X s
 907 801 m -8 X s 915 812 m -16 X s 907 822 m -8 X s 907 833 m -8 X s 907 843 m -8 X s 907 854 m -8 X s 915 864 m -16 X s 907 875 m -8 X s 907 886 m -8 X s 907 896 m -8 X s 907 907 m -8 X s 915 917 m -16 X s 907 928 m -8 X s 907 939 m -8 X s 907 949
 m -8 X s 907 960 m -8 X s 915 970 m -16 X s 907 981 m -8 X s 907 991 m -8 X s 907 1002 m -8 X s 907 1013 m -8 X s 915 1023 m -16 X s 907 1034 m -8 X s 907 1044 m -8 X s 907 1055 m -8 X s 907 1065 m -8 X s 915 1076 m -16 X s 915 706 m -16 X s 907 695
 m -8 X s 915 1076 m -16 X s 907 1087 m -8 X s 907 1097 m -8 X s 907 1108 m -8 X s 1447 685 m 429 Y s 1430 706 m 17 X s 1438 716 m 9 X s 1438 727 m 9 X s 1438 738 m 9 X s 1438 748 m 9 X s 1430 759 m 17 X s 1438 769 m 9 X s 1438 780 m 9 X s 1438 790 m
 9 X s 1438 801 m 9 X s 1430 812 m 17 X s 1438 822 m 9 X s 1438 833 m 9 X s 1438 843 m 9 X s 1438 854 m 9 X s 1430 864 m 17 X s 1438 875 m 9 X s 1438 886 m 9 X s 1438 896 m 9 X s 1438 907 m 9 X s 1430 917 m 17 X s 1438 928 m 9 X s 1438 939 m 9 X s
 1438 949 m 9 X s 1438 960 m 9 X s 1430 970 m 17 X s 1438 981 m 9 X s 1438 991 m 9 X s 1438 1002 m 9 X s 1438 1013 m 9 X s 1430 1023 m 17 X s 1438 1034 m 9 X s 1438 1044 m 9 X s 1438 1055 m 9 X s 1438 1065 m 9 X s 1430 1076 m 17 X s 1430 706 m 17 X s
 1438 695 m 9 X s 1430 1076 m 17 X s 1438 1087 m 9 X s 1438 1097 m 9 X s 1438 1108 m 9 X s
 gsave  710 567 779 603 C 1474.92 682.347 t 90 r /Helvetica-Bold findfont 19.9602 sf 0 0 m (U/O\255flow \(S,B\): \(0.0, 0.0\)% / \(0.0, 0.0\)%) show NC gr  0.490196 0.545098 0.615686 c 0.364706 0.419608 0.490196 c 369 38 786 1130 bf 0.490196 0.545098
 0.615686 c 786 1130 m 369 X s 1155 1130 m 38 Y s 1155 1168 m -369 X s 786 1168 m -38 Y s 1 1 1 c black 1 1 1 c
 gsave  710 567 779 603 C 790.007 1142.38 t 0 r /Helvetica-Bold findfont 28.5146 sf 0 0 m (Input variable: yybb.HP_l3) show NC gr  0.490196 0.545098 0.615686 c 0.941176 0.941176 0.941176 c 711 567 1534 603 bf black 1 1 0.992157 c 547 429 1655 685 bf
 black 547 429 1655 685 bl 0 0 0.933333 c 6 lw 0.49 0.6 0.82 c black 3 lw 0.49 0.6 0.82 c 1655 705 m 14 X 2 Y 14 X 4 Y 13 X 16 Y 14 X 24 Y 14 X 57 Y 13 X 38 Y 14 X 43 Y 14 X 22 Y 13 X 7 Y 14 X 51 Y 14 X 13 Y 13 X 16 Y 14 X -16 Y 14 X -10 Y 13 X 22 Y
 14 X -2 Y 14 X -7 Y 13 X 4 Y 14 X -26 Y 28 X -37 Y 13 X 2 Y 14 X -51 Y 14 X -21 Y 13 X 23 Y 14 X -14 Y 14 X 3 Y 13 X -44 Y 14 X -39 Y 14 X 11 Y 13 X -32 Y 14 X -27 Y 14 X -14 Y 13 X -11 Y 14 X -3 Y 14 X -2 Y 13 X -1 Y 14 X -1 Y 27 X f 6 lw 0 0
 0.933333 c 0.49 0.6 0.82 c 0 0 0.933333 c 1655 705 m 14 X 2 Y 14 X 4 Y 13 X 16 Y 14 X 24 Y 14 X 57 Y 13 X 38 Y 14 X 43 Y 14 X 22 Y 13 X 7 Y 14 X 51 Y 14 X 13 Y 13 X 16 Y 14 X -16 Y 14 X -10 Y 13 X 22 Y 14 X -2 Y 14 X -7 Y 13 X 4 Y 14 X -26 Y 28 X
 -37 Y 13 X 2 Y 14 X -51 Y 14 X -21 Y 13 X 23 Y 14 X -14 Y 14 X 3 Y 13 X -44 Y 14 X -39 Y 14 X 11 Y 13 X -32 Y 14 X -27 Y 14 X -14 Y 13 X -11 Y 14 X -3 Y 14 X -2 Y 13 X -1 Y 14 X -1 Y 27 X s black 3 lw 1655 685 m 547 X s 1674 698 m -13 Y s 1697 691 m
 -6 Y s 1721 691 m -6 Y s 1744 691 m -6 Y s 1767 698 m -13 Y s 1791 691 m -6 Y s 1814 691 m -6 Y s 1837 691 m -6 Y s 1861 698 m -13 Y s 1884 691 m -6 Y s 1907 691 m -6 Y s 1931 691 m -6 Y s 1954 698 m -13 Y s 1977 691 m -6 Y s 2001 691 m -6 Y s 2024
 691 m -6 Y s 2047 698 m -13 Y s 2071 691 m -6 Y s 2094 691 m -6 Y s 2117 691 m -6 Y s 2141 698 m -13 Y s 1674 698 m -13 Y s 2141 698 m -13 Y s 2164 691 m -6 Y s 2188 691 m -6 Y s
 gsave  711 567 1534 603 C 1662.42 656.444 t 0 r /Helvetica findfont 25.6631 sf 0 0 m (0.4) show NC gr 
 gsave  711 567 1534 603 C 1648.21 656.444 t 0 r /Symbol findfont 25.6631 sf 0 0 m (-) show NC gr 
 gsave  711 567 1534 603 C 1753.36 656.444 t 0 r /Helvetica findfont 25.6631 sf 0 0 m (0.2) show NC gr 
 gsave  711 567 1534 603 C 1739.15 656.444 t 0 r /Symbol findfont 25.6631 sf 0 0 m (-) show NC gr 
 gsave  711 567 1534 603 C 1849.98 656.444 t 0 r /Helvetica findfont 25.6631 sf 0 0 m (0) show NC gr 
 gsave  711 567 1534 603 C 1935.23 656.444 t 0 r /Helvetica findfont 25.6631 sf 0 0 m (0.2) show NC gr 
 gsave  711 567 1534 603 C 2029.01 656.444 t 0 r /Helvetica findfont 25.6631 sf 0 0 m (0.4) show NC gr 
 gsave  711 567 1534 603 C 2122.79 656.444 t 0 r /Helvetica findfont 25.6631 sf 0 0 m (0.6) show NC gr 
 gsave  711 567 1534 603 C 2063.11 616.66 t 0 r /Helvetica findfont 28.5146 sf 0 0 m (yybb.HY_l1) show NC gr  1655 1114 m 547 X s 1674 1100 m 14 Y s 1697 1107 m 7 Y s 1721 1107 m 7 Y s 1744 1107 m 7 Y s 1767 1100 m 14 Y s 1791 1107 m 7 Y s 1814 1107
 m 7 Y s 1837 1107 m 7 Y s 1861 1100 m 14 Y s 1884 1107 m 7 Y s 1907 1107 m 7 Y s 1931 1107 m 7 Y s 1954 1100 m 14 Y s 1977 1107 m 7 Y s 2001 1107 m 7 Y s 2024 1107 m 7 Y s 2047 1100 m 14 Y s 2071 1107 m 7 Y s 2094 1107 m 7 Y s 2117 1107 m 7 Y s 2141
 1100 m 14 Y s 1674 1100 m 14 Y s 2141 1100 m 14 Y s 2164 1107 m 7 Y s 2188 1107 m 7 Y s 1655 685 m 429 Y s 1671 705 m -16 X s 1663 722 m -8 X s 1663 738 m -8 X s 1663 755 m -8 X s 1663 771 m -8 X s 1671 788 m -16 X s 1663 804 m -8 X s 1663 821 m -8
 X s 1663 837 m -8 X s 1663 854 m -8 X s 1671 870 m -16 X s 1663 887 m -8 X s 1663 903 m -8 X s 1663 920 m -8 X s 1663 936 m -8 X s 1671 953 m -16 X s 1663 969 m -8 X s 1663 986 m -8 X s 1663 1002 m -8 X s 1663 1019 m -8 X s 1671 1035 m -16 X s 1671
 705 m -16 X s 1663 689 m -8 X s 1671 1035 m -16 X s 1663 1052 m -8 X s 1663 1068 m -8 X s 1663 1085 m -8 X s 1663 1101 m -8 X s
 gsave  711 567 1534 603 C 1631.16 696.229 t 0 r /Helvetica findfont 25.6631 sf 0 0 m (0) show NC gr 
 gsave  711 567 1534 603 C 1611.27 778.64 t 0 r /Helvetica findfont 25.6631 sf 0 0 m (0.5) show NC gr 
 gsave  711 567 1534 603 C 1634.01 861.05 t 0 r /Helvetica findfont 25.6631 sf 0 0 m (1) show NC gr 
 gsave  711 567 1534 603 C 1611.27 943.461 t 0 r /Helvetica findfont 25.6631 sf 0 0 m (1.5) show NC gr 
 gsave  711 567 1534 603 C 1631.16 1025.87 t 0 r /Helvetica findfont 25.6631 sf 0 0 m (2) show NC gr 
 gsave  711 567 1534 603 C 1557.28 1023.03 t 90 r /Helvetica findfont 28.5146 sf 0 0 m (0.0293 ) show NC gr 
 gsave  711 567 1534 603 C 1543.07 1020.19 t 90 r /Helvetica findfont 19.9602 sf 0 0 m ( ) show NC gr 
 gsave  711 567 1534 603 C 1557.28 1008.82 t 90 r /Helvetica findfont 28.5146 sf 0 0 m (/) show NC gr 
 gsave  711 567 1534 603 C 1565.8 1005.98 t 90 r /Helvetica findfont 19.9602 sf 0 0 m ( ) show NC gr 
 gsave  711 567 1534 603 C 1557.28 900.835 t 90 r /Helvetica findfont 28.5146 sf 0 0 m (\(1/N\) dN) show NC gr  2202 685 m 429 Y s 2186 705 m 16 X s 2194 722 m 8 X s 2194 738 m 8 X s 2194 755 m 8 X s 2194 771 m 8 X s 2186 788 m 16 X s 2194 804 m 8 X
 s 2194 821 m 8 X s 2194 837 m 8 X s 2194 854 m 8 X s 2186 870 m 16 X s 2194 887 m 8 X s 2194 903 m 8 X s 2194 920 m 8 X s 2194 936 m 8 X s 2186 953 m 16 X s 2194 969 m 8 X s 2194 986 m 8 X s 2194 1002 m 8 X s 2194 1019 m 8 X s 2186 1035 m 16 X s
 2186 705 m 16 X s 2194 689 m 8 X s 2186 1035 m 16 X s 2194 1052 m 8 X s 2194 1068 m 8 X s 2194 1085 m 8 X s 2194 1101 m 8 X s 0.490196 0.545098 0.615686 c 0.364706 0.419608 0.490196 c 366 38 1542 1130 bf 0.490196 0.545098 0.615686 c 1542 1130 m 366
 X s 1908 1130 m 38 Y s 1908 1168 m -366 X s 1542 1168 m -38 Y s 1 1 1 c black 1 1 1 c
 gsave  711 567 1534 603 C 1545.91 1142.38 t 0 r /Helvetica-Bold findfont 28.5146 sf 0 0 m (Input variable: yybb.HY_l1) show NC gr  1 0 0 c 6 lw black 3 lw 1 0 0 c 2194 705 m s 2179 705 m s 2164 706 m -1 -1 d s 2149 706 m -1 -1 d s 2135 707 m -2 -2 d
 s 2131 718 m -13 -13 d s 2118 720 m -15 -15 d s 2107 724 m -19 -19 d s 2107 739 m -34 -34 d s 2107 754 m -49 -49 d s 2093 756 m -50 -51 d s 2086 764 m -58 -59 d s 2079 772 m -66 -67 d s 2068 776 m -70 -71 d s 2066 789 m -83 -84 d s 2066 804 m -99
 -99 d s 2066 819 m -114 -114 d s 2064 833 m -127 -128 d s 2045 828 m -123 -123 d s 2038 837 m -131 -132 d s 2025 838 m -133 -133 d s 2020 849 m -143 -144 d s 2011 855 m -149 -150 d s 2008 867 m -161 -162 d s 1997 872 m -165 -167 d s 1997 887 m -180
 -182 d s 1995 899 m -193 -194 d s 1984 903 m -197 -198 d s 1984 919 m -212 -214 d s 1970 920 m -214 -215 d s 1970 935 m -229 -230 d s 1956 937 m -230 -232 d s 1956 952 m -245 -247 d s 1947 957 m -223 -224 d s 1719 728 m -9 -9 d s 1700 709 m -4 -4 d
 s 1943 968 m -206 -206 d s 1692 716 m -9 -9 d s 1681 705 m s 1943 984 m -178 -180 d s 1764 803 m -13 -12 d s 1748 788 m -11 -11 d s 1666 705 m s 1943 999 m -178 -179 d s 1935 1006 m -157 -157 d s 1772 843 m -7 -8 d s 1929 1015 m -151 -151 d s 1920
 1021 m -114 -115 d s 1796 897 m -4 -4 d s 1782 882 m -4 -3 d s 1913 1030 m -94 -95 d s 1812 928 m -6 -6 d s 1901 1033 m -82 -82 d s 1901 1048 m -41 -41 d s 1854 1001 m -7 -8 d s 1843 989 m -10 -9 d s 1826 973 m -7 -7 d s 1894 1056 m -34 -34 d s 1888
 1065 m -14 -14 d s 1868 1045 m -8 -7 d s 1884 1076 m -10 -10 d s 6 lw 1655 705 m 28 X 11 Y 13 X -7 Y 14 X 19 Y 14 X 19 Y 13 X 41 Y 14 X 15 Y 14 X 40 Y 13 X 39 Y 14 X 15 Y 14 X 31 Y 13 X 45 Y 14 X 16 Y 14 X 12 Y 13 X 44 Y 14 X 31 Y 14 X -20 Y 13 X
 -26 Y 14 X -9 Y 14 X -15 Y 14 X -49 Y 13 X -22 Y 14 X -15 Y 14 X -21 Y 13 X -32 Y 14 X -18 Y 14 X -12 Y 13 X -9 Y 14 X 5 Y 14 X -57 Y 13 X -12 Y 14 X -9 Y 14 X -35 Y 13 X -2 Y 14 X -11 Y 14 X -1 Y 27 X -1 Y 27 X s black 3 lw 1655 685 m 547 X s 1674
 698 m -13 Y s 1697 691 m -6 Y s 1721 691 m -6 Y s 1744 691 m -6 Y s 1767 698 m -13 Y s 1791 691 m -6 Y s 1814 691 m -6 Y s 1837 691 m -6 Y s 1861 698 m -13 Y s 1884 691 m -6 Y s 1907 691 m -6 Y s 1931 691 m -6 Y s 1954 698 m -13 Y s 1977 691 m -6 Y
 s 2001 691 m -6 Y s 2024 691 m -6 Y s 2047 698 m -13 Y s 2071 691 m -6 Y s 2094 691 m -6 Y s 2117 691 m -6 Y s 2141 698 m -13 Y s 1674 698 m -13 Y s 2141 698 m -13 Y s 2164 691 m -6 Y s 2188 691 m -6 Y s 1655 1114 m 547 X s 1674 1100 m 14 Y s 1697
 1107 m 7 Y s 1721 1107 m 7 Y s 1744 1107 m 7 Y s 1767 1100 m 14 Y s 1791 1107 m 7 Y s 1814 1107 m 7 Y s 1837 1107 m 7 Y s 1861 1100 m 14 Y s 1884 1107 m 7 Y s 1907 1107 m 7 Y s 1931 1107 m 7 Y s 1954 1100 m 14 Y s 1977 1107 m 7 Y s 2001 1107 m 7 Y s
 2024 1107 m 7 Y s 2047 1100 m 14 Y s 2071 1107 m 7 Y s 2094 1107 m 7 Y s 2117 1107 m 7 Y s 2141 1100 m 14 Y s 1674 1100 m 14 Y s 2141 1100 m 14 Y s 2164 1107 m 7 Y s 2188 1107 m 7 Y s 1655 685 m 429 Y s 1671 705 m -16 X s 1663 722 m -8 X s 1663 738
 m -8 X s 1663 755 m -8 X s 1663 771 m -8 X s 1671 788 m -16 X s 1663 804 m -8 X s 1663 821 m -8 X s 1663 837 m -8 X s 1663 854 m -8 X s 1671 870 m -16 X s 1663 887 m -8 X s 1663 903 m -8 X s 1663 920 m -8 X s 1663 936 m -8 X s 1671 953 m -16 X s
 1663 969 m -8 X s 1663 986 m -8 X s 1663 1002 m -8 X s 1663 1019 m -8 X s 1671 1035 m -16 X s 1671 705 m -16 X s 1663 689 m -8 X s 1671 1035 m -16 X s 1663 1052 m -8 X s 1663 1068 m -8 X s 1663 1085 m -8 X s 1663 1101 m -8 X s 2202 685 m 429 Y s
 2186 705 m 16 X s 2194 722 m 8 X s 2194 738 m 8 X s 2194 755 m 8 X s 2194 771 m 8 X s 2186 788 m 16 X s 2194 804 m 8 X s 2194 821 m 8 X s 2194 837 m 8 X s 2194 854 m 8 X s 2186 870 m 16 X s 2194 887 m 8 X s 2194 903 m 8 X s 2194 920 m 8 X s 2194 936
 m 8 X s 2186 953 m 16 X s 2194 969 m 8 X s 2194 986 m 8 X s 2194 1002 m 8 X s 2194 1019 m 8 X s 2186 1035 m 16 X s 2186 705 m 16 X s 2194 689 m 8 X s 2186 1035 m 16 X s 2194 1052 m 8 X s 2194 1068 m 8 X s 2194 1085 m 8 X s 2194 1101 m 8 X s
 gsave  711 567 1534 603 C 2230.83 682.347 t 90 r /Helvetica-Bold findfont 19.9602 sf 0 0 m (U/O\255flow \(S,B\): \(0.0, 0.0\)% / \(0.0, 0.0\)%) show NC gr  0.490196 0.545098 0.615686 c 0.364706 0.419608 0.490196 c 366 38 1542 1130 bf 0.490196
 0.545098 0.615686 c 1542 1130 m 366 X s 1908 1130 m 38 Y s 1908 1168 m -366 X s 1542 1168 m -38 Y s 1 1 1 c black 1 1 1 c
 gsave  711 567 1534 603 C 1545.91 1142.38 t 0 r /Helvetica-Bold findfont 28.5146 sf 0 0 m (Input variable: yybb.HY_l1) show NC gr  0.490196 0.545098 0.615686 c 0.941176 0.941176 0.941176 c 710 567 23 12 bf black 1 1 0.992157 c 548 429 143 94 bf
 black 548 429 143 94 bl 0 0 0.933333 c 6 lw 0.49 0.6 0.82 c black 3 lw 0.49 0.6 0.82 c 143 94 m 90 Y 14 X -14 Y 28 X -12 Y 13 X -12 Y 14 X 2 Y 14 X 15 Y 13 X -23 Y 14 X -8 Y 14 X 15 Y 13 X 194 Y 14 X 129 Y 14 X -139 Y 13 X -49 Y 14 X 6 Y 14 X 2 Y 13
 X -19 Y 14 X -25 Y 14 X 7 Y 13 X -3 Y 14 X -5 Y 14 X 22 Y 13 X -11 Y 14 X 20 Y 14 X 19 Y 13 X 9 Y 14 X 25 Y 14 X 155 Y 13 X -82 Y 14 X -299 Y 14 X -4 Y 27 X -5 Y 14 X 2 Y 27 X 1 Y 14 X -3 Y 14 X 1 Y 13 X -1 Y 28 X f 6 lw 0 0 0.933333 c 0.49 0.6 0.82
 c 0 0 0.933333 c 143 184 m 14 X -14 Y 28 X -12 Y 13 X -12 Y 14 X 2 Y 14 X 15 Y 13 X -23 Y 14 X -8 Y 14 X 15 Y 13 X 194 Y 14 X 129 Y 14 X -139 Y 13 X -49 Y 14 X 6 Y 14 X 2 Y 13 X -19 Y 14 X -25 Y 14 X 7 Y 13 X -3 Y 14 X -5 Y 14 X 22 Y 13 X -11 Y 14 X
 20 Y 14 X 19 Y 13 X 9 Y 14 X 25 Y 14 X 155 Y 13 X -82 Y 14 X -299 Y 14 X -4 Y 27 X -5 Y 14 X 2 Y 27 X 1 Y 14 X -3 Y 14 X 1 Y 13 X -1 Y 28 X s black 3 lw 143 94 m 548 X s 197 107 m -13 Y s 210 100 m -6 Y s 224 100 m -6 Y s 237 100 m -6 Y s 250 107 m
 -13 Y s 264 100 m -6 Y s 277 100 m -6 Y s 290 100 m -6 Y s 304 107 m -13 Y s 317 100 m -6 Y s 330 100 m -6 Y s 344 100 m -6 Y s 357 107 m -13 Y s 370 100 m -6 Y s 384 100 m -6 Y s 397 100 m -6 Y s 410 107 m -13 Y s 424 100 m -6 Y s 437 100 m -6 Y s
 450 100 m -6 Y s 464 107 m -13 Y s 477 100 m -6 Y s 490 100 m -6 Y s 504 100 m -6 Y s 517 107 m -13 Y s 530 100 m -6 Y s 544 100 m -6 Y s 557 100 m -6 Y s 570 107 m -13 Y s 584 100 m -6 Y s 597 100 m -6 Y s 611 100 m -6 Y s 624 107 m -13 Y s 637 100
 m -6 Y s 651 100 m -6 Y s 664 100 m -6 Y s 677 107 m -13 Y s 197 107 m -13 Y s 184 100 m -6 Y s 170 100 m -6 Y s 157 100 m -6 Y s 677 107 m -13 Y s
 gsave  710 567 23 12 C 184.714 65.3603 t 0 r /Helvetica findfont 25.6631 sf 0 0 m (0.8) show NC gr 
 gsave  710 567 23 12 C 170.505 65.3603 t 0 r /Symbol findfont 25.6631 sf 0 0 m (-) show NC gr 
 gsave  710 567 23 12 C 238.707 65.3603 t 0 r /Helvetica findfont 25.6631 sf 0 0 m (0.6) show NC gr 
 gsave  710 567 23 12 C 224.498 65.3603 t 0 r /Symbol findfont 25.6631 sf 0 0 m (-) show NC gr 
 gsave  710 567 23 12 C 289.858 65.3603 t 0 r /Helvetica findfont 25.6631 sf 0 0 m (0.4) show NC gr 
 gsave  710 567 23 12 C 275.65 65.3603 t 0 r /Symbol findfont 25.6631 sf 0 0 m (-) show NC gr 
 gsave  710 567 23 12 C 343.852 65.3603 t 0 r /Helvetica findfont 25.6631 sf 0 0 m (0.2) show NC gr 
 gsave  710 567 23 12 C 329.643 65.3603 t 0 r /Symbol findfont 25.6631 sf 0 0 m (-) show NC gr 
 gsave  710 567 23 12 C 400.687 65.3603 t 0 r /Helvetica findfont 25.6631 sf 0 0 m (0) show NC gr 
 gsave  710 567 23 12 C 446.155 65.3603 t 0 r /Helvetica findfont 25.6631 sf 0 0 m (0.2) show NC gr 
 gsave  710 567 23 12 C 497.306 65.3603 t 0 r /Helvetica findfont 25.6631 sf 0 0 m (0.4) show NC gr 
 gsave  710 567 23 12 C 551.299 65.3603 t 0 r /Helvetica findfont 25.6631 sf 0 0 m (0.6) show NC gr 
 gsave  710 567 23 12 C 605.293 65.3603 t 0 r /Helvetica findfont 25.6631 sf 0 0 m (0.8) show NC gr 
 gsave  710 567 23 12 C 670.653 65.3603 t 0 r /Helvetica findfont 25.6631 sf 0 0 m (1) show NC gr 
 gsave  710 567 23 12 C 579.717 22.734 t 0 r /Helvetica findfont 28.5146 sf 0 0 m (hh.H1_l3) show NC gr  143 523 m 548 X s 197 509 m 14 Y s 210 516 m 7 Y s 224 516 m 7 Y s 237 516 m 7 Y s 250 509 m 14 Y s 264 516 m 7 Y s 277 516 m 7 Y s 290 516 m 7 Y
 s 304 509 m 14 Y s 317 516 m 7 Y s 330 516 m 7 Y s 344 516 m 7 Y s 357 509 m 14 Y s 370 516 m 7 Y s 384 516 m 7 Y s 397 516 m 7 Y s 410 509 m 14 Y s 424 516 m 7 Y s 437 516 m 7 Y s 450 516 m 7 Y s 464 509 m 14 Y s 477 516 m 7 Y s 490 516 m 7 Y s 504
 516 m 7 Y s 517 509 m 14 Y s 530 516 m 7 Y s 544 516 m 7 Y s 557 516 m 7 Y s 570 509 m 14 Y s 584 516 m 7 Y s 597 516 m 7 Y s 611 516 m 7 Y s 624 509 m 14 Y s 637 516 m 7 Y s 651 516 m 7 Y s 664 516 m 7 Y s 677 509 m 14 Y s 197 509 m 14 Y s 184 516
 m 7 Y s 170 516 m 7 Y s 157 516 m 7 Y s 677 509 m 14 Y s 143 94 m 429 Y s 160 94 m -17 X s 152 106 m -9 X s 152 118 m -9 X s 152 130 m -9 X s 160 142 m -17 X s 152 154 m -9 X s 152 167 m -9 X s 152 179 m -9 X s 160 191 m -17 X s 152 203 m -9 X s 152
 215 m -9 X s 152 228 m -9 X s 160 240 m -17 X s 152 252 m -9 X s 152 264 m -9 X s 152 276 m -9 X s 160 288 m -17 X s 152 301 m -9 X s 152 313 m -9 X s 152 325 m -9 X s 160 337 m -17 X s 152 349 m -9 X s 152 362 m -9 X s 152 374 m -9 X s 160 386 m
 -17 X s 152 398 m -9 X s 152 410 m -9 X s 152 423 m -9 X s 160 435 m -17 X s 152 447 m -9 X s 152 459 m -9 X s 152 471 m -9 X s 160 483 m -17 X s 160 483 m -17 X s 152 496 m -9 X s 152 508 m -9 X s 152 520 m -9 X s
 gsave  710 567 23 12 C 119.354 82.4108 t 0 r /Helvetica findfont 25.6631 sf 0 0 m (0) show NC gr 
 gsave  710 567 23 12 C 99.4613 133.562 t 0 r /Helvetica findfont 25.6631 sf 0 0 m (0.2) show NC gr 
 gsave  710 567 23 12 C 99.4613 181.872 t 0 r /Helvetica findfont 25.6631 sf 0 0 m (0.4) show NC gr 
 gsave  710 567 23 12 C 99.4613 230.182 t 0 r /Helvetica findfont 25.6631 sf 0 0 m (0.6) show NC gr 
 gsave  710 567 23 12 C 99.4613 278.492 t 0 r /Helvetica findfont 25.6631 sf 0 0 m (0.8) show NC gr 
 gsave  710 567 23 12 C 122.195 326.801 t 0 r /Helvetica findfont 25.6631 sf 0 0 m (1) show NC gr 
 gsave  710 567 23 12 C 99.4613 375.111 t 0 r /Helvetica findfont 25.6631 sf 0 0 m (1.2) show NC gr 
 gsave  710 567 23 12 C 99.4613 423.421 t 0 r /Helvetica findfont 25.6631 sf 0 0 m (1.4) show NC gr 
 gsave  710 567 23 12 C 99.4613 474.572 t 0 r /Helvetica findfont 25.6631 sf 0 0 m (1.6) show NC gr 
 gsave  710 567 23 12 C 45.468 431.946 t 90 r /Helvetica findfont 28.5146 sf 0 0 m (0.0512 ) show NC gr 
 gsave  710 567 23 12 C 31.2593 429.104 t 90 r /Helvetica findfont 19.9602 sf 0 0 m ( ) show NC gr 
 gsave  710 567 23 12 C 45.468 417.737 t 90 r /Helvetica findfont 28.5146 sf 0 0 m (/) show NC gr 
 gsave  710 567 23 12 C 53.9933 414.896 t 90 r /Helvetica findfont 19.9602 sf 0 0 m ( ) show NC gr 
 gsave  710 567 23 12 C 45.468 309.751 t 90 r /Helvetica findfont 28.5146 sf 0 0 m (\(1/N\) dN) show NC gr  691 94 m 429 Y s 674 94 m 17 X s 683 106 m 8 X s 683 118 m 8 X s 683 130 m 8 X s 674 142 m 17 X s 683 154 m 8 X s 683 167 m 8 X s 683 179 m 8
 X s 674 191 m 17 X s 683 203 m 8 X s 683 215 m 8 X s 683 228 m 8 X s 674 240 m 17 X s 683 252 m 8 X s 683 264 m 8 X s 683 276 m 8 X s 674 288 m 17 X s 683 301 m 8 X s 683 313 m 8 X s 683 325 m 8 X s 674 337 m 17 X s 683 349 m 8 X s 683 362 m 8 X s
 683 374 m 8 X s 674 386 m 17 X s 683 398 m 8 X s 683 410 m 8 X s 683 423 m 8 X s 674 435 m 17 X s 683 447 m 8 X s 683 459 m 8 X s 683 471 m 8 X s 674 483 m 17 X s 674 483 m 17 X s 683 496 m 8 X s 683 508 m 8 X s 683 520 m 8 X s 0.490196 0.545098
 0.615686 c 0.364706 0.419608 0.490196 c 335 37 30 539 bf 0.490196 0.545098 0.615686 c 30 539 m 335 X s 365 539 m 37 Y s 365 576 m -335 X s 30 576 m -37 Y s 1 1 1 c black 1 1 1 c
 gsave  710 567 23 12 C 34.101 551.299 t 0 r /Helvetica-Bold findfont 28.5146 sf 0 0 m (Input variable: hh.H1_l3) show NC gr  1 0 0 c 6 lw black 3 lw 1 0 0 c 678 95 m -1 -1 d s 677 109 m -15 -15 d s 677 124 m -31 -30 d s 677 139 m -46 -45 d s 677 155
 m -61 -61 d s 677 170 m -76 -76 d s 677 185 m -91 -91 d s 674 197 m -11 -11 d s 657 181 m -7 -8 d s 647 170 m -76 -76 d s 636 174 m -80 -80 d s 636 189 m -14 -14 d s 612 165 m -3 -3 d s 604 158 m -63 -64 d s 623 191 m -1 X s 593 162 m -67 -68 d s
 581 164 m -70 -70 d s 571 169 m -75 -75 d s 557 170 m -3 -3 d s 549 162 m -68 -68 d s 540 169 m -74 -75 d s 540 184 m -90 -90 d s 540 199 m -105 -105 d s 540 214 m -120 -120 d s 540 229 m -135 -135 d s 540 245 m -150 -151 d s 540 260 m -165 -166 d s
 540 275 m -180 -181 d s 540 290 m -195 -196 d s 540 305 m -55 -55 d s 475 240 m -145 -146 d s 540 320 m -55 -55 d s 468 248 m -153 -154 d s 533 329 m -34 -35 d s 490 286 m -5 -5 d s 452 247 m -8 -8 d s 440 234 m -140 -140 d s 526 337 m -13 -14 d s
 509 320 m -10 -10 d s 431 241 m -146 -147 d s 526 352 m -13 -14 d s 422 247 m -152 -153 d s 526 367 m -13 -13 d s 417 257 m -14 -14 d s 390 230 m -110 -111 d s 276 115 m -21 -21 d s 516 372 m -3 -3 d s 417 272 m -14 -13 d s 379 235 m -99 -100 d s
 267 121 m -28 -27 d s 415 286 m -12 -12 d s 363 233 m -83 -83 d s 256 126 m -32 -32 d s 362 248 m -82 -83 d s 249 133 m -10 -9 d s 232 117 m -23 -23 d s 351 251 m -2 -2 d s 339 239 m -59 -59 d s 226 125 m -32 -31 d s 335 250 m -55 -55 d s 212 126 m
 -33 -32 d s 335 266 m -55 -55 d s 203 133 m -5 -5 d s 196 126 m -32 -32 d s 330 276 m -50 -50 d s 185 129 m -36 -35 d s 321 282 m -41 -41 d s 171 131 m -28 -28 d s 321 297 m -41 -41 d s 165 140 m -22 -22 d s 321 313 m -41 -42 d s 157 147 m -14 -14 d
 s 321 327 m -41 -41 d s 145 150 m -2 -1 d s 308 329 m -28 -27 d s 308 344 m -14 -13 d s 285 321 m -5 -4 d s 308 360 m -14 -14 d s 308 375 m -14 -14 d s 308 390 m -14 -14 d s 308 405 m -14 -14 d s 308 420 m -14 -13 d s 308 435 m -14 -13 d s 308 451 m
 -14 -14 d s 303 462 m -9 -10 d s 6 lw 143 150 m 14 X -10 Y 14 X -11 Y 14 X -3 Y 13 X 7 Y 14 X -7 Y 14 X -9 Y 13 X 16 Y 14 X -7 Y 14 X -11 Y 13 X 206 Y 14 X 141 Y 14 X -135 Y 13 X -51 Y 14 X -37 Y 14 X 12 Y 13 X -18 Y 14 X 2 Y 14 X -6 Y 13 X 57 Y 14
 X -39 Y 14 X -13 Y 13 X 13 Y 14 X 1 Y 14 X -8 Y 13 X 46 Y 14 X 34 Y 14 X 52 Y 13 X -43 Y 14 X -167 Y 14 X 8 Y 13 X -1 Y 14 X -7 Y 14 X -4 Y 14 X 7 Y 13 X 26 Y 14 X -21 Y 14 X 11 Y 13 X 16 Y 14 X -102 Y 14 X -1 Y s black 3 lw 143 94 m 548 X s 197 107
 m -13 Y s 210 100 m -6 Y s 224 100 m -6 Y s 237 100 m -6 Y s 250 107 m -13 Y s 264 100 m -6 Y s 277 100 m -6 Y s 290 100 m -6 Y s 304 107 m -13 Y s 317 100 m -6 Y s 330 100 m -6 Y s 344 100 m -6 Y s 357 107 m -13 Y s 370 100 m -6 Y s 384 100 m -6 Y
 s 397 100 m -6 Y s 410 107 m -13 Y s 424 100 m -6 Y s 437 100 m -6 Y s 450 100 m -6 Y s 464 107 m -13 Y s 477 100 m -6 Y s 490 100 m -6 Y s 504 100 m -6 Y s 517 107 m -13 Y s 530 100 m -6 Y s 544 100 m -6 Y s 557 100 m -6 Y s 570 107 m -13 Y s 584
 100 m -6 Y s 597 100 m -6 Y s 611 100 m -6 Y s 624 107 m -13 Y s 637 100 m -6 Y s 651 100 m -6 Y s 664 100 m -6 Y s 677 107 m -13 Y s 197 107 m -13 Y s 184 100 m -6 Y s 170 100 m -6 Y s 157 100 m -6 Y s 677 107 m -13 Y s 143 523 m 548 X s 197 509 m
 14 Y s 210 516 m 7 Y s 224 516 m 7 Y s 237 516 m 7 Y s 250 509 m 14 Y s 264 516 m 7 Y s 277 516 m 7 Y s 290 516 m 7 Y s 304 509 m 14 Y s 317 516 m 7 Y s 330 516 m 7 Y s 344 516 m 7 Y s 357 509 m 14 Y s 370 516 m 7 Y s 384 516 m 7 Y s 397 516 m 7 Y s
 410 509 m 14 Y s 424 516 m 7 Y s 437 516 m 7 Y s 450 516 m 7 Y s 464 509 m 14 Y s 477 516 m 7 Y s 490 516 m 7 Y s 504 516 m 7 Y s 517 509 m 14 Y s 530 516 m 7 Y s 544 516 m 7 Y s 557 516 m 7 Y s 570 509 m 14 Y s 584 516 m 7 Y s 597 516 m 7 Y s 611
 516 m 7 Y s 624 509 m 14 Y s 637 516 m 7 Y s 651 516 m 7 Y s 664 516 m 7 Y s 677 509 m 14 Y s 197 509 m 14 Y s 184 516 m 7 Y s 170 516 m 7 Y s 157 516 m 7 Y s 677 509 m 14 Y s 143 94 m 429 Y s 160 94 m -17 X s 152 106 m -9 X s 152 118 m -9 X s 152
 130 m -9 X s 160 142 m -17 X s 152 154 m -9 X s 152 167 m -9 X s 152 179 m -9 X s 160 191 m -17 X s 152 203 m -9 X s 152 215 m -9 X s 152 228 m -9 X s 160 240 m -17 X s 152 252 m -9 X s 152 264 m -9 X s 152 276 m -9 X s 160 288 m -17 X s 152 301 m
 -9 X s 152 313 m -9 X s 152 325 m -9 X s 160 337 m -17 X s 152 349 m -9 X s 152 362 m -9 X s 152 374 m -9 X s 160 386 m -17 X s 152 398 m -9 X s 152 410 m -9 X s 152 423 m -9 X s 160 435 m -17 X s 152 447 m -9 X s 152 459 m -9 X s 152 471 m -9 X s
 160 483 m -17 X s 160 483 m -17 X s 152 496 m -9 X s 152 508 m -9 X s 152 520 m -9 X s 691 94 m 429 Y s 674 94 m 17 X s 683 106 m 8 X s 683 118 m 8 X s 683 130 m 8 X s 674 142 m 17 X s 683 154 m 8 X s 683 167 m 8 X s 683 179 m 8 X s 674 191 m 17 X s
 683 203 m 8 X s 683 215 m 8 X s 683 228 m 8 X s 674 240 m 17 X s 683 252 m 8 X s 683 264 m 8 X s 683 276 m 8 X s 674 288 m 17 X s 683 301 m 8 X s 683 313 m 8 X s 683 325 m 8 X s 674 337 m 17 X s 683 349 m 8 X s 683 362 m 8 X s 683 374 m 8 X s 674
 386 m 17 X s 683 398 m 8 X s 683 410 m 8 X s 683 423 m 8 X s 674 435 m 17 X s 683 447 m 8 X s 683 459 m 8 X s 683 471 m 8 X s 674 483 m 17 X s 674 483 m 17 X s 683 496 m 8 X s 683 508 m 8 X s 683 520 m 8 X s
 gsave  710 567 23 12 C 719.017 91.2634 t 90 r /Helvetica-Bold findfont 19.9602 sf 0 0 m (U/O\255flow \(S,B\): \(0.0, 0.0\)% / \(0.0, 0.0\)%) show NC gr  0.490196 0.545098 0.615686 c 0.364706 0.419608 0.490196 c 335 37 30 539 bf 0.490196 0.545098
 0.615686 c 30 539 m 335 X s 365 539 m 37 Y s 365 576 m -335 X s 30 576 m -37 Y s 1 1 1 c black 1 1 1 c
 gsave  710 567 23 12 C 34.101 551.299 t 0 r /Helvetica-Bold findfont 28.5146 sf 0 0 m (Input variable: hh.H1_l3) show NC gr  0.490196 0.545098 0.615686 c 0.941176 0.941176 0.941176 c 710 567 779 12 bf black 1 1 0.992157 c 548 429 899 94 bf black 548
 429 899 94 bl 0 0 0.933333 c 6 lw 0.49 0.6 0.82 c black 3 lw 0.49 0.6 0.82 c 899 94 m 390 Y 14 X -46 Y 14 X -111 Y 13 X 19 Y 14 X -40 Y 14 X 11 Y 13 X -12 Y 14 X -24 Y 14 X -10 Y 13 X -12 Y 14 X 16 Y 14 X -17 Y 14 X -26 Y 13 X 18 Y 14 X -33 Y 14 X
 30 Y 13 X 19 Y 14 X -34 Y 14 X -1 Y 13 X 8 Y 14 X 1 Y 14 X 3 Y 13 X 3 Y 14 X -21 Y 14 X -2 Y 13 X 11 Y 14 X 7 Y 14 X -46 Y 13 X 25 Y 14 X 26 Y 14 X -22 Y 13 X 9 Y 14 X -3 Y 14 X -5 Y 13 X -15 Y 14 X -7 Y 14 X -57 Y 13 X -30 Y 14 X -20 Y 14 X -2 Y 14
 X f 6 lw 0 0 0.933333 c 0.49 0.6 0.82 c 0 0 0.933333 c 899 484 m 14 X -46 Y 14 X -111 Y 13 X 19 Y 14 X -40 Y 14 X 11 Y 13 X -12 Y 14 X -24 Y 14 X -10 Y 13 X -12 Y 14 X 16 Y 14 X -17 Y 14 X -26 Y 13 X 18 Y 14 X -33 Y 14 X 30 Y 13 X 19 Y 14 X -34 Y 14
 X -1 Y 13 X 8 Y 14 X 1 Y 14 X 3 Y 13 X 3 Y 14 X -21 Y 14 X -2 Y 13 X 11 Y 14 X 7 Y 14 X -46 Y 13 X 25 Y 14 X 26 Y 14 X -22 Y 13 X 9 Y 14 X -3 Y 14 X -5 Y 13 X -15 Y 14 X -7 Y 14 X -57 Y 13 X -30 Y 14 X -20 Y 14 X -2 Y 14 X s black 3 lw 899 94 m 548
 X s 953 107 m -13 Y s 974 100 m -6 Y s 995 100 m -6 Y s 1017 100 m -6 Y s 1038 100 m -6 Y s 1060 107 m -13 Y s 1081 100 m -6 Y s 1102 100 m -6 Y s 1124 100 m -6 Y s 1145 100 m -6 Y s 1166 107 m -13 Y s 1188 100 m -6 Y s 1209 100 m -6 Y s 1230 100 m
 -6 Y s 1252 100 m -6 Y s 1273 107 m -13 Y s 1294 100 m -6 Y s 1316 100 m -6 Y s 1337 100 m -6 Y s 1358 100 m -6 Y s 1380 107 m -13 Y s 953 107 m -13 Y s 931 100 m -6 Y s 910 100 m -6 Y s 1380 107 m -13 Y s 1401 100 m -6 Y s 1423 100 m -6 Y s 1444
 100 m -6 Y s
 gsave  710 567 779 12 C 940.619 65.3603 t 0 r /Helvetica findfont 25.6631 sf 0 0 m (0.2) show NC gr 
 gsave  710 567 779 12 C 926.411 65.3603 t 0 r /Symbol findfont 25.6631 sf 0 0 m (-) show NC gr 
 gsave  710 567 779 12 C 1045.76 65.3603 t 0 r /Helvetica findfont 25.6631 sf 0 0 m (0.1) show NC gr 
 gsave  710 567 779 12 C 1034.4 65.3603 t 0 r /Symbol findfont 25.6631 sf 0 0 m (-) show NC gr 
 gsave  710 567 779 12 C 1156.59 65.3603 t 0 r /Helvetica findfont 25.6631 sf 0 0 m (0) show NC gr 
 gsave  710 567 779 12 C 1253.21 65.3603 t 0 r /Helvetica findfont 25.6631 sf 0 0 m (0.1) show NC gr 
 gsave  710 567 779 12 C 1361.2 65.3603 t 0 r /Helvetica findfont 25.6631 sf 0 0 m (0.2) show NC gr 
 gsave  710 567 779 12 C 1338.46 22.734 t 0 r /Helvetica findfont 28.5146 sf 0 0 m (hh.HT_l1) show NC gr  899 523 m 548 X s 953 509 m 14 Y s 974 516 m 7 Y s 995 516 m 7 Y s 1017 516 m 7 Y s 1038 516 m 7 Y s 1060 509 m 14 Y s 1081 516 m 7 Y s 1102 516
 m 7 Y s 1124 516 m 7 Y s 1145 516 m 7 Y s 1166 509 m 14 Y s 1188 516 m 7 Y s 1209 516 m 7 Y s 1230 516 m 7 Y s 1252 516 m 7 Y s 1273 509 m 14 Y s 1294 516 m 7 Y s 1316 516 m 7 Y s 1337 516 m 7 Y s 1358 516 m 7 Y s 1380 509 m 14 Y s 953 509 m 14 Y s
 931 516 m 7 Y s 910 516 m 7 Y s 1380 509 m 14 Y s 1401 516 m 7 Y s 1423 516 m 7 Y s 1444 516 m 7 Y s 899 94 m 429 Y s 915 94 m -16 X s 907 109 m -8 X s 907 125 m -8 X s 907 141 m -8 X s 907 156 m -8 X s 915 172 m -16 X s 907 188 m -8 X s 907 203 m
 -8 X s 907 219 m -8 X s 907 235 m -8 X s 915 251 m -16 X s 907 266 m -8 X s 907 282 m -8 X s 907 298 m -8 X s 907 313 m -8 X s 915 329 m -16 X s 907 345 m -8 X s 907 361 m -8 X s 907 376 m -8 X s 907 392 m -8 X s 915 408 m -16 X s 907 423 m -8 X s
 907 439 m -8 X s 907 455 m -8 X s 907 470 m -8 X s 915 486 m -16 X s 915 486 m -16 X s 907 502 m -8 X s 907 518 m -8 X s
 gsave  710 567 779 12 C 875.259 82.4108 t 0 r /Helvetica findfont 25.6631 sf 0 0 m (0) show NC gr 
 gsave  710 567 779 12 C 878.101 161.98 t 0 r /Helvetica findfont 25.6631 sf 0 0 m (1) show NC gr 
 gsave  710 567 779 12 C 875.259 241.549 t 0 r /Helvetica findfont 25.6631 sf 0 0 m (2) show NC gr 
 gsave  710 567 779 12 C 875.259 318.276 t 0 r /Helvetica findfont 25.6631 sf 0 0 m (3) show NC gr 
 gsave  710 567 779 12 C 875.259 397.845 t 0 r /Helvetica findfont 25.6631 sf 0 0 m (4) show NC gr 
 gsave  710 567 779 12 C 875.259 477.414 t 0 r /Helvetica findfont 25.6631 sf 0 0 m (5) show NC gr 
 gsave  710 567 779 12 C 801.374 431.946 t 90 r /Helvetica findfont 28.5146 sf 0 0 m (0.0128 ) show NC gr 
 gsave  710 567 779 12 C 787.165 429.104 t 90 r /Helvetica findfont 19.9602 sf 0 0 m ( ) show NC gr 
 gsave  710 567 779 12 C 801.374 417.737 t 90 r /Helvetica findfont 28.5146 sf 0 0 m (/) show NC gr 
 gsave  710 567 779 12 C 809.899 414.896 t 90 r /Helvetica findfont 19.9602 sf 0 0 m ( ) show NC gr 
 gsave  710 567 779 12 C 801.374 309.751 t 90 r /Helvetica findfont 28.5146 sf 0 0 m (\(1/N\) dN) show NC gr  1447 94 m 429 Y s 1430 94 m 17 X s 1438 109 m 9 X s 1438 125 m 9 X s 1438 141 m 9 X s 1438 156 m 9 X s 1430 172 m 17 X s 1438 188 m 9 X s
 1438 203 m 9 X s 1438 219 m 9 X s 1438 235 m 9 X s 1430 251 m 17 X s 1438 266 m 9 X s 1438 282 m 9 X s 1438 298 m 9 X s 1438 313 m 9 X s 1430 329 m 17 X s 1438 345 m 9 X s 1438 361 m 9 X s 1438 376 m 9 X s 1438 392 m 9 X s 1430 408 m 17 X s 1438 423
 m 9 X s 1438 439 m 9 X s 1438 455 m 9 X s 1438 470 m 9 X s 1430 486 m 17 X s 1430 486 m 17 X s 1438 502 m 9 X s 1438 518 m 9 X s 0.490196 0.545098 0.615686 c 0.364706 0.419608 0.490196 c 332 37 786 539 bf 0.490196 0.545098 0.615686 c 786 539 m 332 X
 s 1118 539 m 37 Y s 1118 576 m -332 X s 786 576 m -37 Y s 1 1 1 c black 1 1 1 c
 gsave  710 567 779 12 C 790.007 551.299 t 0 r /Helvetica-Bold findfont 28.5146 sf 0 0 m (Input variable: hh.HT_l1) show NC gr  1 0 0 c 6 lw black 3 lw 1 0 0 c 1433 94 m -1 X s 1433 109 m -16 -15 d s 1433 124 m -31 -30 d s 1433 139 m -46 -45 d s 1433
 155 m -61 -61 d s 1433 170 m -76 -76 d s 1433 185 m -91 -91 d s 1433 200 m -106 -106 d s 1433 215 m -121 -121 d s 1433 231 m -136 -137 d s 1433 246 m -151 -152 d s 1433 261 m -166 -167 d s 1433 276 m -181 -182 d s 1433 291 m -196 -197 d s 1421 294 m
 -200 -200 d s 1419 308 m -213 -214 d s 1419 323 m -228 -229 d s 1419 338 m -243 -244 d s 1419 353 m -258 -259 d s 1415 365 m -269 -271 d s 1405 370 m -274 -276 d s 1405 385 m -54 -55 d s 1325 304 m -2 -2 d s 1314 293 m -18 -18 d s 1287 266 m -5 -5 d
 s 1271 250 m -2 -3 d s 1258 237 m -142 -143 d s 1392 387 m -41 -42 d s 1310 304 m -14 -14 d s 1255 249 m -14 -14 d s 1214 208 m -14 -14 d s 1197 190 m -96 -96 d s 1380 390 m -2 -2 d s 1369 378 m -5 -4 d s 1310 319 m -14 -14 d s 1252 261 m -11 -11 d
 s 1214 223 m -14 -14 d s 1187 195 m -101 -101 d s 1299 323 m -3 -3 d s 1210 234 m -10 -10 d s 1187 210 m -116 -116 d s 1177 216 m -121 -122 d s 1173 227 m -14 -14 d s 1147 201 m -15 -15 d s 1132 185 m -91 -91 d s 1173 242 m -14 -14 d s 1146 214 m
 -14 -13 d s 1118 187 m -92 -93 d s 1173 257 m -14 -14 d s 1132 216 m s 1118 202 m -108 -108 d s 1162 261 m -3 -2 d s 1109 208 m -114 -114 d s 1100 215 m -9 -10 d s 1083 197 m -6 -6 d s 1064 177 m -84 -83 d s 1064 193 m -99 -99 d s 1064 208 m -14 -14
 d s 1047 191 m -97 -97 d s 1058 217 m -8 -8 d s 1036 195 m -101 -101 d s 1034 208 m -114 -114 d s 1017 207 m -112 -113 d s 1009 213 m -110 -110 d s 990 210 m -91 -92 d s 973 208 m -5 -6 d s 965 200 m -66 -67 d s 954 204 m -55 -55 d s 954 219 m -55
 -55 d s 954 234 m -55 -55 d s 945 240 m -46 -46 d s 928 238 m -29 -29 d s 927 252 m -14 -14 d s 912 238 m -13 -13 d s 915 255 m -2 -1 d s 6 lw 899 238 m 14 X 17 Y 14 X -17 Y 13 X 2 Y 14 X -40 Y 14 X 8 Y 13 X 2 Y 14 X 5 Y 14 X -8 Y 13 X 1 Y 14 X -17
 Y 14 X 26 Y 14 X -41 Y 13 X 21 Y 14 X 18 Y 14 X -7 Y 13 X -23 Y 14 X 31 Y 14 X -15 Y 13 X 60 Y 14 X -45 Y 14 X -26 Y 13 X 44 Y 14 X -26 Y 14 X 13 Y 13 X 40 Y 14 X -24 Y 14 X 13 Y 13 X 16 Y 14 X 57 Y 14 X -30 Y 13 X 11 Y 14 X 11 Y 14 X 45 Y 13 X 18 Y
 14 X 12 Y 14 X -5 Y 13 X -20 Y 14 X -71 Y 14 X -200 Y 14 X s black 3 lw 899 94 m 548 X s 953 107 m -13 Y s 974 100 m -6 Y s 995 100 m -6 Y s 1017 100 m -6 Y s 1038 100 m -6 Y s 1060 107 m -13 Y s 1081 100 m -6 Y s 1102 100 m -6 Y s 1124 100 m -6 Y s
 1145 100 m -6 Y s 1166 107 m -13 Y s 1188 100 m -6 Y s 1209 100 m -6 Y s 1230 100 m -6 Y s 1252 100 m -6 Y s 1273 107 m -13 Y s 1294 100 m -6 Y s 1316 100 m -6 Y s 1337 100 m -6 Y s 1358 100 m -6 Y s 1380 107 m -13 Y s 953 107 m -13 Y s 931 100 m -6
 Y s 910 100 m -6 Y s 1380 107 m -13 Y s 1401 100 m -6 Y s 1423 100 m -6 Y s 1444 100 m -6 Y s 899 523 m 548 X s 953 509 m 14 Y s 974 516 m 7 Y s 995 516 m 7 Y s 1017 516 m 7 Y s 1038 516 m 7 Y s 1060 509 m 14 Y s 1081 516 m 7 Y s 1102 516 m 7 Y s
 1124 516 m 7 Y s 1145 516 m 7 Y s 1166 509 m 14 Y s 1188 516 m 7 Y s 1209 516 m 7 Y s 1230 516 m 7 Y s 1252 516 m 7 Y s 1273 509 m 14 Y s 1294 516 m 7 Y s 1316 516 m 7 Y s 1337 516 m 7 Y s 1358 516 m 7 Y s 1380 509 m 14 Y s 953 509 m 14 Y s 931 516
 m 7 Y s 910 516 m 7 Y s 1380 509 m 14 Y s 1401 516 m 7 Y s 1423 516 m 7 Y s 1444 516 m 7 Y s 899 94 m 429 Y s 915 94 m -16 X s 907 109 m -8 X s 907 125 m -8 X s 907 141 m -8 X s 907 156 m -8 X s 915 172 m -16 X s 907 188 m -8 X s 907 203 m -8 X s
 907 219 m -8 X s 907 235 m -8 X s 915 251 m -16 X s 907 266 m -8 X s 907 282 m -8 X s 907 298 m -8 X s 907 313 m -8 X s 915 329 m -16 X s 907 345 m -8 X s 907 361 m -8 X s 907 376 m -8 X s 907 392 m -8 X s 915 408 m -16 X s 907 423 m -8 X s 907 439
 m -8 X s 907 455 m -8 X s 907 470 m -8 X s 915 486 m -16 X s 915 486 m -16 X s 907 502 m -8 X s 907 518 m -8 X s 1447 94 m 429 Y s 1430 94 m 17 X s 1438 109 m 9 X s 1438 125 m 9 X s 1438 141 m 9 X s 1438 156 m 9 X s 1430 172 m 17 X s 1438 188 m 9 X
 s 1438 203 m 9 X s 1438 219 m 9 X s 1438 235 m 9 X s 1430 251 m 17 X s 1438 266 m 9 X s 1438 282 m 9 X s 1438 298 m 9 X s 1438 313 m 9 X s 1430 329 m 17 X s 1438 345 m 9 X s 1438 361 m 9 X s 1438 376 m 9 X s 1438 392 m 9 X s 1430 408 m 17 X s 1438
 423 m 9 X s 1438 439 m 9 X s 1438 455 m 9 X s 1438 470 m 9 X s 1430 486 m 17 X s 1430 486 m 17 X s 1438 502 m 9 X s 1438 518 m 9 X s
 gsave  710 567 779 12 C 1474.92 91.2634 t 90 r /Helvetica-Bold findfont 19.9602 sf 0 0 m (U/O\255flow \(S,B\): \(0.0, 0.0\)% / \(0.0, 0.0\)%) show NC gr  0.490196 0.545098 0.615686 c 0.364706 0.419608 0.490196 c 332 37 786 539 bf 0.490196 0.545098
 0.615686 c 786 539 m 332 X s 1118 539 m 37 Y s 1118 576 m -332 X s 786 576 m -37 Y s 1 1 1 c black 1 1 1 c
 gsave  710 567 779 12 C 790.007 551.299 t 0 r /Helvetica-Bold findfont 28.5146 sf 0 0 m (Input variable: hh.HT_l1) show NC gr  0.490196 0.545098 0.615686 c 0.941176 0.941176 0.941176 c 711 567 1534 12 bf black 1 1 0.992157 c 547 429 1655 94 bf black
 547 429 1655 94 bl 0 0 0.933333 c 6 lw 0.49 0.6 0.82 c black 3 lw 0.49 0.6 0.82 c 1655 94 m 390 Y 14 X -34 Y 14 X -43 Y 13 X -89 Y 14 X 30 Y 14 X -57 Y 13 X -9 Y 14 X -46 Y 14 X 17 Y 13 X -3 Y 14 X -11 Y 14 X -13 Y 13 X -6 Y 14 X 12 Y 14 X -12 Y 13
 X -11 Y 14 X -1 Y 14 X 9 Y 13 X -4 Y 14 X -5 Y 14 X -18 Y 14 X 20 Y 13 X -25 Y 14 X 10 Y 14 X -7 Y 13 X 5 Y 14 X -15 Y 14 X 14 Y 27 X -20 Y 14 X 13 Y 13 X -22 Y 14 X 17 Y 27 X 16 Y 14 X -20 Y 14 X 11 Y 13 X 25 Y 14 X -7 Y 14 X -109 Y 13 X -2 Y f 6
 lw 0 0 0.933333 c 0.49 0.6 0.82 c 0 0 0.933333 c 1655 484 m 14 X -34 Y 14 X -43 Y 13 X -89 Y 14 X 30 Y 14 X -57 Y 13 X -9 Y 14 X -46 Y 14 X 17 Y 13 X -3 Y 14 X -11 Y 14 X -13 Y 13 X -6 Y 14 X 12 Y 14 X -12 Y 13 X -11 Y 14 X -1 Y 14 X 9 Y 13 X -4 Y
 14 X -5 Y 14 X -18 Y 14 X 20 Y 13 X -25 Y 14 X 10 Y 14 X -7 Y 13 X 5 Y 14 X -15 Y 14 X 14 Y 27 X -20 Y 14 X 13 Y 13 X -22 Y 14 X 17 Y 27 X 16 Y 14 X -20 Y 14 X 11 Y 13 X 25 Y 14 X -7 Y 14 X -109 Y 13 X -2 Y s black 3 lw 1655 94 m 547 X s 1691 107 m
 -13 Y s 1705 100 m -6 Y s 1719 100 m -6 Y s 1734 100 m -6 Y s 1748 100 m -6 Y s 1762 107 m -13 Y s 1776 100 m -6 Y s 1791 100 m -6 Y s 1805 100 m -6 Y s 1819 100 m -6 Y s 1833 107 m -13 Y s 1847 100 m -6 Y s 1862 100 m -6 Y s 1876 100 m -6 Y s 1890
 100 m -6 Y s 1904 107 m -13 Y s 1919 100 m -6 Y s 1933 100 m -6 Y s 1947 100 m -6 Y s 1961 100 m -6 Y s 1976 107 m -13 Y s 1990 100 m -6 Y s 2004 100 m -6 Y s 2018 100 m -6 Y s 2033 100 m -6 Y s 2047 107 m -13 Y s 2061 100 m -6 Y s 2075 100 m -6 Y s
 2089 100 m -6 Y s 2104 100 m -6 Y s 2118 107 m -13 Y s 2132 100 m -6 Y s 2146 100 m -6 Y s 2161 100 m -6 Y s 2175 100 m -6 Y s 2189 107 m -13 Y s 1691 107 m -13 Y s 1677 100 m -6 Y s 1662 100 m -6 Y s 2189 107 m -13 Y s
 gsave  711 567 1534 12 C 1679.47 65.3603 t 0 r /Helvetica findfont 25.6631 sf 0 0 m (0.1) show NC gr 
 gsave  711 567 1534 12 C 1668.11 65.3603 t 0 r /Symbol findfont 25.6631 sf 0 0 m (-) show NC gr 
 gsave  711 567 1534 12 C 1741.99 65.3603 t 0 r /Helvetica findfont 25.6631 sf 0 0 m (0.05) show NC gr 
 gsave  711 567 1534 12 C 1730.63 65.3603 t 0 r /Symbol findfont 25.6631 sf 0 0 m (-) show NC gr 
 gsave  711 567 1534 12 C 1824.4 65.3603 t 0 r /Helvetica findfont 25.6631 sf 0 0 m (0) show NC gr 
 gsave  711 567 1534 12 C 1878.4 65.3603 t 0 r /Helvetica findfont 25.6631 sf 0 0 m (0.05) show NC gr 
 gsave  711 567 1534 12 C 1957.97 65.3603 t 0 r /Helvetica findfont 25.6631 sf 0 0 m (0.1) show NC gr 
 gsave  711 567 1534 12 C 2020.48 65.3603 t 0 r /Helvetica findfont 25.6631 sf 0 0 m (0.15) show NC gr 
 gsave  711 567 1534 12 C 2100.05 65.3603 t 0 r /Helvetica findfont 25.6631 sf 0 0 m (0.2) show NC gr 
 gsave  711 567 1534 12 C 2162.57 65.3603 t 0 r /Helvetica findfont 25.6631 sf 0 0 m (0.25) show NC gr 
 gsave  711 567 1534 12 C 2088.69 22.734 t 0 r /Helvetica findfont 28.5146 sf 0 0 m (hh.HP_l2) show NC gr  1655 523 m 547 X s 1691 509 m 14 Y s 1705 516 m 7 Y s 1719 516 m 7 Y s 1734 516 m 7 Y s 1748 516 m 7 Y s 1762 509 m 14 Y s 1776 516 m 7 Y s
 1791 516 m 7 Y s 1805 516 m 7 Y s 1819 516 m 7 Y s 1833 509 m 14 Y s 1847 516 m 7 Y s 1862 516 m 7 Y s 1876 516 m 7 Y s 1890 516 m 7 Y s 1904 509 m 14 Y s 1919 516 m 7 Y s 1933 516 m 7 Y s 1947 516 m 7 Y s 1961 516 m 7 Y s 1976 509 m 14 Y s 1990 516
 m 7 Y s 2004 516 m 7 Y s 2018 516 m 7 Y s 2033 516 m 7 Y s 2047 509 m 14 Y s 2061 516 m 7 Y s 2075 516 m 7 Y s 2089 516 m 7 Y s 2104 516 m 7 Y s 2118 509 m 14 Y s 2132 516 m 7 Y s 2146 516 m 7 Y s 2161 516 m 7 Y s 2175 516 m 7 Y s 2189 509 m 14 Y s
 1691 509 m 14 Y s 1677 516 m 7 Y s 1662 516 m 7 Y s 2189 509 m 14 Y s 1655 94 m 429 Y s 1671 94 m -16 X s 1663 104 m -8 X s 1663 114 m -8 X s 1663 125 m -8 X s 1663 135 m -8 X s 1671 146 m -16 X s 1663 156 m -8 X s 1663 167 m -8 X s 1663 177 m -8 X
 s 1663 188 m -8 X s 1671 198 m -16 X s 1663 209 m -8 X s 1663 219 m -8 X s 1663 230 m -8 X s 1663 240 m -8 X s 1671 250 m -16 X s 1663 261 m -8 X s 1663 271 m -8 X s 1663 282 m -8 X s 1663 292 m -8 X s 1671 303 m -16 X s 1663 313 m -8 X s 1663 324 m
 -8 X s 1663 334 m -8 X s 1663 345 m -8 X s 1671 355 m -16 X s 1663 366 m -8 X s 1663 376 m -8 X s 1663 387 m -8 X s 1663 397 m -8 X s 1671 407 m -16 X s 1663 418 m -8 X s 1663 428 m -8 X s 1663 439 m -8 X s 1663 449 m -8 X s 1671 460 m -16 X s 1663
 470 m -8 X s 1663 481 m -8 X s 1663 491 m -8 X s 1663 502 m -8 X s 1671 512 m -16 X s 1671 512 m -16 X s
 gsave  711 567 1534 12 C 1631.16 82.4108 t 0 r /Helvetica findfont 25.6631 sf 0 0 m (0) show NC gr 
 gsave  711 567 1534 12 C 1634.01 136.404 t 0 r /Helvetica findfont 25.6631 sf 0 0 m (1) show NC gr 
 gsave  711 567 1534 12 C 1631.16 187.556 t 0 r /Helvetica findfont 25.6631 sf 0 0 m (2) show NC gr 
 gsave  711 567 1534 12 C 1631.16 241.549 t 0 r /Helvetica findfont 25.6631 sf 0 0 m (3) show NC gr 
 gsave  711 567 1534 12 C 1631.16 292.7 t 0 r /Helvetica findfont 25.6631 sf 0 0 m (4) show NC gr 
 gsave  711 567 1534 12 C 1631.16 343.852 t 0 r /Helvetica findfont 25.6631 sf 0 0 m (5) show NC gr 
 gsave  711 567 1534 12 C 1631.16 397.845 t 0 r /Helvetica findfont 25.6631 sf 0 0 m (6) show NC gr 
 gsave  711 567 1534 12 C 1631.16 448.997 t 0 r /Helvetica findfont 25.6631 sf 0 0 m (7) show NC gr 
 gsave  711 567 1534 12 C 1631.16 502.99 t 0 r /Helvetica findfont 25.6631 sf 0 0 m (8) show NC gr 
 gsave  711 567 1534 12 C 1557.28 420.579 t 90 r /Helvetica findfont 28.5146 sf 0 0 m (0.00961 ) show NC gr 
 gsave  711 567 1534 12 C 1543.07 417.737 t 90 r /Helvetica findfont 19.9602 sf 0 0 m ( ) show NC gr 
 gsave  711 567 1534 12 C 1557.28 406.37 t 90 r /Helvetica findfont 28.5146 sf 0 0 m (/) show NC gr 
 gsave  711 567 1534 12 C 1565.8 403.529 t 90 r /Helvetica findfont 19.9602 sf 0 0 m ( ) show NC gr 
 gsave  711 567 1534 12 C 1557.28 298.384 t 90 r /Helvetica findfont 28.5146 sf 0 0 m (\(1/N\) dN) show NC gr  2202 94 m 429 Y s 2186 94 m 16 X s 2194 104 m 8 X s 2194 114 m 8 X s 2194 125 m 8 X s 2194 135 m 8 X s 2186 146 m 16 X s 2194 156 m 8 X s
 2194 167 m 8 X s 2194 177 m 8 X s 2194 188 m 8 X s 2186 198 m 16 X s 2194 209 m 8 X s 2194 219 m 8 X s 2194 230 m 8 X s 2194 240 m 8 X s 2186 250 m 16 X s 2194 261 m 8 X s 2194 271 m 8 X s 2194 282 m 8 X s 2194 292 m 8 X s 2186 303 m 16 X s 2194 313
 m 8 X s 2194 324 m 8 X s 2194 334 m 8 X s 2194 345 m 8 X s 2186 355 m 16 X s 2194 366 m 8 X s 2194 376 m 8 X s 2194 387 m 8 X s 2194 397 m 8 X s 2186 407 m 16 X s 2194 418 m 8 X s 2194 428 m 8 X s 2194 439 m 8 X s 2194 449 m 8 X s 2186 460 m 16 X s
 2194 470 m 8 X s 2194 481 m 8 X s 2194 491 m 8 X s 2194 502 m 8 X s 2186 512 m 16 X s 2186 512 m 16 X s 0.490196 0.545098 0.615686 c 0.364706 0.419608 0.490196 c 338 37 1542 539 bf 0.490196 0.545098 0.615686 c 1542 539 m 338 X s 1880 539 m 37 Y s
 1880 576 m -338 X s 1542 576 m -37 Y s 1 1 1 c black 1 1 1 c
 gsave  711 567 1534 12 C 1545.91 551.299 t 0 r /Helvetica-Bold findfont 28.5146 sf 0 0 m (Input variable: hh.HP_l2) show NC gr  1 0 0 c 6 lw black 3 lw 1 0 0 c 2189 94 m -1 X s 2189 109 m -16 -15 d s 2189 124 m -31 -30 d s 2189 139 m -46 -45 d s
 2189 155 m -61 -61 d s 2189 170 m -76 -76 d s 2189 185 m -91 -91 d s 2188 199 m -105 -105 d s 2175 202 m -107 -108 d s 2169 211 m -116 -117 d s 2161 218 m -123 -124 d s 2161 233 m -138 -139 d s 2155 243 m -7 -8 d s 2146 233 m -12 -12 d s 2131 218 m
 -123 -124 d s 2120 222 m -128 -128 d s 2114 231 m -137 -137 d s 2107 239 m -145 -145 d s 2093 241 m -1 Y s 2092 239 m -145 -145 d s 2079 242 m -13 -14 d s 2064 227 m -132 -133 d s 2071 248 m -5 -5 d s 2052 229 m -135 -135 d s 2052 245 m -14 -14 d s
 2038 231 m -136 -137 d s 2052 260 m -14 -14 d s 2021 228 m -10 -10 d s 2004 212 m -117 -118 d s 1996 218 m -124 -124 d s 1970 207 m -113 -113 d s 1966 219 m -124 -125 d s 1950 218 m -123 -124 d s 1935 218 m -123 -124 d s 1920 218 m -19 -19 d s 1888
 186 m -92 -92 d s 1908 221 m -7 -7 d s 1888 201 m -107 -107 d s 1885 213 m -11 -11 d s 1865 193 m -99 -99 d s 1860 204 m -109 -110 d s 1860 219 m -124 -125 d s 1860 234 m -13 -14 d s 1833 207 m -112 -113 d s 1847 235 m s 1831 219 m -125 -125 d s
 1819 223 m -128 -129 d s 1815 234 m -139 -140 d s 1806 239 m -145 -145 d s 1793 242 m -1 -1 d s 1779 228 m -124 -125 d s 1765 229 m -110 -111 d s 1765 244 m -110 -111 d s 1759 253 m -8 -8 d s 1751 245 m -96 -96 d s 1737 247 m -82 -83 d s 1737 262 m
 -82 -83 d s 1734 274 m -10 -11 d s 1711 251 m -56 -57 d s 1710 265 m -55 -56 d s 1710 280 m -55 -55 d s 1707 291 m -11 -10 d s 1694 278 m -39 -38 d s 1683 283 m -28 -28 d s 1669 284 m -14 -14 d s 1662 292 m -7 -7 d s 6 lw 1655 292 m 14 X -8 Y 14 X
 -6 Y 13 X 13 Y 14 X -40 Y 14 X 23 Y 13 X -29 Y 14 X 8 Y 14 X -25 Y 27 X 14 Y 14 X -8 Y 13 X -15 Y 14 X -12 Y 14 X 28 Y 13 X -42 Y 14 X 20 Y 14 X -27 Y 13 X 35 Y 14 X -3 Y 41 X 1 Y 14 X -13 Y 14 X 12 Y 13 X -6 Y 14 X 16 Y 14 X 3 Y 13 X 29 Y 14 X -33
 Y 14 X 21 Y 13 X -9 Y 14 X 2 Y 14 X -10 Y 13 X -13 Y 14 X 15 Y 14 X 10 Y 13 X -32 Y 14 X -12 Y 14 X -105 Y 13 X s black 3 lw 1655 94 m 547 X s 1691 107 m -13 Y s 1705 100 m -6 Y s 1719 100 m -6 Y s 1734 100 m -6 Y s 1748 100 m -6 Y s 1762 107 m -13
 Y s 1776 100 m -6 Y s 1791 100 m -6 Y s 1805 100 m -6 Y s 1819 100 m -6 Y s 1833 107 m -13 Y s 1847 100 m -6 Y s 1862 100 m -6 Y s 1876 100 m -6 Y s 1890 100 m -6 Y s 1904 107 m -13 Y s 1919 100 m -6 Y s 1933 100 m -6 Y s 1947 100 m -6 Y s 1961 100
 m -6 Y s 1976 107 m -13 Y s 1990 100 m -6 Y s 2004 100 m -6 Y s 2018 100 m -6 Y s 2033 100 m -6 Y s 2047 107 m -13 Y s 2061 100 m -6 Y s 2075 100 m -6 Y s 2089 100 m -6 Y s 2104 100 m -6 Y s 2118 107 m -13 Y s 2132 100 m -6 Y s 2146 100 m -6 Y s
 2161 100 m -6 Y s 2175 100 m -6 Y s 2189 107 m -13 Y s 1691 107 m -13 Y s 1677 100 m -6 Y s 1662 100 m -6 Y s 2189 107 m -13 Y s 1655 523 m 547 X s 1691 509 m 14 Y s 1705 516 m 7 Y s 1719 516 m 7 Y s 1734 516 m 7 Y s 1748 516 m 7 Y s 1762 509 m 14 Y
 s 1776 516 m 7 Y s 1791 516 m 7 Y s 1805 516 m 7 Y s 1819 516 m 7 Y s 1833 509 m 14 Y s 1847 516 m 7 Y s 1862 516 m 7 Y s 1876 516 m 7 Y s 1890 516 m 7 Y s 1904 509 m 14 Y s 1919 516 m 7 Y s 1933 516 m 7 Y s 1947 516 m 7 Y s 1961 516 m 7 Y s 1976
 509 m 14 Y s 1990 516 m 7 Y s 2004 516 m 7 Y s 2018 516 m 7 Y s 2033 516 m 7 Y s 2047 509 m 14 Y s 2061 516 m 7 Y s 2075 516 m 7 Y s 2089 516 m 7 Y s 2104 516 m 7 Y s 2118 509 m 14 Y s 2132 516 m 7 Y s 2146 516 m 7 Y s 2161 516 m 7 Y s 2175 516 m 7
 Y s 2189 509 m 14 Y s 1691 509 m 14 Y s 1677 516 m 7 Y s 1662 516 m 7 Y s 2189 509 m 14 Y s 1655 94 m 429 Y s 1671 94 m -16 X s 1663 104 m -8 X s 1663 114 m -8 X s 1663 125 m -8 X s 1663 135 m -8 X s 1671 146 m -16 X s 1663 156 m -8 X s 1663 167 m
 -8 X s 1663 177 m -8 X s 1663 188 m -8 X s 1671 198 m -16 X s 1663 209 m -8 X s 1663 219 m -8 X s 1663 230 m -8 X s 1663 240 m -8 X s 1671 250 m -16 X s 1663 261 m -8 X s 1663 271 m -8 X s 1663 282 m -8 X s 1663 292 m -8 X s 1671 303 m -16 X s 1663
 313 m -8 X s 1663 324 m -8 X s 1663 334 m -8 X s 1663 345 m -8 X s 1671 355 m -16 X s 1663 366 m -8 X s 1663 376 m -8 X s 1663 387 m -8 X s 1663 397 m -8 X s 1671 407 m -16 X s 1663 418 m -8 X s 1663 428 m -8 X s 1663 439 m -8 X s 1663 449 m -8 X s
 1671 460 m -16 X s 1663 470 m -8 X s 1663 481 m -8 X s 1663 491 m -8 X s 1663 502 m -8 X s 1671 512 m -16 X s 1671 512 m -16 X s 2202 94 m 429 Y s 2186 94 m 16 X s 2194 104 m 8 X s 2194 114 m 8 X s 2194 125 m 8 X s 2194 135 m 8 X s 2186 146 m 16 X s
 2194 156 m 8 X s 2194 167 m 8 X s 2194 177 m 8 X s 2194 188 m 8 X s 2186 198 m 16 X s 2194 209 m 8 X s 2194 219 m 8 X s 2194 230 m 8 X s 2194 240 m 8 X s 2186 250 m 16 X s 2194 261 m 8 X s 2194 271 m 8 X s 2194 282 m 8 X s 2194 292 m 8 X s 2186 303
 m 16 X s 2194 313 m 8 X s 2194 324 m 8 X s 2194 334 m 8 X s 2194 345 m 8 X s 2186 355 m 16 X s 2194 366 m 8 X s 2194 376 m 8 X s 2194 387 m 8 X s 2194 397 m 8 X s 2186 407 m 16 X s 2194 418 m 8 X s 2194 428 m 8 X s 2194 439 m 8 X s 2194 449 m 8 X s
 2186 460 m 16 X s 2194 470 m 8 X s 2194 481 m 8 X s 2194 491 m 8 X s 2194 502 m 8 X s 2186 512 m 16 X s 2186 512 m 16 X s
 gsave  711 567 1534 12 C 2230.83 91.2634 t 90 r /Helvetica-Bold findfont 19.9602 sf 0 0 m (U/O\255flow \(S,B\): \(0.0, 0.0\)% / \(0.0, 0.0\)%) show NC gr  0.490196 0.545098 0.615686 c 0.364706 0.419608 0.490196 c 338 37 1542 539 bf 0.490196 0.545098
 0.615686 c 1542 539 m 338 X s 1880 539 m 37 Y s 1880 576 m -338 X s 1542 576 m -37 Y s 1 1 1 c black 1 1 1 c
 gsave  711 567 1534 12 C 1545.91 551.299 t 0 r /Helvetica-Bold findfont 28.5146 sf 0 0 m (Input variable: hh.HP_l2) show NC gr 
 gr  gr showpage
end
%%EOF
