%!PS-Adobe-2.0 EPSF-2.0
%%BoundingBox:  0 0 567 296
%%Title: dataset_class_jetN/plots/variables_id_c2.eps: Input variables (training sample)
%%Creator: ROOT Version 6.18/00
%%CreationDate: Sun Sep 15 10:43:05 2019
%%DocumentNeededResources: ProcSet (FontSetInit)
%%EndComments
%%BeginProlog
80 dict begin
/s {stroke} def /l {lineto} def /m {moveto} def /t {translate} def
/r {rotate} def /rl {roll}  def /R {repeat} def
/d {rlineto} def /rm {rmoveto} def /gr {grestore} def /f {eofill} def
/c {setrgbcolor} def /black {0 setgray} def /sd {setdash} def
/cl {closepath} def /sf {scalefont setfont} def /lw {setlinewidth} def
/box {m dup 0 exch d exch 0 d 0 exch neg d cl} def
/NC{systemdict begin initclip end}def/C{NC box clip newpath}def
/bl {box s} def /bf {gsave box gsave f grestore 1 lw [] 0 sd s grestore} def /Y { 0 exch d} def /X { 0 d} def 
/K {{pop pop 0 moveto} exch kshow} bind def
/ita {/ang 15 def gsave [1 0 ang dup sin exch cos div 1 0 0] concat} def 
/mp {newpath /y exch def /x exch def} def
/side {[w .77 mul w .23 mul] .385 w mul sd w 0 l currentpoint t -144 r} def
/mr {mp x y w2 0 360 arc} def /m24 {mr s} def /m20 {mr f} def
/mb {mp x y w2 add m w2 neg 0 d 0 w neg d w 0 d 0 w d cl} def
/mt {mp x y w2 add m w2 neg w neg d w 0 d cl} def
/w4 {w 4 div} def
/w6 {w 6 div} def
/w8 {w 8 div} def
/m21 {mb f} def /m25 {mb s} def /m22 {mt f} def /m26{mt s} def
/m23 {mp x y w2 sub m w2 w d w neg 0 d cl f} def
/m27 {mp x y w2 add m w3 neg w2 neg d w3 w2 neg d w3 w2 d cl s} def
/m28 {mp x w2 sub y w2 sub w3 add m w3 0 d  0 w3 neg d w3 0 d 0 w3 d w3 0 d  0 w3 d w3 neg 0 d 0 w3 d w3 neg 0 d 0 w3 neg d w3 neg 0 d cl s } def
/m29 {mp gsave x w2 sub y w2 add w3 sub m currentpoint t 4 {side} repeat cl fill gr} def
/m30 {mp gsave x w2 sub y w2 add w3 sub m currentpoint t 4 {side} repeat cl s gr} def
/m31 {mp x y w2 sub m 0 w d x w2 sub y m w 0 d x w2 sub y w2 add m w w neg d x w2 sub y w2 sub m w w d s} def
/m32 {mp x y w2 sub m w2 w d w neg 0 d cl s} def
/m33 {mp x y w2 add m w3 neg w2 neg d w3 w2 neg d w3 w2 d cl f} def
/m34 {mp x w2 sub y w2 sub w3 add m w3 0 d  0 w3 neg d w3 0 d 0 w3 d w3 0 d  0 w3 d w3 neg 0 d 0 w3 d w3 neg 0 d 0 w3 neg d w3 neg 0 d cl f } def
/m35 {mp x y w2 add m w2 neg w2 neg d w2 w2 neg d w2 w2 d w2 neg w2 d x y w2 sub m 0 w d x w2 sub y m w 0 d s} def
/m36 {mb x w2 sub y w2 add m w w neg d x w2 sub y w2 sub m w w d s} def
/m37 {mp x y m w4 neg w2 d w4 neg w2 neg d w2 0 d  w4 neg w2 neg d w2 0 d w4 neg w2 d w2 0 d w4 neg w2 d w4 neg w2 neg d cl s} def
/m38 {mp x w4 sub y w2 add m w4 neg w4 neg d 0 w2 neg d w4 w4 neg d w2 0 d w4 w4 d 0 w2 d w4 neg w4 d w2 neg 0 d x y w2 sub m 0 w d x w2 sub y m w 0 d cl s} def
/m39 {mp x y m w4 neg w2 d w4 neg w2 neg d w2 0 d  w4 neg w2 neg d w2 0 d w4 neg w2 d w2 0 d w4 neg w2 d w4 neg w2 neg d cl f} def
/m40 {mp x y m w4 w2 d w4 w4 neg d w2 neg w4 neg d w2 w4 neg d w4 neg w4 neg d w4 neg w2 d w4 neg w2 neg d w4 neg w4 d w2 w4 d w2 neg w4 d w4 w4 d w4 w2 neg d cl s} def
/m41 {mp x y m w4 w2 d w4 w4 neg d w2 neg w4 neg d w2 w4 neg d w4 neg w4 neg d w4 neg w2 d w4 neg w2 neg d w4 neg w4 d w2 w4 d w2 neg w4 d w4 w4 d w4 w2 neg d cl f} def
/m42 {mp x y w2 add m w8 neg w2 -3 4 div mul d w2 -3 4 div mul w8 neg d w2 3 4 div mul w8 neg d w8 w2 -3 4 div mul d w8 w2 3 4 div mul d w2 3 4 div mul w8 d w2 -3 4 div mul w8 d w8 neg w2 3 4 div mul d cl s} def
/m43 {mp x y w2 add m w8 neg w2 -3 4 div mul d w2 -3 4 div mul w8 neg d w2 3 4 div mul w8 neg d w8 w2 -3 4 div mul d w8 w2 3 4 div mul d w2 3 4 div mul w8 d w2 -3 4 div mul w8 d w8 neg w2 3 4 div mul d cl f} def
/m44 {mp x y m w6 neg w2 d w2 2 3 div mul 0 d w6 neg w2 neg d w2 w6 d 0 w2 -2 3 div mul d w2 neg w6 d w6 w2 neg d w2 -2 3 div mul 0 d w6 w2 d w2 neg w6 neg d 0 w2 2 3 div mul d w2 w6 neg d cl s} def
/m45 {mp x y m w6 neg w2 d w2 2 3 div mul 0 d w6 neg w2 neg d w2 w6 d 0 w2 -2 3 div mul d w2 neg w6 d w6 w2 neg d w2 -2 3 div mul 0 d w6 w2 d w2 neg w6 neg d 0 w2 2 3 div mul d w2 w6 neg d cl f} def
/m46 {mp x y w4 add m w4 neg w4 d w4 neg w4 neg d  w4 w4 neg d w4 neg w4 neg d w4 w4 neg d w4 w4 d w4 w4 neg d w4 w4 d w4 neg w4 d w4 w4 d w4 neg w4 d w4 neg w4 neg d cl s} def
/m47 {mp x y w4 add m w4 neg w4 d w4 neg w4 neg d w4 w4 neg d w4 neg w4 neg d  w4 w4 neg d w4 w4 d w4 w4 neg d w4 w4 d w4 neg w4 d w4 w4 d w4 neg w4 d w4 neg w4 neg d cl f} def
/m48 {mp x y w4 add m w4 neg w4 d w4 neg w4 neg d w4 w4 neg d  w4 neg w4 neg d w4 w4 neg d w4 w4 d w4 w4 neg d w4 w4 d w4 neg w4 d w4 w4 d w4 neg w4 d w4 neg w4 neg d  w4 w4 neg d w4 neg w4 neg d w4 neg w4 d w4 w4 d cl f} def
/m49 {mp x w2 sub w3 add y w2 sub w3 add m  0 w3 neg d w3 0 d 0 w3 d w3 0 d 0 w3 d w3 neg 0 d 0 w3 d w3 neg 0 d 0 w3 neg d w3 neg 0 d 0 w3 neg d w3 0 d 0 w3 d w3 0 d 0 w3 neg d w3 neg 0 d cl f } def
/m2 {mp x y w2 sub m 0 w d x w2 sub y m w 0 d s} def
/m5 {mp x w2 sub y w2 sub m w w d x w2 sub y w2 add m w w neg d s} def
%%IncludeResource: ProcSet (FontSetInit)
%%IncludeResource: font Times-Roman
%%IncludeResource: font Times-Italic
%%IncludeResource: font Times-Bold
%%IncludeResource: font Times-BoldItalic
%%IncludeResource: font Helvetica
%%IncludeResource: font Helvetica-Oblique
%%IncludeResource: font Helvetica-Bold
%%IncludeResource: font Helvetica-BoldOblique
%%IncludeResource: font Courier
%%IncludeResource: font Courier-Oblique
%%IncludeResource: font Courier-Bold
%%IncludeResource: font Courier-BoldOblique
%%IncludeResource: font Symbol
%%IncludeResource: font ZapfDingbats
/reEncode {exch findfont dup length dict begin {1 index /FID eq  {pop pop} {def} ifelse } forall /Encoding exch def currentdict end dup /FontName get exch definefont pop } def [/Times-Bold /Times-Italic /Times-BoldItalic /Helvetica /Helvetica-Oblique
 /Helvetica-Bold /Helvetica-BoldOblique /Courier /Courier-Oblique /Courier-Bold /Courier-BoldOblique /Times-Roman /AvantGarde-Book /AvantGarde-BookOblique /AvantGarde-Demi /AvantGarde-DemiOblique /Bookman-Demi /Bookman-DemiItalic /Bookman-Light
 /Bookman-LightItalic /Helvetica-Narrow /Helvetica-Narrow-Bold /Helvetica-Narrow-BoldOblique /Helvetica-Narrow-Oblique /NewCenturySchlbk-Roman /NewCenturySchlbk-Bold /NewCenturySchlbk-BoldItalic /NewCenturySchlbk-Italic /Palatino-Bold
 /Palatino-BoldItalic /Palatino-Italic /Palatino-Roman ] {ISOLatin1Encoding reEncode } forall
%%EndProlog
%%BeginSetup
%%EndSetup
newpath  gsave  .25 .25 scale  gsave  0 0 t 0.490196 0.545098 0.615686 c[  ] 0 sd 3 lw 0.941176 0.941176 0.941176 c 2268 1182 0 0 bf 0.490196 0.545098 0.615686 c 0.941176 0.941176 0.941176 c 710 567 23 603 bf black 1 1 0.992157 c 548 429 143 685 bf
 black 548 429 143 685 bl 0 0 0.933333 c 6 lw 0.49 0.6 0.82 c black 3 lw 0.49 0.6 0.82 c 143 685 m 1 Y 14 X 26 Y 14 X 23 Y 14 X 15 Y 13 X 44 Y 14 X 46 Y 14 X 23 Y 13 X 64 Y 14 X 36 Y 14 X -70 Y 13 X 7 Y 14 X 6 Y 14 X 29 Y 13 X -20 Y 14 X -62 Y 14 X
 23 Y 13 X -19 Y 14 X -3 Y 14 X -46 Y 13 X -14 Y 14 X -1 Y 14 X -6 Y 13 X -35 Y 14 X -6 Y 14 X 6 Y 13 X -28 Y 14 X -1 Y 14 X -19 Y 13 X 12 Y 14 X -7 Y 14 X -10 Y 13 X 3 Y 14 X -8 Y 14 X -5 Y 14 X 2 Y 13 X -3 Y 14 X -3 Y 55 X f 6 lw 0 0 0.933333 c
 0.49 0.6 0.82 c 0 0 0.933333 c 143 686 m 14 X 26 Y 14 X 23 Y 14 X 15 Y 13 X 44 Y 14 X 46 Y 14 X 23 Y 13 X 64 Y 14 X 36 Y 14 X -70 Y 13 X 7 Y 14 X 6 Y 14 X 29 Y 13 X -20 Y 14 X -62 Y 14 X 23 Y 13 X -19 Y 14 X -3 Y 14 X -46 Y 13 X -14 Y 14 X -1 Y 14 X
 -6 Y 13 X -35 Y 14 X -6 Y 14 X 6 Y 13 X -28 Y 14 X -1 Y 14 X -19 Y 13 X 12 Y 14 X -7 Y 14 X -10 Y 13 X 3 Y 14 X -8 Y 14 X -5 Y 14 X 2 Y 13 X -3 Y 14 X -3 Y 55 X s black 3 lw 143 685 m 548 X s 189 698 m -13 Y s 201 691 m -6 Y s 212 691 m -6 Y s 223
 691 m -6 Y s 235 691 m -6 Y s 246 698 m -13 Y s 257 691 m -6 Y s 269 691 m -6 Y s 280 691 m -6 Y s 292 691 m -6 Y s 303 698 m -13 Y s 314 691 m -6 Y s 326 691 m -6 Y s 337 691 m -6 Y s 349 691 m -6 Y s 360 698 m -13 Y s 371 691 m -6 Y s 383 691 m -6
 Y s 394 691 m -6 Y s 405 691 m -6 Y s 417 698 m -13 Y s 428 691 m -6 Y s 440 691 m -6 Y s 451 691 m -6 Y s 462 691 m -6 Y s 474 698 m -13 Y s 485 691 m -6 Y s 496 691 m -6 Y s 508 691 m -6 Y s 519 691 m -6 Y s 531 698 m -13 Y s 542 691 m -6 Y s 553
 691 m -6 Y s 565 691 m -6 Y s 576 691 m -6 Y s 587 698 m -13 Y s 599 691 m -6 Y s 610 691 m -6 Y s 622 691 m -6 Y s 633 691 m -6 Y s 644 698 m -13 Y s 189 698 m -13 Y s 178 691 m -6 Y s 166 691 m -6 Y s 155 691 m -6 Y s 144 691 m -6 Y s 644 698 m
 -13 Y s 656 691 m -6 Y s 667 691 m -6 Y s 678 691 m -6 Y s 690 691 m -6 Y s
 gsave  710 567 23 603 C 176.189 656.444 t 0 r /Helvetica findfont 25.6631 sf 0 0 m (0.1) show NC gr 
 gsave  710 567 23 603 C 164.822 656.444 t 0 r /Symbol findfont 25.6631 sf 0 0 m (-) show NC gr 
 gsave  710 567 23 603 C 224.498 656.444 t 0 r /Helvetica findfont 25.6631 sf 0 0 m (0.05) show NC gr 
 gsave  710 567 23 603 C 213.131 656.444 t 0 r /Symbol findfont 25.6631 sf 0 0 m (-) show NC gr 
 gsave  710 567 23 603 C 292.7 656.444 t 0 r /Helvetica findfont 25.6631 sf 0 0 m (0) show NC gr 
 gsave  710 567 23 603 C 332.485 656.444 t 0 r /Helvetica findfont 25.6631 sf 0 0 m (0.05) show NC gr 
 gsave  710 567 23 603 C 397.845 656.444 t 0 r /Helvetica findfont 25.6631 sf 0 0 m (0.1) show NC gr 
 gsave  710 567 23 603 C 446.155 656.444 t 0 r /Helvetica findfont 25.6631 sf 0 0 m (0.15) show NC gr 
 gsave  710 567 23 603 C 511.515 656.444 t 0 r /Helvetica findfont 25.6631 sf 0 0 m (0.2) show NC gr 
 gsave  710 567 23 603 C 559.825 656.444 t 0 r /Helvetica findfont 25.6631 sf 0 0 m (0.25) show NC gr 
 gsave  710 567 23 603 C 625.185 656.444 t 0 r /Helvetica findfont 25.6631 sf 0 0 m (0.3) show NC gr 
 gsave  710 567 23 603 C 548.458 616.66 t 0 r /Helvetica findfont 28.5146 sf 0 0 m (yybb.HS_l2) show NC gr  143 1114 m 548 X s 189 1100 m 14 Y s 201 1107 m 7 Y s 212 1107 m 7 Y s 223 1107 m 7 Y s 235 1107 m 7 Y s 246 1100 m 14 Y s 257 1107 m 7 Y s
 269 1107 m 7 Y s 280 1107 m 7 Y s 292 1107 m 7 Y s 303 1100 m 14 Y s 314 1107 m 7 Y s 326 1107 m 7 Y s 337 1107 m 7 Y s 349 1107 m 7 Y s 360 1100 m 14 Y s 371 1107 m 7 Y s 383 1107 m 7 Y s 394 1107 m 7 Y s 405 1107 m 7 Y s 417 1100 m 14 Y s 428 1107
 m 7 Y s 440 1107 m 7 Y s 451 1107 m 7 Y s 462 1107 m 7 Y s 474 1100 m 14 Y s 485 1107 m 7 Y s 496 1107 m 7 Y s 508 1107 m 7 Y s 519 1107 m 7 Y s 531 1100 m 14 Y s 542 1107 m 7 Y s 553 1107 m 7 Y s 565 1107 m 7 Y s 576 1107 m 7 Y s 587 1100 m 14 Y s
 599 1107 m 7 Y s 610 1107 m 7 Y s 622 1107 m 7 Y s 633 1107 m 7 Y s 644 1100 m 14 Y s 189 1100 m 14 Y s 178 1107 m 7 Y s 166 1107 m 7 Y s 155 1107 m 7 Y s 144 1107 m 7 Y s 644 1100 m 14 Y s 656 1107 m 7 Y s 667 1107 m 7 Y s 678 1107 m 7 Y s 690 1107
 m 7 Y s 143 685 m 429 Y s 160 685 m -17 X s 152 694 m -9 X s 152 703 m -9 X s 152 712 m -9 X s 152 721 m -9 X s 160 730 m -17 X s 152 739 m -9 X s 152 748 m -9 X s 152 757 m -9 X s 152 766 m -9 X s 160 776 m -17 X s 152 785 m -9 X s 152 794 m -9 X s
 152 803 m -9 X s 152 812 m -9 X s 160 821 m -17 X s 152 830 m -9 X s 152 839 m -9 X s 152 848 m -9 X s 152 857 m -9 X s 160 866 m -17 X s 152 876 m -9 X s 152 885 m -9 X s 152 894 m -9 X s 152 903 m -9 X s 160 912 m -17 X s 152 921 m -9 X s 152 930
 m -9 X s 152 939 m -9 X s 152 948 m -9 X s 160 957 m -17 X s 152 966 m -9 X s 152 975 m -9 X s 152 985 m -9 X s 152 994 m -9 X s 160 1003 m -17 X s 152 1012 m -9 X s 152 1021 m -9 X s 152 1030 m -9 X s 152 1039 m -9 X s 160 1048 m -17 X s 152 1057 m
 -9 X s 152 1066 m -9 X s 152 1075 m -9 X s 152 1085 m -9 X s 160 1094 m -17 X s 160 1094 m -17 X s 152 1103 m -9 X s 152 1112 m -9 X s
 gsave  710 567 23 603 C 119.354 673.495 t 0 r /Helvetica findfont 25.6631 sf 0 0 m (0) show NC gr 
 gsave  710 567 23 603 C 122.195 718.963 t 0 r /Helvetica findfont 25.6631 sf 0 0 m (1) show NC gr 
 gsave  710 567 23 603 C 119.354 764.431 t 0 r /Helvetica findfont 25.6631 sf 0 0 m (2) show NC gr 
 gsave  710 567 23 603 C 119.354 809.899 t 0 r /Helvetica findfont 25.6631 sf 0 0 m (3) show NC gr 
 gsave  710 567 23 603 C 119.354 855.367 t 0 r /Helvetica findfont 25.6631 sf 0 0 m (4) show NC gr 
 gsave  710 567 23 603 C 119.354 900.835 t 0 r /Helvetica findfont 25.6631 sf 0 0 m (5) show NC gr 
 gsave  710 567 23 603 C 119.354 946.303 t 0 r /Helvetica findfont 25.6631 sf 0 0 m (6) show NC gr 
 gsave  710 567 23 603 C 119.354 991.771 t 0 r /Helvetica findfont 25.6631 sf 0 0 m (7) show NC gr 
 gsave  710 567 23 603 C 119.354 1037.24 t 0 r /Helvetica findfont 25.6631 sf 0 0 m (8) show NC gr 
 gsave  710 567 23 603 C 119.354 1082.71 t 0 r /Helvetica findfont 25.6631 sf 0 0 m (9) show NC gr 
 gsave  710 567 23 603 C 45.468 1037.24 t 90 r /Helvetica findfont 28.5146 sf 0 0 m (0.012 ) show NC gr 
 gsave  710 567 23 603 C 31.2593 1034.4 t 90 r /Helvetica findfont 19.9602 sf 0 0 m ( ) show NC gr 
 gsave  710 567 23 603 C 45.468 1023.03 t 90 r /Helvetica findfont 28.5146 sf 0 0 m (/) show NC gr 
 gsave  710 567 23 603 C 53.9933 1020.19 t 90 r /Helvetica findfont 19.9602 sf 0 0 m ( ) show NC gr 
 gsave  710 567 23 603 C 45.468 915.044 t 90 r /Helvetica findfont 28.5146 sf 0 0 m (\(1/N\) dN) show NC gr  691 685 m 429 Y s 674 685 m 17 X s 683 694 m 8 X s 683 703 m 8 X s 683 712 m 8 X s 683 721 m 8 X s 674 730 m 17 X s 683 739 m 8 X s 683 748 m
 8 X s 683 757 m 8 X s 683 766 m 8 X s 674 776 m 17 X s 683 785 m 8 X s 683 794 m 8 X s 683 803 m 8 X s 683 812 m 8 X s 674 821 m 17 X s 683 830 m 8 X s 683 839 m 8 X s 683 848 m 8 X s 683 857 m 8 X s 674 866 m 17 X s 683 876 m 8 X s 683 885 m 8 X s
 683 894 m 8 X s 683 903 m 8 X s 674 912 m 17 X s 683 921 m 8 X s 683 930 m 8 X s 683 939 m 8 X s 683 948 m 8 X s 674 957 m 17 X s 683 966 m 8 X s 683 975 m 8 X s 683 985 m 8 X s 683 994 m 8 X s 674 1003 m 17 X s 683 1012 m 8 X s 683 1021 m 8 X s 683
 1030 m 8 X s 683 1039 m 8 X s 674 1048 m 17 X s 683 1057 m 8 X s 683 1066 m 8 X s 683 1075 m 8 X s 683 1085 m 8 X s 674 1094 m 17 X s 674 1094 m 17 X s 683 1103 m 8 X s 683 1112 m 8 X s 0.490196 0.545098 0.615686 c 0.364706 0.419608 0.490196 c 369
 38 30 1130 bf 0.490196 0.545098 0.615686 c 30 1130 m 369 X s 399 1130 m 38 Y s 399 1168 m -369 X s 30 1168 m -38 Y s 1 1 1 c black 1 1 1 c
 gsave  710 567 23 603 C 34.101 1142.38 t 0 r /Helvetica-Bold findfont 28.5146 sf 0 0 m (Input variable: yybb.HS_l2) show NC gr  1 0 0 c 6 lw black 3 lw 1 0 0 c 677 685 m s 662 685 m s 647 685 m -1 X s 632 686 m -1 -1 d s 618 686 m -2 -1 d s 602 686
 m -1 -1 d s 595 693 m -9 -8 d s 595 709 m -14 -14 d s 580 693 m -9 -8 d s 582 711 m -1 -1 d s 560 688 m -4 -3 d s 554 698 m -13 -13 d s 554 713 m -28 -28 d s 554 728 m -14 -14 d s 526 700 m -15 -15 d s 541 730 m -1 -1 d s 526 716 m -30 -31 d s 526
 731 m -45 -46 d s 514 733 m -1 -1 d s 502 722 m -36 -37 d s 497 732 m -47 -47 d s 485 735 m -50 -50 d s 485 750 m -65 -65 d s 485 765 m -80 -80 d s 472 767 m -82 -82 d s 472 782 m -28 -28 d s 438 748 m -63 -63 d s 472 797 m -28 -27 d s 431 756 m -71
 -71 d s 472 812 m -14 -13 d s 458 798 m -14 -13 d s 430 770 m -85 -85 d s 472 827 m -14 -13 d s 417 772 m -87 -87 d s 458 829 m s 417 788 m -102 -103 d s 417 803 m -117 -118 d s 417 818 m -27 -28 d s 386 787 m -101 -102 d s 411 827 m -21 -21 d s 376
 792 m -106 -107 d s 403 835 m -13 -14 d s 375 806 m -120 -121 d s 403 850 m -13 -14 d s 355 801 m -116 -116 d s 403 865 m -13 -14 d s 349 810 m -125 -125 d s 402 879 m -12 -13 d s 349 825 m -140 -140 d s 349 840 m -155 -155 d s 349 855 m -170 -170 d
 s 349 871 m -178 -180 d s 170 690 m -6 -5 d s 349 886 m -164 -166 d s 183 719 m -12 -12 d s 149 685 m s 335 887 m -41 -41 d s 291 843 m -93 -94 d s 194 746 m -9 -10 d s 335 902 m -41 -41 d s 280 847 m -82 -82 d s 335 917 m -41 -41 d s 280 862 m -41
 -41 d s 230 812 m -18 -19 d s 335 933 m -41 -42 d s 280 878 m -41 -42 d s 219 816 m -7 -7 d s 335 948 m -14 -14 d s 312 925 m -18 -19 d s 280 893 m -27 -28 d s 335 963 m -14 -14 d s 297 924 m -3 -2 d s 280 908 m -27 -28 d s 335 978 m -14 -14 d s 280
 923 m -27 -27 d s 335 993 m -14 -13 d s 280 938 m -27 -27 d s 335 1009 m -14 -14 d s 280 953 m -13 -13 d s 265 939 m -12 -13 d s 335 1024 m -14 -14 d s 273 961 m -6 -6 d s 335 1039 m -14 -14 d s 335 1054 m -14 -14 d s 335 1069 m -14 -13 d s 325 1075
 m -4 -4 d s 6 lw 143 685 m 14 X 5 Y 14 X 29 Y 14 X 27 Y 13 X 32 Y 14 X 38 Y 14 X -4 Y 13 X 38 Y 14 X 89 Y 14 X 22 Y 13 X -118 Y 14 X 81 Y 14 X 1 Y 13 X 150 Y 14 X -188 Y 14 X -86 Y 13 X 5 Y 14 X -19 Y 14 X 92 Y 13 X -52 Y 14 X -57 Y 14 X -22 Y 13 X
 50 Y 14 X 31 Y 14 X -62 Y 13 X -35 Y 14 X -10 Y 14 X 11 Y 13 X -33 Y 14 X 30 Y 14 X -42 Y 13 X 5 Y 14 X 18 Y 14 X -25 Y 41 X -1 Y 55 X s black 3 lw 143 685 m 548 X s 189 698 m -13 Y s 201 691 m -6 Y s 212 691 m -6 Y s 223 691 m -6 Y s 235 691 m -6 Y
 s 246 698 m -13 Y s 257 691 m -6 Y s 269 691 m -6 Y s 280 691 m -6 Y s 292 691 m -6 Y s 303 698 m -13 Y s 314 691 m -6 Y s 326 691 m -6 Y s 337 691 m -6 Y s 349 691 m -6 Y s 360 698 m -13 Y s 371 691 m -6 Y s 383 691 m -6 Y s 394 691 m -6 Y s 405
 691 m -6 Y s 417 698 m -13 Y s 428 691 m -6 Y s 440 691 m -6 Y s 451 691 m -6 Y s 462 691 m -6 Y s 474 698 m -13 Y s 485 691 m -6 Y s 496 691 m -6 Y s 508 691 m -6 Y s 519 691 m -6 Y s 531 698 m -13 Y s 542 691 m -6 Y s 553 691 m -6 Y s 565 691 m -6
 Y s 576 691 m -6 Y s 587 698 m -13 Y s 599 691 m -6 Y s 610 691 m -6 Y s 622 691 m -6 Y s 633 691 m -6 Y s 644 698 m -13 Y s 189 698 m -13 Y s 178 691 m -6 Y s 166 691 m -6 Y s 155 691 m -6 Y s 144 691 m -6 Y s 644 698 m -13 Y s 656 691 m -6 Y s 667
 691 m -6 Y s 678 691 m -6 Y s 690 691 m -6 Y s 143 1114 m 548 X s 189 1100 m 14 Y s 201 1107 m 7 Y s 212 1107 m 7 Y s 223 1107 m 7 Y s 235 1107 m 7 Y s 246 1100 m 14 Y s 257 1107 m 7 Y s 269 1107 m 7 Y s 280 1107 m 7 Y s 292 1107 m 7 Y s 303 1100 m
 14 Y s 314 1107 m 7 Y s 326 1107 m 7 Y s 337 1107 m 7 Y s 349 1107 m 7 Y s 360 1100 m 14 Y s 371 1107 m 7 Y s 383 1107 m 7 Y s 394 1107 m 7 Y s 405 1107 m 7 Y s 417 1100 m 14 Y s 428 1107 m 7 Y s 440 1107 m 7 Y s 451 1107 m 7 Y s 462 1107 m 7 Y s
 474 1100 m 14 Y s 485 1107 m 7 Y s 496 1107 m 7 Y s 508 1107 m 7 Y s 519 1107 m 7 Y s 531 1100 m 14 Y s 542 1107 m 7 Y s 553 1107 m 7 Y s 565 1107 m 7 Y s 576 1107 m 7 Y s 587 1100 m 14 Y s 599 1107 m 7 Y s 610 1107 m 7 Y s 622 1107 m 7 Y s 633 1107
 m 7 Y s 644 1100 m 14 Y s 189 1100 m 14 Y s 178 1107 m 7 Y s 166 1107 m 7 Y s 155 1107 m 7 Y s 144 1107 m 7 Y s 644 1100 m 14 Y s 656 1107 m 7 Y s 667 1107 m 7 Y s 678 1107 m 7 Y s 690 1107 m 7 Y s 143 685 m 429 Y s 160 685 m -17 X s 152 694 m -9 X
 s 152 703 m -9 X s 152 712 m -9 X s 152 721 m -9 X s 160 730 m -17 X s 152 739 m -9 X s 152 748 m -9 X s 152 757 m -9 X s 152 766 m -9 X s 160 776 m -17 X s 152 785 m -9 X s 152 794 m -9 X s 152 803 m -9 X s 152 812 m -9 X s 160 821 m -17 X s 152
 830 m -9 X s 152 839 m -9 X s 152 848 m -9 X s 152 857 m -9 X s 160 866 m -17 X s 152 876 m -9 X s 152 885 m -9 X s 152 894 m -9 X s 152 903 m -9 X s 160 912 m -17 X s 152 921 m -9 X s 152 930 m -9 X s 152 939 m -9 X s 152 948 m -9 X s 160 957 m -17
 X s 152 966 m -9 X s 152 975 m -9 X s 152 985 m -9 X s 152 994 m -9 X s 160 1003 m -17 X s 152 1012 m -9 X s 152 1021 m -9 X s 152 1030 m -9 X s 152 1039 m -9 X s 160 1048 m -17 X s 152 1057 m -9 X s 152 1066 m -9 X s 152 1075 m -9 X s 152 1085 m -9
 X s 160 1094 m -17 X s 160 1094 m -17 X s 152 1103 m -9 X s 152 1112 m -9 X s 691 685 m 429 Y s 674 685 m 17 X s 683 694 m 8 X s 683 703 m 8 X s 683 712 m 8 X s 683 721 m 8 X s 674 730 m 17 X s 683 739 m 8 X s 683 748 m 8 X s 683 757 m 8 X s 683 766
 m 8 X s 674 776 m 17 X s 683 785 m 8 X s 683 794 m 8 X s 683 803 m 8 X s 683 812 m 8 X s 674 821 m 17 X s 683 830 m 8 X s 683 839 m 8 X s 683 848 m 8 X s 683 857 m 8 X s 674 866 m 17 X s 683 876 m 8 X s 683 885 m 8 X s 683 894 m 8 X s 683 903 m 8 X
 s 674 912 m 17 X s 683 921 m 8 X s 683 930 m 8 X s 683 939 m 8 X s 683 948 m 8 X s 674 957 m 17 X s 683 966 m 8 X s 683 975 m 8 X s 683 985 m 8 X s 683 994 m 8 X s 674 1003 m 17 X s 683 1012 m 8 X s 683 1021 m 8 X s 683 1030 m 8 X s 683 1039 m 8 X s
 674 1048 m 17 X s 683 1057 m 8 X s 683 1066 m 8 X s 683 1075 m 8 X s 683 1085 m 8 X s 674 1094 m 17 X s 674 1094 m 17 X s 683 1103 m 8 X s 683 1112 m 8 X s
 gsave  710 567 23 603 C 719.017 682.347 t 90 r /Helvetica-Bold findfont 19.9602 sf 0 0 m (U/O\255flow \(S,B\): \(0.0, 0.0\)% / \(0.0, 0.0\)%) show NC gr  0.490196 0.545098 0.615686 c 0.364706 0.419608 0.490196 c 369 38 30 1130 bf 0.490196 0.545098
 0.615686 c 30 1130 m 369 X s 399 1130 m 38 Y s 399 1168 m -369 X s 30 1168 m -38 Y s 1 1 1 c black 1 1 1 c
 gsave  710 567 23 603 C 34.101 1142.38 t 0 r /Helvetica-Bold findfont 28.5146 sf 0 0 m (Input variable: yybb.HS_l2) show NC gr  0.490196 0.545098 0.615686 c 0.941176 0.941176 0.941176 c 710 567 779 603 bf black 1 1 0.992157 c 548 429 899 685 bf
 black 548 429 899 685 bl 0 0 0.933333 c 6 lw 0.49 0.6 0.82 c black 3 lw 0.49 0.6 0.82 c 899 685 m 28 X 1 Y 27 X 3 Y 14 X 7 Y 13 X 20 Y 14 X 1 Y 14 X 72 Y 13 X 48 Y 14 X 67 Y 14 X 2 Y 14 X 66 Y 13 X 43 Y 14 X -9 Y 14 X -16 Y 13 X 44 Y 14 X -21 Y 14 X
 -20 Y 13 X -74 Y 14 X -73 Y 14 X 7 Y 13 X -58 Y 14 X -20 Y 14 X -27 Y 13 X -19 Y 14 X -15 Y 14 X -7 Y 13 X -5 Y 14 X -9 Y 14 X 3 Y 13 X -8 Y 14 X -2 Y 14 X -1 Y 13 X 5 Y 14 X -5 Y 27 X 1 Y 14 X -1 Y 28 X f 6 lw 0 0 0.933333 c 0.49 0.6 0.82 c 0 0
 0.933333 c 899 685 m 28 X 1 Y 27 X 3 Y 14 X 7 Y 13 X 20 Y 14 X 1 Y 14 X 72 Y 13 X 48 Y 14 X 67 Y 14 X 2 Y 14 X 66 Y 13 X 43 Y 14 X -9 Y 14 X -16 Y 13 X 44 Y 14 X -21 Y 14 X -20 Y 13 X -74 Y 14 X -73 Y 14 X 7 Y 13 X -58 Y 14 X -20 Y 14 X -27 Y 13 X
 -19 Y 14 X -15 Y 14 X -7 Y 13 X -5 Y 14 X -9 Y 14 X 3 Y 13 X -8 Y 14 X -2 Y 14 X -1 Y 13 X 5 Y 14 X -5 Y 27 X 1 Y 14 X -1 Y 28 X s black 3 lw 899 685 m 548 X s 916 698 m -13 Y s 927 691 m -6 Y s 938 691 m -6 Y s 949 691 m -6 Y s 960 691 m -6 Y s 971
 698 m -13 Y s 983 691 m -6 Y s 994 691 m -6 Y s 1005 691 m -6 Y s 1016 691 m -6 Y s 1027 698 m -13 Y s 1038 691 m -6 Y s 1049 691 m -6 Y s 1060 691 m -6 Y s 1071 691 m -6 Y s 1082 698 m -13 Y s 1093 691 m -6 Y s 1104 691 m -6 Y s 1115 691 m -6 Y s
 1126 691 m -6 Y s 1137 698 m -13 Y s 1148 691 m -6 Y s 1159 691 m -6 Y s 1170 691 m -6 Y s 1181 691 m -6 Y s 1192 698 m -13 Y s 1203 691 m -6 Y s 1214 691 m -6 Y s 1225 691 m -6 Y s 1236 691 m -6 Y s 1247 698 m -13 Y s 1258 691 m -6 Y s 1269 691 m
 -6 Y s 1280 691 m -6 Y s 1291 691 m -6 Y s 1302 698 m -13 Y s 1313 691 m -6 Y s 1324 691 m -6 Y s 1335 691 m -6 Y s 1346 691 m -6 Y s 1357 698 m -13 Y s 1369 691 m -6 Y s 1380 691 m -6 Y s 1391 691 m -6 Y s 1402 691 m -6 Y s 1413 698 m -13 Y s 916
 698 m -13 Y s 905 691 m -6 Y s 1413 698 m -13 Y s 1424 691 m -6 Y s 1435 691 m -6 Y s 1446 691 m -6 Y s
 gsave  710 567 779 603 C 903.677 656.444 t 0 r /Helvetica findfont 25.6631 sf 0 0 m (0.2) show NC gr 
 gsave  710 567 779 603 C 889.468 656.444 t 0 r /Symbol findfont 25.6631 sf 0 0 m (-) show NC gr 
 gsave  710 567 779 603 C 949.145 656.444 t 0 r /Helvetica findfont 25.6631 sf 0 0 m (0.15) show NC gr 
 gsave  710 567 779 603 C 937.778 656.444 t 0 r /Symbol findfont 25.6631 sf 0 0 m (-) show NC gr 
 gsave  710 567 779 603 C 1014.5 656.444 t 0 r /Helvetica findfont 25.6631 sf 0 0 m (0.1) show NC gr 
 gsave  710 567 779 603 C 1003.14 656.444 t 0 r /Symbol findfont 25.6631 sf 0 0 m (-) show NC gr 
 gsave  710 567 779 603 C 1059.97 656.444 t 0 r /Helvetica findfont 25.6631 sf 0 0 m (0.05) show NC gr 
 gsave  710 567 779 603 C 1048.61 656.444 t 0 r /Symbol findfont 25.6631 sf 0 0 m (-) show NC gr 
 gsave  710 567 779 603 C 1128.17 656.444 t 0 r /Helvetica findfont 25.6631 sf 0 0 m (0) show NC gr 
 gsave  710 567 779 603 C 1165.12 656.444 t 0 r /Helvetica findfont 25.6631 sf 0 0 m (0.05) show NC gr 
 gsave  710 567 779 603 C 1227.64 656.444 t 0 r /Helvetica findfont 25.6631 sf 0 0 m (0.1) show NC gr 
 gsave  710 567 779 603 C 1275.95 656.444 t 0 r /Helvetica findfont 25.6631 sf 0 0 m (0.15) show NC gr 
 gsave  710 567 779 603 C 1338.46 656.444 t 0 r /Helvetica findfont 25.6631 sf 0 0 m (0.2) show NC gr 
 gsave  710 567 779 603 C 1386.77 656.444 t 0 r /Helvetica findfont 25.6631 sf 0 0 m (0.25) show NC gr 
 gsave  710 567 779 603 C 1304.36 616.66 t 0 r /Helvetica findfont 28.5146 sf 0 0 m (yybb.HS_l3) show NC gr  899 1114 m 548 X s 916 1100 m 14 Y s 927 1107 m 7 Y s 938 1107 m 7 Y s 949 1107 m 7 Y s 960 1107 m 7 Y s 971 1100 m 14 Y s 983 1107 m 7 Y s
 994 1107 m 7 Y s 1005 1107 m 7 Y s 1016 1107 m 7 Y s 1027 1100 m 14 Y s 1038 1107 m 7 Y s 1049 1107 m 7 Y s 1060 1107 m 7 Y s 1071 1107 m 7 Y s 1082 1100 m 14 Y s 1093 1107 m 7 Y s 1104 1107 m 7 Y s 1115 1107 m 7 Y s 1126 1107 m 7 Y s 1137 1100 m 14
 Y s 1148 1107 m 7 Y s 1159 1107 m 7 Y s 1170 1107 m 7 Y s 1181 1107 m 7 Y s 1192 1100 m 14 Y s 1203 1107 m 7 Y s 1214 1107 m 7 Y s 1225 1107 m 7 Y s 1236 1107 m 7 Y s 1247 1100 m 14 Y s 1258 1107 m 7 Y s 1269 1107 m 7 Y s 1280 1107 m 7 Y s 1291 1107
 m 7 Y s 1302 1100 m 14 Y s 1313 1107 m 7 Y s 1324 1107 m 7 Y s 1335 1107 m 7 Y s 1346 1107 m 7 Y s 1357 1100 m 14 Y s 1369 1107 m 7 Y s 1380 1107 m 7 Y s 1391 1107 m 7 Y s 1402 1107 m 7 Y s 1413 1100 m 14 Y s 916 1100 m 14 Y s 905 1107 m 7 Y s 1413
 1100 m 14 Y s 1424 1107 m 7 Y s 1435 1107 m 7 Y s 1446 1107 m 7 Y s 899 685 m 429 Y s 915 685 m -16 X s 907 695 m -8 X s 907 704 m -8 X s 907 714 m -8 X s 907 724 m -8 X s 915 734 m -16 X s 907 744 m -8 X s 907 754 m -8 X s 907 764 m -8 X s 907 774
 m -8 X s 915 783 m -16 X s 907 793 m -8 X s 907 803 m -8 X s 907 813 m -8 X s 907 823 m -8 X s 915 833 m -16 X s 907 843 m -8 X s 907 853 m -8 X s 907 863 m -8 X s 907 872 m -8 X s 915 882 m -16 X s 907 892 m -8 X s 907 902 m -8 X s 907 912 m -8 X s
 907 922 m -8 X s 915 932 m -16 X s 907 942 m -8 X s 907 952 m -8 X s 907 961 m -8 X s 907 971 m -8 X s 915 981 m -16 X s 907 991 m -8 X s 907 1001 m -8 X s 907 1011 m -8 X s 907 1021 m -8 X s 915 1031 m -16 X s 907 1041 m -8 X s 907 1050 m -8 X s
 907 1060 m -8 X s 907 1070 m -8 X s 915 1080 m -16 X s 915 1080 m -16 X s 907 1090 m -8 X s 907 1100 m -8 X s 907 1110 m -8 X s
 gsave  710 567 779 603 C 875.259 673.495 t 0 r /Helvetica findfont 25.6631 sf 0 0 m (0) show NC gr 
 gsave  710 567 779 603 C 878.101 724.646 t 0 r /Helvetica findfont 25.6631 sf 0 0 m (1) show NC gr 
 gsave  710 567 779 603 C 875.259 772.956 t 0 r /Helvetica findfont 25.6631 sf 0 0 m (2) show NC gr 
 gsave  710 567 779 603 C 875.259 824.108 t 0 r /Helvetica findfont 25.6631 sf 0 0 m (3) show NC gr 
 gsave  710 567 779 603 C 875.259 872.417 t 0 r /Helvetica findfont 25.6631 sf 0 0 m (4) show NC gr 
 gsave  710 567 779 603 C 875.259 920.727 t 0 r /Helvetica findfont 25.6631 sf 0 0 m (5) show NC gr 
 gsave  710 567 779 603 C 875.259 971.879 t 0 r /Helvetica findfont 25.6631 sf 0 0 m (6) show NC gr 
 gsave  710 567 779 603 C 875.259 1020.19 t 0 r /Helvetica findfont 25.6631 sf 0 0 m (7) show NC gr 
 gsave  710 567 779 603 C 875.259 1071.34 t 0 r /Helvetica findfont 25.6631 sf 0 0 m (8) show NC gr 
 gsave  710 567 779 603 C 801.374 1023.03 t 90 r /Helvetica findfont 28.5146 sf 0 0 m (0.0124 ) show NC gr 
 gsave  710 567 779 603 C 787.165 1020.19 t 90 r /Helvetica findfont 19.9602 sf 0 0 m ( ) show NC gr 
 gsave  710 567 779 603 C 801.374 1008.82 t 90 r /Helvetica findfont 28.5146 sf 0 0 m (/) show NC gr 
 gsave  710 567 779 603 C 809.899 1005.98 t 90 r /Helvetica findfont 19.9602 sf 0 0 m ( ) show NC gr 
 gsave  710 567 779 603 C 801.374 900.835 t 90 r /Helvetica findfont 28.5146 sf 0 0 m (\(1/N\) dN) show NC gr  1447 685 m 429 Y s 1430 685 m 17 X s 1438 695 m 9 X s 1438 704 m 9 X s 1438 714 m 9 X s 1438 724 m 9 X s 1430 734 m 17 X s 1438 744 m 9 X s
 1438 754 m 9 X s 1438 764 m 9 X s 1438 774 m 9 X s 1430 783 m 17 X s 1438 793 m 9 X s 1438 803 m 9 X s 1438 813 m 9 X s 1438 823 m 9 X s 1430 833 m 17 X s 1438 843 m 9 X s 1438 853 m 9 X s 1438 863 m 9 X s 1438 872 m 9 X s 1430 882 m 17 X s 1438 892
 m 9 X s 1438 902 m 9 X s 1438 912 m 9 X s 1438 922 m 9 X s 1430 932 m 17 X s 1438 942 m 9 X s 1438 952 m 9 X s 1438 961 m 9 X s 1438 971 m 9 X s 1430 981 m 17 X s 1438 991 m 9 X s 1438 1001 m 9 X s 1438 1011 m 9 X s 1438 1021 m 9 X s 1430 1031 m 17
 X s 1438 1041 m 9 X s 1438 1050 m 9 X s 1438 1060 m 9 X s 1438 1070 m 9 X s 1430 1080 m 17 X s 1430 1080 m 17 X s 1438 1090 m 9 X s 1438 1100 m 9 X s 1438 1110 m 9 X s 0.490196 0.545098 0.615686 c 0.364706 0.419608 0.490196 c 369 38 786 1130 bf
 0.490196 0.545098 0.615686 c 786 1130 m 369 X s 1155 1130 m 38 Y s 1155 1168 m -369 X s 786 1168 m -38 Y s 1 1 1 c black 1 1 1 c
 gsave  710 567 779 603 C 790.007 1142.38 t 0 r /Helvetica-Bold findfont 28.5146 sf 0 0 m (Input variable: yybb.HS_l3) show NC gr  1 0 0 c 6 lw black 3 lw 1 0 0 c 1432 685 m cl s 1417 685 m s 1402 685 m s 1387 685 m s 1372 685 m s 1358 685 m -1 X s
 1345 688 m -3 -3 d s 1328 686 m -1 -1 d s 1323 696 m -11 -11 d s 1322 710 m -12 -12 d s 1304 692 m -7 -7 d s 1284 687 m -2 -2 d s 1282 700 m -15 -15 d s 1272 705 m -20 -20 d s 1269 717 m -32 -32 d s 1269 732 m -48 -47 d s 1269 747 m -63 -62 d s 1269
 763 m -78 -78 d s 1269 778 m -93 -93 d s 1269 793 m -14 -14 d s 1255 779 m -94 -94 d s 1269 808 m -14 -14 d s 1241 781 m -95 -96 d s 1269 823 m -14 -13 d s 1241 796 m -110 -111 d s 1269 838 m -14 -13 d s 1241 811 m -125 -126 d s 1269 854 m -14 -14 d
 s 1241 826 m -41 -41 d s 1188 773 m -87 -88 d s 1263 863 m -8 -8 d s 1241 841 m -27 -27 d s 1210 810 m -10 -10 d s 1187 786 m -101 -101 d s 1238 853 m -24 -24 d s 1187 801 m -116 -116 d s 1228 858 m -14 -14 d s 1187 817 m -131 -132 d s 1215 860 m -1
 -1 d s 1187 832 m -146 -147 d s 1187 847 m -161 -162 d s 1187 862 m -177 -177 d s 1187 877 m -192 -192 d s 1187 892 m -192 -192 d s 983 688 m -3 -3 d s 1187 908 m -28 -28 d s 1151 872 m -156 -157 d s 975 695 m -7 -8 d s 966 685 m -1 X s 1187 923 m
 -28 -28 d s 1146 881 m -96 -96 d s 1039 774 m -17 -17 d s 1014 749 m -5 -5 d s 950 685 m s 1187 938 m -14 -14 d s 1163 914 m -4 -4 d s 1146 897 m -96 -97 d s 1036 786 m -14 -13 d s 935 685 m s 1187 953 m -14 -14 d s 1146 912 m -96 -97 d s 1036 802 m
 -14 -14 d s 920 685 m s 1187 968 m -14 -13 d s 1146 927 m -14 -14 d s 1121 902 m -71 -71 d s 1028 809 m -6 -6 d s 905 685 m cl s 1174 971 m -1 -1 d s 1146 942 m -14 -14 d s 1118 915 m -68 -69 d s 1146 957 m -14 -13 d s 1118 930 m -41 -41 d s 1066
 877 m -16 -16 d s 1146 973 m -14 -14 d s 1118 945 m -41 -41 d s 1064 890 m -14 -14 d s 1146 988 m -14 -14 d s 1118 960 m -41 -41 d s 1064 905 m -14 -14 d s 1146 1003 m -14 -14 d s 1118 975 m -41 -41 d s 1064 920 m -14 -14 d s 1145 1018 m -13 -14 d s
 1118 991 m -27 -28 d s 1083 955 m -6 -6 d s 1064 935 m -14 -13 d s 1118 1006 m -27 -28 d s 1064 951 m -14 -14 d s 1118 1021 m -13 -14 d s 1095 998 m -4 -5 d s 1064 966 m -14 -14 d s 1064 981 m -14 -14 d s 1064 996 m -14 -14 d s 1064 1011 m -14 -13 d
 s 1064 1027 m -14 -14 d s 1064 1042 m -14 -14 d s 1064 1057 m -14 -14 d s 1064 1072 m -14 -14 d s 1051 1075 m -1 -1 d s 6 lw 899 685 m 69 X 10 Y 13 X -7 Y 14 X 42 Y 14 X 19 Y 13 X 60 Y 14 X -35 Y 14 X 301 Y 14 X -198 Y 13 X 78 Y 14 X 43 Y 14 X 23 Y
 13 X -119 Y 14 X 116 Y 14 X -146 Y 13 X 42 Y 14 X 57 Y 14 X -198 Y 13 X 37 Y 14 X 50 Y 14 X -7 Y 13 X -74 Y 14 X 84 Y 14 X -158 Y 13 X -18 Y 14 X 5 Y 14 X 18 Y 13 X -24 Y 14 X 2 Y 14 X -3 Y 96 X s black 3 lw 899 685 m 548 X s 916 698 m -13 Y s 927
 691 m -6 Y s 938 691 m -6 Y s 949 691 m -6 Y s 960 691 m -6 Y s 971 698 m -13 Y s 983 691 m -6 Y s 994 691 m -6 Y s 1005 691 m -6 Y s 1016 691 m -6 Y s 1027 698 m -13 Y s 1038 691 m -6 Y s 1049 691 m -6 Y s 1060 691 m -6 Y s 1071 691 m -6 Y s 1082
 698 m -13 Y s 1093 691 m -6 Y s 1104 691 m -6 Y s 1115 691 m -6 Y s 1126 691 m -6 Y s 1137 698 m -13 Y s 1148 691 m -6 Y s 1159 691 m -6 Y s 1170 691 m -6 Y s 1181 691 m -6 Y s 1192 698 m -13 Y s 1203 691 m -6 Y s 1214 691 m -6 Y s 1225 691 m -6 Y s
 1236 691 m -6 Y s 1247 698 m -13 Y s 1258 691 m -6 Y s 1269 691 m -6 Y s 1280 691 m -6 Y s 1291 691 m -6 Y s 1302 698 m -13 Y s 1313 691 m -6 Y s 1324 691 m -6 Y s 1335 691 m -6 Y s 1346 691 m -6 Y s 1357 698 m -13 Y s 1369 691 m -6 Y s 1380 691 m
 -6 Y s 1391 691 m -6 Y s 1402 691 m -6 Y s 1413 698 m -13 Y s 916 698 m -13 Y s 905 691 m -6 Y s 1413 698 m -13 Y s 1424 691 m -6 Y s 1435 691 m -6 Y s 1446 691 m -6 Y s 899 1114 m 548 X s 916 1100 m 14 Y s 927 1107 m 7 Y s 938 1107 m 7 Y s 949 1107
 m 7 Y s 960 1107 m 7 Y s 971 1100 m 14 Y s 983 1107 m 7 Y s 994 1107 m 7 Y s 1005 1107 m 7 Y s 1016 1107 m 7 Y s 1027 1100 m 14 Y s 1038 1107 m 7 Y s 1049 1107 m 7 Y s 1060 1107 m 7 Y s 1071 1107 m 7 Y s 1082 1100 m 14 Y s 1093 1107 m 7 Y s 1104
 1107 m 7 Y s 1115 1107 m 7 Y s 1126 1107 m 7 Y s 1137 1100 m 14 Y s 1148 1107 m 7 Y s 1159 1107 m 7 Y s 1170 1107 m 7 Y s 1181 1107 m 7 Y s 1192 1100 m 14 Y s 1203 1107 m 7 Y s 1214 1107 m 7 Y s 1225 1107 m 7 Y s 1236 1107 m 7 Y s 1247 1100 m 14 Y s
 1258 1107 m 7 Y s 1269 1107 m 7 Y s 1280 1107 m 7 Y s 1291 1107 m 7 Y s 1302 1100 m 14 Y s 1313 1107 m 7 Y s 1324 1107 m 7 Y s 1335 1107 m 7 Y s 1346 1107 m 7 Y s 1357 1100 m 14 Y s 1369 1107 m 7 Y s 1380 1107 m 7 Y s 1391 1107 m 7 Y s 1402 1107 m 7
 Y s 1413 1100 m 14 Y s 916 1100 m 14 Y s 905 1107 m 7 Y s 1413 1100 m 14 Y s 1424 1107 m 7 Y s 1435 1107 m 7 Y s 1446 1107 m 7 Y s 899 685 m 429 Y s 915 685 m -16 X s 907 695 m -8 X s 907 704 m -8 X s 907 714 m -8 X s 907 724 m -8 X s 915 734 m -16
 X s 907 744 m -8 X s 907 754 m -8 X s 907 764 m -8 X s 907 774 m -8 X s 915 783 m -16 X s 907 793 m -8 X s 907 803 m -8 X s 907 813 m -8 X s 907 823 m -8 X s 915 833 m -16 X s 907 843 m -8 X s 907 853 m -8 X s 907 863 m -8 X s 907 872 m -8 X s 915
 882 m -16 X s 907 892 m -8 X s 907 902 m -8 X s 907 912 m -8 X s 907 922 m -8 X s 915 932 m -16 X s 907 942 m -8 X s 907 952 m -8 X s 907 961 m -8 X s 907 971 m -8 X s 915 981 m -16 X s 907 991 m -8 X s 907 1001 m -8 X s 907 1011 m -8 X s 907 1021 m
 -8 X s 915 1031 m -16 X s 907 1041 m -8 X s 907 1050 m -8 X s 907 1060 m -8 X s 907 1070 m -8 X s 915 1080 m -16 X s 915 1080 m -16 X s 907 1090 m -8 X s 907 1100 m -8 X s 907 1110 m -8 X s 1447 685 m 429 Y s 1430 685 m 17 X s 1438 695 m 9 X s 1438
 704 m 9 X s 1438 714 m 9 X s 1438 724 m 9 X s 1430 734 m 17 X s 1438 744 m 9 X s 1438 754 m 9 X s 1438 764 m 9 X s 1438 774 m 9 X s 1430 783 m 17 X s 1438 793 m 9 X s 1438 803 m 9 X s 1438 813 m 9 X s 1438 823 m 9 X s 1430 833 m 17 X s 1438 843 m 9
 X s 1438 853 m 9 X s 1438 863 m 9 X s 1438 872 m 9 X s 1430 882 m 17 X s 1438 892 m 9 X s 1438 902 m 9 X s 1438 912 m 9 X s 1438 922 m 9 X s 1430 932 m 17 X s 1438 942 m 9 X s 1438 952 m 9 X s 1438 961 m 9 X s 1438 971 m 9 X s 1430 981 m 17 X s 1438
 991 m 9 X s 1438 1001 m 9 X s 1438 1011 m 9 X s 1438 1021 m 9 X s 1430 1031 m 17 X s 1438 1041 m 9 X s 1438 1050 m 9 X s 1438 1060 m 9 X s 1438 1070 m 9 X s 1430 1080 m 17 X s 1430 1080 m 17 X s 1438 1090 m 9 X s 1438 1100 m 9 X s 1438 1110 m 9 X s
 gsave  710 567 779 603 C 1474.92 682.347 t 90 r /Helvetica-Bold findfont 19.9602 sf 0 0 m (U/O\255flow \(S,B\): \(0.0, 0.0\)% / \(0.0, 0.0\)%) show NC gr  0.490196 0.545098 0.615686 c 0.364706 0.419608 0.490196 c 369 38 786 1130 bf 0.490196 0.545098
 0.615686 c 786 1130 m 369 X s 1155 1130 m 38 Y s 1155 1168 m -369 X s 786 1168 m -38 Y s 1 1 1 c black 1 1 1 c
 gsave  710 567 779 603 C 790.007 1142.38 t 0 r /Helvetica-Bold findfont 28.5146 sf 0 0 m (Input variable: yybb.HS_l3) show NC gr  0.490196 0.545098 0.615686 c 0.941176 0.941176 0.941176 c 711 567 1534 603 bf black 1 1 0.992157 c 547 429 1655 685 bf
 black 547 429 1655 685 bl 0 0 0.933333 c 6 lw 0.49 0.6 0.82 c black 3 lw 0.49 0.6 0.82 c 1655 685 m 3 Y 14 X 4 Y 14 X 38 Y 13 X 9 Y 14 X 33 Y 14 X 70 Y 13 X 13 Y 14 X 60 Y 14 X 56 Y 13 X 57 Y 14 X -80 Y 14 X -4 Y 13 X -61 Y 14 X 62 Y 14 X -96 Y 13 X
 -16 Y 14 X -34 Y 14 X 3 Y 13 X -19 Y 14 X -18 Y 14 X -31 Y 14 X -22 Y 13 X 3 Y 14 X 1 Y 14 X -14 Y 13 X -3 Y 14 X -2 Y 14 X -1 Y 13 X -8 Y 41 X -2 Y 14 X -1 Y 14 X 1 Y 13 X -1 Y 82 X f 6 lw 0 0 0.933333 c 0.49 0.6 0.82 c 0 0 0.933333 c 1655 688 m 14
 X 4 Y 14 X 38 Y 13 X 9 Y 14 X 33 Y 14 X 70 Y 13 X 13 Y 14 X 60 Y 14 X 56 Y 13 X 57 Y 14 X -80 Y 14 X -4 Y 13 X -61 Y 14 X 62 Y 14 X -96 Y 13 X -16 Y 14 X -34 Y 14 X 3 Y 13 X -19 Y 14 X -18 Y 14 X -31 Y 14 X -22 Y 13 X 3 Y 14 X 1 Y 14 X -14 Y 13 X -3
 Y 14 X -2 Y 14 X -1 Y 13 X -8 Y 41 X -2 Y 14 X -1 Y 14 X 1 Y 13 X -1 Y 82 X s black 3 lw 1655 685 m 547 X s 1692 698 m -13 Y s 1706 691 m -6 Y s 1720 691 m -6 Y s 1733 691 m -6 Y s 1747 691 m -6 Y s 1760 698 m -13 Y s 1774 691 m -6 Y s 1788 691 m -6
 Y s 1801 691 m -6 Y s 1815 691 m -6 Y s 1828 698 m -13 Y s 1842 691 m -6 Y s 1855 691 m -6 Y s 1869 691 m -6 Y s 1883 691 m -6 Y s 1896 698 m -13 Y s 1910 691 m -6 Y s 1923 691 m -6 Y s 1937 691 m -6 Y s 1951 691 m -6 Y s 1964 698 m -13 Y s 1978 691
 m -6 Y s 1991 691 m -6 Y s 2005 691 m -6 Y s 2018 691 m -6 Y s 2032 698 m -13 Y s 2046 691 m -6 Y s 2059 691 m -6 Y s 2073 691 m -6 Y s 2086 691 m -6 Y s 2100 698 m -13 Y s 2114 691 m -6 Y s 2127 691 m -6 Y s 2141 691 m -6 Y s 2154 691 m -6 Y s 2168
 698 m -13 Y s 1692 698 m -13 Y s 1679 691 m -6 Y s 1665 691 m -6 Y s 2168 698 m -13 Y s 2182 691 m -6 Y s 2195 691 m -6 Y s
 gsave  711 567 1534 603 C 1679.47 656.444 t 0 r /Helvetica findfont 25.6631 sf 0 0 m (0.1) show NC gr 
 gsave  711 567 1534 603 C 1668.11 656.444 t 0 r /Symbol findfont 25.6631 sf 0 0 m (-) show NC gr 
 gsave  711 567 1534 603 C 1739.15 656.444 t 0 r /Helvetica findfont 25.6631 sf 0 0 m (0.05) show NC gr 
 gsave  711 567 1534 603 C 1727.78 656.444 t 0 r /Symbol findfont 25.6631 sf 0 0 m (-) show NC gr 
 gsave  711 567 1534 603 C 1818.72 656.444 t 0 r /Helvetica findfont 25.6631 sf 0 0 m (0) show NC gr 
 gsave  711 567 1534 603 C 1869.87 656.444 t 0 r /Helvetica findfont 25.6631 sf 0 0 m (0.05) show NC gr 
 gsave  711 567 1534 603 C 1946.6 656.444 t 0 r /Helvetica findfont 25.6631 sf 0 0 m (0.1) show NC gr 
 gsave  711 567 1534 603 C 2006.28 656.444 t 0 r /Helvetica findfont 25.6631 sf 0 0 m (0.15) show NC gr 
 gsave  711 567 1534 603 C 2080.16 656.444 t 0 r /Helvetica findfont 25.6631 sf 0 0 m (0.2) show NC gr 
 gsave  711 567 1534 603 C 2139.84 656.444 t 0 r /Helvetica findfont 25.6631 sf 0 0 m (0.25) show NC gr 
 gsave  711 567 1534 603 C 2057.43 616.66 t 0 r /Helvetica findfont 28.5146 sf 0 0 m (yybb.HS_l4) show NC gr  1655 1114 m 547 X s 1692 1100 m 14 Y s 1706 1107 m 7 Y s 1720 1107 m 7 Y s 1733 1107 m 7 Y s 1747 1107 m 7 Y s 1760 1100 m 14 Y s 1774 1107
 m 7 Y s 1788 1107 m 7 Y s 1801 1107 m 7 Y s 1815 1107 m 7 Y s 1828 1100 m 14 Y s 1842 1107 m 7 Y s 1855 1107 m 7 Y s 1869 1107 m 7 Y s 1883 1107 m 7 Y s 1896 1100 m 14 Y s 1910 1107 m 7 Y s 1923 1107 m 7 Y s 1937 1107 m 7 Y s 1951 1107 m 7 Y s 1964
 1100 m 14 Y s 1978 1107 m 7 Y s 1991 1107 m 7 Y s 2005 1107 m 7 Y s 2018 1107 m 7 Y s 2032 1100 m 14 Y s 2046 1107 m 7 Y s 2059 1107 m 7 Y s 2073 1107 m 7 Y s 2086 1107 m 7 Y s 2100 1100 m 14 Y s 2114 1107 m 7 Y s 2127 1107 m 7 Y s 2141 1107 m 7 Y s
 2154 1107 m 7 Y s 2168 1100 m 14 Y s 1692 1100 m 14 Y s 1679 1107 m 7 Y s 1665 1107 m 7 Y s 2168 1100 m 14 Y s 2182 1107 m 7 Y s 2195 1107 m 7 Y s 1655 685 m 429 Y s 1671 685 m -16 X s 1663 701 m -8 X s 1663 718 m -8 X s 1663 734 m -8 X s 1671 751 m
 -16 X s 1663 768 m -8 X s 1663 784 m -8 X s 1663 801 m -8 X s 1671 818 m -16 X s 1663 834 m -8 X s 1663 851 m -8 X s 1663 867 m -8 X s 1671 884 m -16 X s 1663 901 m -8 X s 1663 917 m -8 X s 1663 934 m -8 X s 1671 950 m -16 X s 1663 967 m -8 X s 1663
 984 m -8 X s 1663 1000 m -8 X s 1671 1017 m -16 X s 1663 1033 m -8 X s 1663 1050 m -8 X s 1663 1067 m -8 X s 1671 1083 m -16 X s 1671 1083 m -16 X s 1663 1100 m -8 X s
 gsave  711 567 1534 603 C 1631.16 673.495 t 0 r /Helvetica findfont 25.6631 sf 0 0 m (0) show NC gr 
 gsave  711 567 1534 603 C 1631.16 741.697 t 0 r /Helvetica findfont 25.6631 sf 0 0 m (2) show NC gr 
 gsave  711 567 1534 603 C 1631.16 807.057 t 0 r /Helvetica findfont 25.6631 sf 0 0 m (4) show NC gr 
 gsave  711 567 1534 603 C 1631.16 875.259 t 0 r /Helvetica findfont 25.6631 sf 0 0 m (6) show NC gr 
 gsave  711 567 1534 603 C 1631.16 940.619 t 0 r /Helvetica findfont 25.6631 sf 0 0 m (8) show NC gr 
 gsave  711 567 1534 603 C 1616.96 1005.98 t 0 r /Helvetica findfont 25.6631 sf 0 0 m (10) show NC gr 
 gsave  711 567 1534 603 C 1616.96 1074.18 t 0 r /Helvetica findfont 25.6631 sf 0 0 m (12) show NC gr 
 gsave  711 567 1534 603 C 1557.28 1025.87 t 90 r /Helvetica findfont 28.5146 sf 0 0 m (0.0101 ) show NC gr 
 gsave  711 567 1534 603 C 1543.07 1023.03 t 90 r /Helvetica findfont 19.9602 sf 0 0 m ( ) show NC gr 
 gsave  711 567 1534 603 C 1557.28 1011.66 t 90 r /Helvetica findfont 28.5146 sf 0 0 m (/) show NC gr 
 gsave  711 567 1534 603 C 1565.8 1008.82 t 90 r /Helvetica findfont 19.9602 sf 0 0 m ( ) show NC gr 
 gsave  711 567 1534 603 C 1557.28 903.677 t 90 r /Helvetica findfont 28.5146 sf 0 0 m (\(1/N\) dN) show NC gr  2202 685 m 429 Y s 2186 685 m 16 X s 2194 701 m 8 X s 2194 718 m 8 X s 2194 734 m 8 X s 2186 751 m 16 X s 2194 768 m 8 X s 2194 784 m 8 X
 s 2194 801 m 8 X s 2186 818 m 16 X s 2194 834 m 8 X s 2194 851 m 8 X s 2194 867 m 8 X s 2186 884 m 16 X s 2194 901 m 8 X s 2194 917 m 8 X s 2194 934 m 8 X s 2186 950 m 16 X s 2194 967 m 8 X s 2194 984 m 8 X s 2194 1000 m 8 X s 2186 1017 m 16 X s
 2194 1033 m 8 X s 2194 1050 m 8 X s 2194 1067 m 8 X s 2186 1083 m 16 X s 2186 1083 m 16 X s 2194 1100 m 8 X s 0.490196 0.545098 0.615686 c 0.364706 0.419608 0.490196 c 369 38 1542 1130 bf 0.490196 0.545098 0.615686 c 1542 1130 m 369 X s 1911 1130 m
 38 Y s 1911 1168 m -369 X s 1542 1168 m -38 Y s 1 1 1 c black 1 1 1 c
 gsave  711 567 1534 603 C 1545.91 1142.38 t 0 r /Helvetica-Bold findfont 28.5146 sf 0 0 m (Input variable: yybb.HS_l4) show NC gr  1 0 0 c 6 lw black 3 lw 1 0 0 c 2188 685 m cl s 2173 685 m s 2158 685 m s 2143 685 m cl s 2128 685 m s 2113 685 m s
 2098 685 m s 2086 688 m -3 -3 d s 2072 689 m -4 -4 d s 2057 689 m -4 -4 d s 2038 685 m s 2029 691 m -6 -6 d s 2015 692 m -7 -7 d s 2007 699 m -15 -14 d s 1997 705 m -20 -20 d s 1997 720 m -35 -35 d s 1987 725 m -3 -4 d s 1970 707 m -23 -22 d s 1970
 723 m -38 -38 d s 1960 727 m -43 -42 d s 1956 739 m -54 -54 d s 1947 745 m -60 -60 d s 1943 756 m -14 -14 d s 1916 729 m -44 -44 d s 1937 765 m -8 -8 d s 1915 743 m -58 -58 d s 1915 759 m -73 -74 d s 1901 760 m -74 -75 d s 1901 775 m -89 -90 d s
 1897 786 m -9 -9 d s 1880 769 m -84 -84 d s 1874 778 m -93 -93 d s 1874 793 m -108 -108 d s 1874 808 m -123 -123 d s 1874 824 m -138 -139 d s 1874 839 m -153 -154 d s 1874 854 m -168 -169 d s 1874 869 m -27 -27 d s 1841 836 m -150 -151 d s 1874 884
 m -27 -27 d s 1833 843 m -150 -152 d s 1681 690 m -5 -5 d s 1874 899 m -27 -27 d s 1833 858 m -150 -151 d s 1665 688 m -4 -3 d s 1874 915 m -27 -28 d s 1833 873 m -150 -151 d s 1874 930 m -27 -28 d s 1833 889 m -96 -97 d s 1724 778 m s 1702 757 m
 -19 -20 d s 1869 940 m -22 -23 d s 1827 898 m -49 -49 d s 1778 848 m -41 -41 d s 1689 759 m -6 -7 d s 1858 944 m -11 -11 d s 1819 905 m -41 -41 d s 1765 850 m -28 -28 d s 1819 920 m -41 -41 d s 1765 865 m -28 -27 d s 1819 935 m -13 -13 d s 1803 918
 m -25 -24 d s 1765 880 m -28 -27 d s 1819 951 m -13 -14 d s 1792 923 m -14 -14 d s 1765 896 m -28 -28 d s 1819 966 m -13 -14 d s 1792 938 m -14 -14 d s 1758 904 m -7 -7 d s 1750 896 m -13 -13 d s 1792 953 m -14 -13 d s 1792 969 m -14 -14 d s 1792
 984 m -14 -14 d s 1792 999 m -14 -14 d s 1792 1014 m -14 -14 d s 1792 1029 m -14 -13 d s 1792 1045 m -14 -14 d s 1792 1060 m -14 -14 d s 1792 1075 m -14 -14 d s 6 lw 1655 688 m 14 X 2 Y 14 X 69 Y 13 X -2 Y 14 X 6 Y 14 X 15 Y 13 X 118 Y 14 X 8 Y 14 X
 -56 Y 13 X 227 Y 14 X -157 Y 14 X 49 Y 13 X -69 Y 14 X -62 Y 14 X 108 Y 13 X -4 Y 14 X -171 Y 14 X 17 Y 13 X -26 Y 14 X -31 Y 14 X 36 Y 14 X -20 Y 13 X -18 Y 14 X -20 Y 14 X 18 Y 13 X -26 Y 14 X -7 Y 14 X -1 Y 13 X -6 Y 14 X 4 Y 27 X -1 Y 14 X -3 Y
 109 X s black 3 lw 1655 685 m 547 X s 1692 698 m -13 Y s 1706 691 m -6 Y s 1720 691 m -6 Y s 1733 691 m -6 Y s 1747 691 m -6 Y s 1760 698 m -13 Y s 1774 691 m -6 Y s 1788 691 m -6 Y s 1801 691 m -6 Y s 1815 691 m -6 Y s 1828 698 m -13 Y s 1842 691 m
 -6 Y s 1855 691 m -6 Y s 1869 691 m -6 Y s 1883 691 m -6 Y s 1896 698 m -13 Y s 1910 691 m -6 Y s 1923 691 m -6 Y s 1937 691 m -6 Y s 1951 691 m -6 Y s 1964 698 m -13 Y s 1978 691 m -6 Y s 1991 691 m -6 Y s 2005 691 m -6 Y s 2018 691 m -6 Y s 2032
 698 m -13 Y s 2046 691 m -6 Y s 2059 691 m -6 Y s 2073 691 m -6 Y s 2086 691 m -6 Y s 2100 698 m -13 Y s 2114 691 m -6 Y s 2127 691 m -6 Y s 2141 691 m -6 Y s 2154 691 m -6 Y s 2168 698 m -13 Y s 1692 698 m -13 Y s 1679 691 m -6 Y s 1665 691 m -6 Y
 s 2168 698 m -13 Y s 2182 691 m -6 Y s 2195 691 m -6 Y s 1655 1114 m 547 X s 1692 1100 m 14 Y s 1706 1107 m 7 Y s 1720 1107 m 7 Y s 1733 1107 m 7 Y s 1747 1107 m 7 Y s 1760 1100 m 14 Y s 1774 1107 m 7 Y s 1788 1107 m 7 Y s 1801 1107 m 7 Y s 1815
 1107 m 7 Y s 1828 1100 m 14 Y s 1842 1107 m 7 Y s 1855 1107 m 7 Y s 1869 1107 m 7 Y s 1883 1107 m 7 Y s 1896 1100 m 14 Y s 1910 1107 m 7 Y s 1923 1107 m 7 Y s 1937 1107 m 7 Y s 1951 1107 m 7 Y s 1964 1100 m 14 Y s 1978 1107 m 7 Y s 1991 1107 m 7 Y s
 2005 1107 m 7 Y s 2018 1107 m 7 Y s 2032 1100 m 14 Y s 2046 1107 m 7 Y s 2059 1107 m 7 Y s 2073 1107 m 7 Y s 2086 1107 m 7 Y s 2100 1100 m 14 Y s 2114 1107 m 7 Y s 2127 1107 m 7 Y s 2141 1107 m 7 Y s 2154 1107 m 7 Y s 2168 1100 m 14 Y s 1692 1100 m
 14 Y s 1679 1107 m 7 Y s 1665 1107 m 7 Y s 2168 1100 m 14 Y s 2182 1107 m 7 Y s 2195 1107 m 7 Y s 1655 685 m 429 Y s 1671 685 m -16 X s 1663 701 m -8 X s 1663 718 m -8 X s 1663 734 m -8 X s 1671 751 m -16 X s 1663 768 m -8 X s 1663 784 m -8 X s 1663
 801 m -8 X s 1671 818 m -16 X s 1663 834 m -8 X s 1663 851 m -8 X s 1663 867 m -8 X s 1671 884 m -16 X s 1663 901 m -8 X s 1663 917 m -8 X s 1663 934 m -8 X s 1671 950 m -16 X s 1663 967 m -8 X s 1663 984 m -8 X s 1663 1000 m -8 X s 1671 1017 m -16
 X s 1663 1033 m -8 X s 1663 1050 m -8 X s 1663 1067 m -8 X s 1671 1083 m -16 X s 1671 1083 m -16 X s 1663 1100 m -8 X s 2202 685 m 429 Y s 2186 685 m 16 X s 2194 701 m 8 X s 2194 718 m 8 X s 2194 734 m 8 X s 2186 751 m 16 X s 2194 768 m 8 X s 2194
 784 m 8 X s 2194 801 m 8 X s 2186 818 m 16 X s 2194 834 m 8 X s 2194 851 m 8 X s 2194 867 m 8 X s 2186 884 m 16 X s 2194 901 m 8 X s 2194 917 m 8 X s 2194 934 m 8 X s 2186 950 m 16 X s 2194 967 m 8 X s 2194 984 m 8 X s 2194 1000 m 8 X s 2186 1017 m
 16 X s 2194 1033 m 8 X s 2194 1050 m 8 X s 2194 1067 m 8 X s 2186 1083 m 16 X s 2186 1083 m 16 X s 2194 1100 m 8 X s
 gsave  711 567 1534 603 C 2230.83 682.347 t 90 r /Helvetica-Bold findfont 19.9602 sf 0 0 m (U/O\255flow \(S,B\): \(0.0, 0.0\)% / \(0.0, 0.0\)%) show NC gr  0.490196 0.545098 0.615686 c 0.364706 0.419608 0.490196 c 369 38 1542 1130 bf 0.490196
 0.545098 0.615686 c 1542 1130 m 369 X s 1911 1130 m 38 Y s 1911 1168 m -369 X s 1542 1168 m -38 Y s 1 1 1 c black 1 1 1 c
 gsave  711 567 1534 603 C 1545.91 1142.38 t 0 r /Helvetica-Bold findfont 28.5146 sf 0 0 m (Input variable: yybb.HS_l4) show NC gr  0.490196 0.545098 0.615686 c 0.941176 0.941176 0.941176 c 710 567 23 12 bf black 1 1 0.992157 c 548 429 143 94 bf
 black 548 429 143 94 bl 0 0 0.933333 c 6 lw 0.49 0.6 0.82 c black 3 lw 0.49 0.6 0.82 c 143 114 m 69 X 1 Y 14 X 2 Y 13 X 3 Y 14 X 4 Y 14 X 24 Y 13 X 12 Y 14 X 14 Y 14 X 43 Y 13 X 52 Y 14 X 77 Y 14 X 22 Y 13 X 117 Y 14 X -23 Y 14 X -18 Y 13 X -18 Y 14
 X 10 Y 14 X -53 Y 13 X -43 Y 14 X -54 Y 14 X 32 Y 13 X -63 Y 14 X -16 Y 14 X -46 Y 13 X 3 Y 14 X -48 Y 14 X 1 Y 13 X -22 Y 14 X -8 Y 14 X 1 Y 14 X -5 Y 27 X -1 Y 55 X f 6 lw 0 0 0.933333 c 0.49 0.6 0.82 c 0 0 0.933333 c 143 114 m 69 X 1 Y 14 X 2 Y
 13 X 3 Y 14 X 4 Y 14 X 24 Y 13 X 12 Y 14 X 14 Y 14 X 43 Y 13 X 52 Y 14 X 77 Y 14 X 22 Y 13 X 117 Y 14 X -23 Y 14 X -18 Y 13 X -18 Y 14 X 10 Y 14 X -53 Y 13 X -43 Y 14 X -54 Y 14 X 32 Y 13 X -63 Y 14 X -16 Y 14 X -46 Y 13 X 3 Y 14 X -48 Y 14 X 1 Y 13
 X -22 Y 14 X -8 Y 14 X 1 Y 14 X -5 Y 27 X -1 Y 55 X s black 3 lw 143 94 m 548 X s 160 107 m -13 Y s 173 100 m -6 Y s 186 100 m -6 Y s 200 100 m -6 Y s 213 100 m -6 Y s 226 107 m -13 Y s 239 100 m -6 Y s 252 100 m -6 Y s 266 100 m -6 Y s 279 100 m -6
 Y s 292 107 m -13 Y s 305 100 m -6 Y s 318 100 m -6 Y s 332 100 m -6 Y s 345 100 m -6 Y s 358 107 m -13 Y s 371 100 m -6 Y s 384 100 m -6 Y s 398 100 m -6 Y s 411 100 m -6 Y s 424 107 m -13 Y s 437 100 m -6 Y s 450 100 m -6 Y s 464 100 m -6 Y s 477
 100 m -6 Y s 490 107 m -13 Y s 503 100 m -6 Y s 516 100 m -6 Y s 530 100 m -6 Y s 543 100 m -6 Y s 556 107 m -13 Y s 569 100 m -6 Y s 582 100 m -6 Y s 595 100 m -6 Y s 609 100 m -6 Y s 622 107 m -13 Y s 635 100 m -6 Y s 648 100 m -6 Y s 661 100 m -6
 Y s 675 100 m -6 Y s 688 107 m -13 Y s 160 107 m -13 Y s 147 100 m -6 Y s 688 107 m -13 Y s
 gsave  710 567 23 12 C 147.771 65.3603 t 0 r /Helvetica findfont 25.6631 sf 0 0 m (0.2) show NC gr 
 gsave  710 567 23 12 C 133.562 65.3603 t 0 r /Symbol findfont 25.6631 sf 0 0 m (-) show NC gr 
 gsave  710 567 23 12 C 204.606 65.3603 t 0 r /Helvetica findfont 25.6631 sf 0 0 m (0.15) show NC gr 
 gsave  710 567 23 12 C 193.239 65.3603 t 0 r /Symbol findfont 25.6631 sf 0 0 m (-) show NC gr 
 gsave  710 567 23 12 C 278.492 65.3603 t 0 r /Helvetica findfont 25.6631 sf 0 0 m (0.1) show NC gr 
 gsave  710 567 23 12 C 267.125 65.3603 t 0 r /Symbol findfont 25.6631 sf 0 0 m (-) show NC gr 
 gsave  710 567 23 12 C 335.327 65.3603 t 0 r /Helvetica findfont 25.6631 sf 0 0 m (0.05) show NC gr 
 gsave  710 567 23 12 C 323.96 65.3603 t 0 r /Symbol findfont 25.6631 sf 0 0 m (-) show NC gr 
 gsave  710 567 23 12 C 414.896 65.3603 t 0 r /Helvetica findfont 25.6631 sf 0 0 m (0) show NC gr 
 gsave  710 567 23 12 C 463.205 65.3603 t 0 r /Helvetica findfont 25.6631 sf 0 0 m (0.05) show NC gr 
 gsave  710 567 23 12 C 537.091 65.3603 t 0 r /Helvetica findfont 25.6631 sf 0 0 m (0.1) show NC gr 
 gsave  710 567 23 12 C 593.926 65.3603 t 0 r /Helvetica findfont 25.6631 sf 0 0 m (0.15) show NC gr 
 gsave  710 567 23 12 C 670.653 65.3603 t 0 r /Helvetica findfont 25.6631 sf 0 0 m (0.2) show NC gr 
 gsave  710 567 23 12 C 548.458 25.5758 t 0 r /Helvetica findfont 28.5146 sf 0 0 m (yybb.HS_l5) show NC gr  143 523 m 548 X s 160 509 m 14 Y s 173 516 m 7 Y s 186 516 m 7 Y s 200 516 m 7 Y s 213 516 m 7 Y s 226 509 m 14 Y s 239 516 m 7 Y s 252 516 m
 7 Y s 266 516 m 7 Y s 279 516 m 7 Y s 292 509 m 14 Y s 305 516 m 7 Y s 318 516 m 7 Y s 332 516 m 7 Y s 345 516 m 7 Y s 358 509 m 14 Y s 371 516 m 7 Y s 384 516 m 7 Y s 398 516 m 7 Y s 411 516 m 7 Y s 424 509 m 14 Y s 437 516 m 7 Y s 450 516 m 7 Y s
 464 516 m 7 Y s 477 516 m 7 Y s 490 509 m 14 Y s 503 516 m 7 Y s 516 516 m 7 Y s 530 516 m 7 Y s 543 516 m 7 Y s 556 509 m 14 Y s 569 516 m 7 Y s 582 516 m 7 Y s 595 516 m 7 Y s 609 516 m 7 Y s 622 509 m 14 Y s 635 516 m 7 Y s 648 516 m 7 Y s 661
 516 m 7 Y s 675 516 m 7 Y s 688 509 m 14 Y s 160 509 m 14 Y s 147 516 m 7 Y s 688 509 m 14 Y s 143 94 m 429 Y s 160 114 m -17 X s 152 135 m -9 X s 152 155 m -9 X s 152 176 m -9 X s 160 196 m -17 X s 152 217 m -9 X s 152 238 m -9 X s 152 258 m -9 X s
 160 279 m -17 X s 152 300 m -9 X s 152 320 m -9 X s 152 341 m -9 X s 160 361 m -17 X s 152 382 m -9 X s 152 403 m -9 X s 152 423 m -9 X s 160 444 m -17 X s 160 114 m -17 X s 160 444 m -17 X s 152 465 m -9 X s 152 485 m -9 X s 152 506 m -9 X s
 gsave  710 567 23 12 C 119.354 105.145 t 0 r /Helvetica findfont 25.6631 sf 0 0 m (0) show NC gr 
 gsave  710 567 23 12 C 119.354 187.556 t 0 r /Helvetica findfont 25.6631 sf 0 0 m (2) show NC gr 
 gsave  710 567 23 12 C 119.354 269.966 t 0 r /Helvetica findfont 25.6631 sf 0 0 m (4) show NC gr 
 gsave  710 567 23 12 C 119.354 352.377 t 0 r /Helvetica findfont 25.6631 sf 0 0 m (6) show NC gr 
 gsave  710 567 23 12 C 119.354 434.788 t 0 r /Helvetica findfont 25.6631 sf 0 0 m (8) show NC gr 
 gsave  710 567 23 12 C 45.468 431.946 t 90 r /Helvetica findfont 28.5146 sf 0 0 m (0.0104 ) show NC gr 
 gsave  710 567 23 12 C 31.2593 429.104 t 90 r /Helvetica findfont 19.9602 sf 0 0 m ( ) show NC gr 
 gsave  710 567 23 12 C 45.468 417.737 t 90 r /Helvetica findfont 28.5146 sf 0 0 m (/) show NC gr 
 gsave  710 567 23 12 C 53.9933 414.896 t 90 r /Helvetica findfont 19.9602 sf 0 0 m ( ) show NC gr 
 gsave  710 567 23 12 C 45.468 309.751 t 90 r /Helvetica findfont 28.5146 sf 0 0 m (\(1/N\) dN) show NC gr  691 94 m 429 Y s 674 114 m 17 X s 683 135 m 8 X s 683 155 m 8 X s 683 176 m 8 X s 674 196 m 17 X s 683 217 m 8 X s 683 238 m 8 X s 683 258 m 8
 X s 674 279 m 17 X s 683 300 m 8 X s 683 320 m 8 X s 683 341 m 8 X s 674 361 m 17 X s 683 382 m 8 X s 683 403 m 8 X s 683 423 m 8 X s 674 444 m 17 X s 674 114 m 17 X s 674 444 m 17 X s 683 465 m 8 X s 683 485 m 8 X s 683 506 m 8 X s 0.490196
 0.545098 0.615686 c 0.364706 0.419608 0.490196 c 369 37 30 539 bf 0.490196 0.545098 0.615686 c 30 539 m 369 X s 399 539 m 37 Y s 399 576 m -369 X s 30 576 m -37 Y s 1 1 1 c black 1 1 1 c
 gsave  710 567 23 12 C 34.101 551.299 t 0 r /Helvetica-Bold findfont 28.5146 sf 0 0 m (Input variable: yybb.HS_l5) show NC gr  1 0 0 c 6 lw black 3 lw 1 0 0 c 682 114 m s 667 114 m s 652 114 m s 637 114 m s 622 114 m -1 X s 607 114 m -1 X s 595 117
 m -4 -3 d s 595 133 m -19 -19 d s 595 148 m -34 -34 d s 595 163 m -28 -28 d s 560 128 m -14 -14 d s 595 178 m -14 -14 d s 568 151 m -1 X s 554 137 m -23 -23 d s 595 193 m -14 -13 d s 554 152 m -38 -38 d s 595 209 m -14 -14 d s 554 167 m -53 -53 d s
 589 218 m -8 -8 d s 554 182 m -68 -68 d s 554 198 m -14 -14 d s 533 176 m -62 -62 d s 545 204 m -5 -5 d s 526 185 m -70 -71 d s 522 196 m -81 -82 d s 513 202 m -87 -88 d s 513 217 m -103 -103 d s 503 222 m -108 -108 d s 498 233 m -118 -119 d s 485
 235 m -120 -121 d s 485 250 m -135 -136 d s 485 265 m -150 -151 d s 485 281 m -165 -167 d s 485 296 m -180 -182 d s 485 311 m -27 -28 d s 448 273 m -158 -159 d s 474 314 m -16 -15 d s 444 285 m -164 -166 d s 280 119 m -5 -5 d s 472 328 m -14 -14 d s
 444 300 m -164 -165 d s 260 115 m -1 Y s 472 343 m -14 -14 d s 444 315 m -123 -124 d s 316 186 m -36 -36 d s 246 115 m -1 -1 d s 472 358 m -14 -14 d s 444 330 m -123 -124 d s 306 191 m -12 -12 d s 283 167 m -3 -2 d s 234 118 m -4 -4 d s 472 373 m
 -14 -14 d s 433 334 m -112 -112 d s 215 115 m -1 Y s 472 388 m -14 -14 d s 431 347 m -110 -110 d s 200 114 m -1 X s 472 403 m -14 -13 d s 422 354 m -101 -102 d s 184 114 m s 472 419 m -14 -14 d s 417 363 m -96 -96 d s 169 114 m s 472 434 m -14 -14 d
 s 417 379 m -96 -97 d s 154 114 m s 461 438 m -3 -3 d s 417 394 m -96 -97 d s 403 395 m -54 -55 d s 342 334 m -21 -21 d s 403 410 m -27 -27 d s 370 377 m -21 -22 d s 335 342 m -14 -14 d s 403 426 m -27 -28 d s 362 384 m -13 -13 d s 323 345 m -2 -2 d
 s 403 441 m -27 -28 d s 354 391 m -5 -5 d s 403 456 m -27 -28 d s 403 471 m -27 -27 d s 401 484 m -25 -25 d s 381 479 m -5 -5 d s 6 lw 143 114 m 69 X 1 Y 14 X 3 Y 13 X -3 Y 28 X 4 Y 13 X 48 Y 14 X 24 Y 14 X -5 Y 13 X 159 Y 14 X -11 Y 14 X 57 Y 13 X
 -14 Y 14 X 102 Y 14 X 5 Y 13 X -89 Y 14 X -41 Y 14 X -20 Y 13 X -61 Y 14 X 165 Y 14 X -124 Y 13 X -81 Y 14 X -11 Y 14 X -26 Y 13 X -20 Y 14 X 28 Y 14 X -76 Y 13 X 23 Y 14 X 67 Y 14 X -104 Y 96 X s black 3 lw 143 94 m 548 X s 160 107 m -13 Y s 173
 100 m -6 Y s 186 100 m -6 Y s 200 100 m -6 Y s 213 100 m -6 Y s 226 107 m -13 Y s 239 100 m -6 Y s 252 100 m -6 Y s 266 100 m -6 Y s 279 100 m -6 Y s 292 107 m -13 Y s 305 100 m -6 Y s 318 100 m -6 Y s 332 100 m -6 Y s 345 100 m -6 Y s 358 107 m -13
 Y s 371 100 m -6 Y s 384 100 m -6 Y s 398 100 m -6 Y s 411 100 m -6 Y s 424 107 m -13 Y s 437 100 m -6 Y s 450 100 m -6 Y s 464 100 m -6 Y s 477 100 m -6 Y s 490 107 m -13 Y s 503 100 m -6 Y s 516 100 m -6 Y s 530 100 m -6 Y s 543 100 m -6 Y s 556
 107 m -13 Y s 569 100 m -6 Y s 582 100 m -6 Y s 595 100 m -6 Y s 609 100 m -6 Y s 622 107 m -13 Y s 635 100 m -6 Y s 648 100 m -6 Y s 661 100 m -6 Y s 675 100 m -6 Y s 688 107 m -13 Y s 160 107 m -13 Y s 147 100 m -6 Y s 688 107 m -13 Y s 143 523 m
 548 X s 160 509 m 14 Y s 173 516 m 7 Y s 186 516 m 7 Y s 200 516 m 7 Y s 213 516 m 7 Y s 226 509 m 14 Y s 239 516 m 7 Y s 252 516 m 7 Y s 266 516 m 7 Y s 279 516 m 7 Y s 292 509 m 14 Y s 305 516 m 7 Y s 318 516 m 7 Y s 332 516 m 7 Y s 345 516 m 7 Y
 s 358 509 m 14 Y s 371 516 m 7 Y s 384 516 m 7 Y s 398 516 m 7 Y s 411 516 m 7 Y s 424 509 m 14 Y s 437 516 m 7 Y s 450 516 m 7 Y s 464 516 m 7 Y s 477 516 m 7 Y s 490 509 m 14 Y s 503 516 m 7 Y s 516 516 m 7 Y s 530 516 m 7 Y s 543 516 m 7 Y s 556
 509 m 14 Y s 569 516 m 7 Y s 582 516 m 7 Y s 595 516 m 7 Y s 609 516 m 7 Y s 622 509 m 14 Y s 635 516 m 7 Y s 648 516 m 7 Y s 661 516 m 7 Y s 675 516 m 7 Y s 688 509 m 14 Y s 160 509 m 14 Y s 147 516 m 7 Y s 688 509 m 14 Y s 143 94 m 429 Y s 160 114
 m -17 X s 152 135 m -9 X s 152 155 m -9 X s 152 176 m -9 X s 160 196 m -17 X s 152 217 m -9 X s 152 238 m -9 X s 152 258 m -9 X s 160 279 m -17 X s 152 300 m -9 X s 152 320 m -9 X s 152 341 m -9 X s 160 361 m -17 X s 152 382 m -9 X s 152 403 m -9 X
 s 152 423 m -9 X s 160 444 m -17 X s 160 114 m -17 X s 160 444 m -17 X s 152 465 m -9 X s 152 485 m -9 X s 152 506 m -9 X s 691 94 m 429 Y s 674 114 m 17 X s 683 135 m 8 X s 683 155 m 8 X s 683 176 m 8 X s 674 196 m 17 X s 683 217 m 8 X s 683 238 m
 8 X s 683 258 m 8 X s 674 279 m 17 X s 683 300 m 8 X s 683 320 m 8 X s 683 341 m 8 X s 674 361 m 17 X s 683 382 m 8 X s 683 403 m 8 X s 683 423 m 8 X s 674 444 m 17 X s 674 114 m 17 X s 674 444 m 17 X s 683 465 m 8 X s 683 485 m 8 X s 683 506 m 8 X
 s
 gsave  710 567 23 12 C 719.017 91.2634 t 90 r /Helvetica-Bold findfont 19.9602 sf 0 0 m (U/O\255flow \(S,B\): \(0.0, 0.0\)% / \(0.0, 0.0\)%) show NC gr  0.490196 0.545098 0.615686 c 0.364706 0.419608 0.490196 c 369 37 30 539 bf 0.490196 0.545098
 0.615686 c 30 539 m 369 X s 399 539 m 37 Y s 399 576 m -369 X s 30 576 m -37 Y s 1 1 1 c black 1 1 1 c
 gsave  710 567 23 12 C 34.101 551.299 t 0 r /Helvetica-Bold findfont 28.5146 sf 0 0 m (Input variable: yybb.HS_l5) show NC gr  0.490196 0.545098 0.615686 c 0.941176 0.941176 0.941176 c 710 567 779 12 bf black 1 1 0.992157 c 548 429 899 94 bf black
 548 429 899 94 bl 0 0 0.933333 c 6 lw 0.49 0.6 0.82 c black 3 lw 0.49 0.6 0.82 c 899 117 m 28 X 8 Y 13 X -11 Y 14 X 18 Y 14 X 1 Y 13 X 4 Y 14 X -6 Y 14 X 7 Y 13 X 26 Y 14 X 22 Y 14 X 11 Y 14 X -30 Y 13 X 50 Y 14 X 37 Y 14 X 14 Y 13 X 24 Y 14 X -20 Y
 14 X 46 Y 13 X 21 Y 14 X 1 Y 14 X 21 Y 13 X -18 Y 14 X 3 Y 14 X 12 Y 13 X -11 Y 14 X 23 Y 14 X -40 Y 13 X 42 Y 14 X 12 Y 14 X -96 Y 13 X 26 Y 14 X -23 Y 14 X 36 Y 13 X -5 Y 14 X -62 Y 14 X -18 Y 13 X -97 Y 14 X -18 Y 14 X -10 Y 14 X f 6 lw 0 0
 0.933333 c 0.49 0.6 0.82 c 0 0 0.933333 c 899 117 m 28 X 8 Y 13 X -11 Y 14 X 18 Y 14 X 1 Y 13 X 4 Y 14 X -6 Y 14 X 7 Y 13 X 26 Y 14 X 22 Y 14 X 11 Y 14 X -30 Y 13 X 50 Y 14 X 37 Y 14 X 14 Y 13 X 24 Y 14 X -20 Y 14 X 46 Y 13 X 21 Y 14 X 1 Y 14 X 21 Y
 13 X -18 Y 14 X 3 Y 14 X 12 Y 13 X -11 Y 14 X 23 Y 14 X -40 Y 13 X 42 Y 14 X 12 Y 14 X -96 Y 13 X 26 Y 14 X -23 Y 14 X 36 Y 13 X -5 Y 14 X -62 Y 14 X -18 Y 13 X -97 Y 14 X -18 Y 14 X -10 Y 14 X s black 3 lw 899 94 m 548 X s 969 107 m -13 Y s 984 100
 m -6 Y s 1000 100 m -6 Y s 1015 100 m -6 Y s 1031 100 m -6 Y s 1047 107 m -13 Y s 1062 100 m -6 Y s 1078 100 m -6 Y s 1093 100 m -6 Y s 1109 100 m -6 Y s 1125 107 m -13 Y s 1140 100 m -6 Y s 1156 100 m -6 Y s 1171 100 m -6 Y s 1187 100 m -6 Y s 1202
 107 m -13 Y s 1218 100 m -6 Y s 1234 100 m -6 Y s 1249 100 m -6 Y s 1265 100 m -6 Y s 1280 107 m -13 Y s 1296 100 m -6 Y s 1311 100 m -6 Y s 1327 100 m -6 Y s 1343 100 m -6 Y s 1358 107 m -13 Y s 1374 100 m -6 Y s 1389 100 m -6 Y s 1405 100 m -6 Y s
 1421 100 m -6 Y s 1436 107 m -13 Y s 969 107 m -13 Y s 953 100 m -6 Y s 938 100 m -6 Y s 922 100 m -6 Y s 906 100 m -6 Y s 1436 107 m -13 Y s
 gsave  710 567 779 12 C 946.303 65.3603 t 0 r /Helvetica findfont 25.6631 sf 0 0 m (0.05) show NC gr 
 gsave  710 567 779 12 C 934.936 65.3603 t 0 r /Symbol findfont 25.6631 sf 0 0 m (-) show NC gr 
 gsave  710 567 779 12 C 1037.24 65.3603 t 0 r /Helvetica findfont 25.6631 sf 0 0 m (0) show NC gr 
 gsave  710 567 779 12 C 1096.92 65.3603 t 0 r /Helvetica findfont 25.6631 sf 0 0 m (0.05) show NC gr 
 gsave  710 567 779 12 C 1185.01 65.3603 t 0 r /Helvetica findfont 25.6631 sf 0 0 m (0.1) show NC gr 
 gsave  710 567 779 12 C 1253.21 65.3603 t 0 r /Helvetica findfont 25.6631 sf 0 0 m (0.15) show NC gr 
 gsave  710 567 779 12 C 1338.46 65.3603 t 0 r /Helvetica findfont 25.6631 sf 0 0 m (0.2) show NC gr 
 gsave  710 567 779 12 C 1409.51 65.3603 t 0 r /Helvetica findfont 25.6631 sf 0 0 m (0.25) show NC gr 
 gsave  710 567 779 12 C 1335.62 22.734 t 0 r /Helvetica findfont 28.5146 sf 0 0 m (bb.HS_l1) show NC gr  899 523 m 548 X s 969 509 m 14 Y s 984 516 m 7 Y s 1000 516 m 7 Y s 1015 516 m 7 Y s 1031 516 m 7 Y s 1047 509 m 14 Y s 1062 516 m 7 Y s 1078
 516 m 7 Y s 1093 516 m 7 Y s 1109 516 m 7 Y s 1125 509 m 14 Y s 1140 516 m 7 Y s 1156 516 m 7 Y s 1171 516 m 7 Y s 1187 516 m 7 Y s 1202 509 m 14 Y s 1218 516 m 7 Y s 1234 516 m 7 Y s 1249 516 m 7 Y s 1265 516 m 7 Y s 1280 509 m 14 Y s 1296 516 m 7
 Y s 1311 516 m 7 Y s 1327 516 m 7 Y s 1343 516 m 7 Y s 1358 509 m 14 Y s 1374 516 m 7 Y s 1389 516 m 7 Y s 1405 516 m 7 Y s 1421 516 m 7 Y s 1436 509 m 14 Y s 969 509 m 14 Y s 953 516 m 7 Y s 938 516 m 7 Y s 922 516 m 7 Y s 906 516 m 7 Y s 1436 509
 m 14 Y s 899 94 m 429 Y s 915 117 m -16 X s 907 126 m -8 X s 907 135 m -8 X s 907 144 m -8 X s 907 153 m -8 X s 915 162 m -16 X s 907 171 m -8 X s 907 180 m -8 X s 907 189 m -8 X s 907 198 m -8 X s 915 207 m -16 X s 907 216 m -8 X s 907 225 m -8 X s
 907 234 m -8 X s 907 243 m -8 X s 915 252 m -16 X s 907 261 m -8 X s 907 270 m -8 X s 907 279 m -8 X s 907 288 m -8 X s 915 297 m -16 X s 907 306 m -8 X s 907 315 m -8 X s 907 324 m -8 X s 907 333 m -8 X s 915 342 m -16 X s 907 351 m -8 X s 907 360
 m -8 X s 907 369 m -8 X s 907 378 m -8 X s 915 387 m -16 X s 907 396 m -8 X s 907 405 m -8 X s 907 414 m -8 X s 907 423 m -8 X s 915 432 m -16 X s 907 441 m -8 X s 907 450 m -8 X s 907 459 m -8 X s 907 468 m -8 X s 915 477 m -16 X s 907 486 m -8 X s
 907 495 m -8 X s 907 504 m -8 X s 907 513 m -8 X s 915 522 m -16 X s 915 117 m -16 X s 907 108 m -8 X s 907 99 m -8 X s 915 522 m -16 X s
 gsave  710 567 779 12 C 875.259 107.987 t 0 r /Helvetica findfont 25.6631 sf 0 0 m (0) show NC gr 
 gsave  710 567 779 12 C 878.101 150.613 t 0 r /Helvetica findfont 25.6631 sf 0 0 m (1) show NC gr 
 gsave  710 567 779 12 C 875.259 196.081 t 0 r /Helvetica findfont 25.6631 sf 0 0 m (2) show NC gr 
 gsave  710 567 779 12 C 875.259 241.549 t 0 r /Helvetica findfont 25.6631 sf 0 0 m (3) show NC gr 
 gsave  710 567 779 12 C 875.259 287.017 t 0 r /Helvetica findfont 25.6631 sf 0 0 m (4) show NC gr 
 gsave  710 567 779 12 C 875.259 332.485 t 0 r /Helvetica findfont 25.6631 sf 0 0 m (5) show NC gr 
 gsave  710 567 779 12 C 875.259 377.953 t 0 r /Helvetica findfont 25.6631 sf 0 0 m (6) show NC gr 
 gsave  710 567 779 12 C 875.259 423.421 t 0 r /Helvetica findfont 25.6631 sf 0 0 m (7) show NC gr 
 gsave  710 567 779 12 C 875.259 466.047 t 0 r /Helvetica findfont 25.6631 sf 0 0 m (8) show NC gr 
 gsave  710 567 779 12 C 875.259 511.515 t 0 r /Helvetica findfont 25.6631 sf 0 0 m (9) show NC gr 
 gsave  710 567 779 12 C 801.374 414.896 t 90 r /Helvetica findfont 28.5146 sf 0 0 m (0.00878 ) show NC gr 
 gsave  710 567 779 12 C 787.165 412.054 t 90 r /Helvetica findfont 19.9602 sf 0 0 m ( ) show NC gr 
 gsave  710 567 779 12 C 801.374 400.687 t 90 r /Helvetica findfont 28.5146 sf 0 0 m (/) show NC gr 
 gsave  710 567 779 12 C 809.899 397.845 t 90 r /Helvetica findfont 19.9602 sf 0 0 m ( ) show NC gr 
 gsave  710 567 779 12 C 801.374 292.7 t 90 r /Helvetica findfont 28.5146 sf 0 0 m (\(1/N\) dN) show NC gr  1447 94 m 429 Y s 1430 117 m 17 X s 1438 126 m 9 X s 1438 135 m 9 X s 1438 144 m 9 X s 1438 153 m 9 X s 1430 162 m 17 X s 1438 171 m 9 X s
 1438 180 m 9 X s 1438 189 m 9 X s 1438 198 m 9 X s 1430 207 m 17 X s 1438 216 m 9 X s 1438 225 m 9 X s 1438 234 m 9 X s 1438 243 m 9 X s 1430 252 m 17 X s 1438 261 m 9 X s 1438 270 m 9 X s 1438 279 m 9 X s 1438 288 m 9 X s 1430 297 m 17 X s 1438 306
 m 9 X s 1438 315 m 9 X s 1438 324 m 9 X s 1438 333 m 9 X s 1430 342 m 17 X s 1438 351 m 9 X s 1438 360 m 9 X s 1438 369 m 9 X s 1438 378 m 9 X s 1430 387 m 17 X s 1438 396 m 9 X s 1438 405 m 9 X s 1438 414 m 9 X s 1438 423 m 9 X s 1430 432 m 17 X s
 1438 441 m 9 X s 1438 450 m 9 X s 1438 459 m 9 X s 1438 468 m 9 X s 1430 477 m 17 X s 1438 486 m 9 X s 1438 495 m 9 X s 1438 504 m 9 X s 1438 513 m 9 X s 1430 522 m 17 X s 1430 117 m 17 X s 1438 108 m 9 X s 1438 99 m 9 X s 1430 522 m 17 X s 0.490196
 0.545098 0.615686 c 0.364706 0.419608 0.490196 c 335 37 786 539 bf 0.490196 0.545098 0.615686 c 786 539 m 335 X s 1121 539 m 37 Y s 1121 576 m -335 X s 786 576 m -37 Y s 1 1 1 c black 1 1 1 c
 gsave  710 567 779 12 C 790.007 551.299 t 0 r /Helvetica-Bold findfont 28.5146 sf 0 0 m (Input variable: bb.HS_l1) show NC gr  1 0 0 c 6 lw black 3 lw 1 0 0 c 1440 117 m s 1433 124 m -8 -7 d s 1424 130 m -14 -13 d s 1419 141 m -24 -24 d s 1419 156 m
 -39 -39 d s 1419 171 m -54 -54 d s 1416 183 m -66 -66 d s 1405 188 m -70 -71 d s 1405 203 m -85 -86 d s 1405 218 m -100 -101 d s 1405 233 m -115 -116 d s 1405 249 m -13 -14 d s 1385 228 m -110 -111 d s 1393 251 m -1 -1 d s 1378 236 m -118 -119 d s
 1378 251 m -133 -134 d s 1378 267 m -149 -150 d s 1378 282 m -14 -14 d s 1364 267 m -150 -150 d s 1378 297 m -14 -14 d s 1342 260 m -73 -73 d s 1262 180 m -63 -63 d s 1378 312 m -14 -14 d s 1337 271 m -68 -69 d s 1255 188 m -71 -71 d s 1378 327 m
 -14 -14 d s 1337 286 m -68 -69 d s 1255 203 m -86 -86 d s 1375 340 m -11 -11 d s 1333 297 m -10 -10 d s 1318 282 m -49 -50 d s 1255 218 m -101 -101 d s 1310 289 m -41 -42 d s 1255 234 m -116 -117 d s 1310 304 m -41 -41 d s 1255 249 m -131 -132 d s
 1310 319 m -41 -41 d s 1255 264 m -146 -147 d s 1308 332 m -26 -25 d s 1280 304 m -11 -11 d s 1255 279 m -161 -162 d s 1296 336 m -14 -14 d s 1255 294 m -14 -13 d s 1240 279 m -40 -40 d s 1190 229 m -111 -112 d s 1292 346 m -10 -9 d s 1255 310 m -14
 -14 d s 1228 282 m -28 -28 d s 1187 241 m -123 -124 d s 1255 325 m -14 -14 d s 1228 297 m -28 -27 d s 1177 246 m -4 -4 d s 1167 236 m -118 -119 d s 1255 340 m -14 -14 d s 1228 312 m -28 -27 d s 1159 243 m -95 -96 d s 1052 135 m -19 -18 d s 1255 355
 m -14 -14 d s 1228 328 m -28 -28 d s 1159 259 m -95 -97 d s 1050 148 m -32 -31 d s 1255 370 m -14 -14 d s 1228 343 m -28 -28 d s 1159 274 m -95 -97 d s 1050 164 m -47 -47 d s 1253 383 m -12 -11 d s 1228 358 m -28 -28 d s 1159 289 m -95 -96 d s 1050
 179 m -55 -55 d s 989 118 m -1 -1 d s 1228 373 m -28 -27 d s 1159 304 m -82 -82 d s 1065 209 m -1 -1 d s 1050 194 m -55 -55 d s 981 125 m -8 -8 d s 1223 384 m -23 -23 d s 1159 319 m -82 -82 d s 1050 209 m -28 -27 d s 1019 178 m -10 -10 d s 1000 159
 m -5 -5 d s 981 140 m -13 -14 d s 958 117 m s 1214 390 m -14 -14 d s 1159 335 m -54 -56 d s 1101 276 m -24 -24 d s 1050 224 m -28 -27 d s 970 144 m -2 -2 d s 943 117 m s 1214 405 m -14 -14 d s 1159 350 m -54 -55 d s 1091 281 m -14 -14 d s 1050 239 m
 -14 -13 d s 1025 214 m -3 -2 d s 934 123 m -6 -6 d s 1207 413 m -7 -7 d s 1159 365 m -27 -28 d s 1131 336 m -13 -12 d s 1114 320 m -9 -10 d s 1091 296 m -14 -14 d s 913 117 m s 1159 380 m -13 -14 d s 1134 355 m -2 -2 d s 1091 311 m -14 -14 d s 1159
 395 m -13 -14 d s 1091 326 m -14 -13 d s 1159 410 m -13 -13 d s 1091 342 m -14 -14 d s 1159 426 m -13 -14 d s 1091 356 m -14 -13 d s 1159 441 m -13 -14 d s 1159 456 m -13 -14 d s 1159 471 m -13 -14 d s 1159 486 m -13 -13 d s 6 lw 899 117 m 28 X 6 Y
 13 X -6 Y 28 X 27 Y 13 X -26 Y 14 X 41 Y 14 X 19 Y 13 X 36 Y 14 X 25 Y 14 X -104 Y 14 X 74 Y 13 X 147 Y 14 X -80 Y 14 X 44 Y 13 X 16 Y 14 X 19 Y 14 X 131 Y 13 X -250 Y 14 X 10 Y 14 X -17 Y 13 X 184 Y 14 X -29 Y 14 X -105 Y 13 X 104 Y 14 X -203 Y 14
 X 124 Y 13 X 42 Y 14 X -14 Y 14 X -50 Y 13 X 15 Y 14 X -37 Y 14 X 7 Y 13 X 73 Y 14 X -112 Y 14 X 23 Y 13 X -68 Y 14 X -53 Y 14 X -13 Y 14 X s black 3 lw 899 94 m 548 X s 969 107 m -13 Y s 984 100 m -6 Y s 1000 100 m -6 Y s 1015 100 m -6 Y s 1031 100
 m -6 Y s 1047 107 m -13 Y s 1062 100 m -6 Y s 1078 100 m -6 Y s 1093 100 m -6 Y s 1109 100 m -6 Y s 1125 107 m -13 Y s 1140 100 m -6 Y s 1156 100 m -6 Y s 1171 100 m -6 Y s 1187 100 m -6 Y s 1202 107 m -13 Y s 1218 100 m -6 Y s 1234 100 m -6 Y s
 1249 100 m -6 Y s 1265 100 m -6 Y s 1280 107 m -13 Y s 1296 100 m -6 Y s 1311 100 m -6 Y s 1327 100 m -6 Y s 1343 100 m -6 Y s 1358 107 m -13 Y s 1374 100 m -6 Y s 1389 100 m -6 Y s 1405 100 m -6 Y s 1421 100 m -6 Y s 1436 107 m -13 Y s 969 107 m
 -13 Y s 953 100 m -6 Y s 938 100 m -6 Y s 922 100 m -6 Y s 906 100 m -6 Y s 1436 107 m -13 Y s 899 523 m 548 X s 969 509 m 14 Y s 984 516 m 7 Y s 1000 516 m 7 Y s 1015 516 m 7 Y s 1031 516 m 7 Y s 1047 509 m 14 Y s 1062 516 m 7 Y s 1078 516 m 7 Y s
 1093 516 m 7 Y s 1109 516 m 7 Y s 1125 509 m 14 Y s 1140 516 m 7 Y s 1156 516 m 7 Y s 1171 516 m 7 Y s 1187 516 m 7 Y s 1202 509 m 14 Y s 1218 516 m 7 Y s 1234 516 m 7 Y s 1249 516 m 7 Y s 1265 516 m 7 Y s 1280 509 m 14 Y s 1296 516 m 7 Y s 1311 516
 m 7 Y s 1327 516 m 7 Y s 1343 516 m 7 Y s 1358 509 m 14 Y s 1374 516 m 7 Y s 1389 516 m 7 Y s 1405 516 m 7 Y s 1421 516 m 7 Y s 1436 509 m 14 Y s 969 509 m 14 Y s 953 516 m 7 Y s 938 516 m 7 Y s 922 516 m 7 Y s 906 516 m 7 Y s 1436 509 m 14 Y s 899
 94 m 429 Y s 915 117 m -16 X s 907 126 m -8 X s 907 135 m -8 X s 907 144 m -8 X s 907 153 m -8 X s 915 162 m -16 X s 907 171 m -8 X s 907 180 m -8 X s 907 189 m -8 X s 907 198 m -8 X s 915 207 m -16 X s 907 216 m -8 X s 907 225 m -8 X s 907 234 m -8
 X s 907 243 m -8 X s 915 252 m -16 X s 907 261 m -8 X s 907 270 m -8 X s 907 279 m -8 X s 907 288 m -8 X s 915 297 m -16 X s 907 306 m -8 X s 907 315 m -8 X s 907 324 m -8 X s 907 333 m -8 X s 915 342 m -16 X s 907 351 m -8 X s 907 360 m -8 X s 907
 369 m -8 X s 907 378 m -8 X s 915 387 m -16 X s 907 396 m -8 X s 907 405 m -8 X s 907 414 m -8 X s 907 423 m -8 X s 915 432 m -16 X s 907 441 m -8 X s 907 450 m -8 X s 907 459 m -8 X s 907 468 m -8 X s 915 477 m -16 X s 907 486 m -8 X s 907 495 m -8
 X s 907 504 m -8 X s 907 513 m -8 X s 915 522 m -16 X s 915 117 m -16 X s 907 108 m -8 X s 907 99 m -8 X s 915 522 m -16 X s 1447 94 m 429 Y s 1430 117 m 17 X s 1438 126 m 9 X s 1438 135 m 9 X s 1438 144 m 9 X s 1438 153 m 9 X s 1430 162 m 17 X s
 1438 171 m 9 X s 1438 180 m 9 X s 1438 189 m 9 X s 1438 198 m 9 X s 1430 207 m 17 X s 1438 216 m 9 X s 1438 225 m 9 X s 1438 234 m 9 X s 1438 243 m 9 X s 1430 252 m 17 X s 1438 261 m 9 X s 1438 270 m 9 X s 1438 279 m 9 X s 1438 288 m 9 X s 1430 297
 m 17 X s 1438 306 m 9 X s 1438 315 m 9 X s 1438 324 m 9 X s 1438 333 m 9 X s 1430 342 m 17 X s 1438 351 m 9 X s 1438 360 m 9 X s 1438 369 m 9 X s 1438 378 m 9 X s 1430 387 m 17 X s 1438 396 m 9 X s 1438 405 m 9 X s 1438 414 m 9 X s 1438 423 m 9 X s
 1430 432 m 17 X s 1438 441 m 9 X s 1438 450 m 9 X s 1438 459 m 9 X s 1438 468 m 9 X s 1430 477 m 17 X s 1438 486 m 9 X s 1438 495 m 9 X s 1438 504 m 9 X s 1438 513 m 9 X s 1430 522 m 17 X s 1430 117 m 17 X s 1438 108 m 9 X s 1438 99 m 9 X s 1430 522
 m 17 X s
 gsave  710 567 779 12 C 1474.92 91.2634 t 90 r /Helvetica-Bold findfont 19.9602 sf 0 0 m (U/O\255flow \(S,B\): \(0.0, 0.0\)% / \(0.0, 0.0\)%) show NC gr  0.490196 0.545098 0.615686 c 0.364706 0.419608 0.490196 c 335 37 786 539 bf 0.490196 0.545098
 0.615686 c 786 539 m 335 X s 1121 539 m 37 Y s 1121 576 m -335 X s 786 576 m -37 Y s 1 1 1 c black 1 1 1 c
 gsave  710 567 779 12 C 790.007 551.299 t 0 r /Helvetica-Bold findfont 28.5146 sf 0 0 m (Input variable: bb.HS_l1) show NC gr  0.490196 0.545098 0.615686 c 0.941176 0.941176 0.941176 c 711 567 1534 12 bf black 1 1 0.992157 c 547 429 1655 94 bf black
 547 429 1655 94 bl 0 0 0.933333 c 6 lw 0.49 0.6 0.82 c black 3 lw 0.49 0.6 0.82 c 1655 94 m 62 Y 14 X 104 Y 14 X 24 Y 13 X -30 Y 14 X 24 Y 14 X -10 Y 13 X 88 Y 28 X -43 Y 13 X -13 Y 14 X -27 Y 14 X 49 Y 13 X -3 Y 14 X -21 Y 14 X 5 Y 13 X 37 Y 14 X
 -53 Y 14 X -24 Y 13 X -5 Y 14 X -8 Y 14 X 11 Y 14 X 10 Y 13 X 4 Y 14 X -11 Y 14 X -36 Y 13 X -6 Y 14 X 14 Y 14 X 8 Y 13 X -30 Y 14 X 2 Y 14 X -12 Y 13 X 5 Y 14 X -6 Y 14 X -38 Y 13 X -23 Y 14 X -38 Y 14 X 9 Y 13 X -12 Y 14 X -6 Y 14 X -1 Y 13 X f 6
 lw 0 0 0.933333 c 0.49 0.6 0.82 c 0 0 0.933333 c 1655 156 m 14 X 104 Y 14 X 24 Y 13 X -30 Y 14 X 24 Y 14 X -10 Y 13 X 88 Y 28 X -43 Y 13 X -13 Y 14 X -27 Y 14 X 49 Y 13 X -3 Y 14 X -21 Y 14 X 5 Y 13 X 37 Y 14 X -53 Y 14 X -24 Y 13 X -5 Y 14 X -8 Y
 14 X 11 Y 14 X 10 Y 13 X 4 Y 14 X -11 Y 14 X -36 Y 13 X -6 Y 14 X 14 Y 14 X 8 Y 13 X -30 Y 14 X 2 Y 14 X -12 Y 13 X 5 Y 14 X -6 Y 14 X -38 Y 13 X -23 Y 14 X -38 Y 14 X 9 Y 13 X -12 Y 14 X -6 Y 14 X -1 Y 13 X s black 3 lw 1655 94 m 547 X s 1690 107 m
 -13 Y s 1705 100 m -6 Y s 1719 100 m -6 Y s 1734 100 m -6 Y s 1748 100 m -6 Y s 1763 107 m -13 Y s 1777 100 m -6 Y s 1791 100 m -6 Y s 1806 100 m -6 Y s 1820 100 m -6 Y s 1835 107 m -13 Y s 1849 100 m -6 Y s 1864 100 m -6 Y s 1878 100 m -6 Y s 1893
 100 m -6 Y s 1907 107 m -13 Y s 1922 100 m -6 Y s 1936 100 m -6 Y s 1951 100 m -6 Y s 1965 100 m -6 Y s 1980 107 m -13 Y s 1994 100 m -6 Y s 2008 100 m -6 Y s 2023 100 m -6 Y s 2037 100 m -6 Y s 2052 107 m -13 Y s 2066 100 m -6 Y s 2081 100 m -6 Y s
 2095 100 m -6 Y s 2110 100 m -6 Y s 2124 107 m -13 Y s 2139 100 m -6 Y s 2153 100 m -6 Y s 2168 100 m -6 Y s 2182 100 m -6 Y s 2196 107 m -13 Y s 1690 107 m -13 Y s 1676 100 m -6 Y s 1661 100 m -6 Y s 2196 107 m -13 Y s
 gsave  711 567 1534 12 C 1676.63 65.3603 t 0 r /Helvetica findfont 25.6631 sf 0 0 m (0.1) show NC gr 
 gsave  711 567 1534 12 C 1665.27 65.3603 t 0 r /Symbol findfont 25.6631 sf 0 0 m (-) show NC gr 
 gsave  711 567 1534 12 C 1741.99 65.3603 t 0 r /Helvetica findfont 25.6631 sf 0 0 m (0.05) show NC gr 
 gsave  711 567 1534 12 C 1730.63 65.3603 t 0 r /Symbol findfont 25.6631 sf 0 0 m (-) show NC gr 
 gsave  711 567 1534 12 C 1824.4 65.3603 t 0 r /Helvetica findfont 25.6631 sf 0 0 m (0) show NC gr 
 gsave  711 567 1534 12 C 1881.24 65.3603 t 0 r /Helvetica findfont 25.6631 sf 0 0 m (0.05) show NC gr 
 gsave  711 567 1534 12 C 1960.81 65.3603 t 0 r /Helvetica findfont 25.6631 sf 0 0 m (0.1) show NC gr 
 gsave  711 567 1534 12 C 2026.17 65.3603 t 0 r /Helvetica findfont 25.6631 sf 0 0 m (0.15) show NC gr 
 gsave  711 567 1534 12 C 2105.74 65.3603 t 0 r /Helvetica findfont 25.6631 sf 0 0 m (0.2) show NC gr 
 gsave  711 567 1534 12 C 2168.26 65.3603 t 0 r /Helvetica findfont 25.6631 sf 0 0 m (0.25) show NC gr 
 gsave  711 567 1534 12 C 2085.84 22.734 t 0 r /Helvetica findfont 28.5146 sf 0 0 m (bb.HS_l2) show NC gr  1655 523 m 547 X s 1690 509 m 14 Y s 1705 516 m 7 Y s 1719 516 m 7 Y s 1734 516 m 7 Y s 1748 516 m 7 Y s 1763 509 m 14 Y s 1777 516 m 7 Y s
 1791 516 m 7 Y s 1806 516 m 7 Y s 1820 516 m 7 Y s 1835 509 m 14 Y s 1849 516 m 7 Y s 1864 516 m 7 Y s 1878 516 m 7 Y s 1893 516 m 7 Y s 1907 509 m 14 Y s 1922 516 m 7 Y s 1936 516 m 7 Y s 1951 516 m 7 Y s 1965 516 m 7 Y s 1980 509 m 14 Y s 1994 516
 m 7 Y s 2008 516 m 7 Y s 2023 516 m 7 Y s 2037 516 m 7 Y s 2052 509 m 14 Y s 2066 516 m 7 Y s 2081 516 m 7 Y s 2095 516 m 7 Y s 2110 516 m 7 Y s 2124 509 m 14 Y s 2139 516 m 7 Y s 2153 516 m 7 Y s 2168 516 m 7 Y s 2182 516 m 7 Y s 2196 509 m 14 Y s
 1690 509 m 14 Y s 1676 516 m 7 Y s 1661 516 m 7 Y s 2196 509 m 14 Y s 1655 94 m 429 Y s 1671 94 m -16 X s 1663 105 m -8 X s 1663 116 m -8 X s 1663 127 m -8 X s 1663 138 m -8 X s 1671 149 m -16 X s 1663 160 m -8 X s 1663 171 m -8 X s 1663 182 m -8 X
 s 1663 193 m -8 X s 1671 204 m -16 X s 1663 215 m -8 X s 1663 227 m -8 X s 1663 238 m -8 X s 1663 249 m -8 X s 1671 260 m -16 X s 1663 271 m -8 X s 1663 282 m -8 X s 1663 293 m -8 X s 1663 304 m -8 X s 1671 315 m -16 X s 1663 326 m -8 X s 1663 337 m
 -8 X s 1663 348 m -8 X s 1663 360 m -8 X s 1671 371 m -16 X s 1663 382 m -8 X s 1663 393 m -8 X s 1663 404 m -8 X s 1663 415 m -8 X s 1671 426 m -16 X s 1663 437 m -8 X s 1663 448 m -8 X s 1663 459 m -8 X s 1663 470 m -8 X s 1671 481 m -16 X s 1671
 481 m -16 X s 1663 493 m -8 X s 1663 504 m -8 X s 1663 515 m -8 X s
 gsave  711 567 1534 12 C 1631.16 82.4108 t 0 r /Helvetica findfont 25.6631 sf 0 0 m (0) show NC gr 
 gsave  711 567 1534 12 C 1634.01 139.246 t 0 r /Helvetica findfont 25.6631 sf 0 0 m (1) show NC gr 
 gsave  711 567 1534 12 C 1631.16 193.239 t 0 r /Helvetica findfont 25.6631 sf 0 0 m (2) show NC gr 
 gsave  711 567 1534 12 C 1631.16 250.074 t 0 r /Helvetica findfont 25.6631 sf 0 0 m (3) show NC gr 
 gsave  711 567 1534 12 C 1631.16 304.067 t 0 r /Helvetica findfont 25.6631 sf 0 0 m (4) show NC gr 
 gsave  711 567 1534 12 C 1631.16 360.902 t 0 r /Helvetica findfont 25.6631 sf 0 0 m (5) show NC gr 
 gsave  711 567 1534 12 C 1631.16 414.896 t 0 r /Helvetica findfont 25.6631 sf 0 0 m (6) show NC gr 
 gsave  711 567 1534 12 C 1631.16 471.731 t 0 r /Helvetica findfont 25.6631 sf 0 0 m (7) show NC gr 
 gsave  711 567 1534 12 C 1557.28 414.896 t 90 r /Helvetica findfont 28.5146 sf 0 0 m (0.00946 ) show NC gr 
 gsave  711 567 1534 12 C 1543.07 412.054 t 90 r /Helvetica findfont 19.9602 sf 0 0 m ( ) show NC gr 
 gsave  711 567 1534 12 C 1557.28 400.687 t 90 r /Helvetica findfont 28.5146 sf 0 0 m (/) show NC gr 
 gsave  711 567 1534 12 C 1565.8 397.845 t 90 r /Helvetica findfont 19.9602 sf 0 0 m ( ) show NC gr 
 gsave  711 567 1534 12 C 1557.28 292.7 t 90 r /Helvetica findfont 28.5146 sf 0 0 m (\(1/N\) dN) show NC gr  2202 94 m 429 Y s 2186 94 m 16 X s 2194 105 m 8 X s 2194 116 m 8 X s 2194 127 m 8 X s 2194 138 m 8 X s 2186 149 m 16 X s 2194 160 m 8 X s
 2194 171 m 8 X s 2194 182 m 8 X s 2194 193 m 8 X s 2186 204 m 16 X s 2194 215 m 8 X s 2194 227 m 8 X s 2194 238 m 8 X s 2194 249 m 8 X s 2186 260 m 16 X s 2194 271 m 8 X s 2194 282 m 8 X s 2194 293 m 8 X s 2194 304 m 8 X s 2186 315 m 16 X s 2194 326
 m 8 X s 2194 337 m 8 X s 2194 348 m 8 X s 2194 360 m 8 X s 2186 371 m 16 X s 2194 382 m 8 X s 2194 393 m 8 X s 2194 404 m 8 X s 2194 415 m 8 X s 2186 426 m 16 X s 2194 437 m 8 X s 2194 448 m 8 X s 2194 459 m 8 X s 2194 470 m 8 X s 2186 481 m 16 X s
 2186 481 m 16 X s 2194 493 m 8 X s 2194 504 m 8 X s 2194 515 m 8 X s 0.490196 0.545098 0.615686 c 0.364706 0.419608 0.490196 c 338 37 1542 539 bf 0.490196 0.545098 0.615686 c 1542 539 m 338 X s 1880 539 m 37 Y s 1880 576 m -338 X s 1542 576 m -37 Y
 s 1 1 1 c black 1 1 1 c
 gsave  711 567 1534 12 C 1545.91 551.299 t 0 r /Helvetica-Bold findfont 28.5146 sf 0 0 m (Input variable: bb.HS_l2) show NC gr  1 0 0 c 6 lw black 3 lw 1 0 0 c 2189 94 m -1 X s 2175 96 m -2 -2 d s 2175 110 m -17 -16 d s 2163 114 m -2 -2 d s 2157 107
 m -14 -13 d s 2148 113 m -20 -19 d s 2148 128 m -35 -34 d s 2148 144 m -50 -50 d s 2148 159 m -14 -14 d s 2129 140 m -9 -9 d s 2110 121 m -27 -27 d s 2148 174 m -14 -14 d s 2107 133 m -39 -39 d s 2148 189 m -14 -14 d s 2107 148 m -54 -54 d s 2135
 192 m -1 -1 d s 2107 163 m -69 -69 d s 2098 169 m -75 -75 d s 2093 180 m -14 -14 d s 2069 155 m -61 -61 d s 2093 195 m -14 -14 d s 2066 167 m -74 -73 d s 2083 200 m -4 -4 d s 2066 182 m -89 -88 d s 2066 198 m -104 -104 d s 2066 213 m -119 -119 d s
 2066 228 m -28 -28 d s 2025 187 m -93 -93 d s 2061 239 m -23 -23 d s 2025 202 m -108 -108 d s 2052 245 m -14 -14 d s 2016 209 m -19 -20 d s 1984 176 m -82 -82 d s 2052 260 m -14 -14 d s 2011 218 m -14 -13 d s 1984 191 m -14 -14 d s 1969 176 m -82
 -82 d s 2052 275 m -14 -14 d s 2011 234 m -14 -14 d s 1984 206 m -14 -14 d s 1956 178 m -84 -84 d s 2052 290 m -14 -14 d s 2011 249 m -14 -14 d s 1984 221 m -14 -14 d s 1956 194 m -13 -14 d s 1937 174 m -80 -80 d s 2052 305 m -14 -13 d s 2011 264 m
 -14 -14 d s 1984 236 m -14 -13 d s 1956 209 m -13 -14 d s 1929 181 m -87 -87 d s 2052 320 m -14 -13 d s 2011 279 m -14 -14 d s 1977 245 m -7 -7 d s 1956 224 m -13 -14 d s 1929 196 m -102 -102 d s 2044 328 m -6 -6 d s 2011 294 m -14 -13 d s 1956 239
 m -13 -14 d s 1929 212 m -117 -118 d s 2011 310 m -14 -14 d s 1956 254 m -13 -13 d s 1929 227 m -133 -133 d s 2011 325 m -14 -14 d s 1956 270 m -13 -14 d s 1929 242 m -14 -14 d s 1913 226 m -132 -132 d s 2011 340 m -14 -14 d s 1956 285 m -13 -14 d s
 1929 257 m -14 -14 d s 1901 230 m -135 -136 d s 2009 353 m -12 -12 d s 1956 300 m -13 -14 d s 1929 272 m -14 -13 d s 1901 245 m -150 -151 d s 1956 315 m -13 -14 d s 1929 288 m -14 -14 d s 1901 260 m -165 -166 d s 1956 330 m -13 -13 d s 1929 303 m
 -14 -14 d s 1901 275 m -13 -14 d s 1885 259 m -93 -94 d s 1792 165 m -71 -71 d s 1956 346 m -13 -14 d s 1929 318 m -14 -14 d s 1901 290 m -13 -13 d s 1858 247 m -66 -67 d s 1778 166 m -72 -72 d s 1956 361 m -13 -14 d s 1929 333 m -14 -14 d s 1847
 250 m -55 -55 d s 1778 182 m -87 -88 d s 1943 363 m -1 Y s 1928 348 m -13 -13 d s 1847 266 m -41 -42 d s 1805 223 m -13 -12 d s 1778 197 m -102 -103 d s 1847 281 m -14 -14 d s 1827 261 m -21 -22 d s 1778 212 m -117 -118 d s 1841 290 m -8 -8 d s 1819
 268 m -13 -13 d s 1778 226 m -123 -123 d s 1819 284 m -13 -14 d s 1765 229 m -110 -111 d s 1819 299 m -13 -14 d s 1765 244 m -110 -111 d s 1819 314 m -13 -14 d s 1765 259 m -110 -110 d s 1812 321 m -6 -6 d s 1765 274 m -110 -110 d s 1765 289 m -110
 -110 d s 1765 304 m -82 -82 d s 1670 209 m -15 -15 d s 1765 320 m -28 -28 d s 1737 291 m -54 -54 d s 1669 223 m -14 -14 d s 1765 335 m -28 -28 d s 1724 293 m -41 -41 d s 1669 238 m -14 -13 d s 1765 350 m -28 -28 d s 1710 295 m -27 -28 d s 1669 254 m
 -14 -14 d s 1765 365 m -28 -27 d s 1710 310 m -27 -27 d s 1669 269 m -14 -14 d s 1765 380 m -28 -27 d s 1710 325 m -27 -27 d s 1669 284 m -14 -14 d s 1765 396 m -28 -28 d s 1710 340 m -14 -13 d s 1694 324 m -11 -11 d s 1668 298 m -13 -13 d s 1765
 411 m -28 -28 d s 1699 345 m -3 -3 d s 1754 415 m -17 -17 d s 1751 427 m -14 -13 d s 1751 442 m -14 -13 d s 1751 458 m -14 -14 d s 1751 473 m -14 -14 d s 1747 484 m -10 -10 d s 6 lw 1655 298 m 14 X -89 Y 14 X 115 Y 13 X 21 Y 14 X -51 Y 14 X -3 Y 13
 X 193 Y 14 X -69 Y 14 X -189 Y 13 X -61 Y 14 X 58 Y 14 X 98 Y 13 X -60 Y 14 X 29 Y 14 X -43 Y 13 X 1 Y 14 X 11 Y 14 X 32 Y 13 X -65 Y 14 X 122 Y 14 X -174 Y 14 X 189 Y 13 X -187 Y 14 X 69 Y 14 X -69 Y 13 X 177 Y 14 X -144 Y 14 X -24 Y 13 X 143 Y 14
 X -89 Y 14 X -84 Y 13 X 45 Y 14 X -31 Y 14 X -48 Y 13 X 19 Y 14 X 52 Y 14 X -85 Y 13 X 7 Y 14 X -18 Y 14 X -2 Y 13 X s black 3 lw 1655 94 m 547 X s 1690 107 m -13 Y s 1705 100 m -6 Y s 1719 100 m -6 Y s 1734 100 m -6 Y s 1748 100 m -6 Y s 1763 107 m
 -13 Y s 1777 100 m -6 Y s 1791 100 m -6 Y s 1806 100 m -6 Y s 1820 100 m -6 Y s 1835 107 m -13 Y s 1849 100 m -6 Y s 1864 100 m -6 Y s 1878 100 m -6 Y s 1893 100 m -6 Y s 1907 107 m -13 Y s 1922 100 m -6 Y s 1936 100 m -6 Y s 1951 100 m -6 Y s 1965
 100 m -6 Y s 1980 107 m -13 Y s 1994 100 m -6 Y s 2008 100 m -6 Y s 2023 100 m -6 Y s 2037 100 m -6 Y s 2052 107 m -13 Y s 2066 100 m -6 Y s 2081 100 m -6 Y s 2095 100 m -6 Y s 2110 100 m -6 Y s 2124 107 m -13 Y s 2139 100 m -6 Y s 2153 100 m -6 Y s
 2168 100 m -6 Y s 2182 100 m -6 Y s 2196 107 m -13 Y s 1690 107 m -13 Y s 1676 100 m -6 Y s 1661 100 m -6 Y s 2196 107 m -13 Y s 1655 523 m 547 X s 1690 509 m 14 Y s 1705 516 m 7 Y s 1719 516 m 7 Y s 1734 516 m 7 Y s 1748 516 m 7 Y s 1763 509 m 14 Y
 s 1777 516 m 7 Y s 1791 516 m 7 Y s 1806 516 m 7 Y s 1820 516 m 7 Y s 1835 509 m 14 Y s 1849 516 m 7 Y s 1864 516 m 7 Y s 1878 516 m 7 Y s 1893 516 m 7 Y s 1907 509 m 14 Y s 1922 516 m 7 Y s 1936 516 m 7 Y s 1951 516 m 7 Y s 1965 516 m 7 Y s 1980
 509 m 14 Y s 1994 516 m 7 Y s 2008 516 m 7 Y s 2023 516 m 7 Y s 2037 516 m 7 Y s 2052 509 m 14 Y s 2066 516 m 7 Y s 2081 516 m 7 Y s 2095 516 m 7 Y s 2110 516 m 7 Y s 2124 509 m 14 Y s 2139 516 m 7 Y s 2153 516 m 7 Y s 2168 516 m 7 Y s 2182 516 m 7
 Y s 2196 509 m 14 Y s 1690 509 m 14 Y s 1676 516 m 7 Y s 1661 516 m 7 Y s 2196 509 m 14 Y s 1655 94 m 429 Y s 1671 94 m -16 X s 1663 105 m -8 X s 1663 116 m -8 X s 1663 127 m -8 X s 1663 138 m -8 X s 1671 149 m -16 X s 1663 160 m -8 X s 1663 171 m
 -8 X s 1663 182 m -8 X s 1663 193 m -8 X s 1671 204 m -16 X s 1663 215 m -8 X s 1663 227 m -8 X s 1663 238 m -8 X s 1663 249 m -8 X s 1671 260 m -16 X s 1663 271 m -8 X s 1663 282 m -8 X s 1663 293 m -8 X s 1663 304 m -8 X s 1671 315 m -16 X s 1663
 326 m -8 X s 1663 337 m -8 X s 1663 348 m -8 X s 1663 360 m -8 X s 1671 371 m -16 X s 1663 382 m -8 X s 1663 393 m -8 X s 1663 404 m -8 X s 1663 415 m -8 X s 1671 426 m -16 X s 1663 437 m -8 X s 1663 448 m -8 X s 1663 459 m -8 X s 1663 470 m -8 X s
 1671 481 m -16 X s 1671 481 m -16 X s 1663 493 m -8 X s 1663 504 m -8 X s 1663 515 m -8 X s 2202 94 m 429 Y s 2186 94 m 16 X s 2194 105 m 8 X s 2194 116 m 8 X s 2194 127 m 8 X s 2194 138 m 8 X s 2186 149 m 16 X s 2194 160 m 8 X s 2194 171 m 8 X s
 2194 182 m 8 X s 2194 193 m 8 X s 2186 204 m 16 X s 2194 215 m 8 X s 2194 227 m 8 X s 2194 238 m 8 X s 2194 249 m 8 X s 2186 260 m 16 X s 2194 271 m 8 X s 2194 282 m 8 X s 2194 293 m 8 X s 2194 304 m 8 X s 2186 315 m 16 X s 2194 326 m 8 X s 2194 337
 m 8 X s 2194 348 m 8 X s 2194 360 m 8 X s 2186 371 m 16 X s 2194 382 m 8 X s 2194 393 m 8 X s 2194 404 m 8 X s 2194 415 m 8 X s 2186 426 m 16 X s 2194 437 m 8 X s 2194 448 m 8 X s 2194 459 m 8 X s 2194 470 m 8 X s 2186 481 m 16 X s 2186 481 m 16 X s
 2194 493 m 8 X s 2194 504 m 8 X s 2194 515 m 8 X s
 gsave  711 567 1534 12 C 2230.83 91.2634 t 90 r /Helvetica-Bold findfont 19.9602 sf 0 0 m (U/O\255flow \(S,B\): \(0.0, 0.0\)% / \(0.0, 0.0\)%) show NC gr  0.490196 0.545098 0.615686 c 0.364706 0.419608 0.490196 c 338 37 1542 539 bf 0.490196 0.545098
 0.615686 c 1542 539 m 338 X s 1880 539 m 37 Y s 1880 576 m -338 X s 1542 576 m -37 Y s 1 1 1 c black 1 1 1 c
 gsave  711 567 1534 12 C 1545.91 551.299 t 0 r /Helvetica-Bold findfont 28.5146 sf 0 0 m (Input variable: bb.HS_l2) show NC gr 
 gr  gr showpage
end
%%EOF
