%!PS-Adobe-2.0 EPSF-2.0
%%BoundingBox:  0 0 567 296
%%Title: dataset_class_jetN/plots/variables_id_c4.eps: Input variables (training sample)
%%Creator: ROOT Version 6.18/00
%%CreationDate: Sun Sep 15 10:44:54 2019
%%DocumentNeededResources: ProcSet (FontSetInit)
%%EndComments
%%BeginProlog
80 dict begin
/s {stroke} def /l {lineto} def /m {moveto} def /t {translate} def
/r {rotate} def /rl {roll}  def /R {repeat} def
/d {rlineto} def /rm {rmoveto} def /gr {grestore} def /f {eofill} def
/c {setrgbcolor} def /black {0 setgray} def /sd {setdash} def
/cl {closepath} def /sf {scalefont setfont} def /lw {setlinewidth} def
/box {m dup 0 exch d exch 0 d 0 exch neg d cl} def
/NC{systemdict begin initclip end}def/C{NC box clip newpath}def
/bl {box s} def /bf {gsave box gsave f grestore 1 lw [] 0 sd s grestore} def /Y { 0 exch d} def /X { 0 d} def 
/K {{pop pop 0 moveto} exch kshow} bind def
/ita {/ang 15 def gsave [1 0 ang dup sin exch cos div 1 0 0] concat} def 
/mp {newpath /y exch def /x exch def} def
/side {[w .77 mul w .23 mul] .385 w mul sd w 0 l currentpoint t -144 r} def
/mr {mp x y w2 0 360 arc} def /m24 {mr s} def /m20 {mr f} def
/mb {mp x y w2 add m w2 neg 0 d 0 w neg d w 0 d 0 w d cl} def
/mt {mp x y w2 add m w2 neg w neg d w 0 d cl} def
/w4 {w 4 div} def
/w6 {w 6 div} def
/w8 {w 8 div} def
/m21 {mb f} def /m25 {mb s} def /m22 {mt f} def /m26{mt s} def
/m23 {mp x y w2 sub m w2 w d w neg 0 d cl f} def
/m27 {mp x y w2 add m w3 neg w2 neg d w3 w2 neg d w3 w2 d cl s} def
/m28 {mp x w2 sub y w2 sub w3 add m w3 0 d  0 w3 neg d w3 0 d 0 w3 d w3 0 d  0 w3 d w3 neg 0 d 0 w3 d w3 neg 0 d 0 w3 neg d w3 neg 0 d cl s } def
/m29 {mp gsave x w2 sub y w2 add w3 sub m currentpoint t 4 {side} repeat cl fill gr} def
/m30 {mp gsave x w2 sub y w2 add w3 sub m currentpoint t 4 {side} repeat cl s gr} def
/m31 {mp x y w2 sub m 0 w d x w2 sub y m w 0 d x w2 sub y w2 add m w w neg d x w2 sub y w2 sub m w w d s} def
/m32 {mp x y w2 sub m w2 w d w neg 0 d cl s} def
/m33 {mp x y w2 add m w3 neg w2 neg d w3 w2 neg d w3 w2 d cl f} def
/m34 {mp x w2 sub y w2 sub w3 add m w3 0 d  0 w3 neg d w3 0 d 0 w3 d w3 0 d  0 w3 d w3 neg 0 d 0 w3 d w3 neg 0 d 0 w3 neg d w3 neg 0 d cl f } def
/m35 {mp x y w2 add m w2 neg w2 neg d w2 w2 neg d w2 w2 d w2 neg w2 d x y w2 sub m 0 w d x w2 sub y m w 0 d s} def
/m36 {mb x w2 sub y w2 add m w w neg d x w2 sub y w2 sub m w w d s} def
/m37 {mp x y m w4 neg w2 d w4 neg w2 neg d w2 0 d  w4 neg w2 neg d w2 0 d w4 neg w2 d w2 0 d w4 neg w2 d w4 neg w2 neg d cl s} def
/m38 {mp x w4 sub y w2 add m w4 neg w4 neg d 0 w2 neg d w4 w4 neg d w2 0 d w4 w4 d 0 w2 d w4 neg w4 d w2 neg 0 d x y w2 sub m 0 w d x w2 sub y m w 0 d cl s} def
/m39 {mp x y m w4 neg w2 d w4 neg w2 neg d w2 0 d  w4 neg w2 neg d w2 0 d w4 neg w2 d w2 0 d w4 neg w2 d w4 neg w2 neg d cl f} def
/m40 {mp x y m w4 w2 d w4 w4 neg d w2 neg w4 neg d w2 w4 neg d w4 neg w4 neg d w4 neg w2 d w4 neg w2 neg d w4 neg w4 d w2 w4 d w2 neg w4 d w4 w4 d w4 w2 neg d cl s} def
/m41 {mp x y m w4 w2 d w4 w4 neg d w2 neg w4 neg d w2 w4 neg d w4 neg w4 neg d w4 neg w2 d w4 neg w2 neg d w4 neg w4 d w2 w4 d w2 neg w4 d w4 w4 d w4 w2 neg d cl f} def
/m42 {mp x y w2 add m w8 neg w2 -3 4 div mul d w2 -3 4 div mul w8 neg d w2 3 4 div mul w8 neg d w8 w2 -3 4 div mul d w8 w2 3 4 div mul d w2 3 4 div mul w8 d w2 -3 4 div mul w8 d w8 neg w2 3 4 div mul d cl s} def
/m43 {mp x y w2 add m w8 neg w2 -3 4 div mul d w2 -3 4 div mul w8 neg d w2 3 4 div mul w8 neg d w8 w2 -3 4 div mul d w8 w2 3 4 div mul d w2 3 4 div mul w8 d w2 -3 4 div mul w8 d w8 neg w2 3 4 div mul d cl f} def
/m44 {mp x y m w6 neg w2 d w2 2 3 div mul 0 d w6 neg w2 neg d w2 w6 d 0 w2 -2 3 div mul d w2 neg w6 d w6 w2 neg d w2 -2 3 div mul 0 d w6 w2 d w2 neg w6 neg d 0 w2 2 3 div mul d w2 w6 neg d cl s} def
/m45 {mp x y m w6 neg w2 d w2 2 3 div mul 0 d w6 neg w2 neg d w2 w6 d 0 w2 -2 3 div mul d w2 neg w6 d w6 w2 neg d w2 -2 3 div mul 0 d w6 w2 d w2 neg w6 neg d 0 w2 2 3 div mul d w2 w6 neg d cl f} def
/m46 {mp x y w4 add m w4 neg w4 d w4 neg w4 neg d  w4 w4 neg d w4 neg w4 neg d w4 w4 neg d w4 w4 d w4 w4 neg d w4 w4 d w4 neg w4 d w4 w4 d w4 neg w4 d w4 neg w4 neg d cl s} def
/m47 {mp x y w4 add m w4 neg w4 d w4 neg w4 neg d w4 w4 neg d w4 neg w4 neg d  w4 w4 neg d w4 w4 d w4 w4 neg d w4 w4 d w4 neg w4 d w4 w4 d w4 neg w4 d w4 neg w4 neg d cl f} def
/m48 {mp x y w4 add m w4 neg w4 d w4 neg w4 neg d w4 w4 neg d  w4 neg w4 neg d w4 w4 neg d w4 w4 d w4 w4 neg d w4 w4 d w4 neg w4 d w4 w4 d w4 neg w4 d w4 neg w4 neg d  w4 w4 neg d w4 neg w4 neg d w4 neg w4 d w4 w4 d cl f} def
/m49 {mp x w2 sub w3 add y w2 sub w3 add m  0 w3 neg d w3 0 d 0 w3 d w3 0 d 0 w3 d w3 neg 0 d 0 w3 d w3 neg 0 d 0 w3 neg d w3 neg 0 d 0 w3 neg d w3 0 d 0 w3 d w3 0 d 0 w3 neg d w3 neg 0 d cl f } def
/m2 {mp x y w2 sub m 0 w d x w2 sub y m w 0 d s} def
/m5 {mp x w2 sub y w2 sub m w w d x w2 sub y w2 add m w w neg d s} def
%%IncludeResource: ProcSet (FontSetInit)
%%IncludeResource: font Times-Roman
%%IncludeResource: font Times-Italic
%%IncludeResource: font Times-Bold
%%IncludeResource: font Times-BoldItalic
%%IncludeResource: font Helvetica
%%IncludeResource: font Helvetica-Oblique
%%IncludeResource: font Helvetica-Bold
%%IncludeResource: font Helvetica-BoldOblique
%%IncludeResource: font Courier
%%IncludeResource: font Courier-Oblique
%%IncludeResource: font Courier-Bold
%%IncludeResource: font Courier-BoldOblique
%%IncludeResource: font Symbol
%%IncludeResource: font ZapfDingbats
/reEncode {exch findfont dup length dict begin {1 index /FID eq  {pop pop} {def} ifelse } forall /Encoding exch def currentdict end dup /FontName get exch definefont pop } def [/Times-Bold /Times-Italic /Times-BoldItalic /Helvetica /Helvetica-Oblique
 /Helvetica-Bold /Helvetica-BoldOblique /Courier /Courier-Oblique /Courier-Bold /Courier-BoldOblique /Times-Roman /AvantGarde-Book /AvantGarde-BookOblique /AvantGarde-Demi /AvantGarde-DemiOblique /Bookman-Demi /Bookman-DemiItalic /Bookman-Light
 /Bookman-LightItalic /Helvetica-Narrow /Helvetica-Narrow-Bold /Helvetica-Narrow-BoldOblique /Helvetica-Narrow-Oblique /NewCenturySchlbk-Roman /NewCenturySchlbk-Bold /NewCenturySchlbk-BoldItalic /NewCenturySchlbk-Italic /Palatino-Bold
 /Palatino-BoldItalic /Palatino-Italic /Palatino-Roman ] {ISOLatin1Encoding reEncode } forall
%%EndProlog
%%BeginSetup
%%EndSetup
newpath  gsave  .25 .25 scale  gsave  0 0 t 0.490196 0.545098 0.615686 c[  ] 0 sd 3 lw 0.941176 0.941176 0.941176 c 2268 1182 0 0 bf 0.490196 0.545098 0.615686 c 0.941176 0.941176 0.941176 c 710 567 23 603 bf black 1 1 0.992157 c 548 429 143 685 bf
 black 548 429 143 685 bl 0 0 0.933333 c 6 lw 0.49 0.6 0.82 c black 3 lw 0.49 0.6 0.82 c 143 712 m 50 Y 14 X 139 Y 14 X 63 Y 14 X 52 Y 13 X -1 Y 14 X -23 Y 14 X -74 Y 13 X -14 Y 14 X -27 Y 14 X -15 Y 13 X 7 Y 14 X -39 Y 14 X 75 Y 13 X -70 Y 14 X 22 Y
 14 X -15 Y 13 X 60 Y 14 X -39 Y 14 X 99 Y 27 X -46 Y 14 X -141 Y 13 X -22 Y 14 X -3 Y 14 X -5 Y 13 X 4 Y 14 X 8 Y 14 X 2 Y 13 X -7 Y 14 X -14 Y 14 X 15 Y 13 X -14 Y 14 X -7 Y 14 X -1 Y 14 X -26 Y 13 X 14 Y 14 X -2 Y 14 X -3 Y 13 X -2 Y 28 X f 6 lw 0
 0 0.933333 c 0.49 0.6 0.82 c 0 0 0.933333 c 143 762 m 14 X 139 Y 14 X 63 Y 14 X 52 Y 13 X -1 Y 14 X -23 Y 14 X -74 Y 13 X -14 Y 14 X -27 Y 14 X -15 Y 13 X 7 Y 14 X -39 Y 14 X 75 Y 13 X -70 Y 14 X 22 Y 14 X -15 Y 13 X 60 Y 14 X -39 Y 14 X 99 Y 27 X
 -46 Y 14 X -141 Y 13 X -22 Y 14 X -3 Y 14 X -5 Y 13 X 4 Y 14 X 8 Y 14 X 2 Y 13 X -7 Y 14 X -14 Y 14 X 15 Y 13 X -14 Y 14 X -7 Y 14 X -1 Y 14 X -26 Y 13 X 14 Y 14 X -2 Y 14 X -3 Y 13 X -2 Y 28 X s black 3 lw 143 685 m 548 X s 153 698 m -13 Y s 168
 691 m -6 Y s 183 691 m -6 Y s 199 691 m -6 Y s 214 691 m -6 Y s 229 698 m -13 Y s 244 691 m -6 Y s 259 691 m -6 Y s 275 691 m -6 Y s 290 691 m -6 Y s 305 698 m -13 Y s 320 691 m -6 Y s 335 691 m -6 Y s 350 691 m -6 Y s 366 691 m -6 Y s 381 698 m -13
 Y s 396 691 m -6 Y s 411 691 m -6 Y s 426 691 m -6 Y s 442 691 m -6 Y s 457 698 m -13 Y s 472 691 m -6 Y s 487 691 m -6 Y s 502 691 m -6 Y s 518 691 m -6 Y s 533 698 m -13 Y s 548 691 m -6 Y s 563 691 m -6 Y s 578 691 m -6 Y s 594 691 m -6 Y s 609
 698 m -13 Y s 624 691 m -6 Y s 639 691 m -6 Y s 654 691 m -6 Y s 669 691 m -6 Y s 685 698 m -13 Y s 153 698 m -13 Y s 685 698 m -13 Y s
 gsave  710 567 23 603 C 139.246 656.444 t 0 r /Helvetica findfont 25.6631 sf 0 0 m (0.1) show NC gr 
 gsave  710 567 23 603 C 127.879 656.444 t 0 r /Symbol findfont 25.6631 sf 0 0 m (-) show NC gr 
 gsave  710 567 23 603 C 207.448 656.444 t 0 r /Helvetica findfont 25.6631 sf 0 0 m (0.05) show NC gr 
 gsave  710 567 23 603 C 196.081 656.444 t 0 r /Symbol findfont 25.6631 sf 0 0 m (-) show NC gr 
 gsave  710 567 23 603 C 295.542 656.444 t 0 r /Helvetica findfont 25.6631 sf 0 0 m (0) show NC gr 
 gsave  710 567 23 603 C 355.219 656.444 t 0 r /Helvetica findfont 25.6631 sf 0 0 m (0.05) show NC gr 
 gsave  710 567 23 603 C 437.63 656.444 t 0 r /Helvetica findfont 25.6631 sf 0 0 m (0.1) show NC gr 
 gsave  710 567 23 603 C 505.832 656.444 t 0 r /Helvetica findfont 25.6631 sf 0 0 m (0.15) show NC gr 
 gsave  710 567 23 603 C 591.084 656.444 t 0 r /Helvetica findfont 25.6631 sf 0 0 m (0.2) show NC gr 
 gsave  710 567 23 603 C 656.444 656.444 t 0 r /Helvetica findfont 25.6631 sf 0 0 m (0.25) show NC gr 
 gsave  710 567 23 603 C 576.875 613.818 t 0 r /Helvetica findfont 28.5146 sf 0 0 m (hh.HS_l4) show NC gr  143 1114 m 548 X s 153 1100 m 14 Y s 168 1107 m 7 Y s 183 1107 m 7 Y s 199 1107 m 7 Y s 214 1107 m 7 Y s 229 1100 m 14 Y s 244 1107 m 7 Y s 259
 1107 m 7 Y s 275 1107 m 7 Y s 290 1107 m 7 Y s 305 1100 m 14 Y s 320 1107 m 7 Y s 335 1107 m 7 Y s 350 1107 m 7 Y s 366 1107 m 7 Y s 381 1100 m 14 Y s 396 1107 m 7 Y s 411 1107 m 7 Y s 426 1107 m 7 Y s 442 1107 m 7 Y s 457 1100 m 14 Y s 472 1107 m 7
 Y s 487 1107 m 7 Y s 502 1107 m 7 Y s 518 1107 m 7 Y s 533 1100 m 14 Y s 548 1107 m 7 Y s 563 1107 m 7 Y s 578 1107 m 7 Y s 594 1107 m 7 Y s 609 1100 m 14 Y s 624 1107 m 7 Y s 639 1107 m 7 Y s 654 1107 m 7 Y s 669 1107 m 7 Y s 685 1100 m 14 Y s 153
 1100 m 14 Y s 685 1100 m 14 Y s 143 685 m 429 Y s 160 712 m -17 X s 152 732 m -9 X s 152 752 m -9 X s 152 773 m -9 X s 160 793 m -17 X s 152 813 m -9 X s 152 833 m -9 X s 152 853 m -9 X s 160 873 m -17 X s 152 894 m -9 X s 152 914 m -9 X s 152 934 m
 -9 X s 160 954 m -17 X s 152 974 m -9 X s 152 995 m -9 X s 152 1015 m -9 X s 160 1035 m -17 X s 160 712 m -17 X s 152 692 m -9 X s 160 1035 m -17 X s 152 1055 m -9 X s 152 1075 m -9 X s 152 1095 m -9 X s
 gsave  710 567 23 603 C 119.354 701.912 t 0 r /Helvetica findfont 25.6631 sf 0 0 m (0) show NC gr 
 gsave  710 567 23 603 C 119.354 781.481 t 0 r /Helvetica findfont 25.6631 sf 0 0 m (2) show NC gr 
 gsave  710 567 23 603 C 119.354 863.892 t 0 r /Helvetica findfont 25.6631 sf 0 0 m (4) show NC gr 
 gsave  710 567 23 603 C 119.354 943.461 t 0 r /Helvetica findfont 25.6631 sf 0 0 m (6) show NC gr 
 gsave  710 567 23 603 C 119.354 1025.87 t 0 r /Helvetica findfont 25.6631 sf 0 0 m (8) show NC gr 
 gsave  710 567 23 603 C 45.468 1037.24 t 90 r /Helvetica findfont 28.5146 sf 0 0 m (0.009 ) show NC gr 
 gsave  710 567 23 603 C 31.2593 1034.4 t 90 r /Helvetica findfont 19.9602 sf 0 0 m ( ) show NC gr 
 gsave  710 567 23 603 C 45.468 1023.03 t 90 r /Helvetica findfont 28.5146 sf 0 0 m (/) show NC gr 
 gsave  710 567 23 603 C 53.9933 1020.19 t 90 r /Helvetica findfont 19.9602 sf 0 0 m ( ) show NC gr 
 gsave  710 567 23 603 C 45.468 915.044 t 90 r /Helvetica findfont 28.5146 sf 0 0 m (\(1/N\) dN) show NC gr  691 685 m 429 Y s 674 712 m 17 X s 683 732 m 8 X s 683 752 m 8 X s 683 773 m 8 X s 674 793 m 17 X s 683 813 m 8 X s 683 833 m 8 X s 683 853 m
 8 X s 674 873 m 17 X s 683 894 m 8 X s 683 914 m 8 X s 683 934 m 8 X s 674 954 m 17 X s 683 974 m 8 X s 683 995 m 8 X s 683 1015 m 8 X s 674 1035 m 17 X s 674 712 m 17 X s 683 692 m 8 X s 674 1035 m 17 X s 683 1055 m 8 X s 683 1075 m 8 X s 683 1095
 m 8 X s 0.490196 0.545098 0.615686 c 0.364706 0.419608 0.490196 c 338 38 30 1130 bf 0.490196 0.545098 0.615686 c 30 1130 m 338 X s 368 1130 m 38 Y s 368 1168 m -338 X s 30 1168 m -38 Y s 1 1 1 c black 1 1 1 c
 gsave  710 567 23 603 C 34.101 1142.38 t 0 r /Helvetica-Bold findfont 28.5146 sf 0 0 m (Input variable: hh.HS_l4) show NC gr  1 0 0 c 6 lw black 3 lw 1 0 0 c 689 712 m s 674 712 m s 660 714 m -1 -2 d s 645 713 m -1 -1 d s 630 714 m -1 -2 d s 615 714
 m -2 -2 d s 609 722 m -11 -10 d s 595 724 m -12 -12 d s 595 739 m -14 -14 d s 577 721 m -9 -9 d s 584 743 m -3 -3 d s 561 720 m -8 -8 d s 554 728 m -16 -16 d s 544 733 m -18 -17 d s 526 716 m -3 -4 d s 540 745 m -14 -14 d s 513 717 m -5 -5 d s 528
 747 m -2 -1 d s 502 721 m -9 -9 d s 499 734 m -21 -22 d s 499 749 m -36 -37 d s 499 764 m -27 -28 d s 463 727 m -5 -4 d s 456 720 m -8 -8 d s 499 779 m -27 -27 d s 444 724 m -11 -12 d s 499 794 m -14 -13 d s 481 776 m -9 -9 d s 444 739 m -27 -27 d s
 444 754 m -42 -42 d s 444 770 m -57 -58 d s 444 785 m -72 -73 d s 444 800 m -87 -88 d s 444 815 m -102 -103 d s 433 819 m -2 -2 d s 423 809 m -96 -97 d s 417 818 m -105 -106 d s 417 833 m -120 -121 d s 417 848 m -135 -136 d s 417 863 m -41 -41 d s
 371 817 m -104 -105 d s 416 878 m -40 -41 d s 362 824 m -110 -112 d s 403 880 m -27 -27 d s 362 839 m -125 -127 d s 403 895 m -27 -27 d s 362 854 m -13 -14 d s 344 835 m -23 -22 d s 316 808 m -94 -96 d s 403 910 m -27 -27 d s 362 869 m -13 -14 d s
 335 842 m -14 -14 d s 308 814 m -102 -102 d s 403 926 m -27 -28 d s 362 884 m -13 -13 d s 335 857 m -14 -14 d s 308 829 m -41 -41 d s 260 781 m -69 -69 d s 403 941 m -27 -28 d s 362 899 m -13 -13 d s 328 865 m -7 -7 d s 308 844 m -41 -41 d s 253 789
 m -77 -77 d s 403 956 m -27 -28 d s 362 915 m -13 -14 d s 308 860 m -41 -42 d s 253 804 m -92 -92 d s 403 971 m -27 -27 d s 362 930 m -13 -14 d s 306 874 m -39 -41 d s 253 820 m -107 -108 d s 403 986 m -27 -27 d s 362 945 m -13 -14 d s 294 876 m -27
 -27 d s 253 835 m -96 -97 d s 151 732 m -8 -7 d s 403 1002 m -27 -28 d s 362 960 m -13 -14 d s 293 890 m -26 -26 d s 253 850 m -96 -96 d s 400 1013 m -10 -10 d s 388 1001 m -12 -12 d s 362 975 m -13 -13 d s 280 893 m -13 -14 d s 253 865 m -96 -96 d
 s 353 982 m -4 -5 d s 280 908 m -13 -14 d s 253 880 m -96 -96 d s 280 923 m -13 -14 d s 253 896 m -96 -97 d s 268 926 m -1 -2 d s 253 911 m -96 -97 d s 253 926 m -96 -97 d s 253 941 m -14 -14 d s 234 922 m -77 -77 d s 253 956 m -14 -14 d s 226 929 m
 -28 -28 d s 185 887 m -28 -27 d s 253 971 m -14 -13 d s 226 944 m -28 -28 d s 185 903 m -28 -28 d s 253 987 m -14 -14 d s 226 959 m -28 -27 d s 185 918 m -28 -28 d s 253 1002 m -14 -14 d s 226 974 m -14 -14 d s 206 954 m -8 -7 d s 185 933 m -28 -28
 d s 253 1017 m -14 -14 d s 226 989 m -14 -13 d s 185 948 m -28 -27 d s 251 1030 m -12 -12 d s 226 1005 m -14 -14 d s 185 963 m -28 -27 d s 226 1020 m -14 -14 d s 185 978 m -14 -13 d s 158 952 m -1 -1 d s 226 1035 m -14 -14 d s 185 994 m -14 -14 d s
 226 1050 m -14 -14 d s 226 1065 m -14 -13 d s 222 1077 m -10 -10 d s 6 lw 143 732 m 14 X 220 Y 14 X 42 Y 14 X -108 Y 13 X 68 Y 14 X 123 Y 14 X -155 Y 13 X 108 Y 14 X -249 Y 14 X 145 Y 13 X -36 Y 14 X -16 Y 14 X -66 Y 13 X 57 Y 14 X -30 Y 14 X 147 Y
 13 X -165 Y 14 X 184 Y 14 X 12 Y 13 X -135 Y 14 X -69 Y 14 X 10 Y 13 X -99 Y 14 X 7 Y 14 X 49 Y 13 X 18 Y 14 X -73 Y 14 X -5 Y 13 X 31 Y 14 X -14 Y 14 X -13 Y 13 X 1 Y 14 X 22 Y 14 X -20 Y 14 X -9 Y 27 X -1 Y 14 X 1 Y 13 X -2 Y 28 X s black 3 lw 143
 685 m 548 X s 153 698 m -13 Y s 168 691 m -6 Y s 183 691 m -6 Y s 199 691 m -6 Y s 214 691 m -6 Y s 229 698 m -13 Y s 244 691 m -6 Y s 259 691 m -6 Y s 275 691 m -6 Y s 290 691 m -6 Y s 305 698 m -13 Y s 320 691 m -6 Y s 335 691 m -6 Y s 350 691 m
 -6 Y s 366 691 m -6 Y s 381 698 m -13 Y s 396 691 m -6 Y s 411 691 m -6 Y s 426 691 m -6 Y s 442 691 m -6 Y s 457 698 m -13 Y s 472 691 m -6 Y s 487 691 m -6 Y s 502 691 m -6 Y s 518 691 m -6 Y s 533 698 m -13 Y s 548 691 m -6 Y s 563 691 m -6 Y s
 578 691 m -6 Y s 594 691 m -6 Y s 609 698 m -13 Y s 624 691 m -6 Y s 639 691 m -6 Y s 654 691 m -6 Y s 669 691 m -6 Y s 685 698 m -13 Y s 153 698 m -13 Y s 685 698 m -13 Y s 143 1114 m 548 X s 153 1100 m 14 Y s 168 1107 m 7 Y s 183 1107 m 7 Y s 199
 1107 m 7 Y s 214 1107 m 7 Y s 229 1100 m 14 Y s 244 1107 m 7 Y s 259 1107 m 7 Y s 275 1107 m 7 Y s 290 1107 m 7 Y s 305 1100 m 14 Y s 320 1107 m 7 Y s 335 1107 m 7 Y s 350 1107 m 7 Y s 366 1107 m 7 Y s 381 1100 m 14 Y s 396 1107 m 7 Y s 411 1107 m 7
 Y s 426 1107 m 7 Y s 442 1107 m 7 Y s 457 1100 m 14 Y s 472 1107 m 7 Y s 487 1107 m 7 Y s 502 1107 m 7 Y s 518 1107 m 7 Y s 533 1100 m 14 Y s 548 1107 m 7 Y s 563 1107 m 7 Y s 578 1107 m 7 Y s 594 1107 m 7 Y s 609 1100 m 14 Y s 624 1107 m 7 Y s 639
 1107 m 7 Y s 654 1107 m 7 Y s 669 1107 m 7 Y s 685 1100 m 14 Y s 153 1100 m 14 Y s 685 1100 m 14 Y s 143 685 m 429 Y s 160 712 m -17 X s 152 732 m -9 X s 152 752 m -9 X s 152 773 m -9 X s 160 793 m -17 X s 152 813 m -9 X s 152 833 m -9 X s 152 853 m
 -9 X s 160 873 m -17 X s 152 894 m -9 X s 152 914 m -9 X s 152 934 m -9 X s 160 954 m -17 X s 152 974 m -9 X s 152 995 m -9 X s 152 1015 m -9 X s 160 1035 m -17 X s 160 712 m -17 X s 152 692 m -9 X s 160 1035 m -17 X s 152 1055 m -9 X s 152 1075 m
 -9 X s 152 1095 m -9 X s 691 685 m 429 Y s 674 712 m 17 X s 683 732 m 8 X s 683 752 m 8 X s 683 773 m 8 X s 674 793 m 17 X s 683 813 m 8 X s 683 833 m 8 X s 683 853 m 8 X s 674 873 m 17 X s 683 894 m 8 X s 683 914 m 8 X s 683 934 m 8 X s 674 954 m
 17 X s 683 974 m 8 X s 683 995 m 8 X s 683 1015 m 8 X s 674 1035 m 17 X s 674 712 m 17 X s 683 692 m 8 X s 674 1035 m 17 X s 683 1055 m 8 X s 683 1075 m 8 X s 683 1095 m 8 X s
 gsave  710 567 23 603 C 719.017 682.347 t 90 r /Helvetica-Bold findfont 19.9602 sf 0 0 m (U/O\255flow \(S,B\): \(0.0, 0.0\)% / \(0.0, 0.0\)%) show NC gr  0.490196 0.545098 0.615686 c 0.364706 0.419608 0.490196 c 338 38 30 1130 bf 0.490196 0.545098
 0.615686 c 30 1130 m 338 X s 368 1130 m 38 Y s 368 1168 m -338 X s 30 1168 m -38 Y s 1 1 1 c black 1 1 1 c
 gsave  710 567 23 603 C 34.101 1142.38 t 0 r /Helvetica-Bold findfont 28.5146 sf 0 0 m (Input variable: hh.HS_l4) show NC gr  0.490196 0.545098 0.615686 c 0.941176 0.941176 0.941176 c 710 567 779 603 bf black 1 1 0.992157 c 548 429 899 685 bf black
 548 429 899 685 bl 0 0 0.933333 c 6 lw 0.49 0.6 0.82 c black 3 lw 0.49 0.6 0.82 c 899 714 m 14 X 1 Y 14 X 2 Y 13 X 4 Y 14 X -16 Y 14 X 25 Y 13 X -1 Y 14 X 6 Y 14 X 10 Y 27 X -1 Y 14 X -8 Y 14 X 15 Y 13 X 1 Y 14 X -3 Y 14 X 62 Y 13 X 2 Y 14 X 40 Y 14
 X 101 Y 13 X 35 Y 14 X -33 Y 14 X -34 Y 13 X -17 Y 14 X 1 Y 14 X -60 Y 13 X 72 Y 14 X -42 Y 14 X 6 Y 13 X 23 Y 14 X 30 Y 14 X 5 Y 13 X 126 Y 14 X -50 Y 14 X -37 Y 13 X -174 Y 14 X -87 Y 14 X -4 Y 55 X f 6 lw 0 0 0.933333 c 0.49 0.6 0.82 c 0 0
 0.933333 c 899 714 m 14 X 1 Y 14 X 2 Y 13 X 4 Y 14 X -16 Y 14 X 25 Y 13 X -1 Y 14 X 6 Y 14 X 10 Y 27 X -1 Y 14 X -8 Y 14 X 15 Y 13 X 1 Y 14 X -3 Y 14 X 62 Y 13 X 2 Y 14 X 40 Y 14 X 101 Y 13 X 35 Y 14 X -33 Y 14 X -34 Y 13 X -17 Y 14 X 1 Y 14 X -60 Y
 13 X 72 Y 14 X -42 Y 14 X 6 Y 13 X 23 Y 14 X 30 Y 14 X 5 Y 13 X 126 Y 14 X -50 Y 14 X -37 Y 13 X -174 Y 14 X -87 Y 14 X -4 Y 55 X s black 3 lw 899 685 m 548 X s 963 698 m -13 Y s 977 691 m -6 Y s 992 691 m -6 Y s 1006 691 m -6 Y s 1020 691 m -6 Y s
 1035 698 m -13 Y s 1049 691 m -6 Y s 1063 691 m -6 Y s 1077 691 m -6 Y s 1092 691 m -6 Y s 1106 698 m -13 Y s 1120 691 m -6 Y s 1135 691 m -6 Y s 1149 691 m -6 Y s 1163 691 m -6 Y s 1177 698 m -13 Y s 1192 691 m -6 Y s 1206 691 m -6 Y s 1220 691 m
 -6 Y s 1234 691 m -6 Y s 1249 698 m -13 Y s 1263 691 m -6 Y s 1277 691 m -6 Y s 1292 691 m -6 Y s 1306 691 m -6 Y s 1320 698 m -13 Y s 1334 691 m -6 Y s 1349 691 m -6 Y s 1363 691 m -6 Y s 1377 691 m -6 Y s 1392 698 m -13 Y s 963 698 m -13 Y s 949
 691 m -6 Y s 935 691 m -6 Y s 920 691 m -6 Y s 906 691 m -6 Y s 1392 698 m -13 Y s 1406 691 m -6 Y s 1420 691 m -6 Y s 1434 691 m -6 Y s
 gsave  710 567 779 603 C 949.145 656.444 t 0 r /Helvetica findfont 25.6631 sf 0 0 m (0.2) show NC gr 
 gsave  710 567 779 603 C 934.936 656.444 t 0 r /Symbol findfont 25.6631 sf 0 0 m (-) show NC gr 
 gsave  710 567 779 603 C 1014.5 656.444 t 0 r /Helvetica findfont 25.6631 sf 0 0 m (0.15) show NC gr 
 gsave  710 567 779 603 C 1003.14 656.444 t 0 r /Symbol findfont 25.6631 sf 0 0 m (-) show NC gr 
 gsave  710 567 779 603 C 1094.07 656.444 t 0 r /Helvetica findfont 25.6631 sf 0 0 m (0.1) show NC gr 
 gsave  710 567 779 603 C 1082.71 656.444 t 0 r /Symbol findfont 25.6631 sf 0 0 m (-) show NC gr 
 gsave  710 567 779 603 C 1156.59 656.444 t 0 r /Helvetica findfont 25.6631 sf 0 0 m (0.05) show NC gr 
 gsave  710 567 779 603 C 1145.23 656.444 t 0 r /Symbol findfont 25.6631 sf 0 0 m (-) show NC gr 
 gsave  710 567 779 603 C 1239 656.444 t 0 r /Helvetica findfont 25.6631 sf 0 0 m (0) show NC gr 
 gsave  710 567 779 603 C 1293 656.444 t 0 r /Helvetica findfont 25.6631 sf 0 0 m (0.05) show NC gr 
 gsave  710 567 779 603 C 1372.57 656.444 t 0 r /Helvetica findfont 25.6631 sf 0 0 m (0.1) show NC gr 
 gsave  710 567 779 603 C 1332.78 613.818 t 0 r /Helvetica findfont 28.5146 sf 0 0 m (hh.HS_l5) show NC gr  899 1114 m 548 X s 963 1100 m 14 Y s 977 1107 m 7 Y s 992 1107 m 7 Y s 1006 1107 m 7 Y s 1020 1107 m 7 Y s 1035 1100 m 14 Y s 1049 1107 m 7 Y
 s 1063 1107 m 7 Y s 1077 1107 m 7 Y s 1092 1107 m 7 Y s 1106 1100 m 14 Y s 1120 1107 m 7 Y s 1135 1107 m 7 Y s 1149 1107 m 7 Y s 1163 1107 m 7 Y s 1177 1100 m 14 Y s 1192 1107 m 7 Y s 1206 1107 m 7 Y s 1220 1107 m 7 Y s 1234 1107 m 7 Y s 1249 1100 m
 14 Y s 1263 1107 m 7 Y s 1277 1107 m 7 Y s 1292 1107 m 7 Y s 1306 1107 m 7 Y s 1320 1100 m 14 Y s 1334 1107 m 7 Y s 1349 1107 m 7 Y s 1363 1107 m 7 Y s 1377 1107 m 7 Y s 1392 1100 m 14 Y s 963 1100 m 14 Y s 949 1107 m 7 Y s 935 1107 m 7 Y s 920 1107
 m 7 Y s 906 1107 m 7 Y s 1392 1100 m 14 Y s 1406 1107 m 7 Y s 1420 1107 m 7 Y s 1434 1107 m 7 Y s 899 685 m 429 Y s 915 714 m -16 X s 907 734 m -8 X s 907 755 m -8 X s 907 775 m -8 X s 915 796 m -16 X s 907 817 m -8 X s 907 837 m -8 X s 907 858 m -8
 X s 915 878 m -16 X s 907 899 m -8 X s 907 919 m -8 X s 907 940 m -8 X s 915 960 m -16 X s 907 981 m -8 X s 907 1001 m -8 X s 907 1022 m -8 X s 915 1042 m -16 X s 915 714 m -16 X s 907 693 m -8 X s 915 1042 m -16 X s 907 1063 m -8 X s 907 1083 m -8
 X s 907 1104 m -8 X s
 gsave  710 567 779 603 C 875.259 704.754 t 0 r /Helvetica findfont 25.6631 sf 0 0 m (0) show NC gr 
 gsave  710 567 779 603 C 875.259 787.165 t 0 r /Helvetica findfont 25.6631 sf 0 0 m (2) show NC gr 
 gsave  710 567 779 603 C 875.259 869.576 t 0 r /Helvetica findfont 25.6631 sf 0 0 m (4) show NC gr 
 gsave  710 567 779 603 C 875.259 949.145 t 0 r /Helvetica findfont 25.6631 sf 0 0 m (6) show NC gr 
 gsave  710 567 779 603 C 875.259 1031.56 t 0 r /Helvetica findfont 25.6631 sf 0 0 m (8) show NC gr 
 gsave  710 567 779 603 C 801.374 1005.98 t 90 r /Helvetica findfont 28.5146 sf 0 0 m (0.00958 ) show NC gr 
 gsave  710 567 779 603 C 787.165 1003.14 t 90 r /Helvetica findfont 19.9602 sf 0 0 m ( ) show NC gr 
 gsave  710 567 779 603 C 801.374 991.771 t 90 r /Helvetica findfont 28.5146 sf 0 0 m (/) show NC gr 
 gsave  710 567 779 603 C 809.899 988.929 t 90 r /Helvetica findfont 19.9602 sf 0 0 m ( ) show NC gr 
 gsave  710 567 779 603 C 801.374 883.784 t 90 r /Helvetica findfont 28.5146 sf 0 0 m (\(1/N\) dN) show NC gr  1447 685 m 429 Y s 1430 714 m 17 X s 1438 734 m 9 X s 1438 755 m 9 X s 1438 775 m 9 X s 1430 796 m 17 X s 1438 817 m 9 X s 1438 837 m 9 X s
 1438 858 m 9 X s 1430 878 m 17 X s 1438 899 m 9 X s 1438 919 m 9 X s 1438 940 m 9 X s 1430 960 m 17 X s 1438 981 m 9 X s 1438 1001 m 9 X s 1438 1022 m 9 X s 1430 1042 m 17 X s 1430 714 m 17 X s 1438 693 m 9 X s 1430 1042 m 17 X s 1438 1063 m 9 X s
 1438 1083 m 9 X s 1438 1104 m 9 X s 0.490196 0.545098 0.615686 c 0.364706 0.419608 0.490196 c 338 38 786 1130 bf 0.490196 0.545098 0.615686 c 786 1130 m 338 X s 1124 1130 m 38 Y s 1124 1168 m -338 X s 786 1168 m -38 Y s 1 1 1 c black 1 1 1 c
 gsave  710 567 779 603 C 790.007 1142.38 t 0 r /Helvetica-Bold findfont 28.5146 sf 0 0 m (Input variable: hh.HS_l5) show NC gr  1 0 0 c 6 lw black 3 lw 1 0 0 c 1447 714 m s 1431 714 m s 1416 714 m s 1401 714 m s 1392 720 m -6 -6 d s 1381 724 m -10
 -10 d s 1378 736 m -22 -22 d s 1378 751 m -37 -37 d s 1378 766 m -52 -52 d s 1370 773 m -59 -59 d s 1364 783 m -68 -69 d s 1364 798 m -83 -84 d s 1364 813 m -98 -99 d s 1364 829 m -113 -115 d s 1364 844 m -129 -130 d s 1360 855 m -140 -141 d s 1351
 860 m -146 -146 d s 1351 876 m -161 -162 d s 1351 891 m -176 -177 d s 1351 906 m -41 -41 d s 1296 851 m -27 -28 d s 1261 815 m -101 -101 d s 1351 921 m -41 -41 d s 1296 866 m -27 -28 d s 1255 825 m -110 -111 d s 1351 936 m -41 -41 d s 1296 881 m -27
 -27 d s 1255 840 m -125 -126 d s 1351 951 m -41 -41 d s 1296 896 m -27 -27 d s 1255 855 m -140 -141 d s 1351 967 m -41 -42 d s 1296 912 m -27 -28 d s 1255 870 m -155 -156 d s 1347 978 m -37 -37 d s 1296 927 m -27 -28 d s 1255 885 m -170 -171 d s
 1337 983 m -27 -27 d s 1296 942 m -27 -28 d s 1255 901 m -14 -14 d s 1241 886 m -150 -151 d s 1072 716 m -2 -2 d s 1333 994 m -23 -23 d s 1286 947 m -17 -17 d s 1255 916 m -14 -14 d s 1222 883 m -117 -119 d s 1095 754 m -4 -4 d s 1064 723 m -9 -9 d
 s 1323 1000 m -13 -14 d s 1282 959 m -13 -14 d s 1246 922 m -5 -5 d s 1214 890 m -109 -111 d s 1050 724 m -11 -10 d s 1323 1015 m -13 -14 d s 1276 968 m -7 -8 d s 1214 905 m -109 -110 d s 1050 739 m -26 -25 d s 1323 1030 m -13 -14 d s 1214 920 m -14
 -14 d s 1192 898 m -46 -47 d s 1139 845 m -34 -35 d s 1041 746 m -5 -5 d s 1023 728 m -1 -1 d s 1017 722 m -8 -8 d s 1317 1039 m -7 -7 d s 1214 935 m -14 -14 d s 1187 908 m -41 -42 d s 1132 853 m -27 -28 d s 1002 722 m -8 -8 d s 1205 941 m -5 -4 d s
 1187 923 m -41 -42 d s 1132 868 m -27 -28 d s 995 730 m -16 -16 d s 1187 938 m -41 -41 d s 1120 871 m -2 -2 d s 1107 857 m -2 -2 d s 993 743 m -12 -12 d s 974 724 m -6 -6 d s 966 716 m -2 -2 d s 1187 953 m -28 -27 d s 1153 919 m -7 -7 d s 950 715 m
 -1 -1 d s 1187 968 m -28 -27 d s 935 715 m -1 -1 d s 1187 984 m -28 -28 d s 920 715 m -1 -1 d s 1187 999 m -28 -28 d s 904 714 m s 1187 1014 m -28 -28 d s 1187 1029 m -28 -27 d s 1187 1044 m -28 -27 d s 1187 1059 m -28 -27 d s 1187 1075 m -28 -28 d
 s 1174 1077 m -1 -1 d s 1165 1068 m -6 -6 d s 6 lw 899 714 m 14 X 1 Y 41 X 1 Y 14 X 8 Y 13 X 19 Y 14 X -21 Y 27 X 6 Y 14 X 18 Y 14 X -23 Y 14 X -7 Y 13 X 5 Y 14 X 33 Y 14 X 103 Y 13 X 14 Y 14 X -26 Y 14 X 74 Y 13 X 149 Y 14 X 9 Y 14 X -179 Y 13 X 43
 Y 14 X -58 Y 14 X 3 Y 13 X 36 Y 14 X -107 Y 14 X 153 Y 13 X -21 Y 14 X -97 Y 14 X 189 Y 13 X -45 Y 14 X -16 Y 14 X -123 Y 13 X -82 Y 14 X -49 Y 14 X -10 Y 55 X s black 3 lw 899 685 m 548 X s 963 698 m -13 Y s 977 691 m -6 Y s 992 691 m -6 Y s 1006
 691 m -6 Y s 1020 691 m -6 Y s 1035 698 m -13 Y s 1049 691 m -6 Y s 1063 691 m -6 Y s 1077 691 m -6 Y s 1092 691 m -6 Y s 1106 698 m -13 Y s 1120 691 m -6 Y s 1135 691 m -6 Y s 1149 691 m -6 Y s 1163 691 m -6 Y s 1177 698 m -13 Y s 1192 691 m -6 Y s
 1206 691 m -6 Y s 1220 691 m -6 Y s 1234 691 m -6 Y s 1249 698 m -13 Y s 1263 691 m -6 Y s 1277 691 m -6 Y s 1292 691 m -6 Y s 1306 691 m -6 Y s 1320 698 m -13 Y s 1334 691 m -6 Y s 1349 691 m -6 Y s 1363 691 m -6 Y s 1377 691 m -6 Y s 1392 698 m
 -13 Y s 963 698 m -13 Y s 949 691 m -6 Y s 935 691 m -6 Y s 920 691 m -6 Y s 906 691 m -6 Y s 1392 698 m -13 Y s 1406 691 m -6 Y s 1420 691 m -6 Y s 1434 691 m -6 Y s 899 1114 m 548 X s 963 1100 m 14 Y s 977 1107 m 7 Y s 992 1107 m 7 Y s 1006 1107 m
 7 Y s 1020 1107 m 7 Y s 1035 1100 m 14 Y s 1049 1107 m 7 Y s 1063 1107 m 7 Y s 1077 1107 m 7 Y s 1092 1107 m 7 Y s 1106 1100 m 14 Y s 1120 1107 m 7 Y s 1135 1107 m 7 Y s 1149 1107 m 7 Y s 1163 1107 m 7 Y s 1177 1100 m 14 Y s 1192 1107 m 7 Y s 1206
 1107 m 7 Y s 1220 1107 m 7 Y s 1234 1107 m 7 Y s 1249 1100 m 14 Y s 1263 1107 m 7 Y s 1277 1107 m 7 Y s 1292 1107 m 7 Y s 1306 1107 m 7 Y s 1320 1100 m 14 Y s 1334 1107 m 7 Y s 1349 1107 m 7 Y s 1363 1107 m 7 Y s 1377 1107 m 7 Y s 1392 1100 m 14 Y s
 963 1100 m 14 Y s 949 1107 m 7 Y s 935 1107 m 7 Y s 920 1107 m 7 Y s 906 1107 m 7 Y s 1392 1100 m 14 Y s 1406 1107 m 7 Y s 1420 1107 m 7 Y s 1434 1107 m 7 Y s 899 685 m 429 Y s 915 714 m -16 X s 907 734 m -8 X s 907 755 m -8 X s 907 775 m -8 X s 915
 796 m -16 X s 907 817 m -8 X s 907 837 m -8 X s 907 858 m -8 X s 915 878 m -16 X s 907 899 m -8 X s 907 919 m -8 X s 907 940 m -8 X s 915 960 m -16 X s 907 981 m -8 X s 907 1001 m -8 X s 907 1022 m -8 X s 915 1042 m -16 X s 915 714 m -16 X s 907 693
 m -8 X s 915 1042 m -16 X s 907 1063 m -8 X s 907 1083 m -8 X s 907 1104 m -8 X s 1447 685 m 429 Y s 1430 714 m 17 X s 1438 734 m 9 X s 1438 755 m 9 X s 1438 775 m 9 X s 1430 796 m 17 X s 1438 817 m 9 X s 1438 837 m 9 X s 1438 858 m 9 X s 1430 878 m
 17 X s 1438 899 m 9 X s 1438 919 m 9 X s 1438 940 m 9 X s 1430 960 m 17 X s 1438 981 m 9 X s 1438 1001 m 9 X s 1438 1022 m 9 X s 1430 1042 m 17 X s 1430 714 m 17 X s 1438 693 m 9 X s 1430 1042 m 17 X s 1438 1063 m 9 X s 1438 1083 m 9 X s 1438 1104 m
 9 X s
 gsave  710 567 779 603 C 1474.92 682.347 t 90 r /Helvetica-Bold findfont 19.9602 sf 0 0 m (U/O\255flow \(S,B\): \(0.0, 0.0\)% / \(0.0, 0.0\)%) show NC gr  0.490196 0.545098 0.615686 c 0.364706 0.419608 0.490196 c 338 38 786 1130 bf 0.490196 0.545098
 0.615686 c 786 1130 m 338 X s 1124 1130 m 38 Y s 1124 1168 m -338 X s 786 1168 m -38 Y s 1 1 1 c black 1 1 1 c
 gsave  710 567 779 603 C 790.007 1142.38 t 0 r /Helvetica-Bold findfont 28.5146 sf 0 0 m (Input variable: hh.HS_l5) show NC gr  0.490196 0.545098 0.615686 c 0.941176 0.941176 0.941176 c 711 567 1534 603 bf 0.490196 0.545098 0.615686 c 0.941176
 0.941176 0.941176 c 710 567 23 12 bf 0.490196 0.545098 0.615686 c 0.941176 0.941176 0.941176 c 710 567 779 12 bf 0.490196 0.545098 0.615686 c 0.941176 0.941176 0.941176 c 711 567 1534 12 bf
 gr  gr showpage
end
%%EOF
