%!PS-Adobe-2.0 EPSF-2.0
%%BoundingBox:  0 0 567 296
%%Title: dataset_class_jetN/plots/variables_id_c3.eps: Input variables (training sample)
%%Creator: ROOT Version 6.18/00
%%CreationDate: Sun Sep 15 10:44:02 2019
%%DocumentNeededResources: ProcSet (FontSetInit)
%%EndComments
%%BeginProlog
80 dict begin
/s {stroke} def /l {lineto} def /m {moveto} def /t {translate} def
/r {rotate} def /rl {roll}  def /R {repeat} def
/d {rlineto} def /rm {rmoveto} def /gr {grestore} def /f {eofill} def
/c {setrgbcolor} def /black {0 setgray} def /sd {setdash} def
/cl {closepath} def /sf {scalefont setfont} def /lw {setlinewidth} def
/box {m dup 0 exch d exch 0 d 0 exch neg d cl} def
/NC{systemdict begin initclip end}def/C{NC box clip newpath}def
/bl {box s} def /bf {gsave box gsave f grestore 1 lw [] 0 sd s grestore} def /Y { 0 exch d} def /X { 0 d} def 
/K {{pop pop 0 moveto} exch kshow} bind def
/ita {/ang 15 def gsave [1 0 ang dup sin exch cos div 1 0 0] concat} def 
/mp {newpath /y exch def /x exch def} def
/side {[w .77 mul w .23 mul] .385 w mul sd w 0 l currentpoint t -144 r} def
/mr {mp x y w2 0 360 arc} def /m24 {mr s} def /m20 {mr f} def
/mb {mp x y w2 add m w2 neg 0 d 0 w neg d w 0 d 0 w d cl} def
/mt {mp x y w2 add m w2 neg w neg d w 0 d cl} def
/w4 {w 4 div} def
/w6 {w 6 div} def
/w8 {w 8 div} def
/m21 {mb f} def /m25 {mb s} def /m22 {mt f} def /m26{mt s} def
/m23 {mp x y w2 sub m w2 w d w neg 0 d cl f} def
/m27 {mp x y w2 add m w3 neg w2 neg d w3 w2 neg d w3 w2 d cl s} def
/m28 {mp x w2 sub y w2 sub w3 add m w3 0 d  0 w3 neg d w3 0 d 0 w3 d w3 0 d  0 w3 d w3 neg 0 d 0 w3 d w3 neg 0 d 0 w3 neg d w3 neg 0 d cl s } def
/m29 {mp gsave x w2 sub y w2 add w3 sub m currentpoint t 4 {side} repeat cl fill gr} def
/m30 {mp gsave x w2 sub y w2 add w3 sub m currentpoint t 4 {side} repeat cl s gr} def
/m31 {mp x y w2 sub m 0 w d x w2 sub y m w 0 d x w2 sub y w2 add m w w neg d x w2 sub y w2 sub m w w d s} def
/m32 {mp x y w2 sub m w2 w d w neg 0 d cl s} def
/m33 {mp x y w2 add m w3 neg w2 neg d w3 w2 neg d w3 w2 d cl f} def
/m34 {mp x w2 sub y w2 sub w3 add m w3 0 d  0 w3 neg d w3 0 d 0 w3 d w3 0 d  0 w3 d w3 neg 0 d 0 w3 d w3 neg 0 d 0 w3 neg d w3 neg 0 d cl f } def
/m35 {mp x y w2 add m w2 neg w2 neg d w2 w2 neg d w2 w2 d w2 neg w2 d x y w2 sub m 0 w d x w2 sub y m w 0 d s} def
/m36 {mb x w2 sub y w2 add m w w neg d x w2 sub y w2 sub m w w d s} def
/m37 {mp x y m w4 neg w2 d w4 neg w2 neg d w2 0 d  w4 neg w2 neg d w2 0 d w4 neg w2 d w2 0 d w4 neg w2 d w4 neg w2 neg d cl s} def
/m38 {mp x w4 sub y w2 add m w4 neg w4 neg d 0 w2 neg d w4 w4 neg d w2 0 d w4 w4 d 0 w2 d w4 neg w4 d w2 neg 0 d x y w2 sub m 0 w d x w2 sub y m w 0 d cl s} def
/m39 {mp x y m w4 neg w2 d w4 neg w2 neg d w2 0 d  w4 neg w2 neg d w2 0 d w4 neg w2 d w2 0 d w4 neg w2 d w4 neg w2 neg d cl f} def
/m40 {mp x y m w4 w2 d w4 w4 neg d w2 neg w4 neg d w2 w4 neg d w4 neg w4 neg d w4 neg w2 d w4 neg w2 neg d w4 neg w4 d w2 w4 d w2 neg w4 d w4 w4 d w4 w2 neg d cl s} def
/m41 {mp x y m w4 w2 d w4 w4 neg d w2 neg w4 neg d w2 w4 neg d w4 neg w4 neg d w4 neg w2 d w4 neg w2 neg d w4 neg w4 d w2 w4 d w2 neg w4 d w4 w4 d w4 w2 neg d cl f} def
/m42 {mp x y w2 add m w8 neg w2 -3 4 div mul d w2 -3 4 div mul w8 neg d w2 3 4 div mul w8 neg d w8 w2 -3 4 div mul d w8 w2 3 4 div mul d w2 3 4 div mul w8 d w2 -3 4 div mul w8 d w8 neg w2 3 4 div mul d cl s} def
/m43 {mp x y w2 add m w8 neg w2 -3 4 div mul d w2 -3 4 div mul w8 neg d w2 3 4 div mul w8 neg d w8 w2 -3 4 div mul d w8 w2 3 4 div mul d w2 3 4 div mul w8 d w2 -3 4 div mul w8 d w8 neg w2 3 4 div mul d cl f} def
/m44 {mp x y m w6 neg w2 d w2 2 3 div mul 0 d w6 neg w2 neg d w2 w6 d 0 w2 -2 3 div mul d w2 neg w6 d w6 w2 neg d w2 -2 3 div mul 0 d w6 w2 d w2 neg w6 neg d 0 w2 2 3 div mul d w2 w6 neg d cl s} def
/m45 {mp x y m w6 neg w2 d w2 2 3 div mul 0 d w6 neg w2 neg d w2 w6 d 0 w2 -2 3 div mul d w2 neg w6 d w6 w2 neg d w2 -2 3 div mul 0 d w6 w2 d w2 neg w6 neg d 0 w2 2 3 div mul d w2 w6 neg d cl f} def
/m46 {mp x y w4 add m w4 neg w4 d w4 neg w4 neg d  w4 w4 neg d w4 neg w4 neg d w4 w4 neg d w4 w4 d w4 w4 neg d w4 w4 d w4 neg w4 d w4 w4 d w4 neg w4 d w4 neg w4 neg d cl s} def
/m47 {mp x y w4 add m w4 neg w4 d w4 neg w4 neg d w4 w4 neg d w4 neg w4 neg d  w4 w4 neg d w4 w4 d w4 w4 neg d w4 w4 d w4 neg w4 d w4 w4 d w4 neg w4 d w4 neg w4 neg d cl f} def
/m48 {mp x y w4 add m w4 neg w4 d w4 neg w4 neg d w4 w4 neg d  w4 neg w4 neg d w4 w4 neg d w4 w4 d w4 w4 neg d w4 w4 d w4 neg w4 d w4 w4 d w4 neg w4 d w4 neg w4 neg d  w4 w4 neg d w4 neg w4 neg d w4 neg w4 d w4 w4 d cl f} def
/m49 {mp x w2 sub w3 add y w2 sub w3 add m  0 w3 neg d w3 0 d 0 w3 d w3 0 d 0 w3 d w3 neg 0 d 0 w3 d w3 neg 0 d 0 w3 neg d w3 neg 0 d 0 w3 neg d w3 0 d 0 w3 d w3 0 d 0 w3 neg d w3 neg 0 d cl f } def
/m2 {mp x y w2 sub m 0 w d x w2 sub y m w 0 d s} def
/m5 {mp x w2 sub y w2 sub m w w d x w2 sub y w2 add m w w neg d s} def
%%IncludeResource: ProcSet (FontSetInit)
%%IncludeResource: font Times-Roman
%%IncludeResource: font Times-Italic
%%IncludeResource: font Times-Bold
%%IncludeResource: font Times-BoldItalic
%%IncludeResource: font Helvetica
%%IncludeResource: font Helvetica-Oblique
%%IncludeResource: font Helvetica-Bold
%%IncludeResource: font Helvetica-BoldOblique
%%IncludeResource: font Courier
%%IncludeResource: font Courier-Oblique
%%IncludeResource: font Courier-Bold
%%IncludeResource: font Courier-BoldOblique
%%IncludeResource: font Symbol
%%IncludeResource: font ZapfDingbats
/reEncode {exch findfont dup length dict begin {1 index /FID eq  {pop pop} {def} ifelse } forall /Encoding exch def currentdict end dup /FontName get exch definefont pop } def [/Times-Bold /Times-Italic /Times-BoldItalic /Helvetica /Helvetica-Oblique
 /Helvetica-Bold /Helvetica-BoldOblique /Courier /Courier-Oblique /Courier-Bold /Courier-BoldOblique /Times-Roman /AvantGarde-Book /AvantGarde-BookOblique /AvantGarde-Demi /AvantGarde-DemiOblique /Bookman-Demi /Bookman-DemiItalic /Bookman-Light
 /Bookman-LightItalic /Helvetica-Narrow /Helvetica-Narrow-Bold /Helvetica-Narrow-BoldOblique /Helvetica-Narrow-Oblique /NewCenturySchlbk-Roman /NewCenturySchlbk-Bold /NewCenturySchlbk-BoldItalic /NewCenturySchlbk-Italic /Palatino-Bold
 /Palatino-BoldItalic /Palatino-Italic /Palatino-Roman ] {ISOLatin1Encoding reEncode } forall
%%EndProlog
%%BeginSetup
%%EndSetup
newpath  gsave  .25 .25 scale  gsave  0 0 t 0.490196 0.545098 0.615686 c[  ] 0 sd 3 lw 0.941176 0.941176 0.941176 c 2268 1182 0 0 bf 0.490196 0.545098 0.615686 c 0.941176 0.941176 0.941176 c 710 567 23 603 bf black 1 1 0.992157 c 548 429 143 685 bf
 black 548 429 143 685 bl 0 0 0.933333 c 6 lw 0.49 0.6 0.82 c black 3 lw 0.49 0.6 0.82 c 143 712 m 319 Y 14 X 38 Y 14 X -21 Y 14 X -10 Y 13 X 7 Y 14 X -33 Y 14 X -21 Y 13 X -50 Y 14 X 18 Y 14 X -74 Y 13 X 17 Y 14 X 5 Y 14 X 1 Y 13 X -74 Y 14 X 15 Y
 14 X -27 Y 13 X 1 Y 14 X -8 Y 14 X 38 Y 13 X -27 Y 14 X -52 Y 14 X 6 Y 13 X 22 Y 14 X -30 Y 14 X 13 Y 13 X -28 Y 14 X 51 Y 14 X -37 Y 13 X -19 Y 14 X -3 Y 27 X -44 Y 14 X 30 Y 14 X -6 Y 14 X -5 Y 13 X -6 Y 14 X -2 Y 14 X -3 Y 27 X -1 Y 14 X f 6 lw 0
 0 0.933333 c 0.49 0.6 0.82 c 0 0 0.933333 c 143 1031 m 14 X 38 Y 14 X -21 Y 14 X -10 Y 13 X 7 Y 14 X -33 Y 14 X -21 Y 13 X -50 Y 14 X 18 Y 14 X -74 Y 13 X 17 Y 14 X 5 Y 14 X 1 Y 13 X -74 Y 14 X 15 Y 14 X -27 Y 13 X 1 Y 14 X -8 Y 14 X 38 Y 13 X -27 Y
 14 X -52 Y 14 X 6 Y 13 X 22 Y 14 X -30 Y 14 X 13 Y 13 X -28 Y 14 X 51 Y 14 X -37 Y 13 X -19 Y 14 X -3 Y 27 X -44 Y 14 X 30 Y 14 X -6 Y 14 X -5 Y 13 X -6 Y 14 X -2 Y 14 X -3 Y 27 X -1 Y 14 X -27 Y s black 3 lw 143 685 m 548 X s 160 698 m -13 Y s 176
 691 m -6 Y s 191 691 m -6 Y s 206 691 m -6 Y s 221 691 m -6 Y s 236 698 m -13 Y s 252 691 m -6 Y s 267 691 m -6 Y s 282 691 m -6 Y s 297 691 m -6 Y s 312 698 m -13 Y s 328 691 m -6 Y s 343 691 m -6 Y s 358 691 m -6 Y s 373 691 m -6 Y s 388 698 m -13
 Y s 404 691 m -6 Y s 419 691 m -6 Y s 434 691 m -6 Y s 449 691 m -6 Y s 464 698 m -13 Y s 480 691 m -6 Y s 495 691 m -6 Y s 510 691 m -6 Y s 525 691 m -6 Y s 540 698 m -13 Y s 556 691 m -6 Y s 571 691 m -6 Y s 586 691 m -6 Y s 601 691 m -6 Y s 616
 698 m -13 Y s 160 698 m -13 Y s 145 691 m -6 Y s 616 698 m -13 Y s 632 691 m -6 Y s 647 691 m -6 Y s 662 691 m -6 Y s 677 691 m -6 Y s
 gsave  710 567 23 603 C 147.771 656.444 t 0 r /Helvetica findfont 25.6631 sf 0 0 m (0.1) show NC gr 
 gsave  710 567 23 603 C 136.404 656.444 t 0 r /Symbol findfont 25.6631 sf 0 0 m (-) show NC gr 
 gsave  710 567 23 603 C 215.973 656.444 t 0 r /Helvetica findfont 25.6631 sf 0 0 m (0.05) show NC gr 
 gsave  710 567 23 603 C 204.606 656.444 t 0 r /Symbol findfont 25.6631 sf 0 0 m (-) show NC gr 
 gsave  710 567 23 603 C 301.225 656.444 t 0 r /Helvetica findfont 25.6631 sf 0 0 m (0) show NC gr 
 gsave  710 567 23 603 C 360.902 656.444 t 0 r /Helvetica findfont 25.6631 sf 0 0 m (0.05) show NC gr 
 gsave  710 567 23 603 C 446.155 656.444 t 0 r /Helvetica findfont 25.6631 sf 0 0 m (0.1) show NC gr 
 gsave  710 567 23 603 C 514.357 656.444 t 0 r /Helvetica findfont 25.6631 sf 0 0 m (0.15) show NC gr 
 gsave  710 567 23 603 C 596.768 656.444 t 0 r /Helvetica findfont 25.6631 sf 0 0 m (0.2) show NC gr 
 gsave  710 567 23 603 C 574.034 613.818 t 0 r /Helvetica findfont 28.5146 sf 0 0 m (bb.HS_l3) show NC gr  143 1114 m 548 X s 160 1100 m 14 Y s 176 1107 m 7 Y s 191 1107 m 7 Y s 206 1107 m 7 Y s 221 1107 m 7 Y s 236 1100 m 14 Y s 252 1107 m 7 Y s 267
 1107 m 7 Y s 282 1107 m 7 Y s 297 1107 m 7 Y s 312 1100 m 14 Y s 328 1107 m 7 Y s 343 1107 m 7 Y s 358 1107 m 7 Y s 373 1107 m 7 Y s 388 1100 m 14 Y s 404 1107 m 7 Y s 419 1107 m 7 Y s 434 1107 m 7 Y s 449 1107 m 7 Y s 464 1100 m 14 Y s 480 1107 m 7
 Y s 495 1107 m 7 Y s 510 1107 m 7 Y s 525 1107 m 7 Y s 540 1100 m 14 Y s 556 1107 m 7 Y s 571 1107 m 7 Y s 586 1107 m 7 Y s 601 1107 m 7 Y s 616 1100 m 14 Y s 160 1100 m 14 Y s 145 1107 m 7 Y s 616 1100 m 14 Y s 632 1107 m 7 Y s 647 1107 m 7 Y s 662
 1107 m 7 Y s 677 1107 m 7 Y s 143 685 m 429 Y s 160 712 m -17 X s 152 721 m -9 X s 152 730 m -9 X s 152 739 m -9 X s 152 748 m -9 X s 160 757 m -17 X s 152 766 m -9 X s 152 776 m -9 X s 152 785 m -9 X s 152 794 m -9 X s 160 803 m -17 X s 152 812 m
 -9 X s 152 821 m -9 X s 152 830 m -9 X s 152 839 m -9 X s 160 848 m -17 X s 152 857 m -9 X s 152 866 m -9 X s 152 875 m -9 X s 152 884 m -9 X s 160 894 m -17 X s 152 903 m -9 X s 152 912 m -9 X s 152 921 m -9 X s 152 930 m -9 X s 160 939 m -17 X s
 152 948 m -9 X s 152 957 m -9 X s 152 966 m -9 X s 152 975 m -9 X s 160 984 m -17 X s 152 993 m -9 X s 152 1002 m -9 X s 152 1012 m -9 X s 152 1021 m -9 X s 160 1030 m -17 X s 152 1039 m -9 X s 152 1048 m -9 X s 152 1057 m -9 X s 152 1066 m -9 X s
 160 1075 m -17 X s 160 712 m -17 X s 152 703 m -9 X s 152 694 m -9 X s 152 685 m -9 X s 160 1075 m -17 X s 152 1084 m -9 X s 152 1093 m -9 X s 152 1102 m -9 X s 152 1111 m -9 X s
 gsave  710 567 23 603 C 119.354 701.912 t 0 r /Helvetica findfont 25.6631 sf 0 0 m (0) show NC gr 
 gsave  710 567 23 603 C 122.195 747.38 t 0 r /Helvetica findfont 25.6631 sf 0 0 m (1) show NC gr 
 gsave  710 567 23 603 C 119.354 792.848 t 0 r /Helvetica findfont 25.6631 sf 0 0 m (2) show NC gr 
 gsave  710 567 23 603 C 119.354 838.316 t 0 r /Helvetica findfont 25.6631 sf 0 0 m (3) show NC gr 
 gsave  710 567 23 603 C 119.354 883.784 t 0 r /Helvetica findfont 25.6631 sf 0 0 m (4) show NC gr 
 gsave  710 567 23 603 C 119.354 929.252 t 0 r /Helvetica findfont 25.6631 sf 0 0 m (5) show NC gr 
 gsave  710 567 23 603 C 119.354 974.72 t 0 r /Helvetica findfont 25.6631 sf 0 0 m (6) show NC gr 
 gsave  710 567 23 603 C 119.354 1020.19 t 0 r /Helvetica findfont 25.6631 sf 0 0 m (7) show NC gr 
 gsave  710 567 23 603 C 119.354 1065.66 t 0 r /Helvetica findfont 25.6631 sf 0 0 m (8) show NC gr 
 gsave  710 567 23 603 C 45.468 1037.24 t 90 r /Helvetica findfont 28.5146 sf 0 0 m (0.009 ) show NC gr 
 gsave  710 567 23 603 C 31.2593 1034.4 t 90 r /Helvetica findfont 19.9602 sf 0 0 m ( ) show NC gr 
 gsave  710 567 23 603 C 45.468 1023.03 t 90 r /Helvetica findfont 28.5146 sf 0 0 m (/) show NC gr 
 gsave  710 567 23 603 C 53.9933 1020.19 t 90 r /Helvetica findfont 19.9602 sf 0 0 m ( ) show NC gr 
 gsave  710 567 23 603 C 45.468 915.044 t 90 r /Helvetica findfont 28.5146 sf 0 0 m (\(1/N\) dN) show NC gr  691 685 m 429 Y s 674 712 m 17 X s 683 721 m 8 X s 683 730 m 8 X s 683 739 m 8 X s 683 748 m 8 X s 674 757 m 17 X s 683 766 m 8 X s 683 776 m
 8 X s 683 785 m 8 X s 683 794 m 8 X s 674 803 m 17 X s 683 812 m 8 X s 683 821 m 8 X s 683 830 m 8 X s 683 839 m 8 X s 674 848 m 17 X s 683 857 m 8 X s 683 866 m 8 X s 683 875 m 8 X s 683 884 m 8 X s 674 894 m 17 X s 683 903 m 8 X s 683 912 m 8 X s
 683 921 m 8 X s 683 930 m 8 X s 674 939 m 17 X s 683 948 m 8 X s 683 957 m 8 X s 683 966 m 8 X s 683 975 m 8 X s 674 984 m 17 X s 683 993 m 8 X s 683 1002 m 8 X s 683 1012 m 8 X s 683 1021 m 8 X s 674 1030 m 17 X s 683 1039 m 8 X s 683 1048 m 8 X s
 683 1057 m 8 X s 683 1066 m 8 X s 674 1075 m 17 X s 674 712 m 17 X s 683 703 m 8 X s 683 694 m 8 X s 683 685 m 8 X s 674 1075 m 17 X s 683 1084 m 8 X s 683 1093 m 8 X s 683 1102 m 8 X s 683 1111 m 8 X s 0.490196 0.545098 0.615686 c 0.364706 0.419608
 0.490196 c 338 38 30 1130 bf 0.490196 0.545098 0.615686 c 30 1130 m 338 X s 368 1130 m 38 Y s 368 1168 m -338 X s 30 1168 m -38 Y s 1 1 1 c black 1 1 1 c
 gsave  710 567 23 603 C 34.101 1142.38 t 0 r /Helvetica-Bold findfont 28.5146 sf 0 0 m (Input variable: bb.HS_l3) show NC gr  1 0 0 c 6 lw black 3 lw 1 0 0 c 689 712 m s 675 713 m -1 -1 d s 660 713 m -1 -1 d s 650 718 m -6 -6 d s 645 728 m -9 -8 d s
 635 719 m -7 -7 d s 619 717 m -6 -5 d s 609 722 m -11 -10 d s 595 724 m -12 -12 d s 595 739 m -27 -27 d s 589 748 m -22 -21 d s 560 719 m -7 -7 d s 581 756 m -14 -14 d s 554 728 m -16 -16 d s 581 771 m -14 -14 d s 543 732 m -20 -20 d s 581 786 m -14
 -14 d s 540 745 m -14 -14 d s 518 722 m -10 -10 d s 569 789 m -2 -2 d s 531 751 m -5 -5 d s 513 732 m -20 -20 d s 513 747 m -35 -35 d s 513 763 m -50 -51 d s 513 778 m -14 -14 d s 495 760 m -47 -48 d s 513 793 m -14 -14 d s 485 765 m -53 -53 d s 513
 808 m -14 -14 d s 485 781 m -68 -69 d s 506 816 m -7 -6 d s 477 787 m -5 -5 d s 467 778 m -65 -66 d s 458 783 m -27 -27 d s 430 755 m -43 -43 d s 458 799 m -14 -14 d s 443 784 m -12 -13 d s 417 757 m -45 -45 d s 447 803 m -3 -3 d s 417 772 m -60 -60
 d s 417 788 m -75 -76 d s 417 803 m -90 -91 d s 417 818 m -14 -14 d s 391 792 m -79 -80 d s 417 833 m -14 -14 d s 390 806 m -93 -94 d s 417 848 m -14 -13 d s 390 821 m -108 -109 d s 417 863 m -14 -13 d s 390 836 m -123 -124 d s 417 879 m -14 -14 d s
 390 851 m -41 -41 d s 344 805 m -92 -93 d s 417 894 m -14 -14 d s 390 866 m -41 -41 d s 335 811 m -98 -99 d s 417 909 m -14 -14 d s 390 881 m -41 -41 d s 335 826 m -27 -27 d s 305 796 m -84 -84 d s 417 924 m -14 -14 d s 389 896 m -40 -41 d s 335 842
 m -27 -28 d s 294 800 m -88 -88 d s 413 936 m -10 -10 d s 370 892 m -21 -21 d s 335 857 m -27 -28 d s 294 815 m -103 -103 d s 352 889 m -3 -3 d s 335 872 m -14 -14 d s 321 858 m -13 -14 d s 294 831 m -118 -119 d s 335 887 m -14 -14 d s 294 846 m
 -133 -134 d s 335 902 m -14 -13 d s 294 861 m -148 -149 d s 335 917 m -14 -13 d s 294 876 m -151 -151 d s 335 933 m -14 -14 d s 294 891 m -151 -151 d s 323 936 m -2 -2 d s 294 906 m -151 -151 d s 292 920 m -149 -150 d s 267 909 m -124 -124 d s 267
 924 m -124 -124 d s 267 940 m -124 -124 d s 267 955 m -124 -124 d s 267 970 m -41 -41 d s 220 923 m -77 -77 d s 267 985 m -41 -41 d s 212 930 m -69 -69 d s 267 1000 m -41 -41 d s 212 945 m -69 -69 d s 267 1016 m -28 -28 d s 236 985 m -10 -11 d s 212
 960 m -41 -41 d s 160 908 m -17 -16 d s 267 1031 m -28 -28 d s 212 976 m -41 -42 d s 157 921 m -14 -14 d s 267 1046 m -28 -28 d s 212 991 m -41 -41 d s 149 927 m -6 -5 d s 253 1048 m -14 -14 d s 212 1006 m -41 -41 d s 253 1063 m -14 -14 d s 212 1021
 m -27 -27 d s 171 980 m s 252 1077 m -13 -13 d s 212 1036 m -14 -13 d s 187 1011 m -2 -2 d s 212 1052 m -14 -14 d s 209 1064 m -11 -11 d s 6 lw 143 927 m 14 X -19 Y 14 X 72 Y 14 X 31 Y 13 X 53 Y 14 X -141 Y 14 X 62 Y 13 X 92 Y 14 X -29 Y 14 X -140 Y
 13 X 12 Y 14 X -124 Y 14 X 62 Y 13 X 78 Y 14 X -131 Y 14 X 84 Y 13 X 3 Y 14 X 4 Y 14 X -104 Y 13 X 144 Y 14 X -181 Y 14 X 29 Y 13 X 19 Y 14 X -25 Y 14 X 9 Y 13 X -27 Y 14 X 56 Y 14 X -94 Y 13 X 29 Y 14 X -19 Y 14 X -13 Y 13 X 70 Y 14 X -41 Y 14 X
 -24 Y 14 X -7 Y 13 X 2 Y 14 X 9 Y 14 X -15 Y 27 X -1 Y 14 X -27 Y s black 3 lw 143 685 m 548 X s 160 698 m -13 Y s 176 691 m -6 Y s 191 691 m -6 Y s 206 691 m -6 Y s 221 691 m -6 Y s 236 698 m -13 Y s 252 691 m -6 Y s 267 691 m -6 Y s 282 691 m -6 Y
 s 297 691 m -6 Y s 312 698 m -13 Y s 328 691 m -6 Y s 343 691 m -6 Y s 358 691 m -6 Y s 373 691 m -6 Y s 388 698 m -13 Y s 404 691 m -6 Y s 419 691 m -6 Y s 434 691 m -6 Y s 449 691 m -6 Y s 464 698 m -13 Y s 480 691 m -6 Y s 495 691 m -6 Y s 510
 691 m -6 Y s 525 691 m -6 Y s 540 698 m -13 Y s 556 691 m -6 Y s 571 691 m -6 Y s 586 691 m -6 Y s 601 691 m -6 Y s 616 698 m -13 Y s 160 698 m -13 Y s 145 691 m -6 Y s 616 698 m -13 Y s 632 691 m -6 Y s 647 691 m -6 Y s 662 691 m -6 Y s 677 691 m
 -6 Y s 143 1114 m 548 X s 160 1100 m 14 Y s 176 1107 m 7 Y s 191 1107 m 7 Y s 206 1107 m 7 Y s 221 1107 m 7 Y s 236 1100 m 14 Y s 252 1107 m 7 Y s 267 1107 m 7 Y s 282 1107 m 7 Y s 297 1107 m 7 Y s 312 1100 m 14 Y s 328 1107 m 7 Y s 343 1107 m 7 Y s
 358 1107 m 7 Y s 373 1107 m 7 Y s 388 1100 m 14 Y s 404 1107 m 7 Y s 419 1107 m 7 Y s 434 1107 m 7 Y s 449 1107 m 7 Y s 464 1100 m 14 Y s 480 1107 m 7 Y s 495 1107 m 7 Y s 510 1107 m 7 Y s 525 1107 m 7 Y s 540 1100 m 14 Y s 556 1107 m 7 Y s 571 1107
 m 7 Y s 586 1107 m 7 Y s 601 1107 m 7 Y s 616 1100 m 14 Y s 160 1100 m 14 Y s 145 1107 m 7 Y s 616 1100 m 14 Y s 632 1107 m 7 Y s 647 1107 m 7 Y s 662 1107 m 7 Y s 677 1107 m 7 Y s 143 685 m 429 Y s 160 712 m -17 X s 152 721 m -9 X s 152 730 m -9 X
 s 152 739 m -9 X s 152 748 m -9 X s 160 757 m -17 X s 152 766 m -9 X s 152 776 m -9 X s 152 785 m -9 X s 152 794 m -9 X s 160 803 m -17 X s 152 812 m -9 X s 152 821 m -9 X s 152 830 m -9 X s 152 839 m -9 X s 160 848 m -17 X s 152 857 m -9 X s 152
 866 m -9 X s 152 875 m -9 X s 152 884 m -9 X s 160 894 m -17 X s 152 903 m -9 X s 152 912 m -9 X s 152 921 m -9 X s 152 930 m -9 X s 160 939 m -17 X s 152 948 m -9 X s 152 957 m -9 X s 152 966 m -9 X s 152 975 m -9 X s 160 984 m -17 X s 152 993 m -9
 X s 152 1002 m -9 X s 152 1012 m -9 X s 152 1021 m -9 X s 160 1030 m -17 X s 152 1039 m -9 X s 152 1048 m -9 X s 152 1057 m -9 X s 152 1066 m -9 X s 160 1075 m -17 X s 160 712 m -17 X s 152 703 m -9 X s 152 694 m -9 X s 152 685 m -9 X s 160 1075 m
 -17 X s 152 1084 m -9 X s 152 1093 m -9 X s 152 1102 m -9 X s 152 1111 m -9 X s 691 685 m 429 Y s 674 712 m 17 X s 683 721 m 8 X s 683 730 m 8 X s 683 739 m 8 X s 683 748 m 8 X s 674 757 m 17 X s 683 766 m 8 X s 683 776 m 8 X s 683 785 m 8 X s 683
 794 m 8 X s 674 803 m 17 X s 683 812 m 8 X s 683 821 m 8 X s 683 830 m 8 X s 683 839 m 8 X s 674 848 m 17 X s 683 857 m 8 X s 683 866 m 8 X s 683 875 m 8 X s 683 884 m 8 X s 674 894 m 17 X s 683 903 m 8 X s 683 912 m 8 X s 683 921 m 8 X s 683 930 m
 8 X s 674 939 m 17 X s 683 948 m 8 X s 683 957 m 8 X s 683 966 m 8 X s 683 975 m 8 X s 674 984 m 17 X s 683 993 m 8 X s 683 1002 m 8 X s 683 1012 m 8 X s 683 1021 m 8 X s 674 1030 m 17 X s 683 1039 m 8 X s 683 1048 m 8 X s 683 1057 m 8 X s 683 1066
 m 8 X s 674 1075 m 17 X s 674 712 m 17 X s 683 703 m 8 X s 683 694 m 8 X s 683 685 m 8 X s 674 1075 m 17 X s 683 1084 m 8 X s 683 1093 m 8 X s 683 1102 m 8 X s 683 1111 m 8 X s
 gsave  710 567 23 603 C 719.017 682.347 t 90 r /Helvetica-Bold findfont 19.9602 sf 0 0 m (U/O\255flow \(S,B\): \(0.0, 0.0\)% / \(0.0, 0.0\)%) show NC gr  0.490196 0.545098 0.615686 c 0.364706 0.419608 0.490196 c 338 38 30 1130 bf 0.490196 0.545098
 0.615686 c 30 1130 m 338 X s 368 1130 m 38 Y s 368 1168 m -338 X s 30 1168 m -38 Y s 1 1 1 c black 1 1 1 c
 gsave  710 567 23 603 C 34.101 1142.38 t 0 r /Helvetica-Bold findfont 28.5146 sf 0 0 m (Input variable: bb.HS_l3) show NC gr  0.490196 0.545098 0.615686 c 0.941176 0.941176 0.941176 c 710 567 779 603 bf black 1 1 0.992157 c 548 429 899 685 bf black
 548 429 899 685 bl 0 0 0.933333 c 6 lw 0.49 0.6 0.82 c black 3 lw 0.49 0.6 0.82 c 899 709 m 282 Y 14 X -8 Y 14 X -14 Y 13 X 54 Y 14 X -56 Y 14 X -1 Y 13 X -34 Y 14 X 17 Y 14 X 2 Y 13 X -51 Y 14 X 20 Y 14 X -14 Y 14 X -43 Y 27 X -31 Y 14 X 35 Y 27 X
 -36 Y 14 X 27 Y 13 X 14 Y 14 X -32 Y 14 X -20 Y 13 X -53 Y 14 X -18 Y 14 X -19 Y 13 X -2 Y 14 X -23 Y 14 X 25 Y 13 X -6 Y 14 X 1 Y 14 X -3 Y 13 X -2 Y 14 X -4 Y 14 X -2 Y 13 X -1 Y 14 X -2 Y 14 X -1 Y 41 X -1 Y 14 X f 6 lw 0 0 0.933333 c 0.49 0.6
 0.82 c 0 0 0.933333 c 899 991 m 14 X -8 Y 14 X -14 Y 13 X 54 Y 14 X -56 Y 14 X -1 Y 13 X -34 Y 14 X 17 Y 14 X 2 Y 13 X -51 Y 14 X 20 Y 14 X -14 Y 14 X -43 Y 27 X -31 Y 14 X 35 Y 27 X -36 Y 14 X 27 Y 13 X 14 Y 14 X -32 Y 14 X -20 Y 13 X -53 Y 14 X
 -18 Y 14 X -19 Y 13 X -2 Y 14 X -23 Y 14 X 25 Y 13 X -6 Y 14 X 1 Y 14 X -3 Y 13 X -2 Y 14 X -4 Y 14 X -2 Y 13 X -1 Y 14 X -2 Y 14 X -1 Y 41 X -1 Y 14 X -24 Y s black 3 lw 899 685 m 548 X s 910 698 m -13 Y s 926 691 m -6 Y s 941 691 m -6 Y s 957 691
 m -6 Y s 973 691 m -6 Y s 988 698 m -13 Y s 1004 691 m -6 Y s 1020 691 m -6 Y s 1035 691 m -6 Y s 1051 691 m -6 Y s 1067 698 m -13 Y s 1082 691 m -6 Y s 1098 691 m -6 Y s 1114 691 m -6 Y s 1129 691 m -6 Y s 1145 698 m -13 Y s 1161 691 m -6 Y s 1176
 691 m -6 Y s 1192 691 m -6 Y s 1208 691 m -6 Y s 1224 698 m -13 Y s 1239 691 m -6 Y s 1255 691 m -6 Y s 1271 691 m -6 Y s 1286 691 m -6 Y s 1302 698 m -13 Y s 1318 691 m -6 Y s 1333 691 m -6 Y s 1349 691 m -6 Y s 1365 691 m -6 Y s 1380 698 m -13 Y s
 910 698 m -13 Y s 1380 698 m -13 Y s 1396 691 m -6 Y s 1412 691 m -6 Y s 1427 691 m -6 Y s 1443 691 m -6 Y s
 gsave  710 567 779 603 C 897.993 656.444 t 0 r /Helvetica findfont 25.6631 sf 0 0 m (0.1) show NC gr 
 gsave  710 567 779 603 C 886.626 656.444 t 0 r /Symbol findfont 25.6631 sf 0 0 m (-) show NC gr 
 gsave  710 567 779 603 C 966.195 656.444 t 0 r /Helvetica findfont 25.6631 sf 0 0 m (0.05) show NC gr 
 gsave  710 567 779 603 C 954.828 656.444 t 0 r /Symbol findfont 25.6631 sf 0 0 m (-) show NC gr 
 gsave  710 567 779 603 C 1057.13 656.444 t 0 r /Helvetica findfont 25.6631 sf 0 0 m (0) show NC gr 
 gsave  710 567 779 603 C 1116.81 656.444 t 0 r /Helvetica findfont 25.6631 sf 0 0 m (0.05) show NC gr 
 gsave  710 567 779 603 C 1204.9 656.444 t 0 r /Helvetica findfont 25.6631 sf 0 0 m (0.1) show NC gr 
 gsave  710 567 779 603 C 1275.95 656.444 t 0 r /Helvetica findfont 25.6631 sf 0 0 m (0.15) show NC gr 
 gsave  710 567 779 603 C 1361.2 656.444 t 0 r /Helvetica findfont 25.6631 sf 0 0 m (0.2) show NC gr 
 gsave  710 567 779 603 C 1329.94 613.818 t 0 r /Helvetica findfont 28.5146 sf 0 0 m (bb.HS_l4) show NC gr  899 1114 m 548 X s 910 1100 m 14 Y s 926 1107 m 7 Y s 941 1107 m 7 Y s 957 1107 m 7 Y s 973 1107 m 7 Y s 988 1100 m 14 Y s 1004 1107 m 7 Y s
 1020 1107 m 7 Y s 1035 1107 m 7 Y s 1051 1107 m 7 Y s 1067 1100 m 14 Y s 1082 1107 m 7 Y s 1098 1107 m 7 Y s 1114 1107 m 7 Y s 1129 1107 m 7 Y s 1145 1100 m 14 Y s 1161 1107 m 7 Y s 1176 1107 m 7 Y s 1192 1107 m 7 Y s 1208 1107 m 7 Y s 1224 1100 m
 14 Y s 1239 1107 m 7 Y s 1255 1107 m 7 Y s 1271 1107 m 7 Y s 1286 1107 m 7 Y s 1302 1100 m 14 Y s 1318 1107 m 7 Y s 1333 1107 m 7 Y s 1349 1107 m 7 Y s 1365 1107 m 7 Y s 1380 1100 m 14 Y s 910 1100 m 14 Y s 1380 1100 m 14 Y s 1396 1107 m 7 Y s 1412
 1107 m 7 Y s 1427 1107 m 7 Y s 1443 1107 m 7 Y s 899 685 m 429 Y s 915 709 m -16 X s 907 729 m -8 X s 907 749 m -8 X s 907 769 m -8 X s 915 789 m -16 X s 907 809 m -8 X s 907 829 m -8 X s 907 850 m -8 X s 915 870 m -16 X s 907 890 m -8 X s 907 910 m
 -8 X s 907 930 m -8 X s 915 950 m -16 X s 907 970 m -8 X s 907 990 m -8 X s 907 1010 m -8 X s 915 1030 m -16 X s 907 1050 m -8 X s 907 1070 m -8 X s 907 1090 m -8 X s 915 1110 m -16 X s 915 709 m -16 X s 907 689 m -8 X s 915 1110 m -16 X s
 gsave  710 567 779 603 C 875.259 699.071 t 0 r /Helvetica findfont 25.6631 sf 0 0 m (0) show NC gr 
 gsave  710 567 779 603 C 875.259 778.64 t 0 r /Helvetica findfont 25.6631 sf 0 0 m (2) show NC gr 
 gsave  710 567 779 603 C 875.259 858.209 t 0 r /Helvetica findfont 25.6631 sf 0 0 m (4) show NC gr 
 gsave  710 567 779 603 C 875.259 940.619 t 0 r /Helvetica findfont 25.6631 sf 0 0 m (6) show NC gr 
 gsave  710 567 779 603 C 875.259 1020.19 t 0 r /Helvetica findfont 25.6631 sf 0 0 m (8) show NC gr 
 gsave  710 567 779 603 C 861.05 1099.76 t 0 r /Helvetica findfont 25.6631 sf 0 0 m (10) show NC gr 
 gsave  710 567 779 603 C 801.374 1005.98 t 90 r /Helvetica findfont 28.5146 sf 0 0 m (0.00873 ) show NC gr 
 gsave  710 567 779 603 C 787.165 1003.14 t 90 r /Helvetica findfont 19.9602 sf 0 0 m ( ) show NC gr 
 gsave  710 567 779 603 C 801.374 991.771 t 90 r /Helvetica findfont 28.5146 sf 0 0 m (/) show NC gr 
 gsave  710 567 779 603 C 809.899 988.929 t 90 r /Helvetica findfont 19.9602 sf 0 0 m ( ) show NC gr 
 gsave  710 567 779 603 C 801.374 883.784 t 90 r /Helvetica findfont 28.5146 sf 0 0 m (\(1/N\) dN) show NC gr  1447 685 m 429 Y s 1430 709 m 17 X s 1438 729 m 9 X s 1438 749 m 9 X s 1438 769 m 9 X s 1430 789 m 17 X s 1438 809 m 9 X s 1438 829 m 9 X s
 1438 850 m 9 X s 1430 870 m 17 X s 1438 890 m 9 X s 1438 910 m 9 X s 1438 930 m 9 X s 1430 950 m 17 X s 1438 970 m 9 X s 1438 990 m 9 X s 1438 1010 m 9 X s 1430 1030 m 17 X s 1438 1050 m 9 X s 1438 1070 m 9 X s 1438 1090 m 9 X s 1430 1110 m 17 X s
 1430 709 m 17 X s 1438 689 m 9 X s 1430 1110 m 17 X s 0.490196 0.545098 0.615686 c 0.364706 0.419608 0.490196 c 338 38 786 1130 bf 0.490196 0.545098 0.615686 c 786 1130 m 338 X s 1124 1130 m 38 Y s 1124 1168 m -338 X s 786 1168 m -38 Y s 1 1 1 c
 black 1 1 1 c
 gsave  710 567 779 603 C 790.007 1142.38 t 0 r /Helvetica-Bold findfont 28.5146 sf 0 0 m (Input variable: bb.HS_l4) show NC gr  1 0 0 c 6 lw black 3 lw 1 0 0 c 1442 709 m s 1427 710 m -1 Y s 1413 710 m -1 -1 d s 1397 710 m -1 Y s 1391 718 m -9 -9 d
 s 1378 721 m -11 -12 d s 1353 711 m -1 -2 d s 1347 720 m -11 -11 d s 1324 712 m -3 -3 d s 1311 714 m -1 -1 d s 1310 713 m -4 -4 d s 1296 714 m -5 -5 d s 1296 729 m -20 -20 d s 1296 745 m -35 -36 d s 1288 751 m -19 -19 d s 1267 731 m -12 -13 d s 1251
 715 m -5 -6 d s 1282 761 m -13 -14 d s 1241 720 m -10 -11 d s 1269 763 m s 1241 735 m -13 -14 d s 1222 716 m -6 -7 d s 1241 750 m -13 -14 d s 1214 723 m -13 -14 d s 1239 763 m -11 -11 d s 1214 738 m -28 -29 d s 1214 753 m -43 -44 d s 1214 768 m -58
 -59 d s 1214 783 m -73 -74 d s 1214 799 m -89 -90 d s 1212 812 m -102 -103 d s 1200 815 m -105 -106 d s 1200 830 m -120 -121 d s 1200 845 m -135 -136 d s 1195 856 m -145 -147 d s 1187 862 m -28 -27 d s 1147 822 m -112 -113 d s 1177 868 m -18 -18 d s
 1146 836 m -126 -127 d s 1173 879 m -14 -14 d s 1146 851 m -141 -142 d s 1173 894 m -14 -14 d s 1146 866 m -156 -157 d s 1163 899 m -4 -4 d s 1132 868 m -157 -159 d s 1132 883 m -172 -174 d s 1131 898 m -186 -189 d s 1118 899 m -27 -27 d s 1089 870
 m -160 -161 d s 1118 915 m -27 -28 d s 1077 873 m -13 -13 d s 1056 852 m -142 -143 d s 1106 917 m -15 -15 d s 1077 889 m -13 -14 d s 1050 861 m -151 -152 d s 1105 931 m -14 -14 d s 1077 904 m -13 -14 d s 1050 876 m -151 -151 d s 1105 946 m -14 -13 d
 s 1077 919 m -13 -14 d s 1050 891 m -14 -13 d s 1025 867 m -126 -127 d s 1104 961 m -13 -13 d s 1077 934 m -13 -14 d s 1050 906 m -14 -13 d s 1022 879 m -123 -124 d s 1077 949 m -13 -14 d s 1050 922 m -14 -14 d s 1022 894 m -13 -14 d s 1001 872 m
 -20 -19 d s 979 850 m -80 -80 d s 1077 964 m -13 -13 d s 1050 937 m -14 -14 d s 1022 909 m -13 -13 d s 995 882 m -14 -14 d s 968 854 m -69 -69 d s 1077 980 m -13 -14 d s 1047 950 m -11 -12 d s 1022 924 m -13 -13 d s 995 897 m -14 -14 d s 968 869 m
 -14 -13 d s 940 842 m -41 -42 d s 1077 995 m -13 -14 d s 1019 936 m -10 -10 d s 995 912 m -14 -14 d s 968 885 m -14 -14 d s 940 857 m -41 -41 d s 1077 1010 m -13 -14 d s 995 927 m -14 -13 d s 968 900 m -14 -14 d s 940 872 m -41 -41 d s 1077 1025 m
 -13 -14 d s 995 942 m -14 -13 d s 960 908 m -6 -7 d s 940 887 m -41 -41 d s 1077 1040 m -13 -13 d s 995 958 m -14 -14 d s 940 903 m -13 -14 d s 913 875 m -14 -14 d s 1077 1056 m -13 -14 d s 995 973 m -14 -14 d s 940 918 m -13 -14 d s 913 890 m -14
 -14 d s 1077 1071 m -13 -14 d s 989 981 m -8 -7 d s 940 933 m -13 -14 d s 913 905 m -14 -13 d s 1068 1077 m -4 -5 d s 940 948 m -13 -14 d s 913 921 m -14 -14 d s 940 963 m -13 -13 d s 907 930 m -8 -8 d s 931 969 m -4 -4 d s 6 lw 899 930 m 14 X -55 Y
 14 X 94 Y 13 X -127 Y 14 X 66 Y 14 X -58 Y 13 X 131 Y 14 X -109 Y 14 X 64 Y 13 X -69 Y 14 X 83 Y 14 X -98 Y 14 X 225 Y 13 X -207 Y 14 X 91 Y 14 X -44 Y 13 X -19 Y 14 X -31 Y 14 X -45 Y 13 X 77 Y 14 X -31 Y 14 X -12 Y 13 X -44 Y 14 X -96 Y 14 X 47 Y
 13 X -48 Y 14 X 16 Y 14 X 32 Y 13 X -12 Y 14 X -38 Y 14 X 1 Y 13 X -2 Y 14 X 8 Y 14 X -9 Y 13 X 10 Y 14 X -3 Y 14 X -8 Y 41 X -1 Y 14 X -24 Y s black 3 lw 899 685 m 548 X s 910 698 m -13 Y s 926 691 m -6 Y s 941 691 m -6 Y s 957 691 m -6 Y s 973 691
 m -6 Y s 988 698 m -13 Y s 1004 691 m -6 Y s 1020 691 m -6 Y s 1035 691 m -6 Y s 1051 691 m -6 Y s 1067 698 m -13 Y s 1082 691 m -6 Y s 1098 691 m -6 Y s 1114 691 m -6 Y s 1129 691 m -6 Y s 1145 698 m -13 Y s 1161 691 m -6 Y s 1176 691 m -6 Y s 1192
 691 m -6 Y s 1208 691 m -6 Y s 1224 698 m -13 Y s 1239 691 m -6 Y s 1255 691 m -6 Y s 1271 691 m -6 Y s 1286 691 m -6 Y s 1302 698 m -13 Y s 1318 691 m -6 Y s 1333 691 m -6 Y s 1349 691 m -6 Y s 1365 691 m -6 Y s 1380 698 m -13 Y s 910 698 m -13 Y s
 1380 698 m -13 Y s 1396 691 m -6 Y s 1412 691 m -6 Y s 1427 691 m -6 Y s 1443 691 m -6 Y s 899 1114 m 548 X s 910 1100 m 14 Y s 926 1107 m 7 Y s 941 1107 m 7 Y s 957 1107 m 7 Y s 973 1107 m 7 Y s 988 1100 m 14 Y s 1004 1107 m 7 Y s 1020 1107 m 7 Y s
 1035 1107 m 7 Y s 1051 1107 m 7 Y s 1067 1100 m 14 Y s 1082 1107 m 7 Y s 1098 1107 m 7 Y s 1114 1107 m 7 Y s 1129 1107 m 7 Y s 1145 1100 m 14 Y s 1161 1107 m 7 Y s 1176 1107 m 7 Y s 1192 1107 m 7 Y s 1208 1107 m 7 Y s 1224 1100 m 14 Y s 1239 1107 m
 7 Y s 1255 1107 m 7 Y s 1271 1107 m 7 Y s 1286 1107 m 7 Y s 1302 1100 m 14 Y s 1318 1107 m 7 Y s 1333 1107 m 7 Y s 1349 1107 m 7 Y s 1365 1107 m 7 Y s 1380 1100 m 14 Y s 910 1100 m 14 Y s 1380 1100 m 14 Y s 1396 1107 m 7 Y s 1412 1107 m 7 Y s 1427
 1107 m 7 Y s 1443 1107 m 7 Y s 899 685 m 429 Y s 915 709 m -16 X s 907 729 m -8 X s 907 749 m -8 X s 907 769 m -8 X s 915 789 m -16 X s 907 809 m -8 X s 907 829 m -8 X s 907 850 m -8 X s 915 870 m -16 X s 907 890 m -8 X s 907 910 m -8 X s 907 930 m
 -8 X s 915 950 m -16 X s 907 970 m -8 X s 907 990 m -8 X s 907 1010 m -8 X s 915 1030 m -16 X s 907 1050 m -8 X s 907 1070 m -8 X s 907 1090 m -8 X s 915 1110 m -16 X s 915 709 m -16 X s 907 689 m -8 X s 915 1110 m -16 X s 1447 685 m 429 Y s 1430
 709 m 17 X s 1438 729 m 9 X s 1438 749 m 9 X s 1438 769 m 9 X s 1430 789 m 17 X s 1438 809 m 9 X s 1438 829 m 9 X s 1438 850 m 9 X s 1430 870 m 17 X s 1438 890 m 9 X s 1438 910 m 9 X s 1438 930 m 9 X s 1430 950 m 17 X s 1438 970 m 9 X s 1438 990 m 9
 X s 1438 1010 m 9 X s 1430 1030 m 17 X s 1438 1050 m 9 X s 1438 1070 m 9 X s 1438 1090 m 9 X s 1430 1110 m 17 X s 1430 709 m 17 X s 1438 689 m 9 X s 1430 1110 m 17 X s
 gsave  710 567 779 603 C 1474.92 682.347 t 90 r /Helvetica-Bold findfont 19.9602 sf 0 0 m (U/O\255flow \(S,B\): \(0.0, 0.0\)% / \(0.0, 0.0\)%) show NC gr  0.490196 0.545098 0.615686 c 0.364706 0.419608 0.490196 c 338 38 786 1130 bf 0.490196 0.545098
 0.615686 c 786 1130 m 338 X s 1124 1130 m 38 Y s 1124 1168 m -338 X s 786 1168 m -38 Y s 1 1 1 c black 1 1 1 c
 gsave  710 567 779 603 C 790.007 1142.38 t 0 r /Helvetica-Bold findfont 28.5146 sf 0 0 m (Input variable: bb.HS_l4) show NC gr  0.490196 0.545098 0.615686 c 0.941176 0.941176 0.941176 c 711 567 1534 603 bf black 1 1 0.992157 c 547 429 1655 685 bf
 black 547 429 1655 685 bl 0 0 0.933333 c 6 lw 0.49 0.6 0.82 c black 3 lw 0.49 0.6 0.82 c 1655 685 m 254 Y 14 X -47 Y 14 X 63 Y 13 X -32 Y 14 X 12 Y 14 X -5 Y 13 X 22 Y 14 X -8 Y 14 X -85 Y 13 X 46 Y 14 X -7 Y 14 X -17 Y 13 X 61 Y 14 X -62 Y 14 X 1 Y
 13 X -8 Y 14 X 45 Y 14 X -24 Y 13 X -8 Y 14 X 38 Y 14 X 17 Y 14 X -91 Y 13 X -73 Y 14 X -78 Y 14 X 2 Y 13 X -2 Y 14 X -4 Y 41 X -3 Y 14 X -3 Y 13 X 1 Y 14 X -2 Y 14 X -1 Y 13 X -2 Y 41 X 1 Y 14 X -1 Y 27 X f 6 lw 0 0 0.933333 c 0.49 0.6 0.82 c 0 0
 0.933333 c 1655 939 m 14 X -47 Y 14 X 63 Y 13 X -32 Y 14 X 12 Y 14 X -5 Y 13 X 22 Y 14 X -8 Y 14 X -85 Y 13 X 46 Y 14 X -7 Y 14 X -17 Y 13 X 61 Y 14 X -62 Y 14 X 1 Y 13 X -8 Y 14 X 45 Y 14 X -24 Y 13 X -8 Y 14 X 38 Y 14 X 17 Y 14 X -91 Y 13 X -73 Y
 14 X -78 Y 14 X 2 Y 13 X -2 Y 14 X -4 Y 41 X -3 Y 14 X -3 Y 13 X 1 Y 14 X -2 Y 14 X -1 Y 13 X -2 Y 41 X 1 Y 14 X -1 Y 27 X s black 3 lw 1655 685 m 547 X s 1663 698 m -13 Y s 1679 691 m -6 Y s 1695 691 m -6 Y s 1711 691 m -6 Y s 1727 691 m -6 Y s
 1743 698 m -13 Y s 1759 691 m -6 Y s 1776 691 m -6 Y s 1792 691 m -6 Y s 1808 691 m -6 Y s 1824 698 m -13 Y s 1840 691 m -6 Y s 1856 691 m -6 Y s 1872 691 m -6 Y s 1888 691 m -6 Y s 1904 698 m -13 Y s 1920 691 m -6 Y s 1937 691 m -6 Y s 1953 691 m
 -6 Y s 1969 691 m -6 Y s 1985 698 m -13 Y s 2001 691 m -6 Y s 2017 691 m -6 Y s 2033 691 m -6 Y s 2049 691 m -6 Y s 2065 698 m -13 Y s 2082 691 m -6 Y s 2098 691 m -6 Y s 2114 691 m -6 Y s 2130 691 m -6 Y s 2146 698 m -13 Y s 1663 698 m -13 Y s 2146
 698 m -13 Y s 2162 691 m -6 Y s 2178 691 m -6 Y s 2194 691 m -6 Y s
 gsave  711 567 1534 603 C 1651.06 656.444 t 0 r /Helvetica findfont 25.6631 sf 0 0 m (0.1) show NC gr 
 gsave  711 567 1534 603 C 1639.69 656.444 t 0 r /Symbol findfont 25.6631 sf 0 0 m (-) show NC gr 
 gsave  711 567 1534 603 C 1722.1 656.444 t 0 r /Helvetica findfont 25.6631 sf 0 0 m (0.05) show NC gr 
 gsave  711 567 1534 603 C 1710.73 656.444 t 0 r /Symbol findfont 25.6631 sf 0 0 m (-) show NC gr 
 gsave  711 567 1534 603 C 1813.04 656.444 t 0 r /Helvetica findfont 25.6631 sf 0 0 m (0) show NC gr 
 gsave  711 567 1534 603 C 1878.4 656.444 t 0 r /Helvetica findfont 25.6631 sf 0 0 m (0.05) show NC gr 
 gsave  711 567 1534 603 C 1966.49 656.444 t 0 r /Helvetica findfont 25.6631 sf 0 0 m (0.1) show NC gr 
 gsave  711 567 1534 603 C 2037.53 656.444 t 0 r /Helvetica findfont 25.6631 sf 0 0 m (0.15) show NC gr 
 gsave  711 567 1534 603 C 2128.47 656.444 t 0 r /Helvetica findfont 25.6631 sf 0 0 m (0.2) show NC gr 
 gsave  711 567 1534 603 C 2085.84 613.818 t 0 r /Helvetica findfont 28.5146 sf 0 0 m (bb.HS_l5) show NC gr  1655 1114 m 547 X s 1663 1100 m 14 Y s 1679 1107 m 7 Y s 1695 1107 m 7 Y s 1711 1107 m 7 Y s 1727 1107 m 7 Y s 1743 1100 m 14 Y s 1759 1107 m
 7 Y s 1776 1107 m 7 Y s 1792 1107 m 7 Y s 1808 1107 m 7 Y s 1824 1100 m 14 Y s 1840 1107 m 7 Y s 1856 1107 m 7 Y s 1872 1107 m 7 Y s 1888 1107 m 7 Y s 1904 1100 m 14 Y s 1920 1107 m 7 Y s 1937 1107 m 7 Y s 1953 1107 m 7 Y s 1969 1107 m 7 Y s 1985
 1100 m 14 Y s 2001 1107 m 7 Y s 2017 1107 m 7 Y s 2033 1107 m 7 Y s 2049 1107 m 7 Y s 2065 1100 m 14 Y s 2082 1107 m 7 Y s 2098 1107 m 7 Y s 2114 1107 m 7 Y s 2130 1107 m 7 Y s 2146 1100 m 14 Y s 1663 1100 m 14 Y s 2146 1100 m 14 Y s 2162 1107 m 7 Y
 s 2178 1107 m 7 Y s 2194 1107 m 7 Y s 1655 685 m 429 Y s 1671 685 m -16 X s 1663 693 m -8 X s 1663 702 m -8 X s 1663 711 m -8 X s 1663 719 m -8 X s 1671 728 m -16 X s 1663 737 m -8 X s 1663 746 m -8 X s 1663 754 m -8 X s 1663 763 m -8 X s 1671 772 m
 -16 X s 1663 781 m -8 X s 1663 789 m -8 X s 1663 798 m -8 X s 1663 807 m -8 X s 1671 815 m -16 X s 1663 824 m -8 X s 1663 833 m -8 X s 1663 842 m -8 X s 1663 850 m -8 X s 1671 859 m -16 X s 1663 868 m -8 X s 1663 876 m -8 X s 1663 885 m -8 X s 1663
 894 m -8 X s 1671 903 m -16 X s 1663 911 m -8 X s 1663 920 m -8 X s 1663 929 m -8 X s 1663 937 m -8 X s 1671 946 m -16 X s 1663 955 m -8 X s 1663 964 m -8 X s 1663 972 m -8 X s 1663 981 m -8 X s 1671 990 m -16 X s 1663 999 m -8 X s 1663 1007 m -8 X
 s 1663 1016 m -8 X s 1663 1025 m -8 X s 1671 1033 m -16 X s 1663 1042 m -8 X s 1663 1051 m -8 X s 1663 1060 m -8 X s 1663 1068 m -8 X s 1671 1077 m -16 X s 1671 1077 m -16 X s 1663 1086 m -8 X s 1663 1094 m -8 X s 1663 1103 m -8 X s 1663 1112 m -8 X
 s
 gsave  711 567 1534 603 C 1631.16 673.495 t 0 r /Helvetica findfont 25.6631 sf 0 0 m (0) show NC gr 
 gsave  711 567 1534 603 C 1634.01 718.963 t 0 r /Helvetica findfont 25.6631 sf 0 0 m (1) show NC gr 
 gsave  711 567 1534 603 C 1631.16 761.589 t 0 r /Helvetica findfont 25.6631 sf 0 0 m (2) show NC gr 
 gsave  711 567 1534 603 C 1631.16 804.215 t 0 r /Helvetica findfont 25.6631 sf 0 0 m (3) show NC gr 
 gsave  711 567 1534 603 C 1631.16 849.683 t 0 r /Helvetica findfont 25.6631 sf 0 0 m (4) show NC gr 
 gsave  711 567 1534 603 C 1631.16 892.31 t 0 r /Helvetica findfont 25.6631 sf 0 0 m (5) show NC gr 
 gsave  711 567 1534 603 C 1631.16 934.936 t 0 r /Helvetica findfont 25.6631 sf 0 0 m (6) show NC gr 
 gsave  711 567 1534 603 C 1631.16 980.404 t 0 r /Helvetica findfont 25.6631 sf 0 0 m (7) show NC gr 
 gsave  711 567 1534 603 C 1631.16 1023.03 t 0 r /Helvetica findfont 25.6631 sf 0 0 m (8) show NC gr 
 gsave  711 567 1534 603 C 1631.16 1065.66 t 0 r /Helvetica findfont 25.6631 sf 0 0 m (9) show NC gr 
 gsave  711 567 1534 603 C 1557.28 1005.98 t 90 r /Helvetica findfont 28.5146 sf 0 0 m (0.00849 ) show NC gr 
 gsave  711 567 1534 603 C 1543.07 1003.14 t 90 r /Helvetica findfont 19.9602 sf 0 0 m ( ) show NC gr 
 gsave  711 567 1534 603 C 1557.28 991.771 t 90 r /Helvetica findfont 28.5146 sf 0 0 m (/) show NC gr 
 gsave  711 567 1534 603 C 1565.8 988.929 t 90 r /Helvetica findfont 19.9602 sf 0 0 m ( ) show NC gr 
 gsave  711 567 1534 603 C 1557.28 883.784 t 90 r /Helvetica findfont 28.5146 sf 0 0 m (\(1/N\) dN) show NC gr  2202 685 m 429 Y s 2186 685 m 16 X s 2194 693 m 8 X s 2194 702 m 8 X s 2194 711 m 8 X s 2194 719 m 8 X s 2186 728 m 16 X s 2194 737 m 8 X
 s 2194 746 m 8 X s 2194 754 m 8 X s 2194 763 m 8 X s 2186 772 m 16 X s 2194 781 m 8 X s 2194 789 m 8 X s 2194 798 m 8 X s 2194 807 m 8 X s 2186 815 m 16 X s 2194 824 m 8 X s 2194 833 m 8 X s 2194 842 m 8 X s 2194 850 m 8 X s 2186 859 m 16 X s 2194
 868 m 8 X s 2194 876 m 8 X s 2194 885 m 8 X s 2194 894 m 8 X s 2186 903 m 16 X s 2194 911 m 8 X s 2194 920 m 8 X s 2194 929 m 8 X s 2194 937 m 8 X s 2186 946 m 16 X s 2194 955 m 8 X s 2194 964 m 8 X s 2194 972 m 8 X s 2194 981 m 8 X s 2186 990 m 16
 X s 2194 999 m 8 X s 2194 1007 m 8 X s 2194 1016 m 8 X s 2194 1025 m 8 X s 2186 1033 m 16 X s 2194 1042 m 8 X s 2194 1051 m 8 X s 2194 1060 m 8 X s 2194 1068 m 8 X s 2186 1077 m 16 X s 2186 1077 m 16 X s 2194 1086 m 8 X s 2194 1094 m 8 X s 2194 1103
 m 8 X s 2194 1112 m 8 X s 0.490196 0.545098 0.615686 c 0.364706 0.419608 0.490196 c 338 38 1542 1130 bf 0.490196 0.545098 0.615686 c 1542 1130 m 338 X s 1880 1130 m 38 Y s 1880 1168 m -338 X s 1542 1168 m -38 Y s 1 1 1 c black 1 1 1 c
 gsave  711 567 1534 603 C 1545.91 1142.38 t 0 r /Helvetica-Bold findfont 28.5146 sf 0 0 m (Input variable: bb.HS_l5) show NC gr  1 0 0 c 6 lw black 3 lw 1 0 0 c 2188 685 m s 2175 686 m -2 -1 d s 2158 685 m s 2144 685 m -1 X s 2129 686 m -1 -1 d s
 2120 692 m -7 -7 d s 2107 694 m -9 -9 d s 2095 697 m -2 -2 d s 2092 694 m -9 -9 d s 2071 687 m -3 -2 d s 2056 688 m -3 -3 d s 2041 688 m -3 -3 d s 2031 693 m -8 -8 d s 2015 692 m -4 -4 d s 2011 688 m -3 -3 d s 1997 689 m -5 -4 d s 1997 705 m -20 -20
 d s 1997 720 m -35 -35 d s 1984 721 m -37 -36 d s 1984 736 m -52 -51 d s 1974 742 m -57 -57 d s 1970 753 m -68 -68 d s 1968 767 m -81 -82 d s 1956 770 m -84 -85 d s 1956 785 m -99 -100 d s 1956 800 m -114 -115 d s 1956 815 m -129 -130 d s 1956 830 m
 -144 -145 d s 1956 845 m -160 -160 d s 1956 861 m -27 -28 d s 1926 831 m -145 -146 d s 1956 876 m -27 -28 d s 1915 835 m -149 -150 d s 1956 891 m -27 -28 d s 1915 850 m -164 -165 d s 1956 906 m -27 -27 d s 1915 865 m -27 -28 d s 1881 830 m -7 -6 d s
 1871 821 m -135 -136 d s 1956 921 m -27 -27 d s 1915 880 m -27 -27 d s 1860 824 m -139 -139 d s 1956 937 m -13 -14 d s 1939 919 m -10 -10 d s 1915 895 m -27 -27 d s 1847 826 m -141 -141 d s 1949 945 m -6 -7 d s 1915 910 m -27 -27 d s 1847 842 m -55
 -56 d s 1792 786 m -101 -101 d s 1915 926 m -27 -28 d s 1847 857 m -55 -55 d s 1778 788 m -102 -103 d s 1915 941 m -27 -28 d s 1847 872 m -55 -55 d s 1778 803 m -117 -118 d s 1915 956 m -27 -28 d s 1847 887 m -14 -14 d s 1830 870 m -38 -38 d s 1778
 818 m -123 -124 d s 1915 971 m -27 -27 d s 1847 902 m -14 -13 d s 1819 875 m -27 -28 d s 1778 833 m -123 -124 d s 1915 986 m -27 -27 d s 1847 917 m -14 -13 d s 1819 890 m -27 -28 d s 1778 849 m -13 -14 d s 1765 835 m -110 -110 d s 1915 1002 m -27
 -28 d s 1838 924 m -5 -5 d s 1819 905 m -27 -27 d s 1778 864 m -13 -14 d s 1751 836 m -96 -96 d s 1915 1017 m -14 -14 d s 1897 998 m -9 -9 d s 1819 920 m -27 -27 d s 1778 879 m -13 -14 d s 1751 851 m -96 -96 d s 1904 1020 m -3 -2 d s 1819 935 m -27
 -27 d s 1778 894 m -13 -14 d s 1751 867 m -96 -97 d s 1819 951 m -13 -14 d s 1798 929 m -6 -6 d s 1778 909 m -13 -13 d s 1751 882 m -27 -28 d s 1714 844 m -59 -59 d s 1819 966 m -13 -14 d s 1778 924 m -13 -13 d s 1751 897 m -27 -28 d s 1710 856 m
 -55 -56 d s 1819 981 m -13 -14 d s 1778 940 m -13 -14 d s 1743 904 m -19 -19 d s 1710 871 m -14 -14 d s 1695 856 m -40 -40 d s 1819 996 m -13 -14 d s 1778 955 m -13 -14 d s 1737 914 m -13 -14 d s 1710 886 m -14 -14 d s 1683 858 m -28 -27 d s 1819
 1011 m -13 -13 d s 1778 970 m -13 -14 d s 1737 929 m -13 -14 d s 1710 901 m -14 -14 d s 1683 874 m -14 -14 d s 1669 860 m -14 -14 d s 1819 1027 m -13 -14 d s 1778 985 m -13 -14 d s 1737 944 m -13 -14 d s 1710 916 m -14 -13 d s 1674 880 m -5 -5 d s
 1819 1042 m -13 -14 d s 1778 1000 m -13 -13 d s 1737 959 m -13 -14 d s 1710 932 m -14 -14 d s 1819 1057 m -13 -14 d s 1778 1016 m -13 -14 d s 1737 974 m -13 -14 d s 1710 947 m -14 -14 d s 1819 1072 m -13 -14 d s 1778 1031 m -13 -14 d s 1730 982 m -6
 -6 d s 1710 962 m -14 -14 d s 1807 1075 m -1 -1 d s 1778 1046 m -13 -14 d s 1704 971 m -8 -8 d s 1771 1054 m -6 -7 d s 6 lw 1655 860 m 14 X 20 Y 14 X -24 Y 13 X 115 Y 14 X -127 Y 14 X 138 Y 13 X -78 Y 14 X -69 Y 14 X 219 Y 13 X -268 Y 14 X 143 Y 14
 X 146 Y 13 X -205 Y 14 X 54 Y 14 X -100 Y 13 X -3 Y 14 X 9 Y 14 X 168 Y 13 X 22 Y 14 X -189 Y 14 X 88 Y 14 X 26 Y 13 X -178 Y 14 X -25 Y 14 X -22 Y 13 X -32 Y 14 X 4 Y 14 X 1 Y 13 X -5 Y 28 X -1 Y 13 X 7 Y 14 X 3 Y 14 X -3 Y 13 X -8 Y 14 X -1 Y 27 X
 1 Y 14 X -1 Y 27 X s black 3 lw 1655 685 m 547 X s 1663 698 m -13 Y s 1679 691 m -6 Y s 1695 691 m -6 Y s 1711 691 m -6 Y s 1727 691 m -6 Y s 1743 698 m -13 Y s 1759 691 m -6 Y s 1776 691 m -6 Y s 1792 691 m -6 Y s 1808 691 m -6 Y s 1824 698 m -13 Y
 s 1840 691 m -6 Y s 1856 691 m -6 Y s 1872 691 m -6 Y s 1888 691 m -6 Y s 1904 698 m -13 Y s 1920 691 m -6 Y s 1937 691 m -6 Y s 1953 691 m -6 Y s 1969 691 m -6 Y s 1985 698 m -13 Y s 2001 691 m -6 Y s 2017 691 m -6 Y s 2033 691 m -6 Y s 2049 691 m
 -6 Y s 2065 698 m -13 Y s 2082 691 m -6 Y s 2098 691 m -6 Y s 2114 691 m -6 Y s 2130 691 m -6 Y s 2146 698 m -13 Y s 1663 698 m -13 Y s 2146 698 m -13 Y s 2162 691 m -6 Y s 2178 691 m -6 Y s 2194 691 m -6 Y s 1655 1114 m 547 X s 1663 1100 m 14 Y s
 1679 1107 m 7 Y s 1695 1107 m 7 Y s 1711 1107 m 7 Y s 1727 1107 m 7 Y s 1743 1100 m 14 Y s 1759 1107 m 7 Y s 1776 1107 m 7 Y s 1792 1107 m 7 Y s 1808 1107 m 7 Y s 1824 1100 m 14 Y s 1840 1107 m 7 Y s 1856 1107 m 7 Y s 1872 1107 m 7 Y s 1888 1107 m 7
 Y s 1904 1100 m 14 Y s 1920 1107 m 7 Y s 1937 1107 m 7 Y s 1953 1107 m 7 Y s 1969 1107 m 7 Y s 1985 1100 m 14 Y s 2001 1107 m 7 Y s 2017 1107 m 7 Y s 2033 1107 m 7 Y s 2049 1107 m 7 Y s 2065 1100 m 14 Y s 2082 1107 m 7 Y s 2098 1107 m 7 Y s 2114
 1107 m 7 Y s 2130 1107 m 7 Y s 2146 1100 m 14 Y s 1663 1100 m 14 Y s 2146 1100 m 14 Y s 2162 1107 m 7 Y s 2178 1107 m 7 Y s 2194 1107 m 7 Y s 1655 685 m 429 Y s 1671 685 m -16 X s 1663 693 m -8 X s 1663 702 m -8 X s 1663 711 m -8 X s 1663 719 m -8 X
 s 1671 728 m -16 X s 1663 737 m -8 X s 1663 746 m -8 X s 1663 754 m -8 X s 1663 763 m -8 X s 1671 772 m -16 X s 1663 781 m -8 X s 1663 789 m -8 X s 1663 798 m -8 X s 1663 807 m -8 X s 1671 815 m -16 X s 1663 824 m -8 X s 1663 833 m -8 X s 1663 842 m
 -8 X s 1663 850 m -8 X s 1671 859 m -16 X s 1663 868 m -8 X s 1663 876 m -8 X s 1663 885 m -8 X s 1663 894 m -8 X s 1671 903 m -16 X s 1663 911 m -8 X s 1663 920 m -8 X s 1663 929 m -8 X s 1663 937 m -8 X s 1671 946 m -16 X s 1663 955 m -8 X s 1663
 964 m -8 X s 1663 972 m -8 X s 1663 981 m -8 X s 1671 990 m -16 X s 1663 999 m -8 X s 1663 1007 m -8 X s 1663 1016 m -8 X s 1663 1025 m -8 X s 1671 1033 m -16 X s 1663 1042 m -8 X s 1663 1051 m -8 X s 1663 1060 m -8 X s 1663 1068 m -8 X s 1671 1077
 m -16 X s 1671 1077 m -16 X s 1663 1086 m -8 X s 1663 1094 m -8 X s 1663 1103 m -8 X s 1663 1112 m -8 X s 2202 685 m 429 Y s 2186 685 m 16 X s 2194 693 m 8 X s 2194 702 m 8 X s 2194 711 m 8 X s 2194 719 m 8 X s 2186 728 m 16 X s 2194 737 m 8 X s
 2194 746 m 8 X s 2194 754 m 8 X s 2194 763 m 8 X s 2186 772 m 16 X s 2194 781 m 8 X s 2194 789 m 8 X s 2194 798 m 8 X s 2194 807 m 8 X s 2186 815 m 16 X s 2194 824 m 8 X s 2194 833 m 8 X s 2194 842 m 8 X s 2194 850 m 8 X s 2186 859 m 16 X s 2194 868
 m 8 X s 2194 876 m 8 X s 2194 885 m 8 X s 2194 894 m 8 X s 2186 903 m 16 X s 2194 911 m 8 X s 2194 920 m 8 X s 2194 929 m 8 X s 2194 937 m 8 X s 2186 946 m 16 X s 2194 955 m 8 X s 2194 964 m 8 X s 2194 972 m 8 X s 2194 981 m 8 X s 2186 990 m 16 X s
 2194 999 m 8 X s 2194 1007 m 8 X s 2194 1016 m 8 X s 2194 1025 m 8 X s 2186 1033 m 16 X s 2194 1042 m 8 X s 2194 1051 m 8 X s 2194 1060 m 8 X s 2194 1068 m 8 X s 2186 1077 m 16 X s 2186 1077 m 16 X s 2194 1086 m 8 X s 2194 1094 m 8 X s 2194 1103 m 8
 X s 2194 1112 m 8 X s
 gsave  711 567 1534 603 C 2230.83 682.347 t 90 r /Helvetica-Bold findfont 19.9602 sf 0 0 m (U/O\255flow \(S,B\): \(0.0, 0.0\)% / \(0.0, 0.0\)%) show NC gr  0.490196 0.545098 0.615686 c 0.364706 0.419608 0.490196 c 338 38 1542 1130 bf 0.490196
 0.545098 0.615686 c 1542 1130 m 338 X s 1880 1130 m 38 Y s 1880 1168 m -338 X s 1542 1168 m -38 Y s 1 1 1 c black 1 1 1 c
 gsave  711 567 1534 603 C 1545.91 1142.38 t 0 r /Helvetica-Bold findfont 28.5146 sf 0 0 m (Input variable: bb.HS_l5) show NC gr  0.490196 0.545098 0.615686 c 0.941176 0.941176 0.941176 c 710 567 23 12 bf black 1 1 0.992157 c 548 429 143 94 bf black
 548 429 143 94 bl 0 0 0.933333 c 6 lw 0.49 0.6 0.82 c black 3 lw 0.49 0.6 0.82 c 143 94 m 3 Y 14 X 24 Y 14 X 43 Y 14 X 17 Y 13 X 118 Y 14 X 5 Y 14 X 120 Y 13 X -67 Y 14 X -28 Y 14 X 34 Y 27 X -26 Y 14 X 2 Y 13 X -21 Y 14 X -21 Y 14 X -24 Y 13 X -13
 Y 14 X 4 Y 14 X 37 Y 13 X -12 Y 14 X -44 Y 14 X 9 Y 13 X -15 Y 14 X 4 Y 14 X 11 Y 13 X -32 Y 14 X 6 Y 14 X -10 Y 13 X 23 Y 14 X -29 Y 14 X 8 Y 13 X -16 Y 14 X -5 Y 14 X -18 Y 14 X -5 Y 13 X -16 Y 14 X -29 Y 14 X -22 Y 13 X -3 Y 14 X -12 Y 14 X f 6
 lw 0 0 0.933333 c 0.49 0.6 0.82 c 0 0 0.933333 c 143 97 m 14 X 24 Y 14 X 43 Y 14 X 17 Y 13 X 118 Y 14 X 5 Y 14 X 120 Y 13 X -67 Y 14 X -28 Y 14 X 34 Y 27 X -26 Y 14 X 2 Y 13 X -21 Y 14 X -21 Y 14 X -24 Y 13 X -13 Y 14 X 4 Y 14 X 37 Y 13 X -12 Y 14 X
 -44 Y 14 X 9 Y 13 X -15 Y 14 X 4 Y 14 X 11 Y 13 X -32 Y 14 X 6 Y 14 X -10 Y 13 X 23 Y 14 X -29 Y 14 X 8 Y 13 X -16 Y 14 X -5 Y 14 X -18 Y 14 X -5 Y 13 X -16 Y 14 X -29 Y 14 X -22 Y 13 X -3 Y 14 X -12 Y 14 X s black 3 lw 143 94 m 548 X s 195 107 m
 -13 Y s 206 100 m -6 Y s 217 100 m -6 Y s 228 100 m -6 Y s 239 100 m -6 Y s 250 107 m -13 Y s 261 100 m -6 Y s 272 100 m -6 Y s 283 100 m -6 Y s 294 100 m -6 Y s 305 107 m -13 Y s 317 100 m -6 Y s 328 100 m -6 Y s 339 100 m -6 Y s 350 100 m -6 Y s
 361 107 m -13 Y s 372 100 m -6 Y s 383 100 m -6 Y s 394 100 m -6 Y s 405 100 m -6 Y s 416 107 m -13 Y s 428 100 m -6 Y s 439 100 m -6 Y s 450 100 m -6 Y s 461 100 m -6 Y s 472 107 m -13 Y s 483 100 m -6 Y s 494 100 m -6 Y s 505 100 m -6 Y s 516 100
 m -6 Y s 527 107 m -13 Y s 539 100 m -6 Y s 550 100 m -6 Y s 561 100 m -6 Y s 572 100 m -6 Y s 583 107 m -13 Y s 594 100 m -6 Y s 605 100 m -6 Y s 616 100 m -6 Y s 627 100 m -6 Y s 638 107 m -13 Y s 195 107 m -13 Y s 183 100 m -6 Y s 172 100 m -6 Y
 s 161 100 m -6 Y s 150 100 m -6 Y s 638 107 m -13 Y s 650 100 m -6 Y s 661 100 m -6 Y s 672 100 m -6 Y s 683 100 m -6 Y s
 gsave  710 567 23 12 C 181.872 65.3603 t 0 r /Helvetica findfont 25.6631 sf 0 0 m (0.2) show NC gr 
 gsave  710 567 23 12 C 167.663 65.3603 t 0 r /Symbol findfont 25.6631 sf 0 0 m (-) show NC gr 
 gsave  710 567 23 12 C 227.34 65.3603 t 0 r /Helvetica findfont 25.6631 sf 0 0 m (0.15) show NC gr 
 gsave  710 567 23 12 C 215.973 65.3603 t 0 r /Symbol findfont 25.6631 sf 0 0 m (-) show NC gr 
 gsave  710 567 23 12 C 292.7 65.3603 t 0 r /Helvetica findfont 25.6631 sf 0 0 m (0.1) show NC gr 
 gsave  710 567 23 12 C 281.333 65.3603 t 0 r /Symbol findfont 25.6631 sf 0 0 m (-) show NC gr 
 gsave  710 567 23 12 C 341.01 65.3603 t 0 r /Helvetica findfont 25.6631 sf 0 0 m (0.05) show NC gr 
 gsave  710 567 23 12 C 329.643 65.3603 t 0 r /Symbol findfont 25.6631 sf 0 0 m (-) show NC gr 
 gsave  710 567 23 12 C 406.37 65.3603 t 0 r /Helvetica findfont 25.6631 sf 0 0 m (0) show NC gr 
 gsave  710 567 23 12 C 446.155 65.3603 t 0 r /Helvetica findfont 25.6631 sf 0 0 m (0.05) show NC gr 
 gsave  710 567 23 12 C 508.673 65.3603 t 0 r /Helvetica findfont 25.6631 sf 0 0 m (0.1) show NC gr 
 gsave  710 567 23 12 C 556.983 65.3603 t 0 r /Helvetica findfont 25.6631 sf 0 0 m (0.15) show NC gr 
 gsave  710 567 23 12 C 619.502 65.3603 t 0 r /Helvetica findfont 25.6631 sf 0 0 m (0.2) show NC gr 
 gsave  710 567 23 12 C 579.717 22.734 t 0 r /Helvetica findfont 28.5146 sf 0 0 m (hh.HS_l1) show NC gr  143 523 m 548 X s 195 509 m 14 Y s 206 516 m 7 Y s 217 516 m 7 Y s 228 516 m 7 Y s 239 516 m 7 Y s 250 509 m 14 Y s 261 516 m 7 Y s 272 516 m 7 Y
 s 283 516 m 7 Y s 294 516 m 7 Y s 305 509 m 14 Y s 317 516 m 7 Y s 328 516 m 7 Y s 339 516 m 7 Y s 350 516 m 7 Y s 361 509 m 14 Y s 372 516 m 7 Y s 383 516 m 7 Y s 394 516 m 7 Y s 405 516 m 7 Y s 416 509 m 14 Y s 428 516 m 7 Y s 439 516 m 7 Y s 450
 516 m 7 Y s 461 516 m 7 Y s 472 509 m 14 Y s 483 516 m 7 Y s 494 516 m 7 Y s 505 516 m 7 Y s 516 516 m 7 Y s 527 509 m 14 Y s 539 516 m 7 Y s 550 516 m 7 Y s 561 516 m 7 Y s 572 516 m 7 Y s 583 509 m 14 Y s 594 516 m 7 Y s 605 516 m 7 Y s 616 516 m
 7 Y s 627 516 m 7 Y s 638 509 m 14 Y s 195 509 m 14 Y s 183 516 m 7 Y s 172 516 m 7 Y s 161 516 m 7 Y s 150 516 m 7 Y s 638 509 m 14 Y s 650 516 m 7 Y s 661 516 m 7 Y s 672 516 m 7 Y s 683 516 m 7 Y s 143 94 m 429 Y s 160 94 m -17 X s 152 108 m -9 X
 s 152 122 m -9 X s 152 137 m -9 X s 152 151 m -9 X s 160 166 m -17 X s 152 180 m -9 X s 152 195 m -9 X s 152 209 m -9 X s 152 224 m -9 X s 160 238 m -17 X s 152 253 m -9 X s 152 267 m -9 X s 152 282 m -9 X s 152 296 m -9 X s 160 311 m -17 X s 152
 325 m -9 X s 152 340 m -9 X s 152 354 m -9 X s 152 369 m -9 X s 160 383 m -17 X s 152 398 m -9 X s 152 412 m -9 X s 152 426 m -9 X s 152 441 m -9 X s 160 455 m -17 X s 160 455 m -17 X s 152 470 m -9 X s 152 484 m -9 X s 152 499 m -9 X s 152 513 m -9
 X s
 gsave  710 567 23 12 C 119.354 82.4108 t 0 r /Helvetica findfont 25.6631 sf 0 0 m (0) show NC gr 
 gsave  710 567 23 12 C 122.195 156.296 t 0 r /Helvetica findfont 25.6631 sf 0 0 m (1) show NC gr 
 gsave  710 567 23 12 C 119.354 227.34 t 0 r /Helvetica findfont 25.6631 sf 0 0 m (2) show NC gr 
 gsave  710 567 23 12 C 119.354 301.226 t 0 r /Helvetica findfont 25.6631 sf 0 0 m (3) show NC gr 
 gsave  710 567 23 12 C 119.354 372.269 t 0 r /Helvetica findfont 25.6631 sf 0 0 m (4) show NC gr 
 gsave  710 567 23 12 C 119.354 446.155 t 0 r /Helvetica findfont 25.6631 sf 0 0 m (5) show NC gr 
 gsave  710 567 23 12 C 45.468 431.946 t 90 r /Helvetica findfont 28.5146 sf 0 0 m (0.0123 ) show NC gr 
 gsave  710 567 23 12 C 31.2593 429.104 t 90 r /Helvetica findfont 19.9602 sf 0 0 m ( ) show NC gr 
 gsave  710 567 23 12 C 45.468 417.737 t 90 r /Helvetica findfont 28.5146 sf 0 0 m (/) show NC gr 
 gsave  710 567 23 12 C 53.9933 414.896 t 90 r /Helvetica findfont 19.9602 sf 0 0 m ( ) show NC gr 
 gsave  710 567 23 12 C 45.468 309.751 t 90 r /Helvetica findfont 28.5146 sf 0 0 m (\(1/N\) dN) show NC gr  691 94 m 429 Y s 674 94 m 17 X s 683 108 m 8 X s 683 122 m 8 X s 683 137 m 8 X s 683 151 m 8 X s 674 166 m 17 X s 683 180 m 8 X s 683 195 m 8
 X s 683 209 m 8 X s 683 224 m 8 X s 674 238 m 17 X s 683 253 m 8 X s 683 267 m 8 X s 683 282 m 8 X s 683 296 m 8 X s 674 311 m 17 X s 683 325 m 8 X s 683 340 m 8 X s 683 354 m 8 X s 683 369 m 8 X s 674 383 m 17 X s 683 398 m 8 X s 683 412 m 8 X s
 683 426 m 8 X s 683 441 m 8 X s 674 455 m 17 X s 674 455 m 17 X s 683 470 m 8 X s 683 484 m 8 X s 683 499 m 8 X s 683 513 m 8 X s 0.490196 0.545098 0.615686 c 0.364706 0.419608 0.490196 c 335 37 30 539 bf 0.490196 0.545098 0.615686 c 30 539 m 335 X
 s 365 539 m 37 Y s 365 576 m -335 X s 30 576 m -37 Y s 1 1 1 c black 1 1 1 c
 gsave  710 567 23 12 C 34.101 551.299 t 0 r /Helvetica-Bold findfont 28.5146 sf 0 0 m (Input variable: hh.HS_l1) show NC gr  1 0 0 c 6 lw black 3 lw 1 0 0 c 677 94 m s 663 95 m -1 -1 d s 654 101 m -8 -7 d s 650 112 m -19 -18 d s 650 127 m -34 -33 d
 s 650 142 m -49 -48 d s 650 157 m -64 -63 d s 650 173 m -79 -79 d s 650 188 m -94 -94 d s 650 203 m -14 -14 d s 625 178 m -84 -84 d s 650 218 m -14 -14 d s 622 191 m -41 -42 d s 571 139 m -45 -45 d s 612 196 m -31 -32 d s 567 151 m -56 -57 d s 609
 207 m -28 -27 d s 567 166 m -71 -72 d s 599 212 m -18 -17 d s 567 181 m -86 -87 d s 595 224 m -14 -14 d s 567 196 m -101 -102 d s 595 239 m -14 -14 d s 567 211 m -117 -117 d s 594 254 m -13 -14 d s 567 227 m -132 -133 d s 567 242 m -54 -55 d s 501
 174 m -16 -15 d s 482 156 m -62 -62 d s 567 257 m -54 -55 d s 493 182 m -8 -8 d s 472 161 m -67 -67 d s 567 272 m -41 -41 d s 523 227 m -10 -10 d s 472 176 m -82 -82 d s 567 287 m -41 -41 d s 472 191 m -97 -97 d s 567 302 m -27 -27 d s 538 272 m -12
 -11 d s 472 206 m -112 -112 d s 567 318 m -13 -14 d s 549 299 m -9 -9 d s 472 221 m -127 -127 d s 567 333 m -13 -14 d s 472 236 m -142 -142 d s 567 348 m -13 -14 d s 472 252 m -28 -28 d s 442 222 m -25 -26 d s 410 189 m -95 -95 d s 567 363 m -13 -14
 d s 472 267 m -28 -28 d s 431 225 m -14 -13 d s 403 198 m -103 -104 d s 567 378 m -13 -13 d s 472 282 m -28 -28 d s 431 241 m -14 -14 d s 403 213 m -118 -119 d s 563 389 m -9 -9 d s 472 297 m -28 -27 d s 431 256 m -14 -14 d s 403 228 m -133 -134 d s
 472 312 m -28 -27 d s 431 271 m -14 -14 d s 390 230 m -135 -136 d s 446 301 m -2 -1 d s 431 286 m -14 -14 d s 390 245 m -14 -14 d s 369 224 m -130 -130 d s 431 301 m -14 -13 d s 390 260 m -14 -14 d s 362 232 m -138 -138 d s 431 317 m -14 -14 d s 390
 275 m -14 -14 d s 349 234 m -140 -140 d s 431 332 m -14 -14 d s 390 290 m -14 -13 d s 346 247 m -152 -153 d s 431 347 m -14 -14 d s 390 306 m -14 -14 d s 335 250 m -156 -156 d s 431 362 m -14 -14 d s 390 321 m -14 -14 d s 335 266 m -41 -42 d s 290
 221 m -105 -107 d s 173 103 m -9 -9 d s 431 377 m -14 -14 d s 390 336 m -14 -14 d s 330 276 m -9 -9 d s 320 265 m -26 -26 d s 280 226 m -95 -97 d s 151 95 m -2 -1 d s 431 392 m -14 -13 d s 390 351 m -14 -14 d s 308 268 m -14 -13 d s 280 241 m -68
 -69 d s 208 168 m -23 -24 d s 431 408 m -14 -14 d s 390 366 m -14 -13 d s 308 284 m -14 -14 d s 280 256 m -68 -69 d s 198 173 m -13 -13 d s 422 414 m -5 -5 d s 390 381 m -14 -13 d s 308 299 m -14 -14 d s 280 271 m -68 -69 d s 185 175 m s 390 397 m
 -14 -14 d s 308 314 m -14 -14 d s 280 286 m -68 -68 d s 390 412 m -14 -14 d s 308 329 m -14 -14 d s 280 302 m -68 -69 d s 308 344 m -14 -13 d s 280 317 m -68 -69 d s 308 360 m -14 -14 d s 280 332 m -54 -55 d s 221 272 m -9 -9 d s 308 375 m -14 -14 d
 s 280 347 m -41 -41 d s 230 297 m -4 -5 d s 308 390 m -14 -14 d s 280 362 m -41 -41 d s 308 405 m -14 -14 d s 273 370 m -34 -34 d s 308 420 m -14 -13 d s 267 379 m -14 -14 d s 240 352 m -1 -1 d s 308 435 m -14 -13 d s 267 394 m -14 -14 d s 308 451 m
 -14 -14 d s 267 409 m -14 -13 d s 308 466 m -14 -14 d s 267 425 m -14 -14 d s 308 481 m -14 -14 d s 267 440 m -14 -14 d s 295 484 m -1 -2 d s 267 455 m -14 -14 d s 262 465 m -9 -9 d s 6 lw 143 95 m 14 X 6 Y 14 X 2 Y 14 X 72 Y 13 X -7 Y 14 X 104 Y 14
 X 25 Y 13 X 55 Y 14 X 113 Y 14 X -95 Y 13 X -149 Y 14 X 263 Y 14 X -219 Y 13 X 11 Y 14 X -29 Y 14 X -13 Y 13 X -10 Y 14 X 189 Y 14 X -183 Y 13 X -41 Y 14 X 225 Y 14 X -192 Y 13 X 79 Y 14 X 11 Y 14 X -156 Y 13 X 26 Y 14 X -8 Y 14 X 53 Y 13 X 45 Y 14
 X 27 Y 14 X 90 Y 13 X -250 Y 14 X 115 Y 14 X -42 Y 14 X -16 Y 13 X -18 Y 14 X 41 Y 14 X -118 Y 13 X -7 Y 28 X s black 3 lw 143 94 m 548 X s 195 107 m -13 Y s 206 100 m -6 Y s 217 100 m -6 Y s 228 100 m -6 Y s 239 100 m -6 Y s 250 107 m -13 Y s 261
 100 m -6 Y s 272 100 m -6 Y s 283 100 m -6 Y s 294 100 m -6 Y s 305 107 m -13 Y s 317 100 m -6 Y s 328 100 m -6 Y s 339 100 m -6 Y s 350 100 m -6 Y s 361 107 m -13 Y s 372 100 m -6 Y s 383 100 m -6 Y s 394 100 m -6 Y s 405 100 m -6 Y s 416 107 m -13
 Y s 428 100 m -6 Y s 439 100 m -6 Y s 450 100 m -6 Y s 461 100 m -6 Y s 472 107 m -13 Y s 483 100 m -6 Y s 494 100 m -6 Y s 505 100 m -6 Y s 516 100 m -6 Y s 527 107 m -13 Y s 539 100 m -6 Y s 550 100 m -6 Y s 561 100 m -6 Y s 572 100 m -6 Y s 583
 107 m -13 Y s 594 100 m -6 Y s 605 100 m -6 Y s 616 100 m -6 Y s 627 100 m -6 Y s 638 107 m -13 Y s 195 107 m -13 Y s 183 100 m -6 Y s 172 100 m -6 Y s 161 100 m -6 Y s 150 100 m -6 Y s 638 107 m -13 Y s 650 100 m -6 Y s 661 100 m -6 Y s 672 100 m
 -6 Y s 683 100 m -6 Y s 143 523 m 548 X s 195 509 m 14 Y s 206 516 m 7 Y s 217 516 m 7 Y s 228 516 m 7 Y s 239 516 m 7 Y s 250 509 m 14 Y s 261 516 m 7 Y s 272 516 m 7 Y s 283 516 m 7 Y s 294 516 m 7 Y s 305 509 m 14 Y s 317 516 m 7 Y s 328 516 m 7
 Y s 339 516 m 7 Y s 350 516 m 7 Y s 361 509 m 14 Y s 372 516 m 7 Y s 383 516 m 7 Y s 394 516 m 7 Y s 405 516 m 7 Y s 416 509 m 14 Y s 428 516 m 7 Y s 439 516 m 7 Y s 450 516 m 7 Y s 461 516 m 7 Y s 472 509 m 14 Y s 483 516 m 7 Y s 494 516 m 7 Y s
 505 516 m 7 Y s 516 516 m 7 Y s 527 509 m 14 Y s 539 516 m 7 Y s 550 516 m 7 Y s 561 516 m 7 Y s 572 516 m 7 Y s 583 509 m 14 Y s 594 516 m 7 Y s 605 516 m 7 Y s 616 516 m 7 Y s 627 516 m 7 Y s 638 509 m 14 Y s 195 509 m 14 Y s 183 516 m 7 Y s 172
 516 m 7 Y s 161 516 m 7 Y s 150 516 m 7 Y s 638 509 m 14 Y s 650 516 m 7 Y s 661 516 m 7 Y s 672 516 m 7 Y s 683 516 m 7 Y s 143 94 m 429 Y s 160 94 m -17 X s 152 108 m -9 X s 152 122 m -9 X s 152 137 m -9 X s 152 151 m -9 X s 160 166 m -17 X s 152
 180 m -9 X s 152 195 m -9 X s 152 209 m -9 X s 152 224 m -9 X s 160 238 m -17 X s 152 253 m -9 X s 152 267 m -9 X s 152 282 m -9 X s 152 296 m -9 X s 160 311 m -17 X s 152 325 m -9 X s 152 340 m -9 X s 152 354 m -9 X s 152 369 m -9 X s 160 383 m -17
 X s 152 398 m -9 X s 152 412 m -9 X s 152 426 m -9 X s 152 441 m -9 X s 160 455 m -17 X s 160 455 m -17 X s 152 470 m -9 X s 152 484 m -9 X s 152 499 m -9 X s 152 513 m -9 X s 691 94 m 429 Y s 674 94 m 17 X s 683 108 m 8 X s 683 122 m 8 X s 683 137
 m 8 X s 683 151 m 8 X s 674 166 m 17 X s 683 180 m 8 X s 683 195 m 8 X s 683 209 m 8 X s 683 224 m 8 X s 674 238 m 17 X s 683 253 m 8 X s 683 267 m 8 X s 683 282 m 8 X s 683 296 m 8 X s 674 311 m 17 X s 683 325 m 8 X s 683 340 m 8 X s 683 354 m 8 X
 s 683 369 m 8 X s 674 383 m 17 X s 683 398 m 8 X s 683 412 m 8 X s 683 426 m 8 X s 683 441 m 8 X s 674 455 m 17 X s 674 455 m 17 X s 683 470 m 8 X s 683 484 m 8 X s 683 499 m 8 X s 683 513 m 8 X s
 gsave  710 567 23 12 C 719.017 91.2634 t 90 r /Helvetica-Bold findfont 19.9602 sf 0 0 m (U/O\255flow \(S,B\): \(0.0, 0.0\)% / \(0.0, 0.0\)%) show NC gr  0.490196 0.545098 0.615686 c 0.364706 0.419608 0.490196 c 335 37 30 539 bf 0.490196 0.545098
 0.615686 c 30 539 m 335 X s 365 539 m 37 Y s 365 576 m -335 X s 30 576 m -37 Y s 1 1 1 c black 1 1 1 c
 gsave  710 567 23 12 C 34.101 551.299 t 0 r /Helvetica-Bold findfont 28.5146 sf 0 0 m (Input variable: hh.HS_l1) show NC gr  0.490196 0.545098 0.615686 c 0.941176 0.941176 0.941176 c 710 567 779 12 bf black 1 1 0.992157 c 548 429 899 94 bf black 548
 429 899 94 bl 0 0 0.933333 c 6 lw 0.49 0.6 0.82 c black 3 lw 0.49 0.6 0.82 c 899 94 m 26 Y 14 X 154 Y 14 X 104 Y 13 X 106 Y 14 X -124 Y 14 X 29 Y 13 X -80 Y 14 X -9 Y 14 X -6 Y 13 X -59 Y 14 X 14 Y 14 X 30 Y 14 X -37 Y 13 X 15 Y 14 X -24 Y 27 X 29 Y
 14 X -63 Y 14 X 36 Y 13 X -14 Y 14 X -23 Y 14 X 4 Y 13 X -23 Y 14 X 32 Y 14 X 1 Y 13 X -52 Y 14 X 59 Y 14 X -6 Y 13 X 42 Y 14 X -53 Y 14 X -19 Y 13 X -11 Y 14 X 1 Y 14 X -17 Y 13 X -47 Y 14 X 12 Y 14 X -14 Y 13 X -8 Y 14 X -5 Y 28 X f 6 lw 0 0
 0.933333 c 0.49 0.6 0.82 c 0 0 0.933333 c 899 120 m 14 X 154 Y 14 X 104 Y 13 X 106 Y 14 X -124 Y 14 X 29 Y 13 X -80 Y 14 X -9 Y 14 X -6 Y 13 X -59 Y 14 X 14 Y 14 X 30 Y 14 X -37 Y 13 X 15 Y 14 X -24 Y 27 X 29 Y 14 X -63 Y 14 X 36 Y 13 X -14 Y 14 X
 -23 Y 14 X 4 Y 13 X -23 Y 14 X 32 Y 14 X 1 Y 13 X -52 Y 14 X 59 Y 14 X -6 Y 13 X 42 Y 14 X -53 Y 14 X -19 Y 13 X -11 Y 14 X 1 Y 14 X -17 Y 13 X -47 Y 14 X 12 Y 14 X -14 Y 13 X -8 Y 14 X -5 Y 28 X s black 3 lw 899 94 m 548 X s 933 107 m -13 Y s 947
 100 m -6 Y s 962 100 m -6 Y s 976 100 m -6 Y s 991 100 m -6 Y s 1005 107 m -13 Y s 1020 100 m -6 Y s 1034 100 m -6 Y s 1049 100 m -6 Y s 1063 100 m -6 Y s 1078 107 m -13 Y s 1092 100 m -6 Y s 1107 100 m -6 Y s 1121 100 m -6 Y s 1135 100 m -6 Y s
 1150 107 m -13 Y s 1164 100 m -6 Y s 1179 100 m -6 Y s 1193 100 m -6 Y s 1208 100 m -6 Y s 1222 107 m -13 Y s 1237 100 m -6 Y s 1251 100 m -6 Y s 1266 100 m -6 Y s 1280 100 m -6 Y s 1295 107 m -13 Y s 1309 100 m -6 Y s 1324 100 m -6 Y s 1338 100 m
 -6 Y s 1352 100 m -6 Y s 1367 107 m -13 Y s 1381 100 m -6 Y s 1396 100 m -6 Y s 1410 100 m -6 Y s 1425 100 m -6 Y s 1439 107 m -13 Y s 933 107 m -13 Y s 919 100 m -6 Y s 904 100 m -6 Y s 1439 107 m -13 Y s
 gsave  710 567 779 12 C 920.727 65.3603 t 0 r /Helvetica findfont 25.6631 sf 0 0 m (0.1) show NC gr 
 gsave  710 567 779 12 C 909.36 65.3603 t 0 r /Symbol findfont 25.6631 sf 0 0 m (-) show NC gr 
 gsave  710 567 779 12 C 983.246 65.3603 t 0 r /Helvetica findfont 25.6631 sf 0 0 m (0.05) show NC gr 
 gsave  710 567 779 12 C 971.879 65.3603 t 0 r /Symbol findfont 25.6631 sf 0 0 m (-) show NC gr 
 gsave  710 567 779 12 C 1068.5 65.3603 t 0 r /Helvetica findfont 25.6631 sf 0 0 m (0) show NC gr 
 gsave  710 567 779 12 C 1122.49 65.3603 t 0 r /Helvetica findfont 25.6631 sf 0 0 m (0.05) show NC gr 
 gsave  710 567 779 12 C 1204.9 65.3603 t 0 r /Helvetica findfont 25.6631 sf 0 0 m (0.1) show NC gr 
 gsave  710 567 779 12 C 1267.42 65.3603 t 0 r /Helvetica findfont 25.6631 sf 0 0 m (0.15) show NC gr 
 gsave  710 567 779 12 C 1349.83 65.3603 t 0 r /Helvetica findfont 25.6631 sf 0 0 m (0.2) show NC gr 
 gsave  710 567 779 12 C 1412.35 65.3603 t 0 r /Helvetica findfont 25.6631 sf 0 0 m (0.25) show NC gr 
 gsave  710 567 779 12 C 1332.78 22.734 t 0 r /Helvetica findfont 28.5146 sf 0 0 m (hh.HS_l2) show NC gr  899 523 m 548 X s 933 509 m 14 Y s 947 516 m 7 Y s 962 516 m 7 Y s 976 516 m 7 Y s 991 516 m 7 Y s 1005 509 m 14 Y s 1020 516 m 7 Y s 1034 516 m
 7 Y s 1049 516 m 7 Y s 1063 516 m 7 Y s 1078 509 m 14 Y s 1092 516 m 7 Y s 1107 516 m 7 Y s 1121 516 m 7 Y s 1135 516 m 7 Y s 1150 509 m 14 Y s 1164 516 m 7 Y s 1179 516 m 7 Y s 1193 516 m 7 Y s 1208 516 m 7 Y s 1222 509 m 14 Y s 1237 516 m 7 Y s
 1251 516 m 7 Y s 1266 516 m 7 Y s 1280 516 m 7 Y s 1295 509 m 14 Y s 1309 516 m 7 Y s 1324 516 m 7 Y s 1338 516 m 7 Y s 1352 516 m 7 Y s 1367 509 m 14 Y s 1381 516 m 7 Y s 1396 516 m 7 Y s 1410 516 m 7 Y s 1425 516 m 7 Y s 1439 509 m 14 Y s 933 509
 m 14 Y s 919 516 m 7 Y s 904 516 m 7 Y s 1439 509 m 14 Y s 899 94 m 429 Y s 915 94 m -16 X s 907 103 m -8 X s 907 113 m -8 X s 907 123 m -8 X s 907 133 m -8 X s 915 142 m -16 X s 907 152 m -8 X s 907 162 m -8 X s 907 172 m -8 X s 907 181 m -8 X s
 915 191 m -16 X s 907 201 m -8 X s 907 211 m -8 X s 907 221 m -8 X s 907 230 m -8 X s 915 240 m -16 X s 907 250 m -8 X s 907 260 m -8 X s 907 269 m -8 X s 907 279 m -8 X s 915 289 m -16 X s 907 299 m -8 X s 907 309 m -8 X s 907 318 m -8 X s 907 328
 m -8 X s 915 338 m -16 X s 907 348 m -8 X s 907 357 m -8 X s 907 367 m -8 X s 907 377 m -8 X s 915 387 m -16 X s 907 396 m -8 X s 907 406 m -8 X s 907 416 m -8 X s 907 426 m -8 X s 915 436 m -16 X s 907 445 m -8 X s 907 455 m -8 X s 907 465 m -8 X s
 907 475 m -8 X s 915 484 m -16 X s 915 484 m -16 X s 907 494 m -8 X s 907 504 m -8 X s 907 514 m -8 X s
 gsave  710 567 779 12 C 875.259 82.4108 t 0 r /Helvetica findfont 25.6631 sf 0 0 m (0) show NC gr 
 gsave  710 567 779 12 C 878.101 133.562 t 0 r /Helvetica findfont 25.6631 sf 0 0 m (1) show NC gr 
 gsave  710 567 779 12 C 875.259 181.872 t 0 r /Helvetica findfont 25.6631 sf 0 0 m (2) show NC gr 
 gsave  710 567 779 12 C 875.259 230.182 t 0 r /Helvetica findfont 25.6631 sf 0 0 m (3) show NC gr 
 gsave  710 567 779 12 C 875.259 278.492 t 0 r /Helvetica findfont 25.6631 sf 0 0 m (4) show NC gr 
 gsave  710 567 779 12 C 875.259 326.801 t 0 r /Helvetica findfont 25.6631 sf 0 0 m (5) show NC gr 
 gsave  710 567 779 12 C 875.259 377.953 t 0 r /Helvetica findfont 25.6631 sf 0 0 m (6) show NC gr 
 gsave  710 567 779 12 C 875.259 426.263 t 0 r /Helvetica findfont 25.6631 sf 0 0 m (7) show NC gr 
 gsave  710 567 779 12 C 875.259 474.572 t 0 r /Helvetica findfont 25.6631 sf 0 0 m (8) show NC gr 
 gsave  710 567 779 12 C 801.374 414.896 t 90 r /Helvetica findfont 28.5146 sf 0 0 m (0.00946 ) show NC gr 
 gsave  710 567 779 12 C 787.165 412.054 t 90 r /Helvetica findfont 19.9602 sf 0 0 m ( ) show NC gr 
 gsave  710 567 779 12 C 801.374 400.687 t 90 r /Helvetica findfont 28.5146 sf 0 0 m (/) show NC gr 
 gsave  710 567 779 12 C 809.899 397.845 t 90 r /Helvetica findfont 19.9602 sf 0 0 m ( ) show NC gr 
 gsave  710 567 779 12 C 801.374 292.7 t 90 r /Helvetica findfont 28.5146 sf 0 0 m (\(1/N\) dN) show NC gr  1447 94 m 429 Y s 1430 94 m 17 X s 1438 103 m 9 X s 1438 113 m 9 X s 1438 123 m 9 X s 1438 133 m 9 X s 1430 142 m 17 X s 1438 152 m 9 X s 1438
 162 m 9 X s 1438 172 m 9 X s 1438 181 m 9 X s 1430 191 m 17 X s 1438 201 m 9 X s 1438 211 m 9 X s 1438 221 m 9 X s 1438 230 m 9 X s 1430 240 m 17 X s 1438 250 m 9 X s 1438 260 m 9 X s 1438 269 m 9 X s 1438 279 m 9 X s 1430 289 m 17 X s 1438 299 m 9
 X s 1438 309 m 9 X s 1438 318 m 9 X s 1438 328 m 9 X s 1430 338 m 17 X s 1438 348 m 9 X s 1438 357 m 9 X s 1438 367 m 9 X s 1438 377 m 9 X s 1430 387 m 17 X s 1438 396 m 9 X s 1438 406 m 9 X s 1438 416 m 9 X s 1438 426 m 9 X s 1430 436 m 17 X s 1438
 445 m 9 X s 1438 455 m 9 X s 1438 465 m 9 X s 1438 475 m 9 X s 1430 484 m 17 X s 1430 484 m 17 X s 1438 494 m 9 X s 1438 504 m 9 X s 1438 514 m 9 X s 0.490196 0.545098 0.615686 c 0.364706 0.419608 0.490196 c 338 37 786 539 bf 0.490196 0.545098
 0.615686 c 786 539 m 338 X s 1124 539 m 37 Y s 1124 576 m -338 X s 786 576 m -37 Y s 1 1 1 c black 1 1 1 c
 gsave  710 567 779 12 C 790.007 551.299 t 0 r /Helvetica-Bold findfont 28.5146 sf 0 0 m (Input variable: hh.HS_l2) show NC gr  1 0 0 c 6 lw black 3 lw 1 0 0 c 1433 94 m -1 X s 1419 95 m -2 -1 d s 1405 97 m -3 -3 d s 1389 96 m -2 -2 d s 1378 99 m -6
 -5 d s 1378 115 m -14 -14 d s 1362 99 m -5 -5 d s 1378 130 m -14 -14 d s 1351 102 m -9 -8 d s 1373 140 m -9 -9 d s 1351 117 m -24 -23 d s 1344 126 m -32 -32 d s 1331 128 m -34 -34 d s 1323 135 m -41 -41 d s 1323 151 m -56 -57 d s 1323 166 m -71 -72
 d s 1323 181 m -86 -87 d s 1323 196 m -102 -102 d s 1323 211 m -13 -13 d s 1308 196 m -102 -102 d s 1311 215 m -1 -2 d s 1296 199 m -14 -14 d s 1280 183 m -89 -89 d s 1284 202 m -2 -2 d s 1269 187 m -93 -93 d s 1269 202 m -108 -108 d s 1269 217 m
 -41 -41 d s 1225 173 m -79 -79 d s 1269 232 m -41 -41 d s 1214 177 m -14 -14 d s 1187 150 m -56 -56 d s 1269 247 m -41 -41 d s 1214 192 m -14 -14 d s 1187 165 m -71 -71 d s 1269 263 m -14 -14 d s 1242 236 m -1 -1 d s 1236 230 m -8 -9 d s 1214 207 m
 -14 -13 d s 1187 180 m -86 -86 d s 1269 278 m -14 -14 d s 1214 223 m -14 -14 d s 1187 195 m -101 -101 d s 1269 293 m -14 -14 d s 1206 230 m -6 -6 d s 1187 210 m -116 -116 d s 1269 308 m -14 -14 d s 1187 225 m -28 -27 d s 1156 194 m -100 -100 d s
 1269 323 m -14 -13 d s 1187 241 m -28 -28 d s 1146 199 m -105 -105 d s 1269 338 m -14 -13 d s 1187 256 m -14 -14 d s 1162 231 m -3 -3 d s 1146 214 m -41 -41 d s 1096 165 m -70 -71 d s 1269 354 m -14 -14 d s 1187 271 m -14 -14 d s 1144 229 m -39 -41
 d s 1091 175 m -81 -81 d s 1264 364 m -9 -9 d s 1187 286 m -14 -14 d s 1132 231 m -27 -27 d s 1091 190 m -96 -96 d s 1187 301 m -14 -13 d s 1132 246 m -27 -27 d s 1091 205 m -111 -111 d s 1187 317 m -14 -14 d s 1132 261 m -27 -27 d s 1091 220 m -126
 -126 d s 1187 332 m -14 -14 d s 1122 266 m -4 -3 d s 1118 262 m -13 -13 d s 1091 235 m -141 -141 d s 1187 347 m -14 -14 d s 1077 237 m -142 -143 d s 1187 362 m -14 -14 d s 1077 252 m -157 -158 d s 1187 377 m -14 -14 d s 1077 267 m -164 -165 d s 909
 97 m -4 -3 d s 1184 390 m -11 -11 d s 1072 278 m -36 -37 d s 1032 237 m -119 -120 d s 1064 284 m -28 -28 d s 1022 242 m -13 -13 d s 1008 228 m -95 -96 d s 1064 299 m -28 -28 d s 1022 257 m -13 -13 d s 995 230 m -82 -83 d s 1056 306 m -6 -6 d s 1042
 292 m -6 -6 d s 1022 273 m -13 -14 d s 995 245 m -82 -83 d s 1022 288 m -13 -14 d s 995 260 m -82 -82 d s 1022 303 m -13 -14 d s 995 275 m -68 -68 d s 918 198 m -5 -5 d s 1022 318 m -13 -14 d s 995 291 m -68 -69 d s 1022 333 m -13 -13 d s 995 306 m
 -55 -55 d s 935 245 m -8 -8 d s 1022 349 m -13 -14 d s 995 321 m -55 -55 d s 1022 364 m -13 -14 d s 995 336 m -14 -14 d s 969 310 m -29 -29 d s 1022 379 m -13 -14 d s 990 346 m -9 -8 d s 968 324 m -28 -28 d s 1018 390 m -9 -10 d s 968 339 m -28 -28
 d s 968 354 m -28 -27 d s 968 369 m -28 -27 d s 968 385 m -28 -28 d s 968 400 m -28 -28 d s 962 409 m -22 -22 d s 954 416 m -14 -13 d s 954 432 m -14 -14 d s 954 447 m -14 -14 d s 945 453 m -5 -5 d s 6 lw 899 97 m 14 X 101 Y 14 X 47 Y 13 X 208 Y 14
 X -44 Y 14 X -99 Y 13 X 36 Y 14 X -118 Y 14 X 162 Y 13 X -153 Y 14 X 55 Y 14 X 14 Y 14 X -28 Y 13 X -42 Y 14 X -71 Y 14 X 97 Y 13 X 4 Y 14 X -37 Y 14 X -35 Y 13 X 37 Y 14 X 159 Y 14 X -242 Y 13 X 82 Y 14 X -57 Y 14 X 57 Y 13 X 6 Y 14 X 128 Y 14 X
 -181 Y 13 X 19 Y 14 X -6 Y 14 X 19 Y 13 X -87 Y 14 X -2 Y 14 X -27 Y 13 X 41 Y 14 X -44 Y 14 X 1 Y 27 X -3 Y 28 X s black 3 lw 899 94 m 548 X s 933 107 m -13 Y s 947 100 m -6 Y s 962 100 m -6 Y s 976 100 m -6 Y s 991 100 m -6 Y s 1005 107 m -13 Y s
 1020 100 m -6 Y s 1034 100 m -6 Y s 1049 100 m -6 Y s 1063 100 m -6 Y s 1078 107 m -13 Y s 1092 100 m -6 Y s 1107 100 m -6 Y s 1121 100 m -6 Y s 1135 100 m -6 Y s 1150 107 m -13 Y s 1164 100 m -6 Y s 1179 100 m -6 Y s 1193 100 m -6 Y s 1208 100 m -6
 Y s 1222 107 m -13 Y s 1237 100 m -6 Y s 1251 100 m -6 Y s 1266 100 m -6 Y s 1280 100 m -6 Y s 1295 107 m -13 Y s 1309 100 m -6 Y s 1324 100 m -6 Y s 1338 100 m -6 Y s 1352 100 m -6 Y s 1367 107 m -13 Y s 1381 100 m -6 Y s 1396 100 m -6 Y s 1410 100
 m -6 Y s 1425 100 m -6 Y s 1439 107 m -13 Y s 933 107 m -13 Y s 919 100 m -6 Y s 904 100 m -6 Y s 1439 107 m -13 Y s 899 523 m 548 X s 933 509 m 14 Y s 947 516 m 7 Y s 962 516 m 7 Y s 976 516 m 7 Y s 991 516 m 7 Y s 1005 509 m 14 Y s 1020 516 m 7 Y
 s 1034 516 m 7 Y s 1049 516 m 7 Y s 1063 516 m 7 Y s 1078 509 m 14 Y s 1092 516 m 7 Y s 1107 516 m 7 Y s 1121 516 m 7 Y s 1135 516 m 7 Y s 1150 509 m 14 Y s 1164 516 m 7 Y s 1179 516 m 7 Y s 1193 516 m 7 Y s 1208 516 m 7 Y s 1222 509 m 14 Y s 1237
 516 m 7 Y s 1251 516 m 7 Y s 1266 516 m 7 Y s 1280 516 m 7 Y s 1295 509 m 14 Y s 1309 516 m 7 Y s 1324 516 m 7 Y s 1338 516 m 7 Y s 1352 516 m 7 Y s 1367 509 m 14 Y s 1381 516 m 7 Y s 1396 516 m 7 Y s 1410 516 m 7 Y s 1425 516 m 7 Y s 1439 509 m 14
 Y s 933 509 m 14 Y s 919 516 m 7 Y s 904 516 m 7 Y s 1439 509 m 14 Y s 899 94 m 429 Y s 915 94 m -16 X s 907 103 m -8 X s 907 113 m -8 X s 907 123 m -8 X s 907 133 m -8 X s 915 142 m -16 X s 907 152 m -8 X s 907 162 m -8 X s 907 172 m -8 X s 907 181
 m -8 X s 915 191 m -16 X s 907 201 m -8 X s 907 211 m -8 X s 907 221 m -8 X s 907 230 m -8 X s 915 240 m -16 X s 907 250 m -8 X s 907 260 m -8 X s 907 269 m -8 X s 907 279 m -8 X s 915 289 m -16 X s 907 299 m -8 X s 907 309 m -8 X s 907 318 m -8 X s
 907 328 m -8 X s 915 338 m -16 X s 907 348 m -8 X s 907 357 m -8 X s 907 367 m -8 X s 907 377 m -8 X s 915 387 m -16 X s 907 396 m -8 X s 907 406 m -8 X s 907 416 m -8 X s 907 426 m -8 X s 915 436 m -16 X s 907 445 m -8 X s 907 455 m -8 X s 907 465
 m -8 X s 907 475 m -8 X s 915 484 m -16 X s 915 484 m -16 X s 907 494 m -8 X s 907 504 m -8 X s 907 514 m -8 X s 1447 94 m 429 Y s 1430 94 m 17 X s 1438 103 m 9 X s 1438 113 m 9 X s 1438 123 m 9 X s 1438 133 m 9 X s 1430 142 m 17 X s 1438 152 m 9 X
 s 1438 162 m 9 X s 1438 172 m 9 X s 1438 181 m 9 X s 1430 191 m 17 X s 1438 201 m 9 X s 1438 211 m 9 X s 1438 221 m 9 X s 1438 230 m 9 X s 1430 240 m 17 X s 1438 250 m 9 X s 1438 260 m 9 X s 1438 269 m 9 X s 1438 279 m 9 X s 1430 289 m 17 X s 1438
 299 m 9 X s 1438 309 m 9 X s 1438 318 m 9 X s 1438 328 m 9 X s 1430 338 m 17 X s 1438 348 m 9 X s 1438 357 m 9 X s 1438 367 m 9 X s 1438 377 m 9 X s 1430 387 m 17 X s 1438 396 m 9 X s 1438 406 m 9 X s 1438 416 m 9 X s 1438 426 m 9 X s 1430 436 m 17
 X s 1438 445 m 9 X s 1438 455 m 9 X s 1438 465 m 9 X s 1438 475 m 9 X s 1430 484 m 17 X s 1430 484 m 17 X s 1438 494 m 9 X s 1438 504 m 9 X s 1438 514 m 9 X s
 gsave  710 567 779 12 C 1474.92 91.2634 t 90 r /Helvetica-Bold findfont 19.9602 sf 0 0 m (U/O\255flow \(S,B\): \(0.0, 0.0\)% / \(0.0, 0.0\)%) show NC gr  0.490196 0.545098 0.615686 c 0.364706 0.419608 0.490196 c 338 37 786 539 bf 0.490196 0.545098
 0.615686 c 786 539 m 338 X s 1124 539 m 37 Y s 1124 576 m -338 X s 786 576 m -37 Y s 1 1 1 c black 1 1 1 c
 gsave  710 567 779 12 C 790.007 551.299 t 0 r /Helvetica-Bold findfont 28.5146 sf 0 0 m (Input variable: hh.HS_l2) show NC gr  0.490196 0.545098 0.615686 c 0.941176 0.941176 0.941176 c 711 567 1534 12 bf black 1 1 0.992157 c 547 429 1655 94 bf black
 547 429 1655 94 bl 0 0 0.933333 c 6 lw 0.49 0.6 0.82 c black 3 lw 0.49 0.6 0.82 c 1655 114 m 1 Y 14 X 4 Y 14 X 7 Y 13 X -10 Y 14 X 26 Y 14 X 23 Y 13 X 17 Y 14 X -1 Y 14 X 2 Y 13 X 6 Y 14 X 2 Y 14 X -4 Y 13 X 39 Y 14 X 155 Y 14 X 21 Y 13 X -30 Y 14 X
 39 Y 14 X -109 Y 13 X -2 Y 14 X 21 Y 14 X -43 Y 14 X 13 Y 13 X 34 Y 14 X -23 Y 14 X 50 Y 13 X 8 Y 14 X 13 Y 14 X 3 Y 13 X 71 Y 14 X 21 Y 14 X -181 Y 13 X -125 Y 14 X -45 Y 14 X 2 Y 13 X -5 Y 14 X 2 Y 14 X 6 Y 13 X -6 Y 14 X -2 Y 27 X f 6 lw 0 0
 0.933333 c 0.49 0.6 0.82 c 0 0 0.933333 c 1655 115 m 14 X 4 Y 14 X 7 Y 13 X -10 Y 14 X 26 Y 14 X 23 Y 13 X 17 Y 14 X -1 Y 14 X 2 Y 13 X 6 Y 14 X 2 Y 14 X -4 Y 13 X 39 Y 14 X 155 Y 14 X 21 Y 13 X -30 Y 14 X 39 Y 14 X -109 Y 13 X -2 Y 14 X 21 Y 14 X
 -43 Y 14 X 13 Y 13 X 34 Y 14 X -23 Y 14 X 50 Y 13 X 8 Y 14 X 13 Y 14 X 3 Y 13 X 71 Y 14 X 21 Y 14 X -181 Y 13 X -125 Y 14 X -45 Y 14 X 2 Y 13 X -5 Y 14 X 2 Y 14 X 6 Y 13 X -6 Y 14 X -2 Y 27 X -20 Y s black 3 lw 1655 94 m 547 X s 1712 107 m -13 Y s
 1724 100 m -6 Y s 1736 100 m -6 Y s 1749 100 m -6 Y s 1761 100 m -6 Y s 1774 107 m -13 Y s 1786 100 m -6 Y s 1798 100 m -6 Y s 1811 100 m -6 Y s 1823 100 m -6 Y s 1835 107 m -13 Y s 1848 100 m -6 Y s 1860 100 m -6 Y s 1873 100 m -6 Y s 1885 100 m -6
 Y s 1897 107 m -13 Y s 1910 100 m -6 Y s 1922 100 m -6 Y s 1934 100 m -6 Y s 1947 100 m -6 Y s 1959 107 m -13 Y s 1972 100 m -6 Y s 1984 100 m -6 Y s 1996 100 m -6 Y s 2009 100 m -6 Y s 2021 107 m -13 Y s 2034 100 m -6 Y s 2046 100 m -6 Y s 2058 100
 m -6 Y s 2071 100 m -6 Y s 2083 107 m -13 Y s 2095 100 m -6 Y s 2108 100 m -6 Y s 2120 100 m -6 Y s 2133 100 m -6 Y s 2145 107 m -13 Y s 1712 107 m -13 Y s 1699 100 m -6 Y s 1687 100 m -6 Y s 1674 100 m -6 Y s 1662 100 m -6 Y s 2145 107 m -13 Y s
 2157 100 m -6 Y s 2170 100 m -6 Y s 2182 100 m -6 Y s 2194 100 m -6 Y s
 gsave  711 567 1534 12 C 1699.37 65.3603 t 0 r /Helvetica findfont 25.6631 sf 0 0 m (0.2) show NC gr 
 gsave  711 567 1534 12 C 1685.16 65.3603 t 0 r /Symbol findfont 25.6631 sf 0 0 m (-) show NC gr 
 gsave  711 567 1534 12 C 1753.36 65.3603 t 0 r /Helvetica findfont 25.6631 sf 0 0 m (0.15) show NC gr 
 gsave  711 567 1534 12 C 1741.99 65.3603 t 0 r /Symbol findfont 25.6631 sf 0 0 m (-) show NC gr 
 gsave  711 567 1534 12 C 1821.56 65.3603 t 0 r /Helvetica findfont 25.6631 sf 0 0 m (0.1) show NC gr 
 gsave  711 567 1534 12 C 1810.19 65.3603 t 0 r /Symbol findfont 25.6631 sf 0 0 m (-) show NC gr 
 gsave  711 567 1534 12 C 1875.56 65.3603 t 0 r /Helvetica findfont 25.6631 sf 0 0 m (0.05) show NC gr 
 gsave  711 567 1534 12 C 1864.19 65.3603 t 0 r /Symbol findfont 25.6631 sf 0 0 m (-) show NC gr 
 gsave  711 567 1534 12 C 1949.44 65.3603 t 0 r /Helvetica findfont 25.6631 sf 0 0 m (0) show NC gr 
 gsave  711 567 1534 12 C 1994.91 65.3603 t 0 r /Helvetica findfont 25.6631 sf 0 0 m (0.05) show NC gr 
 gsave  711 567 1534 12 C 2065.95 65.3603 t 0 r /Helvetica findfont 25.6631 sf 0 0 m (0.1) show NC gr 
 gsave  711 567 1534 12 C 2117.1 65.3603 t 0 r /Helvetica findfont 25.6631 sf 0 0 m (0.15) show NC gr 
 gsave  711 567 1534 12 C 2088.69 22.734 t 0 r /Helvetica findfont 28.5146 sf 0 0 m (hh.HS_l3) show NC gr  1655 523 m 547 X s 1712 509 m 14 Y s 1724 516 m 7 Y s 1736 516 m 7 Y s 1749 516 m 7 Y s 1761 516 m 7 Y s 1774 509 m 14 Y s 1786 516 m 7 Y s
 1798 516 m 7 Y s 1811 516 m 7 Y s 1823 516 m 7 Y s 1835 509 m 14 Y s 1848 516 m 7 Y s 1860 516 m 7 Y s 1873 516 m 7 Y s 1885 516 m 7 Y s 1897 509 m 14 Y s 1910 516 m 7 Y s 1922 516 m 7 Y s 1934 516 m 7 Y s 1947 516 m 7 Y s 1959 509 m 14 Y s 1972 516
 m 7 Y s 1984 516 m 7 Y s 1996 516 m 7 Y s 2009 516 m 7 Y s 2021 509 m 14 Y s 2034 516 m 7 Y s 2046 516 m 7 Y s 2058 516 m 7 Y s 2071 516 m 7 Y s 2083 509 m 14 Y s 2095 516 m 7 Y s 2108 516 m 7 Y s 2120 516 m 7 Y s 2133 516 m 7 Y s 2145 509 m 14 Y s
 1712 509 m 14 Y s 1699 516 m 7 Y s 1687 516 m 7 Y s 1674 516 m 7 Y s 1662 516 m 7 Y s 2145 509 m 14 Y s 2157 516 m 7 Y s 2170 516 m 7 Y s 2182 516 m 7 Y s 2194 516 m 7 Y s 1655 94 m 429 Y s 1671 114 m -16 X s 1663 125 m -8 X s 1663 136 m -8 X s 1663
 147 m -8 X s 1663 158 m -8 X s 1671 169 m -16 X s 1663 180 m -8 X s 1663 191 m -8 X s 1663 203 m -8 X s 1663 214 m -8 X s 1671 225 m -16 X s 1663 236 m -8 X s 1663 247 m -8 X s 1663 258 m -8 X s 1663 269 m -8 X s 1671 280 m -16 X s 1663 291 m -8 X s
 1663 302 m -8 X s 1663 313 m -8 X s 1663 324 m -8 X s 1671 335 m -16 X s 1663 346 m -8 X s 1663 357 m -8 X s 1663 368 m -8 X s 1663 379 m -8 X s 1671 390 m -16 X s 1663 401 m -8 X s 1663 412 m -8 X s 1663 423 m -8 X s 1663 434 m -8 X s 1671 445 m
 -16 X s 1663 456 m -8 X s 1663 467 m -8 X s 1663 478 m -8 X s 1663 489 m -8 X s 1671 500 m -16 X s 1671 114 m -16 X s 1663 103 m -8 X s 1671 500 m -16 X s 1663 511 m -8 X s 1663 522 m -8 X s
 gsave  711 567 1534 12 C 1631.16 105.145 t 0 r /Helvetica findfont 25.6631 sf 0 0 m (0) show NC gr 
 gsave  711 567 1534 12 C 1634.01 159.138 t 0 r /Helvetica findfont 25.6631 sf 0 0 m (1) show NC gr 
 gsave  711 567 1534 12 C 1631.16 215.973 t 0 r /Helvetica findfont 25.6631 sf 0 0 m (2) show NC gr 
 gsave  711 567 1534 12 C 1631.16 269.966 t 0 r /Helvetica findfont 25.6631 sf 0 0 m (3) show NC gr 
 gsave  711 567 1534 12 C 1631.16 323.96 t 0 r /Helvetica findfont 25.6631 sf 0 0 m (4) show NC gr 
 gsave  711 567 1534 12 C 1631.16 380.795 t 0 r /Helvetica findfont 25.6631 sf 0 0 m (5) show NC gr 
 gsave  711 567 1534 12 C 1631.16 434.788 t 0 r /Helvetica findfont 25.6631 sf 0 0 m (6) show NC gr 
 gsave  711 567 1534 12 C 1631.16 491.623 t 0 r /Helvetica findfont 25.6631 sf 0 0 m (7) show NC gr 
 gsave  711 567 1534 12 C 1557.28 451.838 t 90 r /Helvetica findfont 28.5146 sf 0 0 m (0.011 ) show NC gr 
 gsave  711 567 1534 12 C 1543.07 448.997 t 90 r /Helvetica findfont 19.9602 sf 0 0 m ( ) show NC gr 
 gsave  711 567 1534 12 C 1557.28 437.63 t 90 r /Helvetica findfont 28.5146 sf 0 0 m (/) show NC gr 
 gsave  711 567 1534 12 C 1565.8 434.788 t 90 r /Helvetica findfont 19.9602 sf 0 0 m ( ) show NC gr 
 gsave  711 567 1534 12 C 1557.28 329.643 t 90 r /Helvetica findfont 28.5146 sf 0 0 m (\(1/N\) dN) show NC gr  2202 94 m 429 Y s 2186 114 m 16 X s 2194 125 m 8 X s 2194 136 m 8 X s 2194 147 m 8 X s 2194 158 m 8 X s 2186 169 m 16 X s 2194 180 m 8 X s
 2194 191 m 8 X s 2194 203 m 8 X s 2194 214 m 8 X s 2186 225 m 16 X s 2194 236 m 8 X s 2194 247 m 8 X s 2194 258 m 8 X s 2194 269 m 8 X s 2186 280 m 16 X s 2194 291 m 8 X s 2194 302 m 8 X s 2194 313 m 8 X s 2194 324 m 8 X s 2186 335 m 16 X s 2194 346
 m 8 X s 2194 357 m 8 X s 2194 368 m 8 X s 2194 379 m 8 X s 2186 390 m 16 X s 2194 401 m 8 X s 2194 412 m 8 X s 2194 423 m 8 X s 2194 434 m 8 X s 2186 445 m 16 X s 2194 456 m 8 X s 2194 467 m 8 X s 2194 478 m 8 X s 2194 489 m 8 X s 2186 500 m 16 X s
 2186 114 m 16 X s 2194 103 m 8 X s 2186 500 m 16 X s 2194 511 m 8 X s 2194 522 m 8 X s 0.490196 0.545098 0.615686 c 0.364706 0.419608 0.490196 c 338 37 1542 539 bf 0.490196 0.545098 0.615686 c 1542 539 m 338 X s 1880 539 m 37 Y s 1880 576 m -338 X s
 1542 576 m -37 Y s 1 1 1 c black 1 1 1 c
 gsave  711 567 1534 12 C 1545.91 551.299 t 0 r /Helvetica-Bold findfont 28.5146 sf 0 0 m (Input variable: hh.HS_l3) show NC gr  1 0 0 c 6 lw black 3 lw 1 0 0 c 2194 114 m s 2179 114 m s 2164 114 m s 2149 114 m s 2134 115 m -1 Y s 2119 115 m -1 Y s
 2104 115 m -1 -1 d s 2093 119 m -5 -5 d s 2093 134 m -20 -20 d s 2085 141 m -27 -27 d s 2079 151 m -36 -37 d s 2079 166 m -51 -52 d s 2079 181 m -66 -67 d s 2079 196 m -81 -82 d s 2079 211 m -96 -97 d s 2067 215 m -99 -101 d s 2066 228 m -113 -114 d
 s 2066 243 m -128 -129 d s 2066 258 m -143 -144 d s 2066 274 m -158 -160 d s 2066 289 m -174 -175 d s 2066 304 m -189 -190 d s 2066 319 m -204 -205 d s 2066 334 m -82 -82 d s 1970 238 m -123 -124 d s 2066 349 m -69 -68 d s 1994 277 m -10 -10 d s
 1970 253 m -138 -139 d s 2066 365 m -69 -69 d s 1970 268 m -153 -154 d s 2054 368 m -57 -57 d s 1970 283 m -168 -169 d s 2052 381 m -55 -55 d s 1970 299 m -183 -185 d s 2052 396 m -14 -13 d s 2025 369 m -28 -28 d s 1970 314 m -198 -200 d s 2046 406
 m -8 -8 d s 2025 384 m -14 -14 d s 2002 361 m -5 -5 d s 1970 329 m -213 -215 d s 2025 399 m -14 -14 d s 1970 344 m -14 -14 d s 1954 328 m -212 -214 d s 2025 414 m -14 -13 d s 1970 359 m -14 -13 d s 1943 332 m -124 -124 d s 1811 199 m -19 -19 d s
 1791 179 m -26 -26 d s 1752 140 m -1 -1 d s 1746 134 m -9 -9 d s 1737 125 m -10 -11 d s 2025 430 m -14 -14 d s 1970 374 m -14 -13 d s 1943 347 m -124 -124 d s 1806 209 m -14 -14 d s 1766 169 m -1 -1 d s 1724 126 m -12 -12 d s 2025 445 m -14 -14 d s
 1958 378 m -2 -2 d s 1943 362 m -124 -124 d s 1806 224 m -14 -13 d s 1724 142 m -14 -14 d s 1699 117 m -3 -3 d s 2025 460 m -14 -14 d s 1943 377 m -14 -14 d s 1919 354 m -86 -87 d s 1823 257 m -4 -4 d s 1806 239 m -14 -13 d s 1724 157 m -14 -14 d s
 1685 118 m -4 -4 d s 2025 475 m -14 -14 d s 1943 392 m -14 -13 d s 1915 365 m -14 -14 d s 1888 338 m -41 -42 d s 1840 289 m -7 -7 d s 1710 159 m -1 Y s 1667 115 m -1 -1 d s 2019 485 m -8 -8 d s 1941 406 m -12 -12 d s 1902 367 m -1 -1 d s 1888 353 m
 -41 -42 d s 1888 368 m -41 -42 d s 1888 383 m -14 -14 d s 1874 369 m -27 -27 d s 1888 398 m -14 -14 d s 1860 371 m -13 -14 d s 1888 413 m -14 -14 d s 1860 386 m -13 -14 d s 1888 428 m -14 -13 d s 1860 401 m -13 -14 d s 1888 444 m -14 -14 d s 1849
 405 m -2 -3 d s 1888 459 m -14 -14 d s 1888 474 m -14 -14 d s 1884 485 m -10 -10 d s 6 lw 1655 115 m 14 X 2 Y 14 X 1 Y 13 X -1 Y 14 X 42 Y 14 X -34 Y 13 X 9 Y 14 X 6 Y 14 X 29 Y 13 X 10 Y 14 X 61 Y 14 X -41 Y 13 X 58 Y 14 X 32 Y 14 X 116 Y 13 X -36
 Y 14 X 116 Y 14 X -147 Y 13 X 29 Y 14 X -13 Y 14 X 52 Y 14 X -78 Y 13 X 50 Y 14 X -140 Y 14 X 39 Y 13 X 84 Y 14 X 124 Y 14 X -116 Y 13 X 37 Y 14 X -38 Y 14 X -153 Y 13 X -74 Y 14 X -26 Y 27 X 1 Y 14 X -2 Y 68 X -20 Y s black 3 lw 1655 94 m 547 X s
 1712 107 m -13 Y s 1724 100 m -6 Y s 1736 100 m -6 Y s 1749 100 m -6 Y s 1761 100 m -6 Y s 1774 107 m -13 Y s 1786 100 m -6 Y s 1798 100 m -6 Y s 1811 100 m -6 Y s 1823 100 m -6 Y s 1835 107 m -13 Y s 1848 100 m -6 Y s 1860 100 m -6 Y s 1873 100 m
 -6 Y s 1885 100 m -6 Y s 1897 107 m -13 Y s 1910 100 m -6 Y s 1922 100 m -6 Y s 1934 100 m -6 Y s 1947 100 m -6 Y s 1959 107 m -13 Y s 1972 100 m -6 Y s 1984 100 m -6 Y s 1996 100 m -6 Y s 2009 100 m -6 Y s 2021 107 m -13 Y s 2034 100 m -6 Y s 2046
 100 m -6 Y s 2058 100 m -6 Y s 2071 100 m -6 Y s 2083 107 m -13 Y s 2095 100 m -6 Y s 2108 100 m -6 Y s 2120 100 m -6 Y s 2133 100 m -6 Y s 2145 107 m -13 Y s 1712 107 m -13 Y s 1699 100 m -6 Y s 1687 100 m -6 Y s 1674 100 m -6 Y s 1662 100 m -6 Y s
 2145 107 m -13 Y s 2157 100 m -6 Y s 2170 100 m -6 Y s 2182 100 m -6 Y s 2194 100 m -6 Y s 1655 523 m 547 X s 1712 509 m 14 Y s 1724 516 m 7 Y s 1736 516 m 7 Y s 1749 516 m 7 Y s 1761 516 m 7 Y s 1774 509 m 14 Y s 1786 516 m 7 Y s 1798 516 m 7 Y s
 1811 516 m 7 Y s 1823 516 m 7 Y s 1835 509 m 14 Y s 1848 516 m 7 Y s 1860 516 m 7 Y s 1873 516 m 7 Y s 1885 516 m 7 Y s 1897 509 m 14 Y s 1910 516 m 7 Y s 1922 516 m 7 Y s 1934 516 m 7 Y s 1947 516 m 7 Y s 1959 509 m 14 Y s 1972 516 m 7 Y s 1984 516
 m 7 Y s 1996 516 m 7 Y s 2009 516 m 7 Y s 2021 509 m 14 Y s 2034 516 m 7 Y s 2046 516 m 7 Y s 2058 516 m 7 Y s 2071 516 m 7 Y s 2083 509 m 14 Y s 2095 516 m 7 Y s 2108 516 m 7 Y s 2120 516 m 7 Y s 2133 516 m 7 Y s 2145 509 m 14 Y s 1712 509 m 14 Y s
 1699 516 m 7 Y s 1687 516 m 7 Y s 1674 516 m 7 Y s 1662 516 m 7 Y s 2145 509 m 14 Y s 2157 516 m 7 Y s 2170 516 m 7 Y s 2182 516 m 7 Y s 2194 516 m 7 Y s 1655 94 m 429 Y s 1671 114 m -16 X s 1663 125 m -8 X s 1663 136 m -8 X s 1663 147 m -8 X s 1663
 158 m -8 X s 1671 169 m -16 X s 1663 180 m -8 X s 1663 191 m -8 X s 1663 203 m -8 X s 1663 214 m -8 X s 1671 225 m -16 X s 1663 236 m -8 X s 1663 247 m -8 X s 1663 258 m -8 X s 1663 269 m -8 X s 1671 280 m -16 X s 1663 291 m -8 X s 1663 302 m -8 X s
 1663 313 m -8 X s 1663 324 m -8 X s 1671 335 m -16 X s 1663 346 m -8 X s 1663 357 m -8 X s 1663 368 m -8 X s 1663 379 m -8 X s 1671 390 m -16 X s 1663 401 m -8 X s 1663 412 m -8 X s 1663 423 m -8 X s 1663 434 m -8 X s 1671 445 m -16 X s 1663 456 m
 -8 X s 1663 467 m -8 X s 1663 478 m -8 X s 1663 489 m -8 X s 1671 500 m -16 X s 1671 114 m -16 X s 1663 103 m -8 X s 1671 500 m -16 X s 1663 511 m -8 X s 1663 522 m -8 X s 2202 94 m 429 Y s 2186 114 m 16 X s 2194 125 m 8 X s 2194 136 m 8 X s 2194
 147 m 8 X s 2194 158 m 8 X s 2186 169 m 16 X s 2194 180 m 8 X s 2194 191 m 8 X s 2194 203 m 8 X s 2194 214 m 8 X s 2186 225 m 16 X s 2194 236 m 8 X s 2194 247 m 8 X s 2194 258 m 8 X s 2194 269 m 8 X s 2186 280 m 16 X s 2194 291 m 8 X s 2194 302 m 8
 X s 2194 313 m 8 X s 2194 324 m 8 X s 2186 335 m 16 X s 2194 346 m 8 X s 2194 357 m 8 X s 2194 368 m 8 X s 2194 379 m 8 X s 2186 390 m 16 X s 2194 401 m 8 X s 2194 412 m 8 X s 2194 423 m 8 X s 2194 434 m 8 X s 2186 445 m 16 X s 2194 456 m 8 X s 2194
 467 m 8 X s 2194 478 m 8 X s 2194 489 m 8 X s 2186 500 m 16 X s 2186 114 m 16 X s 2194 103 m 8 X s 2186 500 m 16 X s 2194 511 m 8 X s 2194 522 m 8 X s
 gsave  711 567 1534 12 C 2230.83 91.2634 t 90 r /Helvetica-Bold findfont 19.9602 sf 0 0 m (U/O\255flow \(S,B\): \(0.0, 0.0\)% / \(0.0, 0.0\)%) show NC gr  0.490196 0.545098 0.615686 c 0.364706 0.419608 0.490196 c 338 37 1542 539 bf 0.490196 0.545098
 0.615686 c 1542 539 m 338 X s 1880 539 m 37 Y s 1880 576 m -338 X s 1542 576 m -37 Y s 1 1 1 c black 1 1 1 c
 gsave  711 567 1534 12 C 1545.91 551.299 t 0 r /Helvetica-Bold findfont 28.5146 sf 0 0 m (Input variable: hh.HS_l3) show NC gr 
 gr  gr showpage
end
%%EOF
