%!PS-Adobe-2.0 EPSF-2.0
%%BoundingBox:  0 0 567 296
%%Title: dataset_class_jetN/plots/variables_id_c1.eps: Input variables (training sample)
%%Creator: ROOT Version 6.18/00
%%CreationDate: Sun Sep 15 10:42:13 2019
%%DocumentNeededResources: ProcSet (FontSetInit)
%%EndComments
%%BeginProlog
80 dict begin
/s {stroke} def /l {lineto} def /m {moveto} def /t {translate} def
/r {rotate} def /rl {roll}  def /R {repeat} def
/d {rlineto} def /rm {rmoveto} def /gr {grestore} def /f {eofill} def
/c {setrgbcolor} def /black {0 setgray} def /sd {setdash} def
/cl {closepath} def /sf {scalefont setfont} def /lw {setlinewidth} def
/box {m dup 0 exch d exch 0 d 0 exch neg d cl} def
/NC{systemdict begin initclip end}def/C{NC box clip newpath}def
/bl {box s} def /bf {gsave box gsave f grestore 1 lw [] 0 sd s grestore} def /Y { 0 exch d} def /X { 0 d} def 
/K {{pop pop 0 moveto} exch kshow} bind def
/ita {/ang 15 def gsave [1 0 ang dup sin exch cos div 1 0 0] concat} def 
/mp {newpath /y exch def /x exch def} def
/side {[w .77 mul w .23 mul] .385 w mul sd w 0 l currentpoint t -144 r} def
/mr {mp x y w2 0 360 arc} def /m24 {mr s} def /m20 {mr f} def
/mb {mp x y w2 add m w2 neg 0 d 0 w neg d w 0 d 0 w d cl} def
/mt {mp x y w2 add m w2 neg w neg d w 0 d cl} def
/w4 {w 4 div} def
/w6 {w 6 div} def
/w8 {w 8 div} def
/m21 {mb f} def /m25 {mb s} def /m22 {mt f} def /m26{mt s} def
/m23 {mp x y w2 sub m w2 w d w neg 0 d cl f} def
/m27 {mp x y w2 add m w3 neg w2 neg d w3 w2 neg d w3 w2 d cl s} def
/m28 {mp x w2 sub y w2 sub w3 add m w3 0 d  0 w3 neg d w3 0 d 0 w3 d w3 0 d  0 w3 d w3 neg 0 d 0 w3 d w3 neg 0 d 0 w3 neg d w3 neg 0 d cl s } def
/m29 {mp gsave x w2 sub y w2 add w3 sub m currentpoint t 4 {side} repeat cl fill gr} def
/m30 {mp gsave x w2 sub y w2 add w3 sub m currentpoint t 4 {side} repeat cl s gr} def
/m31 {mp x y w2 sub m 0 w d x w2 sub y m w 0 d x w2 sub y w2 add m w w neg d x w2 sub y w2 sub m w w d s} def
/m32 {mp x y w2 sub m w2 w d w neg 0 d cl s} def
/m33 {mp x y w2 add m w3 neg w2 neg d w3 w2 neg d w3 w2 d cl f} def
/m34 {mp x w2 sub y w2 sub w3 add m w3 0 d  0 w3 neg d w3 0 d 0 w3 d w3 0 d  0 w3 d w3 neg 0 d 0 w3 d w3 neg 0 d 0 w3 neg d w3 neg 0 d cl f } def
/m35 {mp x y w2 add m w2 neg w2 neg d w2 w2 neg d w2 w2 d w2 neg w2 d x y w2 sub m 0 w d x w2 sub y m w 0 d s} def
/m36 {mb x w2 sub y w2 add m w w neg d x w2 sub y w2 sub m w w d s} def
/m37 {mp x y m w4 neg w2 d w4 neg w2 neg d w2 0 d  w4 neg w2 neg d w2 0 d w4 neg w2 d w2 0 d w4 neg w2 d w4 neg w2 neg d cl s} def
/m38 {mp x w4 sub y w2 add m w4 neg w4 neg d 0 w2 neg d w4 w4 neg d w2 0 d w4 w4 d 0 w2 d w4 neg w4 d w2 neg 0 d x y w2 sub m 0 w d x w2 sub y m w 0 d cl s} def
/m39 {mp x y m w4 neg w2 d w4 neg w2 neg d w2 0 d  w4 neg w2 neg d w2 0 d w4 neg w2 d w2 0 d w4 neg w2 d w4 neg w2 neg d cl f} def
/m40 {mp x y m w4 w2 d w4 w4 neg d w2 neg w4 neg d w2 w4 neg d w4 neg w4 neg d w4 neg w2 d w4 neg w2 neg d w4 neg w4 d w2 w4 d w2 neg w4 d w4 w4 d w4 w2 neg d cl s} def
/m41 {mp x y m w4 w2 d w4 w4 neg d w2 neg w4 neg d w2 w4 neg d w4 neg w4 neg d w4 neg w2 d w4 neg w2 neg d w4 neg w4 d w2 w4 d w2 neg w4 d w4 w4 d w4 w2 neg d cl f} def
/m42 {mp x y w2 add m w8 neg w2 -3 4 div mul d w2 -3 4 div mul w8 neg d w2 3 4 div mul w8 neg d w8 w2 -3 4 div mul d w8 w2 3 4 div mul d w2 3 4 div mul w8 d w2 -3 4 div mul w8 d w8 neg w2 3 4 div mul d cl s} def
/m43 {mp x y w2 add m w8 neg w2 -3 4 div mul d w2 -3 4 div mul w8 neg d w2 3 4 div mul w8 neg d w8 w2 -3 4 div mul d w8 w2 3 4 div mul d w2 3 4 div mul w8 d w2 -3 4 div mul w8 d w8 neg w2 3 4 div mul d cl f} def
/m44 {mp x y m w6 neg w2 d w2 2 3 div mul 0 d w6 neg w2 neg d w2 w6 d 0 w2 -2 3 div mul d w2 neg w6 d w6 w2 neg d w2 -2 3 div mul 0 d w6 w2 d w2 neg w6 neg d 0 w2 2 3 div mul d w2 w6 neg d cl s} def
/m45 {mp x y m w6 neg w2 d w2 2 3 div mul 0 d w6 neg w2 neg d w2 w6 d 0 w2 -2 3 div mul d w2 neg w6 d w6 w2 neg d w2 -2 3 div mul 0 d w6 w2 d w2 neg w6 neg d 0 w2 2 3 div mul d w2 w6 neg d cl f} def
/m46 {mp x y w4 add m w4 neg w4 d w4 neg w4 neg d  w4 w4 neg d w4 neg w4 neg d w4 w4 neg d w4 w4 d w4 w4 neg d w4 w4 d w4 neg w4 d w4 w4 d w4 neg w4 d w4 neg w4 neg d cl s} def
/m47 {mp x y w4 add m w4 neg w4 d w4 neg w4 neg d w4 w4 neg d w4 neg w4 neg d  w4 w4 neg d w4 w4 d w4 w4 neg d w4 w4 d w4 neg w4 d w4 w4 d w4 neg w4 d w4 neg w4 neg d cl f} def
/m48 {mp x y w4 add m w4 neg w4 d w4 neg w4 neg d w4 w4 neg d  w4 neg w4 neg d w4 w4 neg d w4 w4 d w4 w4 neg d w4 w4 d w4 neg w4 d w4 w4 d w4 neg w4 d w4 neg w4 neg d  w4 w4 neg d w4 neg w4 neg d w4 neg w4 d w4 w4 d cl f} def
/m49 {mp x w2 sub w3 add y w2 sub w3 add m  0 w3 neg d w3 0 d 0 w3 d w3 0 d 0 w3 d w3 neg 0 d 0 w3 d w3 neg 0 d 0 w3 neg d w3 neg 0 d 0 w3 neg d w3 0 d 0 w3 d w3 0 d 0 w3 neg d w3 neg 0 d cl f } def
/m2 {mp x y w2 sub m 0 w d x w2 sub y m w 0 d s} def
/m5 {mp x w2 sub y w2 sub m w w d x w2 sub y w2 add m w w neg d s} def
%%IncludeResource: ProcSet (FontSetInit)
%%IncludeResource: font Times-Roman
%%IncludeResource: font Times-Italic
%%IncludeResource: font Times-Bold
%%IncludeResource: font Times-BoldItalic
%%IncludeResource: font Helvetica
%%IncludeResource: font Helvetica-Oblique
%%IncludeResource: font Helvetica-Bold
%%IncludeResource: font Helvetica-BoldOblique
%%IncludeResource: font Courier
%%IncludeResource: font Courier-Oblique
%%IncludeResource: font Courier-Bold
%%IncludeResource: font Courier-BoldOblique
%%IncludeResource: font Symbol
%%IncludeResource: font ZapfDingbats
/reEncode {exch findfont dup length dict begin {1 index /FID eq  {pop pop} {def} ifelse } forall /Encoding exch def currentdict end dup /FontName get exch definefont pop } def [/Times-Bold /Times-Italic /Times-BoldItalic /Helvetica /Helvetica-Oblique
 /Helvetica-Bold /Helvetica-BoldOblique /Courier /Courier-Oblique /Courier-Bold /Courier-BoldOblique /Times-Roman /AvantGarde-Book /AvantGarde-BookOblique /AvantGarde-Demi /AvantGarde-DemiOblique /Bookman-Demi /Bookman-DemiItalic /Bookman-Light
 /Bookman-LightItalic /Helvetica-Narrow /Helvetica-Narrow-Bold /Helvetica-Narrow-BoldOblique /Helvetica-Narrow-Oblique /NewCenturySchlbk-Roman /NewCenturySchlbk-Bold /NewCenturySchlbk-BoldItalic /NewCenturySchlbk-Italic /Palatino-Bold
 /Palatino-BoldItalic /Palatino-Italic /Palatino-Roman ] {ISOLatin1Encoding reEncode } forall
%%EndProlog
%%BeginSetup
%%EndSetup
newpath  gsave  .25 .25 scale  gsave  0 0 t 0.490196 0.545098 0.615686 c[  ] 0 sd 3 lw 0.941176 0.941176 0.941176 c 2268 1182 0 0 bf 0.490196 0.545098 0.615686 c 0.941176 0.941176 0.941176 c 710 567 23 603 bf black 1 1 0.992157 c 548 429 143 685 bf
 black 548 429 143 685 bl 0 0 0.933333 c 6 lw 0.49 0.6 0.82 c black 3 lw 0.49 0.6 0.82 c 143 705 m 55 X 2 Y 14 X -2 Y 14 X 1 Y 13 X 25 Y 14 X 4 Y 14 X 3 Y 13 X 12 Y 14 X 43 Y 14 X -11 Y 13 X 24 Y 14 X 50 Y 14 X 35 Y 13 X 5 Y 14 X 29 Y 14 X -19 Y 13 X
 35 Y 14 X -4 Y 14 X -29 Y 13 X -26 Y 14 X 103 Y 14 X -46 Y 13 X -18 Y 14 X 19 Y 14 X -4 Y 13 X -39 Y 14 X -4 Y 14 X 7 Y 13 X -48 Y 14 X -32 Y 14 X -38 Y 14 X -66 Y 13 X -11 Y 69 X f 6 lw 0 0 0.933333 c 0.49 0.6 0.82 c 0 0 0.933333 c 143 705 m 55 X 2
 Y 14 X -2 Y 14 X 1 Y 13 X 25 Y 14 X 4 Y 14 X 3 Y 13 X 12 Y 14 X 43 Y 14 X -11 Y 13 X 24 Y 14 X 50 Y 14 X 35 Y 13 X 5 Y 14 X 29 Y 14 X -19 Y 13 X 35 Y 14 X -4 Y 14 X -29 Y 13 X -26 Y 14 X 103 Y 14 X -46 Y 13 X -18 Y 14 X 19 Y 14 X -4 Y 13 X -39 Y 14
 X -4 Y 14 X 7 Y 13 X -48 Y 14 X -32 Y 14 X -38 Y 14 X -66 Y 13 X -11 Y 69 X s black 3 lw 143 685 m 548 X s 183 698 m -13 Y s 196 691 m -6 Y s 208 691 m -6 Y s 221 691 m -6 Y s 233 691 m -6 Y s 246 698 m -13 Y s 258 691 m -6 Y s 271 691 m -6 Y s 284
 691 m -6 Y s 296 691 m -6 Y s 309 698 m -13 Y s 321 691 m -6 Y s 334 691 m -6 Y s 346 691 m -6 Y s 359 691 m -6 Y s 371 698 m -13 Y s 384 691 m -6 Y s 397 691 m -6 Y s 409 691 m -6 Y s 422 691 m -6 Y s 434 698 m -13 Y s 447 691 m -6 Y s 459 691 m -6
 Y s 472 691 m -6 Y s 485 691 m -6 Y s 497 698 m -13 Y s 510 691 m -6 Y s 522 691 m -6 Y s 535 691 m -6 Y s 547 691 m -6 Y s 560 698 m -13 Y s 572 691 m -6 Y s 585 691 m -6 Y s 598 691 m -6 Y s 610 691 m -6 Y s 623 698 m -13 Y s 635 691 m -6 Y s 648
 691 m -6 Y s 660 691 m -6 Y s 673 691 m -6 Y s 686 698 m -13 Y s 183 698 m -13 Y s 170 691 m -6 Y s 158 691 m -6 Y s 145 691 m -6 Y s 686 698 m -13 Y s
 gsave  710 567 23 603 C 170.505 656.444 t 0 r /Helvetica findfont 25.6631 sf 0 0 m (0.1) show NC gr 
 gsave  710 567 23 603 C 159.138 656.444 t 0 r /Symbol findfont 25.6631 sf 0 0 m (-) show NC gr 
 gsave  710 567 23 603 C 224.498 656.444 t 0 r /Helvetica findfont 25.6631 sf 0 0 m (0.05) show NC gr 
 gsave  710 567 23 603 C 213.131 656.444 t 0 r /Symbol findfont 25.6631 sf 0 0 m (-) show NC gr 
 gsave  710 567 23 603 C 298.384 656.444 t 0 r /Helvetica findfont 25.6631 sf 0 0 m (0) show NC gr 
 gsave  710 567 23 603 C 343.852 656.444 t 0 r /Helvetica findfont 25.6631 sf 0 0 m (0.05) show NC gr 
 gsave  710 567 23 603 C 414.896 656.444 t 0 r /Helvetica findfont 25.6631 sf 0 0 m (0.1) show NC gr 
 gsave  710 567 23 603 C 468.889 656.444 t 0 r /Helvetica findfont 25.6631 sf 0 0 m (0.15) show NC gr 
 gsave  710 567 23 603 C 542.774 656.444 t 0 r /Helvetica findfont 25.6631 sf 0 0 m (0.2) show NC gr 
 gsave  710 567 23 603 C 596.768 656.444 t 0 r /Helvetica findfont 25.6631 sf 0 0 m (0.25) show NC gr 
 gsave  710 567 23 603 C 667.811 656.444 t 0 r /Helvetica findfont 25.6631 sf 0 0 m (0.3) show NC gr 
 gsave  710 567 23 603 C 582.559 616.66 t 0 r /Helvetica findfont 28.5146 sf 0 0 m (yy.HS_l1) show NC gr  143 1114 m 548 X s 183 1100 m 14 Y s 196 1107 m 7 Y s 208 1107 m 7 Y s 221 1107 m 7 Y s 233 1107 m 7 Y s 246 1100 m 14 Y s 258 1107 m 7 Y s 271
 1107 m 7 Y s 284 1107 m 7 Y s 296 1107 m 7 Y s 309 1100 m 14 Y s 321 1107 m 7 Y s 334 1107 m 7 Y s 346 1107 m 7 Y s 359 1107 m 7 Y s 371 1100 m 14 Y s 384 1107 m 7 Y s 397 1107 m 7 Y s 409 1107 m 7 Y s 422 1107 m 7 Y s 434 1100 m 14 Y s 447 1107 m 7
 Y s 459 1107 m 7 Y s 472 1107 m 7 Y s 485 1107 m 7 Y s 497 1100 m 14 Y s 510 1107 m 7 Y s 522 1107 m 7 Y s 535 1107 m 7 Y s 547 1107 m 7 Y s 560 1100 m 14 Y s 572 1107 m 7 Y s 585 1107 m 7 Y s 598 1107 m 7 Y s 610 1107 m 7 Y s 623 1100 m 14 Y s 635
 1107 m 7 Y s 648 1107 m 7 Y s 660 1107 m 7 Y s 673 1107 m 7 Y s 686 1100 m 14 Y s 183 1100 m 14 Y s 170 1107 m 7 Y s 158 1107 m 7 Y s 145 1107 m 7 Y s 686 1100 m 14 Y s 143 685 m 429 Y s 160 705 m -17 X s 152 715 m -9 X s 152 724 m -9 X s 152 733 m
 -9 X s 152 743 m -9 X s 160 752 m -17 X s 152 762 m -9 X s 152 771 m -9 X s 152 780 m -9 X s 152 790 m -9 X s 160 799 m -17 X s 152 809 m -9 X s 152 818 m -9 X s 152 827 m -9 X s 152 837 m -9 X s 160 846 m -17 X s 152 855 m -9 X s 152 865 m -9 X s
 152 874 m -9 X s 152 884 m -9 X s 160 893 m -17 X s 152 902 m -9 X s 152 912 m -9 X s 152 921 m -9 X s 152 931 m -9 X s 160 940 m -17 X s 152 949 m -9 X s 152 959 m -9 X s 152 968 m -9 X s 152 978 m -9 X s 160 987 m -17 X s 152 996 m -9 X s 152 1006
 m -9 X s 152 1015 m -9 X s 152 1024 m -9 X s 160 1034 m -17 X s 152 1043 m -9 X s 152 1053 m -9 X s 152 1062 m -9 X s 152 1071 m -9 X s 160 1081 m -17 X s 160 705 m -17 X s 152 696 m -9 X s 152 687 m -9 X s 160 1081 m -17 X s 152 1090 m -9 X s 152
 1100 m -9 X s 152 1109 m -9 X s
 gsave  710 567 23 603 C 119.354 696.229 t 0 r /Helvetica findfont 25.6631 sf 0 0 m (0) show NC gr 
 gsave  710 567 23 603 C 122.195 741.697 t 0 r /Helvetica findfont 25.6631 sf 0 0 m (1) show NC gr 
 gsave  710 567 23 603 C 119.354 790.007 t 0 r /Helvetica findfont 25.6631 sf 0 0 m (2) show NC gr 
 gsave  710 567 23 603 C 119.354 835.475 t 0 r /Helvetica findfont 25.6631 sf 0 0 m (3) show NC gr 
 gsave  710 567 23 603 C 119.354 883.784 t 0 r /Helvetica findfont 25.6631 sf 0 0 m (4) show NC gr 
 gsave  710 567 23 603 C 119.354 929.252 t 0 r /Helvetica findfont 25.6631 sf 0 0 m (5) show NC gr 
 gsave  710 567 23 603 C 119.354 977.562 t 0 r /Helvetica findfont 25.6631 sf 0 0 m (6) show NC gr 
 gsave  710 567 23 603 C 119.354 1023.03 t 0 r /Helvetica findfont 25.6631 sf 0 0 m (7) show NC gr 
 gsave  710 567 23 603 C 119.354 1071.34 t 0 r /Helvetica findfont 25.6631 sf 0 0 m (8) show NC gr 
 gsave  710 567 23 603 C 45.468 1023.03 t 90 r /Helvetica findfont 28.5146 sf 0 0 m (0.0109 ) show NC gr 
 gsave  710 567 23 603 C 31.2593 1020.19 t 90 r /Helvetica findfont 19.9602 sf 0 0 m ( ) show NC gr 
 gsave  710 567 23 603 C 45.468 1008.82 t 90 r /Helvetica findfont 28.5146 sf 0 0 m (/) show NC gr 
 gsave  710 567 23 603 C 53.9933 1005.98 t 90 r /Helvetica findfont 19.9602 sf 0 0 m ( ) show NC gr 
 gsave  710 567 23 603 C 45.468 900.835 t 90 r /Helvetica findfont 28.5146 sf 0 0 m (\(1/N\) dN) show NC gr  691 685 m 429 Y s 674 705 m 17 X s 683 715 m 8 X s 683 724 m 8 X s 683 733 m 8 X s 683 743 m 8 X s 674 752 m 17 X s 683 762 m 8 X s 683 771 m
 8 X s 683 780 m 8 X s 683 790 m 8 X s 674 799 m 17 X s 683 809 m 8 X s 683 818 m 8 X s 683 827 m 8 X s 683 837 m 8 X s 674 846 m 17 X s 683 855 m 8 X s 683 865 m 8 X s 683 874 m 8 X s 683 884 m 8 X s 674 893 m 17 X s 683 902 m 8 X s 683 912 m 8 X s
 683 921 m 8 X s 683 931 m 8 X s 674 940 m 17 X s 683 949 m 8 X s 683 959 m 8 X s 683 968 m 8 X s 683 978 m 8 X s 674 987 m 17 X s 683 996 m 8 X s 683 1006 m 8 X s 683 1015 m 8 X s 683 1024 m 8 X s 674 1034 m 17 X s 683 1043 m 8 X s 683 1053 m 8 X s
 683 1062 m 8 X s 683 1071 m 8 X s 674 1081 m 17 X s 674 705 m 17 X s 683 696 m 8 X s 683 687 m 8 X s 674 1081 m 17 X s 683 1090 m 8 X s 683 1100 m 8 X s 683 1109 m 8 X s 0.490196 0.545098 0.615686 c 0.364706 0.419608 0.490196 c 329 38 30 1130 bf
 0.490196 0.545098 0.615686 c 30 1130 m 329 X s 359 1130 m 38 Y s 359 1168 m -329 X s 30 1168 m -38 Y s 1 1 1 c black 1 1 1 c
 gsave  710 567 23 603 C 34.101 1142.38 t 0 r /Helvetica-Bold findfont 28.5146 sf 0 0 m (Input variable: yy.HS_l1) show NC gr  1 0 0 c 6 lw black 3 lw 1 0 0 c 682 705 m s 667 705 m s 652 705 m s 637 705 m s 622 706 m -1 Y s 616 715 m -9 -10 d s 609
 722 m -17 -17 d s 609 738 m -32 -33 d s 609 753 m -14 -14 d s 591 735 m -30 -30 d s 609 768 m -14 -14 d s 581 740 m -35 -35 d s 609 783 m -14 -14 d s 581 756 m -50 -51 d s 609 798 m -14 -14 d s 575 764 m -59 -59 d s 609 813 m -14 -13 d s 567 772 m
 -66 -67 d s 599 819 m -4 -4 d s 567 787 m -81 -82 d s 567 802 m -96 -97 d s 565 815 m -109 -110 d s 554 819 m -113 -114 d s 554 834 m -128 -129 d s 540 836 m -129 -131 d s 540 851 m -144 -146 d s 540 866 m -159 -161 d s 540 881 m -175 -176 d s 540
 896 m -14 -13 d s 515 871 m -165 -166 d s 540 912 m -14 -14 d s 513 884 m -14 -14 d s 488 859 m -153 -154 d s 540 927 m -14 -14 d s 513 899 m -14 -14 d s 485 872 m -165 -167 d s 540 942 m -14 -14 d s 513 914 m -14 -13 d s 485 887 m -13 -14 d s 458
 859 m -153 -154 d s 540 957 m -14 -14 d s 513 930 m -14 -14 d s 481 898 m -9 -10 d s 457 873 m -167 -168 d s 540 972 m -14 -13 d s 513 945 m -14 -14 d s 444 876 m -27 -28 d s 410 841 m -135 -136 d s 540 987 m -14 -13 d s 513 960 m -14 -14 d s 444
 891 m -27 -28 d s 403 850 m -143 -145 d s 540 1003 m -14 -14 d s 513 975 m -14 -14 d s 444 906 m -27 -27 d s 403 865 m -158 -160 d s 540 1018 m -14 -14 d s 508 985 m -9 -8 d s 444 921 m -27 -27 d s 403 880 m -13 -14 d s 385 861 m -105 -105 d s 267
 742 m -14 -13 d s 243 719 m -13 -14 d s 527 1019 m -1 X s 438 930 m -21 -21 d s 403 895 m -13 -14 d s 376 868 m -96 -97 d s 267 757 m -14 -13 d s 228 718 m -2 -2 d s 218 708 m -3 -3 d s 421 928 m -4 -4 d s 403 910 m -13 -13 d s 376 883 m -96 -97 d s
 267 773 m -14 -14 d s 209 715 m -9 -10 d s 403 926 m -13 -14 d s 376 898 m -41 -41 d s 321 843 m -41 -41 d s 267 788 m -14 -14 d s 185 705 m s 403 941 m -13 -14 d s 376 913 m -27 -27 d s 347 884 m -12 -12 d s 310 846 m -16 -15 d s 287 823 m -7 -6 d
 s 267 803 m -14 -14 d s 170 705 m s 395 948 m -5 -6 d s 376 928 m -27 -27 d s 308 860 m -14 -14 d s 267 818 m -14 -14 d s 154 705 m s 376 944 m -14 -14 d s 356 924 m -7 -8 d s 298 865 m -4 -4 d s 267 833 m -14 -13 d s 267 849 m -14 -14 d s 267 864 m
 -14 -14 d s 267 879 m -14 -14 d s 259 886 m -6 -6 d s 6 lw 143 705 m 55 X 10 Y 14 X -7 Y 14 X 10 Y 13 X 1 Y 14 X 167 Y 14 X -144 Y 13 X 81 Y 14 X 42 Y 14 X -19 Y 13 X -4 Y 14 X 42 Y 14 X 40 Y 13 X 20 Y 14 X -83 Y 14 X 87 Y 13 X -107 Y 14 X 87 Y 14 X
 2 Y 13 X -57 Y 14 X -14 Y 14 X 39 Y 13 X -39 Y 14 X 126 Y 14 X -114 Y 13 X 148 Y 14 X -184 Y 14 X -20 Y 13 X -51 Y 14 X -29 Y 14 X 84 Y 14 X -104 Y 13 X -10 Y 69 X s 0.490196 0.545098 0.615686 c 3 lw 1 1 1 c 0.490196 0.545098 0.615686 c 285 86 143
 1028 bl 143 1028 m 285 X s 428 1028 m 86 Y s 428 1114 m -285 X s 143 1114 m -86 Y s black
 gsave  710 567 23 603 C 227.34 1085.55 t 0 r /Helvetica-Bold findfont 31.3661 sf 0 0 m (Signal) show NC gr  0.49 0.6 0.82 c 156 1077 m 60 X 30 Y -60 X f 0 0 0.933333 c 6 lw 156 1107 m 60 X s 156 1077 m 60 X s 216 1077 m 30 Y s 156 1077 m 30 Y s
 black
 gsave  710 567 23 603 C 227.34 1042.92 t 0 r /Helvetica-Bold findfont 31.3661 sf 0 0 m (Background) show NC gr  1 0 0 c 3 lw 216 1041 m -6 -6 d s 216 1056 m -21 -21 d s 210 1065 m -30 -30 d s 195 1065 m -30 -30 d s 180 1065 m -24 -24 d s 165 1065 m
 -9 -9 d s 6 lw 0 0 0.933333 c 1 0 0 c 156 1065 m 60 X s 156 1035 m 60 X s 216 1035 m 30 Y s 156 1035 m 30 Y s black 3 lw 143 685 m 548 X s 183 698 m -13 Y s 196 691 m -6 Y s 208 691 m -6 Y s 221 691 m -6 Y s 233 691 m -6 Y s 246 698 m -13 Y s 258
 691 m -6 Y s 271 691 m -6 Y s 284 691 m -6 Y s 296 691 m -6 Y s 309 698 m -13 Y s 321 691 m -6 Y s 334 691 m -6 Y s 346 691 m -6 Y s 359 691 m -6 Y s 371 698 m -13 Y s 384 691 m -6 Y s 397 691 m -6 Y s 409 691 m -6 Y s 422 691 m -6 Y s 434 698 m -13
 Y s 447 691 m -6 Y s 459 691 m -6 Y s 472 691 m -6 Y s 485 691 m -6 Y s 497 698 m -13 Y s 510 691 m -6 Y s 522 691 m -6 Y s 535 691 m -6 Y s 547 691 m -6 Y s 560 698 m -13 Y s 572 691 m -6 Y s 585 691 m -6 Y s 598 691 m -6 Y s 610 691 m -6 Y s 623
 698 m -13 Y s 635 691 m -6 Y s 648 691 m -6 Y s 660 691 m -6 Y s 673 691 m -6 Y s 686 698 m -13 Y s 183 698 m -13 Y s 170 691 m -6 Y s 158 691 m -6 Y s 145 691 m -6 Y s 686 698 m -13 Y s 143 1114 m 548 X s 183 1100 m 14 Y s 196 1107 m 7 Y s 208 1107
 m 7 Y s 221 1107 m 7 Y s 233 1107 m 7 Y s 246 1100 m 14 Y s 258 1107 m 7 Y s 271 1107 m 7 Y s 284 1107 m 7 Y s 296 1107 m 7 Y s 309 1100 m 14 Y s 321 1107 m 7 Y s 334 1107 m 7 Y s 346 1107 m 7 Y s 359 1107 m 7 Y s 371 1100 m 14 Y s 384 1107 m 7 Y s
 397 1107 m 7 Y s 409 1107 m 7 Y s 422 1107 m 7 Y s 434 1100 m 14 Y s 447 1107 m 7 Y s 459 1107 m 7 Y s 472 1107 m 7 Y s 485 1107 m 7 Y s 497 1100 m 14 Y s 510 1107 m 7 Y s 522 1107 m 7 Y s 535 1107 m 7 Y s 547 1107 m 7 Y s 560 1100 m 14 Y s 572 1107
 m 7 Y s 585 1107 m 7 Y s 598 1107 m 7 Y s 610 1107 m 7 Y s 623 1100 m 14 Y s 635 1107 m 7 Y s 648 1107 m 7 Y s 660 1107 m 7 Y s 673 1107 m 7 Y s 686 1100 m 14 Y s 183 1100 m 14 Y s 170 1107 m 7 Y s 158 1107 m 7 Y s 145 1107 m 7 Y s 686 1100 m 14 Y s
 143 685 m 429 Y s 160 705 m -17 X s 152 715 m -9 X s 152 724 m -9 X s 152 733 m -9 X s 152 743 m -9 X s 160 752 m -17 X s 152 762 m -9 X s 152 771 m -9 X s 152 780 m -9 X s 152 790 m -9 X s 160 799 m -17 X s 152 809 m -9 X s 152 818 m -9 X s 152 827
 m -9 X s 152 837 m -9 X s 160 846 m -17 X s 152 855 m -9 X s 152 865 m -9 X s 152 874 m -9 X s 152 884 m -9 X s 160 893 m -17 X s 152 902 m -9 X s 152 912 m -9 X s 152 921 m -9 X s 152 931 m -9 X s 160 940 m -17 X s 152 949 m -9 X s 152 959 m -9 X s
 152 968 m -9 X s 152 978 m -9 X s 160 987 m -17 X s 152 996 m -9 X s 152 1006 m -9 X s 152 1015 m -9 X s 152 1024 m -9 X s 160 1034 m -17 X s 152 1043 m -9 X s 152 1053 m -9 X s 152 1062 m -9 X s 152 1071 m -9 X s 160 1081 m -17 X s 160 705 m -17 X
 s 152 696 m -9 X s 152 687 m -9 X s 160 1081 m -17 X s 152 1090 m -9 X s 152 1100 m -9 X s 152 1109 m -9 X s 691 685 m 429 Y s 674 705 m 17 X s 683 715 m 8 X s 683 724 m 8 X s 683 733 m 8 X s 683 743 m 8 X s 674 752 m 17 X s 683 762 m 8 X s 683 771
 m 8 X s 683 780 m 8 X s 683 790 m 8 X s 674 799 m 17 X s 683 809 m 8 X s 683 818 m 8 X s 683 827 m 8 X s 683 837 m 8 X s 674 846 m 17 X s 683 855 m 8 X s 683 865 m 8 X s 683 874 m 8 X s 683 884 m 8 X s 674 893 m 17 X s 683 902 m 8 X s 683 912 m 8 X
 s 683 921 m 8 X s 683 931 m 8 X s 674 940 m 17 X s 683 949 m 8 X s 683 959 m 8 X s 683 968 m 8 X s 683 978 m 8 X s 674 987 m 17 X s 683 996 m 8 X s 683 1006 m 8 X s 683 1015 m 8 X s 683 1024 m 8 X s 674 1034 m 17 X s 683 1043 m 8 X s 683 1053 m 8 X
 s 683 1062 m 8 X s 683 1071 m 8 X s 674 1081 m 17 X s 674 705 m 17 X s 683 696 m 8 X s 683 687 m 8 X s 674 1081 m 17 X s 683 1090 m 8 X s 683 1100 m 8 X s 683 1109 m 8 X s
 gsave  710 567 23 603 C 719.017 682.347 t 90 r /Helvetica-Bold findfont 19.9602 sf 0 0 m (U/O\255flow \(S,B\): \(0.0, 0.0\)% / \(0.0, 0.0\)%) show NC gr  0.490196 0.545098 0.615686 c 0.364706 0.419608 0.490196 c 329 38 30 1130 bf 0.490196 0.545098
 0.615686 c 30 1130 m 329 X s 359 1130 m 38 Y s 359 1168 m -329 X s 30 1168 m -38 Y s 1 1 1 c black 1 1 1 c
 gsave  710 567 23 603 C 34.101 1142.38 t 0 r /Helvetica-Bold findfont 28.5146 sf 0 0 m (Input variable: yy.HS_l1) show NC gr  0.490196 0.545098 0.615686 c 0.941176 0.941176 0.941176 c 710 567 779 603 bf black 1 1 0.992157 c 548 429 899 685 bf black
 548 429 899 685 bl 0 0 0.933333 c 6 lw 0.49 0.6 0.82 c black 3 lw 0.49 0.6 0.82 c 899 685 m 28 X 68 Y 13 X 105 Y 14 X 83 Y 14 X -3 Y 13 X 9 Y 14 X 43 Y 14 X -4 Y 13 X -88 Y 14 X 4 Y 14 X 10 Y 14 X 30 Y 13 X -49 Y 14 X -8 Y 14 X 6 Y 13 X -7 Y 14 X 9
 Y 14 X -60 Y 13 X 53 Y 14 X -19 Y 14 X -21 Y 13 X -15 Y 14 X 27 Y 14 X -64 Y 13 X 5 Y 14 X 13 Y 14 X -22 Y 13 X -29 Y 14 X 5 Y 14 X 4 Y 13 X -18 Y 14 X -15 Y 14 X -31 Y 13 X -14 Y 14 X -6 Y 14 X -1 Y 55 X f 6 lw 0 0 0.933333 c 0.49 0.6 0.82 c 0 0
 0.933333 c 899 685 m 28 X 68 Y 13 X 105 Y 14 X 83 Y 14 X -3 Y 13 X 9 Y 14 X 43 Y 14 X -4 Y 13 X -88 Y 14 X 4 Y 14 X 10 Y 14 X 30 Y 13 X -49 Y 14 X -8 Y 14 X 6 Y 13 X -7 Y 14 X 9 Y 14 X -60 Y 13 X 53 Y 14 X -19 Y 14 X -21 Y 13 X -15 Y 14 X 27 Y 14 X
 -64 Y 13 X 5 Y 14 X 13 Y 14 X -22 Y 13 X -29 Y 14 X 5 Y 14 X 4 Y 13 X -18 Y 14 X -15 Y 14 X -31 Y 13 X -14 Y 14 X -6 Y 14 X -1 Y 55 X s black 3 lw 899 685 m 548 X s 903 698 m -13 Y s 916 691 m -6 Y s 928 691 m -6 Y s 940 691 m -6 Y s 952 691 m -6 Y
 s 965 698 m -13 Y s 977 691 m -6 Y s 989 691 m -6 Y s 1002 691 m -6 Y s 1014 691 m -6 Y s 1026 698 m -13 Y s 1038 691 m -6 Y s 1051 691 m -6 Y s 1063 691 m -6 Y s 1075 691 m -6 Y s 1088 698 m -13 Y s 1100 691 m -6 Y s 1112 691 m -6 Y s 1124 691 m -6
 Y s 1137 691 m -6 Y s 1149 698 m -13 Y s 1161 691 m -6 Y s 1174 691 m -6 Y s 1186 691 m -6 Y s 1198 691 m -6 Y s 1210 698 m -13 Y s 1223 691 m -6 Y s 1235 691 m -6 Y s 1247 691 m -6 Y s 1260 691 m -6 Y s 1272 698 m -13 Y s 1284 691 m -6 Y s 1297 691
 m -6 Y s 1309 691 m -6 Y s 1321 691 m -6 Y s 1333 698 m -13 Y s 1346 691 m -6 Y s 1358 691 m -6 Y s 1370 691 m -6 Y s 1383 691 m -6 Y s 1395 698 m -13 Y s 903 698 m -13 Y s 1395 698 m -13 Y s 1407 691 m -6 Y s 1419 691 m -6 Y s 1432 691 m -6 Y s
 1444 691 m -6 Y s
 gsave  710 567 779 603 C 880.943 656.444 t 0 r /Helvetica findfont 25.6631 sf 0 0 m (0.15) show NC gr 
 gsave  710 567 779 603 C 869.576 656.444 t 0 r /Symbol findfont 25.6631 sf 0 0 m (-) show NC gr 
 gsave  710 567 779 603 C 951.986 656.444 t 0 r /Helvetica findfont 25.6631 sf 0 0 m (0.1) show NC gr 
 gsave  710 567 779 603 C 940.619 656.444 t 0 r /Symbol findfont 25.6631 sf 0 0 m (-) show NC gr 
 gsave  710 567 779 603 C 1005.98 656.444 t 0 r /Helvetica findfont 25.6631 sf 0 0 m (0.05) show NC gr 
 gsave  710 567 779 603 C 994.612 656.444 t 0 r /Symbol findfont 25.6631 sf 0 0 m (-) show NC gr 
 gsave  710 567 779 603 C 1077.02 656.444 t 0 r /Helvetica findfont 25.6631 sf 0 0 m (0) show NC gr 
 gsave  710 567 779 603 C 1122.49 656.444 t 0 r /Helvetica findfont 25.6631 sf 0 0 m (0.05) show NC gr 
 gsave  710 567 779 603 C 1190.69 656.444 t 0 r /Helvetica findfont 25.6631 sf 0 0 m (0.1) show NC gr 
 gsave  710 567 779 603 C 1244.69 656.444 t 0 r /Helvetica findfont 25.6631 sf 0 0 m (0.15) show NC gr 
 gsave  710 567 779 603 C 1315.73 656.444 t 0 r /Helvetica findfont 25.6631 sf 0 0 m (0.2) show NC gr 
 gsave  710 567 779 603 C 1366.88 656.444 t 0 r /Helvetica findfont 25.6631 sf 0 0 m (0.25) show NC gr 
 gsave  710 567 779 603 C 1335.62 616.66 t 0 r /Helvetica findfont 28.5146 sf 0 0 m (yy.HS_l2) show NC gr  899 1114 m 548 X s 903 1100 m 14 Y s 916 1107 m 7 Y s 928 1107 m 7 Y s 940 1107 m 7 Y s 952 1107 m 7 Y s 965 1100 m 14 Y s 977 1107 m 7 Y s 989
 1107 m 7 Y s 1002 1107 m 7 Y s 1014 1107 m 7 Y s 1026 1100 m 14 Y s 1038 1107 m 7 Y s 1051 1107 m 7 Y s 1063 1107 m 7 Y s 1075 1107 m 7 Y s 1088 1100 m 14 Y s 1100 1107 m 7 Y s 1112 1107 m 7 Y s 1124 1107 m 7 Y s 1137 1107 m 7 Y s 1149 1100 m 14 Y s
 1161 1107 m 7 Y s 1174 1107 m 7 Y s 1186 1107 m 7 Y s 1198 1107 m 7 Y s 1210 1100 m 14 Y s 1223 1107 m 7 Y s 1235 1107 m 7 Y s 1247 1107 m 7 Y s 1260 1107 m 7 Y s 1272 1100 m 14 Y s 1284 1107 m 7 Y s 1297 1107 m 7 Y s 1309 1107 m 7 Y s 1321 1107 m 7
 Y s 1333 1100 m 14 Y s 1346 1107 m 7 Y s 1358 1107 m 7 Y s 1370 1107 m 7 Y s 1383 1107 m 7 Y s 1395 1100 m 14 Y s 903 1100 m 14 Y s 1395 1100 m 14 Y s 1407 1107 m 7 Y s 1419 1107 m 7 Y s 1432 1107 m 7 Y s 1444 1107 m 7 Y s 899 685 m 429 Y s 915 685
 m -16 X s 907 697 m -8 X s 907 709 m -8 X s 907 721 m -8 X s 907 733 m -8 X s 915 745 m -16 X s 907 757 m -8 X s 907 769 m -8 X s 907 781 m -8 X s 907 793 m -8 X s 915 805 m -16 X s 907 817 m -8 X s 907 829 m -8 X s 907 841 m -8 X s 907 854 m -8 X s
 915 866 m -16 X s 907 878 m -8 X s 907 890 m -8 X s 907 902 m -8 X s 907 914 m -8 X s 915 926 m -16 X s 907 938 m -8 X s 907 950 m -8 X s 907 962 m -8 X s 907 974 m -8 X s 915 986 m -16 X s 907 998 m -8 X s 907 1010 m -8 X s 907 1022 m -8 X s 907
 1035 m -8 X s 915 1047 m -16 X s 907 1059 m -8 X s 907 1071 m -8 X s 907 1083 m -8 X s 907 1095 m -8 X s 915 1107 m -16 X s 915 1107 m -16 X s
 gsave  710 567 779 603 C 875.259 673.495 t 0 r /Helvetica findfont 25.6631 sf 0 0 m (0) show NC gr 
 gsave  710 567 779 603 C 878.101 736.013 t 0 r /Helvetica findfont 25.6631 sf 0 0 m (1) show NC gr 
 gsave  710 567 779 603 C 875.259 795.69 t 0 r /Helvetica findfont 25.6631 sf 0 0 m (2) show NC gr 
 gsave  710 567 779 603 C 875.259 855.367 t 0 r /Helvetica findfont 25.6631 sf 0 0 m (3) show NC gr 
 gsave  710 567 779 603 C 875.259 915.044 t 0 r /Helvetica findfont 25.6631 sf 0 0 m (4) show NC gr 
 gsave  710 567 779 603 C 875.259 977.562 t 0 r /Helvetica findfont 25.6631 sf 0 0 m (5) show NC gr 
 gsave  710 567 779 603 C 875.259 1037.24 t 0 r /Helvetica findfont 25.6631 sf 0 0 m (6) show NC gr 
 gsave  710 567 779 603 C 875.259 1096.92 t 0 r /Helvetica findfont 25.6631 sf 0 0 m (7) show NC gr 
 gsave  710 567 779 603 C 801.374 1025.87 t 90 r /Helvetica findfont 28.5146 sf 0 0 m (0.0111 ) show NC gr 
 gsave  710 567 779 603 C 787.165 1023.03 t 90 r /Helvetica findfont 19.9602 sf 0 0 m ( ) show NC gr 
 gsave  710 567 779 603 C 801.374 1011.66 t 90 r /Helvetica findfont 28.5146 sf 0 0 m (/) show NC gr 
 gsave  710 567 779 603 C 809.899 1008.82 t 90 r /Helvetica findfont 19.9602 sf 0 0 m ( ) show NC gr 
 gsave  710 567 779 603 C 801.374 903.677 t 90 r /Helvetica findfont 28.5146 sf 0 0 m (\(1/N\) dN) show NC gr  1447 685 m 429 Y s 1430 685 m 17 X s 1438 697 m 9 X s 1438 709 m 9 X s 1438 721 m 9 X s 1438 733 m 9 X s 1430 745 m 17 X s 1438 757 m 9 X s
 1438 769 m 9 X s 1438 781 m 9 X s 1438 793 m 9 X s 1430 805 m 17 X s 1438 817 m 9 X s 1438 829 m 9 X s 1438 841 m 9 X s 1438 854 m 9 X s 1430 866 m 17 X s 1438 878 m 9 X s 1438 890 m 9 X s 1438 902 m 9 X s 1438 914 m 9 X s 1430 926 m 17 X s 1438 938
 m 9 X s 1438 950 m 9 X s 1438 962 m 9 X s 1438 974 m 9 X s 1430 986 m 17 X s 1438 998 m 9 X s 1438 1010 m 9 X s 1438 1022 m 9 X s 1438 1035 m 9 X s 1430 1047 m 17 X s 1438 1059 m 9 X s 1438 1071 m 9 X s 1438 1083 m 9 X s 1438 1095 m 9 X s 1430 1107
 m 17 X s 1430 1107 m 17 X s 0.490196 0.545098 0.615686 c 0.364706 0.419608 0.490196 c 335 38 786 1130 bf 0.490196 0.545098 0.615686 c 786 1130 m 335 X s 1121 1130 m 38 Y s 1121 1168 m -335 X s 786 1168 m -38 Y s 1 1 1 c black 1 1 1 c
 gsave  710 567 779 603 C 790.007 1142.38 t 0 r /Helvetica-Bold findfont 28.5146 sf 0 0 m (Input variable: yy.HS_l2) show NC gr  1 0 0 c 6 lw black 3 lw 1 0 0 c 1432 685 m s 1417 685 m s 1402 685 m s 1387 685 m s 1378 691 m -6 -6 d s 1368 695 m -11
 -10 d s 1364 707 m -22 -22 d s 1364 722 m -13 -13 d s 1338 696 m -11 -11 d s 1356 729 m -5 -5 d s 1337 710 m -25 -25 d s 1337 725 m -40 -40 d s 1337 740 m -14 -13 d s 1313 716 m -3 -3 d s 1304 707 m -22 -22 d s 1337 756 m -14 -14 d s 1296 714 m -29
 -29 d s 1337 771 m -14 -14 d s 1296 729 m -44 -44 d s 1337 786 m -14 -14 d s 1296 745 m -59 -60 d s 1296 760 m -14 -14 d s 1269 732 m s 1267 730 m -46 -45 d s 1296 775 m -14 -14 d s 1255 734 m -49 -49 d s 1296 790 m -14 -14 d s 1255 749 m -64 -64 d
 s 1296 805 m -14 -13 d s 1255 764 m -79 -79 d s 1296 820 m -14 -13 d s 1255 779 m -94 -94 d s 1296 836 m -14 -14 d s 1255 794 m -109 -109 d s 1296 851 m -14 -14 d s 1248 803 m -7 -7 d s 1235 789 m -21 -21 d s 1210 765 m -79 -80 d s 1296 866 m -14
 -14 d s 1228 797 m -14 -14 d s 1200 770 m -84 -85 d s 1296 881 m -14 -14 d s 1228 812 m -14 -13 d s 1200 785 m -99 -100 d s 1296 896 m -14 -13 d s 1228 827 m -14 -13 d s 1200 800 m -114 -115 d s 1296 912 m -14 -14 d s 1228 843 m -14 -14 d s 1200 815
 m -129 -130 d s 1296 927 m -14 -14 d s 1217 847 m -3 -3 d s 1187 817 m -28 -28 d s 1156 785 m -100 -100 d s 1296 942 m -14 -14 d s 1177 822 m -18 -18 d s 1146 790 m -105 -105 d s 1296 957 m -14 -14 d s 1173 833 m -14 -14 d s 1146 806 m -14 -14 d s
 1124 784 m -98 -99 d s 1292 968 m -10 -9 d s 1173 848 m -14 -13 d s 1146 821 m -14 -14 d s 1118 793 m -108 -108 d s 1160 850 m -1 X s 1146 836 m -14 -14 d s 1118 808 m -123 -123 d s 1138 843 m -6 -6 d s 1118 824 m -138 -139 d s 1118 839 m -153 -154
 d s 1118 854 m -168 -169 d s 1118 869 m -183 -184 d s 1118 884 m -54 -55 d s 1063 829 m -136 -138 d s 920 685 m s 1118 899 m -54 -55 d s 1049 830 m -122 -123 d s 905 685 m s 1118 915 m -27 -28 d s 1084 880 m -20 -20 d s 1036 832 m -109 -110 d s 1118
 930 m -13 -14 d s 1093 905 m -2 -3 d s 1077 889 m -13 -14 d s 1036 847 m -109 -110 d s 1118 945 m -13 -14 d s 1066 892 m -2 -2 d s 1036 862 m -109 -110 d s 1118 960 m -13 -14 d s 1026 868 m -99 -101 d s 1118 975 m -13 -13 d s 1022 879 m -95 -97 d s
 1118 991 m -13 -14 d s 1022 894 m -95 -96 d s 1118 1006 m -13 -14 d s 1022 909 m -95 -96 d s 1118 1021 m -13 -14 d s 1022 924 m -82 -82 d s 929 830 m -2 -2 d s 1118 1036 m -13 -14 d s 1022 940 m -82 -83 d s 1118 1051 m -13 -13 d s 1022 955 m -82 -83
 d s 1118 1066 m -13 -13 d s 1022 970 m -82 -83 d s 1111 1075 m -6 -7 d s 1022 985 m -82 -82 d s 1022 1000 m -27 -27 d s 984 962 m -30 -30 d s 951 928 m -11 -10 d s 1022 1016 m -27 -28 d s 981 974 m -27 -27 d s 1022 1031 m -27 -28 d s 981 989 m -27
 -27 d s 1022 1046 m -27 -28 d s 981 1005 m -27 -28 d s 1009 1047 m -14 -13 d s 976 1014 m -22 -22 d s 1008 1062 m -13 -13 d s 968 1021 m -14 -14 d s 959 1028 m -5 -5 d s 6 lw 899 685 m 28 X 145 Y 13 X 98 Y 14 X 100 Y 14 X -14 Y 13 X -52 Y 14 X 100 Y
 14 X -15 Y 13 X -179 Y 14 X -38 Y 14 X -1 Y 14 X 63 Y 13 X -12 Y 14 X 25 Y 14 X 170 Y 13 X -291 Y 14 X 59 Y 14 X -58 Y 13 X 65 Y 14 X -28 Y 14 X -6 Y 13 X -51 Y 14 X 82 Y 14 X -58 Y 13 X 14 Y 14 X -73 Y 14 X 2 Y 13 X 236 Y 14 X -261 Y 14 X 9 Y 13 X
 71 Y 14 X -91 Y 14 X 33 Y 13 X -34 Y 14 X -10 Y 69 X s black 3 lw 899 685 m 548 X s 903 698 m -13 Y s 916 691 m -6 Y s 928 691 m -6 Y s 940 691 m -6 Y s 952 691 m -6 Y s 965 698 m -13 Y s 977 691 m -6 Y s 989 691 m -6 Y s 1002 691 m -6 Y s 1014 691
 m -6 Y s 1026 698 m -13 Y s 1038 691 m -6 Y s 1051 691 m -6 Y s 1063 691 m -6 Y s 1075 691 m -6 Y s 1088 698 m -13 Y s 1100 691 m -6 Y s 1112 691 m -6 Y s 1124 691 m -6 Y s 1137 691 m -6 Y s 1149 698 m -13 Y s 1161 691 m -6 Y s 1174 691 m -6 Y s
 1186 691 m -6 Y s 1198 691 m -6 Y s 1210 698 m -13 Y s 1223 691 m -6 Y s 1235 691 m -6 Y s 1247 691 m -6 Y s 1260 691 m -6 Y s 1272 698 m -13 Y s 1284 691 m -6 Y s 1297 691 m -6 Y s 1309 691 m -6 Y s 1321 691 m -6 Y s 1333 698 m -13 Y s 1346 691 m
 -6 Y s 1358 691 m -6 Y s 1370 691 m -6 Y s 1383 691 m -6 Y s 1395 698 m -13 Y s 903 698 m -13 Y s 1395 698 m -13 Y s 1407 691 m -6 Y s 1419 691 m -6 Y s 1432 691 m -6 Y s 1444 691 m -6 Y s 899 1114 m 548 X s 903 1100 m 14 Y s 916 1107 m 7 Y s 928
 1107 m 7 Y s 940 1107 m 7 Y s 952 1107 m 7 Y s 965 1100 m 14 Y s 977 1107 m 7 Y s 989 1107 m 7 Y s 1002 1107 m 7 Y s 1014 1107 m 7 Y s 1026 1100 m 14 Y s 1038 1107 m 7 Y s 1051 1107 m 7 Y s 1063 1107 m 7 Y s 1075 1107 m 7 Y s 1088 1100 m 14 Y s 1100
 1107 m 7 Y s 1112 1107 m 7 Y s 1124 1107 m 7 Y s 1137 1107 m 7 Y s 1149 1100 m 14 Y s 1161 1107 m 7 Y s 1174 1107 m 7 Y s 1186 1107 m 7 Y s 1198 1107 m 7 Y s 1210 1100 m 14 Y s 1223 1107 m 7 Y s 1235 1107 m 7 Y s 1247 1107 m 7 Y s 1260 1107 m 7 Y s
 1272 1100 m 14 Y s 1284 1107 m 7 Y s 1297 1107 m 7 Y s 1309 1107 m 7 Y s 1321 1107 m 7 Y s 1333 1100 m 14 Y s 1346 1107 m 7 Y s 1358 1107 m 7 Y s 1370 1107 m 7 Y s 1383 1107 m 7 Y s 1395 1100 m 14 Y s 903 1100 m 14 Y s 1395 1100 m 14 Y s 1407 1107 m
 7 Y s 1419 1107 m 7 Y s 1432 1107 m 7 Y s 1444 1107 m 7 Y s 899 685 m 429 Y s 915 685 m -16 X s 907 697 m -8 X s 907 709 m -8 X s 907 721 m -8 X s 907 733 m -8 X s 915 745 m -16 X s 907 757 m -8 X s 907 769 m -8 X s 907 781 m -8 X s 907 793 m -8 X s
 915 805 m -16 X s 907 817 m -8 X s 907 829 m -8 X s 907 841 m -8 X s 907 854 m -8 X s 915 866 m -16 X s 907 878 m -8 X s 907 890 m -8 X s 907 902 m -8 X s 907 914 m -8 X s 915 926 m -16 X s 907 938 m -8 X s 907 950 m -8 X s 907 962 m -8 X s 907 974
 m -8 X s 915 986 m -16 X s 907 998 m -8 X s 907 1010 m -8 X s 907 1022 m -8 X s 907 1035 m -8 X s 915 1047 m -16 X s 907 1059 m -8 X s 907 1071 m -8 X s 907 1083 m -8 X s 907 1095 m -8 X s 915 1107 m -16 X s 915 1107 m -16 X s 1447 685 m 429 Y s
 1430 685 m 17 X s 1438 697 m 9 X s 1438 709 m 9 X s 1438 721 m 9 X s 1438 733 m 9 X s 1430 745 m 17 X s 1438 757 m 9 X s 1438 769 m 9 X s 1438 781 m 9 X s 1438 793 m 9 X s 1430 805 m 17 X s 1438 817 m 9 X s 1438 829 m 9 X s 1438 841 m 9 X s 1438 854
 m 9 X s 1430 866 m 17 X s 1438 878 m 9 X s 1438 890 m 9 X s 1438 902 m 9 X s 1438 914 m 9 X s 1430 926 m 17 X s 1438 938 m 9 X s 1438 950 m 9 X s 1438 962 m 9 X s 1438 974 m 9 X s 1430 986 m 17 X s 1438 998 m 9 X s 1438 1010 m 9 X s 1438 1022 m 9 X
 s 1438 1035 m 9 X s 1430 1047 m 17 X s 1438 1059 m 9 X s 1438 1071 m 9 X s 1438 1083 m 9 X s 1438 1095 m 9 X s 1430 1107 m 17 X s 1430 1107 m 17 X s
 gsave  710 567 779 603 C 1474.92 682.347 t 90 r /Helvetica-Bold findfont 19.9602 sf 0 0 m (U/O\255flow \(S,B\): \(0.0, 0.0\)% / \(0.0, 0.0\)%) show NC gr  0.490196 0.545098 0.615686 c 0.364706 0.419608 0.490196 c 335 38 786 1130 bf 0.490196 0.545098
 0.615686 c 786 1130 m 335 X s 1121 1130 m 38 Y s 1121 1168 m -335 X s 786 1168 m -38 Y s 1 1 1 c black 1 1 1 c
 gsave  710 567 779 603 C 790.007 1142.38 t 0 r /Helvetica-Bold findfont 28.5146 sf 0 0 m (Input variable: yy.HS_l2) show NC gr  0.490196 0.545098 0.615686 c 0.941176 0.941176 0.941176 c 711 567 1534 603 bf black 1 1 0.992157 c 547 429 1655 685 bf
 black 547 429 1655 685 bl 0 0 0.933333 c 6 lw 0.49 0.6 0.82 c black 3 lw 0.49 0.6 0.82 c 1655 685 m 28 X 123 Y 13 X 179 Y 14 X -46 Y 14 X 41 Y 13 X -32 Y 14 X -13 Y 14 X -36 Y 13 X 9 Y 14 X -1 Y 14 X -57 Y 13 X -47 Y 14 X 36 Y 14 X -49 Y 13 X 41 Y
 14 X -58 Y 14 X -8 Y 13 X 1 Y 14 X -12 Y 14 X 8 Y 14 X -34 Y 13 X -3 Y 14 X -8 Y 14 X 9 Y 13 X -2 Y 14 X -16 Y 14 X 8 Y 13 X 1 Y 14 X -11 Y 14 X 7 Y 13 X -1 Y 14 X -15 Y 14 X -1 Y 13 X -8 Y 14 X -2 Y 14 X -2 Y 27 X -1 Y 27 X f 6 lw 0 0 0.933333 c
 0.49 0.6 0.82 c 0 0 0.933333 c 1655 685 m 28 X 123 Y 13 X 179 Y 14 X -46 Y 14 X 41 Y 13 X -32 Y 14 X -13 Y 14 X -36 Y 13 X 9 Y 14 X -1 Y 14 X -57 Y 13 X -47 Y 14 X 36 Y 14 X -49 Y 13 X 41 Y 14 X -58 Y 14 X -8 Y 13 X 1 Y 14 X -12 Y 14 X 8 Y 14 X -34
 Y 13 X -3 Y 14 X -8 Y 14 X 9 Y 13 X -2 Y 14 X -16 Y 14 X 8 Y 13 X 1 Y 14 X -11 Y 14 X 7 Y 13 X -1 Y 14 X -15 Y 14 X -1 Y 13 X -8 Y 14 X -2 Y 14 X -2 Y 27 X -1 Y 27 X s black 3 lw 1655 685 m 547 X s 1706 698 m -13 Y s 1720 691 m -6 Y s 1734 691 m -6
 Y s 1748 691 m -6 Y s 1762 691 m -6 Y s 1776 698 m -13 Y s 1790 691 m -6 Y s 1804 691 m -6 Y s 1818 691 m -6 Y s 1832 691 m -6 Y s 1846 698 m -13 Y s 1860 691 m -6 Y s 1874 691 m -6 Y s 1889 691 m -6 Y s 1903 691 m -6 Y s 1917 698 m -13 Y s 1931 691
 m -6 Y s 1945 691 m -6 Y s 1959 691 m -6 Y s 1973 691 m -6 Y s 1987 698 m -13 Y s 2001 691 m -6 Y s 2015 691 m -6 Y s 2029 691 m -6 Y s 2043 691 m -6 Y s 2057 698 m -13 Y s 2071 691 m -6 Y s 2086 691 m -6 Y s 2100 691 m -6 Y s 2114 691 m -6 Y s 2128
 698 m -13 Y s 2142 691 m -6 Y s 2156 691 m -6 Y s 2170 691 m -6 Y s 2184 691 m -6 Y s 2198 698 m -13 Y s 1706 698 m -13 Y s 1691 691 m -6 Y s 1677 691 m -6 Y s 1663 691 m -6 Y s 2198 698 m -13 Y s
 gsave  711 567 1534 603 C 1693.68 656.444 t 0 r /Helvetica findfont 25.6631 sf 0 0 m (0.1) show NC gr 
 gsave  711 567 1534 603 C 1682.32 656.444 t 0 r /Symbol findfont 25.6631 sf 0 0 m (-) show NC gr 
 gsave  711 567 1534 603 C 1753.36 656.444 t 0 r /Helvetica findfont 25.6631 sf 0 0 m (0.05) show NC gr 
 gsave  711 567 1534 603 C 1741.99 656.444 t 0 r /Symbol findfont 25.6631 sf 0 0 m (-) show NC gr 
 gsave  711 567 1534 603 C 1835.77 656.444 t 0 r /Helvetica findfont 25.6631 sf 0 0 m (0) show NC gr 
 gsave  711 567 1534 603 C 1889.76 656.444 t 0 r /Helvetica findfont 25.6631 sf 0 0 m (0.05) show NC gr 
 gsave  711 567 1534 603 C 1969.33 656.444 t 0 r /Helvetica findfont 25.6631 sf 0 0 m (0.1) show NC gr 
 gsave  711 567 1534 603 C 2029.01 656.444 t 0 r /Helvetica findfont 25.6631 sf 0 0 m (0.15) show NC gr 
 gsave  711 567 1534 603 C 2108.58 656.444 t 0 r /Helvetica findfont 25.6631 sf 0 0 m (0.2) show NC gr 
 gsave  711 567 1534 603 C 2171.1 656.444 t 0 r /Helvetica findfont 25.6631 sf 0 0 m (0.25) show NC gr 
 gsave  711 567 1534 603 C 2091.53 616.66 t 0 r /Helvetica findfont 28.5146 sf 0 0 m (yy.HS_l3) show NC gr  1655 1114 m 547 X s 1706 1100 m 14 Y s 1720 1107 m 7 Y s 1734 1107 m 7 Y s 1748 1107 m 7 Y s 1762 1107 m 7 Y s 1776 1100 m 14 Y s 1790 1107 m
 7 Y s 1804 1107 m 7 Y s 1818 1107 m 7 Y s 1832 1107 m 7 Y s 1846 1100 m 14 Y s 1860 1107 m 7 Y s 1874 1107 m 7 Y s 1889 1107 m 7 Y s 1903 1107 m 7 Y s 1917 1100 m 14 Y s 1931 1107 m 7 Y s 1945 1107 m 7 Y s 1959 1107 m 7 Y s 1973 1107 m 7 Y s 1987
 1100 m 14 Y s 2001 1107 m 7 Y s 2015 1107 m 7 Y s 2029 1107 m 7 Y s 2043 1107 m 7 Y s 2057 1100 m 14 Y s 2071 1107 m 7 Y s 2086 1107 m 7 Y s 2100 1107 m 7 Y s 2114 1107 m 7 Y s 2128 1100 m 14 Y s 2142 1107 m 7 Y s 2156 1107 m 7 Y s 2170 1107 m 7 Y s
 2184 1107 m 7 Y s 2198 1100 m 14 Y s 1706 1100 m 14 Y s 1691 1107 m 7 Y s 1677 1107 m 7 Y s 1663 1107 m 7 Y s 2198 1100 m 14 Y s 1655 685 m 429 Y s 1671 685 m -16 X s 1663 703 m -8 X s 1663 720 m -8 X s 1663 738 m -8 X s 1671 756 m -16 X s 1663 774
 m -8 X s 1663 792 m -8 X s 1663 810 m -8 X s 1671 828 m -16 X s 1663 846 m -8 X s 1663 864 m -8 X s 1663 882 m -8 X s 1671 900 m -16 X s 1663 918 m -8 X s 1663 936 m -8 X s 1663 954 m -8 X s 1671 972 m -16 X s 1663 990 m -8 X s 1663 1007 m -8 X s
 1663 1025 m -8 X s 1671 1043 m -16 X s 1671 1043 m -16 X s 1663 1061 m -8 X s 1663 1079 m -8 X s 1663 1097 m -8 X s
 gsave  711 567 1534 603 C 1631.16 673.495 t 0 r /Helvetica findfont 25.6631 sf 0 0 m (0) show NC gr 
 gsave  711 567 1534 603 C 1631.16 747.38 t 0 r /Helvetica findfont 25.6631 sf 0 0 m (2) show NC gr 
 gsave  711 567 1534 603 C 1631.16 818.424 t 0 r /Helvetica findfont 25.6631 sf 0 0 m (4) show NC gr 
 gsave  711 567 1534 603 C 1631.16 889.468 t 0 r /Helvetica findfont 25.6631 sf 0 0 m (6) show NC gr 
 gsave  711 567 1534 603 C 1631.16 960.512 t 0 r /Helvetica findfont 25.6631 sf 0 0 m (8) show NC gr 
 gsave  711 567 1534 603 C 1616.96 1034.4 t 0 r /Helvetica findfont 25.6631 sf 0 0 m (10) show NC gr 
 gsave  711 567 1534 603 C 1557.28 1005.98 t 90 r /Helvetica findfont 28.5146 sf 0 0 m (0.00972 ) show NC gr 
 gsave  711 567 1534 603 C 1543.07 1003.14 t 90 r /Helvetica findfont 19.9602 sf 0 0 m ( ) show NC gr 
 gsave  711 567 1534 603 C 1557.28 991.771 t 90 r /Helvetica findfont 28.5146 sf 0 0 m (/) show NC gr 
 gsave  711 567 1534 603 C 1565.8 988.929 t 90 r /Helvetica findfont 19.9602 sf 0 0 m ( ) show NC gr 
 gsave  711 567 1534 603 C 1557.28 883.784 t 90 r /Helvetica findfont 28.5146 sf 0 0 m (\(1/N\) dN) show NC gr  2202 685 m 429 Y s 2186 685 m 16 X s 2194 703 m 8 X s 2194 720 m 8 X s 2194 738 m 8 X s 2186 756 m 16 X s 2194 774 m 8 X s 2194 792 m 8 X
 s 2194 810 m 8 X s 2186 828 m 16 X s 2194 846 m 8 X s 2194 864 m 8 X s 2194 882 m 8 X s 2186 900 m 16 X s 2194 918 m 8 X s 2194 936 m 8 X s 2194 954 m 8 X s 2186 972 m 16 X s 2194 990 m 8 X s 2194 1007 m 8 X s 2194 1025 m 8 X s 2186 1043 m 16 X s
 2186 1043 m 16 X s 2194 1061 m 8 X s 2194 1079 m 8 X s 2194 1097 m 8 X s 0.490196 0.545098 0.615686 c 0.364706 0.419608 0.490196 c 335 38 1542 1130 bf 0.490196 0.545098 0.615686 c 1542 1130 m 335 X s 1877 1130 m 38 Y s 1877 1168 m -335 X s 1542 1168
 m -38 Y s 1 1 1 c black 1 1 1 c
 gsave  711 567 1534 603 C 1545.91 1142.38 t 0 r /Helvetica-Bold findfont 28.5146 sf 0 0 m (Input variable: yy.HS_l3) show NC gr  1 0 0 c 6 lw black 3 lw 1 0 0 c 2188 685 m s 2173 685 m s 2159 685 m -1 X s 2148 689 m -5 -4 d s 2135 691 m -7 -6 d s
 2134 706 m -21 -21 d s 2122 709 m -2 -2 d s 2108 695 m -1 -2 d s 2100 687 m -2 -2 d s 2085 687 m -2 -2 d s 2079 696 m -11 -11 d s 2079 711 m -26 -26 d s 2079 727 m -27 -28 d s 2042 689 m -4 -4 d s 2076 738 m -24 -24 d s 2038 700 m -15 -15 d s 2066
 743 m -14 -14 d s 2033 711 m -25 -26 d s 2066 758 m -14 -13 d s 2025 717 m -33 -32 d s 2066 774 m -14 -14 d s 2025 732 m -14 -14 d s 2006 713 m -29 -28 d s 2066 789 m -14 -14 d s 2025 747 m -14 -13 d s 1997 720 m -35 -35 d s 2066 804 m -14 -14 d s
 2017 755 m -6 -6 d s 1977 714 m -30 -29 d s 2058 812 m -6 -7 d s 1970 723 m -38 -38 d s 1955 723 m -38 -38 d s 1939 721 m -37 -36 d s 1929 727 m -42 -42 d s 1929 742 m -57 -57 d s 1929 757 m -72 -72 d s 1929 772 m -14 -13 d s 1908 752 m -66 -67 d s
 1929 788 m -14 -14 d s 1899 758 m -72 -73 d s 1929 803 m -14 -14 d s 1888 761 m -76 -76 d s 1929 818 m -14 -14 d s 1888 777 m -92 -92 d s 1929 833 m -14 -14 d s 1888 792 m -14 -14 d s 1861 764 m -80 -79 d s 1929 848 m -14 -13 d s 1888 807 m -14 -14
 d s 1860 779 m -94 -94 d s 1929 863 m -14 -13 d s 1876 810 m -2 -2 d s 1860 795 m -109 -110 d s 1929 879 m -14 -14 d s 1860 810 m -124 -125 d s 1929 894 m -14 -14 d s 1860 825 m -139 -140 d s 1929 909 m -14 -14 d s 1860 840 m -154 -155 d s 1929 924
 m -14 -14 d s 1859 853 m -12 -11 d s 1836 830 m -145 -145 d s 1917 928 m -2 -2 d s 1833 843 m -150 -152 d s 1676 685 m s 1823 848 m -140 -141 d s 1661 685 m s 1814 854 m -131 -132 d s 1806 861 m -123 -124 d s 1806 876 m -110 -110 d s 1689 758 m -6
 -6 d s 1806 891 m -110 -110 d s 1806 906 m -55 -55 d s 1747 847 m -51 -51 d s 1806 922 m -28 -28 d s 1769 885 m -18 -18 d s 1737 853 m -41 -42 d s 1804 935 m -26 -26 d s 1765 896 m -14 -14 d s 1737 868 m -41 -41 d s 1792 938 m -14 -14 d s 1765 911 m
 -14 -14 d s 1737 883 m -13 -14 d s 1720 865 m -24 -23 d s 1779 940 m -1 X s 1737 898 m -13 -13 d s 1704 864 m -8 -7 d s 1737 914 m -13 -14 d s 1737 929 m -13 -14 d s 1737 944 m -13 -14 d s 1737 959 m -13 -14 d s 1737 974 m -13 -14 d s 1737 989 m -13
 -13 d s 1737 1005 m -13 -14 d s 1737 1020 m -13 -14 d s 1737 1035 m -13 -14 d s 1737 1050 m -13 -14 d s 1737 1065 m -13 -13 d s 1731 1075 m -7 -8 d s 6 lw 1655 685 m 28 X 73 Y 13 X 106 Y 14 X 1 Y 14 X 210 Y 13 X -228 Y 14 X 65 Y 14 X -27 Y 13 X 55 Y
 14 X -5 Y 14 X -81 Y 13 X -6 Y 14 X -18 Y 14 X 23 Y 13 X -89 Y 14 X 46 Y 14 X -52 Y 13 X -6 Y 14 X 176 Y 14 X -207 Y 14 X 2 Y 27 X -9 Y 14 X 7 Y 13 X -8 Y 14 X 42 Y 14 X -44 Y 13 X -22 Y 14 X 123 Y 14 X -74 Y 13 X -51 Y 28 X 8 Y 13 X 14 Y 14 X -18 Y
 14 X -6 Y 54 X s black 3 lw 1655 685 m 547 X s 1706 698 m -13 Y s 1720 691 m -6 Y s 1734 691 m -6 Y s 1748 691 m -6 Y s 1762 691 m -6 Y s 1776 698 m -13 Y s 1790 691 m -6 Y s 1804 691 m -6 Y s 1818 691 m -6 Y s 1832 691 m -6 Y s 1846 698 m -13 Y s
 1860 691 m -6 Y s 1874 691 m -6 Y s 1889 691 m -6 Y s 1903 691 m -6 Y s 1917 698 m -13 Y s 1931 691 m -6 Y s 1945 691 m -6 Y s 1959 691 m -6 Y s 1973 691 m -6 Y s 1987 698 m -13 Y s 2001 691 m -6 Y s 2015 691 m -6 Y s 2029 691 m -6 Y s 2043 691 m -6
 Y s 2057 698 m -13 Y s 2071 691 m -6 Y s 2086 691 m -6 Y s 2100 691 m -6 Y s 2114 691 m -6 Y s 2128 698 m -13 Y s 2142 691 m -6 Y s 2156 691 m -6 Y s 2170 691 m -6 Y s 2184 691 m -6 Y s 2198 698 m -13 Y s 1706 698 m -13 Y s 1691 691 m -6 Y s 1677
 691 m -6 Y s 1663 691 m -6 Y s 2198 698 m -13 Y s 1655 1114 m 547 X s 1706 1100 m 14 Y s 1720 1107 m 7 Y s 1734 1107 m 7 Y s 1748 1107 m 7 Y s 1762 1107 m 7 Y s 1776 1100 m 14 Y s 1790 1107 m 7 Y s 1804 1107 m 7 Y s 1818 1107 m 7 Y s 1832 1107 m 7 Y
 s 1846 1100 m 14 Y s 1860 1107 m 7 Y s 1874 1107 m 7 Y s 1889 1107 m 7 Y s 1903 1107 m 7 Y s 1917 1100 m 14 Y s 1931 1107 m 7 Y s 1945 1107 m 7 Y s 1959 1107 m 7 Y s 1973 1107 m 7 Y s 1987 1100 m 14 Y s 2001 1107 m 7 Y s 2015 1107 m 7 Y s 2029 1107
 m 7 Y s 2043 1107 m 7 Y s 2057 1100 m 14 Y s 2071 1107 m 7 Y s 2086 1107 m 7 Y s 2100 1107 m 7 Y s 2114 1107 m 7 Y s 2128 1100 m 14 Y s 2142 1107 m 7 Y s 2156 1107 m 7 Y s 2170 1107 m 7 Y s 2184 1107 m 7 Y s 2198 1100 m 14 Y s 1706 1100 m 14 Y s
 1691 1107 m 7 Y s 1677 1107 m 7 Y s 1663 1107 m 7 Y s 2198 1100 m 14 Y s 1655 685 m 429 Y s 1671 685 m -16 X s 1663 703 m -8 X s 1663 720 m -8 X s 1663 738 m -8 X s 1671 756 m -16 X s 1663 774 m -8 X s 1663 792 m -8 X s 1663 810 m -8 X s 1671 828 m
 -16 X s 1663 846 m -8 X s 1663 864 m -8 X s 1663 882 m -8 X s 1671 900 m -16 X s 1663 918 m -8 X s 1663 936 m -8 X s 1663 954 m -8 X s 1671 972 m -16 X s 1663 990 m -8 X s 1663 1007 m -8 X s 1663 1025 m -8 X s 1671 1043 m -16 X s 1671 1043 m -16 X s
 1663 1061 m -8 X s 1663 1079 m -8 X s 1663 1097 m -8 X s 2202 685 m 429 Y s 2186 685 m 16 X s 2194 703 m 8 X s 2194 720 m 8 X s 2194 738 m 8 X s 2186 756 m 16 X s 2194 774 m 8 X s 2194 792 m 8 X s 2194 810 m 8 X s 2186 828 m 16 X s 2194 846 m 8 X s
 2194 864 m 8 X s 2194 882 m 8 X s 2186 900 m 16 X s 2194 918 m 8 X s 2194 936 m 8 X s 2194 954 m 8 X s 2186 972 m 16 X s 2194 990 m 8 X s 2194 1007 m 8 X s 2194 1025 m 8 X s 2186 1043 m 16 X s 2186 1043 m 16 X s 2194 1061 m 8 X s 2194 1079 m 8 X s
 2194 1097 m 8 X s
 gsave  711 567 1534 603 C 2230.83 682.347 t 90 r /Helvetica-Bold findfont 19.9602 sf 0 0 m (U/O\255flow \(S,B\): \(0.0, 0.0\)% / \(0.0, 0.0\)%) show NC gr  0.490196 0.545098 0.615686 c 0.364706 0.419608 0.490196 c 335 38 1542 1130 bf 0.490196
 0.545098 0.615686 c 1542 1130 m 335 X s 1877 1130 m 38 Y s 1877 1168 m -335 X s 1542 1168 m -38 Y s 1 1 1 c black 1 1 1 c
 gsave  711 567 1534 603 C 1545.91 1142.38 t 0 r /Helvetica-Bold findfont 28.5146 sf 0 0 m (Input variable: yy.HS_l3) show NC gr  0.490196 0.545098 0.615686 c 0.941176 0.941176 0.941176 c 710 567 23 12 bf black 1 1 0.992157 c 548 429 143 94 bf black
 548 429 143 94 bl 0 0 0.933333 c 6 lw 0.49 0.6 0.82 c black 3 lw 0.49 0.6 0.82 c 143 94 m 28 X 203 Y 14 X 93 Y 13 X 94 Y 14 X -59 Y 14 X -5 Y 13 X -17 Y 14 X -76 Y 14 X 17 Y 13 X 4 Y 28 X -33 Y 13 X -21 Y 14 X -35 Y 14 X -2 Y 27 X 17 Y 14 X 32 Y 13
 X -7 Y 14 X -25 Y 14 X 8 Y 13 X -52 Y 14 X -50 Y 14 X -65 Y 13 X 7 Y 14 X 8 Y 14 X -13 Y 13 X -2 Y 14 X -3 Y 14 X -8 Y 27 X -6 Y 14 X -1 Y 14 X -2 Y 27 X 1 Y 14 X -2 Y 41 X f 6 lw 0 0 0.933333 c 0.49 0.6 0.82 c 0 0 0.933333 c 143 94 m 28 X 203 Y 14
 X 93 Y 13 X 94 Y 14 X -59 Y 14 X -5 Y 13 X -17 Y 14 X -76 Y 14 X 17 Y 13 X 4 Y 28 X -33 Y 13 X -21 Y 14 X -35 Y 14 X -2 Y 27 X 17 Y 14 X 32 Y 13 X -7 Y 14 X -25 Y 14 X 8 Y 13 X -52 Y 14 X -50 Y 14 X -65 Y 13 X 7 Y 14 X 8 Y 14 X -13 Y 13 X -2 Y 14 X
 -3 Y 14 X -8 Y 27 X -6 Y 14 X -1 Y 14 X -2 Y 27 X 1 Y 14 X -2 Y 41 X s black 3 lw 143 94 m 548 X s 188 107 m -13 Y s 202 100 m -6 Y s 217 100 m -6 Y s 231 100 m -6 Y s 245 100 m -6 Y s 260 107 m -13 Y s 274 100 m -6 Y s 289 100 m -6 Y s 303 100 m -6
 Y s 318 100 m -6 Y s 332 107 m -13 Y s 346 100 m -6 Y s 361 100 m -6 Y s 375 100 m -6 Y s 390 100 m -6 Y s 404 107 m -13 Y s 419 100 m -6 Y s 433 100 m -6 Y s 447 100 m -6 Y s 462 100 m -6 Y s 476 107 m -13 Y s 491 100 m -6 Y s 505 100 m -6 Y s 519
 100 m -6 Y s 534 100 m -6 Y s 548 107 m -13 Y s 563 100 m -6 Y s 577 100 m -6 Y s 592 100 m -6 Y s 606 100 m -6 Y s 620 107 m -13 Y s 188 107 m -13 Y s 173 100 m -6 Y s 159 100 m -6 Y s 144 100 m -6 Y s 620 107 m -13 Y s 635 100 m -6 Y s 649 100 m
 -6 Y s 664 100 m -6 Y s 678 100 m -6 Y s
 gsave  710 567 23 12 C 176.189 65.3603 t 0 r /Helvetica findfont 25.6631 sf 0 0 m (0.1) show NC gr 
 gsave  710 567 23 12 C 164.822 65.3603 t 0 r /Symbol findfont 25.6631 sf 0 0 m (-) show NC gr 
 gsave  710 567 23 12 C 238.707 65.3603 t 0 r /Helvetica findfont 25.6631 sf 0 0 m (0.05) show NC gr 
 gsave  710 567 23 12 C 227.34 65.3603 t 0 r /Symbol findfont 25.6631 sf 0 0 m (-) show NC gr 
 gsave  710 567 23 12 C 321.118 65.3603 t 0 r /Helvetica findfont 25.6631 sf 0 0 m (0) show NC gr 
 gsave  710 567 23 12 C 377.953 65.3603 t 0 r /Helvetica findfont 25.6631 sf 0 0 m (0.05) show NC gr 
 gsave  710 567 23 12 C 457.522 65.3603 t 0 r /Helvetica findfont 25.6631 sf 0 0 m (0.1) show NC gr 
 gsave  710 567 23 12 C 520.04 65.3603 t 0 r /Helvetica findfont 25.6631 sf 0 0 m (0.15) show NC gr 
 gsave  710 567 23 12 C 602.451 65.3603 t 0 r /Helvetica findfont 25.6631 sf 0 0 m (0.2) show NC gr 
 gsave  710 567 23 12 C 579.717 25.5758 t 0 r /Helvetica findfont 28.5146 sf 0 0 m (yy.HS_l4) show NC gr  143 523 m 548 X s 188 509 m 14 Y s 202 516 m 7 Y s 217 516 m 7 Y s 231 516 m 7 Y s 245 516 m 7 Y s 260 509 m 14 Y s 274 516 m 7 Y s 289 516 m 7
 Y s 303 516 m 7 Y s 318 516 m 7 Y s 332 509 m 14 Y s 346 516 m 7 Y s 361 516 m 7 Y s 375 516 m 7 Y s 390 516 m 7 Y s 404 509 m 14 Y s 419 516 m 7 Y s 433 516 m 7 Y s 447 516 m 7 Y s 462 516 m 7 Y s 476 509 m 14 Y s 491 516 m 7 Y s 505 516 m 7 Y s
 519 516 m 7 Y s 534 516 m 7 Y s 548 509 m 14 Y s 563 516 m 7 Y s 577 516 m 7 Y s 592 516 m 7 Y s 606 516 m 7 Y s 620 509 m 14 Y s 188 509 m 14 Y s 173 516 m 7 Y s 159 516 m 7 Y s 144 516 m 7 Y s 620 509 m 14 Y s 635 516 m 7 Y s 649 516 m 7 Y s 664
 516 m 7 Y s 678 516 m 7 Y s 143 94 m 429 Y s 160 94 m -17 X s 152 103 m -9 X s 152 113 m -9 X s 152 123 m -9 X s 152 133 m -9 X s 160 142 m -17 X s 152 152 m -9 X s 152 162 m -9 X s 152 172 m -9 X s 152 181 m -9 X s 160 191 m -17 X s 152 201 m -9 X
 s 152 211 m -9 X s 152 220 m -9 X s 152 230 m -9 X s 160 240 m -17 X s 152 250 m -9 X s 152 259 m -9 X s 152 269 m -9 X s 152 279 m -9 X s 160 288 m -17 X s 152 298 m -9 X s 152 308 m -9 X s 152 318 m -9 X s 152 327 m -9 X s 160 337 m -17 X s 152
 347 m -9 X s 152 357 m -9 X s 152 366 m -9 X s 152 376 m -9 X s 160 386 m -17 X s 152 396 m -9 X s 152 405 m -9 X s 152 415 m -9 X s 152 425 m -9 X s 160 435 m -17 X s 152 444 m -9 X s 152 454 m -9 X s 152 464 m -9 X s 152 474 m -9 X s 160 483 m -17
 X s 160 483 m -17 X s 152 493 m -9 X s 152 503 m -9 X s 152 513 m -9 X s 152 522 m -9 X s
 gsave  710 567 23 12 C 119.354 82.4108 t 0 r /Helvetica findfont 25.6631 sf 0 0 m (0) show NC gr 
 gsave  710 567 23 12 C 122.195 133.562 t 0 r /Helvetica findfont 25.6631 sf 0 0 m (1) show NC gr 
 gsave  710 567 23 12 C 119.354 181.872 t 0 r /Helvetica findfont 25.6631 sf 0 0 m (2) show NC gr 
 gsave  710 567 23 12 C 119.354 230.182 t 0 r /Helvetica findfont 25.6631 sf 0 0 m (3) show NC gr 
 gsave  710 567 23 12 C 119.354 278.492 t 0 r /Helvetica findfont 25.6631 sf 0 0 m (4) show NC gr 
 gsave  710 567 23 12 C 119.354 326.801 t 0 r /Helvetica findfont 25.6631 sf 0 0 m (5) show NC gr 
 gsave  710 567 23 12 C 119.354 375.111 t 0 r /Helvetica findfont 25.6631 sf 0 0 m (6) show NC gr 
 gsave  710 567 23 12 C 119.354 423.421 t 0 r /Helvetica findfont 25.6631 sf 0 0 m (7) show NC gr 
 gsave  710 567 23 12 C 119.354 474.572 t 0 r /Helvetica findfont 25.6631 sf 0 0 m (8) show NC gr 
 gsave  710 567 23 12 C 45.468 414.896 t 90 r /Helvetica findfont 28.5146 sf 0 0 m (0.00948 ) show NC gr 
 gsave  710 567 23 12 C 31.2593 412.054 t 90 r /Helvetica findfont 19.9602 sf 0 0 m ( ) show NC gr 
 gsave  710 567 23 12 C 45.468 400.687 t 90 r /Helvetica findfont 28.5146 sf 0 0 m (/) show NC gr 
 gsave  710 567 23 12 C 53.9933 397.845 t 90 r /Helvetica findfont 19.9602 sf 0 0 m ( ) show NC gr 
 gsave  710 567 23 12 C 45.468 292.7 t 90 r /Helvetica findfont 28.5146 sf 0 0 m (\(1/N\) dN) show NC gr  691 94 m 429 Y s 674 94 m 17 X s 683 103 m 8 X s 683 113 m 8 X s 683 123 m 8 X s 683 133 m 8 X s 674 142 m 17 X s 683 152 m 8 X s 683 162 m 8 X
 s 683 172 m 8 X s 683 181 m 8 X s 674 191 m 17 X s 683 201 m 8 X s 683 211 m 8 X s 683 220 m 8 X s 683 230 m 8 X s 674 240 m 17 X s 683 250 m 8 X s 683 259 m 8 X s 683 269 m 8 X s 683 279 m 8 X s 674 288 m 17 X s 683 298 m 8 X s 683 308 m 8 X s 683
 318 m 8 X s 683 327 m 8 X s 674 337 m 17 X s 683 347 m 8 X s 683 357 m 8 X s 683 366 m 8 X s 683 376 m 8 X s 674 386 m 17 X s 683 396 m 8 X s 683 405 m 8 X s 683 415 m 8 X s 683 425 m 8 X s 674 435 m 17 X s 683 444 m 8 X s 683 454 m 8 X s 683 464 m
 8 X s 683 474 m 8 X s 674 483 m 17 X s 674 483 m 17 X s 683 493 m 8 X s 683 503 m 8 X s 683 513 m 8 X s 683 522 m 8 X s 0.490196 0.545098 0.615686 c 0.364706 0.419608 0.490196 c 335 37 30 539 bf 0.490196 0.545098 0.615686 c 30 539 m 335 X s 365 539
 m 37 Y s 365 576 m -335 X s 30 576 m -37 Y s 1 1 1 c black 1 1 1 c
 gsave  710 567 23 12 C 34.101 551.299 t 0 r /Helvetica-Bold findfont 28.5146 sf 0 0 m (Input variable: yy.HS_l4) show NC gr  1 0 0 c 6 lw black 3 lw 1 0 0 c 677 94 m s 662 94 m s 647 94 m -1 X s 632 94 m -1 X s 617 95 m -1 -1 d s 609 101 m -8 -7 d s
 595 102 m -9 -8 d s 595 117 m -14 -13 d s 572 95 m -1 -1 d s 595 133 m -14 -14 d s 564 102 m -8 -8 d s 543 95 m -2 -1 d s 530 97 m -4 -3 d s 526 109 m -15 -15 d s 526 125 m -30 -31 d s 526 140 m -45 -46 d s 526 155 m -27 -28 d s 486 115 m -20 -21 d
 s 526 170 m -27 -27 d s 472 115 m -22 -21 d s 526 185 m -13 -14 d s 503 162 m -4 -4 d s 472 130 m -37 -36 d s 526 200 m -13 -13 d s 472 145 m -52 -51 d s 526 216 m -13 -14 d s 472 161 m -67 -67 d s 526 231 m -13 -14 d s 472 176 m -82 -82 d s 523 242
 m -10 -10 d s 472 191 m -97 -97 d s 472 206 m -112 -112 d s 472 221 m -127 -127 d s 458 223 m -128 -129 d s 458 238 m -143 -144 d s 458 253 m -158 -159 d s 458 268 m -173 -174 d s 458 283 m -188 -189 d s 458 299 m -203 -205 d s 458 314 m -109 -110 d
 s 346 201 m -11 -11 d s 329 184 m -90 -90 d s 450 321 m -33 -33 d s 409 280 m -60 -61 d s 321 191 m -97 -97 d s 444 330 m -27 -27 d s 403 289 m -54 -55 d s 321 206 m -112 -112 d s 444 346 m -27 -28 d s 403 304 m -13 -14 d s 389 290 m -40 -41 d s 321
 222 m -127 -128 d s 444 361 m -27 -28 d s 403 319 m -13 -13 d s 371 287 m -22 -23 d s 321 237 m -142 -143 d s 444 376 m -27 -28 d s 403 335 m -13 -14 d s 362 293 m -13 -14 d s 321 252 m -150 -152 d s 164 94 m s 444 391 m -13 -14 d s 420 367 m -3 -4
 d s 403 350 m -13 -14 d s 362 308 m -13 -13 d s 321 267 m -150 -151 d s 149 94 m s 444 406 m -13 -14 d s 403 365 m -13 -14 d s 355 317 m -6 -7 d s 321 282 m -150 -151 d s 440 417 m -9 -9 d s 403 380 m -13 -14 d s 321 297 m -150 -151 d s 403 395 m
 -13 -14 d s 321 313 m -41 -42 d s 279 270 m -108 -109 d s 321 328 m -27 -28 d s 291 297 m -11 -11 d s 267 273 m -96 -97 d s 321 343 m -27 -28 d s 267 288 m -96 -97 d s 321 358 m -13 -14 d s 299 336 m -5 -5 d s 267 303 m -96 -96 d s 321 373 m -13 -13
 d s 267 318 m -14 -14 d s 248 299 m -77 -77 d s 321 389 m -13 -14 d s 267 333 m -14 -13 d s 239 306 m -68 -69 d s 309 392 m -1 -2 d s 267 349 m -14 -14 d s 239 321 m -13 -14 d s 220 302 m -49 -50 d s 261 358 m -8 -8 d s 239 336 m -13 -14 d s 199 296
 m -28 -29 d s 234 346 m -8 -8 d s 198 310 m -27 -27 d s 198 325 m -27 -27 d s 198 340 m -27 -27 d s 198 356 m -13 -14 d s 176 333 m -5 -5 d s 193 365 m -8 -8 d s 6 lw 143 94 m 28 X 239 Y 14 X 32 Y 13 X -69 Y 14 X 6 Y 14 X 44 Y 13 X -47 Y 14 X 59 Y
 14 X -88 Y 13 X 27 Y 14 X 39 Y 14 X 56 Y 13 X -208 Y 14 X 17 Y 14 X 116 Y 13 X -30 Y 14 X 3 Y 14 X 105 Y 13 X -115 Y 14 X 87 Y 14 X 50 Y 13 X -96 Y 14 X -99 Y 14 X -107 Y 27 X 47 Y 14 X 80 Y 13 X -145 Y 14 X -2 Y 14 X 7 Y 13 X -7 Y 14 X 38 Y 14 X
 -31 Y 14 X -7 Y 13 X -1 Y 69 X s black 3 lw 143 94 m 548 X s 188 107 m -13 Y s 202 100 m -6 Y s 217 100 m -6 Y s 231 100 m -6 Y s 245 100 m -6 Y s 260 107 m -13 Y s 274 100 m -6 Y s 289 100 m -6 Y s 303 100 m -6 Y s 318 100 m -6 Y s 332 107 m -13 Y
 s 346 100 m -6 Y s 361 100 m -6 Y s 375 100 m -6 Y s 390 100 m -6 Y s 404 107 m -13 Y s 419 100 m -6 Y s 433 100 m -6 Y s 447 100 m -6 Y s 462 100 m -6 Y s 476 107 m -13 Y s 491 100 m -6 Y s 505 100 m -6 Y s 519 100 m -6 Y s 534 100 m -6 Y s 548 107
 m -13 Y s 563 100 m -6 Y s 577 100 m -6 Y s 592 100 m -6 Y s 606 100 m -6 Y s 620 107 m -13 Y s 188 107 m -13 Y s 173 100 m -6 Y s 159 100 m -6 Y s 144 100 m -6 Y s 620 107 m -13 Y s 635 100 m -6 Y s 649 100 m -6 Y s 664 100 m -6 Y s 678 100 m -6 Y
 s 143 523 m 548 X s 188 509 m 14 Y s 202 516 m 7 Y s 217 516 m 7 Y s 231 516 m 7 Y s 245 516 m 7 Y s 260 509 m 14 Y s 274 516 m 7 Y s 289 516 m 7 Y s 303 516 m 7 Y s 318 516 m 7 Y s 332 509 m 14 Y s 346 516 m 7 Y s 361 516 m 7 Y s 375 516 m 7 Y s
 390 516 m 7 Y s 404 509 m 14 Y s 419 516 m 7 Y s 433 516 m 7 Y s 447 516 m 7 Y s 462 516 m 7 Y s 476 509 m 14 Y s 491 516 m 7 Y s 505 516 m 7 Y s 519 516 m 7 Y s 534 516 m 7 Y s 548 509 m 14 Y s 563 516 m 7 Y s 577 516 m 7 Y s 592 516 m 7 Y s 606
 516 m 7 Y s 620 509 m 14 Y s 188 509 m 14 Y s 173 516 m 7 Y s 159 516 m 7 Y s 144 516 m 7 Y s 620 509 m 14 Y s 635 516 m 7 Y s 649 516 m 7 Y s 664 516 m 7 Y s 678 516 m 7 Y s 143 94 m 429 Y s 160 94 m -17 X s 152 103 m -9 X s 152 113 m -9 X s 152
 123 m -9 X s 152 133 m -9 X s 160 142 m -17 X s 152 152 m -9 X s 152 162 m -9 X s 152 172 m -9 X s 152 181 m -9 X s 160 191 m -17 X s 152 201 m -9 X s 152 211 m -9 X s 152 220 m -9 X s 152 230 m -9 X s 160 240 m -17 X s 152 250 m -9 X s 152 259 m -9
 X s 152 269 m -9 X s 152 279 m -9 X s 160 288 m -17 X s 152 298 m -9 X s 152 308 m -9 X s 152 318 m -9 X s 152 327 m -9 X s 160 337 m -17 X s 152 347 m -9 X s 152 357 m -9 X s 152 366 m -9 X s 152 376 m -9 X s 160 386 m -17 X s 152 396 m -9 X s 152
 405 m -9 X s 152 415 m -9 X s 152 425 m -9 X s 160 435 m -17 X s 152 444 m -9 X s 152 454 m -9 X s 152 464 m -9 X s 152 474 m -9 X s 160 483 m -17 X s 160 483 m -17 X s 152 493 m -9 X s 152 503 m -9 X s 152 513 m -9 X s 152 522 m -9 X s 691 94 m 429
 Y s 674 94 m 17 X s 683 103 m 8 X s 683 113 m 8 X s 683 123 m 8 X s 683 133 m 8 X s 674 142 m 17 X s 683 152 m 8 X s 683 162 m 8 X s 683 172 m 8 X s 683 181 m 8 X s 674 191 m 17 X s 683 201 m 8 X s 683 211 m 8 X s 683 220 m 8 X s 683 230 m 8 X s 674
 240 m 17 X s 683 250 m 8 X s 683 259 m 8 X s 683 269 m 8 X s 683 279 m 8 X s 674 288 m 17 X s 683 298 m 8 X s 683 308 m 8 X s 683 318 m 8 X s 683 327 m 8 X s 674 337 m 17 X s 683 347 m 8 X s 683 357 m 8 X s 683 366 m 8 X s 683 376 m 8 X s 674 386 m
 17 X s 683 396 m 8 X s 683 405 m 8 X s 683 415 m 8 X s 683 425 m 8 X s 674 435 m 17 X s 683 444 m 8 X s 683 454 m 8 X s 683 464 m 8 X s 683 474 m 8 X s 674 483 m 17 X s 674 483 m 17 X s 683 493 m 8 X s 683 503 m 8 X s 683 513 m 8 X s 683 522 m 8 X s
 gsave  710 567 23 12 C 719.017 91.2634 t 90 r /Helvetica-Bold findfont 19.9602 sf 0 0 m (U/O\255flow \(S,B\): \(0.0, 0.0\)% / \(0.0, 0.0\)%) show NC gr  0.490196 0.545098 0.615686 c 0.364706 0.419608 0.490196 c 335 37 30 539 bf 0.490196 0.545098
 0.615686 c 30 539 m 335 X s 365 539 m 37 Y s 365 576 m -335 X s 30 576 m -37 Y s 1 1 1 c black 1 1 1 c
 gsave  710 567 23 12 C 34.101 551.299 t 0 r /Helvetica-Bold findfont 28.5146 sf 0 0 m (Input variable: yy.HS_l4) show NC gr  0.490196 0.545098 0.615686 c 0.941176 0.941176 0.941176 c 710 567 779 12 bf black 1 1 0.992157 c 548 429 899 94 bf black 548
 429 899 94 bl 0 0 0.933333 c 6 lw 0.49 0.6 0.82 c black 3 lw 0.49 0.6 0.82 c 899 94 m 226 Y 14 X -9 Y 14 X -28 Y 13 X 26 Y 14 X -26 Y 14 X -1 Y 13 X -8 Y 14 X -16 Y 14 X -14 Y 13 X 15 Y 14 X 10 Y 14 X 24 Y 14 X -29 Y 13 X -39 Y 14 X 43 Y 14 X -23 Y
 13 X 68 Y 14 X 2 Y 14 X -45 Y 13 X 45 Y 14 X -8 Y 14 X -17 Y 13 X -180 Y 14 X -3 Y 14 X -4 Y 13 X 5 Y 14 X -9 Y 27 X -1 Y 28 X -2 Y 13 X -1 Y 14 X 1 Y 14 X -1 Y 13 X -1 Y 83 X f 6 lw 0 0 0.933333 c 0.49 0.6 0.82 c 0 0 0.933333 c 899 320 m 14 X -9 Y
 14 X -28 Y 13 X 26 Y 14 X -26 Y 14 X -1 Y 13 X -8 Y 14 X -16 Y 14 X -14 Y 13 X 15 Y 14 X 10 Y 14 X 24 Y 14 X -29 Y 13 X -39 Y 14 X 43 Y 14 X -23 Y 13 X 68 Y 14 X 2 Y 14 X -45 Y 13 X 45 Y 14 X -8 Y 14 X -17 Y 13 X -180 Y 14 X -3 Y 14 X -4 Y 13 X 5 Y
 14 X -9 Y 27 X -1 Y 28 X -2 Y 13 X -1 Y 14 X 1 Y 14 X -1 Y 13 X -1 Y 83 X s black 3 lw 899 94 m 548 X s 907 107 m -13 Y s 923 100 m -6 Y s 939 100 m -6 Y s 954 100 m -6 Y s 970 100 m -6 Y s 986 107 m -13 Y s 1002 100 m -6 Y s 1017 100 m -6 Y s 1033
 100 m -6 Y s 1049 100 m -6 Y s 1065 107 m -13 Y s 1080 100 m -6 Y s 1096 100 m -6 Y s 1112 100 m -6 Y s 1127 100 m -6 Y s 1143 107 m -13 Y s 1159 100 m -6 Y s 1175 100 m -6 Y s 1190 100 m -6 Y s 1206 100 m -6 Y s 1222 107 m -13 Y s 1238 100 m -6 Y s
 1253 100 m -6 Y s 1269 100 m -6 Y s 1285 100 m -6 Y s 1301 107 m -13 Y s 1316 100 m -6 Y s 1332 100 m -6 Y s 1348 100 m -6 Y s 1364 100 m -6 Y s 1379 107 m -13 Y s 907 107 m -13 Y s 1379 107 m -13 Y s 1395 100 m -6 Y s 1411 100 m -6 Y s 1427 100 m
 -6 Y s 1442 100 m -6 Y s
 gsave  710 567 779 12 C 895.151 65.3603 t 0 r /Helvetica findfont 25.6631 sf 0 0 m (0.1) show NC gr 
 gsave  710 567 779 12 C 883.784 65.3603 t 0 r /Symbol findfont 25.6631 sf 0 0 m (-) show NC gr 
 gsave  710 567 779 12 C 963.353 65.3603 t 0 r /Helvetica findfont 25.6631 sf 0 0 m (0.05) show NC gr 
 gsave  710 567 779 12 C 951.986 65.3603 t 0 r /Symbol findfont 25.6631 sf 0 0 m (-) show NC gr 
 gsave  710 567 779 12 C 1054.29 65.3603 t 0 r /Helvetica findfont 25.6631 sf 0 0 m (0) show NC gr 
 gsave  710 567 779 12 C 1116.81 65.3603 t 0 r /Helvetica findfont 25.6631 sf 0 0 m (0.05) show NC gr 
 gsave  710 567 779 12 C 1202.06 65.3603 t 0 r /Helvetica findfont 25.6631 sf 0 0 m (0.1) show NC gr 
 gsave  710 567 779 12 C 1273.1 65.3603 t 0 r /Helvetica findfont 25.6631 sf 0 0 m (0.15) show NC gr 
 gsave  710 567 779 12 C 1361.2 65.3603 t 0 r /Helvetica findfont 25.6631 sf 0 0 m (0.2) show NC gr 
 gsave  710 567 779 12 C 1335.62 25.5758 t 0 r /Helvetica findfont 28.5146 sf 0 0 m (yy.HS_l5) show NC gr  899 523 m 548 X s 907 509 m 14 Y s 923 516 m 7 Y s 939 516 m 7 Y s 954 516 m 7 Y s 970 516 m 7 Y s 986 509 m 14 Y s 1002 516 m 7 Y s 1017 516 m
 7 Y s 1033 516 m 7 Y s 1049 516 m 7 Y s 1065 509 m 14 Y s 1080 516 m 7 Y s 1096 516 m 7 Y s 1112 516 m 7 Y s 1127 516 m 7 Y s 1143 509 m 14 Y s 1159 516 m 7 Y s 1175 516 m 7 Y s 1190 516 m 7 Y s 1206 516 m 7 Y s 1222 509 m 14 Y s 1238 516 m 7 Y s
 1253 516 m 7 Y s 1269 516 m 7 Y s 1285 516 m 7 Y s 1301 509 m 14 Y s 1316 516 m 7 Y s 1332 516 m 7 Y s 1348 516 m 7 Y s 1364 516 m 7 Y s 1379 509 m 14 Y s 907 509 m 14 Y s 1379 509 m 14 Y s 1395 516 m 7 Y s 1411 516 m 7 Y s 1427 516 m 7 Y s 1442 516
 m 7 Y s 899 94 m 429 Y s 915 94 m -16 X s 907 112 m -8 X s 907 130 m -8 X s 907 149 m -8 X s 915 167 m -16 X s 907 185 m -8 X s 907 204 m -8 X s 907 222 m -8 X s 915 240 m -16 X s 907 259 m -8 X s 907 277 m -8 X s 907 295 m -8 X s 915 314 m -16 X s
 907 332 m -8 X s 907 350 m -8 X s 907 369 m -8 X s 915 387 m -16 X s 907 405 m -8 X s 907 424 m -8 X s 907 442 m -8 X s 915 460 m -16 X s 915 460 m -16 X s 907 479 m -8 X s 907 497 m -8 X s 907 516 m -8 X s
 gsave  710 567 779 12 C 875.259 82.4108 t 0 r /Helvetica findfont 25.6631 sf 0 0 m (0) show NC gr 
 gsave  710 567 779 12 C 875.259 156.296 t 0 r /Helvetica findfont 25.6631 sf 0 0 m (2) show NC gr 
 gsave  710 567 779 12 C 875.259 230.182 t 0 r /Helvetica findfont 25.6631 sf 0 0 m (4) show NC gr 
 gsave  710 567 779 12 C 875.259 304.067 t 0 r /Helvetica findfont 25.6631 sf 0 0 m (6) show NC gr 
 gsave  710 567 779 12 C 875.259 377.953 t 0 r /Helvetica findfont 25.6631 sf 0 0 m (8) show NC gr 
 gsave  710 567 779 12 C 861.05 451.838 t 0 r /Helvetica findfont 25.6631 sf 0 0 m (10) show NC gr 
 gsave  710 567 779 12 C 801.374 414.896 t 90 r /Helvetica findfont 28.5146 sf 0 0 m (0.00869 ) show NC gr 
 gsave  710 567 779 12 C 787.165 412.054 t 90 r /Helvetica findfont 19.9602 sf 0 0 m ( ) show NC gr 
 gsave  710 567 779 12 C 801.374 400.687 t 90 r /Helvetica findfont 28.5146 sf 0 0 m (/) show NC gr 
 gsave  710 567 779 12 C 809.899 397.845 t 90 r /Helvetica findfont 19.9602 sf 0 0 m ( ) show NC gr 
 gsave  710 567 779 12 C 801.374 292.7 t 90 r /Helvetica findfont 28.5146 sf 0 0 m (\(1/N\) dN) show NC gr  1447 94 m 429 Y s 1430 94 m 17 X s 1438 112 m 9 X s 1438 130 m 9 X s 1438 149 m 9 X s 1430 167 m 17 X s 1438 185 m 9 X s 1438 204 m 9 X s 1438
 222 m 9 X s 1430 240 m 17 X s 1438 259 m 9 X s 1438 277 m 9 X s 1438 295 m 9 X s 1430 314 m 17 X s 1438 332 m 9 X s 1438 350 m 9 X s 1438 369 m 9 X s 1430 387 m 17 X s 1438 405 m 9 X s 1438 424 m 9 X s 1438 442 m 9 X s 1430 460 m 17 X s 1430 460 m
 17 X s 1438 479 m 9 X s 1438 497 m 9 X s 1438 516 m 9 X s 0.490196 0.545098 0.615686 c 0.364706 0.419608 0.490196 c 335 37 786 539 bf 0.490196 0.545098 0.615686 c 786 539 m 335 X s 1121 539 m 37 Y s 1121 576 m -335 X s 786 576 m -37 Y s 1 1 1 c
 black 1 1 1 c
 gsave  710 567 779 12 C 790.007 551.299 t 0 r /Helvetica-Bold findfont 28.5146 sf 0 0 m (Input variable: yy.HS_l5) show NC gr  1 0 0 c 6 lw black 3 lw 1 0 0 c 1432 94 m s 1417 94 m s 1402 94 m cl s 1387 94 m s 1372 94 m s 1358 94 m -1 X s 1343 94 m
 -1 X s 1327 94 m s 1323 105 m -11 -11 d s 1297 94 m s 1296 108 m -14 -14 d s 1294 121 m -12 -12 d s 1269 96 m -2 -2 d s 1259 101 m -4 -4 d s 1254 96 m -2 -2 d s 1241 98 m -4 -4 d s 1234 106 m -13 -12 d s 1228 115 m -22 -21 d s 1228 130 m -14 -14 d s
 1205 108 m -14 -14 d s 1228 145 m -14 -13 d s 1200 118 m -24 -24 d s 1228 161 m -14 -14 d s 1200 133 m -39 -39 d s 1228 176 m -14 -14 d s 1200 148 m -54 -54 d s 1228 191 m -14 -14 d s 1200 163 m -69 -69 d s 1226 204 m -12 -12 d s 1200 178 m -84 -84
 d s 1200 194 m -99 -100 d s 1200 209 m -114 -115 d s 1200 224 m -129 -130 d s 1200 239 m -144 -145 d s 1200 254 m -13 -13 d s 1175 229 m -134 -135 d s 1199 269 m -12 -13 d s 1173 242 m -147 -148 d s 1173 257 m -163 -163 d s 1173 272 m -41 -41 d s
 1118 217 m -123 -123 d s 1160 275 m -28 -29 d s 1118 232 m -13 -13 d s 1102 216 m -122 -122 d s 1159 289 m -13 -14 d s 1137 267 m -5 -6 d s 1118 248 m -13 -14 d s 1091 220 m -126 -126 d s 1159 304 m -13 -14 d s 1118 263 m -13 -14 d s 1082 226 m -32
 -32 d s 1041 185 m -91 -91 d s 1159 319 m -13 -13 d s 1118 278 m -13 -14 d s 1077 237 m -27 -28 d s 1036 195 m -101 -101 d s 1159 335 m -13 -14 d s 1118 293 m -13 -14 d s 1077 252 m -27 -28 d s 1036 211 m -116 -117 d s 1159 350 m -13 -14 d s 1117
 307 m -12 -12 d s 1077 267 m -27 -28 d s 1036 226 m -131 -132 d s 1159 365 m -13 -14 d s 1077 282 m -27 -27 d s 1036 241 m -137 -138 d s 1159 380 m -13 -14 d s 1075 295 m -25 -25 d s 1036 256 m -137 -138 d s 1159 395 m -13 -14 d s 1064 299 m -14 -14
 d s 1036 271 m -137 -138 d s 1159 410 m -13 -13 d s 1064 314 m -14 -14 d s 1036 286 m -27 -27 d s 1006 256 m -107 -107 d s 1159 426 m -13 -14 d s 1064 329 m -14 -14 d s 1036 302 m -27 -28 d s 981 247 m -41 -42 d s 934 199 m -35 -35 d s 1159 441 m
 -13 -14 d s 1064 344 m -14 -13 d s 1036 317 m -14 -14 d s 1010 290 m -1 -1 d s 981 262 m -41 -42 d s 926 206 m -27 -27 d s 1159 456 m -13 -14 d s 1027 323 m -5 -5 d s 981 277 m -27 -28 d s 943 238 m -3 -2 d s 913 208 m -14 -14 d s 1159 471 m -13 -14
 d s 981 292 m -13 -14 d s 960 270 m -6 -5 d s 913 223 m -14 -14 d s 1156 484 m -10 -11 d s 981 307 m -13 -14 d s 913 238 m -14 -13 d s 981 322 m -13 -13 d s 913 254 m -14 -14 d s 981 338 m -13 -14 d s 913 269 m -14 -14 d s 981 353 m -13 -14 d s 908
 279 m -9 -9 d s 981 368 m -13 -14 d s 981 383 m -13 -14 d s 981 398 m -13 -13 d s 981 414 m -13 -14 d s 981 429 m -13 -14 d s 981 444 m -13 -14 d s 981 459 m -13 -14 d s 979 471 m -11 -11 d s 6 lw 899 279 m 14 X -73 Y 14 X -7 Y 13 X 39 Y 14 X 32 Y
 14 X 201 Y 13 X -225 Y 14 X 10 Y 14 X 34 Y 13 X 33 Y 14 X -138 Y 14 X 159 Y 14 X -49 Y 13 X -69 Y 14 X -10 Y 14 X 91 Y 13 X -90 Y 14 X 50 Y 14 X 217 Y 13 X -209 Y 14 X -46 Y 14 X 40 Y 13 X -161 Y 14 X 96 Y 14 X -98 Y 13 X -10 Y 14 X 5 Y 14 X -7 Y 13
 X 27 Y 14 X -27 Y 14 X 12 Y 13 X -12 Y 124 X s black 3 lw 899 94 m 548 X s 907 107 m -13 Y s 923 100 m -6 Y s 939 100 m -6 Y s 954 100 m -6 Y s 970 100 m -6 Y s 986 107 m -13 Y s 1002 100 m -6 Y s 1017 100 m -6 Y s 1033 100 m -6 Y s 1049 100 m -6 Y
 s 1065 107 m -13 Y s 1080 100 m -6 Y s 1096 100 m -6 Y s 1112 100 m -6 Y s 1127 100 m -6 Y s 1143 107 m -13 Y s 1159 100 m -6 Y s 1175 100 m -6 Y s 1190 100 m -6 Y s 1206 100 m -6 Y s 1222 107 m -13 Y s 1238 100 m -6 Y s 1253 100 m -6 Y s 1269 100 m
 -6 Y s 1285 100 m -6 Y s 1301 107 m -13 Y s 1316 100 m -6 Y s 1332 100 m -6 Y s 1348 100 m -6 Y s 1364 100 m -6 Y s 1379 107 m -13 Y s 907 107 m -13 Y s 1379 107 m -13 Y s 1395 100 m -6 Y s 1411 100 m -6 Y s 1427 100 m -6 Y s 1442 100 m -6 Y s 899
 523 m 548 X s 907 509 m 14 Y s 923 516 m 7 Y s 939 516 m 7 Y s 954 516 m 7 Y s 970 516 m 7 Y s 986 509 m 14 Y s 1002 516 m 7 Y s 1017 516 m 7 Y s 1033 516 m 7 Y s 1049 516 m 7 Y s 1065 509 m 14 Y s 1080 516 m 7 Y s 1096 516 m 7 Y s 1112 516 m 7 Y s
 1127 516 m 7 Y s 1143 509 m 14 Y s 1159 516 m 7 Y s 1175 516 m 7 Y s 1190 516 m 7 Y s 1206 516 m 7 Y s 1222 509 m 14 Y s 1238 516 m 7 Y s 1253 516 m 7 Y s 1269 516 m 7 Y s 1285 516 m 7 Y s 1301 509 m 14 Y s 1316 516 m 7 Y s 1332 516 m 7 Y s 1348 516
 m 7 Y s 1364 516 m 7 Y s 1379 509 m 14 Y s 907 509 m 14 Y s 1379 509 m 14 Y s 1395 516 m 7 Y s 1411 516 m 7 Y s 1427 516 m 7 Y s 1442 516 m 7 Y s 899 94 m 429 Y s 915 94 m -16 X s 907 112 m -8 X s 907 130 m -8 X s 907 149 m -8 X s 915 167 m -16 X s
 907 185 m -8 X s 907 204 m -8 X s 907 222 m -8 X s 915 240 m -16 X s 907 259 m -8 X s 907 277 m -8 X s 907 295 m -8 X s 915 314 m -16 X s 907 332 m -8 X s 907 350 m -8 X s 907 369 m -8 X s 915 387 m -16 X s 907 405 m -8 X s 907 424 m -8 X s 907 442
 m -8 X s 915 460 m -16 X s 915 460 m -16 X s 907 479 m -8 X s 907 497 m -8 X s 907 516 m -8 X s 1447 94 m 429 Y s 1430 94 m 17 X s 1438 112 m 9 X s 1438 130 m 9 X s 1438 149 m 9 X s 1430 167 m 17 X s 1438 185 m 9 X s 1438 204 m 9 X s 1438 222 m 9 X
 s 1430 240 m 17 X s 1438 259 m 9 X s 1438 277 m 9 X s 1438 295 m 9 X s 1430 314 m 17 X s 1438 332 m 9 X s 1438 350 m 9 X s 1438 369 m 9 X s 1430 387 m 17 X s 1438 405 m 9 X s 1438 424 m 9 X s 1438 442 m 9 X s 1430 460 m 17 X s 1430 460 m 17 X s 1438
 479 m 9 X s 1438 497 m 9 X s 1438 516 m 9 X s
 gsave  710 567 779 12 C 1474.92 91.2634 t 90 r /Helvetica-Bold findfont 19.9602 sf 0 0 m (U/O\255flow \(S,B\): \(0.0, 0.0\)% / \(0.0, 0.0\)%) show NC gr  0.490196 0.545098 0.615686 c 0.364706 0.419608 0.490196 c 335 37 786 539 bf 0.490196 0.545098
 0.615686 c 786 539 m 335 X s 1121 539 m 37 Y s 1121 576 m -335 X s 786 576 m -37 Y s 1 1 1 c black 1 1 1 c
 gsave  710 567 779 12 C 790.007 551.299 t 0 r /Helvetica-Bold findfont 28.5146 sf 0 0 m (Input variable: yy.HS_l5) show NC gr  0.490196 0.545098 0.615686 c 0.941176 0.941176 0.941176 c 711 567 1534 12 bf black 1 1 0.992157 c 547 429 1655 94 bf black
 547 429 1655 94 bl 0 0 0.933333 c 6 lw 0.49 0.6 0.82 c black 3 lw 0.49 0.6 0.82 c 1655 94 m 14 X 1 Y 14 X 8 Y 13 X 40 Y 14 X 76 Y 14 X 133 Y 13 X 75 Y 14 X -3 Y 14 X -57 Y 13 X -48 Y 14 X 27 Y 14 X -22 Y 13 X 4 Y 14 X -109 Y 14 X 45 Y 13 X 23 Y 14 X
 -3 Y 14 X -35 Y 13 X 6 Y 14 X -1 Y 14 X -5 Y 14 X -7 Y 13 X -11 Y 14 X 36 Y 14 X -51 Y 13 X 8 Y 14 X 9 Y 14 X -20 Y 13 X -33 Y 14 X 77 Y 14 X -67 Y 13 X 3 Y 14 X 8 Y 14 X -41 Y 13 X 11 Y 14 X -43 Y 14 X -12 Y 13 X -12 Y 14 X -10 Y 27 X f 6 lw 0 0
 0.933333 c 0.49 0.6 0.82 c 0 0 0.933333 c 1655 94 m 14 X 1 Y 14 X 8 Y 13 X 40 Y 14 X 76 Y 14 X 133 Y 13 X 75 Y 14 X -3 Y 14 X -57 Y 13 X -48 Y 14 X 27 Y 14 X -22 Y 13 X 4 Y 14 X -109 Y 14 X 45 Y 13 X 23 Y 14 X -3 Y 14 X -35 Y 13 X 6 Y 14 X -1 Y 14 X
 -5 Y 14 X -7 Y 13 X -11 Y 14 X 36 Y 14 X -51 Y 13 X 8 Y 14 X 9 Y 14 X -20 Y 13 X -33 Y 14 X 77 Y 14 X -67 Y 13 X 3 Y 14 X 8 Y 14 X -41 Y 13 X 11 Y 14 X -43 Y 14 X -12 Y 13 X -12 Y 14 X -10 Y 27 X s black 3 lw 1655 94 m 547 X s 1671 107 m -13 Y s
 1689 100 m -6 Y s 1708 100 m -6 Y s 1727 100 m -6 Y s 1746 100 m -6 Y s 1765 107 m -13 Y s 1784 100 m -6 Y s 1803 100 m -6 Y s 1821 100 m -6 Y s 1840 100 m -6 Y s 1859 107 m -13 Y s 1878 100 m -6 Y s 1897 100 m -6 Y s 1916 100 m -6 Y s 1935 100 m -6
 Y s 1953 107 m -13 Y s 1972 100 m -6 Y s 1991 100 m -6 Y s 2010 100 m -6 Y s 2029 100 m -6 Y s 2048 107 m -13 Y s 2066 100 m -6 Y s 2085 100 m -6 Y s 2104 100 m -6 Y s 2123 100 m -6 Y s 2142 107 m -13 Y s 1671 107 m -13 Y s 2142 107 m -13 Y s 2161
 100 m -6 Y s 2180 100 m -6 Y s 2198 100 m -6 Y s
 gsave  711 567 1534 12 C 1656.74 65.3603 t 0 r /Helvetica findfont 25.6631 sf 0 0 m (0.2) show NC gr 
 gsave  711 567 1534 12 C 1642.53 65.3603 t 0 r /Symbol findfont 25.6631 sf 0 0 m (-) show NC gr 
 gsave  711 567 1534 12 C 1753.36 65.3603 t 0 r /Helvetica findfont 25.6631 sf 0 0 m (0.1) show NC gr 
 gsave  711 567 1534 12 C 1741.99 65.3603 t 0 r /Symbol findfont 25.6631 sf 0 0 m (-) show NC gr 
 gsave  711 567 1534 12 C 1849.98 65.3603 t 0 r /Helvetica findfont 25.6631 sf 0 0 m (0) show NC gr 
 gsave  711 567 1534 12 C 1935.23 65.3603 t 0 r /Helvetica findfont 25.6631 sf 0 0 m (0.1) show NC gr 
 gsave  711 567 1534 12 C 2029.01 65.3603 t 0 r /Helvetica findfont 25.6631 sf 0 0 m (0.2) show NC gr 
 gsave  711 567 1534 12 C 2122.79 65.3603 t 0 r /Helvetica findfont 25.6631 sf 0 0 m (0.3) show NC gr 
 gsave  711 567 1534 12 C 2063.11 25.5758 t 0 r /Helvetica findfont 28.5146 sf 0 0 m (yybb.HS_l1) show NC gr  1655 523 m 547 X s 1671 509 m 14 Y s 1689 516 m 7 Y s 1708 516 m 7 Y s 1727 516 m 7 Y s 1746 516 m 7 Y s 1765 509 m 14 Y s 1784 516 m 7 Y s
 1803 516 m 7 Y s 1821 516 m 7 Y s 1840 516 m 7 Y s 1859 509 m 14 Y s 1878 516 m 7 Y s 1897 516 m 7 Y s 1916 516 m 7 Y s 1935 516 m 7 Y s 1953 509 m 14 Y s 1972 516 m 7 Y s 1991 516 m 7 Y s 2010 516 m 7 Y s 2029 516 m 7 Y s 2048 509 m 14 Y s 2066 516
 m 7 Y s 2085 516 m 7 Y s 2104 516 m 7 Y s 2123 516 m 7 Y s 2142 509 m 14 Y s 1671 509 m 14 Y s 2142 509 m 14 Y s 2161 516 m 7 Y s 2180 516 m 7 Y s 2198 516 m 7 Y s 1655 94 m 429 Y s 1671 94 m -16 X s 1663 109 m -8 X s 1663 125 m -8 X s 1663 140 m -8
 X s 1663 156 m -8 X s 1671 172 m -16 X s 1663 187 m -8 X s 1663 203 m -8 X s 1663 218 m -8 X s 1663 234 m -8 X s 1671 249 m -16 X s 1663 265 m -8 X s 1663 281 m -8 X s 1663 296 m -8 X s 1663 312 m -8 X s 1671 327 m -16 X s 1663 343 m -8 X s 1663 359
 m -8 X s 1663 374 m -8 X s 1663 390 m -8 X s 1671 405 m -16 X s 1663 421 m -8 X s 1663 437 m -8 X s 1663 452 m -8 X s 1663 468 m -8 X s 1671 483 m -16 X s 1671 483 m -16 X s 1663 499 m -8 X s 1663 515 m -8 X s
 gsave  711 567 1534 12 C 1631.16 82.4108 t 0 r /Helvetica findfont 25.6631 sf 0 0 m (0) show NC gr 
 gsave  711 567 1534 12 C 1634.01 161.98 t 0 r /Helvetica findfont 25.6631 sf 0 0 m (1) show NC gr 
 gsave  711 567 1534 12 C 1631.16 238.707 t 0 r /Helvetica findfont 25.6631 sf 0 0 m (2) show NC gr 
 gsave  711 567 1534 12 C 1631.16 318.276 t 0 r /Helvetica findfont 25.6631 sf 0 0 m (3) show NC gr 
 gsave  711 567 1534 12 C 1631.16 395.003 t 0 r /Helvetica findfont 25.6631 sf 0 0 m (4) show NC gr 
 gsave  711 567 1534 12 C 1631.16 474.572 t 0 r /Helvetica findfont 25.6631 sf 0 0 m (5) show NC gr 
 gsave  711 567 1534 12 C 1557.28 431.946 t 90 r /Helvetica findfont 28.5146 sf 0 0 m (0.0145 ) show NC gr 
 gsave  711 567 1534 12 C 1543.07 429.104 t 90 r /Helvetica findfont 19.9602 sf 0 0 m ( ) show NC gr 
 gsave  711 567 1534 12 C 1557.28 417.737 t 90 r /Helvetica findfont 28.5146 sf 0 0 m (/) show NC gr 
 gsave  711 567 1534 12 C 1565.8 414.896 t 90 r /Helvetica findfont 19.9602 sf 0 0 m ( ) show NC gr 
 gsave  711 567 1534 12 C 1557.28 309.751 t 90 r /Helvetica findfont 28.5146 sf 0 0 m (\(1/N\) dN) show NC gr  2202 94 m 429 Y s 2186 94 m 16 X s 2194 109 m 8 X s 2194 125 m 8 X s 2194 140 m 8 X s 2194 156 m 8 X s 2186 172 m 16 X s 2194 187 m 8 X s
 2194 203 m 8 X s 2194 218 m 8 X s 2194 234 m 8 X s 2186 249 m 16 X s 2194 265 m 8 X s 2194 281 m 8 X s 2194 296 m 8 X s 2194 312 m 8 X s 2186 327 m 16 X s 2194 343 m 8 X s 2194 359 m 8 X s 2194 374 m 8 X s 2194 390 m 8 X s 2186 405 m 16 X s 2194 421
 m 8 X s 2194 437 m 8 X s 2194 452 m 8 X s 2194 468 m 8 X s 2186 483 m 16 X s 2186 483 m 16 X s 2194 499 m 8 X s 2194 515 m 8 X s 0.490196 0.545098 0.615686 c 0.364706 0.419608 0.490196 c 366 37 1542 539 bf 0.490196 0.545098 0.615686 c 1542 539 m 366
 X s 1908 539 m 37 Y s 1908 576 m -366 X s 1542 576 m -37 Y s 1 1 1 c black 1 1 1 c
 gsave  711 567 1534 12 C 1545.91 551.299 t 0 r /Helvetica-Bold findfont 28.5146 sf 0 0 m (Input variable: yybb.HS_l1) show NC gr  1 0 0 c 6 lw black 3 lw 1 0 0 c 2188 94 m s 2175 95 m -2 -1 d s 2175 110 m -17 -16 d s 2175 126 m -14 -14 d s 2153 103
 m -10 -9 d s 2164 130 m -3 -3 d s 2148 113 m -20 -19 d s 2148 128 m -35 -34 d s 2148 144 m -50 -50 d s 2142 153 m -59 -59 d s 2134 160 m -66 -66 d s 2134 175 m -81 -81 d s 2123 179 m -16 -16 d s 2099 156 m -61 -62 d s 2109 181 m -2 -3 d s 2093 164 m
 -70 -70 d s 2093 180 m -85 -86 d s 2093 195 m -14 -14 d s 2079 180 m -87 -86 d s 2093 210 m -14 -14 d s 2066 182 m -41 -41 d s 2011 127 m -34 -33 d s 2093 225 m -14 -14 d s 2066 198 m -41 -42 d s 2011 143 m -49 -49 d s 2093 240 m -14 -13 d s 2066
 213 m -41 -42 d s 2011 158 m -64 -64 d s 2066 228 m -41 -41 d s 2011 173 m -79 -79 d s 2066 243 m -41 -41 d s 2011 188 m -94 -94 d s 2066 258 m -41 -41 d s 2011 203 m -14 -14 d s 1986 178 m -84 -84 d s 2066 274 m -41 -42 d s 2011 218 m -14 -13 d s
 1984 191 m -97 -97 d s 2066 289 m -41 -42 d s 2011 234 m -14 -14 d s 1984 206 m -112 -112 d s 2066 304 m -41 -41 d s 2011 249 m -14 -14 d s 1984 221 m -14 -14 d s 1964 202 m -107 -108 d s 2061 315 m -36 -37 d s 2011 264 m -14 -14 d s 1984 236 m -14
 -13 d s 1956 209 m -114 -115 d s 2052 320 m -14 -13 d s 2038 306 m -13 -13 d s 2011 279 m -14 -14 d s 1984 252 m -14 -14 d s 1945 213 m -118 -119 d s 2052 336 m -14 -14 d s 2004 287 m -7 -6 d s 1984 267 m -14 -14 d s 1943 225 m -55 -55 d s 1888 170
 m -76 -76 d s 2052 351 m -14 -14 d s 1982 281 m -12 -13 d s 1943 241 m -55 -55 d s 1874 172 m -78 -78 d s 2041 355 m -3 -3 d s 1943 256 m -42 -42 d s 1890 203 m -2 -2 d s 1874 187 m -93 -93 d s 1943 271 m -14 -14 d s 1925 254 m -24 -24 d s 1874 202
 m -108 -108 d s 1943 286 m -14 -14 d s 1906 249 m -5 -4 d s 1874 217 m -123 -123 d s 1943 301 m -14 -13 d s 1874 232 m -138 -138 d s 1943 317 m -14 -14 d s 1874 248 m -14 -14 d s 1848 221 m -127 -127 d s 1943 332 m -14 -14 d s 1874 263 m -14 -14 d s
 1840 228 m -134 -134 d s 1943 347 m -14 -14 d s 1874 278 m -14 -14 d s 1833 237 m -137 -138 d s 1692 95 m -1 -1 d s 1943 362 m -14 -14 d s 1874 293 m -14 -14 d s 1826 245 m -130 -131 d s 1676 94 m s 1943 377 m -14 -14 d s 1819 253 m -41 -41 d s 1767
 200 m -71 -71 d s 1661 94 m s 1943 392 m -14 -13 d s 1819 268 m -13 -13 d s 1792 241 m -14 -14 d s 1765 213 m -69 -69 d s 1943 408 m -14 -14 d s 1819 284 m -13 -14 d s 1792 256 m -14 -14 d s 1765 229 m -41 -42 d s 1723 187 m -13 -14 d s 1704 168 m
 -8 -8 d s 1943 423 m -14 -14 d s 1819 299 m -13 -14 d s 1792 271 m -14 -14 d s 1765 244 m -41 -42 d s 1943 438 m -14 -14 d s 1819 314 m -13 -14 d s 1792 286 m -14 -13 d s 1765 259 m -41 -41 d s 1943 453 m -14 -14 d s 1819 329 m -13 -14 d s 1792 302
 m -14 -14 d s 1765 274 m -41 -41 d s 1943 468 m -14 -13 d s 1818 343 m -12 -12 d s 1792 317 m -14 -14 d s 1765 289 m -41 -41 d s 1942 484 m -13 -14 d s 1792 332 m -14 -14 d s 1765 304 m -41 -41 d s 1792 347 m -14 -14 d s 1765 320 m -41 -42 d s 1792
 362 m -14 -13 d s 1755 325 m -31 -32 d s 1792 378 m -14 -14 d s 1751 336 m -27 -27 d s 1792 393 m -14 -14 d s 1751 351 m -27 -27 d s 1782 398 m -4 -4 d s 1751 367 m -27 -28 d s 1751 382 m -27 -28 d s 1751 397 m -27 -28 d s 1751 412 m -14 -14 d s
 1732 392 m -8 -7 d s 1751 427 m -14 -13 d s 1751 442 m -14 -13 d s 1751 458 m -14 -14 d s 6 lw 1655 94 m 28 X 1 Y 13 X 73 Y 14 X 19 Y 14 X 205 Y 13 X 67 Y 14 X -134 Y 14 X -125 Y 13 X 198 Y 14 X -158 Y 14 X 103 Y 13 X -98 Y 14 X -17 Y 14 X -7 Y 13 X
 73 Y 14 X -124 Y 14 X 33 Y 13 X 46 Y 14 X 5 Y 14 X 230 Y 14 X -271 Y 13 X -11 Y 14 X 79 Y 14 X -103 Y 13 X 109 Y 14 X -161 Y 14 X 180 Y 13 X 49 Y 14 X -40 Y 14 X -135 Y 13 X 60 Y 14 X -84 Y 14 X 25 Y 13 X -2 Y 14 X -26 Y 14 X -50 Y 13 X 27 Y 14 X
 -36 Y 27 X s black 3 lw 1655 94 m 547 X s 1671 107 m -13 Y s 1689 100 m -6 Y s 1708 100 m -6 Y s 1727 100 m -6 Y s 1746 100 m -6 Y s 1765 107 m -13 Y s 1784 100 m -6 Y s 1803 100 m -6 Y s 1821 100 m -6 Y s 1840 100 m -6 Y s 1859 107 m -13 Y s 1878
 100 m -6 Y s 1897 100 m -6 Y s 1916 100 m -6 Y s 1935 100 m -6 Y s 1953 107 m -13 Y s 1972 100 m -6 Y s 1991 100 m -6 Y s 2010 100 m -6 Y s 2029 100 m -6 Y s 2048 107 m -13 Y s 2066 100 m -6 Y s 2085 100 m -6 Y s 2104 100 m -6 Y s 2123 100 m -6 Y s
 2142 107 m -13 Y s 1671 107 m -13 Y s 2142 107 m -13 Y s 2161 100 m -6 Y s 2180 100 m -6 Y s 2198 100 m -6 Y s 1655 523 m 547 X s 1671 509 m 14 Y s 1689 516 m 7 Y s 1708 516 m 7 Y s 1727 516 m 7 Y s 1746 516 m 7 Y s 1765 509 m 14 Y s 1784 516 m 7 Y
 s 1803 516 m 7 Y s 1821 516 m 7 Y s 1840 516 m 7 Y s 1859 509 m 14 Y s 1878 516 m 7 Y s 1897 516 m 7 Y s 1916 516 m 7 Y s 1935 516 m 7 Y s 1953 509 m 14 Y s 1972 516 m 7 Y s 1991 516 m 7 Y s 2010 516 m 7 Y s 2029 516 m 7 Y s 2048 509 m 14 Y s 2066
 516 m 7 Y s 2085 516 m 7 Y s 2104 516 m 7 Y s 2123 516 m 7 Y s 2142 509 m 14 Y s 1671 509 m 14 Y s 2142 509 m 14 Y s 2161 516 m 7 Y s 2180 516 m 7 Y s 2198 516 m 7 Y s 1655 94 m 429 Y s 1671 94 m -16 X s 1663 109 m -8 X s 1663 125 m -8 X s 1663 140
 m -8 X s 1663 156 m -8 X s 1671 172 m -16 X s 1663 187 m -8 X s 1663 203 m -8 X s 1663 218 m -8 X s 1663 234 m -8 X s 1671 249 m -16 X s 1663 265 m -8 X s 1663 281 m -8 X s 1663 296 m -8 X s 1663 312 m -8 X s 1671 327 m -16 X s 1663 343 m -8 X s
 1663 359 m -8 X s 1663 374 m -8 X s 1663 390 m -8 X s 1671 405 m -16 X s 1663 421 m -8 X s 1663 437 m -8 X s 1663 452 m -8 X s 1663 468 m -8 X s 1671 483 m -16 X s 1671 483 m -16 X s 1663 499 m -8 X s 1663 515 m -8 X s 2202 94 m 429 Y s 2186 94 m 16
 X s 2194 109 m 8 X s 2194 125 m 8 X s 2194 140 m 8 X s 2194 156 m 8 X s 2186 172 m 16 X s 2194 187 m 8 X s 2194 203 m 8 X s 2194 218 m 8 X s 2194 234 m 8 X s 2186 249 m 16 X s 2194 265 m 8 X s 2194 281 m 8 X s 2194 296 m 8 X s 2194 312 m 8 X s 2186
 327 m 16 X s 2194 343 m 8 X s 2194 359 m 8 X s 2194 374 m 8 X s 2194 390 m 8 X s 2186 405 m 16 X s 2194 421 m 8 X s 2194 437 m 8 X s 2194 452 m 8 X s 2194 468 m 8 X s 2186 483 m 16 X s 2186 483 m 16 X s 2194 499 m 8 X s 2194 515 m 8 X s
 gsave  711 567 1534 12 C 2230.83 91.2634 t 90 r /Helvetica-Bold findfont 19.9602 sf 0 0 m (U/O\255flow \(S,B\): \(0.0, 0.0\)% / \(0.0, 0.0\)%) show NC gr  0.490196 0.545098 0.615686 c 0.364706 0.419608 0.490196 c 366 37 1542 539 bf 0.490196 0.545098
 0.615686 c 1542 539 m 366 X s 1908 539 m 37 Y s 1908 576 m -366 X s 1542 576 m -37 Y s 1 1 1 c black 1 1 1 c
 gsave  711 567 1534 12 C 1545.91 551.299 t 0 r /Helvetica-Bold findfont 28.5146 sf 0 0 m (Input variable: yybb.HS_l1) show NC gr 
 gr  gr showpage
end
%%EOF
