%!PS-Adobe-2.0 EPSF-2.0
%%BoundingBox:  0 0 567 364
%%Title: dataset_class_comb2_BDT/plots/BDT_ControlPlots.eps: BDT Control Plots
%%Creator: ROOT Version 6.18/00
%%CreationDate: Sat Sep 14 14:21:36 2019
%%DocumentNeededResources: ProcSet (FontSetInit)
%%EndComments
%%BeginProlog
80 dict begin
/s {stroke} def /l {lineto} def /m {moveto} def /t {translate} def
/r {rotate} def /rl {roll}  def /R {repeat} def
/d {rlineto} def /rm {rmoveto} def /gr {grestore} def /f {eofill} def
/c {setrgbcolor} def /black {0 setgray} def /sd {setdash} def
/cl {closepath} def /sf {scalefont setfont} def /lw {setlinewidth} def
/box {m dup 0 exch d exch 0 d 0 exch neg d cl} def
/NC{systemdict begin initclip end}def/C{NC box clip newpath}def
/bl {box s} def /bf {gsave box gsave f grestore 1 lw [] 0 sd s grestore} def /Y { 0 exch d} def /X { 0 d} def 
/K {{pop pop 0 moveto} exch kshow} bind def
/ita {/ang 15 def gsave [1 0 ang dup sin exch cos div 1 0 0] concat} def 
/mp {newpath /y exch def /x exch def} def
/side {[w .77 mul w .23 mul] .385 w mul sd w 0 l currentpoint t -144 r} def
/mr {mp x y w2 0 360 arc} def /m24 {mr s} def /m20 {mr f} def
/mb {mp x y w2 add m w2 neg 0 d 0 w neg d w 0 d 0 w d cl} def
/mt {mp x y w2 add m w2 neg w neg d w 0 d cl} def
/w4 {w 4 div} def
/w6 {w 6 div} def
/w8 {w 8 div} def
/m21 {mb f} def /m25 {mb s} def /m22 {mt f} def /m26{mt s} def
/m23 {mp x y w2 sub m w2 w d w neg 0 d cl f} def
/m27 {mp x y w2 add m w3 neg w2 neg d w3 w2 neg d w3 w2 d cl s} def
/m28 {mp x w2 sub y w2 sub w3 add m w3 0 d  0 w3 neg d w3 0 d 0 w3 d w3 0 d  0 w3 d w3 neg 0 d 0 w3 d w3 neg 0 d 0 w3 neg d w3 neg 0 d cl s } def
/m29 {mp gsave x w2 sub y w2 add w3 sub m currentpoint t 4 {side} repeat cl fill gr} def
/m30 {mp gsave x w2 sub y w2 add w3 sub m currentpoint t 4 {side} repeat cl s gr} def
/m31 {mp x y w2 sub m 0 w d x w2 sub y m w 0 d x w2 sub y w2 add m w w neg d x w2 sub y w2 sub m w w d s} def
/m32 {mp x y w2 sub m w2 w d w neg 0 d cl s} def
/m33 {mp x y w2 add m w3 neg w2 neg d w3 w2 neg d w3 w2 d cl f} def
/m34 {mp x w2 sub y w2 sub w3 add m w3 0 d  0 w3 neg d w3 0 d 0 w3 d w3 0 d  0 w3 d w3 neg 0 d 0 w3 d w3 neg 0 d 0 w3 neg d w3 neg 0 d cl f } def
/m35 {mp x y w2 add m w2 neg w2 neg d w2 w2 neg d w2 w2 d w2 neg w2 d x y w2 sub m 0 w d x w2 sub y m w 0 d s} def
/m36 {mb x w2 sub y w2 add m w w neg d x w2 sub y w2 sub m w w d s} def
/m37 {mp x y m w4 neg w2 d w4 neg w2 neg d w2 0 d  w4 neg w2 neg d w2 0 d w4 neg w2 d w2 0 d w4 neg w2 d w4 neg w2 neg d cl s} def
/m38 {mp x w4 sub y w2 add m w4 neg w4 neg d 0 w2 neg d w4 w4 neg d w2 0 d w4 w4 d 0 w2 d w4 neg w4 d w2 neg 0 d x y w2 sub m 0 w d x w2 sub y m w 0 d cl s} def
/m39 {mp x y m w4 neg w2 d w4 neg w2 neg d w2 0 d  w4 neg w2 neg d w2 0 d w4 neg w2 d w2 0 d w4 neg w2 d w4 neg w2 neg d cl f} def
/m40 {mp x y m w4 w2 d w4 w4 neg d w2 neg w4 neg d w2 w4 neg d w4 neg w4 neg d w4 neg w2 d w4 neg w2 neg d w4 neg w4 d w2 w4 d w2 neg w4 d w4 w4 d w4 w2 neg d cl s} def
/m41 {mp x y m w4 w2 d w4 w4 neg d w2 neg w4 neg d w2 w4 neg d w4 neg w4 neg d w4 neg w2 d w4 neg w2 neg d w4 neg w4 d w2 w4 d w2 neg w4 d w4 w4 d w4 w2 neg d cl f} def
/m42 {mp x y w2 add m w8 neg w2 -3 4 div mul d w2 -3 4 div mul w8 neg d w2 3 4 div mul w8 neg d w8 w2 -3 4 div mul d w8 w2 3 4 div mul d w2 3 4 div mul w8 d w2 -3 4 div mul w8 d w8 neg w2 3 4 div mul d cl s} def
/m43 {mp x y w2 add m w8 neg w2 -3 4 div mul d w2 -3 4 div mul w8 neg d w2 3 4 div mul w8 neg d w8 w2 -3 4 div mul d w8 w2 3 4 div mul d w2 3 4 div mul w8 d w2 -3 4 div mul w8 d w8 neg w2 3 4 div mul d cl f} def
/m44 {mp x y m w6 neg w2 d w2 2 3 div mul 0 d w6 neg w2 neg d w2 w6 d 0 w2 -2 3 div mul d w2 neg w6 d w6 w2 neg d w2 -2 3 div mul 0 d w6 w2 d w2 neg w6 neg d 0 w2 2 3 div mul d w2 w6 neg d cl s} def
/m45 {mp x y m w6 neg w2 d w2 2 3 div mul 0 d w6 neg w2 neg d w2 w6 d 0 w2 -2 3 div mul d w2 neg w6 d w6 w2 neg d w2 -2 3 div mul 0 d w6 w2 d w2 neg w6 neg d 0 w2 2 3 div mul d w2 w6 neg d cl f} def
/m46 {mp x y w4 add m w4 neg w4 d w4 neg w4 neg d  w4 w4 neg d w4 neg w4 neg d w4 w4 neg d w4 w4 d w4 w4 neg d w4 w4 d w4 neg w4 d w4 w4 d w4 neg w4 d w4 neg w4 neg d cl s} def
/m47 {mp x y w4 add m w4 neg w4 d w4 neg w4 neg d w4 w4 neg d w4 neg w4 neg d  w4 w4 neg d w4 w4 d w4 w4 neg d w4 w4 d w4 neg w4 d w4 w4 d w4 neg w4 d w4 neg w4 neg d cl f} def
/m48 {mp x y w4 add m w4 neg w4 d w4 neg w4 neg d w4 w4 neg d  w4 neg w4 neg d w4 w4 neg d w4 w4 d w4 w4 neg d w4 w4 d w4 neg w4 d w4 w4 d w4 neg w4 d w4 neg w4 neg d  w4 w4 neg d w4 neg w4 neg d w4 neg w4 d w4 w4 d cl f} def
/m49 {mp x w2 sub w3 add y w2 sub w3 add m  0 w3 neg d w3 0 d 0 w3 d w3 0 d 0 w3 d w3 neg 0 d 0 w3 d w3 neg 0 d 0 w3 neg d w3 neg 0 d 0 w3 neg d w3 0 d 0 w3 d w3 0 d 0 w3 neg d w3 neg 0 d cl f } def
/m2 {mp x y w2 sub m 0 w d x w2 sub y m w 0 d s} def
/m5 {mp x w2 sub y w2 sub m w w d x w2 sub y w2 add m w w neg d s} def
%%IncludeResource: ProcSet (FontSetInit)
%%IncludeResource: font Times-Roman
%%IncludeResource: font Times-Italic
%%IncludeResource: font Times-Bold
%%IncludeResource: font Times-BoldItalic
%%IncludeResource: font Helvetica
%%IncludeResource: font Helvetica-Oblique
%%IncludeResource: font Helvetica-Bold
%%IncludeResource: font Helvetica-BoldOblique
%%IncludeResource: font Courier
%%IncludeResource: font Courier-Oblique
%%IncludeResource: font Courier-Bold
%%IncludeResource: font Courier-BoldOblique
%%IncludeResource: font Symbol
%%IncludeResource: font ZapfDingbats
/reEncode {exch findfont dup length dict begin {1 index /FID eq  {pop pop} {def} ifelse } forall /Encoding exch def currentdict end dup /FontName get exch definefont pop } def [/Times-Bold /Times-Italic /Times-BoldItalic /Helvetica /Helvetica-Oblique
 /Helvetica-Bold /Helvetica-BoldOblique /Courier /Courier-Oblique /Courier-Bold /Courier-BoldOblique /Times-Roman /AvantGarde-Book /AvantGarde-BookOblique /AvantGarde-Demi /AvantGarde-DemiOblique /Bookman-Demi /Bookman-DemiItalic /Bookman-Light
 /Bookman-LightItalic /Helvetica-Narrow /Helvetica-Narrow-Bold /Helvetica-Narrow-BoldOblique /Helvetica-Narrow-Oblique /NewCenturySchlbk-Roman /NewCenturySchlbk-Bold /NewCenturySchlbk-BoldItalic /NewCenturySchlbk-Italic /Palatino-Bold
 /Palatino-BoldItalic /Palatino-Italic /Palatino-Roman ] {ISOLatin1Encoding reEncode } forall
%%EndProlog
%%BeginSetup
%%EndSetup
newpath  gsave  .25 .25 scale  gsave  0 0 t 0.490196 0.545098 0.615686 c[  ] 0 sd 3 lw 0.941176 0.941176 0.941176 c 2268 1455 0 0 bf 0.490196 0.545098 0.615686 c 0.941176 0.941176 0.941176 c 710 698 23 742 bf 0.490196 0.545098 0.615686 c 0.941176
 0.941176 0.941176 c 710 698 779 742 bf 0.490196 0.545098 0.615686 c 0.941176 0.941176 0.941176 c 711 698 1534 742 bf black 1 1 0.992157 c 590 551 1620 819 bf black 590 551 1620 819 bl 1 1 0.992157 c 590 551 1620 819 bf black 590 551 1620 819 bl 0 0
 1 c 1 1 1 c 0 0 1 c 1620 1243 m -84 Y 1 X -43 Y 1 X -51 Y 1 X -95 Y 1 X 9 Y 1 X -39 Y 1 X 14 Y 1 X -32 Y 9 Y 1 X -9 Y 1 X 25 Y -25 Y 1 X -35 Y 1 X 28 Y 1 X -7 Y 1 X 16 Y 1 X -49 Y 1 X -2 Y 1 X 40 Y -17 Y 1 X 21 Y 1 X -40 Y 17 Y 1 X 2 Y 1 X -2 Y 1 X
 -46 Y 40 Y 1 X -9 Y 1 X 16 Y -4 Y 1 X -10 Y 1 X 27 Y -25 Y 1 X -26 Y 1 X 18 Y 1 X -7 Y 1 X 22 Y 1 X -24 Y 18 Y 1 X -5 Y 1 X 22 Y 1 X -14 Y 1 X -10 Y 1 Y 1 X -21 Y 1 X 24 Y 1 X -11 Y 10 Y 1 X 6 Y 1 X -17 Y 2 Y 1 X 8 Y 1 X -25 Y 1 X 20 Y 1 X 10 Y 1 X
 -20 Y 1 X 1 Y 1 X 11 Y 1 X -2 Y 1 X 3 Y -13 Y 1 X 13 Y 1 X -19 Y 20 Y 1 X -17 Y 1 X 23 Y 1 X 10 Y 1 X -24 Y 1 X 9 Y -14 Y 1 X -12 Y 1 X 27 Y 1 X -15 Y 1 X -3 Y 1 Y 1 X -2 Y 1 X 8 Y 1 X -13 Y 36 Y 1 X -8 Y 1 X -42 Y 18 Y 1 X -2 Y 1 X -15 Y 15 Y 1 X
 -3 Y 1 X -1 Y 23 Y 1 X -5 Y 1 X 11 Y 1 X -25 Y 10 Y 1 X 5 Y 1 X -2 Y 9 Y 1 X -16 Y 1 X -5 Y 10 Y 1 X 1 Y 1 X 4 Y -21 Y 1 X 24 Y 1 X 9 Y 1 X -28 Y 1 X 4 Y 1 X 9 Y 1 X -4 Y 1 X 15 Y -10 Y 1 X 1 Y 1 X 10 Y 1 X -12 Y 1 X -18 Y 1 X 28 Y 1 X -5 Y 1 X -24
 Y 1 X 24 Y 1 X -26 Y 22 Y 1 X -4 Y 1 X -16 Y 1 X 19 Y -10 Y 1 X 15 Y 1 X -12 Y 1 X -14 Y 1 X 21 Y 1 X -11 Y 1 X 8 Y -6 Y 1 X 30 Y 1 X -48 Y 1 X 38 Y 1 X -7 Y 1 X -10 Y 4 Y 1 X 4 Y 1 X -16 Y 7 Y 1 X 14 Y 1 X 1 Y -11 Y 1 X -11 Y 1 X 11 Y 1 X 14 Y -13
 Y 1 X -4 Y 1 X 18 Y 1 X -21 Y 1 X 20 Y -15 Y 1 X 8 Y 1 X -22 Y 1 X 19 Y 1 X -13 Y 1 X 8 Y -9 Y 1 X 16 Y 1 X -11 Y 23 Y 1 X -33 Y 1 X -2 Y 7 Y 1 X 22 Y 1 X -42 Y 1 X 27 Y -4 Y 1 X 3 Y 1 X 11 Y -9 Y 1 X 4 Y 1 X -4 Y 8 Y 1 X -13 Y 1 X 12 Y -13 Y 1 X 4
 Y 1 X -6 Y 1 X 17 Y 1 X 2 Y 1 X -18 Y 1 X -18 Y 1 X 25 Y 1 X -12 Y 1 X 28 Y 1 X -17 Y 1 X -9 Y 1 X -4 Y 7 Y 1 X -5 Y 1 X 19 Y 1 X 3 Y 1 X 7 Y 1 X -17 Y 1 X 9 Y 1 X -10 Y 1 X -7 Y 1 X 2 Y 1 X 12 Y 1 X -7 Y 6 Y 1 X -1 Y 1 X -19 Y 1 X 24 Y 1 X -8 Y 2 Y
 1 X -3 Y 1 X 11 Y 1 X -17 Y 1 X 12 Y 1 X -14 Y 1 X -23 Y 1 X 40 Y 1 X -25 Y 1 X 31 Y 1 X -21 Y 11 Y 1 X -12 Y 1 X 1 Y -1 Y 1 X 12 Y 1 X -23 Y 1 X 26 Y 1 X -2 Y 1 X -19 Y 1 X 20 Y 1 X -30 Y 1 X 18 Y 1 X -12 Y 21 Y 1 X -20 Y 1 X 13 Y 1 X -17 Y 1 X 3 Y
 1 X 5 Y 1 X 5 Y 1 X -8 Y 1 X 17 Y 1 X -14 Y 1 X 8 Y 1 X 15 Y -20 Y 1 X 1 Y 1 X -11 Y 22 Y 1 X -3 Y 1 X 7 Y 1 X -32 Y 19 Y 1 X 3 Y 1 X 11 Y -3 Y 1 X 4 Y 1 X -24 Y 1 X 15 Y 1 X -14 Y 1 X 6 Y -3 Y 1 X 9 Y 1 X 7 Y -17 Y 1 X 15 Y 1 X 6 Y -7 Y 1 X -8 Y 1
 X 6 Y 1 X -12 Y 1 X 6 Y 1 X 10 Y -11 Y 1 X 4 Y 1 X 3 Y -18 Y 1 X -2 Y 1 X 17 Y 1 X -7 Y 1 X -14 Y 20 Y 1 X 7 Y 1 X -14 Y 1 X 13 Y 1 X -3 Y 1 X -15 Y 1 Y 1 X 11 Y 1 X -7 Y 18 Y 1 X -2 Y 1 X -6 Y 1 Y 1 X 5 Y 1 X -18 Y 1 X 13 Y -26 Y 1 X 27 Y 1 X -18 Y
 31 Y 2 X -29 Y 1 X 20 Y 1 X -6 Y 1 X -19 Y 1 X 2 Y 1 X 8 Y -22 Y 1 X 14 Y 1 X 13 Y -16 Y 1 X 17 Y 1 X 2 Y -10 Y 1 X 2 Y 1 X 9 Y 1 X -17 Y 1 X 1 Y 1 X -1 Y 18 Y 1 X -16 Y 1 X 16 Y -5 Y 1 X -20 Y 1 X 24 Y 1 X 17 Y 1 X -26 Y 1 X 21 Y 1 X -15 Y 1 X -16
 Y 1 X 24 Y 1 X -2 Y 2 Y 1 X -16 Y 1 X 12 Y -8 Y 1 X 13 Y 1 X 3 Y 1 X -22 Y 1 X 22 Y 1 X -22 Y 1 X 9 Y 1 X -8 Y 21 Y 1 X -13 Y 1 X -6 Y 1 X 14 Y -8 Y 1 X -7 Y 1 X 14 Y 1 X -8 Y 1 X -12 Y 21 Y 1 X -22 Y 1 X 25 Y 1 X -7 Y 1 X -8 Y 1 X -7 Y 1 X 16 Y 1 X
 -13 Y 9 Y 1 X 11 Y 1 X -32 Y 1 X 28 Y 1 X -7 Y 10 Y 1 X -3 Y 1 X -2 Y 1 X -12 Y 6 Y 1 X 7 Y 1 X -24 Y 1 X 17 Y 1 X 3 Y -7 Y 1 X -7 Y 1 X 13 Y 1 X 4 Y 1 X -20 Y 1 X 35 Y -25 Y 1 X -1 Y 1 X -2 Y 6 Y 2 X -5 Y 19 Y 1 X -19 Y 1 X 19 Y 1 X -11 Y 1 X 8 Y 1
 X -6 Y 3 Y 1 X -7 Y 1 X 13 Y 1 X -23 Y 1 X 18 Y 1 X -6 Y 1 X -7 Y 1 X -8 Y 10 Y 1 X -1 Y 1 X 6 Y 1 X -6 Y 1 X -7 Y 1 X 16 Y 1 X -21 Y 21 Y 1 X 2 Y 1 X -4 Y 1 X -16 Y 1 X 19 Y 1 X -8 Y 1 X 5 Y 1 X -3 Y 1 X 9 Y 1 X -28 Y 2 X 13 Y 1 X 10 Y -19 Y 1 X 2
 Y 1 X -1 Y 7 Y 2 X -13 Y 19 Y 1 X -11 Y 2 X -12 Y 20 Y 1 X -3 Y 1 X 3 Y -19 Y 1 X 27 Y 1 X -6 Y 1 X -5 Y 1 X -5 Y 16 Y 1 X -6 Y 1 X -1 Y 1 X 6 Y -18 Y 1 X 6 Y 1 X 7 Y 1 X -8 Y 1 X 12 Y -2 Y 1 X -9 Y 1 X 21 Y -2 Y 1 X -10 Y 1 X -14 Y 1 X 20 Y 1 X -2
 Y 1 X -22 Y 1 X 20 Y 1 X 10 Y 1 X -29 Y 1 X -6 Y 18 Y 1 X -13 Y 1 X 11 Y 1 X 10 Y -8 Y 1 X -1 Y 1 X 18 Y -22 Y 1 X 15 Y 1 X -24 Y 1 X 7 Y 1 X -3 Y 1 X 11 Y 1 X 3 Y 1 X -10 Y 25 Y 1 X -18 Y 1 X 6 Y -10 Y 1 X -15 Y 1 X 23 Y 1 X 9 Y 1 X -5 Y 1 X -14 Y
 1 X 9 Y 1 X 7 Y -7 Y 1 X -9 Y 1 X 15 Y -12 Y 1 X 3 Y 1 X 9 Y -6 Y 1 X -3 Y 1 X -10 Y 1 X 11 Y 1 X -8 Y 1 X -8 Y 31 Y 1 X -12 Y 1 X 8 Y -4 Y 1 X -2 Y 1 X -20 Y 6 Y 1 X 12 Y 1 X -14 Y 1 X 13 Y -10 Y 1 X -3 Y 1 X -4 Y 28 Y 1 X -10 Y 2 X -5 Y 1 X 1 Y 1
 X 8 Y 1 X 7 Y 1 X -9 Y 1 Y 1 X -1 Y 1 X -24 Y 1 X 19 Y 1 X 3 Y 1 X -4 Y 1 X 8 Y 1 X 2 Y -12 Y 1 X 16 Y 1 X -21 Y 13 Y 1 X -13 Y 1 X 10 Y 1 X -9 Y 1 X 15 Y -10 Y 2 X -9 Y 1 X 3 Y -4 Y 1 X 8 Y 1 X 9 Y -20 Y 1 X 18 Y 1 X 1 Y 1 X -10 Y 1 X 7 Y -4 Y 1 X
 1 Y 1 X 9 Y 1 X -7 Y 1 X 2 Y 1 X -5 Y 10 Y 1 X -9 Y 1 X 15 Y -26 Y 1 X 27 Y 1 X -28 Y 1 X 17 Y -11 Y 2 X 12 Y -1 Y 1 X 5 Y 1 X -6 Y 6 Y 1 X -7 Y 1 X -20 Y 14 Y 1 X -5 Y 1 X 20 Y 1 X -20 Y 1 X -5 Y 1 X 26 Y 1 X -12 Y 1 X 6 Y -9 Y 1 X -5 Y 1 X 13 Y 2
 X -2 Y 1 X -6 Y 2 Y 1 X -3 Y 1 X 10 Y -4 Y 1 X -5 Y 1 X 17 Y 1 X -1 Y 1 X -22 Y 1 X 7 Y 1 X 4 Y 1 X -6 Y 4 Y 2 X 2 Y -11 Y 1 X 7 Y 1 X -4 Y 19 Y 1 X -11 Y 1 X -10 Y 1 X 14 Y 1 X -8 Y 1 X -9 Y 5 Y 1 X 2 Y 1 X 8 Y 1 X -3 Y 1 X 14 Y 1 X -19 Y 1 X 3 Y 1
 X -6 Y 22 Y 1 X -15 Y 1 X -7 Y 21 Y 1 X -7 Y 1 X -11 Y 10 Y 1 X -19 Y 1 X 18 Y -18 Y 1 X 15 Y 1 X 10 Y 1 X -18 Y 1 X -9 Y 1 X 38 Y -39 Y 1 X 7 Y 1 X 5 Y 1 X 1 Y 1 X 9 Y -15 Y 2 X 17 Y 1 X -9 Y 6 Y 1 X 11 Y 1 X -20 Y 14 Y 1 X -7 Y 1 X -6 Y 1 X -13 Y
 1 X 18 Y -4 Y 1 X 11 Y 1 X -2 Y 1 X -17 Y 1 X -4 Y 1 X 26 Y -17 Y 1 X 8 Y 1 X 10 Y -27 Y 1 X 21 Y 1 X -6 Y 1 X -12 Y 7 Y 1 X 13 Y 1 X -5 Y 1 X -16 Y 1 X 27 Y 1 X -28 Y 1 X 16 Y 1 X -10 Y 1 X 5 Y 1 X 4 Y 1 X -4 Y 1 X 4 Y 1 X 2 Y 1 X 6 Y -8 Y 1 X -8 Y
 1 X 6 Y 1 X 7 Y 1 X -8 Y 1 X -9 Y 28 Y 1 X -25 Y 1 X 12 Y 1 X -23 Y 1 X 13 Y -14 Y 1 X 18 Y 1 X -9 Y 10 Y 2 X -3 Y 1 X 3 Y -3 Y 1 X 12 Y 1 X -26 Y 1 X 17 Y 1 X 2 Y -2 Y 1 X 4 Y 1 X -20 Y 1 X 14 Y -9 Y 1 X 6 Y 1 X -7 Y 1 X 3 Y 1 X 19 Y -10 Y 1 X 1 Y
 1 X -19 Y 1 X 29 Y 1 X -10 Y 1 X -14 Y 1 X 1 Y 1 X 10 Y 1 X 4 Y 1 X 8 Y 1 X -15 Y 1 X 11 Y -4 Y 1 X -3 Y 1 X 11 Y 1 X -27 Y 1 X 11 Y 1 X 1 Y -17 Y 1 X 6 Y 1 X 21 Y 1 X -2 Y 1 X -14 Y 1 X 9 Y 1 X -9 Y 1 X 10 Y 1 X -1 Y 1 X 6 Y -5 Y 1 X 3 Y 1 X 2 Y 1
 X -6 Y 1 X 10 Y 1 X s black 1620 819 m 590 X s 1620 836 m -17 Y s 1634 827 m -8 Y s 1648 827 m -8 Y s 1661 827 m -8 Y s 1675 827 m -8 Y s 1689 836 m -17 Y s 1703 827 m -8 Y s 1717 827 m -8 Y s 1731 827 m -8 Y s 1745 827 m -8 Y s 1759 836 m -17 Y s
 1772 827 m -8 Y s 1786 827 m -8 Y s 1800 827 m -8 Y s 1814 827 m -8 Y s 1828 836 m -17 Y s 1842 827 m -8 Y s 1856 827 m -8 Y s 1870 827 m -8 Y s 1883 827 m -8 Y s 1897 836 m -17 Y s 1911 827 m -8 Y s 1925 827 m -8 Y s 1939 827 m -8 Y s 1953 827 m -8
 Y s 1967 836 m -17 Y s 1981 827 m -8 Y s 1994 827 m -8 Y s 2008 827 m -8 Y s 2022 827 m -8 Y s 2036 836 m -17 Y s 2050 827 m -8 Y s 2064 827 m -8 Y s 2078 827 m -8 Y s 2092 827 m -8 Y s 2105 836 m -17 Y s 2119 827 m -8 Y s 2133 827 m -8 Y s 2147 827
 m -8 Y s 2161 827 m -8 Y s 2175 836 m -17 Y s 2175 836 m -17 Y s 2189 827 m -8 Y s 2203 827 m -8 Y s
 gsave  711 698 1534 742 C 1611.14 797.994 t 0 r /Helvetica findfont 22.7672 sf 0 0 m (0) show NC gr 
 gsave  711 698 1534 742 C 1666.7 797.994 t 0 r /Helvetica findfont 22.7672 sf 0 0 m (100) show NC gr 
 gsave  711 698 1534 742 C 1737.4 797.994 t 0 r /Helvetica findfont 22.7672 sf 0 0 m (200) show NC gr 
 gsave  711 698 1534 742 C 1805.59 797.994 t 0 r /Helvetica findfont 22.7672 sf 0 0 m (300) show NC gr 
 gsave  711 698 1534 742 C 1876.3 797.994 t 0 r /Helvetica findfont 22.7672 sf 0 0 m (400) show NC gr 
 gsave  711 698 1534 742 C 1944.48 797.994 t 0 r /Helvetica findfont 22.7672 sf 0 0 m (500) show NC gr 
 gsave  711 698 1534 742 C 2015.19 797.994 t 0 r /Helvetica findfont 22.7672 sf 0 0 m (600) show NC gr 
 gsave  711 698 1534 742 C 2083.37 797.994 t 0 r /Helvetica findfont 22.7672 sf 0 0 m (700) show NC gr 
 gsave  711 698 1534 742 C 2154.08 797.994 t 0 r /Helvetica findfont 22.7672 sf 0 0 m (800) show NC gr 
 gsave  711 698 1534 742 C 2156.6 770.216 t 0 r /Helvetica findfont 22.7672 sf 0 0 m (#tree) show NC gr  1620 1370 m 590 X s 1620 1353 m 17 Y s 1634 1362 m 8 Y s 1648 1362 m 8 Y s 1661 1362 m 8 Y s 1675 1362 m 8 Y s 1689 1353 m 17 Y s 1703 1362 m 8 Y
 s 1717 1362 m 8 Y s 1731 1362 m 8 Y s 1745 1362 m 8 Y s 1759 1353 m 17 Y s 1772 1362 m 8 Y s 1786 1362 m 8 Y s 1800 1362 m 8 Y s 1814 1362 m 8 Y s 1828 1353 m 17 Y s 1842 1362 m 8 Y s 1856 1362 m 8 Y s 1870 1362 m 8 Y s 1883 1362 m 8 Y s 1897 1353 m
 17 Y s 1911 1362 m 8 Y s 1925 1362 m 8 Y s 1939 1362 m 8 Y s 1953 1362 m 8 Y s 1967 1353 m 17 Y s 1981 1362 m 8 Y s 1994 1362 m 8 Y s 2008 1362 m 8 Y s 2022 1362 m 8 Y s 2036 1353 m 17 Y s 2050 1362 m 8 Y s 2064 1362 m 8 Y s 2078 1362 m 8 Y s 2092
 1362 m 8 Y s 2105 1353 m 17 Y s 2119 1362 m 8 Y s 2133 1362 m 8 Y s 2147 1362 m 8 Y s 2161 1362 m 8 Y s 2175 1353 m 17 Y s 2175 1353 m 17 Y s 2189 1362 m 8 Y s 2203 1362 m 8 Y s 1620 819 m 551 Y s 1637 819 m -17 X s 1628 842 m -8 X s 1628 866 m -8 X
 s 1628 889 m -8 X s 1637 912 m -17 X s 1628 936 m -8 X s 1628 959 m -8 X s 1628 983 m -8 X s 1637 1006 m -17 X s 1628 1030 m -8 X s 1628 1053 m -8 X s 1628 1077 m -8 X s 1637 1100 m -17 X s 1628 1124 m -8 X s 1628 1147 m -8 X s 1628 1170 m -8 X s
 1637 1194 m -17 X s 1628 1217 m -8 X s 1628 1241 m -8 X s 1628 1264 m -8 X s 1637 1288 m -17 X s 1637 1288 m -17 X s 1628 1311 m -8 X s 1628 1335 m -8 X s 1628 1358 m -8 X s
 gsave  711 698 1534 742 C 1603.56 810.62 t 0 r /Helvetica findfont 22.7672 sf 0 0 m (0) show NC gr 
 gsave  711 698 1534 742 C 1585.89 904.056 t 0 r /Helvetica findfont 22.7672 sf 0 0 m (0.2) show NC gr 
 gsave  711 698 1534 742 C 1585.89 997.492 t 0 r /Helvetica findfont 22.7672 sf 0 0 m (0.4) show NC gr 
 gsave  711 698 1534 742 C 1585.89 1090.93 t 0 r /Helvetica findfont 22.7672 sf 0 0 m (0.6) show NC gr 
 gsave  711 698 1534 742 C 1585.89 1184.36 t 0 r /Helvetica findfont 22.7672 sf 0 0 m (0.8) show NC gr 
 gsave  711 698 1534 742 C 1606.09 1277.8 t 0 r /Helvetica findfont 22.7672 sf 0 0 m (1) show NC gr 
 gsave  711 698 1534 742 C 1570.73 1244.97 t 90 r /Helvetica findfont 22.7672 sf 0 0 m (boost weight) show NC gr  2210 819 m 551 Y s 2193 819 m 17 X s 2201 842 m 9 X s 2201 866 m 9 X s 2201 889 m 9 X s 2193 912 m 17 X s 2201 936 m 9 X s 2201 959 m 9
 X s 2201 983 m 9 X s 2193 1006 m 17 X s 2201 1030 m 9 X s 2201 1053 m 9 X s 2201 1077 m 9 X s 2193 1100 m 17 X s 2201 1124 m 9 X s 2201 1147 m 9 X s 2201 1170 m 9 X s 2193 1194 m 17 X s 2201 1217 m 9 X s 2201 1241 m 9 X s 2201 1264 m 9 X s 2193 1288
 m 17 X s 2193 1288 m 17 X s 2201 1311 m 9 X s 2201 1335 m 9 X s 2201 1358 m 9 X s 0.490196 0.545098 0.615686 c 0.364706 0.419608 0.490196 c 355 40 1542 1397 bf 0.490196 0.545098 0.615686 c 1542 1397 m 355 X s 1897 1397 m 40 Y s 1897 1437 m -355 X s
 1542 1437 m -40 Y s 1 1 1 c black 1 1 1 c
 gsave  711 698 1534 742 C 1558.11 1409.12 t 0 r /Helvetica-Bold findfont 30.3563 sf 0 0 m (Boost weights vs tree) show NC gr  0.490196 0.545098 0.615686 c 0.941176 0.941176 0.941176 c 710 698 23 15 bf black 1 1 0.992157 c 590 552 108 91 bf black 590
 552 108 91 bl 1 1 0.992157 c 590 552 108 91 bf black 590 552 108 91 bl 0 0 1 c 1 1 1 c 0 0 1 c 108 215 m 1 X 69 Y 1 X 35 Y 1 X 74 Y 1 X -7 Y 1 X 33 Y 1 X -12 Y 1 X 28 Y 1 X -8 Y 8 Y 1 X -22 Y 1 X 53 Y 1 X -25 Y 1 X 6 Y 1 X -14 Y 1 X 27 Y 1 X 20 Y 1
 X -37 Y 1 X 15 Y -19 Y 1 X 37 Y 1 X -17 Y 1 X 2 Y 1 X 42 Y -37 Y 1 X 8 Y 1 X -14 Y 1 X 12 Y 1 X -25 Y 1 X 48 Y 1 X -17 Y 1 X 6 Y 1 X -20 Y 1 X 23 Y -18 Y 1 X 5 Y 1 X -15 Y 1 X -5 Y 13 Y 1 X 9 Y 1 X -1 Y 19 Y 1 X -22 Y 1 X 11 Y -10 Y 1 X -6 Y 1 X 17
 Y -3 Y 1 X -7 Y 1 X 17 Y 1 X 7 Y -20 Y 2 X -8 Y 18 Y 1 X -1 Y 1 X -10 Y 1 X 1 Y 1 X -2 Y 1 X 12 Y -12 Y 1 X 17 Y 1 X -18 Y 16 Y 1 X -7 Y 1 X -23 Y 1 X 21 Y 1 X -8 Y 13 Y 1 X 12 Y 1 X -16 Y 1 X -10 Y 14 Y 1 X 3 Y 1 X -1 Y 1 Y 1 X -6 Y 1 X 11 Y -33 Y
 1 X 7 Y 1 X 40 Y -17 Y 1 X 2 Y 1 X 14 Y 1 X -14 Y 3 Y 2 X -21 Y 5 Y 1 X -11 Y 1 X 23 Y -9 Y 1 X -4 Y 1 X 2 Y -9 Y 1 X 15 Y 1 X 5 Y 1 X -11 Y 1 X -4 Y 1 X 21 Y -23 Y 1 X -8 Y 1 X 26 Y 1 X -4 Y 1 X -3 Y 1 X -6 Y 4 Y 1 X -14 Y 1 X 10 Y -1 Y 1 X -3 Y 1
 X -6 Y 10 Y 1 X 17 Y 1 X -26 Y 1 X 5 Y 1 X 6 Y 1 X 16 Y -22 Y 1 X 24 Y 1 X -21 Y 4 Y 1 X 15 Y 1 X -18 Y 10 Y 1 X -15 Y 1 X 12 Y 1 X 13 Y 1 X -18 Y 1 X -2 Y 10 Y 1 X -7 Y 1 X 5 Y -27 Y 1 X 44 Y 1 X -35 Y 1 X 6 Y 1 X 10 Y -4 Y 1 X -3 Y 1 X 15 Y 1 X
 -20 Y 1 X -1 Y 1 X 20 Y 1 X -9 Y 1 X -13 Y 11 Y 1 X 4 Y 1 X -8 Y 1 X -8 Y 19 Y 1 X -19 Y 1 X 15 Y -8 Y 1 X 8 Y 1 X 12 Y -18 Y 1 X 13 Y 1 X -8 Y 9 Y 1 X -15 Y 1 X 10 Y 1 X -21 Y 30 Y 1 X 2 Y 1 X -27 Y 1 X 39 Y 1 X -25 Y 3 Y 1 X -2 Y 1 X -10 Y 9 Y 1 X
 -5 Y 1 X 4 Y 1 X -7 Y 12 Y 1 X -11 Y 1 X 12 Y -4 Y 1 X 6 Y 1 X -17 Y 1 X -1 Y 1 X 17 Y 1 X 17 Y 1 X -23 Y 1 X -1 Y 11 Y 1 X -17 Y 1 X -8 Y 15 Y 1 X 8 Y 1 X 4 Y -6 Y 1 X 4 Y 1 X -15 Y 1 X -6 Y 2 X -5 Y 16 Y 1 X -1 Y 1 X -9 Y 10 Y 1 X 7 Y 1 X -3 Y 1 Y
 1 X -11 Y 1 X 6 Y 1 X -5 Y 1 Y 1 X 1 Y 1 X 16 Y -23 Y 1 X 9 Y 1 X -3 Y 3 Y 1 X -10 Y 1 X 16 Y 1 X -11 Y 1 X 2 Y 1 X 31 Y 1 X -31 Y 1 X -5 Y 23 Y 1 X -29 Y 1 X 20 Y -11 Y 1 X 12 Y 1 X -1 Y 1 Y 1 X -12 Y 1 X 17 Y 1 X 5 Y -24 Y 2 X 19 Y 1 X -18 Y 1 X
 27 Y 1 X -16 Y 1 X 11 Y 1 X -19 Y 18 Y 1 X -9 Y 1 X -4 Y 17 Y 1 X -2 Y 1 X -6 Y 1 X -5 Y 1 X 8 Y 1 X -16 Y 2 X 13 Y -7 Y 1 X -14 Y 1 X 18 Y 1 X 9 Y 1 X -20 Y 3 Y 1 X -6 Y 1 X 29 Y -17 Y 1 X -3 Y 1 X -10 Y 1 X 2 Y -3 Y 1 X 10 Y 1 X 12 Y -14 Y 1 X 14
 Y 1 X -6 Y 2 Y 1 X -8 Y 1 X -7 Y 16 Y 1 X -14 Y 1 X -5 Y 1 X 14 Y 1 X -6 Y 1 X 11 Y 1 X -6 Y 1 X -9 Y 11 Y 1 X -4 Y 1 X -3 Y 1 X 19 Y 1 X -2 Y 1 X -14 Y 6 Y 1 X 13 Y 1 X -24 Y 1 X 13 Y 1 X -13 Y 1 X 3 Y 1 X 14 Y 1 X -11 Y 1 X 6 Y 1 X -16 Y 2 Y 1 X 5
 Y 1 X -5 Y 1 X 16 Y 1 X -12 Y 24 Y 1 X -25 Y 1 X 17 Y 1 X -29 Y 1 X 15 Y 1 X 12 Y -19 Y 1 X 6 Y 1 X 18 Y 1 X -2 Y 1 X -8 Y 21 Y 1 X -13 Y 1 X -13 Y 1 X 16 Y -17 Y 1 X -1 Y 1 X 9 Y -2 Y 1 X -8 Y 1 X 16 Y 1 X -1 Y 1 X 1 Y -17 Y 1 X 15 Y 1 X -15 Y 1 X
 23 Y 1 X -12 Y 1 X -25 Y 1 X 23 Y 1 X -19 Y 1 X 14 Y 1 X 2 Y 1 X 13 Y -23 Y 1 X 2 Y 1 X -1 Y 15 Y 1 X -12 Y 1 X 8 Y -12 Y 1 X -3 Y 1 X 20 Y 1 X -20 Y 1 X 11 Y 1 X 9 Y -8 Y 1 X 7 Y 1 X -20 Y 13 Y 1 X 5 Y 1 X -13 Y 7 Y 1 X 8 Y 1 X -14 Y 1 X 8 Y 1 X 11
 Y 1 X -20 Y 20 Y 1 X -15 Y 1 X -7 Y 6 Y 1 X 7 Y 1 X 7 Y 1 X -15 Y 1 X 13 Y -10 Y 1 X -9 Y 1 X 8 Y 1 X 21 Y -26 Y 1 X 7 Y 1 X -9 Y 3 Y 1 X 2 Y 1 X 11 Y -6 Y 1 X -7 Y 1 X 2 Y 1 X 20 Y -15 Y 1 X -3 Y 1 X 13 Y 1 X -12 Y 1 X -4 Y 1 X 19 Y 1 X -33 Y 23 Y
 1 X 2 Y 1 X 1 Y 1 X -5 Y 1 X 4 Y 1 X -18 Y 18 Y 1 X -18 Y 1 X 11 Y 1 X -8 Y 1 X 6 Y -3 Y 1 X 6 Y 1 X -7 Y 1 X -4 Y 21 Y 1 X -11 Y 1 X -6 Y 6 Y 1 X 6 Y 1 X 8 Y -9 Y 1 X 1 Y 1 X -7 Y 1 X 7 Y 1 X 3 Y 1 X 3 Y -15 Y 1 X 20 Y 1 X -22 Y 1 X 4 Y 1 X 15 Y 1
 X -18 Y 1 X 1 Y 1 X 6 Y -4 Y 2 X 3 Y -8 Y 1 X 15 Y 1 X 11 Y 1 X -13 Y 1 X -9 Y 17 Y 1 X -1 Y 2 X -6 Y 1 X 13 Y 1 X -18 Y 10 Y 2 X 11 Y -18 Y 1 X 2 Y 1 X -2 Y 17 Y 1 X -25 Y 1 X 2 Y 1 X 8 Y 1 X 5 Y 1 X -15 Y 5 Y 1 X 1 Y 1 X -5 Y 17 Y 1 X -5 Y 1 X -7
 Y 1 X 7 Y 1 X -11 Y 1 X 10 Y 1 X -20 Y 1 X 12 Y 1 X 12 Y 1 X -18 Y 1 X 2 Y 1 X 10 Y 1 X 11 Y -19 Y 1 X -2 Y 1 X -8 Y 28 Y 1 X 5 Y 1 X -16 Y 11 Y 1 X -10 Y 1 X -9 Y 7 Y 1 X 2 Y 1 X -17 Y 1 X 20 Y -14 Y 1 X 13 Y 1 X 9 Y -6 Y 1 X 3 Y 1 X -10 Y 1 X -3 Y
 1 X 9 Y -23 Y 1 X 16 Y 1 X -5 Y 1 X 23 Y 1 X -13 Y 1 X -16 Y 1 X 4 Y 1 X 13 Y 1 X -8 Y 1 X -7 Y 7 Y 1 X 8 Y 1 X -14 Y 1 X 11 Y -3 Y 1 X -8 Y 1 X 8 Y 1 X 10 Y 1 X -10 Y 1 X 7 Y 1 X 8 Y 1 X -29 Y 11 Y 1 X -8 Y 1 X 6 Y 1 X 18 Y 1 X -16 Y 1 X 13 Y 1 X
 -12 Y 9 Y 1 X 3 Y 1 X 3 Y 1 X -26 Y 9 Y 1 X 1 Y 1 X 4 Y 1 X -1 Y 1 X -7 Y 1 X -7 Y 1 X 9 Y -1 Y 1 X 1 Y 1 X 13 Y 1 X 9 Y -18 Y 1 X -2 Y 1 X 4 Y 1 X -8 Y 1 X -2 Y 11 Y 1 X -14 Y 1 X 19 Y -13 Y 1 X 13 Y 1 X -9 Y 1 X 8 Y 1 X -13 Y 1 X 8 Y 1 X 9 Y 1 X
 -3 Y 4 Y 1 X -8 Y 1 X -8 Y 1 X 18 Y -16 Y 2 X -1 Y 9 Y 1 X -7 Y 1 X 4 Y 1 X -9 Y 1 X 7 Y 1 X -2 Y 1 X 5 Y 1 X -10 Y 8 Y 1 X -14 Y 1 X 24 Y -24 Y 1 X 26 Y 1 X -16 Y 10 Y 2 X -11 Y 1 Y 1 X -5 Y 1 X 6 Y 1 X -6 Y 7 Y 1 X 18 Y 1 X -13 Y 5 Y 1 X -19 Y 1 X
 19 Y 1 X 5 Y 1 X -24 Y 1 X 11 Y 1 X -6 Y 1 X 13 Y 1 X -5 Y 1 X -7 Y 1 X 1 Y 1 X 6 Y -2 Y 1 X 3 Y 1 X -9 Y 1 X 8 Y 2 X -16 Y 1 Y 1 X 9 Y 1 X 12 Y -7 Y 1 X -3 Y 1 X 5 Y -3 Y 1 X -1 Y 1 X -1 Y 1 X 10 Y -7 Y 1 X 4 Y 1 X -18 Y 10 Y 1 X 3 Y 1 X 7 Y -13 Y
 1 X 7 Y 1 X 9 Y -5 Y 1 X -2 Y 1 X -4 Y 1 X -3 Y 3 Y 1 X -5 Y 1 X -9 Y 18 Y 1 X -3 Y 1 X 6 Y -20 Y 1 X 13 Y 1 X 7 Y -19 Y 1 X 6 Y 1 X 11 Y 1 X -10 Y 17 Y 1 X -16 Y 1 X 17 Y -15 Y 1 X -9 Y 1 X 17 Y 1 X 8 Y 1 X -35 Y 1 X 36 Y -6 Y 2 X -6 Y 1 X -8 Y 1 X
 14 Y -1 Y 1 X -15 Y 1 X 8 Y -6 Y 1 X -10 Y 1 X 19 Y 1 X -13 Y 7 Y 1 X 5 Y 1 X 12 Y 1 X -17 Y 1 X 4 Y -10 Y 1 X 2 Y 1 X 16 Y 1 X 4 Y 1 X -25 Y 1 X 16 Y -8 Y 1 X -8 Y 1 X 25 Y -20 Y 1 X 6 Y 1 X 11 Y -7 Y 1 X -12 Y 1 X 4 Y 1 X 16 Y 1 X -5 Y 1 X -21 Y
 26 Y 1 X -9 Y 1 X -5 Y 9 Y 1 X -5 Y 1 X -3 Y 1 X 3 Y 1 X -1 Y 1 X -4 Y 1 X -6 Y 1 X 15 Y 1 X -2 Y 1 X -10 Y 1 X 7 Y 1 X 9 Y -26 Y 1 X 23 Y 1 X -9 Y 1 X -2 Y 21 Y 1 X -12 Y 1 X 13 Y -17 Y 1 X 9 Y 1 X -10 Y 1 X 3 Y 1 X -2 Y 2 Y 1 X -11 Y 1 X 2 Y 1 X
 22 Y -15 Y 1 X -2 Y 1 X 2 Y -5 Y 1 X 19 Y 1 X -12 Y 8 Y 1 X -6 Y 1 X 6 Y 1 X -3 Y 1 X -17 Y 1 X 9 Y -1 Y 1 X 1 Y 1 X 17 Y -26 Y 1 X 9 Y 1 X 13 Y 1 X -2 Y 1 X -8 Y 1 X -4 Y 1 X -5 Y 1 X -3 Y 14 Y 1 X -10 Y 1 X 6 Y 1 X -10 Y 1 X 26 Y 1 X -11 Y 1 X -1
 Y 1 X 16 Y -6 Y 1 X -19 Y 1 X -1 Y 3 Y 1 X 12 Y 1 X -8 Y 1 X 9 Y 1 X -10 Y 1 X 1 Y 1 X -6 Y 1 X 5 Y -2 Y 1 X -1 Y 1 X -1 Y 5 Y 1 X -9 Y 1 X s black 108 91 m 590 X s 108 109 m -18 Y s 122 100 m -9 Y s 136 100 m -9 Y s 150 100 m -9 Y s 163 100 m -9 Y
 s 177 109 m -18 Y s 191 100 m -9 Y s 205 100 m -9 Y s 219 100 m -9 Y s 233 100 m -9 Y s 247 109 m -18 Y s 261 100 m -9 Y s 274 100 m -9 Y s 288 100 m -9 Y s 302 100 m -9 Y s 316 109 m -18 Y s 330 100 m -9 Y s 344 100 m -9 Y s 358 100 m -9 Y s 372
 100 m -9 Y s 385 109 m -18 Y s 399 100 m -9 Y s 413 100 m -9 Y s 427 100 m -9 Y s 441 100 m -9 Y s 455 109 m -18 Y s 469 100 m -9 Y s 483 100 m -9 Y s 496 100 m -9 Y s 510 100 m -9 Y s 524 109 m -18 Y s 538 100 m -9 Y s 552 100 m -9 Y s 566 100 m -9
 Y s 580 100 m -9 Y s 594 109 m -18 Y s 608 100 m -9 Y s 621 100 m -9 Y s 635 100 m -9 Y s 649 100 m -9 Y s 663 109 m -18 Y s 663 109 m -18 Y s 677 100 m -9 Y s 691 100 m -9 Y s
 gsave  710 698 23 15 C 98.4866 70.7083 t 0 r /Helvetica findfont 22.7672 sf 0 0 m (0) show NC gr 
 gsave  710 698 23 15 C 156.568 70.7083 t 0 r /Helvetica findfont 22.7672 sf 0 0 m (100) show NC gr 
 gsave  710 698 23 15 C 224.751 70.7083 t 0 r /Helvetica findfont 22.7672 sf 0 0 m (200) show NC gr 
 gsave  710 698 23 15 C 295.46 70.7083 t 0 r /Helvetica findfont 22.7672 sf 0 0 m (300) show NC gr 
 gsave  710 698 23 15 C 363.643 70.7083 t 0 r /Helvetica findfont 22.7672 sf 0 0 m (400) show NC gr 
 gsave  710 698 23 15 C 434.351 70.7083 t 0 r /Helvetica findfont 22.7672 sf 0 0 m (500) show NC gr 
 gsave  710 698 23 15 C 502.534 70.7083 t 0 r /Helvetica findfont 22.7672 sf 0 0 m (600) show NC gr 
 gsave  710 698 23 15 C 573.242 70.7083 t 0 r /Helvetica findfont 22.7672 sf 0 0 m (700) show NC gr 
 gsave  710 698 23 15 C 641.425 70.7083 t 0 r /Helvetica findfont 22.7672 sf 0 0 m (800) show NC gr 
 gsave  710 698 23 15 C 646.476 42.93 t 0 r /Helvetica findfont 22.7672 sf 0 0 m (#tree) show NC gr  108 643 m 590 X s 108 626 m 17 Y s 122 634 m 9 Y s 136 634 m 9 Y s 150 634 m 9 Y s 163 634 m 9 Y s 177 626 m 17 Y s 191 634 m 9 Y s 205 634 m 9 Y s
 219 634 m 9 Y s 233 634 m 9 Y s 247 626 m 17 Y s 261 634 m 9 Y s 274 634 m 9 Y s 288 634 m 9 Y s 302 634 m 9 Y s 316 626 m 17 Y s 330 634 m 9 Y s 344 634 m 9 Y s 358 634 m 9 Y s 372 634 m 9 Y s 385 626 m 17 Y s 399 634 m 9 Y s 413 634 m 9 Y s 427
 634 m 9 Y s 441 634 m 9 Y s 455 626 m 17 Y s 469 634 m 9 Y s 483 634 m 9 Y s 496 634 m 9 Y s 510 634 m 9 Y s 524 626 m 17 Y s 538 634 m 9 Y s 552 634 m 9 Y s 566 634 m 9 Y s 580 634 m 9 Y s 594 626 m 17 Y s 608 634 m 9 Y s 621 634 m 9 Y s 635 634 m
 9 Y s 649 634 m 9 Y s 663 626 m 17 Y s 663 626 m 17 Y s 677 634 m 9 Y s 691 634 m 9 Y s 108 91 m 552 Y s 125 91 m -17 X s 116 109 m -8 X s 116 126 m -8 X s 116 144 m -8 X s 116 162 m -8 X s 125 179 m -17 X s 116 197 m -8 X s 116 214 m -8 X s 116 232
 m -8 X s 116 249 m -8 X s 125 267 m -17 X s 116 284 m -8 X s 116 302 m -8 X s 116 320 m -8 X s 116 337 m -8 X s 125 355 m -17 X s 116 372 m -8 X s 116 390 m -8 X s 116 407 m -8 X s 116 425 m -8 X s 125 442 m -17 X s 116 460 m -8 X s 116 478 m -8 X s
 116 495 m -8 X s 116 513 m -8 X s 125 530 m -17 X s 116 548 m -8 X s 116 565 m -8 X s 116 583 m -8 X s 116 600 m -8 X s 125 618 m -17 X s 125 618 m -17 X s 116 636 m -8 X s
 gsave  710 698 23 15 C 90.9107 83.3348 t 0 r /Helvetica findfont 22.7672 sf 0 0 m (0) show NC gr 
 gsave  710 698 23 15 C 75.7589 169.195 t 0 r /Helvetica findfont 22.7672 sf 0 0 m (0.1) show NC gr 
 gsave  710 698 23 15 C 73.2336 257.58 t 0 r /Helvetica findfont 22.7672 sf 0 0 m (0.2) show NC gr 
 gsave  710 698 23 15 C 73.2336 345.966 t 0 r /Helvetica findfont 22.7672 sf 0 0 m (0.3) show NC gr 
 gsave  710 698 23 15 C 73.2336 434.351 t 0 r /Helvetica findfont 22.7672 sf 0 0 m (0.4) show NC gr 
 gsave  710 698 23 15 C 73.2336 520.211 t 0 r /Helvetica findfont 22.7672 sf 0 0 m (0.5) show NC gr 
 gsave  710 698 23 15 C 73.2336 608.596 t 0 r /Helvetica findfont 22.7672 sf 0 0 m (0.6) show NC gr 
 gsave  710 698 23 15 C 58.0818 517.686 t 90 r /Helvetica findfont 22.7672 sf 0 0 m (error fraction) show NC gr  698 91 m 552 Y s 681 91 m 17 X s 689 109 m 9 X s 689 126 m 9 X s 689 144 m 9 X s 689 162 m 9 X s 681 179 m 17 X s 689 197 m 9 X s 689 214
 m 9 X s 689 232 m 9 X s 689 249 m 9 X s 681 267 m 17 X s 689 284 m 9 X s 689 302 m 9 X s 689 320 m 9 X s 689 337 m 9 X s 681 355 m 17 X s 689 372 m 9 X s 689 390 m 9 X s 689 407 m 9 X s 689 425 m 9 X s 681 442 m 17 X s 689 460 m 9 X s 689 478 m 9 X
 s 689 495 m 9 X s 689 513 m 9 X s 681 530 m 17 X s 689 548 m 9 X s 689 565 m 9 X s 689 583 m 9 X s 689 600 m 9 X s 681 618 m 17 X s 681 618 m 17 X s 689 636 m 9 X s 0.490196 0.545098 0.615686 c 0.364706 0.419608 0.490196 c 471 36 30 673 bf 0.490196
 0.545098 0.615686 c 30 673 m 471 X s 501 673 m 36 Y s 501 709 m -471 X s 30 709 m -36 Y s 1 1 1 c black 1 1 1 c
 gsave  710 698 23 15 C 70.7083 679.305 t 0 r /Helvetica-Bold findfont 27.8266 sf 0 0 m (error fraction vs tree number) show NC gr  0.490196 0.545098 0.615686 c 0.941176 0.941176 0.941176 c 710 698 779 15 bf 0.490196 0.545098 0.615686 c 0.941176
 0.941176 0.941176 c 711 698 1534 15 bf
 gr  gr showpage
end
%%EOF
