%!PS-Adobe-2.0 EPSF-2.0
%%BoundingBox:  0 0 567 421
%%Title: dataset_class_comb2_BDT/plots/overtrain_BDT.eps: TMVA comparison BDT
%%Creator: ROOT Version 6.18/00
%%CreationDate: Sat Sep 14 14:20:45 2019
%%DocumentNeededResources: ProcSet (FontSetInit)
%%EndComments
%%BeginProlog
80 dict begin
/s {stroke} def /l {lineto} def /m {moveto} def /t {translate} def
/r {rotate} def /rl {roll}  def /R {repeat} def
/d {rlineto} def /rm {rmoveto} def /gr {grestore} def /f {eofill} def
/c {setrgbcolor} def /black {0 setgray} def /sd {setdash} def
/cl {closepath} def /sf {scalefont setfont} def /lw {setlinewidth} def
/box {m dup 0 exch d exch 0 d 0 exch neg d cl} def
/NC{systemdict begin initclip end}def/C{NC box clip newpath}def
/bl {box s} def /bf {gsave box gsave f grestore 1 lw [] 0 sd s grestore} def /Y { 0 exch d} def /X { 0 d} def 
/K {{pop pop 0 moveto} exch kshow} bind def
/ita {/ang 15 def gsave [1 0 ang dup sin exch cos div 1 0 0] concat} def 
/mp {newpath /y exch def /x exch def} def
/side {[w .77 mul w .23 mul] .385 w mul sd w 0 l currentpoint t -144 r} def
/mr {mp x y w2 0 360 arc} def /m24 {mr s} def /m20 {mr f} def
/mb {mp x y w2 add m w2 neg 0 d 0 w neg d w 0 d 0 w d cl} def
/mt {mp x y w2 add m w2 neg w neg d w 0 d cl} def
/w4 {w 4 div} def
/w6 {w 6 div} def
/w8 {w 8 div} def
/m21 {mb f} def /m25 {mb s} def /m22 {mt f} def /m26{mt s} def
/m23 {mp x y w2 sub m w2 w d w neg 0 d cl f} def
/m27 {mp x y w2 add m w3 neg w2 neg d w3 w2 neg d w3 w2 d cl s} def
/m28 {mp x w2 sub y w2 sub w3 add m w3 0 d  0 w3 neg d w3 0 d 0 w3 d w3 0 d  0 w3 d w3 neg 0 d 0 w3 d w3 neg 0 d 0 w3 neg d w3 neg 0 d cl s } def
/m29 {mp gsave x w2 sub y w2 add w3 sub m currentpoint t 4 {side} repeat cl fill gr} def
/m30 {mp gsave x w2 sub y w2 add w3 sub m currentpoint t 4 {side} repeat cl s gr} def
/m31 {mp x y w2 sub m 0 w d x w2 sub y m w 0 d x w2 sub y w2 add m w w neg d x w2 sub y w2 sub m w w d s} def
/m32 {mp x y w2 sub m w2 w d w neg 0 d cl s} def
/m33 {mp x y w2 add m w3 neg w2 neg d w3 w2 neg d w3 w2 d cl f} def
/m34 {mp x w2 sub y w2 sub w3 add m w3 0 d  0 w3 neg d w3 0 d 0 w3 d w3 0 d  0 w3 d w3 neg 0 d 0 w3 d w3 neg 0 d 0 w3 neg d w3 neg 0 d cl f } def
/m35 {mp x y w2 add m w2 neg w2 neg d w2 w2 neg d w2 w2 d w2 neg w2 d x y w2 sub m 0 w d x w2 sub y m w 0 d s} def
/m36 {mb x w2 sub y w2 add m w w neg d x w2 sub y w2 sub m w w d s} def
/m37 {mp x y m w4 neg w2 d w4 neg w2 neg d w2 0 d  w4 neg w2 neg d w2 0 d w4 neg w2 d w2 0 d w4 neg w2 d w4 neg w2 neg d cl s} def
/m38 {mp x w4 sub y w2 add m w4 neg w4 neg d 0 w2 neg d w4 w4 neg d w2 0 d w4 w4 d 0 w2 d w4 neg w4 d w2 neg 0 d x y w2 sub m 0 w d x w2 sub y m w 0 d cl s} def
/m39 {mp x y m w4 neg w2 d w4 neg w2 neg d w2 0 d  w4 neg w2 neg d w2 0 d w4 neg w2 d w2 0 d w4 neg w2 d w4 neg w2 neg d cl f} def
/m40 {mp x y m w4 w2 d w4 w4 neg d w2 neg w4 neg d w2 w4 neg d w4 neg w4 neg d w4 neg w2 d w4 neg w2 neg d w4 neg w4 d w2 w4 d w2 neg w4 d w4 w4 d w4 w2 neg d cl s} def
/m41 {mp x y m w4 w2 d w4 w4 neg d w2 neg w4 neg d w2 w4 neg d w4 neg w4 neg d w4 neg w2 d w4 neg w2 neg d w4 neg w4 d w2 w4 d w2 neg w4 d w4 w4 d w4 w2 neg d cl f} def
/m42 {mp x y w2 add m w8 neg w2 -3 4 div mul d w2 -3 4 div mul w8 neg d w2 3 4 div mul w8 neg d w8 w2 -3 4 div mul d w8 w2 3 4 div mul d w2 3 4 div mul w8 d w2 -3 4 div mul w8 d w8 neg w2 3 4 div mul d cl s} def
/m43 {mp x y w2 add m w8 neg w2 -3 4 div mul d w2 -3 4 div mul w8 neg d w2 3 4 div mul w8 neg d w8 w2 -3 4 div mul d w8 w2 3 4 div mul d w2 3 4 div mul w8 d w2 -3 4 div mul w8 d w8 neg w2 3 4 div mul d cl f} def
/m44 {mp x y m w6 neg w2 d w2 2 3 div mul 0 d w6 neg w2 neg d w2 w6 d 0 w2 -2 3 div mul d w2 neg w6 d w6 w2 neg d w2 -2 3 div mul 0 d w6 w2 d w2 neg w6 neg d 0 w2 2 3 div mul d w2 w6 neg d cl s} def
/m45 {mp x y m w6 neg w2 d w2 2 3 div mul 0 d w6 neg w2 neg d w2 w6 d 0 w2 -2 3 div mul d w2 neg w6 d w6 w2 neg d w2 -2 3 div mul 0 d w6 w2 d w2 neg w6 neg d 0 w2 2 3 div mul d w2 w6 neg d cl f} def
/m46 {mp x y w4 add m w4 neg w4 d w4 neg w4 neg d  w4 w4 neg d w4 neg w4 neg d w4 w4 neg d w4 w4 d w4 w4 neg d w4 w4 d w4 neg w4 d w4 w4 d w4 neg w4 d w4 neg w4 neg d cl s} def
/m47 {mp x y w4 add m w4 neg w4 d w4 neg w4 neg d w4 w4 neg d w4 neg w4 neg d  w4 w4 neg d w4 w4 d w4 w4 neg d w4 w4 d w4 neg w4 d w4 w4 d w4 neg w4 d w4 neg w4 neg d cl f} def
/m48 {mp x y w4 add m w4 neg w4 d w4 neg w4 neg d w4 w4 neg d  w4 neg w4 neg d w4 w4 neg d w4 w4 d w4 w4 neg d w4 w4 d w4 neg w4 d w4 w4 d w4 neg w4 d w4 neg w4 neg d  w4 w4 neg d w4 neg w4 neg d w4 neg w4 d w4 w4 d cl f} def
/m49 {mp x w2 sub w3 add y w2 sub w3 add m  0 w3 neg d w3 0 d 0 w3 d w3 0 d 0 w3 d w3 neg 0 d 0 w3 d w3 neg 0 d 0 w3 neg d w3 neg 0 d 0 w3 neg d w3 0 d 0 w3 d w3 0 d 0 w3 neg d w3 neg 0 d cl f } def
/m2 {mp x y w2 sub m 0 w d x w2 sub y m w 0 d s} def
/m5 {mp x w2 sub y w2 sub m w w d x w2 sub y w2 add m w w neg d s} def
%%IncludeResource: ProcSet (FontSetInit)
%%IncludeResource: font Times-Roman
%%IncludeResource: font Times-Italic
%%IncludeResource: font Times-Bold
%%IncludeResource: font Times-BoldItalic
%%IncludeResource: font Helvetica
%%IncludeResource: font Helvetica-Oblique
%%IncludeResource: font Helvetica-Bold
%%IncludeResource: font Helvetica-BoldOblique
%%IncludeResource: font Courier
%%IncludeResource: font Courier-Oblique
%%IncludeResource: font Courier-Bold
%%IncludeResource: font Courier-BoldOblique
%%IncludeResource: font Symbol
%%IncludeResource: font ZapfDingbats
/reEncode {exch findfont dup length dict begin {1 index /FID eq  {pop pop} {def} ifelse } forall /Encoding exch def currentdict end dup /FontName get exch definefont pop } def [/Times-Bold /Times-Italic /Times-BoldItalic /Helvetica /Helvetica-Oblique
 /Helvetica-Bold /Helvetica-BoldOblique /Courier /Courier-Oblique /Courier-Bold /Courier-BoldOblique /Times-Roman /AvantGarde-Book /AvantGarde-BookOblique /AvantGarde-Demi /AvantGarde-DemiOblique /Bookman-Demi /Bookman-DemiItalic /Bookman-Light
 /Bookman-LightItalic /Helvetica-Narrow /Helvetica-Narrow-Bold /Helvetica-Narrow-BoldOblique /Helvetica-Narrow-Oblique /NewCenturySchlbk-Roman /NewCenturySchlbk-Bold /NewCenturySchlbk-BoldItalic /NewCenturySchlbk-Italic /Palatino-Bold
 /Palatino-BoldItalic /Palatino-Italic /Palatino-Roman ] {ISOLatin1Encoding reEncode } forall
%%EndProlog
%%BeginSetup
%%EndSetup
newpath  gsave  .25 .25 scale  gsave  0 0 t 0.490196 0.545098 0.615686 c[  ] 0 sd 3 lw 0.941176 0.941176 0.941176 c 2268 1684 0 0 bf black 1 1 0.992157 c 1916 1313 238 202 bf black 1916 1313 238 202 bl 1 1 0.992157 c 1916 1313 238 202 bf black 1916
 1313 238 202 bl 238 202 m 1916 X s 490 245 m -43 Y s 550 223 m -21 Y s 611 223 m -21 Y s 671 223 m -21 Y s 732 223 m -21 Y s 792 245 m -43 Y s 852 223 m -21 Y s 913 223 m -21 Y s 973 223 m -21 Y s 1034 223 m -21 Y s 1094 245 m -43 Y s 1155 223 m -21
 Y s 1215 223 m -21 Y s 1275 223 m -21 Y s 1336 223 m -21 Y s 1396 245 m -43 Y s 1457 223 m -21 Y s 1517 223 m -21 Y s 1577 223 m -21 Y s 1638 223 m -21 Y s 1698 245 m -43 Y s 1759 223 m -21 Y s 1819 223 m -21 Y s 1880 223 m -21 Y s 1940 223 m -21 Y
 s 2000 245 m -43 Y s 490 245 m -43 Y s 429 223 m -21 Y s 369 223 m -21 Y s 309 223 m -21 Y s 248 223 m -21 Y s 2000 245 m -43 Y s 2061 223 m -21 Y s 2121 223 m -21 Y s
 gsave  2268 1684 0 0 C 458.852 128.934 t 0 r /Helvetica-Bold findfont 64.4669 sf 0 0 m (0.3) show NC gr 
 gsave  2268 1684 0 0 C 428.515 128.934 t 0 r /Symbol findfont 64.4669 sf 0 0 m (-) show NC gr 
 gsave  2268 1684 0 0 C 758.434 128.934 t 0 r /Helvetica-Bold findfont 64.4669 sf 0 0 m (0.2) show NC gr 
 gsave  2268 1684 0 0 C 728.096 128.934 t 0 r /Symbol findfont 64.4669 sf 0 0 m (-) show NC gr 
 gsave  2268 1684 0 0 C 1065.6 128.934 t 0 r /Helvetica-Bold findfont 64.4669 sf 0 0 m (0.1) show NC gr 
 gsave  2268 1684 0 0 C 1035.26 128.934 t 0 r /Symbol findfont 64.4669 sf 0 0 m (-) show NC gr 
 gsave  2268 1684 0 0 C 1376.56 128.934 t 0 r /Helvetica-Bold findfont 64.4669 sf 0 0 m (0) show NC gr 
 gsave  2268 1684 0 0 C 1653.39 128.934 t 0 r /Helvetica-Bold findfont 64.4669 sf 0 0 m (0.1) show NC gr 
 gsave  2268 1684 0 0 C 1952.97 128.934 t 0 r /Helvetica-Bold findfont 64.4669 sf 0 0 m (0.2) show NC gr 
 gsave  2268 1684 0 0 C 1660.97 34.1295 t 0 r /Helvetica-Bold findfont 72.0512 sf 0 0 m (BDT response) show NC gr  238 1515 m 1916 X s 490 1473 m 42 Y s 550 1494 m 21 Y s 611 1494 m 21 Y s 671 1494 m 21 Y s 732 1494 m 21 Y s 792 1473 m 42 Y s 852
 1494 m 21 Y s 913 1494 m 21 Y s 973 1494 m 21 Y s 1034 1494 m 21 Y s 1094 1473 m 42 Y s 1155 1494 m 21 Y s 1215 1494 m 21 Y s 1275 1494 m 21 Y s 1336 1494 m 21 Y s 1396 1473 m 42 Y s 1457 1494 m 21 Y s 1517 1494 m 21 Y s 1577 1494 m 21 Y s 1638 1494
 m 21 Y s 1698 1473 m 42 Y s 1759 1494 m 21 Y s 1819 1494 m 21 Y s 1880 1494 m 21 Y s 1940 1494 m 21 Y s 2000 1473 m 42 Y s 490 1473 m 42 Y s 429 1494 m 21 Y s 369 1494 m 21 Y s 309 1494 m 21 Y s 248 1494 m 21 Y s 2000 1473 m 42 Y s 2061 1494 m 21 Y
 s 2121 1494 m 21 Y s 238 202 m 1313 Y s 291 202 m -53 X s 265 249 m -27 X s 265 297 m -27 X s 265 344 m -27 X s 291 391 m -53 X s 265 439 m -27 X s 265 486 m -27 X s 265 533 m -27 X s 291 581 m -53 X s 265 628 m -27 X s 265 675 m -27 X s 265 723 m
 -27 X s 291 770 m -53 X s 265 817 m -27 X s 265 865 m -27 X s 265 912 m -27 X s 291 959 m -53 X s 265 1007 m -27 X s 265 1054 m -27 X s 265 1101 m -27 X s 291 1149 m -53 X s 265 1196 m -27 X s 265 1243 m -27 X s 265 1291 m -27 X s 291 1338 m -53 X s
 291 1338 m -53 X s 265 1385 m -27 X s 265 1432 m -27 X s 265 1480 m -27 X s
 gsave  2268 1684 0 0 C 174.44 178.232 t 0 r /Helvetica-Bold findfont 64.4669 sf 0 0 m (0) show NC gr 
 gsave  2268 1684 0 0 C 174.44 367.84 t 0 r /Helvetica-Bold findfont 64.4669 sf 0 0 m (2) show NC gr 
 gsave  2268 1684 0 0 C 174.44 557.449 t 0 r /Helvetica-Bold findfont 64.4669 sf 0 0 m (4) show NC gr 
 gsave  2268 1684 0 0 C 174.44 747.057 t 0 r /Helvetica-Bold findfont 64.4669 sf 0 0 m (6) show NC gr 
 gsave  2268 1684 0 0 C 174.44 932.873 t 0 r /Helvetica-Bold findfont 64.4669 sf 0 0 m (8) show NC gr 
 gsave  2268 1684 0 0 C 136.518 1122.48 t 0 r /Helvetica-Bold findfont 64.4669 sf 0 0 m (10) show NC gr 
 gsave  2268 1684 0 0 C 136.518 1312.09 t 0 r /Helvetica-Bold findfont 64.4669 sf 0 0 m (12) show NC gr 
 gsave  2268 1684 0 0 C 64.4669 1433.44 t 90 r /Helvetica-Bold findfont 72.0512 sf 0 0 m (dx) show NC gr 
 gsave  2268 1684 0 0 C 30.3373 1422.06 t 90 r /Helvetica-Bold findfont 45.506 sf 0 0 m ( ) show NC gr 
 gsave  2268 1684 0 0 C 64.4669 1399.31 t 90 r /Helvetica-Bold findfont 72.0512 sf 0 0 m (/) show NC gr 
 gsave  2268 1684 0 0 C 30.3373 1387.93 t 90 r /Helvetica-Bold findfont 45.506 sf 0 0 m ( ) show NC gr 
 gsave  2268 1684 0 0 C 60.6747 1111.11 t 90 r /Helvetica-Bold findfont 72.0512 sf 0 0 m (\(1/N\) dN) show NC gr  2154 202 m 1313 Y s 2101 202 m 53 X s 2128 249 m 26 X s 2128 297 m 26 X s 2128 344 m 26 X s 2101 391 m 53 X s 2128 439 m 26 X s 2128 486
 m 26 X s 2128 533 m 26 X s 2101 581 m 53 X s 2128 628 m 26 X s 2128 675 m 26 X s 2128 723 m 26 X s 2101 770 m 53 X s 2128 817 m 26 X s 2128 865 m 26 X s 2128 912 m 26 X s 2101 959 m 53 X s 2128 1007 m 26 X s 2128 1054 m 26 X s 2128 1101 m 26 X s
 2101 1149 m 53 X s 2128 1196 m 26 X s 2128 1243 m 26 X s 2128 1291 m 26 X s 2101 1338 m 53 X s 2101 1338 m 53 X s 2128 1385 m 26 X s 2128 1432 m 26 X s 2128 1480 m 26 X s 0.490196 0.545098 0.615686 c 1 1 1 c 0.490196 0.545098 0.615686 c 907 202 238
 1313 bl 238 1313 m 907 X s 1145 1313 m 202 Y s 1145 1515 m -907 X s 238 1515 m -202 Y s black
 gsave  2268 1684 0 0 C 417.138 1444.82 t 0 r /Helvetica-Bold findfont 53.0904 sf 0 0 m (Signal \(test sample\)) show NC gr  0.49 0.6 0.82 c 265 1429 m 127 X 71 Y -127 X f 0 0 0.933333 c 265 1500 m 127 X s 265 1429 m 127 X s 392 1429 m 71 Y s 265
 1429 m 71 Y s black
 gsave  2268 1684 0 0 C 417.138 1342.43 t 0 r /Helvetica-Bold findfont 53.0904 sf 0 0 m (Background \(test sample\)) show NC gr  1 0 0 c 392 1354 m -26 -26 d s 389 1399 m -71 -71 d s 341 1399 m -71 -71 d s 293 1399 m -28 -27 d s 0 0 0.933333 c 1 0 0
 c 265 1399 m 127 X s 265 1328 m 127 X s 392 1328 m 71 Y s 265 1328 m 71 Y s 0 0 0.933333 c 0.49 0.6 0.82 c black 0.49 0.6 0.82 c 238 202 m 335 X 2 Y 48 X -2 Y 48 X 2 Y 48 X 5 Y 48 X 2 Y 48 X -9 Y 48 X 20 Y 48 X -13 Y 48 X 37 Y 48 X -14 Y 48 X 3 Y 47
 X 25 Y 48 X -43 Y 48 X 41 Y 48 X 25 Y 48 X 41 Y 48 X -46 Y 48 X 15 Y 48 X 4 Y 48 X 36 Y 95 X 152 Y 48 X 92 Y 48 X 80 Y 48 X 297 Y 48 X 208 Y 48 X -88 Y 48 X -99 Y 48 X -476 Y 48 X -155 Y 48 X -94 Y 48 X -42 Y 47 X -5 Y 48 X -1 Y f 0 0 0.933333 c
 0.49 0.6 0.82 c 0 0 0.933333 c 238 202 m 335 X 2 Y 48 X -2 Y 48 X 2 Y 48 X 5 Y 48 X 2 Y 48 X -9 Y 48 X 20 Y 48 X -13 Y 48 X 37 Y 48 X -14 Y 48 X 3 Y 47 X 25 Y 48 X -43 Y 48 X 41 Y 48 X 25 Y 48 X 41 Y 48 X -46 Y 48 X 15 Y 48 X 4 Y 48 X 36 Y 95 X 152
 Y 48 X 92 Y 48 X 80 Y 48 X 297 Y 48 X 208 Y 48 X -88 Y 48 X -99 Y 48 X -476 Y 48 X -155 Y 48 X -94 Y 48 X -42 Y 47 X -5 Y 48 X -1 Y s 1 0 0 c black 1 0 0 c 2126 202 m s 2079 203 m -1 -1 d s 2033 205 m -3 -3 d s 1995 216 m -13 -14 d s 1952 220 m -18
 -18 d s 1914 230 m -28 -28 d s 1867 231 m -29 -29 d s 1846 259 m -56 -57 d s 1802 262 m -61 -60 d s 1757 266 m -64 -64 d s 1697 254 m -52 -52 d s 1673 278 m -76 -76 d s 1605 258 m -56 -56 d s 1578 279 m -77 -77 d s 1531 280 m -78 -78 d s 1484 281 m
 -79 -79 d s 1445 291 m -88 -89 d s 1435 329 m -127 -127 d s 1388 330 m -128 -128 d s 1372 362 m -160 -160 d s 1340 378 m -176 -176 d s 1304 390 m -188 -188 d s 1292 426 m -224 -224 d s 1270 452 m -250 -250 d s 1242 472 m -270 -270 d s 1196 475 m
 -272 -273 d s 1189 515 m -313 -313 d s 1147 522 m -320 -320 d s 1100 523 m -321 -321 d s 1071 542 m -340 -340 d s 1053 571 m -370 -369 d s 1015 582 m -10 -10 d s 970 537 m -335 -335 d s 957 572 m -370 -370 d s 914 578 m -375 -376 d s 874 585 m -13
 -13 d s 824 535 m -333 -333 d s 765 525 m -48 -48 d s 697 457 m -28 -28 d s 667 426 m -46 -45 d s 579 339 m -6 -6 d s 572 331 m -46 -46 d s 512 271 m -34 -34 d s 475 235 m -32 -33 d s 721 529 m -4 -4 d s 413 221 m -19 -19 d s 351 207 m -5 -5 d s 301
 204 m -3 -2 d s 250 202 m s 238 202 m 48 X 2 Y 48 X 3 Y 48 X 14 Y 48 X 14 Y 48 X 36 Y 48 X 60 Y 47 X 8 Y 48 X 87 Y 48 X 31 Y 48 X 72 Y 48 X -4 Y 48 X 10 Y 48 X 50 Y 48 X -7 Y 48 X -41 Y 48 X 45 Y 48 X -40 Y 47 X -20 Y 48 X -7 Y 48 X -43 Y 48 X -20 Y
 48 X -62 Y 48 X -28 Y 48 X -33 Y 48 X -38 Y 48 X -11 Y 48 X -1 Y 47 X -21 Y 48 X 20 Y 48 X -24 Y 48 X 12 Y 48 X -4 Y 48 X -3 Y 48 X -29 Y 48 X -10 Y 48 X -4 Y 48 X -11 Y 48 X -2 Y 47 X -1 Y 48 X s 0.490196 0.545098 0.615686 c 1 1 1 c 0.490196
 0.545098 0.615686 c 952 202 1202 1313 bl 1202 1313 m 952 X s 2154 1313 m 202 Y s 2154 1515 m -952 X s 1202 1515 m -202 Y s black
 gsave  2268 1684 0 0 C 1296.92 1444.82 t 0 r /Helvetica-Bold findfont 56.8825 sf 0 0 m (Signal \(training sample\)) show NC gr  0 0 0.933333 c /w 21 def /w2 {w 2 div} def /w3 {w 3 div} def 1250 1465 m20 black
 gsave  2268 1684 0 0 C 1296.92 1342.43 t 0 r /Helvetica-Bold findfont 56.8825 sf 0 0 m (Background \(training sample\)) show NC gr  1 0 0 c 1250 1364 m20 0 0 0.933333 c 1 1 1 c 0 0 0.933333 c 717 202 m 17 X s 749 202 m 16 X s 717 195 m 15 Y s 765
 195 m 15 Y s 741 202 m20 765 208 m 16 X s 797 208 m 16 X s 765 201 m 15 Y s 813 201 m 15 Y s 789 208 m20 813 207 m 16 X s 845 207 m 16 X s 813 199 m 16 Y s 861 199 m 16 Y s 837 207 m20 861 213 m 16 X s 892 213 m 17 X s 861 206 m 15 Y s 909 206 m 15
 Y s 885 213 m20 909 214 m 16 X s 940 214 m 17 X s 909 207 m 15 Y s 957 207 m 15 Y s 933 214 m20 957 214 m 16 X s 988 214 m 17 X s 957 206 m 16 Y s 1005 206 m 16 Y s 981 214 m20 1005 222 m 16 X s 1036 222 m 17 X s 1005 215 m 15 Y s 1053 215 m 15 Y s
 1029 222 m20 1053 230 m 16 X s 1084 230 m 16 X s 1053 222 m 15 Y s 1100 222 m 15 Y s 1076 230 m20 1100 240 m 17 X s 1132 240 m 16 X s 1100 232 m 15 Y s 1148 232 m 15 Y s 1124 240 m20 1172 248 m s 1172 263 m s 1148 256 m 17 X s 1180 256 m 16 X s 1165
 248 m 15 X s 1165 263 m 15 X s 1148 248 m 15 Y s 1196 248 m 15 Y s 1172 256 m20 1196 251 m 17 X s 1228 251 m 16 X s 1196 244 m 15 Y s 1244 244 m 15 Y s 1220 251 m20 1268 260 m 1 Y s 1268 276 m 1 Y s 1244 268 m 16 X s 1276 268 m 16 X s 1260 260 m 16
 X s 1260 277 m 16 X s 1244 261 m 15 Y s 1292 261 m 15 Y s 1268 268 m20 1316 250 m 5 Y s 1316 270 m 4 Y s 1292 262 m 16 X s 1324 262 m 16 X s 1308 250 m 16 X s 1308 274 m 16 X s 1292 255 m 15 Y s 1340 255 m 15 Y s 1316 262 m20 1364 279 m 2 Y s 1364
 296 m 2 Y s 1340 288 m 16 X s 1371 288 m 17 X s 1356 279 m 15 X s 1356 298 m 15 X s 1340 281 m 15 Y s 1388 281 m 15 Y s 1364 288 m20 1412 293 m 3 Y s 1412 311 m 4 Y s 1388 304 m 16 X s 1419 304 m 17 X s 1404 293 m 15 X s 1404 315 m 15 X s 1388 296 m
 15 Y s 1436 296 m 15 Y s 1412 304 m20 1460 316 m 4 Y s 1460 335 m 5 Y s 1436 328 m 16 X s 1467 328 m 17 X s 1452 316 m 15 X s 1452 340 m 15 X s 1436 320 m 15 Y s 1484 320 m 15 Y s 1460 328 m20 1508 309 m 4 Y s 1508 328 m 4 Y s 1484 320 m 16 X s 1515
 320 m 17 X s 1500 309 m 15 X s 1500 332 m 15 X s 1484 313 m 15 Y s 1532 313 m 15 Y s 1508 320 m20 1556 349 m 10 Y s 1556 374 m 11 Y s 1532 367 m 16 X s 1563 367 m 16 X s 1548 349 m 15 X s 1548 385 m 15 X s 1532 359 m 15 Y s 1579 359 m 15 Y s 1556
 367 m20 1603 408 m 19 Y s 1603 442 m 19 Y s 1579 435 m 17 X s 1611 435 m 16 X s 1596 408 m 15 X s 1596 461 m 15 X s 1579 427 m 15 Y s 1627 427 m 15 Y s 1603 435 m20 1651 481 m 14 Y s 1651 510 m 14 Y s 1627 503 m 17 X s 1659 503 m 16 X s 1644 481 m
 15 X s 1644 524 m 15 X s 1627 495 m 15 Y s 1675 495 m 15 Y s 1651 503 m20 1699 676 m 16 Y s 1699 707 m 17 Y s 1675 700 m 17 X s 1707 700 m 16 X s 1692 676 m 15 X s 1692 724 m 15 X s 1675 692 m 15 Y s 1723 692 m 15 Y s 1699 700 m20 1747 902 m 18 Y s
 1747 935 m 18 Y s 1723 927 m 17 X s 1755 927 m 16 X s 1740 902 m 15 X s 1740 953 m 15 X s 1723 920 m 15 Y s 1771 920 m 15 Y s 1747 927 m20 1795 1100 m 20 Y s 1795 1135 m 21 Y s 1771 1128 m 16 X s 1803 1128 m 16 X s 1787 1100 m 16 X s 1787 1156 m 16
 X s 1771 1120 m 15 Y s 1819 1120 m 15 Y s 1795 1128 m20 1843 1184 m 21 Y s 1843 1220 m 21 Y s 1819 1212 m 16 X s 1851 1212 m 16 X s 1835 1184 m 16 X s 1835 1241 m 16 X s 1819 1205 m 15 Y s 1867 1205 m 15 Y s 1843 1212 m20 1891 899 m 20 Y s 1891 934
 m 19 Y s 1867 926 m 16 X s 1898 926 m 17 X s 1883 899 m 15 X s 1883 953 m 15 X s 1867 919 m 15 Y s 1915 919 m 15 Y s 1891 926 m20 1939 595 m 9 Y s 1939 619 m 9 Y s 1915 612 m 16 X s 1946 612 m 17 X s 1931 595 m 15 X s 1931 628 m 15 X s 1915 604 m 15
 Y s 1963 604 m 15 Y s 1939 612 m20 1987 325 m 6 Y s 1987 346 m 6 Y s 1963 338 m 16 X s 1994 338 m 17 X s 1979 325 m 15 X s 1979 352 m 15 X s 1963 331 m 15 Y s 2011 331 m 15 Y s 1987 338 m20 2011 245 m 16 X s 2042 245 m 17 X s 2011 237 m 15 Y s 2059
 237 m 15 Y s 2035 245 m20 2059 210 m 16 X s 2090 210 m 16 X s 2059 202 m 15 Y s 2106 202 m 15 Y s 2082 210 m20 2106 203 m 17 X s 2138 203 m 16 X s 2106 195 m 15 Y s 2154 195 m 15 Y s 2130 203 m20 1 0 0 c 1 1 1 c 1 0 0 c 238 203 m 16 X s 270 203 m 16
 X s 238 196 m 15 Y s 286 196 m 15 Y s 262 203 m20 286 207 m 16 X s 318 207 m 16 X s 286 199 m 15 Y s 334 199 m 15 Y s 310 207 m20 334 205 m 16 X s 365 205 m 17 X s 334 197 m 15 Y s 382 197 m 15 Y s 358 205 m20 382 217 m 16 X s 413 217 m 17 X s 382
 209 m 15 Y s 430 209 m 15 Y s 406 217 m20 454 242 m s 454 258 m s 430 250 m 16 X s 461 250 m 17 X s 446 242 m 15 X s 446 258 m 15 X s 430 242 m 16 Y s 478 242 m 16 Y s 454 250 m20 502 283 m 11 Y s 502 309 m 11 Y s 478 301 m 16 X s 509 301 m 17 X s
 494 283 m 15 X s 494 320 m 15 X s 478 294 m 15 Y s 526 294 m 15 Y s 502 301 m20 549 297 m 4 Y s 549 316 m 4 Y s 526 309 m 16 X s 557 309 m 16 X s 542 297 m 15 X s 542 320 m 15 X s 526 301 m 15 Y s 573 301 m 15 Y s 549 309 m20 597 346 m 10 Y s 597
 371 m 11 Y s 573 364 m 17 X s 605 364 m 16 X s 590 346 m 15 X s 590 382 m 15 X s 573 356 m 15 Y s 621 356 m 15 Y s 597 364 m20 645 395 m 12 Y s 645 422 m 12 Y s 621 414 m 17 X s 653 414 m 16 X s 638 395 m 15 X s 638 434 m 15 X s 621 407 m 15 Y s 669
 407 m 15 Y s 645 414 m20 693 442 m 12 Y s 693 469 m 12 Y s 669 461 m 17 X s 701 461 m 16 X s 686 442 m 15 X s 686 481 m 15 X s 669 454 m 15 Y s 717 454 m 15 Y s 693 461 m20 741 532 m 19 Y s 741 566 m 19 Y s 717 558 m 17 X s 749 558 m 16 X s 734 532
 m 15 X s 734 585 m 15 X s 717 551 m 15 Y s 765 551 m 15 Y s 741 558 m20 789 519 m 12 Y s 789 546 m 13 Y s 765 539 m 16 X s 797 539 m 16 X s 781 519 m 16 X s 781 559 m 16 X s 765 531 m 15 Y s 813 531 m 15 Y s 789 539 m20 837 562 m 15 Y s 837 592 m 16
 Y s 813 585 m 16 X s 845 585 m 16 X s 829 562 m 16 X s 829 608 m 16 X s 813 577 m 15 Y s 861 577 m 15 Y s 837 585 m20 885 495 m 11 Y s 885 522 m 11 Y s 861 514 m 16 X s 892 514 m 17 X s 877 495 m 15 X s 877 533 m 15 X s 861 506 m 16 Y s 909 506 m 16
 Y s 885 514 m20 933 519 m 15 Y s 933 550 m 15 Y s 909 542 m 16 X s 940 542 m 17 X s 925 519 m 15 X s 925 565 m 15 X s 909 534 m 16 Y s 957 534 m 16 Y s 933 542 m20 981 541 m 14 Y s 981 571 m 14 Y s 957 563 m 16 X s 988 563 m 17 X s 973 541 m 15 X s
 973 585 m 15 X s 957 555 m 16 Y s 1005 555 m 16 Y s 981 563 m20 1029 570 m 21 Y s 1029 606 m 20 Y s 1005 598 m 16 X s 1036 598 m 17 X s 1021 570 m 15 X s 1021 626 m 15 X s 1005 591 m 15 Y s 1053 591 m 15 Y s 1029 598 m20 1076 505 m 14 Y s 1076 535 m
 14 Y s 1053 527 m 16 X s 1084 527 m 16 X s 1069 505 m 15 X s 1069 549 m 15 X s 1053 519 m 16 Y s 1100 519 m 16 Y s 1076 527 m20 1124 528 m 24 Y s 1124 567 m 24 Y s 1100 559 m 17 X s 1132 559 m 16 X s 1117 528 m 15 X s 1117 591 m 15 X s 1100 552 m 15
 Y s 1148 552 m 15 Y s 1124 559 m20 1172 484 m 14 Y s 1172 513 m 14 Y s 1148 505 m 17 X s 1180 505 m 16 X s 1165 484 m 15 X s 1165 527 m 15 X s 1148 498 m 15 Y s 1196 498 m 15 Y s 1172 505 m20 1220 470 m 12 Y s 1220 498 m 12 Y s 1196 490 m 17 X s
 1228 490 m 16 X s 1213 470 m 15 X s 1213 510 m 15 X s 1196 482 m 16 Y s 1244 482 m 16 Y s 1220 490 m20 1268 440 m 15 Y s 1268 470 m 15 Y s 1244 462 m 16 X s 1276 462 m 16 X s 1260 440 m 16 X s 1260 485 m 16 X s 1244 455 m 15 Y s 1292 455 m 15 Y s
 1268 462 m20 1316 386 m 12 Y s 1316 413 m 12 Y s 1292 406 m 16 X s 1324 406 m 16 X s 1308 386 m 16 X s 1308 425 m 16 X s 1292 398 m 15 Y s 1340 398 m 15 Y s 1316 406 m20 1364 342 m 6 Y s 1364 363 m 6 Y s 1340 356 m 16 X s 1371 356 m 17 X s 1356 342
 m 15 X s 1356 369 m 15 X s 1340 348 m 15 Y s 1388 348 m 15 Y s 1364 356 m20 1412 288 m 2 Y s 1412 305 m 3 Y s 1388 298 m 16 X s 1419 298 m 17 X s 1404 288 m 15 X s 1404 308 m 15 X s 1388 290 m 15 Y s 1436 290 m 15 Y s 1412 298 m20 1460 294 m 7 Y s
 1460 316 m 6 Y s 1436 308 m 16 X s 1467 308 m 17 X s 1452 294 m 15 X s 1452 322 m 15 X s 1436 301 m 15 Y s 1484 301 m 15 Y s 1460 308 m20 1508 258 m 1 Y s 1508 274 m 1 Y s 1484 266 m 16 X s 1515 266 m 17 X s 1500 258 m 15 X s 1500 275 m 15 X s 1484
 259 m 15 Y s 1532 259 m 15 Y s 1508 266 m20 1556 250 m 1 Y s 1556 266 m s 1532 258 m 16 X s 1563 258 m 16 X s 1548 250 m 15 X s 1548 266 m 15 X s 1532 251 m 15 Y s 1579 251 m 15 Y s 1556 258 m20 1603 256 m 1 Y s 1603 272 m 1 Y s 1579 265 m 17 X s
 1611 265 m 16 X s 1596 256 m 15 X s 1596 273 m 15 X s 1579 257 m 15 Y s 1627 257 m 15 Y s 1603 265 m20 1627 254 m 17 X s 1659 254 m 16 X s 1627 246 m 16 Y s 1675 246 m 16 Y s 1651 254 m20 1699 266 m 3 Y s 1699 284 m 2 Y s 1675 276 m 17 X s 1707 276
 m 16 X s 1692 266 m 15 X s 1692 286 m 15 X s 1675 269 m 15 Y s 1723 269 m 15 Y s 1699 276 m20 1747 255 m 3 Y s 1747 273 m 4 Y s 1723 266 m 17 X s 1755 266 m 16 X s 1740 255 m 15 X s 1740 277 m 15 X s 1723 258 m 15 Y s 1771 258 m 15 Y s 1747 266 m20
 1795 248 m 1 Y s 1795 265 m s 1771 257 m 16 X s 1803 257 m 16 X s 1787 248 m 16 X s 1787 265 m 16 X s 1771 249 m 16 Y s 1819 249 m 16 Y s 1795 257 m20 1843 230 m s 1843 245 m 1 Y s 1819 238 m 16 X s 1851 238 m 16 X s 1835 230 m 16 X s 1835 246 m 16
 X s 1819 230 m 15 Y s 1867 230 m 15 Y s 1843 238 m20 1867 215 m 16 X s 1898 215 m 17 X s 1867 207 m 15 Y s 1915 207 m 15 Y s 1891 215 m20 1915 207 m 16 X s 1946 207 m 17 X s 1915 199 m 15 Y s 1963 199 m 15 Y s 1939 207 m20 1963 203 m 16 X s 1994 203
 m 17 X s 1963 195 m 15 Y s 2011 195 m 15 Y s 1987 203 m20 2011 202 m 16 X s 2042 202 m 17 X s 2011 195 m 15 Y s 2059 195 m 15 Y s 2035 202 m20 2059 202 m 16 X s 2090 202 m 16 X s 2059 194 m 16 Y s 2106 194 m 16 Y s 2082 202 m20 black
 gsave  2268 1684 0 0 C 272.126 1245.95 t 0 r /Helvetica-Bold findfont 49.2982 sf 0 0 m (Kolmogorov\255Smirnov test: signal \(background\) probability =     0 \(0.032\)) show NC gr  238 202 m 1916 X s 490 245 m -43 Y s 550 223 m -21 Y s 611 223 m -21
 Y s 671 223 m -21 Y s 732 223 m -21 Y s 792 245 m -43 Y s 852 223 m -21 Y s 913 223 m -21 Y s 973 223 m -21 Y s 1034 223 m -21 Y s 1094 245 m -43 Y s 1155 223 m -21 Y s 1215 223 m -21 Y s 1275 223 m -21 Y s 1336 223 m -21 Y s 1396 245 m -43 Y s 1457
 223 m -21 Y s 1517 223 m -21 Y s 1577 223 m -21 Y s 1638 223 m -21 Y s 1698 245 m -43 Y s 1759 223 m -21 Y s 1819 223 m -21 Y s 1880 223 m -21 Y s 1940 223 m -21 Y s 2000 245 m -43 Y s 490 245 m -43 Y s 429 223 m -21 Y s 369 223 m -21 Y s 309 223 m
 -21 Y s 248 223 m -21 Y s 2000 245 m -43 Y s 2061 223 m -21 Y s 2121 223 m -21 Y s 238 1515 m 1916 X s 490 1473 m 42 Y s 550 1494 m 21 Y s 611 1494 m 21 Y s 671 1494 m 21 Y s 732 1494 m 21 Y s 792 1473 m 42 Y s 852 1494 m 21 Y s 913 1494 m 21 Y s
 973 1494 m 21 Y s 1034 1494 m 21 Y s 1094 1473 m 42 Y s 1155 1494 m 21 Y s 1215 1494 m 21 Y s 1275 1494 m 21 Y s 1336 1494 m 21 Y s 1396 1473 m 42 Y s 1457 1494 m 21 Y s 1517 1494 m 21 Y s 1577 1494 m 21 Y s 1638 1494 m 21 Y s 1698 1473 m 42 Y s
 1759 1494 m 21 Y s 1819 1494 m 21 Y s 1880 1494 m 21 Y s 1940 1494 m 21 Y s 2000 1473 m 42 Y s 490 1473 m 42 Y s 429 1494 m 21 Y s 369 1494 m 21 Y s 309 1494 m 21 Y s 248 1494 m 21 Y s 2000 1473 m 42 Y s 2061 1494 m 21 Y s 2121 1494 m 21 Y s 238 202
 m 1313 Y s 291 202 m -53 X s 265 249 m -27 X s 265 297 m -27 X s 265 344 m -27 X s 291 391 m -53 X s 265 439 m -27 X s 265 486 m -27 X s 265 533 m -27 X s 291 581 m -53 X s 265 628 m -27 X s 265 675 m -27 X s 265 723 m -27 X s 291 770 m -53 X s 265
 817 m -27 X s 265 865 m -27 X s 265 912 m -27 X s 291 959 m -53 X s 265 1007 m -27 X s 265 1054 m -27 X s 265 1101 m -27 X s 291 1149 m -53 X s 265 1196 m -27 X s 265 1243 m -27 X s 265 1291 m -27 X s 291 1338 m -53 X s 291 1338 m -53 X s 265 1385 m
 -27 X s 265 1432 m -27 X s 265 1480 m -27 X s 2154 202 m 1313 Y s 2101 202 m 53 X s 2128 249 m 26 X s 2128 297 m 26 X s 2128 344 m 26 X s 2101 391 m 53 X s 2128 439 m 26 X s 2128 486 m 26 X s 2128 533 m 26 X s 2101 581 m 53 X s 2128 628 m 26 X s
 2128 675 m 26 X s 2128 723 m 26 X s 2101 770 m 53 X s 2128 817 m 26 X s 2128 865 m 26 X s 2128 912 m 26 X s 2101 959 m 53 X s 2128 1007 m 26 X s 2128 1054 m 26 X s 2128 1101 m 26 X s 2101 1149 m 53 X s 2128 1196 m 26 X s 2128 1243 m 26 X s 2128 1291
 m 26 X s 2101 1338 m 53 X s 2101 1338 m 53 X s 2128 1385 m 26 X s 2128 1432 m 26 X s 2128 1480 m 26 X s
 gsave  2268 1684 0 0 C 2211.02 193.628 t 90 r /Helvetica-Bold findfont 45.506 sf 0 0 m (U/O\255flow \(S,B\): \(0.0, 0.0\)% / \(0.0, 0.0\)%) show NC gr  0.490196 0.545098 0.615686 c 0.364706 0.419608 0.490196 c 1587 100 23 1575 bf 0.490196 0.545098
 0.615686 c 23 1575 m 1587 X s 1610 1575 m 100 Y s 1610 1675 m -1587 X s 23 1675 m -100 Y s 1 1 1 c black 1 1 1 c
 gsave  2268 1684 0 0 C 98.5964 1604.09 t 0 r /Helvetica-Bold findfont 68.259 sf 0 0 m (TMVA overtraining check for classifier: BDT) show NC gr 
 gr  gr showpage
end
%%EOF
