%!PS-Adobe-2.0 EPSF-2.0
%%BoundingBox:  0 0 567 546
%%Title: dataset_class_comb2/plots/CorrelationMatrixS.eps: Correlations between MVA input variables (signal)
%%Creator: ROOT Version 6.18/00
%%CreationDate: Sat Sep 14 14:08:16 2019
%%DocumentNeededResources: ProcSet (FontSetInit)
%%EndComments
%%BeginProlog
80 dict begin
/s {stroke} def /l {lineto} def /m {moveto} def /t {translate} def
/r {rotate} def /rl {roll}  def /R {repeat} def
/d {rlineto} def /rm {rmoveto} def /gr {grestore} def /f {eofill} def
/c {setrgbcolor} def /black {0 setgray} def /sd {setdash} def
/cl {closepath} def /sf {scalefont setfont} def /lw {setlinewidth} def
/box {m dup 0 exch d exch 0 d 0 exch neg d cl} def
/NC{systemdict begin initclip end}def/C{NC box clip newpath}def
/bl {box s} def /bf {gsave box gsave f grestore 1 lw [] 0 sd s grestore} def /Y { 0 exch d} def /X { 0 d} def 
/K {{pop pop 0 moveto} exch kshow} bind def
/ita {/ang 15 def gsave [1 0 ang dup sin exch cos div 1 0 0] concat} def 
/mp {newpath /y exch def /x exch def} def
/side {[w .77 mul w .23 mul] .385 w mul sd w 0 l currentpoint t -144 r} def
/mr {mp x y w2 0 360 arc} def /m24 {mr s} def /m20 {mr f} def
/mb {mp x y w2 add m w2 neg 0 d 0 w neg d w 0 d 0 w d cl} def
/mt {mp x y w2 add m w2 neg w neg d w 0 d cl} def
/w4 {w 4 div} def
/w6 {w 6 div} def
/w8 {w 8 div} def
/m21 {mb f} def /m25 {mb s} def /m22 {mt f} def /m26{mt s} def
/m23 {mp x y w2 sub m w2 w d w neg 0 d cl f} def
/m27 {mp x y w2 add m w3 neg w2 neg d w3 w2 neg d w3 w2 d cl s} def
/m28 {mp x w2 sub y w2 sub w3 add m w3 0 d  0 w3 neg d w3 0 d 0 w3 d w3 0 d  0 w3 d w3 neg 0 d 0 w3 d w3 neg 0 d 0 w3 neg d w3 neg 0 d cl s } def
/m29 {mp gsave x w2 sub y w2 add w3 sub m currentpoint t 4 {side} repeat cl fill gr} def
/m30 {mp gsave x w2 sub y w2 add w3 sub m currentpoint t 4 {side} repeat cl s gr} def
/m31 {mp x y w2 sub m 0 w d x w2 sub y m w 0 d x w2 sub y w2 add m w w neg d x w2 sub y w2 sub m w w d s} def
/m32 {mp x y w2 sub m w2 w d w neg 0 d cl s} def
/m33 {mp x y w2 add m w3 neg w2 neg d w3 w2 neg d w3 w2 d cl f} def
/m34 {mp x w2 sub y w2 sub w3 add m w3 0 d  0 w3 neg d w3 0 d 0 w3 d w3 0 d  0 w3 d w3 neg 0 d 0 w3 d w3 neg 0 d 0 w3 neg d w3 neg 0 d cl f } def
/m35 {mp x y w2 add m w2 neg w2 neg d w2 w2 neg d w2 w2 d w2 neg w2 d x y w2 sub m 0 w d x w2 sub y m w 0 d s} def
/m36 {mb x w2 sub y w2 add m w w neg d x w2 sub y w2 sub m w w d s} def
/m37 {mp x y m w4 neg w2 d w4 neg w2 neg d w2 0 d  w4 neg w2 neg d w2 0 d w4 neg w2 d w2 0 d w4 neg w2 d w4 neg w2 neg d cl s} def
/m38 {mp x w4 sub y w2 add m w4 neg w4 neg d 0 w2 neg d w4 w4 neg d w2 0 d w4 w4 d 0 w2 d w4 neg w4 d w2 neg 0 d x y w2 sub m 0 w d x w2 sub y m w 0 d cl s} def
/m39 {mp x y m w4 neg w2 d w4 neg w2 neg d w2 0 d  w4 neg w2 neg d w2 0 d w4 neg w2 d w2 0 d w4 neg w2 d w4 neg w2 neg d cl f} def
/m40 {mp x y m w4 w2 d w4 w4 neg d w2 neg w4 neg d w2 w4 neg d w4 neg w4 neg d w4 neg w2 d w4 neg w2 neg d w4 neg w4 d w2 w4 d w2 neg w4 d w4 w4 d w4 w2 neg d cl s} def
/m41 {mp x y m w4 w2 d w4 w4 neg d w2 neg w4 neg d w2 w4 neg d w4 neg w4 neg d w4 neg w2 d w4 neg w2 neg d w4 neg w4 d w2 w4 d w2 neg w4 d w4 w4 d w4 w2 neg d cl f} def
/m42 {mp x y w2 add m w8 neg w2 -3 4 div mul d w2 -3 4 div mul w8 neg d w2 3 4 div mul w8 neg d w8 w2 -3 4 div mul d w8 w2 3 4 div mul d w2 3 4 div mul w8 d w2 -3 4 div mul w8 d w8 neg w2 3 4 div mul d cl s} def
/m43 {mp x y w2 add m w8 neg w2 -3 4 div mul d w2 -3 4 div mul w8 neg d w2 3 4 div mul w8 neg d w8 w2 -3 4 div mul d w8 w2 3 4 div mul d w2 3 4 div mul w8 d w2 -3 4 div mul w8 d w8 neg w2 3 4 div mul d cl f} def
/m44 {mp x y m w6 neg w2 d w2 2 3 div mul 0 d w6 neg w2 neg d w2 w6 d 0 w2 -2 3 div mul d w2 neg w6 d w6 w2 neg d w2 -2 3 div mul 0 d w6 w2 d w2 neg w6 neg d 0 w2 2 3 div mul d w2 w6 neg d cl s} def
/m45 {mp x y m w6 neg w2 d w2 2 3 div mul 0 d w6 neg w2 neg d w2 w6 d 0 w2 -2 3 div mul d w2 neg w6 d w6 w2 neg d w2 -2 3 div mul 0 d w6 w2 d w2 neg w6 neg d 0 w2 2 3 div mul d w2 w6 neg d cl f} def
/m46 {mp x y w4 add m w4 neg w4 d w4 neg w4 neg d  w4 w4 neg d w4 neg w4 neg d w4 w4 neg d w4 w4 d w4 w4 neg d w4 w4 d w4 neg w4 d w4 w4 d w4 neg w4 d w4 neg w4 neg d cl s} def
/m47 {mp x y w4 add m w4 neg w4 d w4 neg w4 neg d w4 w4 neg d w4 neg w4 neg d  w4 w4 neg d w4 w4 d w4 w4 neg d w4 w4 d w4 neg w4 d w4 w4 d w4 neg w4 d w4 neg w4 neg d cl f} def
/m48 {mp x y w4 add m w4 neg w4 d w4 neg w4 neg d w4 w4 neg d  w4 neg w4 neg d w4 w4 neg d w4 w4 d w4 w4 neg d w4 w4 d w4 neg w4 d w4 w4 d w4 neg w4 d w4 neg w4 neg d  w4 w4 neg d w4 neg w4 neg d w4 neg w4 d w4 w4 d cl f} def
/m49 {mp x w2 sub w3 add y w2 sub w3 add m  0 w3 neg d w3 0 d 0 w3 d w3 0 d 0 w3 d w3 neg 0 d 0 w3 d w3 neg 0 d 0 w3 neg d w3 neg 0 d 0 w3 neg d w3 0 d 0 w3 d w3 0 d 0 w3 neg d w3 neg 0 d cl f } def
/m2 {mp x y w2 sub m 0 w d x w2 sub y m w 0 d s} def
/m5 {mp x w2 sub y w2 sub m w w d x w2 sub y w2 add m w w neg d s} def
%%IncludeResource: ProcSet (FontSetInit)
%%IncludeResource: font Times-Roman
%%IncludeResource: font Times-Italic
%%IncludeResource: font Times-Bold
%%IncludeResource: font Times-BoldItalic
%%IncludeResource: font Helvetica
%%IncludeResource: font Helvetica-Oblique
%%IncludeResource: font Helvetica-Bold
%%IncludeResource: font Helvetica-BoldOblique
%%IncludeResource: font Courier
%%IncludeResource: font Courier-Oblique
%%IncludeResource: font Courier-Bold
%%IncludeResource: font Courier-BoldOblique
%%IncludeResource: font Symbol
%%IncludeResource: font ZapfDingbats
/reEncode {exch findfont dup length dict begin {1 index /FID eq  {pop pop} {def} ifelse } forall /Encoding exch def currentdict end dup /FontName get exch definefont pop } def [/Times-Bold /Times-Italic /Times-BoldItalic /Helvetica /Helvetica-Oblique
 /Helvetica-Bold /Helvetica-BoldOblique /Courier /Courier-Oblique /Courier-Bold /Courier-BoldOblique /Times-Roman /AvantGarde-Book /AvantGarde-BookOblique /AvantGarde-Demi /AvantGarde-DemiOblique /Bookman-Demi /Bookman-DemiItalic /Bookman-Light
 /Bookman-LightItalic /Helvetica-Narrow /Helvetica-Narrow-Bold /Helvetica-Narrow-BoldOblique /Helvetica-Narrow-Oblique /NewCenturySchlbk-Roman /NewCenturySchlbk-Bold /NewCenturySchlbk-BoldItalic /NewCenturySchlbk-Italic /Palatino-Bold
 /Palatino-BoldItalic /Palatino-Italic /Palatino-Roman ] {ISOLatin1Encoding reEncode } forall
%%EndProlog
%%BeginSetup
%%EndSetup
newpath  gsave  .25 .25 scale  gsave  0 0 t 0.490196 0.545098 0.615686 c[  ] 0 sd 3 lw 0.941176 0.941176 0.941176 c 2268 2184 0 0 bf black 1 1 0.992157 c 1633 1572 340 328 bf black 1633 1572 340 328 bl 1 1 0.992157 c 1633 1572 340 328 bf black 1633
 1572 340 328 bl 1 1 1 c 1 0 0 c 182 174 340 328 bf 0.413333 1 0 c 181 174 522 328 bf 0.133333 1 0 c 181 174 703 328 bf 0.413333 1 0 c 182 174 884 328 bf 181 174 1066 328 bf 0.88 1 0 c 182 174 1247 328 bf 0 1 0.0533333 c 181 174 1429 328 bf 0.6 1 0 c
 181 174 1610 328 bf 0 1 0.333333 c 182 174 1791 328 bf 0.413333 1 0 c 182 175 340 502 bf 1 0 0 c 181 175 522 502 bf 0.6 1 0 c 181 175 703 502 bf 0.133333 1 0 c 182 175 884 502 bf 0.6 1 0 c 181 175 1066 502 bf 0.133333 1 0 c 182 175 1247 502 bf 0 1
 0.333333 c 181 175 1429 502 bf 0.413333 1 0 c 181 175 1610 502 bf 0 1 0.333333 c 182 175 1791 502 bf 0.133333 1 0 c 182 175 340 677 bf 0.6 1 0 c 181 175 522 677 bf 1 0 0 c 181 175 703 677 bf 0.413333 1 0 c 182 175 884 677 bf 0.6 1 0 c 181 175 1066
 677 bf 0.133333 1 0 c 182 175 1247 677 bf 0 1 0.0533333 c 181 175 1429 677 bf 0.6 1 0 c 181 175 1610 677 bf 0 1 0.333333 c 182 175 1791 677 bf 0.413333 1 0 c 182 175 340 852 bf 0.133333 1 0 c 181 175 522 852 bf 0.413333 1 0 c 181 175 703 852 bf 1 0
 0 c 182 175 884 852 bf 0.6 1 0 c 181 175 1066 852 bf 0.88 1 0 c 182 175 1247 852 bf 0 1 0.333333 c 181 175 1429 852 bf 0.6 1 0 c 181 175 1610 852 bf 0 1 0.333333 c 182 175 1791 852 bf 0.413333 1 0 c 182 174 340 1027 bf 0.6 1 0 c 181 174 522 1027 bf
 181 174 703 1027 bf 182 174 884 1027 bf 1 0 0 c 181 174 1066 1027 bf 0 1 0.0533333 c 182 174 1247 1027 bf 0 1 0.52 c 181 174 1429 1027 bf 0 1 0.0533333 c 181 174 1610 1027 bf 1 0.933333 0 c 182 174 1791 1027 bf 0.88 1 0 c 182 175 340 1201 bf
 0.133333 1 0 c 181 175 522 1201 bf 181 175 703 1201 bf 0.88 1 0 c 182 175 884 1201 bf 0 1 0.0533333 c 181 175 1066 1201 bf 1 0 0 c 182 175 1247 1201 bf 0.88 1 0 c 181 175 1429 1201 bf 0.413333 1 0 c 181 175 1610 1201 bf 0 1 0.52 c 182 175 1791 1201
 bf 0 1 0.0533333 c 182 175 340 1376 bf 0 1 0.333333 c 181 175 522 1376 bf 0 1 0.0533333 c 181 175 703 1376 bf 0 1 0.333333 c 182 175 884 1376 bf 0 1 0.52 c 181 175 1066 1376 bf 0.88 1 0 c 182 175 1247 1376 bf 1 0 0 c 181 175 1429 1376 bf 0.133333 1
 0 c 181 175 1610 1376 bf 0 0.733333 1 c 182 175 1791 1376 bf 0.6 1 0 c 182 175 340 1551 bf 0.413333 1 0 c 181 175 522 1551 bf 0.6 1 0 c 181 175 703 1551 bf 182 175 884 1551 bf 0 1 0.0533333 c 181 175 1066 1551 bf 0.413333 1 0 c 182 175 1247 1551 bf
 0.133333 1 0 c 181 175 1429 1551 bf 1 0 0 c 181 175 1610 1551 bf 0 0.733333 1 c 182 175 1791 1551 bf 0 1 0.333333 c 182 174 340 1726 bf 181 174 522 1726 bf 181 174 703 1726 bf 182 174 884 1726 bf 1 0.933333 0 c 181 174 1066 1726 bf 0 1 0.52 c 182
 174 1247 1726 bf 0 0.733333 1 c 181 174 1429 1726 bf 181 174 1610 1726 bf 1 0 0 c 182 174 1791 1726 bf 0.386667 0 1 c 102 78 1984 328 bf 0.2 0 1 c 102 79 1984 406 bf 0 0.0800001 1 c 102 79 1984 485 bf 0 0.266667 1 c 102 78 1984 564 bf 0 0.546666 1 c
 102 79 1984 642 bf 0 0.733333 1 c 102 78 1984 721 bf 0 1 0.986667 c 102 79 1984 799 bf 0 1 0.8 c 102 79 1984 878 bf 0 1 0.52 c 102 78 1984 957 bf 0 1 0.333333 c 102 79 1984 1035 bf 0 1 0.0533333 c 102 79 1984 1114 bf 0.133333 1 0 c 102 78 1984 1193
 bf 0.413333 1 0 c 102 79 1984 1271 bf 0.6 1 0 c 102 79 1984 1350 bf 0.88 1 0 c 102 78 1984 1429 bf 1 0.933333 0 c 102 79 1984 1507 bf 1 0.653333 0 c 102 78 1984 1586 bf 1 0.466667 0 c 102 79 1984 1664 bf 1 0.186667 0 c 102 79 1984 1743 bf 1 0 0 c
 102 78 1984 1822 bf black 2086 328 m 1572 Y s 2037 328 m 49 X s 2037 485 m 49 X s 2037 642 m 49 X s 2037 799 m 49 X s 2037 957 m 49 X s 2037 1114 m 49 X s 2037 1271 m 49 X s 2037 1429 m 49 X s 2037 1586 m 49 X s 2037 1743 m 49 X s 2037 1900 m 49 X s
 gsave  2268 2184 0 0 C 2134.99 303.373 t 0 r /Helvetica findfont 72.0512 sf 0 0 m (100) show NC gr 
 gsave  2268 2184 0 0 C 2097.07 303.373 t 0 r /Symbol findfont 72.0512 sf 0 0 m (-) show NC gr 
 gsave  2268 2184 0 0 C 2134.99 458.852 t 0 r /Helvetica findfont 72.0512 sf 0 0 m (80) show NC gr 
 gsave  2268 2184 0 0 C 2097.07 458.852 t 0 r /Symbol findfont 72.0512 sf 0 0 m (-) show NC gr 
 gsave  2268 2184 0 0 C 2134.99 618.123 t 0 r /Helvetica findfont 72.0512 sf 0 0 m (60) show NC gr 
 gsave  2268 2184 0 0 C 2097.07 618.123 t 0 r /Symbol findfont 72.0512 sf 0 0 m (-) show NC gr 
 gsave  2268 2184 0 0 C 2134.99 773.602 t 0 r /Helvetica findfont 72.0512 sf 0 0 m (40) show NC gr 
 gsave  2268 2184 0 0 C 2097.07 773.602 t 0 r /Symbol findfont 72.0512 sf 0 0 m (-) show NC gr 
 gsave  2268 2184 0 0 C 2134.99 932.873 t 0 r /Helvetica findfont 72.0512 sf 0 0 m (20) show NC gr 
 gsave  2268 2184 0 0 C 2097.07 932.873 t 0 r /Symbol findfont 72.0512 sf 0 0 m (-) show NC gr 
 gsave  2268 2184 0 0 C 2097.07 1088.35 t 0 r /Helvetica findfont 72.0512 sf 0 0 m (0) show NC gr 
 gsave  2268 2184 0 0 C 2097.07 1247.62 t 0 r /Helvetica findfont 72.0512 sf 0 0 m (20) show NC gr 
 gsave  2268 2184 0 0 C 2097.07 1403.1 t 0 r /Helvetica findfont 72.0512 sf 0 0 m (40) show NC gr 
 gsave  2268 2184 0 0 C 2097.07 1562.37 t 0 r /Helvetica findfont 72.0512 sf 0 0 m (60) show NC gr 
 gsave  2268 2184 0 0 C 2097.07 1717.85 t 0 r /Helvetica findfont 72.0512 sf 0 0 m (80) show NC gr 
 gsave  2268 2184 0 0 C 2097.07 1877.12 t 0 r /Helvetica findfont 72.0512 sf 0 0 m (100) show NC gr  1 1 1 c black 340 328 m 1633 X s
 gsave  2268 2184 0 0 C 420.931 261.66 t -19 r /Helvetica findfont 53.0903 sf 0 0 m (yy.H1_l3) show NC gr 
 gsave  2268 2184 0 0 C 602.955 261.66 t -19 r /Helvetica findfont 53.0903 sf 0 0 m (yy.HP_l1) show NC gr 
 gsave  2268 2184 0 0 C 784.979 261.66 t -19 r /Helvetica findfont 53.0903 sf 0 0 m (bb.H1_l1) show NC gr 
 gsave  2268 2184 0 0 C 967.003 261.66 t -19 r /Helvetica findfont 53.0903 sf 0 0 m (bb.HY_l3) show NC gr 
 gsave  2268 2184 0 0 C 1145.23 261.66 t -19 r /Helvetica findfont 53.0903 sf 0 0 m (yybb.H1_l2) show NC gr 
 gsave  2268 2184 0 0 C 1327.26 261.66 t -19 r /Helvetica findfont 53.0903 sf 0 0 m (yybb.HP_l3) show NC gr 
 gsave  2268 2184 0 0 C 1509.28 261.66 t -19 r /Helvetica findfont 53.0903 sf 0 0 m (hh.H1_l3) show NC gr 
 gsave  2268 2184 0 0 C 1691.31 261.66 t -19 r /Helvetica findfont 53.0903 sf 0 0 m (hh.HT_l1) show NC gr 
 gsave  2268 2184 0 0 C 1873.33 261.66 t -19 r /Helvetica findfont 53.0903 sf 0 0 m (hh.HP_l2) show NC gr  340 375 m -47 Y s[ 4 8] 0 sd 340 1900 m -1572 Y s[  ] 0 sd 522 375 m -47 Y s[ 4 8] 0 sd 522 1900 m -1572 Y s[  ] 0 sd 703 375 m -47 Y s[ 4 8] 0
 sd 703 1900 m -1572 Y s[  ] 0 sd 884 375 m -47 Y s[ 4 8] 0 sd 884 1900 m -1572 Y s[  ] 0 sd 1066 375 m -47 Y s[ 4 8] 0 sd 1066 1900 m -1572 Y s[  ] 0 sd 1247 375 m -47 Y s[ 4 8] 0 sd 1247 1900 m -1572 Y s[  ] 0 sd 1429 375 m -47 Y s[ 4 8] 0 sd 1429
 1900 m -1572 Y s[  ] 0 sd 1610 375 m -47 Y s[ 4 8] 0 sd 1610 1900 m -1572 Y s[  ] 0 sd 1791 375 m -47 Y s[ 4 8] 0 sd 1791 1900 m -1572 Y s[  ] 0 sd 1973 375 m -47 Y s[ 4 8] 0 sd 1973 1900 m -1572 Y s[  ] 0 sd 340 1900 m 1633 X s 340 1853 m 47 Y s
 522 1853 m 47 Y s 703 1853 m 47 Y s 884 1853 m 47 Y s 1066 1853 m 47 Y s 1247 1853 m 47 Y s 1429 1853 m 47 Y s 1610 1853 m 47 Y s 1791 1853 m 47 Y s 1973 1853 m 47 Y s 340 328 m 1572 Y s
 gsave  2268 2184 0 0 C 113.765 401.97 t 0 r /Helvetica findfont 53.0903 sf 0 0 m (yy.H1_l3) show NC gr 
 gsave  2268 2184 0 0 C 117.557 576.41 t 0 r /Helvetica findfont 53.0903 sf 0 0 m (yy.HP_l1) show NC gr 
 gsave  2268 2184 0 0 C 113.765 747.057 t 0 r /Helvetica findfont 53.0903 sf 0 0 m (bb.H1_l1) show NC gr 
 gsave  2268 2184 0 0 C 98.5964 921.497 t 0 r /Helvetica findfont 53.0903 sf 0 0 m (bb.HY_l3) show NC gr 
 gsave  2268 2184 0 0 C 53.0904 1099.73 t 0 r /Helvetica findfont 53.0903 sf 0 0 m (yybb.H1_l2) show NC gr 
 gsave  2268 2184 0 0 C 49.2982 1274.17 t 0 r /Helvetica findfont 53.0903 sf 0 0 m (yybb.HP_l3) show NC gr 
 gsave  2268 2184 0 0 C 106.181 1444.82 t 0 r /Helvetica findfont 53.0903 sf 0 0 m (hh.H1_l3) show NC gr 
 gsave  2268 2184 0 0 C 109.973 1619.26 t 0 r /Helvetica findfont 53.0903 sf 0 0 m (hh.HT_l1) show NC gr 
 gsave  2268 2184 0 0 C 102.389 1797.49 t 0 r /Helvetica findfont 53.0903 sf 0 0 m (hh.HP_l2) show NC gr  389 328 m -49 X s[ 4 8] 0 sd 1973 328 m -1633 X s[  ] 0 sd 389 502 m -49 X s[ 4 8] 0 sd 1973 502 m -1633 X s[  ] 0 sd 389 677 m -49 X s[ 4 8] 0
 sd 1973 677 m -1633 X s[  ] 0 sd 389 852 m -49 X s[ 4 8] 0 sd 1973 852 m -1633 X s[  ] 0 sd 389 1027 m -49 X s[ 4 8] 0 sd 1973 1027 m -1633 X s[  ] 0 sd 389 1201 m -49 X s[ 4 8] 0 sd 1973 1201 m -1633 X s[  ] 0 sd 389 1376 m -49 X s[ 4 8] 0 sd 1973
 1376 m -1633 X s[  ] 0 sd 389 1551 m -49 X s[ 4 8] 0 sd 1973 1551 m -1633 X s[  ] 0 sd 389 1726 m -49 X s[ 4 8] 0 sd 1973 1726 m -1633 X s[  ] 0 sd 389 1900 m -49 X s[ 4 8] 0 sd 1973 1900 m -1633 X s[  ] 0 sd 1973 328 m 1572 Y s 1924 328 m 49 X s
 1924 502 m 49 X s 1924 677 m 49 X s 1924 852 m 49 X s 1924 1027 m 49 X s 1924 1201 m 49 X s 1924 1376 m 49 X s 1924 1551 m 49 X s 1924 1726 m 49 X s 1924 1900 m 49 X s 0.490196 0.545098 0.615686 c 0.364706 0.419608 0.490196 c 1368 127 23 2046 bf
 0.490196 0.545098 0.615686 c 23 2046 m 1368 X s 1391 2046 m 127 Y s 1391 2173 m -1368 X s 23 2173 m -127 Y s 1 1 1 c black 1 1 1 c
 gsave  2268 2184 0 0 C 91.012 2081.9 t 0 r /Helvetica-Bold findfont 98.5964 sf 0 0 m (Correlation Matrix \(signal\)) show NC gr  black 1 1 1 c
 gsave  2268 2184 0 0 C 375.425 394.385 t 0 r /Helvetica-Bold findfont 60.6747 sf 0 0 m (100) show NC gr  black 1 1 1 c
 gsave  2268 2184 0 0 C 568.825 394.385 t 0 r /Helvetica-Bold findfont 60.6747 sf 0 0 m ( 20) show NC gr  black 1 1 1 c
 gsave  2268 2184 0 0 C 750.849 394.385 t 0 r /Helvetica-Bold findfont 60.6747 sf 0 0 m ( 10) show NC gr  black 1 1 1 c
 gsave  2268 2184 0 0 C 932.873 390.593 t 0 r /Helvetica-Bold findfont 60.6747 sf 0 0 m ( 27) show NC gr  black 1 1 1 c
 gsave  2268 2184 0 0 C 1111.11 394.385 t 0 r /Helvetica-Bold findfont 60.6747 sf 0 0 m ( 28) show NC gr  black 1 1 1 c
 gsave  2268 2184 0 0 C 1293.13 394.385 t 0 r /Helvetica-Bold findfont 60.6747 sf 0 0 m ( 40) show NC gr  black 1 1 1 c
 gsave  2268 2184 0 0 C 1660.97 394.385 t 0 r /Helvetica-Bold findfont 60.6747 sf 0 0 m ( 31) show NC gr  black 1 1 1 c
 gsave  2268 2184 0 0 C 1850.58 390.593 t 0 r /Helvetica-Bold findfont 60.6747 sf 0 0 m ( \2551) show NC gr  black 1 1 1 c
 gsave  2268 2184 0 0 C 386.801 568.825 t 0 r /Helvetica-Bold findfont 60.6747 sf 0 0 m ( 20) show NC gr  black 1 1 1 c
 gsave  2268 2184 0 0 C 557.449 568.825 t 0 r /Helvetica-Bold findfont 60.6747 sf 0 0 m (100) show NC gr  black 1 1 1 c
 gsave  2268 2184 0 0 C 750.849 568.825 t 0 r /Helvetica-Bold findfont 60.6747 sf 0 0 m ( 39) show NC gr  black 1 1 1 c
 gsave  2268 2184 0 0 C 932.873 568.825 t 0 r /Helvetica-Bold findfont 60.6747 sf 0 0 m ( 15) show NC gr  black 1 1 1 c
 gsave  2268 2184 0 0 C 1111.11 568.825 t 0 r /Helvetica-Bold findfont 60.6747 sf 0 0 m ( 38) show NC gr  black 1 1 1 c
 gsave  2268 2184 0 0 C 1293.13 568.825 t 0 r /Helvetica-Bold findfont 60.6747 sf 0 0 m ( 13) show NC gr  black 1 1 1 c
 gsave  2268 2184 0 0 C 1486.53 565.033 t 0 r /Helvetica-Bold findfont 60.6747 sf 0 0 m ( \2551) show NC gr  black 1 1 1 c
 gsave  2268 2184 0 0 C 1657.18 568.825 t 0 r /Helvetica-Bold findfont 60.6747 sf 0 0 m ( 28) show NC gr  black 1 1 1 c
 gsave  2268 2184 0 0 C 1842.99 568.825 t 0 r /Helvetica-Bold findfont 60.6747 sf 0 0 m ( \2559) show NC gr  black 1 1 1 c
 gsave  2268 2184 0 0 C 386.801 743.265 t 0 r /Helvetica-Bold findfont 60.6747 sf 0 0 m ( 10) show NC gr  black 1 1 1 c
 gsave  2268 2184 0 0 C 568.825 743.265 t 0 r /Helvetica-Bold findfont 60.6747 sf 0 0 m ( 39) show NC gr  black 1 1 1 c
 gsave  2268 2184 0 0 C 739.473 743.265 t 0 r /Helvetica-Bold findfont 60.6747 sf 0 0 m (100) show NC gr  black 1 1 1 c
 gsave  2268 2184 0 0 C 932.873 743.265 t 0 r /Helvetica-Bold findfont 60.6747 sf 0 0 m ( 25) show NC gr  black 1 1 1 c
 gsave  2268 2184 0 0 C 1111.11 743.265 t 0 r /Helvetica-Bold findfont 60.6747 sf 0 0 m ( 39) show NC gr  black 1 1 1 c
 gsave  2268 2184 0 0 C 1293.13 739.473 t 0 r /Helvetica-Bold findfont 60.6747 sf 0 0 m ( 14) show NC gr  black 1 1 1 c
 gsave  2268 2184 0 0 C 1657.18 743.265 t 0 r /Helvetica-Bold findfont 60.6747 sf 0 0 m ( 33) show NC gr  black 1 1 1 c
 gsave  2268 2184 0 0 C 1835.41 743.265 t 0 r /Helvetica-Bold findfont 60.6747 sf 0 0 m (\25510) show NC gr  black 1 1 1 c
 gsave  2268 2184 0 0 C 386.801 913.912 t 0 r /Helvetica-Bold findfont 60.6747 sf 0 0 m ( 27) show NC gr  black 1 1 1 c
 gsave  2268 2184 0 0 C 568.825 917.705 t 0 r /Helvetica-Bold findfont 60.6747 sf 0 0 m ( 15) show NC gr  black 1 1 1 c
 gsave  2268 2184 0 0 C 750.849 917.705 t 0 r /Helvetica-Bold findfont 60.6747 sf 0 0 m ( 25) show NC gr  black 1 1 1 c
 gsave  2268 2184 0 0 C 921.497 917.705 t 0 r /Helvetica-Bold findfont 60.6747 sf 0 0 m (100) show NC gr  black 1 1 1 c
 gsave  2268 2184 0 0 C 1111.11 917.705 t 0 r /Helvetica-Bold findfont 60.6747 sf 0 0 m ( 32) show NC gr  black 1 1 1 c
 gsave  2268 2184 0 0 C 1293.13 917.705 t 0 r /Helvetica-Bold findfont 60.6747 sf 0 0 m ( 40) show NC gr  black 1 1 1 c
 gsave  2268 2184 0 0 C 1486.53 913.912 t 0 r /Helvetica-Bold findfont 60.6747 sf 0 0 m ( \2551) show NC gr  black 1 1 1 c
 gsave  2268 2184 0 0 C 1657.18 917.705 t 0 r /Helvetica-Bold findfont 60.6747 sf 0 0 m ( 36) show NC gr  black 1 1 1 c
 gsave  2268 2184 0 0 C 1842.99 913.912 t 0 r /Helvetica-Bold findfont 60.6747 sf 0 0 m ( \2554) show NC gr  black 1 1 1 c
 gsave  2268 2184 0 0 C 386.801 1092.14 t 0 r /Helvetica-Bold findfont 60.6747 sf 0 0 m ( 28) show NC gr  black 1 1 1 c
 gsave  2268 2184 0 0 C 568.825 1092.14 t 0 r /Helvetica-Bold findfont 60.6747 sf 0 0 m ( 38) show NC gr  black 1 1 1 c
 gsave  2268 2184 0 0 C 750.849 1092.14 t 0 r /Helvetica-Bold findfont 60.6747 sf 0 0 m ( 39) show NC gr  black 1 1 1 c
 gsave  2268 2184 0 0 C 932.873 1092.14 t 0 r /Helvetica-Bold findfont 60.6747 sf 0 0 m ( 32) show NC gr  black 1 1 1 c
 gsave  2268 2184 0 0 C 1099.73 1092.14 t 0 r /Helvetica-Bold findfont 60.6747 sf 0 0 m (100) show NC gr  black 1 1 1 c
 gsave  2268 2184 0 0 C 1300.71 1092.14 t 0 r /Helvetica-Bold findfont 60.6747 sf 0 0 m (  8) show NC gr  black 1 1 1 c
 gsave  2268 2184 0 0 C 1471.36 1092.14 t 0 r /Helvetica-Bold findfont 60.6747 sf 0 0 m (\25519) show NC gr  black 1 1 1 c
 gsave  2268 2184 0 0 C 1664.76 1092.14 t 0 r /Helvetica-Bold findfont 60.6747 sf 0 0 m (  5) show NC gr  black 1 1 1 c
 gsave  2268 2184 0 0 C 1839.2 1092.14 t 0 r /Helvetica-Bold findfont 60.6747 sf 0 0 m ( 53) show NC gr  black 1 1 1 c
 gsave  2268 2184 0 0 C 386.801 1266.58 t 0 r /Helvetica-Bold findfont 60.6747 sf 0 0 m ( 40) show NC gr  black 1 1 1 c
 gsave  2268 2184 0 0 C 568.825 1266.58 t 0 r /Helvetica-Bold findfont 60.6747 sf 0 0 m ( 13) show NC gr  black 1 1 1 c
 gsave  2268 2184 0 0 C 750.849 1262.79 t 0 r /Helvetica-Bold findfont 60.6747 sf 0 0 m ( 14) show NC gr  black 1 1 1 c
 gsave  2268 2184 0 0 C 932.873 1266.58 t 0 r /Helvetica-Bold findfont 60.6747 sf 0 0 m ( 40) show NC gr  black 1 1 1 c
 gsave  2268 2184 0 0 C 1118.69 1266.58 t 0 r /Helvetica-Bold findfont 60.6747 sf 0 0 m (  8) show NC gr  black 1 1 1 c
 gsave  2268 2184 0 0 C 1281.75 1266.58 t 0 r /Helvetica-Bold findfont 60.6747 sf 0 0 m (100) show NC gr  black 1 1 1 c
 gsave  2268 2184 0 0 C 1475.15 1266.58 t 0 r /Helvetica-Bold findfont 60.6747 sf 0 0 m ( 49) show NC gr  black 1 1 1 c
 gsave  2268 2184 0 0 C 1657.18 1266.58 t 0 r /Helvetica-Bold findfont 60.6747 sf 0 0 m ( 23) show NC gr  black 1 1 1 c
 gsave  2268 2184 0 0 C 1835.41 1266.58 t 0 r /Helvetica-Bold findfont 60.6747 sf 0 0 m (\25518) show NC gr  black 1 1 1 c
 gsave  2268 2184 0 0 C 580.202 1437.23 t 0 r /Helvetica-Bold findfont 60.6747 sf 0 0 m ( \2551) show NC gr  black 1 1 1 c
 gsave  2268 2184 0 0 C 944.25 1437.23 t 0 r /Helvetica-Bold findfont 60.6747 sf 0 0 m ( \2551) show NC gr  black 1 1 1 c
 gsave  2268 2184 0 0 C 1107.31 1441.02 t 0 r /Helvetica-Bold findfont 60.6747 sf 0 0 m (\25519) show NC gr  black 1 1 1 c
 gsave  2268 2184 0 0 C 1293.13 1441.02 t 0 r /Helvetica-Bold findfont 60.6747 sf 0 0 m ( 49) show NC gr  black 1 1 1 c
 gsave  2268 2184 0 0 C 1463.78 1441.02 t 0 r /Helvetica-Bold findfont 60.6747 sf 0 0 m (100) show NC gr  black 1 1 1 c
 gsave  2268 2184 0 0 C 1657.18 1441.02 t 0 r /Helvetica-Bold findfont 60.6747 sf 0 0 m ( 10) show NC gr  black 1 1 1 c
 gsave  2268 2184 0 0 C 1835.41 1441.02 t 0 r /Helvetica-Bold findfont 60.6747 sf 0 0 m (\25549) show NC gr  black 1 1 1 c
 gsave  2268 2184 0 0 C 390.593 1615.46 t 0 r /Helvetica-Bold findfont 60.6747 sf 0 0 m ( 31) show NC gr  black 1 1 1 c
 gsave  2268 2184 0 0 C 568.825 1615.46 t 0 r /Helvetica-Bold findfont 60.6747 sf 0 0 m ( 28) show NC gr  black 1 1 1 c
 gsave  2268 2184 0 0 C 750.849 1615.46 t 0 r /Helvetica-Bold findfont 60.6747 sf 0 0 m ( 33) show NC gr  black 1 1 1 c
 gsave  2268 2184 0 0 C 932.873 1615.46 t 0 r /Helvetica-Bold findfont 60.6747 sf 0 0 m ( 36) show NC gr  black 1 1 1 c
 gsave  2268 2184 0 0 C 1118.69 1615.46 t 0 r /Helvetica-Bold findfont 60.6747 sf 0 0 m (  5) show NC gr  black 1 1 1 c
 gsave  2268 2184 0 0 C 1293.13 1615.46 t 0 r /Helvetica-Bold findfont 60.6747 sf 0 0 m ( 23) show NC gr  black 1 1 1 c
 gsave  2268 2184 0 0 C 1475.15 1615.46 t 0 r /Helvetica-Bold findfont 60.6747 sf 0 0 m ( 10) show NC gr  black 1 1 1 c
 gsave  2268 2184 0 0 C 1645.8 1615.46 t 0 r /Helvetica-Bold findfont 60.6747 sf 0 0 m (100) show NC gr  black 1 1 1 c
 gsave  2268 2184 0 0 C 1835.41 1615.46 t 0 r /Helvetica-Bold findfont 60.6747 sf 0 0 m (\25546) show NC gr  black 1 1 1 c
 gsave  2268 2184 0 0 C 398.178 1789.9 t 0 r /Helvetica-Bold findfont 60.6747 sf 0 0 m ( \2551) show NC gr  black 1 1 1 c
 gsave  2268 2184 0 0 C 572.617 1793.7 t 0 r /Helvetica-Bold findfont 60.6747 sf 0 0 m ( \2559) show NC gr  black 1 1 1 c
 gsave  2268 2184 0 0 C 747.057 1793.7 t 0 r /Helvetica-Bold findfont 60.6747 sf 0 0 m (\25510) show NC gr  black 1 1 1 c
 gsave  2268 2184 0 0 C 936.666 1789.9 t 0 r /Helvetica-Bold findfont 60.6747 sf 0 0 m ( \2554) show NC gr  black 1 1 1 c
 gsave  2268 2184 0 0 C 1111.11 1793.7 t 0 r /Helvetica-Bold findfont 60.6747 sf 0 0 m ( 53) show NC gr  black 1 1 1 c
 gsave  2268 2184 0 0 C 1289.34 1793.7 t 0 r /Helvetica-Bold findfont 60.6747 sf 0 0 m (\25518) show NC gr  black 1 1 1 c
 gsave  2268 2184 0 0 C 1471.36 1793.7 t 0 r /Helvetica-Bold findfont 60.6747 sf 0 0 m (\25549) show NC gr  black 1 1 1 c
 gsave  2268 2184 0 0 C 1653.39 1793.7 t 0 r /Helvetica-Bold findfont 60.6747 sf 0 0 m (\25546) show NC gr  black 1 1 1 c
 gsave  2268 2184 0 0 C 1827.83 1793.7 t 0 r /Helvetica-Bold findfont 60.6747 sf 0 0 m (100) show NC gr  black
 gsave  2268 2184 0 0 C 1201.89 1922.17 t 0 r /Helvetica-Bold findfont 53.0903 sf 0 0 m (Linear correlation coefficients in %) show NC gr 
 gr  gr showpage
end
%%EOF
