%!PS-Adobe-2.0 EPSF-2.0
%%BoundingBox:  0 0 567 421
%%Title: dataset_class_comb2/plots/mvaeffs_RuleFit.eps: Cut efficiencies for RuleFit classifier
%%Creator: ROOT Version 6.18/00
%%CreationDate: Sat Sep 14 14:13:18 2019
%%DocumentNeededResources: ProcSet (FontSetInit)
%%EndComments
%%BeginProlog
80 dict begin
/s {stroke} def /l {lineto} def /m {moveto} def /t {translate} def
/r {rotate} def /rl {roll}  def /R {repeat} def
/d {rlineto} def /rm {rmoveto} def /gr {grestore} def /f {eofill} def
/c {setrgbcolor} def /black {0 setgray} def /sd {setdash} def
/cl {closepath} def /sf {scalefont setfont} def /lw {setlinewidth} def
/box {m dup 0 exch d exch 0 d 0 exch neg d cl} def
/NC{systemdict begin initclip end}def/C{NC box clip newpath}def
/bl {box s} def /bf {gsave box gsave f grestore 1 lw [] 0 sd s grestore} def /Y { 0 exch d} def /X { 0 d} def 
/K {{pop pop 0 moveto} exch kshow} bind def
/ita {/ang 15 def gsave [1 0 ang dup sin exch cos div 1 0 0] concat} def 
/mp {newpath /y exch def /x exch def} def
/side {[w .77 mul w .23 mul] .385 w mul sd w 0 l currentpoint t -144 r} def
/mr {mp x y w2 0 360 arc} def /m24 {mr s} def /m20 {mr f} def
/mb {mp x y w2 add m w2 neg 0 d 0 w neg d w 0 d 0 w d cl} def
/mt {mp x y w2 add m w2 neg w neg d w 0 d cl} def
/w4 {w 4 div} def
/w6 {w 6 div} def
/w8 {w 8 div} def
/m21 {mb f} def /m25 {mb s} def /m22 {mt f} def /m26{mt s} def
/m23 {mp x y w2 sub m w2 w d w neg 0 d cl f} def
/m27 {mp x y w2 add m w3 neg w2 neg d w3 w2 neg d w3 w2 d cl s} def
/m28 {mp x w2 sub y w2 sub w3 add m w3 0 d  0 w3 neg d w3 0 d 0 w3 d w3 0 d  0 w3 d w3 neg 0 d 0 w3 d w3 neg 0 d 0 w3 neg d w3 neg 0 d cl s } def
/m29 {mp gsave x w2 sub y w2 add w3 sub m currentpoint t 4 {side} repeat cl fill gr} def
/m30 {mp gsave x w2 sub y w2 add w3 sub m currentpoint t 4 {side} repeat cl s gr} def
/m31 {mp x y w2 sub m 0 w d x w2 sub y m w 0 d x w2 sub y w2 add m w w neg d x w2 sub y w2 sub m w w d s} def
/m32 {mp x y w2 sub m w2 w d w neg 0 d cl s} def
/m33 {mp x y w2 add m w3 neg w2 neg d w3 w2 neg d w3 w2 d cl f} def
/m34 {mp x w2 sub y w2 sub w3 add m w3 0 d  0 w3 neg d w3 0 d 0 w3 d w3 0 d  0 w3 d w3 neg 0 d 0 w3 d w3 neg 0 d 0 w3 neg d w3 neg 0 d cl f } def
/m35 {mp x y w2 add m w2 neg w2 neg d w2 w2 neg d w2 w2 d w2 neg w2 d x y w2 sub m 0 w d x w2 sub y m w 0 d s} def
/m36 {mb x w2 sub y w2 add m w w neg d x w2 sub y w2 sub m w w d s} def
/m37 {mp x y m w4 neg w2 d w4 neg w2 neg d w2 0 d  w4 neg w2 neg d w2 0 d w4 neg w2 d w2 0 d w4 neg w2 d w4 neg w2 neg d cl s} def
/m38 {mp x w4 sub y w2 add m w4 neg w4 neg d 0 w2 neg d w4 w4 neg d w2 0 d w4 w4 d 0 w2 d w4 neg w4 d w2 neg 0 d x y w2 sub m 0 w d x w2 sub y m w 0 d cl s} def
/m39 {mp x y m w4 neg w2 d w4 neg w2 neg d w2 0 d  w4 neg w2 neg d w2 0 d w4 neg w2 d w2 0 d w4 neg w2 d w4 neg w2 neg d cl f} def
/m40 {mp x y m w4 w2 d w4 w4 neg d w2 neg w4 neg d w2 w4 neg d w4 neg w4 neg d w4 neg w2 d w4 neg w2 neg d w4 neg w4 d w2 w4 d w2 neg w4 d w4 w4 d w4 w2 neg d cl s} def
/m41 {mp x y m w4 w2 d w4 w4 neg d w2 neg w4 neg d w2 w4 neg d w4 neg w4 neg d w4 neg w2 d w4 neg w2 neg d w4 neg w4 d w2 w4 d w2 neg w4 d w4 w4 d w4 w2 neg d cl f} def
/m42 {mp x y w2 add m w8 neg w2 -3 4 div mul d w2 -3 4 div mul w8 neg d w2 3 4 div mul w8 neg d w8 w2 -3 4 div mul d w8 w2 3 4 div mul d w2 3 4 div mul w8 d w2 -3 4 div mul w8 d w8 neg w2 3 4 div mul d cl s} def
/m43 {mp x y w2 add m w8 neg w2 -3 4 div mul d w2 -3 4 div mul w8 neg d w2 3 4 div mul w8 neg d w8 w2 -3 4 div mul d w8 w2 3 4 div mul d w2 3 4 div mul w8 d w2 -3 4 div mul w8 d w8 neg w2 3 4 div mul d cl f} def
/m44 {mp x y m w6 neg w2 d w2 2 3 div mul 0 d w6 neg w2 neg d w2 w6 d 0 w2 -2 3 div mul d w2 neg w6 d w6 w2 neg d w2 -2 3 div mul 0 d w6 w2 d w2 neg w6 neg d 0 w2 2 3 div mul d w2 w6 neg d cl s} def
/m45 {mp x y m w6 neg w2 d w2 2 3 div mul 0 d w6 neg w2 neg d w2 w6 d 0 w2 -2 3 div mul d w2 neg w6 d w6 w2 neg d w2 -2 3 div mul 0 d w6 w2 d w2 neg w6 neg d 0 w2 2 3 div mul d w2 w6 neg d cl f} def
/m46 {mp x y w4 add m w4 neg w4 d w4 neg w4 neg d  w4 w4 neg d w4 neg w4 neg d w4 w4 neg d w4 w4 d w4 w4 neg d w4 w4 d w4 neg w4 d w4 w4 d w4 neg w4 d w4 neg w4 neg d cl s} def
/m47 {mp x y w4 add m w4 neg w4 d w4 neg w4 neg d w4 w4 neg d w4 neg w4 neg d  w4 w4 neg d w4 w4 d w4 w4 neg d w4 w4 d w4 neg w4 d w4 w4 d w4 neg w4 d w4 neg w4 neg d cl f} def
/m48 {mp x y w4 add m w4 neg w4 d w4 neg w4 neg d w4 w4 neg d  w4 neg w4 neg d w4 w4 neg d w4 w4 d w4 w4 neg d w4 w4 d w4 neg w4 d w4 w4 d w4 neg w4 d w4 neg w4 neg d  w4 w4 neg d w4 neg w4 neg d w4 neg w4 d w4 w4 d cl f} def
/m49 {mp x w2 sub w3 add y w2 sub w3 add m  0 w3 neg d w3 0 d 0 w3 d w3 0 d 0 w3 d w3 neg 0 d 0 w3 d w3 neg 0 d 0 w3 neg d w3 neg 0 d 0 w3 neg d w3 0 d 0 w3 d w3 0 d 0 w3 neg d w3 neg 0 d cl f } def
/m2 {mp x y w2 sub m 0 w d x w2 sub y m w 0 d s} def
/m5 {mp x w2 sub y w2 sub m w w d x w2 sub y w2 add m w w neg d s} def
%%IncludeResource: ProcSet (FontSetInit)
%%IncludeResource: font Times-Roman
%%IncludeResource: font Times-Italic
%%IncludeResource: font Times-Bold
%%IncludeResource: font Times-BoldItalic
%%IncludeResource: font Helvetica
%%IncludeResource: font Helvetica-Oblique
%%IncludeResource: font Helvetica-Bold
%%IncludeResource: font Helvetica-BoldOblique
%%IncludeResource: font Courier
%%IncludeResource: font Courier-Oblique
%%IncludeResource: font Courier-Bold
%%IncludeResource: font Courier-BoldOblique
%%IncludeResource: font Symbol
%%IncludeResource: font ZapfDingbats
/reEncode {exch findfont dup length dict begin {1 index /FID eq  {pop pop} {def} ifelse } forall /Encoding exch def currentdict end dup /FontName get exch definefont pop } def [/Times-Bold /Times-Italic /Times-BoldItalic /Helvetica /Helvetica-Oblique
 /Helvetica-Bold /Helvetica-BoldOblique /Courier /Courier-Oblique /Courier-Bold /Courier-BoldOblique /Times-Roman /AvantGarde-Book /AvantGarde-BookOblique /AvantGarde-Demi /AvantGarde-DemiOblique /Bookman-Demi /Bookman-DemiItalic /Bookman-Light
 /Bookman-LightItalic /Helvetica-Narrow /Helvetica-Narrow-Bold /Helvetica-Narrow-BoldOblique /Helvetica-Narrow-Oblique /NewCenturySchlbk-Roman /NewCenturySchlbk-Bold /NewCenturySchlbk-BoldItalic /NewCenturySchlbk-Italic /Palatino-Bold
 /Palatino-BoldItalic /Palatino-Italic /Palatino-Roman ] {ISOLatin1Encoding reEncode } forall
%%EndProlog
%%BeginSetup
%%EndSetup
newpath  gsave  .25 .25 scale  gsave  0 0 t 0.490196 0.545098 0.615686 c[  ] 0 sd 3 lw 0.941176 0.941176 0.941176 c 2268 1684 0 0 bf black 1 1 0.992157 c 1796 1145 245 202 bf black 1796 1145 245 202 bl 1 1 0.992157 c 1796 1145 245 202 bf black 1796
 1145 245 202 bl 245 202 m 1796 X s[ 4 8] 0 sd 309 1347 m -1145 Y s 633 1347 m -1145 Y s 957 1347 m -1145 Y s 1281 1347 m -1145 Y s 1605 1347 m -1145 Y s 1930 1347 m -1145 Y s 309 1347 m -1145 Y s 1930 1347 m -1145 Y s[  ] 0 sd 245 202 m 1145 Y s[ 4
 8] 0 sd 2041 257 m -1796 X s 2041 455 m -1796 X s 2041 653 m -1796 X s 2041 852 m -1796 X s 2041 1050 m -1796 X s 2041 1248 m -1796 X s 2041 257 m -1796 X s 2041 1248 m -1796 X s 0 0 0.933333 c[  22 12 ] 0 sd 6 lw 0.49 0.6 0.82 c black 0 0 0.933333
 c 245 752 m 9 X s 254 752 m 9 X s 263 752 m 8 X s 271 752 m 9 X s 280 752 m 9 X s 289 752 m 9 X s 298 752 m 9 X s 307 752 m 8 X s 315 752 m 9 X s 324 752 m 9 X s 333 752 m 7 X 1 Y 2 X s 342 753 m 9 X s 351 753 m 8 X s 359 753 m 9 X s 368 753 m 9 X s
 377 753 m 9 X s 386 753 m 9 X s 395 753 m 8 X s 403 753 m 2 X 1 Y 7 X s 412 754 m 9 X s 421 754 m 9 X s 430 754 m 5 X 1 Y 4 X s 439 755 m 8 X s 447 755 m 8 X 1 Y 1 X s 456 756 m 9 X s 465 756 m 6 X 1 Y 3 X s 474 757 m 9 X s 483 757 m 6 X 1 Y 2 X s
 491 758 m 9 X s 500 758 m 2 X 1 Y 7 X s 509 759 m 4 X 1 Y 5 X s 518 760 m 6 X 1 Y 3 X s 527 761 m 7 X 1 1 d s 535 762 m 5 X 1 Y 4 X s 544 763 m 5 X 1 Y 4 X s 553 764 m 2 X 1 1 d 6 X s 562 765 m 2 X 1 Y 6 X 1 Y 1 X s 571 767 m 7 X 1 Y 1 X s 579 768 m
 5 X 1 Y 4 X s 588 769 m 3 X 1 Y 6 X s 597 770 m 1 X 1 Y 5 X 1 Y 3 X s 606 772 m 3 X 1 Y 5 X 1 Y 1 X s 615 774 m 4 X 1 Y 4 X s 623 775 m 1 X 1 1 d 4 X 1 Y 3 X 1 Y s 632 778 m 6 X 1 1 d 2 X s 641 779 m 1 X 1 Y 4 X 1 Y 4 X s 650 781 m 1 1 d 4 X 1 Y 4 X
 s 659 783 m 1 Y 4 X 1 Y 3 X 1 Y 1 X s 667 786 m 3 X 1 Y 2 X 1 1 d 3 X 1 Y s 676 789 m 3 X 1 Y 5 X 1 Y 1 X s 685 791 m 3 X 1 Y -2 Y 2 X 1 Y 2 X 1 Y 2 X s 694 792 m 1 X 1 1 d 3 X 1 Y 2 X 1 Y 2 X s 703 795 m 1 Y 5 X 1 1 d 2 X s 711 797 m 1 X 1 Y 1 X -1
 Y 1 Y 3 X 1 1 d 2 X 1 Y 1 X s 720 800 m 1 X 1 1 d -1 Y 1 X 1 Y 1 X 1 Y 1 X 1 Y 3 X 2 Y 1 X s 729 805 m 1 X 1 Y 2 X 1 Y 2 X 1 Y 4 X s 738 808 m 1 X 1 Y 3 X 1 Y 2 X 1 Y 2 X 1 Y 1 X s 747 812 m 3 X 1 Y 1 X 1 1 d 1 X 1 1 d 1 X s 755 815 m 2 X 1 Y 1 X 1
 Y 3 X 1 Y 3 X s 764 818 m 1 X 1 Y 2 X 1 Y 2 X 1 Y 3 X 1 Y 1 X s 773 822 m 1 Y 3 X 1 Y 1 X -1 Y 1 X 1 Y 2 X 1 Y 2 X s 782 825 m 1 X 1 1 d 1 X 1 1 d 1 X 1 Y 2 X 1 Y 1 1 d 1 X s 791 830 m 1 Y 2 X 1 Y 3 X 1 Y 2 X -1 Y 1 Y 1 X s 799 833 m 1 X 1 Y 2 X 1 Y
 2 X 1 Y 2 X 1 Y 2 X 1 Y -1 Y s 808 837 m 1 1 d 2 X 1 Y 3 X 1 Y 3 X 1 Y s 817 841 m 1 X 1 Y 2 X 1 Y 2 X 1 Y 1 X 1 1 d 1 X 1 Y 1 X s 826 846 m 1 X 1 Y 4 X 1 Y 1 X 1 Y 3 X s 835 849 m 1 Y 1 X 1 Y 2 X 1 Y 2 X 1 Y 1 X -1 Y 1 1 d 1 X s 843 853 m 1 1 d 1 X
 1 1 d 1 X 1 Y 3 X 1 Y 2 X 1 Y s 852 858 m 3 X 1 Y 2 X 1 Y 2 X 1 Y 1 X 1 1 d s 861 862 m 1 X 1 Y 2 X 1 Y 2 X 1 Y 2 X 1 Y 1 X 1 Y 1 X s 870 867 m 2 X 1 Y 2 X 1 1 d 1 Y 1 X 1 Y 2 X 1 Y 1 X s 879 872 m 1 X 1 Y 1 X 1 Y 1 X 1 Y 1 X 1 Y 2 X 1 1 d 1 X s 887
 877 m 1 1 d -1 Y 1 Y 1 X -1 Y 1 X 1 Y 4 X 1 Y 1 X 1 Y 1 X s 896 880 m 1 Y 3 X 1 Y 2 X 1 Y 1 X 1 1 d 1 X 1 Y -1 Y 1 Y 1 X s 905 885 m 1 -1 d 1 Y 1 -1 d 1 Y 1 X 1 1 d 1 X 1 Y 1 X 1 Y 2 X 1 Y 1 X s 914 889 m 1 Y 2 X 1 Y 1 X 1 Y 1 X -1 Y 1 X 1 Y 1 X 1 1
 d 1 X 1 Y 1 X s 923 894 m 1 Y 1 X 1 1 d 1 X 1 Y 1 X 1 1 d 1 X 1 Y 1 X 1 Y 1 X s 931 900 m 1 X 1 Y 2 X 1 Y 2 X 1 Y 1 X -1 Y 1 X 1 Y 1 X 1 Y 1 X s 940 904 m 1 X 1 Y 1 X 1 Y 1 X 1 1 d 1 X 2 Y 2 X 1 Y 1 X 1 Y 1 X s 949 911 m 1 Y 1 X 1 1 d 1 X 1 1 d 1 X
 1 Y 1 X -2 Y 1 X 1 Y 1 X 1 1 d s 958 915 m 1 X 1 Y 1 X 1 Y 1 X 1 1 d 1 X 1 Y -1 Y 1 X 1 Y 2 X 1 Y 1 X s 967 920 m 1 Y 1 X 1 Y 1 X 1 Y 1 X 1 Y 2 X 1 Y 2 X 1 Y 1 X 1 Y s 975 927 m 1 X 1 1 d 1 X 1 Y 1 X 1 Y 2 X 1 Y 1 X 1 Y 2 X 1 Y s 984 933 m 1 Y 1 X
 -1 Y 2 Y 1 X 2 Y 1 X 1 Y 2 X 1 Y 2 X -1 Y 1 Y 1 X 1 Y 1 X 1 Y s 993 941 m 2 X 1 Y 1 X -1 Y 1 Y 2 X 1 Y 1 -1 d 1 Y 2 X 1 Y 1 X s 1002 944 m 1 Y 1 X 1 1 d -1 Y 1 X -1 Y 1 1 d 1 Y 2 X 1 Y 1 X 1 Y 2 X s 1011 948 m 1 X 1 Y 2 X 1 Y 2 X 1 Y 2 X 1 Y 1 X s
 1019 952 m 1 X 1 Y 1 X 1 1 d -1 Y 1 Y 1 X 1 Y -1 Y 3 X 1 Y -1 Y 1 X 1 Y 1 X s 1028 955 m 1 Y 1 X -1 Y 1 -1 d 1 Y 4 X 1 Y 2 X 1 Y 1 X s 1037 957 m 1 X 1 Y 1 X 1 Y 1 X 1 Y 2 X 1 Y 1 -1 d 1 Y 1 X 1 Y 2 X 1 Y s 1046 963 m -1 Y 3 X 1 Y 1 X 1 Y 1 X -1 Y 1
 X 1 Y 1 X 1 Y 2 X s 1055 965 m 1 Y 1 X 1 Y 2 X 1 Y 4 X 1 Y 1 X 1 Y -1 Y s 1063 969 m 1 X 1 Y 1 X 1 Y 1 X 1 -1 d 1 Y 1 X 1 Y 2 X 1 Y 1 1 d 1 Y 1 X 1 Y s 1072 976 m 4 X 1 Y 1 X 1 Y 1 X 1 Y 1 X 1 1 d 1 Y 1 X s 1081 981 m 1 X 1 Y 2 X 1 Y 1 X 1 Y 2 X 1 Y
 1 -1 d 1 X 1 Y 1 X s 1090 985 m 1 X 1 Y -1 Y 1 X 1 Y 3 X 1 Y 2 X 1 Y 1 X 1 Y 1 X s 1099 989 m 2 X 1 Y 1 X 1 Y 1 X 1 1 d 1 X 1 1 d 1 X 1 Y s 1107 994 m 1 X 1 1 d 2 X 1 1 d 1 X 1 Y 1 X -1 Y 1 X 1 Y 1 X s 1116 997 m 1 1 d 1 X 1 Y 2 X 1 Y 1 X 1 Y 2 X 1
 Y 1 X 1 Y 1 X s 1125 1003 m 1 Y 3 X 1 Y 3 X 1 Y 1 X 1 1 d -1 Y 1 X s 1134 1006 m 1 Y 1 X 1 Y 2 X 1 Y 1 X -1 Y 1 X 2 Y 2 X -1 Y 1 X -1 Y 1 Y 1 X s 1143 1009 m -1 Y 1 1 d 2 X -1 Y 1 X 1 Y 1 X 1 Y 1 X 1 Y 2 X 1 Y -1 Y s 1151 1011 m 1 X 1 1 d -2 Y 1 X 1
 Y -1 Y 1 Y 1 X 2 Y 1 X -1 Y 1 X 1 Y 2 X -1 Y 1 1 d -1 Y 1 Y s 1160 1013 m 3 X 1 Y 1 X 1 Y 2 X 1 Y 1 1 d 1 X 1 Y 1 -1 d -1 Y s 1169 1016 m 1 Y 1 X 1 1 d 1 -1 d 2 X 1 Y 1 X 1 Y 2 X 1 Y 1 X s 1178 1020 m -1 Y 2 X 1 Y 3 X 1 Y 1 X 1 -1 d 1 Y 2 X s 1187
 1021 m 1 Y 2 X -3 Y 1 X 1 Y 1 X 1 Y 4 X s 1195 1021 m 2 X -1 Y 1 X -3 Y 1 X 1 Y 1 -1 d -1 Y 1 X 1 1 d 1 X 1 Y 1 X 1 Y s 1204 1019 m 1 X 1 Y 1 X -1 Y 1 Y 1 X 1 Y 1 X 1 Y 2 X 1 2 d -1 Y 1 X 1 Y 1 X 1 Y s 1213 1025 m 1 X 1 Y 2 X 1 -1 d 1 X 1 Y 1 X 1 1
 d 1 X -1 Y 1 Y 1 X s 1222 1027 m 1 X -1 Y 2 X -3 Y 2 X 1 Y 2 X 1 Y 2 X s 1231 1025 m 3 X 1 Y 1 X -3 Y 1 X 1 Y -3 Y 2 X 1 1 d s 1239 1022 m 3 X 1 Y 2 X 1 Y 2 X -1 Y 1 -1 d 1 Y 1 X -1 Y s 1248 1022 m 1 X 1 Y 1 X 1 Y 2 X 1 Y 1 X -1 Y 1 Y 1 X 1 Y 1 X 1
 1 d -1 Y 1 -1 d 1 Y -1 Y s 1257 1025 m 1 X -2 Y 3 X -1 Y 2 Y 3 X 1 Y 1 -1 d 1 1 d -1 Y s 1266 1024 m 1 Y 2 X 1 Y 2 X 1 Y 1 -1 d 1 X 1 Y 1 X 1 Y 1 X -1 Y 1 Y 1 X s 1275 1028 m 1 X -1 Y 1 Y 2 X -1 Y 1 1 d 1 1 d 1 Y 1 1 d 1 X -3 Y 1 X 1 Y s 1283 1029 m
 2 X -2 Y 2 X 1 Y 2 X -1 Y 1 X 1 Y 1 X -1 Y 1 X 1 Y s 1292 1028 m 1 X -1 Y 1 X 1 1 d -1 Y 1 X -1 Y 1 X -2 Y 1 X -1 Y 2 X -1 Y 1 X s 1301 1022 m 1 Y 1 -1 d -2 Y 1 1 d -1 Y 1 1 d 1 X 1 Y 1 X -1 Y 3 X -1 Y 1 Y 1 X s 1310 1021 m -2 Y 2 X 1 Y 1 X -2 Y 1 1
 d -3 Y 1 X 1 -2 d 1 X 2 Y 2 X s 1319 1016 m 3 X 1 1 d -3 Y 1 X 1 Y -1 Y 2 X -1 Y 1 X s 1327 1013 m 3 X -2 Y 2 X 1 -1 d 3 X s 1336 1010 m 1 -1 d 1 Y 3 X -1 Y 1 X 1 Y -1 Y 1 Y 2 X -1 Y 1 X 1 Y 1 -2 d s 1345 1008 m -1 Y 2 X -1 Y 1 X -2 Y 1 -3 d 1 Y -1
 Y 1 1 d -1 Y 2 X -1 Y 1 X -1 Y 1 1 d s 1354 1000 m 1 X -1 Y 1 Y -1 Y 1 Y 1 X 1 1 d -1 Y 1 X -1 Y 2 X -1 Y 1 -1 d -1 Y 1 X -1 Y 1 X s 1363 995 m 1 Y 3 X -1 Y 1 X -1 Y 2 X 2 Y 2 X s 1371 996 m 1 X -1 Y 1 X 1 1 d 1 X -1 Y 1 Y -1 Y 1 -1 d 2 X -1 Y 1 1 d
 -3 Y 1 X s 1380 991 m 1 X -1 Y 2 X 1 -1 d 3 X -1 Y 2 X 1 Y s 1389 989 m -1 Y 1 X 1 Y -1 Y 1 X 1 Y -1 Y 1 -1 d 1 Y 1 -1 d 1 Y 2 X 1 Y -1 Y 3 X -1 Y s 1398 987 m 1 X -2 Y 1 2 d 1 -1 d 1 Y 1 -1 d 1 X -3 Y 1 X 1 Y 1 -1 d 1 X -1 Y 1 Y 1 -1 d s 1407 982 m
 -1 Y 1 X 2 Y 4 X -1 Y 1 X 1 Y -1 Y 1 X -1 Y 1 -1 d s 1415 980 m 1 X 1 1 d 1 Y -2 Y 1 X -1 Y 4 X -1 Y 2 X s 1424 978 m 1 X -1 Y 1 X -1 Y 1 Y 1 -1 d 1 Y 4 X -2 Y 1 X -1 Y 1 X -1 Y s 1433 973 m -1 Y 1 -1 d 2 X -3 Y 2 X 1 Y 2 X -1 Y 2 X s 1442 968 m -1
 Y 1 -1 d 1 X 1 -2 d 1 -1 d 1 X -1 Y 1 -1 d 1 X -1 Y 2 X s 1451 960 m 1 X -3 Y 1 X -4 Y 3 X -1 Y 1 X 1 Y -1 Y 1 Y 1 X -1 Y 1 Y 1 X -1 Y 1 Y s 1459 953 m 2 X -2 Y 1 X -1 Y 1 -1 d -1 Y 1 X -1 Y 1 X 1 Y -1 Y 1 X 1 Y 1 X -2 Y 1 X s 1468 946 m 1 Y 1 X -2
 Y 1 X -5 Y 1 -1 d -3 Y 1 X -1 Y 1 -1 d -2 Y 1 -1 d 1 Y 3 X -2 Y s 1477 930 m -1 Y 1 X -1 Y 2 X -1 Y 1 -1 d 1 X -1 Y 1 X -3 Y 1 9 d -1 Y 1 X -2 Y 1 -1 d s 1486 927 m 1 Y 1 X 1 Y -2 Y 1 X -1 Y 1 X -1 Y 1 X -2 Y 1 X -2 Y 1 X 1 -1 d 1 Y -1 Y 1 X 1 -1 d
 s 1495 919 m 1 Y -2 Y 1 X -2 Y 1 -2 d 1 Y 1 X 1 Y -4 Y 1 X 1 Y 1 -2 d -1 Y 1 Y -1 Y 1 X -2 Y 2 X -1 Y s 1503 907 m 1 -1 d -3 Y 1 -1 d -2 Y 2 X -4 Y 1 Y 3 X 1 -1 d -1 Y 1 -1 d -1 Y s 1512 893 m -1 Y 2 X 1 Y -1 Y 1 X -1 Y 1 X -2 Y 1 X -1 Y 1 Y 1 -1 d
 -1 Y 1 -1 d -1 Y 1 X 1 Y 1 X -1 Y s 1521 885 m -1 Y 1 X -1 Y 1 -1 d -2 Y 1 X -3 Y 1 X -1 Y 1 -1 d 1 X -2 Y 1 X -1 Y 1 -1 d 1 X s 1530 871 m 1 X -2 Y 1 -3 d -2 Y 1 X -2 Y 1 -3 d 1 Y -1 Y 1 -1 d -4 Y 1 X -1 Y 1 2 d 2 X s 1539 855 m -1 Y 1 Y -1 Y 1 X
 -1 Y 1 X -3 Y 1 X -3 Y 1 X -1 Y 1 -1 d -2 Y 1 X -1 Y 1 X -1 Y 1 X -3 Y 2 Y s 1547 840 m 1 -2 d 1 X 1 Y -1 Y 1 X -3 Y 1 -1 d -2 Y 1 X -2 Y 1 X -2 Y 1 X -1 Y 1 Y -2 Y 1 1 d -2 Y 1 Y 1 X 1 Y -1 Y s 1556 826 m 1 Y 1 X -2 Y 1 X -1 Y 1 X -3 Y 1 X -1 Y 1 X
 -3 Y 1 X -2 Y 1 -2 d -2 Y 1 Y 1 X -4 Y 1 X s 1565 808 m -1 Y 1 X 1 Y -1 Y 1 X -1 Y 1 X -4 Y 1 -1 d 1 -2 d -1 Y 1 -1 d -2 Y 1 X -2 Y 1 X -1 Y 1 -1 d s 1574 791 m -2 Y 1 -1 d -2 Y 1 3 d -1 Y 1 X -6 Y 1 -1 d -1 Y 1 X -1 Y 1 X -1 Y 1 X -4 Y 1 X -1 Y 1 X
 s 1583 773 m 1 X -2 Y 1 X -1 Y 1 Y -1 Y 1 X -1 Y 1 -1 d -1 Y 1 X -2 Y 1 -1 d -2 Y 1 -1 d 1 Y -2 Y 1 -1 d s 1591 759 m 1 -2 d -1 Y 1 -1 d -1 Y 1 X -2 Y 1 X -1 Y 1 X -1 Y 1 X -2 Y 1 X -3 Y 1 X -1 Y 1 -1 d -1 Y s 1600 742 m 1 -1 d -1 Y 1 X -2 Y 1 -1 d
 -2 Y 1 X 1 Y -1 Y 1 X -1 Y 1 -1 d -1 Y 1 X -2 Y 1 X -3 Y 1 X s 1609 727 m 1 X -1 Y 1 X -5 Y 1 X -2 Y 1 X -1 Y 1 X -1 Y 1 -1 d -1 Y 1 X -2 Y 1 X -2 Y 1 -1 d s 1618 710 m 1 -1 d 1 X -2 Y 1 -1 d -2 Y 1 X -3 Y 2 X -3 Y 1 -1 d -1 Y 1 X -1 Y 1 X s 1627
 695 m -2 Y 1 X -3 Y 1 X -1 Y 1 X 1 -2 d -1 Y 1 -1 d -2 Y 1 -1 d -3 Y 1 -1 d -3 Y 1 -1 d -1 Y s 1635 673 m 1 X -4 Y 1 X -2 Y 1 X -3 Y 1 X -2 Y 1 X -2 Y 1 X -2 Y 1 -1 d -4 Y 1 X -3 Y 1 X -3 Y s 1644 647 m -1 Y 1 X -3 Y 1 X -1 Y 1 X 1 -1 d -1 Y 1 Y -2
 Y 1 X -3 Y 1 X -1 Y 1 -1 d 1 Y -3 Y 2 X -1 Y s 1653 631 m 1 -1 d -2 Y 1 X -2 Y 1 X 1 -1 d -2 Y 1 X -1 Y 1 -2 d 1 X -1 Y 1 X -2 Y 1 -1 d s 1662 616 m -1 Y 3 X -2 Y 1 -1 d -1 Y 1 Y 1 -1 d 2 Y 1 X -1 Y 2 X -2 Y 1 X s 1671 610 m -3 Y 1 X -1 Y 1 X -1 Y 1
 X -2 Y 1 -2 d -3 Y 1 -1 d -1 Y 1 X -2 Y 1 X -1 Y 1 X -2 Y s 1679 591 m 1 -1 d 1 -1 d -1 Y 1 -1 d -2 Y 1 X -2 Y 1 -1 d -1 Y 1 X -2 Y 1 X -1 Y 1 Y 1 -1 d 1 Y -1 Y 1 X s 1688 578 m 1 -1 d -2 Y 1 Y 1 -1 d -2 Y 1 X -1 Y 1 -1 d 1 -1 d -1 Y 1 -1 d -2 Y 1 X
 -3 Y 1 X -2 Y 1 X s 1697 561 m -1 Y 1 X -1 Y 1 X -3 Y 1 -1 d -1 Y 1 X -1 Y 1 -1 d 1 X -2 Y 1 Y 1 X -1 Y 1 X -1 Y 1 X s 1706 549 m -2 Y 1 X -2 Y 1 Y -2 Y 1 X -1 Y 1 X -1 Y 1 X -2 Y 2 X -2 Y 1 X -2 Y 1 X -2 Y 1 -1 d s 1715 533 m 1 X -2 Y 1 X -3 Y 1 -1
 d 1 X -1 Y 1 -1 d -3 Y 1 X -1 Y 1 Y 1 -1 d -2 Y 1 X -1 Y s 1723 518 m 1 X -2 Y 1 X -1 Y 1 X -1 Y 1 X -1 Y 1 Y 1 -1 d -3 Y 1 X -2 Y 1 X -2 Y 1 -1 d -2 Y 1 -1 d -2 Y s 1732 500 m -1 Y 1 X -1 Y 1 -1 d -2 Y 1 X -1 Y 1 -1 d -1 Y 1 X 1 Y -2 Y 1 X -1 Y 1 X
 -3 Y 1 X 1 -1 d -4 Y s 1741 482 m 1 X -1 Y 1 -1 d -1 Y 1 X -2 Y 1 -1 d -2 Y 1 X -3 Y 1 X -1 Y 1 1 d -1 Y 1 X -2 Y 1 -1 d s 1750 467 m -1 Y 1 X -1 Y 1 -1 d -1 Y 1 -1 d -1 Y 1 X -3 Y 1 -1 d -1 Y 1 X -2 Y 1 X -2 Y 1 X -2 Y 1 X s 1759 450 m -2 Y 2 X -3
 Y 1 X -2 Y 1 X -2 Y 1 X -2 Y 1 -1 d -1 Y 1 -1 d -3 Y 1 X -2 Y s 1767 431 m 1 X -1 Y 1 -1 d -1 Y 1 -1 d -1 Y 1 X -2 Y 1 X -2 Y 1 Y 1 X -4 Y 1 X -2 Y 1 -1 d -1 Y 1 X -2 Y s 1776 413 m 1 -1 d -2 Y 1 -1 d -2 Y 1 -1 d -2 Y 1 X 1 -1 d 1 X -2 Y 1 -2 d -1 Y
 1 Y 1 -1 d 1 X -1 Y s 1785 397 m -1 Y 1 X -1 Y 1 -1 d 1 -1 d -2 Y 1 1 d -2 Y 1 X -3 Y 1 X -2 Y 1 -2 d -1 Y 1 -1 d 1 -1 d s 1794 380 m -3 Y 1 Y 1 X -1 Y 1 X -4 Y 1 X -1 Y 1 X 1 -1 d -3 Y 1 X -3 Y 2 X -2 Y 1 X s 1803 363 m -1 Y 1 X -1 Y 1 X -2 Y 1 X
 -2 Y 1 X 1 -1 d 1 X -2 Y 1 X -2 Y 1 X -2 Y 1 X s 1812 350 m -2 Y 1 X -1 Y 2 X -2 Y 2 X -2 Y 1 X -1 Y 1 X -1 Y 1 X -1 Y s 1820 340 m 1 Y 1 X -3 Y 1 X 1 Y 1 X -1 Y 1 X -1 Y 1 X -1 Y 2 X -1 Y 1 -1 d -1 Y 1 X s 1829 333 m -1 Y 1 X -2 Y 1 X -1 Y 1 X -1 Y
 1 Y 2 X -3 Y 1 X 1 -1 d 2 X -1 Y s 1838 324 m -1 Y 1 X -2 Y 1 -1 d -1 Y 1 X -1 Y 1 X -3 Y 1 X -1 Y 1 X -1 Y 1 -1 d 1 -1 d 1 X s 1847 311 m -1 Y 1 X 1 -1 d 1 X 1 Y -3 Y 1 X 1 -1 d 1 -1 d 1 Y 1 X -1 Y 1 X -1 Y 1 X s 1856 304 m -2 Y 1 X -1 Y 1 X -1 Y 1
 -1 d 1 -1 d 1 -1 d 1 Y -1 Y 1 X 1 -1 d -1 Y 1 X s 1864 295 m 1 X 1 -1 d 3 X -1 Y 2 X -2 Y 1 X -1 Y 1 X s 1873 290 m 1 Y 4 X -1 Y 1 -1 d 3 X -2 Y 1 X s 1882 287 m 2 X -1 Y 2 X 1 -1 d -1 Y 1 X -1 Y 1 X -1 Y 1 X 1 -1 d s 1891 281 m 2 X -1 Y 6 X -1 Y 1
 X s 1900 279 m 2 X -1 Y 1 X 1 -2 d 1 X -2 Y 1 -1 d 2 X s 1908 273 m 1 -1 d 3 X -1 Y 2 X -1 Y 3 X s 1917 270 m 1 X -2 Y 1 X -1 Y 2 X -1 Y 2 X -1 Y 1 X 1 Y 1 X -1 Y 1 X s 1926 265 m 2 X -1 Y 2 X -1 Y 1 1 d -1 Y 4 X s 1935 263 m 4 X -1 Y 1 X 1 Y 1 X -1
 Y 3 X s 1944 262 m 5 X -1 Y 3 X s 1952 261 m 2 X 1 -1 d 6 X s 1961 260 m 2 X -2 Y 2 X -1 Y 5 X s 1970 257 m 9 X s 1979 257 m 9 X s 1988 257 m 8 X s 1996 257 m 9 X s 2005 257 m 9 X s 2014 257 m 9 X s 2023 257 m 9 X s 2032 257 m 8 X s 2040 257 m 1 X s
 black[  ] 0 sd 3 lw 245 202 m 1796 X s 309 242 m -40 Y s 374 222 m -20 Y s 438 222 m -20 Y s 503 222 m -20 Y s 568 222 m -20 Y s 633 242 m -40 Y s 698 222 m -20 Y s 763 222 m -20 Y s 827 222 m -20 Y s 892 222 m -20 Y s 957 242 m -40 Y s 1022 222 m
 -20 Y s 1087 222 m -20 Y s 1152 222 m -20 Y s 1216 222 m -20 Y s 1281 242 m -40 Y s 1346 222 m -20 Y s 1411 222 m -20 Y s 1476 222 m -20 Y s 1541 222 m -20 Y s 1605 242 m -40 Y s 1670 222 m -20 Y s 1735 222 m -20 Y s 1800 222 m -20 Y s 1865 222 m
 -20 Y s 1930 242 m -40 Y s 309 242 m -40 Y s 1930 242 m -40 Y s 1994 222 m -20 Y s
 gsave  2268 1684 0 0 C 303.373 128.934 t 0 r /Helvetica-Bold findfont 64.4669 sf 0 0 m (3) show NC gr 
 gsave  2268 1684 0 0 C 273.036 128.934 t 0 r /Symbol findfont 64.4669 sf 0 0 m (-) show NC gr 
 gsave  2268 1684 0 0 C 625.708 128.934 t 0 r /Helvetica-Bold findfont 64.4669 sf 0 0 m (2) show NC gr 
 gsave  2268 1684 0 0 C 595.37 128.934 t 0 r /Symbol findfont 64.4669 sf 0 0 m (-) show NC gr 
 gsave  2268 1684 0 0 C 955.626 128.934 t 0 r /Helvetica-Bold findfont 64.4669 sf 0 0 m (1) show NC gr 
 gsave  2268 1684 0 0 C 925.289 128.934 t 0 r /Symbol findfont 64.4669 sf 0 0 m (-) show NC gr 
 gsave  2268 1684 0 0 C 1259 128.934 t 0 r /Helvetica-Bold findfont 64.4669 sf 0 0 m (0) show NC gr 
 gsave  2268 1684 0 0 C 1588.92 128.934 t 0 r /Helvetica-Bold findfont 64.4669 sf 0 0 m (1) show NC gr 
 gsave  2268 1684 0 0 C 1907.46 128.934 t 0 r /Helvetica-Bold findfont 64.4669 sf 0 0 m (2) show NC gr 
 gsave  2268 1684 0 0 C 815.316 30.3373 t 0 r /Helvetica-Bold findfont 72.0512 sf 0 0 m (Cut value applied on RuleFit output) show NC gr  245 202 m 1145 Y s 291 257 m -46 X s 268 307 m -23 X s 268 356 m -23 X s 268 406 m -23 X s 291 455 m -46 X s 268
 505 m -23 X s 268 554 m -23 X s 268 604 m -23 X s 291 653 m -46 X s 268 703 m -23 X s 268 752 m -23 X s 268 802 m -23 X s 291 852 m -46 X s 268 901 m -23 X s 268 951 m -23 X s 268 1000 m -23 X s 291 1050 m -46 X s 268 1099 m -23 X s 268 1149 m -23 X
 s 268 1198 m -23 X s 291 1248 m -46 X s 291 257 m -46 X s 268 207 m -23 X s 291 1248 m -46 X s 268 1297 m -23 X s
 gsave  2268 1684 0 0 C 182.024 231.322 t 0 r /Helvetica-Bold findfont 64.4669 sf 0 0 m (0) show NC gr 
 gsave  2268 1684 0 0 C 128.934 432.307 t 0 r /Helvetica-Bold findfont 64.4669 sf 0 0 m (0.2) show NC gr 
 gsave  2268 1684 0 0 C 128.934 629.5 t 0 r /Helvetica-Bold findfont 64.4669 sf 0 0 m (0.4) show NC gr 
 gsave  2268 1684 0 0 C 128.934 826.693 t 0 r /Helvetica-Bold findfont 64.4669 sf 0 0 m (0.6) show NC gr 
 gsave  2268 1684 0 0 C 128.934 1023.89 t 0 r /Helvetica-Bold findfont 64.4669 sf 0 0 m (0.8) show NC gr 
 gsave  2268 1684 0 0 C 189.608 1224.87 t 0 r /Helvetica-Bold findfont 64.4669 sf 0 0 m (1) show NC gr 
 gsave  2268 1684 0 0 C 64.4669 735.681 t 90 r /Helvetica-Bold findfont 72.0512 sf 0 0 m (Efficiency \(Purity\)) show NC gr  0 0 0.933333 c[  52 12 ] 0 sd 6 lw 0.49 0.6 0.82 c black 0 0 0.933333 c 245 752 m 9 X s 254 752 m 9 X s 263 752 m 8 X s 271
 752 m 9 X s 280 752 m 9 X s 289 752 m 9 X s 298 752 m 9 X s 307 752 m 8 X s 315 752 m 9 X s 324 752 m 9 X 1 Y s 333 753 m 9 X s 342 753 m 9 X s 351 753 m 8 X s 359 753 m 9 X s 368 753 m 9 X s 377 753 m 9 X s 386 753 m 9 X s 395 753 m 4 X 1 Y 4 X s
 403 754 m 9 X s 412 754 m 9 X s 421 754 m 8 X 1 1 d s 430 755 m 9 X s 439 755 m 8 X s 447 755 m 7 X 1 1 d 1 X s 456 756 m 9 X s 465 756 m 5 X 1 Y 4 X s 474 757 m 9 X s 483 757 m 5 X 1 Y 3 X s 491 758 m 9 X s 500 758 m 1 X 1 Y 8 X s 509 759 m 3 X 1 Y
 6 X s 518 760 m 4 X 1 Y 5 X s 527 761 m 6 X 1 Y 2 X s 535 762 m 5 X 1 Y 4 X s 544 763 m 5 X 1 Y 4 X s 553 764 m 2 X 1 1 d 6 X s 562 765 m 2 X 1 Y 6 X 1 Y 1 X s 571 767 m 7 X 1 Y 1 X s 579 768 m 5 X 1 Y 4 X s 588 769 m 3 X 1 Y 6 X s 597 770 m 1 X 1 Y
 5 X 1 Y 3 X s 606 772 m 3 X 1 Y 5 X 1 Y 1 X s 615 774 m 4 X 1 Y 4 X s 623 775 m 1 X 1 1 d 4 X 1 Y 3 X 1 Y s 632 778 m 6 X 1 1 d 2 X s 641 779 m 1 X 1 Y 4 X 1 Y 4 X s 650 781 m 1 1 d 4 X 1 Y 4 X s 659 783 m 1 Y 4 X 1 Y 3 X 1 Y 1 X s 667 786 m 3 X 1 Y
 2 X 1 1 d 3 X 1 Y s 676 789 m 3 X 1 Y 5 X 1 Y 1 X s 685 791 m 3 X 1 Y -1 Y 2 X 1 Y 2 X 1 Y 2 X s 694 793 m 1 X 1 1 d 3 X 1 Y 2 X 1 Y 2 X s 703 796 m 1 Y 4 X 1 Y 3 X 1 Y 1 X s 711 799 m 3 X 1 Y 3 X 1 Y 2 X 1 1 d s 720 802 m 2 X 1 Y 1 X 1 Y 3 X 1 Y 2
 X 2 Y 1 X s 729 807 m 1 X 1 Y 2 X 1 Y 3 X 1 Y 3 X s 738 810 m 1 1 d 3 X 1 Y 2 X 1 Y 2 X 1 Y 1 X s 747 814 m 2 X 1 Y 2 X 1 Y 2 X 1 Y 2 X s 755 817 m 1 X 1 Y 2 X 1 Y 2 X 1 1 d 2 X 1 Y 1 X s 764 821 m 3 X 1 Y 1 X 1 1 d 2 X 1 Y 2 X 1 Y s 773 825 m 2 X 1
 Y 3 X 1 Y 2 X 1 Y 2 X s 782 828 m 2 X 1 Y 2 X 1 Y 1 X 1 1 d 1 X 1 Y 1 X 1 1 d s 791 833 m 2 X 1 Y 2 X 1 Y 2 X 1 Y 2 X s 799 836 m 1 X 1 Y 2 X 1 Y 2 X 1 Y 1 X 1 Y 2 X 1 Y 1 X s 808 841 m 1 X 1 Y 2 X 1 Y 2 X 1 1 d 2 X 1 Y 1 X s 817 845 m 1 X 1 Y 2 X 1
 Y 2 X 1 Y 1 X 1 Y 2 X 1 Y 1 X s 826 850 m 1 1 d 2 X 1 Y 2 X 1 Y 2 X 1 Y 2 X s 835 854 m 1 Y 2 X 1 Y 2 X 1 Y 2 X 1 1 d 1 X 1 Y s 843 859 m 2 X 1 Y 2 X 1 Y 2 X 1 1 d 2 X 1 Y s 852 863 m 2 X 1 Y 2 X 1 Y 2 X 1 Y 2 X 1 Y 1 X s 861 867 m 1 X 1 Y 1 X 1 Y 2
 X 1 Y 2 X 1 Y 2 X 1 Y 1 X s 870 872 m 1 1 d 1 X 1 Y 2 X 1 1 d 1 Y 1 X 1 Y 2 X 1 Y 1 X s 879 878 m 1 X 1 Y 1 X 1 Y 1 X 1 Y 1 X 1 Y 2 X 1 Y 2 X 1 Y s 887 884 m 2 X 1 Y -1 Y 1 X 1 Y 2 X 1 Y 2 X 1 Y 1 X 1 Y 1 X s 896 888 m 1 Y 2 X 1 Y 2 X 1 Y 1 X 1 Y 2
 X 1 Y 1 X 1 Y 1 X s 905 894 m 1 Y 1 -1 d 1 Y 2 X 1 Y 2 X 1 Y 1 1 d 1 X 1 Y 1 X 1 Y 1 X s 914 900 m 1 X 1 Y 1 X 1 1 d 1 X 1 Y 1 X 1 Y 2 X 1 Y 1 X 1 Y 1 X s 923 906 m 1 X 1 Y 1 X 1 Y 1 X 1 1 d 1 1 d 1 X 1 Y 1 X 1 Y 1 X s 931 912 m 1 X 1 Y 2 X 1 Y 1 X
 1 Y 3 X 1 Y 1 X 1 Y 1 X s 940 917 m 1 X 1 Y 1 X 1 Y 1 X 1 1 d 1 Y 1 X 1 Y 1 X 1 1 d 1 X 1 Y 1 X 1 Y s 949 925 m 1 X 1 Y 1 X 1 Y 2 X 1 Y 1 X 1 Y 1 -1 d 1 Y -1 Y 1 Y 2 X 1 Y 1 X s 958 930 m 1 Y 2 X 1 Y 1 X 1 Y 1 X 1 Y 2 X 1 Y 2 X 1 Y 1 X s 967 936 m 1
 Y 1 X 1 Y 1 X 1 Y 1 X 1 Y 2 X 1 Y -1 Y 1 Y 1 X 1 1 d 1 X 1 Y s 975 943 m 1 X 1 Y 1 X 1 Y 1 X 1 Y 1 X 1 1 d 1 X 1 Y 1 X 1 Y 2 X 1 Y s 984 950 m 1 Y 1 X 1 Y 1 1 d 1 1 d 1 X 1 Y 1 X 1 1 d 1 X 1 Y 1 X 1 1 d s 993 958 m 1 X 1 Y 1 X 1 1 d 1 X 1 Y 2 X 1 Y
 2 X 1 Y 1 X s 1002 963 m 1 Y 1 X 1 1 d 1 X 1 1 d 1 Y 1 X 1 1 d 1 1 d 1 X 1 Y 1 X s 1011 970 m 1 X 1 1 d 1 X 1 Y 2 X 1 Y 1 X 1 Y 2 X 1 Y s 1019 975 m 1 X 1 1 d -1 Y 1 Y 1 X 1 Y 1 X 1 Y 2 X 1 Y 1 X 1 Y -1 Y 1 1 d 1 1 d s 1028 981 m 2 X 1 Y 1 X 1 Y 2 X
 1 Y 2 X 1 Y 1 X 1 1 d s 1037 986 m 1 X 1 Y 1 X 1 Y 1 X 1 Y 1 X 1 Y 2 X 1 Y 1 X 1 Y 2 X s 1046 992 m 1 X 1 Y 1 X 1 Y 1 X 1 1 d 2 X 1 Y 1 X 1 Y 1 X 1 Y 1 X s 1055 998 m 1 Y 1 X 1 Y 2 X 1 Y 2 X 1 1 d 2 X 1 Y s 1063 1003 m 1 X 1 Y 2 X 1 Y 1 X 1 Y 1 X 1
 Y 2 X 1 Y 1 X 1 Y 1 X 1 Y s 1072 1010 m 3 X 1 Y 1 X 1 Y 1 X 1 Y 1 X 1 1 d 1 1 d 1 Y 1 X s 1081 1016 m 1 X 1 Y 1 X 1 1 d 1 X 1 Y 1 X 1 Y 1 X 1 Y 1 -1 d 1 Y 1 X 1 Y 1 X s 1090 1022 m 2 X 1 Y 2 X 1 Y 3 X 1 Y 1 1 d 1 1 d s 1099 1027 m 2 X 1 Y 1 X 1 Y 1
 X 1 1 d 1 X 1 1 d 1 X 1 Y s 1107 1032 m 1 X 1 1 d 1 X 1 Y 2 X 1 1 d 1 X 1 1 d 1 1 d s 1116 1037 m 1 1 d 1 X 1 Y 2 X 1 Y 1 X 1 Y 2 X 1 Y 1 X 1 1 d s 1125 1043 m 1 X 1 Y 2 X 1 Y 2 X 1 Y 1 X 1 Y 1 X 1 1 d 1 X s 1134 1048 m 1 Y 1 X 1 Y 2 X 1 Y 1 X 1 1 d
 1 Y 1 X 1 Y 1 -1 d 1 Y 1 X 1 Y 1 X s 1143 1055 m 1 X 1 Y 1 X 1 Y 2 X 1 Y 2 X 1 Y 1 X 1 Y 1 X s 1151 1060 m 1 X 1 Y 2 X 1 1 d 2 Y 3 X 1 Y 2 X s 1160 1065 m 1 1 d 1 X 1 1 d 1 X 1 Y 2 X 1 Y 1 X 1 Y 1 X 1 Y 1 X s 1169 1071 m 1 1 d 1 1 d 2 X 1 Y 2 X 1 Y
 1 X 1 Y 2 X 1 Y s 1178 1077 m 2 X 1 Y 3 X 1 Y 1 X 1 Y 1 X 1 Y 1 X 1 Y 1 X s 1187 1082 m 1 X 1 Y 2 X 1 Y 1 X 1 Y 3 X 1 Y 1 X s 1195 1086 m 1 X 1 1 d 1 X 1 Y -1 Y 2 X 1 Y 1 X 1 1 d 1 X 1 Y 1 X 1 Y s 1204 1091 m 1 X 1 Y 1 X 1 1 d 1 X 1 Y 1 X 1 Y 3 X 1
 Y 1 X s 1213 1096 m 1 X 1 Y 2 X 1 Y 3 X 1 1 d 1 X 1 1 d s 1222 1100 m 1 X 1 1 d 2 X 1 Y 2 X 1 Y 2 X 1 Y 1 X s 1231 1104 m 2 X 1 1 d 2 X -1 Y 1 Y 2 X 1 1 d s 1239 1106 m 1 X 1 1 d 2 X 1 Y 2 X 1 Y 3 X s 1248 1109 m 1 X 2 Y 1 X 1 1 d 2 X 1 Y 2 X 1 1 d
 1 X s 1257 1114 m 3 X 1 Y -1 Y 1 Y 1 X 2 Y 3 X 1 Y 2 X 1 Y s 1266 1119 m 1 X 1 Y 2 X 1 1 d 1 Y 2 X 1 Y 1 X 1 Y 2 X s 1275 1124 m 1 Y 1 X 1 1 d 2 X 1 1 d 1 1 d 1 Y 2 X 1 Y s 1283 1130 m 3 X 1 1 d 1 X 1 Y 2 X 1 Y 1 X -1 Y 1 1 d s 1292 1133 m 2 X 1 Y 4
 X 1 Y 3 X 1 Y s 1301 1136 m 1 X 1 Y 2 X 1 Y 1 X 1 Y 4 X 1 Y 1 X s 1310 1140 m 1 1 d 2 X 1 1 d -1 Y 1 1 d 2 X 1 Y 1 X 1 Y 1 X s 1319 1144 m 1 X 1 Y 2 X 1 Y 5 X s 1327 1146 m 1 1 d 1 X 1 Y 7 X s 1336 1148 m 1 X 1 Y 2 X 1 Y 2 X 1 Y 3 X 1 Y 1 X s 1345
 1152 m 7 X 1 Y 2 X s 1354 1153 m 1 X 1 1 d 2 X 1 Y 1 X -1 Y 1 Y 4 X s 1363 1155 m 1 Y 4 X 1 Y 3 X 1 Y 1 X s 1371 1158 m 1 X 1 1 d 3 X 1 Y 4 X 1 Y s 1380 1161 m 6 X 1 Y 3 X 1 Y s 1389 1163 m 3 X 1 Y 6 X s 1398 1164 m 1 Y 1 X -1 Y 1 1 d 6 X 1 Y 1 X s
 1407 1166 m -1 Y 1 Y 1 X 1 Y 1 X 1 Y 2 X 1 Y 1 X 1 1 d 2 X s 1415 1170 m 1 X 1 1 d 6 X 1 1 d s 1424 1172 m 1 -1 d 1 1 d 3 X 1 Y 4 X s 1433 1173 m 1 -1 d 1 Y 4 X 1 Y 4 X s 1442 1174 m 2 X 1 Y 1 -1 d 1 X 1 Y 5 X s 1451 1175 m 1 1 d 1 X -1 Y 1 X 1 Y 3
 X 1 Y 2 X s 1459 1177 m 2 X 1 Y -1 Y 1 Y 7 X s 1468 1178 m 4 X 1 Y 1 -1 d 3 X 1 Y 1 X s 1477 1179 m 6 X 1 1 d 2 X s 1486 1180 m 8 X 1 Y 1 X s 1495 1181 m 2 X 1 Y 1 X -1 Y 1 X 1 Y 4 X s 1503 1182 m 6 X 1 1 d 2 X s 1512 1183 m 9 X s 1521 1183 m 6 X 1
 Y -1 Y 2 X 1 Y 1 X -1 Y 1 Y s 1530 1184 m 2 X -1 Y 1 1 d 1 -1 d 1 Y 2 X 1 1 d 2 X s 1539 1185 m 7 X 1 1 d -1 Y 1 Y -1 Y s 1547 1185 m 1 X 1 Y 8 X s 1556 1186 m 7 X 1 1 d -1 Y 1 X s 1565 1186 m 1 X 1 Y 1 X 1 Y 1 X -1 Y 6 X s 1574 1187 m 3 X -1 Y 1 X
 1 1 d 1 X -1 Y 1 Y 1 X -1 Y 1 X 1 Y 1 X s 1583 1187 m 1 X 1 1 d 4 X 1 -1 d 1 Y -1 Y 1 X s 1591 1187 m 1 X 1 Y 2 X 1 1 d 5 X s 1600 1189 m 3 X -1 Y 1 Y 4 X -1 Y 2 X 1 Y s 1609 1189 m 1 X 1 Y 1 X -1 Y 3 X 1 Y 3 X -1 Y 1 Y 1 X s 1618 1190 m 3 X 1 Y 2 X
 2 Y 2 X -1 Y 1 Y 2 X s 1627 1193 m 6 X -1 Y 2 X s 1635 1192 m 2 X -1 Y 6 X -1 Y 1 X 1 Y s 1644 1191 m -1 Y 4 X 1 1 d 2 X -1 Y 1 X 1 Y 1 X s 1653 1191 m 2 X -1 Y 1 X 1 Y 2 X 1 Y 1 X 1 Y 1 X 1 Y -1 Y 2 X s 1662 1193 m 2 X 1 Y 4 X 1 Y 2 X 1 1 d s 1671
 1196 m -1 Y 4 X -1 Y 4 X s 1679 1194 m 3 X -1 Y 2 X 1 1 d 3 X 1 Y s 1688 1195 m 6 X -1 Y 1 X 1 1 d 1 X 1 Y -1 Y s 1697 1195 m 8 X 1 Y 1 X s 1706 1196 m -1 Y 6 X 1 Y 1 X 1 1 d -1 Y 1 X s 1715 1196 m 3 X -1 Y 1 1 d 1 -1 d 1 Y 1 X -1 Y 1 Y 2 X s 1723
 1196 m 2 X 2 Y 3 X -1 Y 1 Y 1 X -1 Y 1 Y 2 X -1 Y 1 X s 1732 1197 m 7 X -1 Y 1 1 d 1 X -1 Y s 1741 1196 m 1 X 1 Y 1 -1 d 2 X -1 Y 1 Y -1 Y 3 X 1 Y 1 X -1 Y 1 X s 1750 1195 m 1 X 1 Y 3 X -1 Y 1 X 1 Y 2 X -1 Y 2 Y -1 Y 1 X 1 Y -1 Y 1 X 1 Y s 1759 1197
 m 2 X -1 Y 2 X -1 Y 1 X 1 Y -1 Y 2 X -1 Y 1 X s 1767 1194 m 1 X -1 Y 3 X -1 Y 2 X -1 Y 1 X -1 Y 2 X -1 Y s 1776 1189 m 1 X -1 Y 2 X -1 Y 1 X 1 Y 2 X 1 Y 1 -1 d 1 Y 2 X s 1785 1189 m 1 X -1 Y 1 X 1 1 d -1 Y 1 X 1 1 d -1 Y 1 X 1 -1 d 1 -1 d 1 Y 1 1 d
 s 1794 1188 m -1 Y 1 1 d 1 X -1 Y 1 Y 1 -1 d 1 X 4 Y 1 X -1 Y 1 X -1 Y 2 X 1 1 d s 1803 1190 m -1 Y 1 1 d -1 Y 2 Y -1 Y 1 Y 1 X -1 Y 1 X -1 Y 1 X 2 Y 3 X -1 Y 1 X 1 Y -1 Y 1 X s 1812 1190 m -1 Y 5 X -1 Y 1 Y 1 X -1 Y 2 X -1 Y s 1820 1187 m 1 Y 1 X
 -2 Y 1 X 9 Y 4 X 2 Y 1 X 1 Y -1 Y 1 X 1 Y 1 X s 1829 1198 m -1 Y 1 X -1 Y 1 X 3 Y -1 Y 1 1 d -1 Y 3 Y 1 X 1 Y 1 X -1 Y 1 X -1 Y 1 X 1 Y 1 -1 d 3 Y 1 X -1 Y s 1838 1202 m 2 Y 1 1 d -1 Y 1 X -1 Y 2 X -2 Y 1 Y -1 Y 1 X 1 -1 d 1 Y -1 Y 1 -1 d 1 X -1 Y 1
 X 3 Y s 1847 1201 m -1 Y 1 X 2 Y -1 Y 2 X 1 Y -2 Y 1 X 3 Y 1 X -1 Y 1 Y 1 -1 d 1 7 d -1 Y 1 X 1 -1 d s 1856 1207 m -1 Y 2 X -1 Y 1 -1 d -1 Y 1 X -1 Y 1 X 2 Y 1 X 1 Y 1 -1 d -1 Y 1 X s 1864 1203 m 1 X 2 Y 1 X -1 Y 1 X 1 Y 3 X -1 Y 1 X -2 Y 2 X -1 Y s
 1873 1201 m 10 Y 5 X 1 Y 1 X -1 Y 1 1 d -1 Y 1 X -1 Y 1 -1 d 1 Y s 1882 1210 m -1 Y 2 X 1 Y 1 X 1 Y 1 X -1 Y 1 X -2 Y 2 X -2 Y 1 -1 d 1 1 d s 1891 1206 m 1 Y 1 X 1 Y -1 Y 2 X 1 Y 1 X 2 Y 1 X -1 Y 3 Y 1 X -1 Y 2 X -1 Y 1 X s 1900 1210 m 2 X -1 Y 1 X
 -1 Y 2 Y 1 -3 d -1 Y 1 X -3 Y 1 -3 d 1 1 d 1 X s 1908 1201 m 1 -4 d 2 X -1 Y 1 X -1 Y 1 X -1 Y 1 X -2 Y 2 X -2 Y 25 Y 1 5 d 3 Y s 1917 1223 m -1 Y 1 X -5 Y 1 X -2 Y 1 X -1 Y 1 X -1 Y 2 X -6 Y 1 X 2 Y -1 Y 2 Y 1 X -2 Y 1 X -1 Y s 1926 1207 m -1 Y 1 X
 5 Y -1 Y 3 X -6 Y 1 17 d -1 Y 1 X 1 -1 d 2 X s 1935 1219 m 2 X -2 Y 2 X -1 Y 1 X 2 Y 1 X -2 Y 1 X -2 Y 1 X -1 Y 1 X s 1944 1213 m -2 Y 5 X -1 Y 1 -3 d -1 Y 1 X 11 Y 1 X -4 Y s 1952 1213 m 2 X 1 Y 1 -4 d -5 Y 1 -2 d 3 X 16 Y 2 X s 1961 1219 m 1 Y 2 X
 -54 Y 2 X -58 Y 5 X s 1970 1108 m 2 X -155 Y 1 X -751 Y s 1978 202 m 1065 Y s 1978 1267 m 1 -1 d -1 Y 2 X -15 Y 3 X 1 -2 d 1 X s 1986 1248 m 9 X s 1995 1248 m 1 X -1 Y 3 X 1 Y 1 X -8 Y 1 1 d 1 X 1 2 d 2 Y 1 X s 2004 1245 m 3 X 1 Y 1 X 1 Y 5 X s 2013
 1247 m 9 X s 2022 1247 m 6 X 1 1 d 1 X s 2030 1248 m 9 X s 2039 1248 m 2 X s[  ] 0 sd 9 lw 0.49 0.6 0.82 c black 0 0 0.933333 c 245 1248 m 9 X s 254 1248 m 9 X s 263 1248 m 8 X s 271 1248 m 9 X s 280 1248 m 9 X s 289 1248 m 9 X s 298 1248 m 9 X s
 307 1248 m 8 X s 315 1248 m 9 X s 324 1248 m 9 X s 333 1248 m 9 X s 342 1248 m 9 X s 351 1248 m 8 X s 359 1248 m 9 X s 368 1248 m 9 X s 377 1248 m 9 X s 386 1248 m 9 X s 395 1248 m 8 X s 403 1248 m 9 X s 412 1248 m 9 X s 421 1248 m 9 X s 430 1248 m
 9 X s 439 1248 m 8 X s 447 1248 m 9 X s 456 1248 m 9 X s 465 1248 m 9 X s 474 1248 m 9 X s 483 1248 m 8 X s 491 1248 m 9 X s 500 1248 m 9 X s 509 1248 m 9 X s 518 1248 m 9 X s 527 1248 m 8 X s 535 1248 m 9 X s 544 1248 m 9 X s 553 1248 m 9 X s 562
 1248 m 9 X s 571 1248 m 8 X s 579 1248 m 9 X s 588 1248 m 9 X s 597 1248 m 9 X s 606 1248 m 9 X s 615 1248 m 8 X s 623 1248 m 9 X s 632 1248 m 9 X s 641 1248 m 9 X s 650 1248 m 9 X s 659 1248 m 8 X s 667 1248 m 9 X s 676 1248 m 9 X s 685 1248 m 3 X
 -2 Y 6 X s 694 1246 m 9 X s 703 1246 m 4 X -1 Y 4 X s 711 1245 m 2 X -1 Y 7 X s 720 1244 m 9 X s 729 1244 m 9 X s 738 1244 m 9 X s 747 1244 m 8 X s 755 1244 m 9 X s 764 1244 m 9 X s 773 1244 m 4 X -1 Y 5 X s 782 1243 m 7 X 1 Y 2 X s 791 1244 m 7 X
 -1 Y 1 X -1 Y s 799 1242 m 9 X s 808 1242 m 2 X -1 Y 7 X s 817 1241 m 9 X s 826 1241 m -1 Y 9 X s 835 1240 m 6 X -1 Y 2 X s 843 1239 m 9 X s 852 1239 m 9 X s 861 1239 m 9 X s 870 1239 m 3 X -1 Y 6 X s 879 1238 m 8 X s 887 1238 m 2 X -2 Y 4 X -1 Y 3
 X s 896 1235 m 6 X -1 Y 3 X -1 Y s 905 1233 m 1 -1 d 3 X -1 Y 5 X s 914 1231 m 4 X -1 Y 5 X s 923 1230 m 8 X s 931 1230 m 2 X -1 Y 4 X -1 Y 3 X s 940 1228 m 9 X s 949 1228 m 5 X 1 -1 d -2 Y 3 X s 958 1225 m 9 X s 967 1225 m 5 X -1 Y 3 X s 975 1224 m
 8 X -1 Y 1 X s 984 1223 m 2 X 1 Y 5 X -1 Y 2 X s 993 1223 m 3 X -1 Y 2 X 1 -1 d 3 X s 1002 1221 m 2 X -1 Y 1 X -1 Y 2 X -1 Y 4 X s 1011 1218 m 5 X 1 -1 d 2 X s 1019 1217 m 3 X -1 Y 2 X -1 Y 1 X 1 -1 d -1 Y 2 X s 1028 1213 m 1 X -1 Y 1 -1 d 1 X -1 Y
 2 X -1 Y 4 X s 1037 1209 m 1 -1 d 4 X 1 -1 d 1 Y 3 X s 1046 1208 m -1 Y 1 X -1 Y 4 X -1 Y 3 X -1 Y 1 X s 1055 1204 m 8 X -1 Y s 1063 1203 m 3 X 1 -1 d 4 X 1 Y 1 X s 1072 1203 m 2 X -1 Y 5 X 1 1 d 1 X -1 Y s 1081 1202 m 1 X 1 -1 d 4 X 1 -1 d 2 X s
 1090 1200 m 3 X -1 Y 6 X s 1099 1199 m 6 X 1 1 d 1 X -1 Y s 1107 1199 m 7 X -2 Y 2 X s 1116 1197 m 7 X 1 Y 2 X s 1125 1198 m 4 X -1 Y 4 X -2 Y 1 X s 1134 1195 m 4 X -1 Y 2 X 1 -1 d -1 Y 1 X -2 Y 1 X s 1143 1190 m 2 X -1 Y 1 X -1 Y 5 X -1 Y s 1151
 1187 m 2 X -1 Y 1 X -1 Y 1 X 1 Y 1 X -1 Y 3 X -2 Y 1 1 d -1 Y s 1160 1183 m 6 X 1 1 d 1 -1 d 1 X -2 Y s 1169 1181 m 2 X 1 -1 d 1 -1 d 5 X s 1178 1179 m -1 Y 6 X -1 Y 1 -1 d 2 X s 1187 1176 m -1 Y 2 X -3 Y 1 X -1 Y 1 X 1 Y 1 X -1 Y 3 X -1 Y s 1195
 1170 m 2 X -2 Y 1 X -4 Y 1 Y 1 X 1 -1 d -2 Y 4 X s 1204 1162 m 6 X 1 1 d 2 X 1 Y s 1213 1164 m 3 X 1 -1 d 4 X -1 Y 1 X s 1222 1162 m 1 X -1 Y 1 X -1 Y 1 X -3 Y 1 -1 d 5 X s 1231 1156 m 1 X -1 Y 3 X -2 Y 1 X -3 Y 3 X s 1239 1150 m 7 X -2 Y 1 X 1 -1 d
 -1 Y s 1248 1146 m 2 X 1 Y 1 -1 d 3 X 1 Y 2 X 1 -1 d -1 Y s 1257 1145 m 1 X -2 Y 2 X -1 Y 1 X -1 Y 2 X -1 Y 3 X -1 Y s 1266 1139 m 5 X -1 Y 3 X -1 Y 1 X s 1275 1137 m 1 X -1 Y 2 X -1 Y 1 1 d 1 X 1 Y 2 X -3 Y 1 X s 1283 1134 m 1 X -1 Y 1 X -2 Y 4 X
 -2 Y 3 X s 1292 1129 m 1 X -1 Y 2 X -1 Y 1 X -1 Y 1 X -2 Y 1 X -2 Y 1 X -1 Y 1 X -1 Y 1 X s 1301 1120 m 1 -1 d -2 Y 2 X -1 Y 1 X 1 Y 1 X -1 Y 1 X -1 Y 2 X -1 Y 1 X s 1310 1114 m -2 Y 2 X -1 Y 1 X -1 Y 1 X -3 Y 1 X 1 -2 d 3 X s 1319 1105 m 1 X -1 Y 1
 -1 d 1 X 1 Y 1 X -3 Y 2 X -1 Y 1 X -1 Y 1 X s 1327 1099 m 1 X -1 Y 2 X -2 Y 2 X 1 -1 d 2 X -1 Y 1 X s 1336 1094 m 2 X -1 Y 2 X -1 Y 2 X -1 Y 2 X 1 -3 d s 1345 1088 m 1 X -1 Y 1 X -1 Y 1 X -2 Y 1 -3 d 1 X 1 -1 d 2 X -2 Y 1 1 d -1 Y s 1354 1078 m 3 X
 -1 Y 2 X -1 Y 1 X -2 Y 1 X -1 Y 1 X -2 Y 1 X s 1363 1071 m 1 Y 2 X -1 Y 1 X -1 Y 1 X -1 Y 1 X -1 Y 1 X 2 Y 2 X s 1371 1070 m 1 X -1 Y 1 X -1 Y 1 1 d 1 X -2 Y 1 -1 d 2 X -1 Y 1 1 d -4 Y 1 X s 1380 1062 m 1 X -1 Y 1 X 1 -1 d 1 -1 d 3 X -1 Y 2 X s 1389
 1058 m -1 Y 2 X -1 Y 1 X 1 -1 d 1 Y 2 X -1 Y 3 X -1 Y s 1398 1054 m 1 X -2 Y 1 2 d -1 Y 3 X -3 Y 1 X 1 -1 d 1 X -1 Y 1 X s 1407 1048 m -1 Y 3 X -1 Y 2 X -1 Y 1 X -1 Y 1 X -1 Y 1 -2 d s 1415 1041 m 1 1 d 1 X 1 Y -2 Y 1 X -1 Y 3 X -1 Y 1 X 1 -1 d 1 X
 s 1424 1038 m 1 X -1 Y 1 X -1 Y 1 X 1 Y -1 Y 4 X -2 Y 1 X -1 Y 1 X -1 Y s 1433 1032 m -1 Y 1 -1 d -1 Y 2 X -3 Y 2 X 1 1 d -1 Y 1 X 1 Y -1 Y 2 X -1 Y s 1442 1025 m -1 Y 1 -1 d 1 X 1 -2 d -1 Y 1 X -1 Y 1 X -1 Y 1 -1 d 1 X -1 Y 2 X s 1451 1016 m -1 Y 1
 X -3 Y 1 X -4 Y 2 X -1 Y 2 X -1 Y 1 X -1 Y 1 Y 1 X s 1459 1006 m 2 X -2 Y 1 X -2 Y 1 X -2 Y 1 X 1 -1 d 2 Y -2 Y 1 X 1 Y 1 X -2 Y 1 X s 1468 998 m 1 Y 1 X -2 Y 1 X -5 Y 1 -1 d -3 Y 1 X -1 Y 1 -2 d -2 Y 1 -1 d 1 Y 2 X -1 Y 1 X -2 Y s 1477 980 m 1 -1 d
 1 -1 d 1 X -2 Y 1 X -1 Y 1 X 1 -1 d -2 Y 1 9 d -1 Y 1 X -3 Y 1 X s 1486 977 m 1 Y -1 Y 1 X 1 Y -1 Y 1 X -2 Y 1 X -2 Y 1 X -2 Y 1 X -2 Y 3 X -1 Y 1 X s 1495 968 m -2 Y 1 X -2 Y 1 -2 d 1 X 1 Y -4 Y 1 X 1 Y 1 -2 d -1 Y 1 X -2 Y 1 X -1 Y 1 X -1 Y s 1503
 953 m 1 X -4 Y 1 -1 d -2 Y 2 X -4 Y 1 Y 2 X -1 Y 1 X 1 -1 d -1 Y 1 -1 d -2 Y s 1512 937 m 2 X -1 Y 1 X 1 -1 d -1 Y 1 X -2 Y 1 Y 1 X -2 Y 1 -1 d -1 Y 1 X 1 Y 1 X -1 Y s 1521 929 m -1 Y 1 X -2 Y 1 X -2 Y 1 -1 d -3 Y 1 X -1 Y 1 X -1 Y 1 X -2 Y 1 X -2 Y
 1 Y 1 -1 d 1 X -1 Y s 1530 913 m 1 X -2 Y 1 -3 d -2 Y 1 X -2 Y 1 -3 d -1 Y 1 X -5 Y 1 -1 d 1 2 d 2 X -1 Y s 1539 895 m -1 Y 1 X -1 Y 1 X -3 Y 1 X -3 Y 1 X -2 Y 1 X -3 Y 1 X -1 Y 1 X -1 Y 1 X -2 Y 1 Y s 1547 879 m 1 -2 d 1 X 1 Y -2 Y 1 X -2 Y 1 -2 d
 -1 Y 1 X -2 Y 1 -1 d -2 Y 1 X -2 Y 1 1 d -2 Y 1 Y 1 X 1 Y -1 Y s 1556 864 m 1 Y 1 -1 d -1 Y 1 X -1 Y 1 X -3 Y 1 X -2 Y 1 X -3 Y 1 X -1 Y 1 -3 d -2 Y 1 X -3 Y 1 X s 1565 845 m -1 Y 1 X -1 Y 1 X -2 Y 1 Y 1 X -5 Y 1 X -1 Y 1 -1 d -2 Y 1 -1 d -1 Y 1 X
 -3 Y 1 X -1 Y 1 -1 d s 1574 826 m -2 Y 1 -1 d -2 Y 1 3 d -1 Y 1 X -7 Y 1 X -2 Y 2 X -2 Y 1 X -3 Y 1 -1 d -1 Y 1 X s 1583 807 m 1 -1 d -1 Y 1 -1 d -1 Y 1 X -1 Y 1 -1 d -1 Y 1 X -2 Y 1 -1 d -2 Y 1 -1 d -1 Y 1 -1 d -1 Y s 1591 791 m 1 -1 d -1 Y 1 Y -2
 Y 1 -1 d 1 -1 d -2 Y 1 -1 d 1 -1 d -1 Y 1 X -2 Y 1 X -3 Y 1 X -2 Y 1 -1 d s 1600 773 m 1 -1 d -1 Y 1 -1 d -2 Y 1 -1 d -1 Y 1 X -1 Y 1 Y 1 -1 d -1 Y 1 -1 d -1 Y 1 X -2 Y 1 X -3 Y 1 X s 1609 757 m 1 X -1 Y 1 X -5 Y 1 -1 d -2 Y 1 X -1 Y 1 X -2 Y 1 X -2
 Y 1 X -1 Y 1 X -3 Y 1 -1 d s 1618 738 m 1 -1 d 1 Y 1 -1 d -2 Y 1 -1 d -3 Y 1 X -3 Y 1 X -1 Y 1 X -3 Y 1 -1 d -1 Y 1 X -1 Y 1 X -1 Y s 1627 720 m -1 Y 1 X -3 Y 1 X -1 Y 1 -1 d 1 Y -1 Y 1 -2 d -1 Y 1 X -3 Y 1 -1 d -3 Y 1 -1 d -3 Y 1 -1 d -1 Y s 1635
 698 m 1 X -4 Y 1 X -2 Y 1 X -4 Y 1 X -1 Y 1 X -3 Y 1 X -2 Y 1 -1 d -4 Y 1 X -2 Y 1 -1 d -3 Y s 1644 671 m -1 Y 1 X -3 Y 1 X -1 Y 1 X -1 Y 1 X -2 Y 1 X -3 Y 1 -1 d -1 Y 1 X -3 Y 2 X -1 Y s 1653 654 m -1 Y 1 X -2 Y 1 X -2 Y 1 X -1 Y 1 X -3 Y 1 X -2 Y
 1 -1 d -1 Y 1 X -1 Y 1 X -2 Y 1 -1 d s 1662 637 m -1 Y 2 X -1 Y 1 X -2 Y 1 -1 d 1 X 2 Y 1 -1 d 1 X -1 Y 1 X -2 Y 1 X -1 Y s 1671 629 m -2 Y 1 X -1 Y 1 X -1 Y 1 X -3 Y 1 -2 d -2 Y 1 -2 d -1 Y 1 X -1 Y 1 X -2 Y 1 Y -1 Y 1 X -2 Y s 1679 610 m 1 -1 d 1
 -1 d -1 Y 1 X -3 Y 1 X -2 Y 1 -1 d -1 Y 1 X -3 Y 2 X 1 Y -1 Y 1 -1 d s 1688 596 m 1 -1 d -2 Y 1 Y 1 -1 d -2 Y 1 X -2 Y 1 X 1 -1 d -2 Y 1 X -3 Y 1 X -2 Y 1 X -2 Y 1 -1 d s 1697 578 m -1 Y 1 X -1 Y 1 X -3 Y 1 -1 d -1 Y 1 X -2 Y 1 X -1 Y 1 X -1 Y 1 1 d
 -1 Y 1 -1 d -1 Y 1 X s 1706 565 m -2 Y 1 X -2 Y 1 X -2 Y 1 X -1 Y 1 X -2 Y 1 X -1 Y 1 X 1 Y -2 Y 1 X -3 Y 1 X -2 Y 1 X -1 Y s 1715 548 m 1 Y -1 Y 1 X -2 Y 1 X -3 Y 1 -1 d 1 X -1 Y 1 -1 d -3 Y 1 X -2 Y 1 Y 1 X -3 Y 1 X -1 Y s 1723 532 m 1 X -1 Y 1 X
 -2 Y 1 X -1 Y 1 X -1 Y 1 X -3 Y 1 -1 d -2 Y 1 X -2 Y 1 -1 d -2 Y 1 -1 d -1 Y s 1732 514 m -2 Y 1 X -1 Y 1 -1 d -2 Y 1 X -2 Y 1 X -1 Y 1 -1 d 2 Y -2 Y 1 X -1 Y 1 -1 d -2 Y 1 X -1 Y 1 Y -1 Y 1 X -4 Y s 1741 495 m 1 X -2 Y 1 -1 d -1 Y 1 X -2 Y 1 X -3 Y
 1 X -3 Y 1 X -1 Y 1 1 d -1 Y 1 X -2 Y 1 -1 d s 1750 479 m -1 Y 1 X -2 Y 1 X -1 Y 1 -1 d -2 Y 1 X -3 Y 1 -1 d -1 Y 1 X -2 Y 1 X -2 Y 1 X -2 Y 1 -1 d s 1759 460 m -1 Y 1 -1 d 1 Y -1 Y 1 X -2 Y 1 X -2 Y 1 X -2 Y 1 -1 d -2 Y 1 -1 d -1 Y 1 -1 d -3 Y 1 X
 -2 Y s 1767 441 m 1 X -1 Y 1 -1 d -1 Y 1 -1 d -1 Y 1 X -2 Y 1 X -2 Y 1 Y 1 -1 d -3 Y 1 X -2 Y 1 -1 d -1 Y 1 X -2 Y s 1776 423 m 1 -1 d -2 Y 1 -1 d -3 Y 1 X -2 Y 1 X -1 Y 1 X -1 Y 1 X -2 Y 1 -1 d -2 Y 1 X -1 Y 1 X s 1785 406 m -1 Y 1 X -1 Y 1 -1 d -1
 Y 1 X -2 Y 1 X -2 Y 1 1 d -4 Y 1 X -2 Y 1 -2 d 1 Y -1 Y 1 -2 d 1 -1 d s 1794 388 m -3 Y 1 Y 1 -1 d -1 Y 1 X -3 Y 1 X -1 Y 1 -1 d 1 -1 d -3 Y 1 X -3 Y 1 X 1 -1 d -1 Y 1 X s 1803 370 m -1 Y 1 X -2 Y 1 X -1 Y 1 X -2 Y 1 X -1 Y 1 -1 d 1 X -2 Y 1 X -2 Y
 1 X -2 Y 1 X s 1812 356 m -2 Y 1 X -1 Y 1 X 1 -1 d -1 Y 1 X 1 -1 d -2 Y 1 Y -1 Y 1 X -1 Y 1 X -1 Y 1 X s 1820 346 m 1 X -2 Y 1 X -1 Y 1 Y 1 X -2 Y 1 1 d -1 Y 1 X -1 Y 1 X -1 Y 1 X -1 Y 1 -1 d -1 Y 1 X s 1829 337 m -1 Y 1 X -2 Y 1 X -1 Y 1 X -1 Y 1 X
 1 Y -1 Y 1 X -1 Y 1 Y -2 Y 1 X -1 Y 1 X 1 -1 d 1 X -1 Y s 1838 327 m -1 Y 1 X -2 Y 1 -1 d -1 Y 1 X -1 Y 1 X -3 Y 1 X -1 Y 1 X -1 Y 1 -1 d -1 Y 2 X s 1847 314 m -1 Y 1 X -1 Y 2 X -2 Y 1 X -1 Y 1 X -1 Y 2 X -1 Y 1 X -1 Y 1 X s 1856 306 m -2 Y 1 X -1 Y
 1 X -1 Y 1 -1 d 1 -1 d 1 -1 d 1 X 1 -1 d -1 Y 1 X s 1864 297 m 1 X 1 -1 d 2 X -1 Y 3 X -2 Y 1 X -1 Y 1 X s 1873 292 m 1 Y 1 -1 d 3 X -1 Y 1 X -1 Y 3 X -1 Y 1 -1 d s 1882 288 m 2 X -1 Y 3 X -2 Y 2 X -1 Y 1 -1 d 1 -1 d s 1891 282 m 2 X -1 Y 6 X -1 Y 1
 X s 1900 280 m 2 X -1 Y 1 X 1 -2 d 1 X -2 Y 1 -1 d 2 X s 1908 274 m 1 -1 d 1 X 1 -1 d 3 X -1 Y 3 X s 1917 271 m -1 Y 1 X -2 Y 1 X -1 Y 4 X -2 Y 1 X 1 Y 1 X -1 Y 1 X s 1926 265 m 4 X -1 Y 1 X -1 Y 1 X 1 Y 1 -1 d 2 X s 1935 263 m 7 X -1 Y 2 X s 1944
 262 m 5 X 1 -1 d 2 X s 1952 261 m 2 X 1 -1 d 6 X s 1961 260 m 2 X -2 Y 2 X -1 Y 5 X s 1970 257 m 9 X s 1979 257 m 9 X s 1988 257 m 8 X s 1996 257 m 9 X s 2005 257 m 9 X s 2014 257 m 9 X s 2023 257 m 9 X s 2032 257 m 8 X s 2040 257 m 1 X s 1 0 0 c
 black 1 0 0 c 245 1248 m 9 X s 254 1248 m 9 X s 263 1248 m 8 X s 271 1248 m 9 X s 280 1248 m 9 X s 289 1248 m 9 X s 298 1248 m 9 X s 307 1248 m 3 X 1 -1 d 4 X s 315 1247 m 9 X s 324 1247 m 9 X s 333 1247 m 9 X s 342 1247 m 9 X s 351 1247 m 4 X -1 Y
 4 X s 359 1246 m 9 X s 368 1246 m 9 X -1 Y s 377 1245 m 9 X s 386 1245 m 4 X -1 Y 5 X s 395 1244 m -1 Y 8 X s 403 1243 m 8 X -1 Y 1 X s 412 1242 m 5 X -1 Y 4 X s 421 1241 m 3 X -1 Y 5 X 1 -1 d s 430 1239 m 7 X -1 Y 2 X s 439 1238 m 5 X -1 Y 3 X s
 447 1237 m 3 X -1 Y 4 X 1 -1 d 1 X s 456 1235 m 1 -1 d 3 X -1 Y 5 X s 465 1233 m 1 X -1 Y 4 X -1 Y 2 X 1 -1 d 1 X s 474 1230 m 5 X -1 Y 4 X s 483 1229 m 4 X -1 Y 1 X -1 Y 3 X -1 Y s 491 1226 m 4 X -1 Y 5 X -1 Y s 500 1224 m 1 X -1 Y 2 X 1 -1 d 5 X s
 509 1222 m -1 Y 1 X -1 Y 2 X -1 Y 3 X -1 Y 3 X s 518 1218 m 1 X 1 -1 d 1 X -1 Y 2 X -1 Y 3 X -1 Y 1 X s 527 1214 m 2 X -1 Y 2 X 1 -1 d 3 X -2 Y s 535 1210 m 1 X 1 -1 d 3 X -1 Y 2 X 1 -1 d 1 X s 544 1207 m 1 -1 d 2 X -1 Y 2 X -1 Y 1 X -1 Y 2 X -1 Y 1
 X s 553 1202 m 1 X -1 Y 2 X -1 Y 2 X -1 Y 2 X -1 Y 2 X s 562 1198 m 1 -1 d 1 X 1 -1 d 1 X -1 Y 1 X 1 -1 d 1 X -1 Y 1 X -1 Y 1 X s 571 1192 m 1 X 1 -1 d 2 X -1 Y 2 X -1 Y 2 X s 579 1189 m 1 X -1 Y 1 X -1 Y 1 X -1 Y 2 X -1 Y 2 X -1 Y 1 X 1 -1 d s 588
 1183 m 2 X -1 Y 1 X -1 Y 2 X -1 Y 3 X -1 Y 1 X s 597 1179 m 1 X -1 Y 1 X 1 -1 d 1 X -1 Y 1 X -1 Y 1 X -1 Y 2 X -1 Y 1 X s 606 1173 m 1 X -1 Y 1 X -1 Y 2 X -1 Y 1 X -1 Y 1 X -1 Y 1 X -1 Y 1 X -1 Y 1 X s 615 1166 m 1 X -1 Y 1 X -1 Y 1 X -1 Y 2 X -1 Y
 2 X 1 -1 d s 623 1161 m 1 X -1 Y 1 X -1 Y 1 X -1 Y 1 X -1 Y 1 X -1 Y 1 X -1 Y 1 X -1 Y 1 X -1 Y 1 X -1 Y s 632 1152 m 1 X -1 Y 2 X -1 Y 2 X -1 Y 2 X -1 Y 1 X -1 Y 1 X s 641 1147 m -1 Y 1 X -1 Y 1 X -1 Y 1 X -1 Y 1 -1 d 1 X -1 Y 1 X -1 Y 1 X -1 Y 1 X
 -1 Y 1 X s 650 1138 m 2 X -1 Y 1 X -1 Y 1 X -1 Y 1 X -1 Y 1 X -1 Y 1 X -1 Y 1 X -1 Y 1 X s 659 1131 m 1 X -1 Y 1 -1 d -1 Y 2 X -1 Y 1 X -2 Y 1 X 1 -1 d 1 X -1 Y s 667 1123 m 1 X -1 Y 1 X -1 Y 1 X -1 Y 1 X -1 Y 1 X -1 Y 1 -2 d -1 Y 1 X 1 -1 d 1 X -1
 Y s 676 1113 m 1 X -1 Y 1 X -1 Y 1 X -1 Y 1 -1 d 1 X -1 Y 2 X -1 Y 1 X -2 Y 1 X s 685 1105 m -1 Y 2 X 1 -1 d -1 Y 2 X -1 Y 1 X -3 Y 2 X -1 Y 1 X s 694 1097 m -1 Y 1 X -1 Y 1 -1 d -1 Y 1 X 1 -1 d 1 X -2 Y 2 X -3 Y 1 -1 d -1 Y 1 X s 703 1085 m -1 Y 2
 X -2 Y 1 X -1 Y 1 Y -1 Y 1 X -2 Y 1 X -1 Y 1 X -1 Y 1 X -1 Y 1 X -1 Y s 711 1075 m 1 X -1 Y 1 X -1 Y 1 X -1 Y 1 X -1 Y 1 X -1 Y 1 X -1 Y 1 X -1 Y 1 -1 d -1 Y 1 X s 720 1066 m 1 -1 d -1 Y 1 -1 d -1 Y 1 X -3 Y 1 X -1 Y 1 X -1 Y 1 X -1 Y 1 X -2 Y 1 X
 -4 Y 1 -1 d -1 Y s 729 1048 m 1 X -3 Y 1 X -1 Y 1 X -1 Y 1 X -1 Y 1 X -1 Y 1 X -1 Y 1 X -1 Y 1 X -1 Y 1 X -1 Y s 738 1037 m 1 X 1 -1 d -1 Y 1 X -1 Y 1 X -1 Y 1 -1 d -1 Y 1 X -2 Y 1 X -1 Y 1 X -1 Y 1 X s 747 1027 m -1 Y 1 X -1 Y 1 X -1 Y 1 X -1 Y 1
 -1 d -1 Y 1 -1 d -1 Y 1 X -1 Y 1 -1 d -1 Y 1 X s 755 1016 m 1 -1 d 1 -1 d 1 Y -2 Y 1 -1 d -1 Y 1 X -2 Y 1 X 1 -1 d -1 Y 1 X -1 Y 1 X -1 Y 1 X s 764 1005 m 1 X -1 Y 1 X -1 Y 1 X -2 Y 1 X -1 Y 1 -1 d -2 Y 1 X -1 Y 1 X -1 Y 1 X -1 Y 1 -1 d -1 Y s 773
 992 m 1 X -1 Y 1 -1 d -1 Y 1 X -1 Y 1 X -1 Y 1 X -1 Y 1 X -1 Y 1 -1 d -1 Y 2 X -1 Y s 782 982 m 1 X -1 Y 1 X -1 Y 1 X -2 Y 1 X -2 Y 1 X -1 Y 1 -1 d -1 Y 1 X -2 Y 1 X -2 Y 1 X s 791 969 m -1 Y 1 X -1 Y 1 -1 d -1 Y 1 X -1 Y 1 X -1 Y 1 X -1 Y 1 -1 d -1
 Y 1 X -1 Y 1 X -2 Y s 799 957 m 1 X -2 Y 1 X -1 Y 1 X -2 Y 1 -1 d 1 X -2 Y 1 -1 d -1 Y 1 X -2 Y 1 X -1 Y 1 X -1 Y s 808 943 m 1 X -2 Y 1 X 1 -1 d -2 Y 1 X -1 Y 1 Y -1 Y 1 X -2 Y 1 X -1 Y 1 X -1 Y 1 X -1 Y 1 X -1 Y s 817 931 m 1 X -2 Y 1 X -2 Y 1 X
 -1 Y 1 X -1 Y 1 X -2 Y 1 -1 d -2 Y 1 X -1 Y 1 -1 d -1 Y 1 X s 826 917 m -1 Y 1 -1 d -1 Y 1 X -1 Y 1 X -1 Y 1 X -1 Y 1 X -1 Y 1 -1 d -1 Y 1 -1 d 1 -1 d 1 -1 d s 835 905 m -1 Y 1 X -2 Y 1 X -2 Y 1 X -1 Y 1 X -1 Y 1 -1 d 1 X -1 Y 1 -1 d -1 Y 1 X -1 Y s
 843 893 m 1 -1 d -1 Y 1 X -1 Y 1 X -2 Y 1 X -1 Y 1 X -1 Y 1 -1 d 1 X -1 Y 1 X -1 Y 1 X -2 Y s 852 881 m 1 X -1 Y 1 X -1 Y 1 X -1 Y 1 -1 d -1 Y 1 X -1 Y 1 X -1 Y 1 X -2 Y 1 X -1 Y 1 X -1 Y s 861 870 m 1 -1 d -1 Y 1 -1 d -1 Y 1 X -2 Y 1 X -1 Y 1 X -1
 Y 1 X -1 Y 1 X -2 Y 1 X -2 Y 1 X s 870 857 m -1 Y 1 X -2 Y 1 X -1 Y 1 -1 d -1 Y 1 X -1 Y 1 X -3 Y 1 -1 d -1 Y 1 X -1 Y 1 X -2 Y 1 -1 d s 879 841 m -1 Y 1 X -1 Y 1 X -3 Y 1 X -2 Y 1 X -2 Y 1 X -1 Y 1 -1 d -1 Y 1 X -1 Y 1 X -1 Y s 887 827 m 1 -1 d 1
 -1 d -1 Y 1 X -1 Y 1 -1 d 1 X -1 Y 1 -1 d -1 Y 1 X -2 Y 1 -1 d -2 Y 1 X s 896 814 m -1 Y 1 X -1 Y 1 -1 d 1 X -2 Y 1 X -1 Y 1 X -2 Y 1 -1 d 1 -1 d -2 Y 1 X -2 Y 1 -1 d -1 Y s 905 798 m 1 X -1 Y 1 -1 d -1 Y 1 X -1 Y 1 X -1 Y 1 X -2 Y 1 -1 d -2 Y 1 X
 -1 Y 1 X -2 Y 1 X -1 Y s 914 784 m -1 Y 1 X -1 Y 1 X -1 Y 1 -1 d -1 Y 1 -1 d -1 Y 1 X -2 Y 1 X -1 Y 1 -1 d -1 Y 1 X -1 Y 1 -1 d s 923 770 m -1 Y 1 X -2 Y 1 X -1 Y 1 X -2 Y 1 X -2 Y 1 -1 d 1 -1 d -2 Y 1 X -1 Y 1 X -2 Y s 931 755 m 1 X -1 Y 1 X -1 Y 1
 -1 d -1 Y 1 X -1 Y 1 X -2 Y 1 X -1 Y 1 X -1 Y 1 X -2 Y 1 X s 940 744 m -1 Y 1 X -1 Y 1 X -2 Y 1 X -2 Y 1 X -2 Y 1 X -2 Y 1 -1 d 1 -1 d -2 Y 1 X -2 Y 1 X -1 Y s 949 727 m 1 -1 d -2 Y 1 X -1 Y 1 X -1 Y 1 X -2 Y 1 X -1 Y 1 X -2 Y 1 X -1 Y 1 X -1 Y 1 -1
 d s 958 714 m -1 Y 1 X -1 Y 1 -1 d -1 Y 1 X -2 Y 1 X -1 Y 1 -1 d -1 Y 1 X -1 Y 1 -1 d 1 X -2 Y 1 X s 967 701 m -2 Y 1 X -2 Y 1 X -2 Y 1 X -1 Y 1 X -2 Y 1 X -1 Y 1 X -1 Y 1 X -2 Y 1 X -2 Y s 975 686 m 1 X -1 Y 1 -1 d -1 Y 1 -1 d -1 Y 1 X -1 Y 1 -1 d
 -1 Y 1 X -1 Y 1 X -2 Y 1 X -1 Y 1 X -2 Y s 984 672 m -1 Y 1 X -4 Y 1 X -1 Y 1 -1 d -1 Y 1 X -1 Y 1 X -1 Y 1 X -1 Y 1 X -2 Y 1 X -1 Y 1 -1 d -1 Y s 993 656 m 1 X -1 Y 1 X -1 Y 1 -1 d -1 Y 1 X -1 Y 1 -1 d 1 -1 d -1 Y 1 X -1 Y 1 X -1 Y 1 X s 1002 646 m
 -2 Y 1 X -1 Y 1 X -1 Y 1 X -2 Y 1 X -2 Y 1 X -2 Y 1 X -2 Y 1 X -1 Y 1 X -1 Y 1 X s 1011 632 m 1 -1 d 1 -1 d 1 -1 d -1 Y 1 X -1 Y 1 X -1 Y 1 X -1 Y 1 X -1 Y 1 -1 d -1 Y s 1019 622 m 1 X -1 Y 1 X -1 Y 1 -1 d -1 Y 1 X -2 Y 1 X -1 Y 1 X -1 Y 1 X -2 Y 1
 X -1 Y 1 -1 d s 1028 610 m -1 Y 1 X 1 -1 d -1 Y 1 X -2 Y 2 X -2 Y 1 X -1 Y 1 X -1 Y 1 X -1 Y 1 X -1 Y s 1037 599 m -1 Y 1 X -2 Y 1 X -1 Y 1 X -2 Y 1 X -1 Y 1 X -1 Y 1 -1 d 1 -1 d 1 X -2 Y 1 X s 1046 587 m 1 X -2 Y 1 X -1 Y 1 X -1 Y 1 X -1 Y 1 X -1 Y
 1 X -1 Y 1 X -2 Y 1 X -1 Y 1 -1 d s 1055 576 m -1 Y 1 X -1 Y 1 X -1 Y 1 X -1 Y 1 X -1 Y 1 X 1 -1 d 1 X -1 Y 1 X -2 Y s 1063 567 m 1 X -1 Y 1 X -1 Y 1 X -1 Y 1 X -2 Y 1 X -1 Y 1 X -1 Y 1 X -2 Y 1 X -1 Y 1 X -1 Y s 1072 556 m 1 X -1 Y 2 X -1 Y 1 X -1
 Y 1 -1 d -1 Y 1 X -1 Y 1 X -2 Y 1 X -2 Y 1 X s 1081 546 m -1 Y 1 X -1 Y 1 X -1 Y 1 X -1 Y 1 X -2 Y 1 X -1 Y 1 X -1 Y 1 X -1 Y 1 X -1 Y 1 X s 1090 536 m 1 X -1 Y 1 X -1 Y 1 X -1 Y 2 X -1 Y 1 X -1 Y 1 X -1 Y 1 X -2 Y 1 X s 1099 528 m 1 -1 d 1 X -1 Y 1
 X -2 Y 1 X -1 Y 1 X 1 -1 d 1 X -1 Y 1 X -1 Y s 1107 520 m 1 X -1 Y 1 -1 d 1 -1 d 1 X -1 Y 1 X -1 Y 1 X -1 Y 1 X 1 -1 d -1 Y 1 -1 d s 1116 511 m 1 -1 d -1 Y 1 X 1 -1 d -1 Y 2 X -2 Y 1 X 1 -1 d 1 X -1 Y 1 X -1 Y s 1125 502 m 1 X -1 Y 1 X -1 Y 1 X -1 Y
 2 X -1 Y 1 -1 d -1 Y 1 X -1 Y 1 X -1 Y 1 X -1 Y s 1134 493 m 1 -1 d -1 Y 2 X -1 Y 1 -1 d 1 X -3 Y 2 X -1 Y 1 -1 d -2 Y 1 X s 1143 482 m 1 X -1 Y 1 X -1 Y 1 -1 d 1 X -1 Y 1 X -1 Y 1 X -1 Y 1 X -1 Y 1 X -1 Y s 1151 474 m 1 X -1 Y 2 X -1 Y 1 X -3 Y 1 X
 1 -1 d 1 X -1 Y 2 X -1 Y s 1160 466 m 1 X -1 Y 1 X -1 Y 2 X -1 Y 1 -1 d 1 X -1 Y 1 X -1 Y 1 -1 d 1 -1 d s 1169 458 m -1 Y 1 X -1 Y 1 X -1 Y 1 X 1 -1 d 1 X -1 Y 1 X -1 Y 1 -1 d 1 X -1 Y 1 X s 1178 450 m -1 Y 2 X -1 Y 1 X -1 Y 2 X -1 Y 1 X -1 Y 1 X -2
 Y 1 X -1 Y 1 X s 1187 442 m -1 Y 1 X -1 Y 1 X 1 -1 d 1 -1 d -1 Y 2 X -1 Y 2 X -1 Y s 1195 435 m 1 X 1 -1 d -1 Y 2 X -1 Y 1 X 1 -1 d 1 -1 d 1 X -1 Y 1 X -2 Y s 1204 427 m 1 X -1 Y 1 X -1 Y 1 X -1 Y 1 X -1 Y 1 X -1 Y 3 X -1 Y 1 X s 1213 421 m 1 X -1 Y
 1 X 1 -1 d 2 X -1 Y 2 X -1 Y 1 X -1 Y 1 X s 1222 416 m 1 X -1 Y 1 X 1 -1 d 1 X -1 Y 1 X -1 Y 1 X -1 Y 2 X -1 Y 1 X s 1231 410 m 1 X -1 Y 3 X -1 Y 2 X -1 Y 1 X 1 -1 d s 1239 406 m 2 X -1 Y 2 X -1 Y 1 X 1 -1 d 2 X -1 Y 1 X -1 Y s 1248 401 m 1 X -1 Y 1
 X -1 Y 1 X -1 Y 2 X -1 Y 2 X 1 -1 d 1 X s 1257 396 m 2 X -1 Y 1 X -1 Y 1 X -2 Y 1 X -1 Y 2 X -1 Y 2 X -1 Y s 1266 389 m 1 X -1 Y 1 X 1 -1 d 1 X -1 Y 1 X 1 -1 d -1 Y 1 X -1 Y 1 X -1 Y 1 X s 1275 382 m 1 X -1 Y 2 X -1 Y 2 X -1 Y 1 -1 d -1 Y 2 X -1 Y s
 1283 376 m 1 X 1 -1 d 1 X -1 Y 2 X -1 Y 1 X 1 -1 d 2 X -1 Y s 1292 371 m 2 X -1 Y 4 X -1 Y 1 X -1 Y 2 X -1 Y s 1301 367 m 1 -1 d 1 X -1 Y 1 X -1 Y 1 X 1 -1 d 3 X -1 Y 1 X -1 Y s 1310 361 m 1 X -1 Y 2 X 1 -1 d 2 X -1 Y 1 X -1 Y 1 X -1 Y 1 X s 1319
 356 m 1 X -1 Y 2 X -1 Y 4 X -1 Y 1 X s 1327 353 m 1 X -1 Y 2 X 1 -1 d 5 X s 1336 351 m 1 X -1 Y 1 X -1 Y 2 X -1 Y 2 X -1 Y 2 X -1 Y 1 X s 1345 346 m 3 X -1 Y 4 X -1 Y 2 X s 1354 344 m 1 X -1 Y 3 X -1 Y 3 X -1 Y 2 X s 1363 341 m 1 X -1 Y 3 X -1 Y 3 X
 -1 Y 1 X s 1371 338 m 1 X -1 Y 3 X -1 Y 4 X -1 Y 1 X s 1380 335 m 2 X -1 Y 4 X -1 Y 3 X -1 Y s 1389 332 m 3 X -1 Y 4 X -1 Y 2 X s 1398 330 m 3 X 1 -1 d 5 X s 1407 329 m -1 Y 1 X -1 Y 1 X 1 -1 d 1 X -1 Y 1 X 1 -1 d 2 X s 1415 324 m 1 X -1 Y 5 X -1 Y
 3 X s 1424 322 m 5 X -1 Y 4 X s 1433 321 m 1 X -1 Y 4 X -1 Y 4 X s 1442 319 m 1 X -1 Y 4 X -1 Y 4 X s 1451 317 m 1 X -1 Y 3 X -1 Y 4 X -1 Y s 1459 314 m 6 X -1 Y 3 X s 1468 313 m 4 X -1 Y 4 X -1 Y 1 X s 1477 311 m 3 X -1 Y 6 X s 1486 310 m 3 X -1 Y
 6 X s 1495 309 m -1 Y 3 X -1 Y 5 X -1 Y s 1503 306 m 6 X 1 -1 d 2 X s 1512 305 m 1 X -1 Y 8 X s 1521 304 m 2 X -1 Y 7 X s 1530 303 m -1 Y 4 X -1 Y 2 X 1 -1 d 2 X s 1539 300 m 4 X -1 Y 4 X s 1547 299 m 1 X 1 -1 d 6 X -1 Y 1 X s 1556 297 m 7 X -1 Y 2
 X s 1565 296 m 1 X -1 Y 5 X 1 -1 d 2 X s 1574 294 m 6 X -1 Y 3 X s 1583 293 m 1 X 1 -1 d 6 X s 1591 292 m 1 X -1 Y 2 X 1 -1 d 5 X s 1600 290 m 2 X -1 Y 7 X s 1609 289 m 1 -1 d 4 X -1 Y 4 X s 1618 287 m 3 X -1 Y 2 X -1 Y 2 X -1 Y 2 X s 1627 284 m 7 X
 -1 Y 1 X s 1635 283 m 9 X -1 Y s 1644 282 m 7 X 1 -1 d 1 X s 1653 281 m 5 X -1 Y 1 X -1 Y 3 X s 1662 279 m 6 X -1 Y 3 X s 1671 278 m 5 X -1 Y 3 X s 1679 277 m 7 X 1 -1 d 1 X s 1688 276 m 7 X -1 Y 2 X s 1697 275 m 4 X -1 Y 5 X s 1706 274 m 6 X -1 Y 3
 X s 1715 273 m 6 X -1 Y 2 X s 1723 272 m 2 X -1 Y 7 X s 1732 271 m 4 X -1 Y 5 X s 1741 270 m 7 X -1 Y 2 X s 1750 269 m 7 X -1 Y 2 X s 1759 268 m 8 X s 1767 268 m 7 X -1 Y 2 X s 1776 267 m 7 X -1 Y 2 X s 1785 266 m 8 X 1 -1 d s 1794 265 m 4 X -1 Y 5
 X s 1803 264 m 4 X -1 Y 5 X s 1812 263 m 8 X s 1820 263 m 2 X -1 Y 4 X -1 Y 3 X s 1829 261 m 8 X -1 Y 1 X s 1838 260 m 9 X s 1847 260 m 4 X -1 Y 5 X s 1856 259 m 8 X s 1864 259 m 9 X s 1873 259 m -1 Y 9 X s 1882 258 m 9 X s 1891 258 m 9 X s 1900 258
 m 8 X s 1908 258 m 8 X -1 Y 1 X s 1917 257 m 9 X s 1926 257 m 9 X s 1935 257 m 9 X s 1944 257 m 8 X s 1952 257 m 9 X s 1961 257 m 9 X s 1970 257 m 9 X s 1979 257 m 9 X s 1988 257 m 8 X s 1996 257 m 9 X s 2005 257 m 9 X s 2014 257 m 9 X s 2023 257 m
 9 X s 2032 257 m 8 X s 2040 257 m 1 X s 0 0.666667 0 c 1 1 1 c black 0 0.666667 0 c 245 257 m 9 X s 254 257 m 9 X s 263 257 m 8 X s 271 257 m 9 X s 280 257 m 9 X s 289 257 m 9 X s 298 257 m 9 X s 307 257 m 8 X s 315 257 m 9 X s 324 257 m 9 X s 333
 257 m 9 X s 342 257 m 9 X s 351 257 m 8 X s 359 257 m 9 X s 368 257 m 9 X s 377 257 m 9 X s 386 257 m 9 X s 395 257 m 8 X s 403 257 m 9 X s 412 257 m 9 X s 421 257 m 9 X s 430 257 m 9 X s 439 257 m 8 X s 447 257 m 9 X s 456 257 m 9 X s 465 257 m 9 X
 s 474 257 m 9 X s 483 257 m 8 X s 491 257 m 9 X s 500 257 m 9 X s 509 257 m 9 X s 518 257 m 9 X s 527 257 m 8 X s 535 257 m 9 X s 544 257 m 9 X s 553 257 m 9 X s 562 257 m 9 X s 571 257 m 8 X s 579 257 m 9 X s 588 257 m 9 X s 597 257 m 9 X s 606 257
 m 9 X s 615 257 m 8 X s 623 257 m 9 X s 632 257 m 9 X s 641 257 m 9 X s 650 257 m 9 X s 659 257 m 8 X s 667 257 m 9 X s 676 257 m 9 X s 685 257 m 9 X s 694 257 m 9 X s 703 257 m 8 X s 711 257 m 9 X s 720 257 m 9 X s 729 257 m 9 X s 738 257 m 9 X s
 747 257 m 8 X s 755 257 m 9 X s 764 257 m 9 X s 773 257 m 9 X s 782 257 m 9 X s 791 257 m 8 X s 799 257 m 9 X s 808 257 m 9 X s 817 257 m 9 X s 826 257 m 9 X s 835 257 m 8 X s 843 257 m 9 X s 852 257 m 9 X s 861 257 m 9 X s 870 257 m 9 X s 879 257 m
 8 X s 887 257 m 9 X s 896 257 m 9 X s 905 257 m 9 X s 914 257 m 9 X s 923 257 m 8 X s 931 257 m 9 X s 940 257 m 9 X s 949 257 m 9 X s 958 257 m 9 X s 967 257 m 8 X s 975 257 m 9 X s 984 257 m 9 X s 993 257 m 9 X s 1002 257 m 9 X s 1011 257 m 8 X s
 1019 257 m 9 X s 1028 257 m 9 X s 1037 257 m 9 X s 1046 257 m 9 X s 1055 257 m 8 X s 1063 257 m 9 X s 1072 257 m 9 X s 1081 257 m 9 X s 1090 257 m 9 X s 1099 257 m 8 X s 1107 257 m 9 X s 1116 257 m 9 X s 1125 257 m 9 X s 1134 257 m 9 X s 1143 257 m
 8 X s 1151 257 m 9 X s 1160 257 m 9 X s 1169 257 m 9 X s 1178 257 m 9 X s 1187 257 m 8 X s 1195 257 m 9 X s 1204 257 m 9 X s 1213 257 m 9 X s 1222 257 m 9 X s 1231 257 m 8 X s 1239 257 m 9 X s 1248 257 m 9 X s 1257 257 m 9 X s 1266 257 m 9 X s 1275
 257 m 8 X s 1283 257 m 9 X s 1292 257 m 9 X s 1301 257 m 9 X s 1310 257 m 9 X s 1319 257 m 8 X s 1327 257 m 9 X s 1336 257 m 9 X s 1345 257 m 9 X s 1354 257 m 9 X s 1363 257 m 8 X s 1371 257 m 9 X s 1380 257 m 9 X s 1389 257 m 9 X s 1398 257 m 9 X s
 1407 257 m 8 X s 1415 257 m 9 X s 1424 257 m 9 X s 1433 257 m 9 X s 1442 257 m 9 X s 1451 257 m 8 X s 1459 257 m 9 X s 1468 257 m 9 X s 1477 257 m 9 X s 1486 257 m 9 X s 1495 257 m 8 X s 1503 257 m 9 X s 1512 257 m 9 X s 1521 257 m 9 X s 1530 257 m
 9 X s 1539 257 m 8 X s 1547 257 m 9 X s 1556 257 m 9 X s 1565 257 m 9 X s 1574 257 m 9 X s 1583 257 m 8 X s 1591 257 m 9 X s 1600 257 m 9 X s 1609 257 m 9 X s 1618 257 m 9 X s 1627 257 m 8 X s 1635 257 m 9 X s 1644 257 m 9 X s 1653 257 m 9 X s 1662
 257 m 9 X s 1671 257 m 8 X s 1679 257 m 9 X s 1688 257 m 9 X s 1697 257 m 9 X s 1706 257 m 9 X s 1715 257 m 8 X s 1723 257 m 9 X s 1732 257 m 9 X s 1741 257 m 9 X s 1750 257 m 9 X s 1759 257 m 8 X s 1767 257 m 9 X s 1776 257 m 9 X s 1785 257 m 9 X s
 1794 257 m 9 X s 1803 257 m 9 X s 1812 257 m 8 X s 1820 257 m 9 X s 1829 257 m 9 X s 1838 257 m 9 X s 1847 257 m 9 X s 1856 257 m 8 X s 1864 257 m 9 X s 1873 257 m 9 X s 1882 257 m 9 X s 1891 257 m 9 X s 1900 257 m 8 X s 1908 257 m 9 X s 1917 257 m
 9 X s 1926 257 m 9 X s 1935 257 m 9 X s 1944 257 m 8 X s 1952 257 m 9 X s 1961 257 m 9 X s 1970 257 m 9 X s 1979 257 m 9 X s 1988 257 m 8 X s 1996 257 m 9 X s 2005 257 m 9 X s 2014 257 m 9 X s 2023 257 m 9 X s 2032 257 m 8 X s 2040 257 m 1 X s black
 3 lw 245 202 m 1796 X s 309 242 m -40 Y s 374 222 m -20 Y s 438 222 m -20 Y s 503 222 m -20 Y s 568 222 m -20 Y s 633 242 m -40 Y s 698 222 m -20 Y s 763 222 m -20 Y s 827 222 m -20 Y s 892 222 m -20 Y s 957 242 m -40 Y s 1022 222 m -20 Y s 1087 222
 m -20 Y s 1152 222 m -20 Y s 1216 222 m -20 Y s 1281 242 m -40 Y s 1346 222 m -20 Y s 1411 222 m -20 Y s 1476 222 m -20 Y s 1541 222 m -20 Y s 1605 242 m -40 Y s 1670 222 m -20 Y s 1735 222 m -20 Y s 1800 222 m -20 Y s 1865 222 m -20 Y s 1930 242 m
 -40 Y s 309 242 m -40 Y s 1930 242 m -40 Y s 1994 222 m -20 Y s 245 202 m 1145 Y s 291 257 m -46 X s 268 307 m -23 X s 268 356 m -23 X s 268 406 m -23 X s 291 455 m -46 X s 268 505 m -23 X s 268 554 m -23 X s 268 604 m -23 X s 291 653 m -46 X s 268
 703 m -23 X s 268 752 m -23 X s 268 802 m -23 X s 291 852 m -46 X s 268 901 m -23 X s 268 951 m -23 X s 268 1000 m -23 X s 291 1050 m -46 X s 268 1099 m -23 X s 268 1149 m -23 X s 268 1198 m -23 X s 291 1248 m -46 X s 291 257 m -46 X s 268 207 m -23
 X s 291 1248 m -46 X s 268 1297 m -23 X s 0.490196 0.545098 0.615686 c 1 1 1 c 0.490196 0.545098 0.615686 c 907 202 245 1347 bl 245 1347 m 907 X s 1152 1347 m 202 Y s 1152 1549 m -907 X s 245 1549 m -202 Y s black
 gsave  2268 1684 0 0 C 515.735 1478.95 t 0 r /Helvetica-Bold findfont 53.0904 sf 0 0 m (Signal efficiency) show NC gr  0 0 0.933333 c 9 lw 286 1499 m 190 X s black
 gsave  2268 1684 0 0 C 515.735 1376.56 t 0 r /Helvetica-Bold findfont 53.0904 sf 0 0 m (Background efficiency) show NC gr  1 0 0 c 286 1397 m 190 X s 0.490196 0.545098 0.615686 c 3 lw 1 1 1 c 0.490196 0.545098 0.615686 c 889 202 1152 1347 bl 1152
 1347 m 889 X s 2041 1347 m 202 Y s 2041 1549 m -889 X s 1152 1549 m -202 Y s black
 gsave  2268 1684 0 0 C 1418.27 1501.7 t 0 r /Helvetica-Bold findfont 56.8825 sf 0 0 m (Signal purity) show NC gr  0 0 0.933333 c[  52 12 ] 0 sd 6 lw 1192 1515 m 187 X s black
 gsave  2268 1684 0 0 C 1418.27 1433.44 t 0 r /Helvetica-Bold findfont 56.8825 sf 0 0 m (Signal efficiency*purity) show NC gr  0 0 0.933333 c[  22 12 ] 0 sd 1192 1448 m 187 X s black
 gsave  2268 1684 0 0 C 1501.7 1368.97 t 0 r /Helvetica-Bold findfont 56.8825 sf 0 0 m (S+B) show NC gr [  ] 0 sd 1483 1414 m 7 -49 d s 3 lw 1490 1365 m 8 65 d s 1498 1430 m 114 X s
 gsave  2268 1684 0 0 C 1418.27 1368.97 t 0 r /Helvetica-Bold findfont 56.8825 sf 0 0 m (S/) show NC gr  0 0.666667 0 c 9 lw 1192 1381 m 187 X s black 3 lw 245 1248 m 1796 X s
 gsave  2268 1684 0 0 C 337.503 390.593 t 0 r /Helvetica-Bold findfont 53.0904 sf 0 0 m (For 1000 signal and 1000 background) show NC gr 
 gsave  2268 1684 0 0 C 1065.6 322.334 t 0 r /Helvetica-Bold findfont 53.0904 sf 0 0 m ( is) show NC gr 
 gsave  2268 1684 0 0 C 963.211 322.334 t 0 r /Helvetica-Bold findfont 53.0904 sf 0 0 m (S+B) show NC gr  6 lw 940 364 m 8 -45 d s 3 lw 948 319 m 8 60 d s 956 379 m 110 X s
 gsave  2268 1684 0 0 C 337.503 322.334 t 0 r /Helvetica-Bold findfont 53.0904 sf 0 0 m (events the maximum S/) show NC gr 
 gsave  2268 1684 0 0 C 337.503 254.075 t 0 r /Helvetica-Bold findfont 53.0904 sf 0 0 m (27.96 when cutting at  0.00) show NC gr  0.490196 0.545098 0.615686 c 0.364706 0.419608 0.490196 c 1554 100 23 1575 bf 0.490196 0.545098 0.615686 c 23 1575 m
 1554 X s 1577 1575 m 100 Y s 1577 1675 m -1554 X s 23 1675 m -100 Y s 1 1 1 c black 1 1 1 c
 gsave  2268 1684 0 0 C 75.8434 1604.09 t 0 r /Helvetica-Bold findfont 79.6355 sf 0 0 m (Cut efficiencies and optimal cut value) show NC gr  0 0.666667 0 c 2041 202 m 1145 Y s 1995 202 m 46 X s 2018 239 m 23 X s 2018 277 m 23 X s 2018 314 m 23 X s
 2018 351 m 23 X s 1995 388 m 46 X s 2018 425 m 23 X s 2018 463 m 23 X s 2018 500 m 23 X s 2018 537 m 23 X s 1995 574 m 46 X s 2018 612 m 23 X s 2018 649 m 23 X s 2018 686 m 23 X s 2018 723 m 23 X s 1995 761 m 46 X s 2018 798 m 23 X s 2018 835 m 23 X
 s 2018 872 m 23 X s 2018 909 m 23 X s 1995 947 m 46 X s 2018 984 m 23 X s 2018 1021 m 23 X s 2018 1058 m 23 X s 2018 1096 m 23 X s 1995 1133 m 46 X s 2018 1170 m 23 X s 2018 1207 m 23 X s 2018 1244 m 23 X s 2018 1282 m 23 X s 1995 1319 m 46 X s 1995
 1319 m 46 X s black 0 0.666667 0 c
 gsave  2268 1684 0 0 C 2051.56 178.232 t 0 r /Helvetica-Bold findfont 64.4669 sf 0 0 m (0) show NC gr  black 0 0.666667 0 c
 gsave  2268 1684 0 0 C 2051.56 364.048 t 0 r /Helvetica-Bold findfont 64.4669 sf 0 0 m (5) show NC gr  black 0 0.666667 0 c
 gsave  2268 1684 0 0 C 2051.56 549.864 t 0 r /Helvetica-Bold findfont 64.4669 sf 0 0 m (10) show NC gr  black 0 0.666667 0 c
 gsave  2268 1684 0 0 C 2051.56 735.681 t 0 r /Helvetica-Bold findfont 64.4669 sf 0 0 m (15) show NC gr  black 0 0.666667 0 c
 gsave  2268 1684 0 0 C 2051.56 921.497 t 0 r /Helvetica-Bold findfont 64.4669 sf 0 0 m (20) show NC gr  black 0 0.666667 0 c
 gsave  2268 1684 0 0 C 2051.56 1107.31 t 0 r /Helvetica-Bold findfont 64.4669 sf 0 0 m (25) show NC gr  black 0 0.666667 0 c
 gsave  2268 1684 0 0 C 2051.56 1293.13 t 0 r /Helvetica-Bold findfont 64.4669 sf 0 0 m (30) show NC gr  black 0 0.666667 0 c
 gsave  2268 1684 0 0 C 2203.25 967.003 t 90 r /Helvetica-Bold findfont 64.4669 sf 0 0 m (Significance) show NC gr 
 gr  gr showpage
end
%%EOF
