%!PS-Adobe-2.0 EPSF-2.0
%%BoundingBox:  0 0 567 421
%%Title: dataset_class_comb2/plots/overtrain_RuleFit.eps: TMVA comparison RuleFit
%%Creator: ROOT Version 6.18/00
%%CreationDate: Sat Sep 14 14:11:16 2019
%%DocumentNeededResources: ProcSet (FontSetInit)
%%EndComments
%%BeginProlog
80 dict begin
/s {stroke} def /l {lineto} def /m {moveto} def /t {translate} def
/r {rotate} def /rl {roll}  def /R {repeat} def
/d {rlineto} def /rm {rmoveto} def /gr {grestore} def /f {eofill} def
/c {setrgbcolor} def /black {0 setgray} def /sd {setdash} def
/cl {closepath} def /sf {scalefont setfont} def /lw {setlinewidth} def
/box {m dup 0 exch d exch 0 d 0 exch neg d cl} def
/NC{systemdict begin initclip end}def/C{NC box clip newpath}def
/bl {box s} def /bf {gsave box gsave f grestore 1 lw [] 0 sd s grestore} def /Y { 0 exch d} def /X { 0 d} def 
/K {{pop pop 0 moveto} exch kshow} bind def
/ita {/ang 15 def gsave [1 0 ang dup sin exch cos div 1 0 0] concat} def 
/mp {newpath /y exch def /x exch def} def
/side {[w .77 mul w .23 mul] .385 w mul sd w 0 l currentpoint t -144 r} def
/mr {mp x y w2 0 360 arc} def /m24 {mr s} def /m20 {mr f} def
/mb {mp x y w2 add m w2 neg 0 d 0 w neg d w 0 d 0 w d cl} def
/mt {mp x y w2 add m w2 neg w neg d w 0 d cl} def
/w4 {w 4 div} def
/w6 {w 6 div} def
/w8 {w 8 div} def
/m21 {mb f} def /m25 {mb s} def /m22 {mt f} def /m26{mt s} def
/m23 {mp x y w2 sub m w2 w d w neg 0 d cl f} def
/m27 {mp x y w2 add m w3 neg w2 neg d w3 w2 neg d w3 w2 d cl s} def
/m28 {mp x w2 sub y w2 sub w3 add m w3 0 d  0 w3 neg d w3 0 d 0 w3 d w3 0 d  0 w3 d w3 neg 0 d 0 w3 d w3 neg 0 d 0 w3 neg d w3 neg 0 d cl s } def
/m29 {mp gsave x w2 sub y w2 add w3 sub m currentpoint t 4 {side} repeat cl fill gr} def
/m30 {mp gsave x w2 sub y w2 add w3 sub m currentpoint t 4 {side} repeat cl s gr} def
/m31 {mp x y w2 sub m 0 w d x w2 sub y m w 0 d x w2 sub y w2 add m w w neg d x w2 sub y w2 sub m w w d s} def
/m32 {mp x y w2 sub m w2 w d w neg 0 d cl s} def
/m33 {mp x y w2 add m w3 neg w2 neg d w3 w2 neg d w3 w2 d cl f} def
/m34 {mp x w2 sub y w2 sub w3 add m w3 0 d  0 w3 neg d w3 0 d 0 w3 d w3 0 d  0 w3 d w3 neg 0 d 0 w3 d w3 neg 0 d 0 w3 neg d w3 neg 0 d cl f } def
/m35 {mp x y w2 add m w2 neg w2 neg d w2 w2 neg d w2 w2 d w2 neg w2 d x y w2 sub m 0 w d x w2 sub y m w 0 d s} def
/m36 {mb x w2 sub y w2 add m w w neg d x w2 sub y w2 sub m w w d s} def
/m37 {mp x y m w4 neg w2 d w4 neg w2 neg d w2 0 d  w4 neg w2 neg d w2 0 d w4 neg w2 d w2 0 d w4 neg w2 d w4 neg w2 neg d cl s} def
/m38 {mp x w4 sub y w2 add m w4 neg w4 neg d 0 w2 neg d w4 w4 neg d w2 0 d w4 w4 d 0 w2 d w4 neg w4 d w2 neg 0 d x y w2 sub m 0 w d x w2 sub y m w 0 d cl s} def
/m39 {mp x y m w4 neg w2 d w4 neg w2 neg d w2 0 d  w4 neg w2 neg d w2 0 d w4 neg w2 d w2 0 d w4 neg w2 d w4 neg w2 neg d cl f} def
/m40 {mp x y m w4 w2 d w4 w4 neg d w2 neg w4 neg d w2 w4 neg d w4 neg w4 neg d w4 neg w2 d w4 neg w2 neg d w4 neg w4 d w2 w4 d w2 neg w4 d w4 w4 d w4 w2 neg d cl s} def
/m41 {mp x y m w4 w2 d w4 w4 neg d w2 neg w4 neg d w2 w4 neg d w4 neg w4 neg d w4 neg w2 d w4 neg w2 neg d w4 neg w4 d w2 w4 d w2 neg w4 d w4 w4 d w4 w2 neg d cl f} def
/m42 {mp x y w2 add m w8 neg w2 -3 4 div mul d w2 -3 4 div mul w8 neg d w2 3 4 div mul w8 neg d w8 w2 -3 4 div mul d w8 w2 3 4 div mul d w2 3 4 div mul w8 d w2 -3 4 div mul w8 d w8 neg w2 3 4 div mul d cl s} def
/m43 {mp x y w2 add m w8 neg w2 -3 4 div mul d w2 -3 4 div mul w8 neg d w2 3 4 div mul w8 neg d w8 w2 -3 4 div mul d w8 w2 3 4 div mul d w2 3 4 div mul w8 d w2 -3 4 div mul w8 d w8 neg w2 3 4 div mul d cl f} def
/m44 {mp x y m w6 neg w2 d w2 2 3 div mul 0 d w6 neg w2 neg d w2 w6 d 0 w2 -2 3 div mul d w2 neg w6 d w6 w2 neg d w2 -2 3 div mul 0 d w6 w2 d w2 neg w6 neg d 0 w2 2 3 div mul d w2 w6 neg d cl s} def
/m45 {mp x y m w6 neg w2 d w2 2 3 div mul 0 d w6 neg w2 neg d w2 w6 d 0 w2 -2 3 div mul d w2 neg w6 d w6 w2 neg d w2 -2 3 div mul 0 d w6 w2 d w2 neg w6 neg d 0 w2 2 3 div mul d w2 w6 neg d cl f} def
/m46 {mp x y w4 add m w4 neg w4 d w4 neg w4 neg d  w4 w4 neg d w4 neg w4 neg d w4 w4 neg d w4 w4 d w4 w4 neg d w4 w4 d w4 neg w4 d w4 w4 d w4 neg w4 d w4 neg w4 neg d cl s} def
/m47 {mp x y w4 add m w4 neg w4 d w4 neg w4 neg d w4 w4 neg d w4 neg w4 neg d  w4 w4 neg d w4 w4 d w4 w4 neg d w4 w4 d w4 neg w4 d w4 w4 d w4 neg w4 d w4 neg w4 neg d cl f} def
/m48 {mp x y w4 add m w4 neg w4 d w4 neg w4 neg d w4 w4 neg d  w4 neg w4 neg d w4 w4 neg d w4 w4 d w4 w4 neg d w4 w4 d w4 neg w4 d w4 w4 d w4 neg w4 d w4 neg w4 neg d  w4 w4 neg d w4 neg w4 neg d w4 neg w4 d w4 w4 d cl f} def
/m49 {mp x w2 sub w3 add y w2 sub w3 add m  0 w3 neg d w3 0 d 0 w3 d w3 0 d 0 w3 d w3 neg 0 d 0 w3 d w3 neg 0 d 0 w3 neg d w3 neg 0 d 0 w3 neg d w3 0 d 0 w3 d w3 0 d 0 w3 neg d w3 neg 0 d cl f } def
/m2 {mp x y w2 sub m 0 w d x w2 sub y m w 0 d s} def
/m5 {mp x w2 sub y w2 sub m w w d x w2 sub y w2 add m w w neg d s} def
%%IncludeResource: ProcSet (FontSetInit)
%%IncludeResource: font Times-Roman
%%IncludeResource: font Times-Italic
%%IncludeResource: font Times-Bold
%%IncludeResource: font Times-BoldItalic
%%IncludeResource: font Helvetica
%%IncludeResource: font Helvetica-Oblique
%%IncludeResource: font Helvetica-Bold
%%IncludeResource: font Helvetica-BoldOblique
%%IncludeResource: font Courier
%%IncludeResource: font Courier-Oblique
%%IncludeResource: font Courier-Bold
%%IncludeResource: font Courier-BoldOblique
%%IncludeResource: font Symbol
%%IncludeResource: font ZapfDingbats
/reEncode {exch findfont dup length dict begin {1 index /FID eq  {pop pop} {def} ifelse } forall /Encoding exch def currentdict end dup /FontName get exch definefont pop } def [/Times-Bold /Times-Italic /Times-BoldItalic /Helvetica /Helvetica-Oblique
 /Helvetica-Bold /Helvetica-BoldOblique /Courier /Courier-Oblique /Courier-Bold /Courier-BoldOblique /Times-Roman /AvantGarde-Book /AvantGarde-BookOblique /AvantGarde-Demi /AvantGarde-DemiOblique /Bookman-Demi /Bookman-DemiItalic /Bookman-Light
 /Bookman-LightItalic /Helvetica-Narrow /Helvetica-Narrow-Bold /Helvetica-Narrow-BoldOblique /Helvetica-Narrow-Oblique /NewCenturySchlbk-Roman /NewCenturySchlbk-Bold /NewCenturySchlbk-BoldItalic /NewCenturySchlbk-Italic /Palatino-Bold
 /Palatino-BoldItalic /Palatino-Italic /Palatino-Roman ] {ISOLatin1Encoding reEncode } forall
%%EndProlog
%%BeginSetup
%%EndSetup
newpath  gsave  .25 .25 scale  gsave  0 0 t 0.490196 0.545098 0.615686 c[  ] 0 sd 3 lw 0.941176 0.941176 0.941176 c 2268 1684 0 0 bf black 1 1 0.992157 c 1916 1313 238 202 bf black 1916 1313 238 202 bl 1 1 0.992157 c 1916 1313 238 202 bf black 1916
 1313 238 202 bl 238 202 m 1916 X s 306 245 m -43 Y s 375 223 m -21 Y s 445 223 m -21 Y s 514 223 m -21 Y s 583 223 m -21 Y s 652 245 m -43 Y s 721 223 m -21 Y s 790 223 m -21 Y s 860 223 m -21 Y s 929 223 m -21 Y s 998 245 m -43 Y s 1067 223 m -21 Y
 s 1136 223 m -21 Y s 1205 223 m -21 Y s 1275 223 m -21 Y s 1344 245 m -43 Y s 1413 223 m -21 Y s 1482 223 m -21 Y s 1551 223 m -21 Y s 1621 223 m -21 Y s 1690 245 m -43 Y s 1759 223 m -21 Y s 1828 223 m -21 Y s 1897 223 m -21 Y s 1966 223 m -21 Y s
 2036 245 m -43 Y s 306 245 m -43 Y s 2036 245 m -43 Y s 2105 223 m -21 Y s
 gsave  2268 1684 0 0 C 299.581 128.934 t 0 r /Helvetica-Bold findfont 64.4669 sf 0 0 m (3) show NC gr 
 gsave  2268 1684 0 0 C 269.244 128.934 t 0 r /Symbol findfont 64.4669 sf 0 0 m (-) show NC gr 
 gsave  2268 1684 0 0 C 644.669 128.934 t 0 r /Helvetica-Bold findfont 64.4669 sf 0 0 m (2) show NC gr 
 gsave  2268 1684 0 0 C 614.331 128.934 t 0 r /Symbol findfont 64.4669 sf 0 0 m (-) show NC gr 
 gsave  2268 1684 0 0 C 997.34 128.934 t 0 r /Helvetica-Bold findfont 64.4669 sf 0 0 m (1) show NC gr 
 gsave  2268 1684 0 0 C 967.003 128.934 t 0 r /Symbol findfont 64.4669 sf 0 0 m (-) show NC gr 
 gsave  2268 1684 0 0 C 1323.47 128.934 t 0 r /Helvetica-Bold findfont 64.4669 sf 0 0 m (0) show NC gr 
 gsave  2268 1684 0 0 C 1672.35 128.934 t 0 r /Helvetica-Bold findfont 64.4669 sf 0 0 m (1) show NC gr 
 gsave  2268 1684 0 0 C 2013.64 128.934 t 0 r /Helvetica-Bold findfont 64.4669 sf 0 0 m (2) show NC gr 
 gsave  2268 1684 0 0 C 1562.37 34.1295 t 0 r /Helvetica-Bold findfont 72.0512 sf 0 0 m (RuleFit response) show NC gr  238 1515 m 1916 X s 306 1473 m 42 Y s 375 1494 m 21 Y s 445 1494 m 21 Y s 514 1494 m 21 Y s 583 1494 m 21 Y s 652 1473 m 42 Y s 721
 1494 m 21 Y s 790 1494 m 21 Y s 860 1494 m 21 Y s 929 1494 m 21 Y s 998 1473 m 42 Y s 1067 1494 m 21 Y s 1136 1494 m 21 Y s 1205 1494 m 21 Y s 1275 1494 m 21 Y s 1344 1473 m 42 Y s 1413 1494 m 21 Y s 1482 1494 m 21 Y s 1551 1494 m 21 Y s 1621 1494 m
 21 Y s 1690 1473 m 42 Y s 1759 1494 m 21 Y s 1828 1494 m 21 Y s 1897 1494 m 21 Y s 1966 1494 m 21 Y s 2036 1473 m 42 Y s 306 1473 m 42 Y s 2036 1473 m 42 Y s 2105 1494 m 21 Y s 238 202 m 1313 Y s 291 202 m -53 X s 265 230 m -27 X s 265 259 m -27 X s
 265 287 m -27 X s 265 315 m -27 X s 291 344 m -53 X s 265 372 m -27 X s 265 400 m -27 X s 265 429 m -27 X s 265 457 m -27 X s 291 485 m -53 X s 265 514 m -27 X s 265 542 m -27 X s 265 570 m -27 X s 265 599 m -27 X s 291 627 m -53 X s 265 655 m -27 X
 s 265 683 m -27 X s 265 712 m -27 X s 265 740 m -27 X s 291 768 m -53 X s 265 797 m -27 X s 265 825 m -27 X s 265 853 m -27 X s 265 882 m -27 X s 291 910 m -53 X s 265 938 m -27 X s 265 967 m -27 X s 265 995 m -27 X s 265 1023 m -27 X s 291 1052 m
 -53 X s 265 1080 m -27 X s 265 1108 m -27 X s 265 1137 m -27 X s 265 1165 m -27 X s 291 1193 m -53 X s 265 1222 m -27 X s 265 1250 m -27 X s 265 1278 m -27 X s 265 1307 m -27 X s 291 1335 m -53 X s 265 1363 m -27 X s 265 1391 m -27 X s 265 1420 m
 -27 X s 265 1448 m -27 X s 291 1476 m -53 X s 291 1476 m -53 X s 265 1505 m -27 X s
 gsave  2268 1684 0 0 C 174.44 178.232 t 0 r /Helvetica-Bold findfont 64.4669 sf 0 0 m (0) show NC gr 
 gsave  2268 1684 0 0 C 128.934 318.542 t 0 r /Helvetica-Bold findfont 64.4669 sf 0 0 m (0.1) show NC gr 
 gsave  2268 1684 0 0 C 121.349 458.852 t 0 r /Helvetica-Bold findfont 64.4669 sf 0 0 m (0.2) show NC gr 
 gsave  2268 1684 0 0 C 121.349 602.955 t 0 r /Helvetica-Bold findfont 64.4669 sf 0 0 m (0.3) show NC gr 
 gsave  2268 1684 0 0 C 121.349 743.265 t 0 r /Helvetica-Bold findfont 64.4669 sf 0 0 m (0.4) show NC gr 
 gsave  2268 1684 0 0 C 121.349 883.575 t 0 r /Helvetica-Bold findfont 64.4669 sf 0 0 m (0.5) show NC gr 
 gsave  2268 1684 0 0 C 121.349 1027.68 t 0 r /Helvetica-Bold findfont 64.4669 sf 0 0 m (0.6) show NC gr 
 gsave  2268 1684 0 0 C 121.349 1167.99 t 0 r /Helvetica-Bold findfont 64.4669 sf 0 0 m (0.7) show NC gr 
 gsave  2268 1684 0 0 C 121.349 1308.3 t 0 r /Helvetica-Bold findfont 64.4669 sf 0 0 m (0.8) show NC gr 
 gsave  2268 1684 0 0 C 121.349 1452.4 t 0 r /Helvetica-Bold findfont 64.4669 sf 0 0 m (0.9) show NC gr 
 gsave  2268 1684 0 0 C 64.4669 1433.44 t 90 r /Helvetica-Bold findfont 72.0512 sf 0 0 m (dx) show NC gr 
 gsave  2268 1684 0 0 C 30.3373 1422.06 t 90 r /Helvetica-Bold findfont 45.506 sf 0 0 m ( ) show NC gr 
 gsave  2268 1684 0 0 C 64.4669 1399.31 t 90 r /Helvetica-Bold findfont 72.0512 sf 0 0 m (/) show NC gr 
 gsave  2268 1684 0 0 C 30.3373 1387.93 t 90 r /Helvetica-Bold findfont 45.506 sf 0 0 m ( ) show NC gr 
 gsave  2268 1684 0 0 C 60.6747 1111.11 t 90 r /Helvetica-Bold findfont 72.0512 sf 0 0 m (\(1/N\) dN) show NC gr  2154 202 m 1313 Y s 2101 202 m 53 X s 2128 230 m 26 X s 2128 259 m 26 X s 2128 287 m 26 X s 2128 315 m 26 X s 2101 344 m 53 X s 2128 372
 m 26 X s 2128 400 m 26 X s 2128 429 m 26 X s 2128 457 m 26 X s 2101 485 m 53 X s 2128 514 m 26 X s 2128 542 m 26 X s 2128 570 m 26 X s 2128 599 m 26 X s 2101 627 m 53 X s 2128 655 m 26 X s 2128 683 m 26 X s 2128 712 m 26 X s 2128 740 m 26 X s 2101
 768 m 53 X s 2128 797 m 26 X s 2128 825 m 26 X s 2128 853 m 26 X s 2128 882 m 26 X s 2101 910 m 53 X s 2128 938 m 26 X s 2128 967 m 26 X s 2128 995 m 26 X s 2128 1023 m 26 X s 2101 1052 m 53 X s 2128 1080 m 26 X s 2128 1108 m 26 X s 2128 1137 m 26 X
 s 2128 1165 m 26 X s 2101 1193 m 53 X s 2128 1222 m 26 X s 2128 1250 m 26 X s 2128 1278 m 26 X s 2128 1307 m 26 X s 2101 1335 m 53 X s 2128 1363 m 26 X s 2128 1391 m 26 X s 2128 1420 m 26 X s 2128 1448 m 26 X s 2101 1476 m 53 X s 2101 1476 m 53 X s
 2128 1505 m 26 X s 0.490196 0.545098 0.615686 c 1 1 1 c 0.490196 0.545098 0.615686 c 907 202 238 1313 bl 238 1313 m 907 X s 1145 1313 m 202 Y s 1145 1515 m -907 X s 238 1515 m -202 Y s black
 gsave  2268 1684 0 0 C 417.138 1444.82 t 0 r /Helvetica-Bold findfont 53.0904 sf 0 0 m (Signal \(test sample\)) show NC gr  0.49 0.6 0.82 c 265 1429 m 127 X 71 Y -127 X f 0 0 0.933333 c 265 1500 m 127 X s 265 1429 m 127 X s 392 1429 m 71 Y s 265
 1429 m 71 Y s black
 gsave  2268 1684 0 0 C 417.138 1342.43 t 0 r /Helvetica-Bold findfont 53.0904 sf 0 0 m (Background \(test sample\)) show NC gr  1 0 0 c 392 1354 m -26 -26 d s 389 1399 m -71 -71 d s 341 1399 m -71 -71 d s 293 1399 m -28 -27 d s 0 0 0.933333 c 1 0 0
 c 265 1399 m 127 X s 265 1328 m 127 X s 392 1328 m 71 Y s 265 1328 m 71 Y s 0 0 0.933333 c 0.49 0.6 0.82 c black 0.49 0.6 0.82 c 238 202 m 431 X 19 Y 48 X 1 Y 48 X -8 Y 48 X 15 Y 48 X -5 Y 48 X 59 Y 48 X -21 Y 48 X 6 Y 48 X 73 Y 47 X -84 Y 48 X 40 Y
 48 X 59 Y 48 X 56 Y 48 X -19 Y 48 X 145 Y 48 X 25 Y 48 X -112 Y 48 X 148 Y 48 X 138 Y 47 X 240 Y 48 X 149 Y 48 X 71 Y 48 X -99 Y 48 X -81 Y 48 X 154 Y 48 X -111 Y 48 X -327 Y 48 X -272 Y 48 X -127 Y 48 X -89 Y 47 X -42 Y 48 X -1 Y f 0 0 0.933333 c
 0.49 0.6 0.82 c 0 0 0.933333 c 238 202 m 431 X 19 Y 48 X 1 Y 48 X -8 Y 48 X 15 Y 48 X -5 Y 48 X 59 Y 48 X -21 Y 48 X 6 Y 48 X 73 Y 47 X -84 Y 48 X 40 Y 48 X 59 Y 48 X 56 Y 48 X -19 Y 48 X 145 Y 48 X 25 Y 48 X -112 Y 48 X 148 Y 48 X 138 Y 47 X 240 Y
 48 X 149 Y 48 X 71 Y 48 X -99 Y 48 X -81 Y 48 X 154 Y 48 X -111 Y 48 X -327 Y 48 X -272 Y 48 X -127 Y 48 X -89 Y 47 X -42 Y 48 X -1 Y s 1 0 0 c black 1 0 0 c 2126 202 m s 2080 203 m -2 -1 d s 2038 210 m -8 -8 d s 1993 213 m -11 -11 d s 1963 231 m
 -29 -29 d s 1927 243 m -41 -41 d s 1886 250 m -48 -48 d s 1830 242 m -40 -40 d s 1801 262 m -60 -60 d s 1756 265 m -63 -63 d s 1723 280 m -78 -78 d s 1682 287 m -7 -7 d s 1673 278 m -76 -76 d s 1627 280 m -78 -78 d s 1584 285 m -83 -83 d s 1535 285
 m -82 -83 d s 1509 306 m -104 -104 d s 1484 329 m -127 -127 d s 1455 349 m -147 -147 d s 1415 357 m -155 -155 d s 1388 378 m -176 -176 d s 1388 426 m -224 -224 d s 1388 474 m -272 -272 d s 1340 474 m -272 -272 d s 1313 495 m -293 -293 d s 1292 522 m
 -320 -320 d s 1251 529 m -327 -327 d s 1244 571 m -368 -369 d s 1244 619 m -417 -417 d s 1208 631 m -429 -429 d s 1196 667 m -465 -465 d s 1162 680 m -479 -478 d s 1148 715 m -513 -513 d s 1103 718 m -516 -516 d s 1100 764 m -561 -562 d s 1067 779 m
 -576 -577 d s 1053 812 m -610 -610 d s 1053 860 m -659 -658 d s 1053 908 m -432 -431 d s 603 458 m -30 -29 d s 552 408 m -26 -27 d s 479 335 m -1 -2 d s 435 291 m -5 -6 d s 400 256 m -18 -18 d s 364 220 m -18 -18 d s 1028 932 m -359 -359 d s 662 566
 m -41 -41 d s 306 209 m -8 -7 d s 990 942 m -81 -81 d s 892 844 m -175 -175 d s 686 638 m -17 -17 d s 251 203 m -1 -1 d s 957 957 m -48 -48 d s 861 861 m -48 -48 d s 780 780 m -63 -63 d s 913 962 m -4 -5 d s 856 904 m -43 -43 d s 765 813 m -48 -48 d
 s 721 818 m -4 -5 d s 238 203 m 48 X 6 Y 48 X 11 Y 48 X 36 Y 48 X 35 Y 48 X 44 Y 48 X 73 Y 47 X 50 Y 48 X 108 Y 48 X 72 Y 48 X 180 Y 48 X -38 Y 48 X 124 Y 48 X -60 Y 48 X 118 Y 48 X -20 Y 48 X -10 Y 48 X -153 Y 47 X -61 Y 48 X -38 Y 48 X -49 Y 48 X
 -102 Y 48 X -34 Y 48 X -21 Y 48 X -117 Y 48 X -8 Y 48 X -43 Y 48 X -21 Y 95 X -7 Y 48 X 9 Y 48 X -22 Y 48 X -3 Y 48 X -20 Y 48 X 8 Y 48 X -7 Y 48 X -30 Y 48 X -3 Y 48 X -7 Y 47 X -1 Y 48 X s 0.490196 0.545098 0.615686 c 1 1 1 c 0.490196 0.545098
 0.615686 c 952 202 1202 1313 bl 1202 1313 m 952 X s 2154 1313 m 202 Y s 2154 1515 m -952 X s 1202 1515 m -202 Y s black
 gsave  2268 1684 0 0 C 1296.92 1444.82 t 0 r /Helvetica-Bold findfont 56.8825 sf 0 0 m (Signal \(training sample\)) show NC gr  0 0 0.933333 c /w 21 def /w2 {w 2 div} def /w3 {w 3 div} def 1250 1465 m20 black
 gsave  2268 1684 0 0 C 1296.92 1342.43 t 0 r /Helvetica-Bold findfont 56.8825 sf 0 0 m (Background \(training sample\)) show NC gr  1 0 0 c 1250 1364 m20 0 0 0.933333 c 1 1 1 c 0 0 0.933333 c 382 202 m 16 X s 413 202 m 17 X s 382 195 m 15 Y s 430
 195 m 15 Y s 406 202 m20 430 203 m 16 X s 461 203 m 17 X s 430 196 m 15 Y s 478 196 m 15 Y s 454 203 m20 526 207 m 16 X s 557 207 m 16 X s 526 199 m 15 Y s 573 199 m 15 Y s 549 207 m20 621 213 m 17 X s 653 213 m 16 X s 621 206 m 15 Y s 669 206 m 15
 Y s 645 213 m20 669 206 m 17 X s 701 206 m 16 X s 669 198 m 16 Y s 717 198 m 16 Y s 693 206 m20 741 214 m 1 Y s 741 230 m 1 Y s 717 223 m 17 X s 749 223 m 16 X s 734 214 m 15 X s 734 231 m 15 X s 717 215 m 15 Y s 765 215 m 15 Y s 741 223 m20 765 223
 m 16 X s 797 223 m 16 X s 765 216 m 15 Y s 813 216 m 15 Y s 789 223 m20 813 223 m 16 X s 845 223 m 16 X s 813 216 m 15 Y s 861 216 m 15 Y s 837 223 m20 885 227 m s 885 243 m s 861 235 m 16 X s 892 235 m 17 X s 877 227 m 15 X s 877 243 m 15 X s 861
 227 m 16 Y s 909 227 m 16 Y s 885 235 m20 909 231 m 16 X s 940 231 m 17 X s 909 224 m 15 Y s 957 224 m 15 Y s 933 231 m20 981 240 m 1 Y s 981 256 m s 957 248 m 16 X s 988 248 m 17 X s 973 240 m 15 X s 973 256 m 15 X s 957 241 m 15 Y s 1005 241 m 15
 Y s 981 248 m20 1029 272 m 5 Y s 1029 292 m 6 Y s 1005 285 m 16 X s 1036 285 m 17 X s 1021 272 m 15 X s 1021 298 m 15 X s 1005 277 m 15 Y s 1053 277 m 15 Y s 1029 285 m20 1076 281 m 6 Y s 1076 303 m 6 Y s 1053 295 m 16 X s 1084 295 m 16 X s 1069 281
 m 15 X s 1069 309 m 15 X s 1053 287 m 16 Y s 1100 287 m 16 Y s 1076 295 m20 1124 298 m 5 Y s 1124 318 m 6 Y s 1100 311 m 17 X s 1132 311 m 16 X s 1117 298 m 15 X s 1117 324 m 15 X s 1100 303 m 15 Y s 1148 303 m 15 Y s 1124 311 m20 1172 296 m 9 Y s
 1172 320 m 8 Y s 1148 312 m 17 X s 1180 312 m 16 X s 1165 296 m 15 X s 1165 328 m 15 X s 1148 305 m 15 Y s 1196 305 m 15 Y s 1172 312 m20 1220 321 m 10 Y s 1220 346 m 9 Y s 1196 338 m 17 X s 1228 338 m 16 X s 1213 321 m 15 X s 1213 355 m 15 X s 1196
 331 m 15 Y s 1244 331 m 15 Y s 1220 338 m20 1268 302 m 29 Y s 1268 346 m 29 Y s 1244 338 m 16 X s 1276 338 m 16 X s 1260 302 m 16 X s 1260 375 m 16 X s 1244 331 m 15 Y s 1292 331 m 15 Y s 1268 338 m20 1316 377 m 16 Y s 1316 408 m 16 Y s 1292 400 m
 16 X s 1324 400 m 16 X s 1308 377 m 16 X s 1308 424 m 16 X s 1292 393 m 15 Y s 1340 393 m 15 Y s 1316 400 m20 1364 414 m 16 Y s 1364 445 m 15 Y s 1340 437 m 16 X s 1371 437 m 17 X s 1356 414 m 15 X s 1356 460 m 15 X s 1340 430 m 15 Y s 1388 430 m 15
 Y s 1364 437 m20 1412 487 m 17 Y s 1412 520 m 17 Y s 1388 512 m 16 X s 1419 512 m 17 X s 1404 487 m 15 X s 1404 537 m 15 X s 1388 504 m 16 Y s 1436 504 m 16 Y s 1412 512 m20 1460 501 m 20 Y s 1460 536 m 19 Y s 1436 528 m 16 X s 1467 528 m 17 X s
 1452 501 m 15 X s 1452 555 m 15 X s 1436 521 m 15 Y s 1484 521 m 15 Y s 1460 528 m20 1508 585 m 23 Y s 1508 623 m 24 Y s 1484 616 m 16 X s 1515 616 m 17 X s 1500 585 m 15 X s 1500 647 m 15 X s 1484 608 m 15 Y s 1532 608 m 15 Y s 1508 616 m20 1556
 697 m 26 Y s 1556 738 m 25 Y s 1532 730 m 16 X s 1563 730 m 16 X s 1548 697 m 15 X s 1548 763 m 15 X s 1532 723 m 15 Y s 1579 723 m 15 Y s 1556 730 m20 1603 935 m 33 Y s 1603 983 m 33 Y s 1579 975 m 17 X s 1611 975 m 16 X s 1596 935 m 15 X s 1596
 1016 m 15 X s 1579 968 m 15 Y s 1627 968 m 15 Y s 1603 975 m20 1651 994 m 31 Y s 1651 1040 m 31 Y s 1627 1033 m 17 X s 1659 1033 m 16 X s 1644 994 m 15 X s 1644 1071 m 15 X s 1627 1025 m 15 Y s 1675 1025 m 15 Y s 1651 1033 m20 1699 1175 m 30 Y s
 1699 1220 m 30 Y s 1675 1212 m 17 X s 1707 1212 m 16 X s 1692 1175 m 15 X s 1692 1250 m 15 X s 1675 1205 m 15 Y s 1723 1205 m 15 Y s 1699 1212 m20 1747 1119 m 30 Y s 1747 1165 m 30 Y s 1723 1157 m 17 X s 1755 1157 m 16 X s 1740 1119 m 15 X s 1740
 1195 m 15 X s 1723 1149 m 16 Y s 1771 1149 m 16 Y s 1747 1157 m20 1795 1071 m 37 Y s 1795 1123 m 37 Y s 1771 1116 m 16 X s 1803 1116 m 16 X s 1787 1071 m 16 X s 1787 1160 m 16 X s 1771 1108 m 15 Y s 1819 1108 m 15 Y s 1795 1116 m20 1843 1175 m 28 Y
 s 1843 1218 m 28 Y s 1819 1210 m 16 X s 1851 1210 m 16 X s 1835 1175 m 16 X s 1835 1246 m 16 X s 1819 1203 m 15 Y s 1867 1203 m 15 Y s 1843 1210 m20 1891 1073 m 28 Y s 1891 1116 m 27 Y s 1867 1108 m 16 X s 1898 1108 m 17 X s 1883 1073 m 15 X s 1883
 1143 m 15 X s 1867 1101 m 15 Y s 1915 1101 m 15 Y s 1891 1108 m20 1939 721 m 15 Y s 1939 751 m 15 Y s 1915 743 m 16 X s 1946 743 m 17 X s 1931 721 m 15 X s 1931 766 m 15 X s 1915 736 m 15 Y s 1963 736 m 15 Y s 1939 743 m20 1987 454 m 13 Y s 1987 482
 m 12 Y s 1963 474 m 16 X s 1994 474 m 17 X s 1979 454 m 15 X s 1979 494 m 15 X s 1963 467 m 15 Y s 2011 467 m 15 Y s 1987 474 m20 2035 307 m 6 Y s 2035 328 m 6 Y s 2011 320 m 16 X s 2042 320 m 17 X s 2027 307 m 15 X s 2027 334 m 15 X s 2011 313 m 15
 Y s 2059 313 m 15 Y s 2035 320 m20 2059 228 m 16 X s 2090 228 m 16 X s 2059 220 m 15 Y s 2106 220 m 15 Y s 2082 228 m20 2106 203 m 17 X s 2138 203 m 16 X s 2106 195 m 15 Y s 2154 195 m 15 Y s 2130 203 m20 1 0 0 c 1 1 1 c 1 0 0 c 238 204 m 16 X s 270
 204 m 16 X s 238 196 m 15 Y s 286 196 m 15 Y s 262 204 m20 286 211 m 16 X s 318 211 m 16 X s 286 203 m 16 Y s 334 203 m 16 Y s 310 211 m20 358 209 m 1 Y s 358 225 m s 334 217 m 16 X s 365 217 m 17 X s 350 209 m 15 X s 350 225 m 15 X s 334 210 m 15 Y
 s 382 210 m 15 Y s 358 217 m20 406 251 m 11 Y s 406 277 m 11 Y s 382 270 m 16 X s 413 270 m 17 X s 398 251 m 15 X s 398 288 m 15 X s 382 262 m 15 Y s 430 262 m 15 Y s 406 270 m20 454 267 m 5 Y s 454 287 m 4 Y s 430 279 m 16 X s 461 279 m 17 X s 446
 267 m 15 X s 446 291 m 15 X s 430 272 m 15 Y s 478 272 m 15 Y s 454 279 m20 502 317 m 9 Y s 502 341 m 9 Y s 478 333 m 16 X s 509 333 m 17 X s 494 317 m 15 X s 494 350 m 15 X s 478 326 m 15 Y s 526 326 m 15 Y s 502 333 m20 549 348 m 16 Y s 549 379 m
 15 Y s 526 371 m 16 X s 557 371 m 16 X s 542 348 m 15 X s 542 394 m 15 X s 526 364 m 15 Y s 573 364 m 15 Y s 549 371 m20 597 467 m 18 Y s 597 500 m 18 Y s 573 493 m 17 X s 605 493 m 16 X s 590 467 m 15 X s 590 518 m 15 X s 573 485 m 15 Y s 621 485 m
 15 Y s 597 493 m20 645 512 m 22 Y s 645 549 m 22 Y s 621 541 m 17 X s 653 541 m 16 X s 638 512 m 15 X s 638 571 m 15 X s 621 534 m 15 Y s 669 534 m 15 Y s 645 541 m20 693 617 m 23 Y s 693 656 m 23 Y s 669 648 m 17 X s 701 648 m 16 X s 686 617 m 15 X
 s 686 679 m 15 X s 669 640 m 16 Y s 717 640 m 16 Y s 693 648 m20 741 689 m 35 Y s 741 739 m 35 Y s 717 732 m 17 X s 749 732 m 16 X s 734 689 m 15 X s 734 774 m 15 X s 717 724 m 15 Y s 765 724 m 15 Y s 741 732 m20 789 771 m 48 Y s 789 835 m 48 Y s
 765 827 m 16 X s 797 827 m 16 X s 781 771 m 16 X s 781 883 m 16 X s 765 819 m 16 Y s 813 819 m 16 Y s 789 827 m20 837 850 m 36 Y s 837 901 m 37 Y s 813 894 m 16 X s 845 894 m 16 X s 829 850 m 16 X s 829 938 m 16 X s 813 886 m 15 Y s 861 886 m 15 Y s
 837 894 m20 885 802 m 31 Y s 885 848 m 31 Y s 861 841 m 16 X s 892 841 m 17 X s 877 802 m 15 X s 877 879 m 15 X s 861 833 m 15 Y s 909 833 m 15 Y s 885 841 m20 933 887 m 35 Y s 933 937 m 35 Y s 909 930 m 16 X s 940 930 m 17 X s 925 887 m 15 X s 925
 972 m 15 X s 909 922 m 15 Y s 957 922 m 15 Y s 933 930 m20 981 897 m 35 Y s 981 947 m 35 Y s 957 939 m 16 X s 988 939 m 17 X s 973 897 m 15 X s 973 982 m 15 X s 957 932 m 15 Y s 1005 932 m 15 Y s 981 939 m20 1029 905 m 43 Y s 1029 963 m 43 Y s 1005
 956 m 16 X s 1036 956 m 17 X s 1021 905 m 15 X s 1021 1006 m 15 X s 1005 948 m 15 Y s 1053 948 m 15 Y s 1029 956 m20 1076 879 m 40 Y s 1076 934 m 39 Y s 1053 926 m 16 X s 1084 926 m 16 X s 1069 879 m 15 X s 1069 973 m 15 X s 1053 919 m 15 Y s 1100
 919 m 15 Y s 1076 926 m20 1124 688 m 25 Y s 1124 728 m 24 Y s 1100 720 m 17 X s 1132 720 m 16 X s 1117 688 m 15 X s 1117 752 m 15 X s 1100 713 m 15 Y s 1148 713 m 15 Y s 1124 720 m20 1172 697 m 27 Y s 1172 739 m 27 Y s 1148 731 m 17 X s 1180 731 m
 16 X s 1165 697 m 15 X s 1165 766 m 15 X s 1148 724 m 15 Y s 1196 724 m 15 Y s 1172 731 m20 1220 647 m 31 Y s 1220 693 m 31 Y s 1196 685 m 17 X s 1228 685 m 16 X s 1213 647 m 15 X s 1213 724 m 15 X s 1196 678 m 15 Y s 1244 678 m 15 Y s 1220 685 m20
 1268 469 m 24 Y s 1268 508 m 23 Y s 1244 500 m 16 X s 1276 500 m 16 X s 1260 469 m 16 X s 1260 531 m 16 X s 1244 493 m 15 Y s 1292 493 m 15 Y s 1268 500 m20 1316 440 m 19 Y s 1316 474 m 18 Y s 1292 466 m 16 X s 1324 466 m 16 X s 1308 440 m 16 X s
 1308 492 m 16 X s 1292 459 m 15 Y s 1340 459 m 15 Y s 1316 466 m20 1364 388 m 14 Y s 1364 417 m 13 Y s 1340 409 m 16 X s 1371 409 m 17 X s 1356 388 m 15 X s 1356 430 m 15 X s 1340 402 m 15 Y s 1388 402 m 15 Y s 1364 409 m20 1412 353 m 15 Y s 1412
 383 m 15 Y s 1388 375 m 16 X s 1419 375 m 17 X s 1404 353 m 15 X s 1404 398 m 15 X s 1388 368 m 15 Y s 1436 368 m 15 Y s 1412 375 m20 1460 293 m 7 Y s 1460 315 m 8 Y s 1436 308 m 16 X s 1467 308 m 17 X s 1452 293 m 15 X s 1452 323 m 15 X s 1436 300
 m 15 Y s 1484 300 m 15 Y s 1460 308 m20 1508 269 m 5 Y s 1508 289 m 5 Y s 1484 281 m 16 X s 1515 281 m 17 X s 1500 269 m 15 X s 1500 294 m 15 X s 1484 274 m 15 Y s 1532 274 m 15 Y s 1508 281 m20 1556 289 m 8 Y s 1556 312 m 7 Y s 1532 304 m 16 X s
 1563 304 m 16 X s 1548 289 m 15 X s 1548 319 m 15 X s 1532 297 m 15 Y s 1579 297 m 15 Y s 1556 304 m20 1603 282 m 8 Y s 1603 305 m 7 Y s 1579 297 m 17 X s 1611 297 m 16 X s 1596 282 m 15 X s 1596 312 m 15 X s 1579 290 m 15 Y s 1627 290 m 15 Y s 1603
 297 m20 1651 277 m 7 Y s 1651 299 m 7 Y s 1627 292 m 17 X s 1659 292 m 16 X s 1644 277 m 15 X s 1644 306 m 15 X s 1627 284 m 15 Y s 1675 284 m 15 Y s 1651 292 m20 1699 262 m 4 Y s 1699 281 m 4 Y s 1675 273 m 17 X s 1707 273 m 16 X s 1692 262 m 15 X
 s 1692 285 m 15 X s 1675 266 m 15 Y s 1723 266 m 15 Y s 1699 273 m20 1747 245 m 6 Y s 1747 266 m 6 Y s 1723 258 m 17 X s 1755 258 m 16 X s 1740 245 m 15 X s 1740 272 m 15 X s 1723 251 m 15 Y s 1771 251 m 15 Y s 1747 258 m20 1795 244 m 6 Y s 1795 266
 m 6 Y s 1771 258 m 16 X s 1803 258 m 16 X s 1787 244 m 16 X s 1787 272 m 16 X s 1771 250 m 16 Y s 1819 250 m 16 Y s 1795 258 m20 1843 241 m 2 Y s 1843 258 m 2 Y s 1819 251 m 16 X s 1851 251 m 16 X s 1835 241 m 16 X s 1835 260 m 16 X s 1819 243 m 15
 Y s 1867 243 m 15 Y s 1843 251 m20 1867 229 m 16 X s 1898 229 m 17 X s 1867 222 m 15 Y s 1915 222 m 15 Y s 1891 229 m20 1939 222 m 3 Y s 1939 240 m 3 Y s 1915 232 m 16 X s 1946 232 m 17 X s 1931 222 m 15 X s 1931 243 m 15 X s 1915 225 m 15 Y s 1963
 225 m 15 Y s 1939 232 m20 1963 209 m 16 X s 1994 209 m 17 X s 1963 201 m 15 Y s 2011 201 m 15 Y s 1987 209 m20 2011 207 m 16 X s 2042 207 m 17 X s 2011 199 m 15 Y s 2059 199 m 15 Y s 2035 207 m20 2059 204 m 16 X s 2090 204 m 16 X s 2059 196 m 15 Y s
 2106 196 m 15 Y s 2082 204 m20 2106 203 m 17 X s 2138 203 m 16 X s 2106 195 m 15 Y s 2154 195 m 15 Y s 2130 203 m20 black
 gsave  2268 1684 0 0 C 272.126 1245.95 t 0 r /Helvetica-Bold findfont 49.2982 sf 0 0 m (Kolmogorov\255Smirnov test: signal \(background\) probability = 0.003 \( 0.11\)) show NC gr  238 202 m 1916 X s 306 245 m -43 Y s 375 223 m -21 Y s 445 223 m -21
 Y s 514 223 m -21 Y s 583 223 m -21 Y s 652 245 m -43 Y s 721 223 m -21 Y s 790 223 m -21 Y s 860 223 m -21 Y s 929 223 m -21 Y s 998 245 m -43 Y s 1067 223 m -21 Y s 1136 223 m -21 Y s 1205 223 m -21 Y s 1275 223 m -21 Y s 1344 245 m -43 Y s 1413
 223 m -21 Y s 1482 223 m -21 Y s 1551 223 m -21 Y s 1621 223 m -21 Y s 1690 245 m -43 Y s 1759 223 m -21 Y s 1828 223 m -21 Y s 1897 223 m -21 Y s 1966 223 m -21 Y s 2036 245 m -43 Y s 306 245 m -43 Y s 2036 245 m -43 Y s 2105 223 m -21 Y s 238 1515
 m 1916 X s 306 1473 m 42 Y s 375 1494 m 21 Y s 445 1494 m 21 Y s 514 1494 m 21 Y s 583 1494 m 21 Y s 652 1473 m 42 Y s 721 1494 m 21 Y s 790 1494 m 21 Y s 860 1494 m 21 Y s 929 1494 m 21 Y s 998 1473 m 42 Y s 1067 1494 m 21 Y s 1136 1494 m 21 Y s
 1205 1494 m 21 Y s 1275 1494 m 21 Y s 1344 1473 m 42 Y s 1413 1494 m 21 Y s 1482 1494 m 21 Y s 1551 1494 m 21 Y s 1621 1494 m 21 Y s 1690 1473 m 42 Y s 1759 1494 m 21 Y s 1828 1494 m 21 Y s 1897 1494 m 21 Y s 1966 1494 m 21 Y s 2036 1473 m 42 Y s
 306 1473 m 42 Y s 2036 1473 m 42 Y s 2105 1494 m 21 Y s 238 202 m 1313 Y s 291 202 m -53 X s 265 230 m -27 X s 265 259 m -27 X s 265 287 m -27 X s 265 315 m -27 X s 291 344 m -53 X s 265 372 m -27 X s 265 400 m -27 X s 265 429 m -27 X s 265 457 m
 -27 X s 291 485 m -53 X s 265 514 m -27 X s 265 542 m -27 X s 265 570 m -27 X s 265 599 m -27 X s 291 627 m -53 X s 265 655 m -27 X s 265 683 m -27 X s 265 712 m -27 X s 265 740 m -27 X s 291 768 m -53 X s 265 797 m -27 X s 265 825 m -27 X s 265 853
 m -27 X s 265 882 m -27 X s 291 910 m -53 X s 265 938 m -27 X s 265 967 m -27 X s 265 995 m -27 X s 265 1023 m -27 X s 291 1052 m -53 X s 265 1080 m -27 X s 265 1108 m -27 X s 265 1137 m -27 X s 265 1165 m -27 X s 291 1193 m -53 X s 265 1222 m -27 X
 s 265 1250 m -27 X s 265 1278 m -27 X s 265 1307 m -27 X s 291 1335 m -53 X s 265 1363 m -27 X s 265 1391 m -27 X s 265 1420 m -27 X s 265 1448 m -27 X s 291 1476 m -53 X s 291 1476 m -53 X s 265 1505 m -27 X s 2154 202 m 1313 Y s 2101 202 m 53 X s
 2128 230 m 26 X s 2128 259 m 26 X s 2128 287 m 26 X s 2128 315 m 26 X s 2101 344 m 53 X s 2128 372 m 26 X s 2128 400 m 26 X s 2128 429 m 26 X s 2128 457 m 26 X s 2101 485 m 53 X s 2128 514 m 26 X s 2128 542 m 26 X s 2128 570 m 26 X s 2128 599 m 26 X
 s 2101 627 m 53 X s 2128 655 m 26 X s 2128 683 m 26 X s 2128 712 m 26 X s 2128 740 m 26 X s 2101 768 m 53 X s 2128 797 m 26 X s 2128 825 m 26 X s 2128 853 m 26 X s 2128 882 m 26 X s 2101 910 m 53 X s 2128 938 m 26 X s 2128 967 m 26 X s 2128 995 m 26
 X s 2128 1023 m 26 X s 2101 1052 m 53 X s 2128 1080 m 26 X s 2128 1108 m 26 X s 2128 1137 m 26 X s 2128 1165 m 26 X s 2101 1193 m 53 X s 2128 1222 m 26 X s 2128 1250 m 26 X s 2128 1278 m 26 X s 2128 1307 m 26 X s 2101 1335 m 53 X s 2128 1363 m 26 X
 s 2128 1391 m 26 X s 2128 1420 m 26 X s 2128 1448 m 26 X s 2101 1476 m 53 X s 2101 1476 m 53 X s 2128 1505 m 26 X s
 gsave  2268 1684 0 0 C 2211.02 193.628 t 90 r /Helvetica-Bold findfont 45.506 sf 0 0 m (U/O\255flow \(S,B\): \(0.0, 0.0\)% / \(0.0, 0.0\)%) show NC gr  0.490196 0.545098 0.615686 c 0.364706 0.419608 0.490196 c 1587 100 23 1575 bf 0.490196 0.545098
 0.615686 c 23 1575 m 1587 X s 1610 1575 m 100 Y s 1610 1675 m -1587 X s 23 1675 m -100 Y s 1 1 1 c black 1 1 1 c
 gsave  2268 1684 0 0 C 94.8042 1607.88 t 0 r /Helvetica-Bold findfont 64.4669 sf 0 0 m (TMVA overtraining check for classifier: RuleFit) show NC gr 
 gr  gr showpage
end
%%EOF
