%!PS-Adobe-2.0 EPSF-2.0
%%BoundingBox:  0 0 567 296
%%Title: dataset_class_comb2/plots/variables_id_c1.eps: Input variables (training sample)
%%Creator: ROOT Version 6.18/00
%%CreationDate: Sat Sep 14 14:09:10 2019
%%DocumentNeededResources: ProcSet (FontSetInit)
%%EndComments
%%BeginProlog
80 dict begin
/s {stroke} def /l {lineto} def /m {moveto} def /t {translate} def
/r {rotate} def /rl {roll}  def /R {repeat} def
/d {rlineto} def /rm {rmoveto} def /gr {grestore} def /f {eofill} def
/c {setrgbcolor} def /black {0 setgray} def /sd {setdash} def
/cl {closepath} def /sf {scalefont setfont} def /lw {setlinewidth} def
/box {m dup 0 exch d exch 0 d 0 exch neg d cl} def
/NC{systemdict begin initclip end}def/C{NC box clip newpath}def
/bl {box s} def /bf {gsave box gsave f grestore 1 lw [] 0 sd s grestore} def /Y { 0 exch d} def /X { 0 d} def 
/K {{pop pop 0 moveto} exch kshow} bind def
/ita {/ang 15 def gsave [1 0 ang dup sin exch cos div 1 0 0] concat} def 
/mp {newpath /y exch def /x exch def} def
/side {[w .77 mul w .23 mul] .385 w mul sd w 0 l currentpoint t -144 r} def
/mr {mp x y w2 0 360 arc} def /m24 {mr s} def /m20 {mr f} def
/mb {mp x y w2 add m w2 neg 0 d 0 w neg d w 0 d 0 w d cl} def
/mt {mp x y w2 add m w2 neg w neg d w 0 d cl} def
/w4 {w 4 div} def
/w6 {w 6 div} def
/w8 {w 8 div} def
/m21 {mb f} def /m25 {mb s} def /m22 {mt f} def /m26{mt s} def
/m23 {mp x y w2 sub m w2 w d w neg 0 d cl f} def
/m27 {mp x y w2 add m w3 neg w2 neg d w3 w2 neg d w3 w2 d cl s} def
/m28 {mp x w2 sub y w2 sub w3 add m w3 0 d  0 w3 neg d w3 0 d 0 w3 d w3 0 d  0 w3 d w3 neg 0 d 0 w3 d w3 neg 0 d 0 w3 neg d w3 neg 0 d cl s } def
/m29 {mp gsave x w2 sub y w2 add w3 sub m currentpoint t 4 {side} repeat cl fill gr} def
/m30 {mp gsave x w2 sub y w2 add w3 sub m currentpoint t 4 {side} repeat cl s gr} def
/m31 {mp x y w2 sub m 0 w d x w2 sub y m w 0 d x w2 sub y w2 add m w w neg d x w2 sub y w2 sub m w w d s} def
/m32 {mp x y w2 sub m w2 w d w neg 0 d cl s} def
/m33 {mp x y w2 add m w3 neg w2 neg d w3 w2 neg d w3 w2 d cl f} def
/m34 {mp x w2 sub y w2 sub w3 add m w3 0 d  0 w3 neg d w3 0 d 0 w3 d w3 0 d  0 w3 d w3 neg 0 d 0 w3 d w3 neg 0 d 0 w3 neg d w3 neg 0 d cl f } def
/m35 {mp x y w2 add m w2 neg w2 neg d w2 w2 neg d w2 w2 d w2 neg w2 d x y w2 sub m 0 w d x w2 sub y m w 0 d s} def
/m36 {mb x w2 sub y w2 add m w w neg d x w2 sub y w2 sub m w w d s} def
/m37 {mp x y m w4 neg w2 d w4 neg w2 neg d w2 0 d  w4 neg w2 neg d w2 0 d w4 neg w2 d w2 0 d w4 neg w2 d w4 neg w2 neg d cl s} def
/m38 {mp x w4 sub y w2 add m w4 neg w4 neg d 0 w2 neg d w4 w4 neg d w2 0 d w4 w4 d 0 w2 d w4 neg w4 d w2 neg 0 d x y w2 sub m 0 w d x w2 sub y m w 0 d cl s} def
/m39 {mp x y m w4 neg w2 d w4 neg w2 neg d w2 0 d  w4 neg w2 neg d w2 0 d w4 neg w2 d w2 0 d w4 neg w2 d w4 neg w2 neg d cl f} def
/m40 {mp x y m w4 w2 d w4 w4 neg d w2 neg w4 neg d w2 w4 neg d w4 neg w4 neg d w4 neg w2 d w4 neg w2 neg d w4 neg w4 d w2 w4 d w2 neg w4 d w4 w4 d w4 w2 neg d cl s} def
/m41 {mp x y m w4 w2 d w4 w4 neg d w2 neg w4 neg d w2 w4 neg d w4 neg w4 neg d w4 neg w2 d w4 neg w2 neg d w4 neg w4 d w2 w4 d w2 neg w4 d w4 w4 d w4 w2 neg d cl f} def
/m42 {mp x y w2 add m w8 neg w2 -3 4 div mul d w2 -3 4 div mul w8 neg d w2 3 4 div mul w8 neg d w8 w2 -3 4 div mul d w8 w2 3 4 div mul d w2 3 4 div mul w8 d w2 -3 4 div mul w8 d w8 neg w2 3 4 div mul d cl s} def
/m43 {mp x y w2 add m w8 neg w2 -3 4 div mul d w2 -3 4 div mul w8 neg d w2 3 4 div mul w8 neg d w8 w2 -3 4 div mul d w8 w2 3 4 div mul d w2 3 4 div mul w8 d w2 -3 4 div mul w8 d w8 neg w2 3 4 div mul d cl f} def
/m44 {mp x y m w6 neg w2 d w2 2 3 div mul 0 d w6 neg w2 neg d w2 w6 d 0 w2 -2 3 div mul d w2 neg w6 d w6 w2 neg d w2 -2 3 div mul 0 d w6 w2 d w2 neg w6 neg d 0 w2 2 3 div mul d w2 w6 neg d cl s} def
/m45 {mp x y m w6 neg w2 d w2 2 3 div mul 0 d w6 neg w2 neg d w2 w6 d 0 w2 -2 3 div mul d w2 neg w6 d w6 w2 neg d w2 -2 3 div mul 0 d w6 w2 d w2 neg w6 neg d 0 w2 2 3 div mul d w2 w6 neg d cl f} def
/m46 {mp x y w4 add m w4 neg w4 d w4 neg w4 neg d  w4 w4 neg d w4 neg w4 neg d w4 w4 neg d w4 w4 d w4 w4 neg d w4 w4 d w4 neg w4 d w4 w4 d w4 neg w4 d w4 neg w4 neg d cl s} def
/m47 {mp x y w4 add m w4 neg w4 d w4 neg w4 neg d w4 w4 neg d w4 neg w4 neg d  w4 w4 neg d w4 w4 d w4 w4 neg d w4 w4 d w4 neg w4 d w4 w4 d w4 neg w4 d w4 neg w4 neg d cl f} def
/m48 {mp x y w4 add m w4 neg w4 d w4 neg w4 neg d w4 w4 neg d  w4 neg w4 neg d w4 w4 neg d w4 w4 d w4 w4 neg d w4 w4 d w4 neg w4 d w4 w4 d w4 neg w4 d w4 neg w4 neg d  w4 w4 neg d w4 neg w4 neg d w4 neg w4 d w4 w4 d cl f} def
/m49 {mp x w2 sub w3 add y w2 sub w3 add m  0 w3 neg d w3 0 d 0 w3 d w3 0 d 0 w3 d w3 neg 0 d 0 w3 d w3 neg 0 d 0 w3 neg d w3 neg 0 d 0 w3 neg d w3 0 d 0 w3 d w3 0 d 0 w3 neg d w3 neg 0 d cl f } def
/m2 {mp x y w2 sub m 0 w d x w2 sub y m w 0 d s} def
/m5 {mp x w2 sub y w2 sub m w w d x w2 sub y w2 add m w w neg d s} def
%%IncludeResource: ProcSet (FontSetInit)
%%IncludeResource: font Times-Roman
%%IncludeResource: font Times-Italic
%%IncludeResource: font Times-Bold
%%IncludeResource: font Times-BoldItalic
%%IncludeResource: font Helvetica
%%IncludeResource: font Helvetica-Oblique
%%IncludeResource: font Helvetica-Bold
%%IncludeResource: font Helvetica-BoldOblique
%%IncludeResource: font Courier
%%IncludeResource: font Courier-Oblique
%%IncludeResource: font Courier-Bold
%%IncludeResource: font Courier-BoldOblique
%%IncludeResource: font Symbol
%%IncludeResource: font ZapfDingbats
/reEncode {exch findfont dup length dict begin {1 index /FID eq  {pop pop} {def} ifelse } forall /Encoding exch def currentdict end dup /FontName get exch definefont pop } def [/Times-Bold /Times-Italic /Times-BoldItalic /Helvetica /Helvetica-Oblique
 /Helvetica-Bold /Helvetica-BoldOblique /Courier /Courier-Oblique /Courier-Bold /Courier-BoldOblique /Times-Roman /AvantGarde-Book /AvantGarde-BookOblique /AvantGarde-Demi /AvantGarde-DemiOblique /Bookman-Demi /Bookman-DemiItalic /Bookman-Light
 /Bookman-LightItalic /Helvetica-Narrow /Helvetica-Narrow-Bold /Helvetica-Narrow-BoldOblique /Helvetica-Narrow-Oblique /NewCenturySchlbk-Roman /NewCenturySchlbk-Bold /NewCenturySchlbk-BoldItalic /NewCenturySchlbk-Italic /Palatino-Bold
 /Palatino-BoldItalic /Palatino-Italic /Palatino-Roman ] {ISOLatin1Encoding reEncode } forall
%%EndProlog
%%BeginSetup
%%EndSetup
newpath  gsave  .25 .25 scale  gsave  0 0 t 0.490196 0.545098 0.615686 c[  ] 0 sd 3 lw 0.941176 0.941176 0.941176 c 2268 1182 0 0 bf 0.490196 0.545098 0.615686 c 0.941176 0.941176 0.941176 c 710 567 23 603 bf black 1 1 0.992157 c 548 429 143 685 bf
 black 548 429 143 685 bl 0 0 0.933333 c 6 lw 0.49 0.6 0.82 c black 3 lw 0.49 0.6 0.82 c 143 705 m 55 X 1 Y 14 X -1 Y 27 X 1 Y 14 X 313 Y 14 X -150 Y 13 X -49 Y 14 X -18 Y 14 X -19 Y 13 X -5 Y 14 X -18 Y 27 X -6 Y 14 X 3 Y 14 X -24 Y 13 X -7 Y 14 X
 -4 Y 14 X -7 Y 13 X -4 Y 14 X -5 Y 14 X -1 Y 219 X f 6 lw 0 0 0.933333 c 0.49 0.6 0.82 c 0 0 0.933333 c 143 705 m 55 X 1 Y 14 X -1 Y 27 X 1 Y 14 X 313 Y 14 X -150 Y 13 X -49 Y 14 X -18 Y 14 X -19 Y 13 X -5 Y 14 X -18 Y 27 X -6 Y 14 X 3 Y 14 X -24 Y
 13 X -7 Y 14 X -4 Y 14 X -7 Y 13 X -4 Y 14 X -5 Y 14 X -1 Y 219 X s black 3 lw 143 685 m 548 X s 174 698 m -13 Y s 189 691 m -6 Y s 204 691 m -6 Y s 219 691 m -6 Y s 234 691 m -6 Y s 248 698 m -13 Y s 263 691 m -6 Y s 278 691 m -6 Y s 293 691 m -6 Y
 s 308 691 m -6 Y s 322 698 m -13 Y s 337 691 m -6 Y s 352 691 m -6 Y s 367 691 m -6 Y s 382 691 m -6 Y s 396 698 m -13 Y s 411 691 m -6 Y s 426 691 m -6 Y s 441 691 m -6 Y s 456 691 m -6 Y s 471 698 m -13 Y s 485 691 m -6 Y s 500 691 m -6 Y s 515
 691 m -6 Y s 530 691 m -6 Y s 545 698 m -13 Y s 559 691 m -6 Y s 574 691 m -6 Y s 589 691 m -6 Y s 604 691 m -6 Y s 619 698 m -13 Y s 174 698 m -13 Y s 160 691 m -6 Y s 145 691 m -6 Y s 619 698 m -13 Y s 633 691 m -6 Y s 648 691 m -6 Y s 663 691 m
 -6 Y s 678 691 m -6 Y s
 gsave  710 567 23 603 C 173.347 656.444 t 0 r /Helvetica findfont 25.6631 sf 0 0 m (1) show NC gr 
 gsave  710 567 23 603 C 159.138 656.444 t 0 r /Symbol findfont 25.6631 sf 0 0 m (-) show NC gr 
 gsave  710 567 23 603 C 235.865 656.444 t 0 r /Helvetica findfont 25.6631 sf 0 0 m (0.5) show NC gr 
 gsave  710 567 23 603 C 221.657 656.444 t 0 r /Symbol findfont 25.6631 sf 0 0 m (-) show NC gr 
 gsave  710 567 23 603 C 312.592 656.444 t 0 r /Helvetica findfont 25.6631 sf 0 0 m (0) show NC gr 
 gsave  710 567 23 603 C 377.953 656.444 t 0 r /Helvetica findfont 25.6631 sf 0 0 m (0.5) show NC gr 
 gsave  710 567 23 603 C 463.205 656.444 t 0 r /Helvetica findfont 25.6631 sf 0 0 m (1) show NC gr 
 gsave  710 567 23 603 C 525.724 656.444 t 0 r /Helvetica findfont 25.6631 sf 0 0 m (1.5) show NC gr 
 gsave  710 567 23 603 C 608.135 656.444 t 0 r /Helvetica findfont 25.6631 sf 0 0 m (2) show NC gr 
 gsave  710 567 23 603 C 582.559 616.66 t 0 r /Helvetica findfont 28.5146 sf 0 0 m (yy.H1_l3) show NC gr  143 1114 m 548 X s 174 1100 m 14 Y s 189 1107 m 7 Y s 204 1107 m 7 Y s 219 1107 m 7 Y s 234 1107 m 7 Y s 248 1100 m 14 Y s 263 1107 m 7 Y s 278
 1107 m 7 Y s 293 1107 m 7 Y s 308 1107 m 7 Y s 322 1100 m 14 Y s 337 1107 m 7 Y s 352 1107 m 7 Y s 367 1107 m 7 Y s 382 1107 m 7 Y s 396 1100 m 14 Y s 411 1107 m 7 Y s 426 1107 m 7 Y s 441 1107 m 7 Y s 456 1107 m 7 Y s 471 1100 m 14 Y s 485 1107 m 7
 Y s 500 1107 m 7 Y s 515 1107 m 7 Y s 530 1107 m 7 Y s 545 1100 m 14 Y s 559 1107 m 7 Y s 574 1107 m 7 Y s 589 1107 m 7 Y s 604 1107 m 7 Y s 619 1100 m 14 Y s 174 1100 m 14 Y s 160 1107 m 7 Y s 145 1107 m 7 Y s 619 1100 m 14 Y s 633 1107 m 7 Y s 648
 1107 m 7 Y s 663 1107 m 7 Y s 678 1107 m 7 Y s 143 685 m 429 Y s 160 705 m -17 X s 152 716 m -9 X s 152 726 m -9 X s 152 737 m -9 X s 152 747 m -9 X s 160 758 m -17 X s 152 768 m -9 X s 152 779 m -9 X s 152 789 m -9 X s 152 800 m -9 X s 160 810 m
 -17 X s 152 821 m -9 X s 152 831 m -9 X s 152 842 m -9 X s 152 852 m -9 X s 160 863 m -17 X s 152 873 m -9 X s 152 884 m -9 X s 152 894 m -9 X s 152 905 m -9 X s 160 915 m -17 X s 152 926 m -9 X s 152 937 m -9 X s 152 947 m -9 X s 152 958 m -9 X s
 160 968 m -17 X s 152 979 m -9 X s 152 989 m -9 X s 152 1000 m -9 X s 152 1010 m -9 X s 160 1021 m -17 X s 152 1031 m -9 X s 152 1042 m -9 X s 152 1052 m -9 X s 152 1063 m -9 X s 160 1073 m -17 X s 160 705 m -17 X s 152 695 m -9 X s 160 1073 m -17 X
 s 152 1084 m -9 X s 152 1094 m -9 X s 152 1105 m -9 X s
 gsave  710 567 23 603 C 119.354 696.229 t 0 r /Helvetica findfont 25.6631 sf 0 0 m (0) show NC gr 
 gsave  710 567 23 603 C 99.4613 747.38 t 0 r /Helvetica findfont 25.6631 sf 0 0 m (0.5) show NC gr 
 gsave  710 567 23 603 C 122.195 801.374 t 0 r /Helvetica findfont 25.6631 sf 0 0 m (1) show NC gr 
 gsave  710 567 23 603 C 99.4613 852.525 t 0 r /Helvetica findfont 25.6631 sf 0 0 m (1.5) show NC gr 
 gsave  710 567 23 603 C 119.354 906.518 t 0 r /Helvetica findfont 25.6631 sf 0 0 m (2) show NC gr 
 gsave  710 567 23 603 C 99.4613 957.67 t 0 r /Helvetica findfont 25.6631 sf 0 0 m (2.5) show NC gr 
 gsave  710 567 23 603 C 119.354 1011.66 t 0 r /Helvetica findfont 25.6631 sf 0 0 m (3) show NC gr 
 gsave  710 567 23 603 C 99.4613 1062.81 t 0 r /Helvetica findfont 25.6631 sf 0 0 m (3.5) show NC gr 
 gsave  710 567 23 603 C 45.468 1023.03 t 90 r /Helvetica findfont 28.5146 sf 0 0 m (0.0923 ) show NC gr 
 gsave  710 567 23 603 C 31.2593 1020.19 t 90 r /Helvetica findfont 19.9602 sf 0 0 m ( ) show NC gr 
 gsave  710 567 23 603 C 45.468 1008.82 t 90 r /Helvetica findfont 28.5146 sf 0 0 m (/) show NC gr 
 gsave  710 567 23 603 C 53.9933 1005.98 t 90 r /Helvetica findfont 19.9602 sf 0 0 m ( ) show NC gr 
 gsave  710 567 23 603 C 45.468 900.835 t 90 r /Helvetica findfont 28.5146 sf 0 0 m (\(1/N\) dN) show NC gr  691 685 m 429 Y s 674 705 m 17 X s 683 716 m 8 X s 683 726 m 8 X s 683 737 m 8 X s 683 747 m 8 X s 674 758 m 17 X s 683 768 m 8 X s 683 779 m
 8 X s 683 789 m 8 X s 683 800 m 8 X s 674 810 m 17 X s 683 821 m 8 X s 683 831 m 8 X s 683 842 m 8 X s 683 852 m 8 X s 674 863 m 17 X s 683 873 m 8 X s 683 884 m 8 X s 683 894 m 8 X s 683 905 m 8 X s 674 915 m 17 X s 683 926 m 8 X s 683 937 m 8 X s
 683 947 m 8 X s 683 958 m 8 X s 674 968 m 17 X s 683 979 m 8 X s 683 989 m 8 X s 683 1000 m 8 X s 683 1010 m 8 X s 674 1021 m 17 X s 683 1031 m 8 X s 683 1042 m 8 X s 683 1052 m 8 X s 683 1063 m 8 X s 674 1073 m 17 X s 674 705 m 17 X s 683 695 m 8 X
 s 674 1073 m 17 X s 683 1084 m 8 X s 683 1094 m 8 X s 683 1105 m 8 X s 0.490196 0.545098 0.615686 c 0.364706 0.419608 0.490196 c 332 38 30 1130 bf 0.490196 0.545098 0.615686 c 30 1130 m 332 X s 362 1130 m 38 Y s 362 1168 m -332 X s 30 1168 m -38 Y s
 1 1 1 c black 1 1 1 c
 gsave  710 567 23 603 C 34.101 1142.38 t 0 r /Helvetica-Bold findfont 28.5146 sf 0 0 m (Input variable: yy.H1_l3) show NC gr  1 0 0 c 6 lw black 3 lw 1 0 0 c 682 705 m s 667 705 m s 652 705 m s 637 705 m s 621 705 m s 606 705 m s 591 705 m s 576 705
 m s 561 705 m s 546 705 m s 531 705 m s 516 705 m s 501 705 m s 486 705 m s 471 705 m s 456 705 m s 442 706 m -1 -1 d s 427 706 m -1 -1 d s 415 709 m -5 -4 d s 402 712 m -7 -7 d s 390 714 m -10 -9 d s 390 730 m -25 -25 d s 390 745 m -40 -40 d s 390
 760 m -55 -55 d s 390 775 m -70 -70 d s 390 790 m -85 -85 d s 390 806 m -100 -101 d s 390 821 m -28 -28 d s 360 791 m -85 -86 d s 390 836 m -14 -14 d s 365 811 m -3 -3 d s 337 783 m -2 -2 d s 326 772 m -66 -67 d s 390 851 m -14 -14 d s 318 779 m -73
 -74 d s 390 866 m -14 -13 d s 302 778 m -49 -49 d s 247 723 m -17 -18 d s 390 881 m -14 -13 d s 294 785 m -41 -41 d s 234 724 m -19 -19 d s 390 897 m -14 -14 d s 280 786 m -27 -27 d s 215 721 m -16 -16 d s 381 903 m -5 -5 d s 280 802 m -27 -28 d s
 199 720 m -1 -1 d s 197 718 m -13 -13 d s 279 816 m -26 -27 d s 179 715 m -8 -8 d s 169 705 m s 267 818 m -14 -14 d s 154 705 m s 267 833 m -14 -13 d s 267 849 m -14 -14 d s 267 864 m -14 -14 d s 255 867 m -2 -2 d s 6 lw 143 705 m 28 X 10 Y 14 X 3 Y
 13 X 2 Y 14 X 1 Y 14 X 3 Y 13 X -1 Y 14 X 144 Y 14 X -51 Y 13 X -30 Y 14 X -8 Y 14 X 1 Y 13 X -7 Y 14 X 11 Y 14 X 8 Y 13 X 20 Y 14 X 92 Y 14 X -191 Y 13 X -3 Y 14 X -3 Y 27 X -1 Y 247 X s 0.490196 0.545098 0.615686 c 3 lw 1 1 1 c 0.490196 0.545098
 0.615686 c 285 86 143 1028 bl 143 1028 m 285 X s 428 1028 m 86 Y s 428 1114 m -285 X s 143 1114 m -86 Y s black
 gsave  710 567 23 603 C 227.34 1085.55 t 0 r /Helvetica-Bold findfont 31.3661 sf 0 0 m (Signal) show NC gr  0.49 0.6 0.82 c 156 1077 m 60 X 30 Y -60 X f 0 0 0.933333 c 6 lw 156 1107 m 60 X s 156 1077 m 60 X s 216 1077 m 30 Y s 156 1077 m 30 Y s
 black
 gsave  710 567 23 603 C 227.34 1042.92 t 0 r /Helvetica-Bold findfont 31.3661 sf 0 0 m (Background) show NC gr  1 0 0 c 3 lw 216 1041 m -6 -6 d s 216 1056 m -21 -21 d s 210 1065 m -30 -30 d s 195 1065 m -30 -30 d s 180 1065 m -24 -24 d s 165 1065 m
 -9 -9 d s 6 lw 0 0 0.933333 c 1 0 0 c 156 1065 m 60 X s 156 1035 m 60 X s 216 1035 m 30 Y s 156 1035 m 30 Y s black 3 lw 143 685 m 548 X s 174 698 m -13 Y s 189 691 m -6 Y s 204 691 m -6 Y s 219 691 m -6 Y s 234 691 m -6 Y s 248 698 m -13 Y s 263
 691 m -6 Y s 278 691 m -6 Y s 293 691 m -6 Y s 308 691 m -6 Y s 322 698 m -13 Y s 337 691 m -6 Y s 352 691 m -6 Y s 367 691 m -6 Y s 382 691 m -6 Y s 396 698 m -13 Y s 411 691 m -6 Y s 426 691 m -6 Y s 441 691 m -6 Y s 456 691 m -6 Y s 471 698 m -13
 Y s 485 691 m -6 Y s 500 691 m -6 Y s 515 691 m -6 Y s 530 691 m -6 Y s 545 698 m -13 Y s 559 691 m -6 Y s 574 691 m -6 Y s 589 691 m -6 Y s 604 691 m -6 Y s 619 698 m -13 Y s 174 698 m -13 Y s 160 691 m -6 Y s 145 691 m -6 Y s 619 698 m -13 Y s 633
 691 m -6 Y s 648 691 m -6 Y s 663 691 m -6 Y s 678 691 m -6 Y s 143 1114 m 548 X s 174 1100 m 14 Y s 189 1107 m 7 Y s 204 1107 m 7 Y s 219 1107 m 7 Y s 234 1107 m 7 Y s 248 1100 m 14 Y s 263 1107 m 7 Y s 278 1107 m 7 Y s 293 1107 m 7 Y s 308 1107 m
 7 Y s 322 1100 m 14 Y s 337 1107 m 7 Y s 352 1107 m 7 Y s 367 1107 m 7 Y s 382 1107 m 7 Y s 396 1100 m 14 Y s 411 1107 m 7 Y s 426 1107 m 7 Y s 441 1107 m 7 Y s 456 1107 m 7 Y s 471 1100 m 14 Y s 485 1107 m 7 Y s 500 1107 m 7 Y s 515 1107 m 7 Y s
 530 1107 m 7 Y s 545 1100 m 14 Y s 559 1107 m 7 Y s 574 1107 m 7 Y s 589 1107 m 7 Y s 604 1107 m 7 Y s 619 1100 m 14 Y s 174 1100 m 14 Y s 160 1107 m 7 Y s 145 1107 m 7 Y s 619 1100 m 14 Y s 633 1107 m 7 Y s 648 1107 m 7 Y s 663 1107 m 7 Y s 678
 1107 m 7 Y s 143 685 m 429 Y s 160 705 m -17 X s 152 716 m -9 X s 152 726 m -9 X s 152 737 m -9 X s 152 747 m -9 X s 160 758 m -17 X s 152 768 m -9 X s 152 779 m -9 X s 152 789 m -9 X s 152 800 m -9 X s 160 810 m -17 X s 152 821 m -9 X s 152 831 m
 -9 X s 152 842 m -9 X s 152 852 m -9 X s 160 863 m -17 X s 152 873 m -9 X s 152 884 m -9 X s 152 894 m -9 X s 152 905 m -9 X s 160 915 m -17 X s 152 926 m -9 X s 152 937 m -9 X s 152 947 m -9 X s 152 958 m -9 X s 160 968 m -17 X s 152 979 m -9 X s
 152 989 m -9 X s 152 1000 m -9 X s 152 1010 m -9 X s 160 1021 m -17 X s 152 1031 m -9 X s 152 1042 m -9 X s 152 1052 m -9 X s 152 1063 m -9 X s 160 1073 m -17 X s 160 705 m -17 X s 152 695 m -9 X s 160 1073 m -17 X s 152 1084 m -9 X s 152 1094 m -9
 X s 152 1105 m -9 X s 691 685 m 429 Y s 674 705 m 17 X s 683 716 m 8 X s 683 726 m 8 X s 683 737 m 8 X s 683 747 m 8 X s 674 758 m 17 X s 683 768 m 8 X s 683 779 m 8 X s 683 789 m 8 X s 683 800 m 8 X s 674 810 m 17 X s 683 821 m 8 X s 683 831 m 8 X
 s 683 842 m 8 X s 683 852 m 8 X s 674 863 m 17 X s 683 873 m 8 X s 683 884 m 8 X s 683 894 m 8 X s 683 905 m 8 X s 674 915 m 17 X s 683 926 m 8 X s 683 937 m 8 X s 683 947 m 8 X s 683 958 m 8 X s 674 968 m 17 X s 683 979 m 8 X s 683 989 m 8 X s 683
 1000 m 8 X s 683 1010 m 8 X s 674 1021 m 17 X s 683 1031 m 8 X s 683 1042 m 8 X s 683 1052 m 8 X s 683 1063 m 8 X s 674 1073 m 17 X s 674 705 m 17 X s 683 695 m 8 X s 674 1073 m 17 X s 683 1084 m 8 X s 683 1094 m 8 X s 683 1105 m 8 X s
 gsave  710 567 23 603 C 719.017 682.347 t 90 r /Helvetica-Bold findfont 19.9602 sf 0 0 m (U/O\255flow \(S,B\): \(0.0, 0.0\)% / \(0.0, 0.0\)%) show NC gr  0.490196 0.545098 0.615686 c 0.364706 0.419608 0.490196 c 332 38 30 1130 bf 0.490196 0.545098
 0.615686 c 30 1130 m 332 X s 362 1130 m 38 Y s 362 1168 m -332 X s 30 1168 m -38 Y s 1 1 1 c black 1 1 1 c
 gsave  710 567 23 603 C 34.101 1142.38 t 0 r /Helvetica-Bold findfont 28.5146 sf 0 0 m (Input variable: yy.H1_l3) show NC gr  0.490196 0.545098 0.615686 c 0.941176 0.941176 0.941176 c 710 567 779 603 bf black 1 1 0.992157 c 548 429 899 685 bf black
 548 429 899 685 bl 0 0 0.933333 c 6 lw 0.49 0.6 0.82 c black 3 lw 0.49 0.6 0.82 c 899 685 m 14 X 3 Y 14 X 2 Y 13 X 3 Y 14 X 6 Y 14 X -1 Y 13 X -4 Y 14 X 7 Y 14 X -9 Y 13 X 14 Y 14 X -6 Y 14 X 12 Y 14 X 14 Y 13 X -3 Y 14 X 40 Y 27 X 16 Y 14 X 72 Y 14
 X 4 Y 13 X 88 Y 14 X 24 Y 14 X 62 Y 13 X -5 Y 14 X 11 Y 14 X 15 Y 13 X -43 Y 14 X 68 Y 14 X -41 Y 13 X -4 Y 14 X -15 Y 14 X -19 Y 13 X -47 Y 14 X -49 Y 14 X -72 Y 13 X -97 Y 14 X -46 Y 69 X f 6 lw 0 0 0.933333 c 0.49 0.6 0.82 c 0 0 0.933333 c 899
 685 m 14 X 3 Y 14 X 2 Y 13 X 3 Y 14 X 6 Y 14 X -1 Y 13 X -4 Y 14 X 7 Y 14 X -9 Y 13 X 14 Y 14 X -6 Y 14 X 12 Y 14 X 14 Y 13 X -3 Y 14 X 40 Y 27 X 16 Y 14 X 72 Y 14 X 4 Y 13 X 88 Y 14 X 24 Y 14 X 62 Y 13 X -5 Y 14 X 11 Y 14 X 15 Y 13 X -43 Y 14 X 68
 Y 14 X -41 Y 13 X -4 Y 14 X -15 Y 14 X -19 Y 13 X -47 Y 14 X -49 Y 14 X -72 Y 13 X -97 Y 14 X -46 Y 69 X s black 3 lw 899 685 m 548 X s 947 698 m -13 Y s 967 691 m -6 Y s 986 691 m -6 Y s 1005 691 m -6 Y s 1024 691 m -6 Y s 1044 698 m -13 Y s 1063
 691 m -6 Y s 1082 691 m -6 Y s 1101 691 m -6 Y s 1121 691 m -6 Y s 1140 698 m -13 Y s 1159 691 m -6 Y s 1178 691 m -6 Y s 1198 691 m -6 Y s 1217 691 m -6 Y s 1236 698 m -13 Y s 1255 691 m -6 Y s 1275 691 m -6 Y s 1294 691 m -6 Y s 1313 691 m -6 Y s
 1332 698 m -13 Y s 1352 691 m -6 Y s 1371 691 m -6 Y s 1390 691 m -6 Y s 1409 691 m -6 Y s 1429 698 m -13 Y s 947 698 m -13 Y s 928 691 m -6 Y s 909 691 m -6 Y s 1429 698 m -13 Y s
 gsave  710 567 779 603 C 934.936 656.444 t 0 r /Helvetica findfont 25.6631 sf 0 0 m (0.2) show NC gr 
 gsave  710 567 779 603 C 920.727 656.444 t 0 r /Symbol findfont 25.6631 sf 0 0 m (-) show NC gr 
 gsave  710 567 779 603 C 1031.56 656.444 t 0 r /Helvetica findfont 25.6631 sf 0 0 m (0.1) show NC gr 
 gsave  710 567 779 603 C 1020.19 656.444 t 0 r /Symbol findfont 25.6631 sf 0 0 m (-) show NC gr 
 gsave  710 567 779 603 C 1131.02 656.444 t 0 r /Helvetica findfont 25.6631 sf 0 0 m (0) show NC gr 
 gsave  710 567 779 603 C 1216.27 656.444 t 0 r /Helvetica findfont 25.6631 sf 0 0 m (0.1) show NC gr 
 gsave  710 567 779 603 C 1312.89 656.444 t 0 r /Helvetica findfont 25.6631 sf 0 0 m (0.2) show NC gr 
 gsave  710 567 779 603 C 1409.51 656.444 t 0 r /Helvetica findfont 25.6631 sf 0 0 m (0.3) show NC gr 
 gsave  710 567 779 603 C 1341.31 616.66 t 0 r /Helvetica findfont 28.5146 sf 0 0 m (yy.HP_l1) show NC gr  899 1114 m 548 X s 947 1100 m 14 Y s 967 1107 m 7 Y s 986 1107 m 7 Y s 1005 1107 m 7 Y s 1024 1107 m 7 Y s 1044 1100 m 14 Y s 1063 1107 m 7 Y s
 1082 1107 m 7 Y s 1101 1107 m 7 Y s 1121 1107 m 7 Y s 1140 1100 m 14 Y s 1159 1107 m 7 Y s 1178 1107 m 7 Y s 1198 1107 m 7 Y s 1217 1107 m 7 Y s 1236 1100 m 14 Y s 1255 1107 m 7 Y s 1275 1107 m 7 Y s 1294 1107 m 7 Y s 1313 1107 m 7 Y s 1332 1100 m
 14 Y s 1352 1107 m 7 Y s 1371 1107 m 7 Y s 1390 1107 m 7 Y s 1409 1107 m 7 Y s 1429 1100 m 14 Y s 947 1100 m 14 Y s 928 1107 m 7 Y s 909 1107 m 7 Y s 1429 1100 m 14 Y s 899 685 m 429 Y s 915 685 m -16 X s 907 700 m -8 X s 907 716 m -8 X s 907 731 m
 -8 X s 907 747 m -8 X s 915 762 m -16 X s 907 778 m -8 X s 907 793 m -8 X s 907 809 m -8 X s 907 825 m -8 X s 915 840 m -16 X s 907 856 m -8 X s 907 871 m -8 X s 907 887 m -8 X s 907 902 m -8 X s 915 918 m -16 X s 907 933 m -8 X s 907 949 m -8 X s
 907 964 m -8 X s 907 980 m -8 X s 915 996 m -16 X s 907 1011 m -8 X s 907 1027 m -8 X s 907 1042 m -8 X s 907 1058 m -8 X s 915 1073 m -16 X s 915 1073 m -16 X s 907 1089 m -8 X s 907 1104 m -8 X s
 gsave  710 567 779 603 C 875.259 673.495 t 0 r /Helvetica findfont 25.6631 sf 0 0 m (0) show NC gr 
 gsave  710 567 779 603 C 878.101 753.064 t 0 r /Helvetica findfont 25.6631 sf 0 0 m (1) show NC gr 
 gsave  710 567 779 603 C 875.259 829.791 t 0 r /Helvetica findfont 25.6631 sf 0 0 m (2) show NC gr 
 gsave  710 567 779 603 C 875.259 906.518 t 0 r /Helvetica findfont 25.6631 sf 0 0 m (3) show NC gr 
 gsave  710 567 779 603 C 875.259 986.087 t 0 r /Helvetica findfont 25.6631 sf 0 0 m (4) show NC gr 
 gsave  710 567 779 603 C 875.259 1062.81 t 0 r /Helvetica findfont 25.6631 sf 0 0 m (5) show NC gr 
 gsave  710 567 779 603 C 801.374 1023.03 t 90 r /Helvetica findfont 28.5146 sf 0 0 m (0.0142 ) show NC gr 
 gsave  710 567 779 603 C 787.165 1020.19 t 90 r /Helvetica findfont 19.9602 sf 0 0 m ( ) show NC gr 
 gsave  710 567 779 603 C 801.374 1008.82 t 90 r /Helvetica findfont 28.5146 sf 0 0 m (/) show NC gr 
 gsave  710 567 779 603 C 809.899 1005.98 t 90 r /Helvetica findfont 19.9602 sf 0 0 m ( ) show NC gr 
 gsave  710 567 779 603 C 801.374 900.835 t 90 r /Helvetica findfont 28.5146 sf 0 0 m (\(1/N\) dN) show NC gr  1447 685 m 429 Y s 1430 685 m 17 X s 1438 700 m 9 X s 1438 716 m 9 X s 1438 731 m 9 X s 1438 747 m 9 X s 1430 762 m 17 X s 1438 778 m 9 X s
 1438 793 m 9 X s 1438 809 m 9 X s 1438 825 m 9 X s 1430 840 m 17 X s 1438 856 m 9 X s 1438 871 m 9 X s 1438 887 m 9 X s 1438 902 m 9 X s 1430 918 m 17 X s 1438 933 m 9 X s 1438 949 m 9 X s 1438 964 m 9 X s 1438 980 m 9 X s 1430 996 m 17 X s 1438
 1011 m 9 X s 1438 1027 m 9 X s 1438 1042 m 9 X s 1438 1058 m 9 X s 1430 1073 m 17 X s 1430 1073 m 17 X s 1438 1089 m 9 X s 1438 1104 m 9 X s 0.490196 0.545098 0.615686 c 0.364706 0.419608 0.490196 c 329 38 786 1130 bf 0.490196 0.545098 0.615686 c
 786 1130 m 329 X s 1115 1130 m 38 Y s 1115 1168 m -329 X s 786 1168 m -38 Y s 1 1 1 c black 1 1 1 c
 gsave  710 567 779 603 C 790.007 1142.38 t 0 r /Helvetica-Bold findfont 28.5146 sf 0 0 m (Input variable: yy.HP_l1) show NC gr  1 0 0 c 6 lw black 3 lw 1 0 0 c 1432 685 m s 1417 685 m s 1402 685 m s 1387 685 m s 1375 688 m -3 -3 d s 1364 692 m -7 -7
 d s 1364 707 m -22 -22 d s 1358 716 m -31 -31 d s 1351 724 m -39 -39 d s 1347 735 m -50 -50 d s 1337 740 m -55 -55 d s 1335 754 m -68 -69 d s 1323 757 m -71 -72 d s 1314 763 m -77 -78 d s 1307 770 m -86 -85 d s 1290 769 m -84 -84 d s 1282 776 m -91
 -91 d s 1282 792 m -106 -107 d s 1282 807 m -121 -122 d s 1269 808 m -123 -123 d s 1260 814 m -5 -4 d s 1248 803 m -117 -118 d s 1241 811 m -125 -126 d s 1241 826 m -140 -141 d s 1241 841 m -155 -156 d s 1228 843 m -157 -158 d s 1228 858 m -172 -173
 d s 1224 870 m -183 -185 d s 1214 874 m -188 -189 d s 1201 877 m -1 -1 d s 1197 872 m -187 -187 d s 1187 877 m -192 -192 d s 1187 892 m -207 -207 d s 1182 903 m -9 -9 d s 1169 889 m -204 -204 d s 1159 895 m -13 -14 d s 1138 874 m -188 -189 d s 1149
 900 m -3 -3 d s 1132 883 m -197 -198 d s 1132 898 m -41 -41 d s 1090 856 m -170 -171 d s 1132 913 m -14 -14 d s 1108 889 m -3 -3 d s 1094 875 m -3 -3 d s 1077 858 m -13 -14 d s 1059 840 m -154 -155 d s 1122 918 m -4 -3 d s 1077 873 m -13 -13 d s
 1050 846 m -151 -152 d s 1069 881 m -5 -6 d s 1050 861 m -151 -152 d s 1050 876 m -14 -14 d s 1034 860 m -135 -135 d s 1038 880 m -2 -2 d s 1022 864 m -123 -124 d s 1020 876 m -11 -11 d s 1005 861 m -106 -106 d s 995 867 m -82 -83 d s 988 875 m -75
 -76 d s 981 883 m -68 -69 d s 981 898 m -27 -27 d s 950 867 m -37 -38 d s 981 914 m -13 -14 d s 956 888 m -2 -2 d s 940 872 m -13 -14 d s 914 846 m -1 -1 d s 970 917 m -2 -2 d s 940 887 m -13 -13 d s 6 lw 899 769 m 14 X 77 Y 14 X 41 Y 13 X -20 Y 14
 X 21 Y 14 X 29 Y 13 X -42 Y 14 X -14 Y 14 X 15 Y 13 X -16 Y 14 X 20 Y 14 X -40 Y 14 X 41 Y 13 X -25 Y 14 X 19 Y 14 X 14 Y 13 X 29 Y 14 X -44 Y 14 X 26 Y 13 X -11 Y 14 X 14 Y 14 X -31 Y 13 X 5 Y 14 X -7 Y 14 X -28 Y 13 X -39 Y 14 X 11 Y 14 X -6 Y 13
 X -39 Y 14 X 1 Y 14 X -7 Y 13 X -9 Y 14 X -19 Y 14 X -19 Y 13 X -28 Y 14 X -3 Y 69 X s black 3 lw 899 685 m 548 X s 947 698 m -13 Y s 967 691 m -6 Y s 986 691 m -6 Y s 1005 691 m -6 Y s 1024 691 m -6 Y s 1044 698 m -13 Y s 1063 691 m -6 Y s 1082 691
 m -6 Y s 1101 691 m -6 Y s 1121 691 m -6 Y s 1140 698 m -13 Y s 1159 691 m -6 Y s 1178 691 m -6 Y s 1198 691 m -6 Y s 1217 691 m -6 Y s 1236 698 m -13 Y s 1255 691 m -6 Y s 1275 691 m -6 Y s 1294 691 m -6 Y s 1313 691 m -6 Y s 1332 698 m -13 Y s
 1352 691 m -6 Y s 1371 691 m -6 Y s 1390 691 m -6 Y s 1409 691 m -6 Y s 1429 698 m -13 Y s 947 698 m -13 Y s 928 691 m -6 Y s 909 691 m -6 Y s 1429 698 m -13 Y s 899 1114 m 548 X s 947 1100 m 14 Y s 967 1107 m 7 Y s 986 1107 m 7 Y s 1005 1107 m 7 Y
 s 1024 1107 m 7 Y s 1044 1100 m 14 Y s 1063 1107 m 7 Y s 1082 1107 m 7 Y s 1101 1107 m 7 Y s 1121 1107 m 7 Y s 1140 1100 m 14 Y s 1159 1107 m 7 Y s 1178 1107 m 7 Y s 1198 1107 m 7 Y s 1217 1107 m 7 Y s 1236 1100 m 14 Y s 1255 1107 m 7 Y s 1275 1107
 m 7 Y s 1294 1107 m 7 Y s 1313 1107 m 7 Y s 1332 1100 m 14 Y s 1352 1107 m 7 Y s 1371 1107 m 7 Y s 1390 1107 m 7 Y s 1409 1107 m 7 Y s 1429 1100 m 14 Y s 947 1100 m 14 Y s 928 1107 m 7 Y s 909 1107 m 7 Y s 1429 1100 m 14 Y s 899 685 m 429 Y s 915
 685 m -16 X s 907 700 m -8 X s 907 716 m -8 X s 907 731 m -8 X s 907 747 m -8 X s 915 762 m -16 X s 907 778 m -8 X s 907 793 m -8 X s 907 809 m -8 X s 907 825 m -8 X s 915 840 m -16 X s 907 856 m -8 X s 907 871 m -8 X s 907 887 m -8 X s 907 902 m -8
 X s 915 918 m -16 X s 907 933 m -8 X s 907 949 m -8 X s 907 964 m -8 X s 907 980 m -8 X s 915 996 m -16 X s 907 1011 m -8 X s 907 1027 m -8 X s 907 1042 m -8 X s 907 1058 m -8 X s 915 1073 m -16 X s 915 1073 m -16 X s 907 1089 m -8 X s 907 1104 m -8
 X s 1447 685 m 429 Y s 1430 685 m 17 X s 1438 700 m 9 X s 1438 716 m 9 X s 1438 731 m 9 X s 1438 747 m 9 X s 1430 762 m 17 X s 1438 778 m 9 X s 1438 793 m 9 X s 1438 809 m 9 X s 1438 825 m 9 X s 1430 840 m 17 X s 1438 856 m 9 X s 1438 871 m 9 X s
 1438 887 m 9 X s 1438 902 m 9 X s 1430 918 m 17 X s 1438 933 m 9 X s 1438 949 m 9 X s 1438 964 m 9 X s 1438 980 m 9 X s 1430 996 m 17 X s 1438 1011 m 9 X s 1438 1027 m 9 X s 1438 1042 m 9 X s 1438 1058 m 9 X s 1430 1073 m 17 X s 1430 1073 m 17 X s
 1438 1089 m 9 X s 1438 1104 m 9 X s
 gsave  710 567 779 603 C 1474.92 682.347 t 90 r /Helvetica-Bold findfont 19.9602 sf 0 0 m (U/O\255flow \(S,B\): \(0.0, 0.0\)% / \(0.0, 0.0\)%) show NC gr  0.490196 0.545098 0.615686 c 0.364706 0.419608 0.490196 c 329 38 786 1130 bf 0.490196 0.545098
 0.615686 c 786 1130 m 329 X s 1115 1130 m 38 Y s 1115 1168 m -329 X s 786 1168 m -38 Y s 1 1 1 c black 1 1 1 c
 gsave  710 567 779 603 C 790.007 1142.38 t 0 r /Helvetica-Bold findfont 28.5146 sf 0 0 m (Input variable: yy.HP_l1) show NC gr  0.490196 0.545098 0.615686 c 0.941176 0.941176 0.941176 c 711 567 1534 603 bf black 1 1 0.992157 c 547 429 1655 685 bf
 black 547 429 1655 685 bl 0 0 0.933333 c 6 lw 0.49 0.6 0.82 c black 3 lw 0.49 0.6 0.82 c 1655 685 m 7 Y 14 X 6 Y 14 X -7 Y 13 X 5 Y 14 X -2 Y 14 X 2 Y 13 X 4 Y 41 X 6 Y 14 X -10 Y 14 X 18 Y 13 X -6 Y 14 X 7 Y 14 X 13 Y 13 X 2 Y 14 X 9 Y 14 X 7 Y 13
 X 1 Y 14 X 30 Y 14 X -23 Y 14 X 30 Y 13 X 47 Y 14 X 7 Y 14 X -3 Y 13 X 28 Y 14 X 42 Y 14 X 8 Y 13 X 43 Y 14 X 18 Y 14 X 25 Y 13 X 15 Y 14 X 24 Y 14 X 3 Y 13 X 33 Y 14 X -7 Y 14 X 8 Y 13 X -24 Y 14 X -192 Y 14 X -174 Y 13 X f 6 lw 0 0 0.933333 c 0.49
 0.6 0.82 c 0 0 0.933333 c 1655 692 m 14 X 6 Y 14 X -7 Y 13 X 5 Y 14 X -2 Y 14 X 2 Y 13 X 4 Y 41 X 6 Y 14 X -10 Y 14 X 18 Y 13 X -6 Y 14 X 7 Y 14 X 13 Y 13 X 2 Y 14 X 9 Y 14 X 7 Y 13 X 1 Y 14 X 30 Y 14 X -23 Y 14 X 30 Y 13 X 47 Y 14 X 7 Y 14 X -3 Y
 13 X 28 Y 14 X 42 Y 14 X 8 Y 13 X 43 Y 14 X 18 Y 14 X 25 Y 13 X 15 Y 14 X 24 Y 14 X 3 Y 13 X 33 Y 14 X -7 Y 14 X 8 Y 13 X -24 Y 14 X -192 Y 14 X -174 Y 13 X s black 3 lw 1655 685 m 547 X s 1709 698 m -13 Y s 1722 691 m -6 Y s 1735 691 m -6 Y s 1749
 691 m -6 Y s 1762 698 m -13 Y s 1776 691 m -6 Y s 1789 691 m -6 Y s 1802 691 m -6 Y s 1816 698 m -13 Y s 1829 691 m -6 Y s 1842 691 m -6 Y s 1856 691 m -6 Y s 1869 698 m -13 Y s 1883 691 m -6 Y s 1896 691 m -6 Y s 1909 691 m -6 Y s 1923 698 m -13 Y
 s 1936 691 m -6 Y s 1949 691 m -6 Y s 1963 691 m -6 Y s 1976 698 m -13 Y s 1989 691 m -6 Y s 2003 691 m -6 Y s 2016 691 m -6 Y s 2030 698 m -13 Y s 2043 691 m -6 Y s 2056 691 m -6 Y s 2070 691 m -6 Y s 2083 698 m -13 Y s 2096 691 m -6 Y s 2110 691 m
 -6 Y s 2123 691 m -6 Y s 2137 698 m -13 Y s 2150 691 m -6 Y s 2163 691 m -6 Y s 2177 691 m -6 Y s 2190 698 m -13 Y s 1709 698 m -13 Y s 1695 691 m -6 Y s 1682 691 m -6 Y s 1669 691 m -6 Y s 2190 698 m -13 Y s
 gsave  711 567 1534 603 C 1696.52 656.444 t 0 r /Helvetica findfont 25.6631 sf 0 0 m (0.8) show NC gr 
 gsave  711 567 1534 603 C 1682.32 656.444 t 0 r /Symbol findfont 25.6631 sf 0 0 m (-) show NC gr 
 gsave  711 567 1534 603 C 1750.52 656.444 t 0 r /Helvetica findfont 25.6631 sf 0 0 m (0.6) show NC gr 
 gsave  711 567 1534 603 C 1736.31 656.444 t 0 r /Symbol findfont 25.6631 sf 0 0 m (-) show NC gr 
 gsave  711 567 1534 603 C 1801.67 656.444 t 0 r /Helvetica findfont 25.6631 sf 0 0 m (0.4) show NC gr 
 gsave  711 567 1534 603 C 1787.46 656.444 t 0 r /Symbol findfont 25.6631 sf 0 0 m (-) show NC gr 
 gsave  711 567 1534 603 C 1855.66 656.444 t 0 r /Helvetica findfont 25.6631 sf 0 0 m (0.2) show NC gr 
 gsave  711 567 1534 603 C 1841.45 656.444 t 0 r /Symbol findfont 25.6631 sf 0 0 m (-) show NC gr 
 gsave  711 567 1534 603 C 1912.5 656.444 t 0 r /Helvetica findfont 25.6631 sf 0 0 m (0) show NC gr 
 gsave  711 567 1534 603 C 1957.97 656.444 t 0 r /Helvetica findfont 25.6631 sf 0 0 m (0.2) show NC gr 
 gsave  711 567 1534 603 C 2011.96 656.444 t 0 r /Helvetica findfont 25.6631 sf 0 0 m (0.4) show NC gr 
 gsave  711 567 1534 603 C 2065.95 656.444 t 0 r /Helvetica findfont 25.6631 sf 0 0 m (0.6) show NC gr 
 gsave  711 567 1534 603 C 2117.1 656.444 t 0 r /Helvetica findfont 25.6631 sf 0 0 m (0.8) show NC gr 
 gsave  711 567 1534 603 C 2182.46 656.444 t 0 r /Helvetica findfont 25.6631 sf 0 0 m (1) show NC gr 
 gsave  711 567 1534 603 C 2094.37 613.818 t 0 r /Helvetica findfont 28.5146 sf 0 0 m (bb.H1_l1) show NC gr  1655 1114 m 547 X s 1709 1100 m 14 Y s 1722 1107 m 7 Y s 1735 1107 m 7 Y s 1749 1107 m 7 Y s 1762 1100 m 14 Y s 1776 1107 m 7 Y s 1789 1107 m
 7 Y s 1802 1107 m 7 Y s 1816 1100 m 14 Y s 1829 1107 m 7 Y s 1842 1107 m 7 Y s 1856 1107 m 7 Y s 1869 1100 m 14 Y s 1883 1107 m 7 Y s 1896 1107 m 7 Y s 1909 1107 m 7 Y s 1923 1100 m 14 Y s 1936 1107 m 7 Y s 1949 1107 m 7 Y s 1963 1107 m 7 Y s 1976
 1100 m 14 Y s 1989 1107 m 7 Y s 2003 1107 m 7 Y s 2016 1107 m 7 Y s 2030 1100 m 14 Y s 2043 1107 m 7 Y s 2056 1107 m 7 Y s 2070 1107 m 7 Y s 2083 1100 m 14 Y s 2096 1107 m 7 Y s 2110 1107 m 7 Y s 2123 1107 m 7 Y s 2137 1100 m 14 Y s 2150 1107 m 7 Y
 s 2163 1107 m 7 Y s 2177 1107 m 7 Y s 2190 1100 m 14 Y s 1709 1100 m 14 Y s 1695 1107 m 7 Y s 1682 1107 m 7 Y s 1669 1107 m 7 Y s 2190 1100 m 14 Y s 1655 685 m 429 Y s 1671 685 m -16 X s 1663 699 m -8 X s 1663 712 m -8 X s 1663 726 m -8 X s 1671 740
 m -16 X s 1663 754 m -8 X s 1663 768 m -8 X s 1663 782 m -8 X s 1671 796 m -16 X s 1663 810 m -8 X s 1663 824 m -8 X s 1663 838 m -8 X s 1671 852 m -16 X s 1663 866 m -8 X s 1663 880 m -8 X s 1663 893 m -8 X s 1671 907 m -16 X s 1663 921 m -8 X s
 1663 935 m -8 X s 1663 949 m -8 X s 1671 963 m -16 X s 1663 977 m -8 X s 1663 991 m -8 X s 1663 1005 m -8 X s 1671 1019 m -16 X s 1663 1033 m -8 X s 1663 1047 m -8 X s 1663 1061 m -8 X s 1671 1075 m -16 X s 1671 1075 m -16 X s 1663 1088 m -8 X s
 1663 1102 m -8 X s
 gsave  711 567 1534 603 C 1631.16 673.495 t 0 r /Helvetica findfont 25.6631 sf 0 0 m (0) show NC gr 
 gsave  711 567 1534 603 C 1611.27 730.33 t 0 r /Helvetica findfont 25.6631 sf 0 0 m (0.2) show NC gr 
 gsave  711 567 1534 603 C 1611.27 787.165 t 0 r /Helvetica findfont 25.6631 sf 0 0 m (0.4) show NC gr 
 gsave  711 567 1534 603 C 1611.27 841.158 t 0 r /Helvetica findfont 25.6631 sf 0 0 m (0.6) show NC gr 
 gsave  711 567 1534 603 C 1611.27 897.993 t 0 r /Helvetica findfont 25.6631 sf 0 0 m (0.8) show NC gr 
 gsave  711 567 1534 603 C 1634.01 951.986 t 0 r /Helvetica findfont 25.6631 sf 0 0 m (1) show NC gr 
 gsave  711 567 1534 603 C 1611.27 1008.82 t 0 r /Helvetica findfont 25.6631 sf 0 0 m (1.2) show NC gr 
 gsave  711 567 1534 603 C 1611.27 1065.66 t 0 r /Helvetica findfont 25.6631 sf 0 0 m (1.4) show NC gr 
 gsave  711 567 1534 603 C 1557.28 1023.03 t 90 r /Helvetica findfont 28.5146 sf 0 0 m (0.0512 ) show NC gr 
 gsave  711 567 1534 603 C 1543.07 1020.19 t 90 r /Helvetica findfont 19.9602 sf 0 0 m ( ) show NC gr 
 gsave  711 567 1534 603 C 1557.28 1008.82 t 90 r /Helvetica findfont 28.5146 sf 0 0 m (/) show NC gr 
 gsave  711 567 1534 603 C 1565.8 1005.98 t 90 r /Helvetica findfont 19.9602 sf 0 0 m ( ) show NC gr 
 gsave  711 567 1534 603 C 1557.28 900.835 t 90 r /Helvetica findfont 28.5146 sf 0 0 m (\(1/N\) dN) show NC gr  2202 685 m 429 Y s 2186 685 m 16 X s 2194 699 m 8 X s 2194 712 m 8 X s 2194 726 m 8 X s 2186 740 m 16 X s 2194 754 m 8 X s 2194 768 m 8 X
 s 2194 782 m 8 X s 2186 796 m 16 X s 2194 810 m 8 X s 2194 824 m 8 X s 2194 838 m 8 X s 2186 852 m 16 X s 2194 866 m 8 X s 2194 880 m 8 X s 2194 893 m 8 X s 2186 907 m 16 X s 2194 921 m 8 X s 2194 935 m 8 X s 2194 949 m 8 X s 2186 963 m 16 X s 2194
 977 m 8 X s 2194 991 m 8 X s 2194 1005 m 8 X s 2186 1019 m 16 X s 2194 1033 m 8 X s 2194 1047 m 8 X s 2194 1061 m 8 X s 2186 1075 m 16 X s 2186 1075 m 16 X s 2194 1088 m 8 X s 2194 1102 m 8 X s 0.490196 0.545098 0.615686 c 0.364706 0.419608 0.490196
 c 332 38 1542 1130 bf 0.490196 0.545098 0.615686 c 1542 1130 m 332 X s 1874 1130 m 38 Y s 1874 1168 m -332 X s 1542 1168 m -38 Y s 1 1 1 c black 1 1 1 c
 gsave  711 567 1534 603 C 1545.91 1142.38 t 0 r /Helvetica-Bold findfont 28.5146 sf 0 0 m (Input variable: bb.H1_l1) show NC gr  1 0 0 c 6 lw black 3 lw 1 0 0 c 2189 685 m -1 X s 2189 700 m -16 -15 d s 2183 709 m -25 -24 d s 2175 717 m -32 -32 d s
 2175 732 m -47 -47 d s 2175 747 m -62 -62 d s 2167 755 m -69 -70 d s 2161 764 m -78 -79 d s 2161 778 m -93 -93 d s 2148 780 m -95 -95 d s 2138 785 m -100 -100 d s 2134 797 m -111 -112 d s 2130 808 m -10 -10 d s 2119 796 m -12 -12 d s 2101 779 m -93
 -94 d s 2093 786 m -101 -101 d s 2093 801 m -116 -116 d s 2088 811 m -9 -9 d s 2072 795 m -110 -110 d s 2066 804 m -119 -119 d s 2066 819 m -134 -134 d s 2056 825 m -4 -5 d s 2042 811 m -125 -126 d s 2031 814 m -6 -6 d s 2020 803 m -118 -118 d s
 2000 798 m -113 -113 d s 1993 806 m -121 -121 d s 1984 812 m -127 -127 d s 1982 826 m -12 -12 d s 1968 812 m -126 -127 d s 1956 815 m -129 -130 d s 1948 822 m -136 -137 d s 1942 832 m -146 -147 d s 1929 833 m -148 -148 d s 1916 835 m -1 X s 1912 831
 m -146 -146 d s 1895 829 m -144 -144 d s 1888 837 m -152 -152 d s 1888 853 m -167 -168 d s 1884 864 m -10 -10 d s 1867 846 m -161 -161 d s 1857 852 m -10 -10 d s 1846 841 m -155 -156 d s 1824 834 m -148 -149 d s 1819 844 m -158 -159 d s 1813 853 m
 -158 -159 d s 1806 861 m -28 -28 d s 1772 827 m -117 -118 d s 1793 864 m -15 -15 d s 1765 835 m -110 -110 d s 1792 878 m -14 -14 d s 1765 850 m -110 -110 d s 1791 892 m -13 -13 d s 1765 865 m -14 -14 d s 1746 846 m -91 -91 d s 1737 853 m -82 -83 d s
 1737 868 m -13 -14 d s 1715 845 m -60 -60 d s 1735 881 m -11 -12 d s 1705 851 m -9 -9 d s 1694 840 m -39 -40 d s 1669 830 m -14 -14 d s 1669 845 m -14 -14 d s 1661 852 m -6 -6 d s 6 lw 1655 852 m 14 X -22 Y 14 X 10 Y 13 X 11 Y 14 X -6 Y 14 X 36 Y 13
 X -35 Y 14 X 19 Y 14 X -38 Y 13 X 65 Y 14 X -28 Y 14 X -11 Y 13 X -19 Y 14 X 7 Y 14 X 11 Y 13 X -6 Y 14 X 18 Y 14 X -35 Y 13 X 2 Y 14 X 4 Y 14 X -3 Y 14 X -10 Y 13 X -10 Y 14 X 14 Y 14 X -20 Y 13 X -8 Y 14 X 5 Y 14 X 11 Y 13 X -3 Y 14 X 14 Y 14 X
 -30 Y 13 X 16 Y 14 X -32 Y 14 X 17 Y 13 X 12 Y 14 X -23 Y 14 X -7 Y 13 X -23 Y 14 X -46 Y 14 X -24 Y 13 X s black 3 lw 1655 685 m 547 X s 1709 698 m -13 Y s 1722 691 m -6 Y s 1735 691 m -6 Y s 1749 691 m -6 Y s 1762 698 m -13 Y s 1776 691 m -6 Y s
 1789 691 m -6 Y s 1802 691 m -6 Y s 1816 698 m -13 Y s 1829 691 m -6 Y s 1842 691 m -6 Y s 1856 691 m -6 Y s 1869 698 m -13 Y s 1883 691 m -6 Y s 1896 691 m -6 Y s 1909 691 m -6 Y s 1923 698 m -13 Y s 1936 691 m -6 Y s 1949 691 m -6 Y s 1963 691 m
 -6 Y s 1976 698 m -13 Y s 1989 691 m -6 Y s 2003 691 m -6 Y s 2016 691 m -6 Y s 2030 698 m -13 Y s 2043 691 m -6 Y s 2056 691 m -6 Y s 2070 691 m -6 Y s 2083 698 m -13 Y s 2096 691 m -6 Y s 2110 691 m -6 Y s 2123 691 m -6 Y s 2137 698 m -13 Y s 2150
 691 m -6 Y s 2163 691 m -6 Y s 2177 691 m -6 Y s 2190 698 m -13 Y s 1709 698 m -13 Y s 1695 691 m -6 Y s 1682 691 m -6 Y s 1669 691 m -6 Y s 2190 698 m -13 Y s 1655 1114 m 547 X s 1709 1100 m 14 Y s 1722 1107 m 7 Y s 1735 1107 m 7 Y s 1749 1107 m 7
 Y s 1762 1100 m 14 Y s 1776 1107 m 7 Y s 1789 1107 m 7 Y s 1802 1107 m 7 Y s 1816 1100 m 14 Y s 1829 1107 m 7 Y s 1842 1107 m 7 Y s 1856 1107 m 7 Y s 1869 1100 m 14 Y s 1883 1107 m 7 Y s 1896 1107 m 7 Y s 1909 1107 m 7 Y s 1923 1100 m 14 Y s 1936
 1107 m 7 Y s 1949 1107 m 7 Y s 1963 1107 m 7 Y s 1976 1100 m 14 Y s 1989 1107 m 7 Y s 2003 1107 m 7 Y s 2016 1107 m 7 Y s 2030 1100 m 14 Y s 2043 1107 m 7 Y s 2056 1107 m 7 Y s 2070 1107 m 7 Y s 2083 1100 m 14 Y s 2096 1107 m 7 Y s 2110 1107 m 7 Y s
 2123 1107 m 7 Y s 2137 1100 m 14 Y s 2150 1107 m 7 Y s 2163 1107 m 7 Y s 2177 1107 m 7 Y s 2190 1100 m 14 Y s 1709 1100 m 14 Y s 1695 1107 m 7 Y s 1682 1107 m 7 Y s 1669 1107 m 7 Y s 2190 1100 m 14 Y s 1655 685 m 429 Y s 1671 685 m -16 X s 1663 699
 m -8 X s 1663 712 m -8 X s 1663 726 m -8 X s 1671 740 m -16 X s 1663 754 m -8 X s 1663 768 m -8 X s 1663 782 m -8 X s 1671 796 m -16 X s 1663 810 m -8 X s 1663 824 m -8 X s 1663 838 m -8 X s 1671 852 m -16 X s 1663 866 m -8 X s 1663 880 m -8 X s
 1663 893 m -8 X s 1671 907 m -16 X s 1663 921 m -8 X s 1663 935 m -8 X s 1663 949 m -8 X s 1671 963 m -16 X s 1663 977 m -8 X s 1663 991 m -8 X s 1663 1005 m -8 X s 1671 1019 m -16 X s 1663 1033 m -8 X s 1663 1047 m -8 X s 1663 1061 m -8 X s 1671
 1075 m -16 X s 1671 1075 m -16 X s 1663 1088 m -8 X s 1663 1102 m -8 X s 2202 685 m 429 Y s 2186 685 m 16 X s 2194 699 m 8 X s 2194 712 m 8 X s 2194 726 m 8 X s 2186 740 m 16 X s 2194 754 m 8 X s 2194 768 m 8 X s 2194 782 m 8 X s 2186 796 m 16 X s
 2194 810 m 8 X s 2194 824 m 8 X s 2194 838 m 8 X s 2186 852 m 16 X s 2194 866 m 8 X s 2194 880 m 8 X s 2194 893 m 8 X s 2186 907 m 16 X s 2194 921 m 8 X s 2194 935 m 8 X s 2194 949 m 8 X s 2186 963 m 16 X s 2194 977 m 8 X s 2194 991 m 8 X s 2194
 1005 m 8 X s 2186 1019 m 16 X s 2194 1033 m 8 X s 2194 1047 m 8 X s 2194 1061 m 8 X s 2186 1075 m 16 X s 2186 1075 m 16 X s 2194 1088 m 8 X s 2194 1102 m 8 X s
 gsave  711 567 1534 603 C 2230.83 682.347 t 90 r /Helvetica-Bold findfont 19.9602 sf 0 0 m (U/O\255flow \(S,B\): \(0.0, 0.0\)% / \(0.0, 0.0\)%) show NC gr  0.490196 0.545098 0.615686 c 0.364706 0.419608 0.490196 c 332 38 1542 1130 bf 0.490196
 0.545098 0.615686 c 1542 1130 m 332 X s 1874 1130 m 38 Y s 1874 1168 m -332 X s 1542 1168 m -38 Y s 1 1 1 c black 1 1 1 c
 gsave  711 567 1534 603 C 1545.91 1142.38 t 0 r /Helvetica-Bold findfont 28.5146 sf 0 0 m (Input variable: bb.H1_l1) show NC gr  0.490196 0.545098 0.615686 c 0.941176 0.941176 0.941176 c 710 567 23 12 bf black 1 1 0.992157 c 548 429 143 94 bf black
 548 429 143 94 bl 0 0 0.933333 c 6 lw 0.49 0.6 0.82 c black 3 lw 0.49 0.6 0.82 c 143 94 m 28 X 1 Y 14 X -1 Y 27 X 1 Y 14 X -1 Y 27 X 2 Y 14 X -1 Y 13 X 184 Y 14 X 205 Y 14 X -190 Y 13 X -44 Y 14 X -9 Y 14 X -26 Y 13 X -26 Y 14 X -3 Y 14 X -6 Y 13 X
 5 Y 14 X -17 Y 14 X 2 Y 13 X -12 Y 14 X 2 Y 27 X -9 Y 14 X 10 Y 14 X -3 Y 13 X 4 Y 14 X -29 Y 14 X -6 Y 13 X 4 Y 14 X -9 Y 14 X -12 Y 14 X 8 Y 13 X -6 Y 14 X -5 Y 14 X -7 Y 13 X -4 Y 14 X -2 Y 14 X f 6 lw 0 0 0.933333 c 0.49 0.6 0.82 c 0 0 0.933333
 c 143 94 m 28 X 1 Y 14 X -1 Y 27 X 1 Y 14 X -1 Y 27 X 2 Y 14 X -1 Y 13 X 184 Y 14 X 205 Y 14 X -190 Y 13 X -44 Y 14 X -9 Y 14 X -26 Y 13 X -26 Y 14 X -3 Y 14 X -6 Y 13 X 5 Y 14 X -17 Y 14 X 2 Y 13 X -12 Y 14 X 2 Y 27 X -9 Y 14 X 10 Y 14 X -3 Y 13 X
 4 Y 14 X -29 Y 14 X -6 Y 13 X 4 Y 14 X -9 Y 14 X -12 Y 14 X 8 Y 13 X -6 Y 14 X -5 Y 14 X -7 Y 13 X -4 Y 14 X -2 Y 14 X s black 3 lw 143 94 m 548 X s 197 107 m -13 Y s 219 100 m -6 Y s 241 100 m -6 Y s 262 100 m -6 Y s 284 100 m -6 Y s 305 107 m -13
 Y s 327 100 m -6 Y s 348 100 m -6 Y s 370 100 m -6 Y s 392 100 m -6 Y s 413 107 m -13 Y s 435 100 m -6 Y s 456 100 m -6 Y s 478 100 m -6 Y s 499 100 m -6 Y s 521 107 m -13 Y s 543 100 m -6 Y s 564 100 m -6 Y s 586 100 m -6 Y s 607 100 m -6 Y s 629
 107 m -13 Y s 197 107 m -13 Y s 176 100 m -6 Y s 154 100 m -6 Y s 629 107 m -13 Y s 650 100 m -6 Y s 672 100 m -6 Y s
 gsave  710 567 23 12 C 184.714 65.3603 t 0 r /Helvetica findfont 25.6631 sf 0 0 m (0.2) show NC gr 
 gsave  710 567 23 12 C 170.505 65.3603 t 0 r /Symbol findfont 25.6631 sf 0 0 m (-) show NC gr 
 gsave  710 567 23 12 C 292.7 65.3603 t 0 r /Helvetica findfont 25.6631 sf 0 0 m (0.1) show NC gr 
 gsave  710 567 23 12 C 281.333 65.3603 t 0 r /Symbol findfont 25.6631 sf 0 0 m (-) show NC gr 
 gsave  710 567 23 12 C 403.529 65.3603 t 0 r /Helvetica findfont 25.6631 sf 0 0 m (0) show NC gr 
 gsave  710 567 23 12 C 502.99 65.3603 t 0 r /Helvetica findfont 25.6631 sf 0 0 m (0.1) show NC gr 
 gsave  710 567 23 12 C 610.976 65.3603 t 0 r /Helvetica findfont 25.6631 sf 0 0 m (0.2) show NC gr 
 gsave  710 567 23 12 C 574.034 22.734 t 0 r /Helvetica findfont 28.5146 sf 0 0 m (bb.HY_l3) show NC gr  143 523 m 548 X s 197 509 m 14 Y s 219 516 m 7 Y s 241 516 m 7 Y s 262 516 m 7 Y s 284 516 m 7 Y s 305 509 m 14 Y s 327 516 m 7 Y s 348 516 m 7 Y
 s 370 516 m 7 Y s 392 516 m 7 Y s 413 509 m 14 Y s 435 516 m 7 Y s 456 516 m 7 Y s 478 516 m 7 Y s 499 516 m 7 Y s 521 509 m 14 Y s 543 516 m 7 Y s 564 516 m 7 Y s 586 516 m 7 Y s 607 516 m 7 Y s 629 509 m 14 Y s 197 509 m 14 Y s 176 516 m 7 Y s 154
 516 m 7 Y s 629 509 m 14 Y s 650 516 m 7 Y s 672 516 m 7 Y s 143 94 m 429 Y s 160 94 m -17 X s 152 109 m -9 X s 152 124 m -9 X s 152 139 m -9 X s 160 155 m -17 X s 152 170 m -9 X s 152 185 m -9 X s 152 200 m -9 X s 160 215 m -17 X s 152 231 m -9 X s
 152 246 m -9 X s 152 261 m -9 X s 160 276 m -17 X s 152 292 m -9 X s 152 307 m -9 X s 152 322 m -9 X s 160 337 m -17 X s 152 353 m -9 X s 152 368 m -9 X s 152 383 m -9 X s 160 398 m -17 X s 152 414 m -9 X s 152 429 m -9 X s 152 444 m -9 X s 160 459
 m -17 X s 152 475 m -9 X s 152 490 m -9 X s 152 505 m -9 X s 160 520 m -17 X s 160 520 m -17 X s
 gsave  710 567 23 12 C 119.354 82.4108 t 0 r /Helvetica findfont 25.6631 sf 0 0 m (0) show NC gr 
 gsave  710 567 23 12 C 119.354 144.929 t 0 r /Helvetica findfont 25.6631 sf 0 0 m (2) show NC gr 
 gsave  710 567 23 12 C 119.354 204.606 t 0 r /Helvetica findfont 25.6631 sf 0 0 m (4) show NC gr 
 gsave  710 567 23 12 C 119.354 267.125 t 0 r /Helvetica findfont 25.6631 sf 0 0 m (6) show NC gr 
 gsave  710 567 23 12 C 119.354 326.801 t 0 r /Helvetica findfont 25.6631 sf 0 0 m (8) show NC gr 
 gsave  710 567 23 12 C 105.145 389.32 t 0 r /Helvetica findfont 25.6631 sf 0 0 m (10) show NC gr 
 gsave  710 567 23 12 C 105.145 448.997 t 0 r /Helvetica findfont 25.6631 sf 0 0 m (12) show NC gr 
 gsave  710 567 23 12 C 105.145 511.515 t 0 r /Helvetica findfont 25.6631 sf 0 0 m (14) show NC gr 
 gsave  710 567 23 12 C 45.468 431.946 t 90 r /Helvetica findfont 28.5146 sf 0 0 m (0.0127 ) show NC gr 
 gsave  710 567 23 12 C 31.2593 429.104 t 90 r /Helvetica findfont 19.9602 sf 0 0 m ( ) show NC gr 
 gsave  710 567 23 12 C 45.468 417.737 t 90 r /Helvetica findfont 28.5146 sf 0 0 m (/) show NC gr 
 gsave  710 567 23 12 C 53.9933 414.896 t 90 r /Helvetica findfont 19.9602 sf 0 0 m ( ) show NC gr 
 gsave  710 567 23 12 C 45.468 309.751 t 90 r /Helvetica findfont 28.5146 sf 0 0 m (\(1/N\) dN) show NC gr  691 94 m 429 Y s 674 94 m 17 X s 683 109 m 8 X s 683 124 m 8 X s 683 139 m 8 X s 674 155 m 17 X s 683 170 m 8 X s 683 185 m 8 X s 683 200 m 8
 X s 674 215 m 17 X s 683 231 m 8 X s 683 246 m 8 X s 683 261 m 8 X s 674 276 m 17 X s 683 292 m 8 X s 683 307 m 8 X s 683 322 m 8 X s 674 337 m 17 X s 683 353 m 8 X s 683 368 m 8 X s 683 383 m 8 X s 674 398 m 17 X s 683 414 m 8 X s 683 429 m 8 X s
 683 444 m 8 X s 674 459 m 17 X s 683 475 m 8 X s 683 490 m 8 X s 683 505 m 8 X s 674 520 m 17 X s 674 520 m 17 X s 0.490196 0.545098 0.615686 c 0.364706 0.419608 0.490196 c 338 37 30 539 bf 0.490196 0.545098 0.615686 c 30 539 m 338 X s 368 539 m 37
 Y s 368 576 m -338 X s 30 576 m -37 Y s 1 1 1 c black 1 1 1 c
 gsave  710 567 23 12 C 34.101 551.299 t 0 r /Helvetica-Bold findfont 28.5146 sf 0 0 m (Input variable: bb.HY_l3) show NC gr  1 0 0 c 6 lw black 3 lw 1 0 0 c 677 94 m s 663 95 m -1 -1 d s 647 94 m -1 X s 634 97 m -3 -3 d s 620 97 m -4 -3 d s 603 95 m
 -2 -1 d s 589 96 m -3 -2 d s 576 98 m -5 -4 d s 561 98 m -5 -4 d s 551 104 m -10 -10 d s 540 108 m -14 -14 d s 540 123 m -29 -29 d s 540 138 m -44 -44 d s 540 153 m -59 -59 d s 540 169 m -74 -75 d s 540 184 m -90 -90 d s 540 199 m -105 -105 d s 540
 214 m -120 -120 d s 540 229 m -135 -135 d s 540 245 m -150 -151 d s 540 260 m -27 -28 d s 510 230 m -11 -12 d s 494 213 m -9 -8 d s 480 199 m -105 -105 d s 540 275 m -27 -28 d s 461 195 m -3 -3 d s 452 186 m -92 -92 d s 540 290 m -27 -27 d s 429 178
 m -84 -84 d s 540 305 m -14 -13 d s 517 282 m -4 -4 d s 417 181 m -87 -87 d s 540 320 m -14 -13 d s 390 169 m -75 -75 d s 540 336 m -14 -14 d s 386 181 m -86 -87 d s 540 351 m -14 -14 d s 371 180 m -86 -86 d s 540 366 m -14 -14 d s 354 179 m -84 -85
 d s 533 374 m -7 -7 d s 349 188 m -69 -69 d s 268 107 m -13 -13 d s 335 190 m s 329 184 m -49 -49 d s 251 105 m -12 -11 d s 321 191 m -41 -41 d s 239 108 m -15 -14 d s 321 206 m -41 -41 d s 226 110 m -17 -16 d s 321 221 m -41 -41 d s 213 112 m -1 -1
 d s 211 110 m -17 -16 d s 308 223 m -14 -14 d s 282 197 m -2 -2 d s 191 105 m -12 -11 d s 308 238 m -14 -14 d s 174 104 m -10 -10 d s 308 253 m -14 -14 d s 160 105 m -11 -11 d s 308 268 m -14 -13 d s 145 105 m -2 -2 d s 308 284 m -14 -14 d s 307 298
 m -13 -13 d s 6 lw 143 105 m 28 X -1 Y 14 X 1 Y 13 X 5 Y 14 X 2 Y 14 X -4 Y 13 X -3 Y 14 X 1 Y 14 X 1 Y 13 X 90 Y 14 X 101 Y 14 X -77 Y 13 X -37 Y 14 X 6 Y 14 X -11 Y 13 X 1 Y 14 X 1 Y 14 X -12 Y 13 X 12 Y 14 X -3 Y 14 X 1 Y 13 X 7 Y 14 X 9 Y 14 X 4
 Y 13 X 14 Y 14 X 17 Y 14 X 52 Y 13 X 92 Y 14 X -270 Y 14 X -6 Y 27 X -2 Y 14 X -1 Y 14 X 2 Y 27 X -3 Y 14 X 1 Y 13 X -1 Y 28 X s black 3 lw 143 94 m 548 X s 197 107 m -13 Y s 219 100 m -6 Y s 241 100 m -6 Y s 262 100 m -6 Y s 284 100 m -6 Y s 305
 107 m -13 Y s 327 100 m -6 Y s 348 100 m -6 Y s 370 100 m -6 Y s 392 100 m -6 Y s 413 107 m -13 Y s 435 100 m -6 Y s 456 100 m -6 Y s 478 100 m -6 Y s 499 100 m -6 Y s 521 107 m -13 Y s 543 100 m -6 Y s 564 100 m -6 Y s 586 100 m -6 Y s 607 100 m -6
 Y s 629 107 m -13 Y s 197 107 m -13 Y s 176 100 m -6 Y s 154 100 m -6 Y s 629 107 m -13 Y s 650 100 m -6 Y s 672 100 m -6 Y s 143 523 m 548 X s 197 509 m 14 Y s 219 516 m 7 Y s 241 516 m 7 Y s 262 516 m 7 Y s 284 516 m 7 Y s 305 509 m 14 Y s 327 516
 m 7 Y s 348 516 m 7 Y s 370 516 m 7 Y s 392 516 m 7 Y s 413 509 m 14 Y s 435 516 m 7 Y s 456 516 m 7 Y s 478 516 m 7 Y s 499 516 m 7 Y s 521 509 m 14 Y s 543 516 m 7 Y s 564 516 m 7 Y s 586 516 m 7 Y s 607 516 m 7 Y s 629 509 m 14 Y s 197 509 m 14 Y
 s 176 516 m 7 Y s 154 516 m 7 Y s 629 509 m 14 Y s 650 516 m 7 Y s 672 516 m 7 Y s 143 94 m 429 Y s 160 94 m -17 X s 152 109 m -9 X s 152 124 m -9 X s 152 139 m -9 X s 160 155 m -17 X s 152 170 m -9 X s 152 185 m -9 X s 152 200 m -9 X s 160 215 m
 -17 X s 152 231 m -9 X s 152 246 m -9 X s 152 261 m -9 X s 160 276 m -17 X s 152 292 m -9 X s 152 307 m -9 X s 152 322 m -9 X s 160 337 m -17 X s 152 353 m -9 X s 152 368 m -9 X s 152 383 m -9 X s 160 398 m -17 X s 152 414 m -9 X s 152 429 m -9 X s
 152 444 m -9 X s 160 459 m -17 X s 152 475 m -9 X s 152 490 m -9 X s 152 505 m -9 X s 160 520 m -17 X s 160 520 m -17 X s 691 94 m 429 Y s 674 94 m 17 X s 683 109 m 8 X s 683 124 m 8 X s 683 139 m 8 X s 674 155 m 17 X s 683 170 m 8 X s 683 185 m 8 X
 s 683 200 m 8 X s 674 215 m 17 X s 683 231 m 8 X s 683 246 m 8 X s 683 261 m 8 X s 674 276 m 17 X s 683 292 m 8 X s 683 307 m 8 X s 683 322 m 8 X s 674 337 m 17 X s 683 353 m 8 X s 683 368 m 8 X s 683 383 m 8 X s 674 398 m 17 X s 683 414 m 8 X s 683
 429 m 8 X s 683 444 m 8 X s 674 459 m 17 X s 683 475 m 8 X s 683 490 m 8 X s 683 505 m 8 X s 674 520 m 17 X s 674 520 m 17 X s
 gsave  710 567 23 12 C 719.017 91.2634 t 90 r /Helvetica-Bold findfont 19.9602 sf 0 0 m (U/O\255flow \(S,B\): \(0.0, 0.0\)% / \(0.0, 0.0\)%) show NC gr  0.490196 0.545098 0.615686 c 0.364706 0.419608 0.490196 c 338 37 30 539 bf 0.490196 0.545098
 0.615686 c 30 539 m 338 X s 368 539 m 37 Y s 368 576 m -338 X s 30 576 m -37 Y s 1 1 1 c black 1 1 1 c
 gsave  710 567 23 12 C 34.101 551.299 t 0 r /Helvetica-Bold findfont 28.5146 sf 0 0 m (Input variable: bb.HY_l3) show NC gr  0.490196 0.545098 0.615686 c 0.941176 0.941176 0.941176 c 710 567 779 12 bf black 1 1 0.992157 c 548 429 899 94 bf black 548
 429 899 94 bl 0 0 0.933333 c 6 lw 0.49 0.6 0.82 c black 3 lw 0.49 0.6 0.82 c 899 94 m 21 Y 14 X 71 Y 14 X 44 Y 13 X 62 Y 14 X 37 Y 14 X 23 Y 13 X 45 Y 14 X 52 Y 14 X -11 Y 13 X 4 Y 14 X -21 Y 14 X -39 Y 14 X -44 Y 13 X -53 Y 14 X -8 Y 14 X -38 Y 13
 X -21 Y 14 X -28 Y 14 X -16 Y 13 X 6 Y 14 X -31 Y 14 X 4 Y 13 X -6 Y 14 X -1 Y 14 X -13 Y 13 X -14 Y 14 X 5 Y 14 X 1 Y 13 X -10 Y 14 X -6 Y 14 X -4 Y 13 X 2 Y 14 X -3 Y 14 X -7 Y 13 X 2 Y 14 X -5 Y 14 X 1 Y 13 X -1 Y 42 X f 6 lw 0 0 0.933333 c 0.49
 0.6 0.82 c 0 0 0.933333 c 899 115 m 14 X 71 Y 14 X 44 Y 13 X 62 Y 14 X 37 Y 14 X 23 Y 13 X 45 Y 14 X 52 Y 14 X -11 Y 13 X 4 Y 14 X -21 Y 14 X -39 Y 14 X -44 Y 13 X -53 Y 14 X -8 Y 14 X -38 Y 13 X -21 Y 14 X -28 Y 14 X -16 Y 13 X 6 Y 14 X -31 Y 14 X
 4 Y 13 X -6 Y 14 X -1 Y 14 X -13 Y 13 X -14 Y 14 X 5 Y 14 X 1 Y 13 X -10 Y 14 X -6 Y 14 X -4 Y 13 X 2 Y 14 X -3 Y 14 X -7 Y 13 X 2 Y 14 X -5 Y 14 X 1 Y 13 X -1 Y 42 X s black 3 lw 899 94 m 548 X s 971 107 m -13 Y s 985 100 m -6 Y s 1000 100 m -6 Y s
 1014 100 m -6 Y s 1029 100 m -6 Y s 1043 107 m -13 Y s 1058 100 m -6 Y s 1072 100 m -6 Y s 1087 100 m -6 Y s 1101 100 m -6 Y s 1115 107 m -13 Y s 1130 100 m -6 Y s 1144 100 m -6 Y s 1159 100 m -6 Y s 1173 100 m -6 Y s 1188 107 m -13 Y s 1202 100 m
 -6 Y s 1217 100 m -6 Y s 1231 100 m -6 Y s 1246 100 m -6 Y s 1260 107 m -13 Y s 1275 100 m -6 Y s 1289 100 m -6 Y s 1304 100 m -6 Y s 1318 100 m -6 Y s 1333 107 m -13 Y s 1347 100 m -6 Y s 1361 100 m -6 Y s 1376 100 m -6 Y s 1390 100 m -6 Y s 1405
 107 m -13 Y s 971 107 m -13 Y s 956 100 m -6 Y s 942 100 m -6 Y s 927 100 m -6 Y s 913 100 m -6 Y s 1405 107 m -13 Y s 1419 100 m -6 Y s 1434 100 m -6 Y s
 gsave  710 567 779 12 C 969.037 65.3603 t 0 r /Helvetica findfont 25.6631 sf 0 0 m (1) show NC gr 
 gsave  710 567 779 12 C 954.828 65.3603 t 0 r /Symbol findfont 25.6631 sf 0 0 m (-) show NC gr 
 gsave  710 567 779 12 C 1034.4 65.3603 t 0 r /Helvetica findfont 25.6631 sf 0 0 m (0) show NC gr 
 gsave  710 567 779 12 C 1108.28 65.3603 t 0 r /Helvetica findfont 25.6631 sf 0 0 m (1) show NC gr 
 gsave  710 567 779 12 C 1176.48 65.3603 t 0 r /Helvetica findfont 25.6631 sf 0 0 m (2) show NC gr 
 gsave  710 567 779 12 C 1250.37 65.3603 t 0 r /Helvetica findfont 25.6631 sf 0 0 m (3) show NC gr 
 gsave  710 567 779 12 C 1321.41 65.3603 t 0 r /Helvetica findfont 25.6631 sf 0 0 m (4) show NC gr 
 gsave  710 567 779 12 C 1395.3 65.3603 t 0 r /Helvetica findfont 25.6631 sf 0 0 m (5) show NC gr 
 gsave  710 567 779 12 C 1307.21 25.5758 t 0 r /Helvetica findfont 28.5146 sf 0 0 m (yybb.H1_l2) show NC gr  899 523 m 548 X s 971 509 m 14 Y s 985 516 m 7 Y s 1000 516 m 7 Y s 1014 516 m 7 Y s 1029 516 m 7 Y s 1043 509 m 14 Y s 1058 516 m 7 Y s 1072
 516 m 7 Y s 1087 516 m 7 Y s 1101 516 m 7 Y s 1115 509 m 14 Y s 1130 516 m 7 Y s 1144 516 m 7 Y s 1159 516 m 7 Y s 1173 516 m 7 Y s 1188 509 m 14 Y s 1202 516 m 7 Y s 1217 516 m 7 Y s 1231 516 m 7 Y s 1246 516 m 7 Y s 1260 509 m 14 Y s 1275 516 m 7
 Y s 1289 516 m 7 Y s 1304 516 m 7 Y s 1318 516 m 7 Y s 1333 509 m 14 Y s 1347 516 m 7 Y s 1361 516 m 7 Y s 1376 516 m 7 Y s 1390 516 m 7 Y s 1405 509 m 14 Y s 971 509 m 14 Y s 956 516 m 7 Y s 942 516 m 7 Y s 927 516 m 7 Y s 913 516 m 7 Y s 1405 509
 m 14 Y s 1419 516 m 7 Y s 1434 516 m 7 Y s 899 94 m 429 Y s 915 94 m -16 X s 907 111 m -8 X s 907 128 m -8 X s 907 144 m -8 X s 907 161 m -8 X s 915 178 m -16 X s 907 195 m -8 X s 907 212 m -8 X s 907 229 m -8 X s 907 246 m -8 X s 915 263 m -16 X s
 907 280 m -8 X s 907 297 m -8 X s 907 314 m -8 X s 907 331 m -8 X s 915 348 m -16 X s 907 365 m -8 X s 907 382 m -8 X s 907 399 m -8 X s 907 416 m -8 X s 915 433 m -16 X s 907 450 m -8 X s 907 467 m -8 X s 907 484 m -8 X s 907 501 m -8 X s 915 518 m
 -16 X s 915 518 m -16 X s
 gsave  710 567 779 12 C 875.259 82.4108 t 0 r /Helvetica findfont 25.6631 sf 0 0 m (0) show NC gr 
 gsave  710 567 779 12 C 858.208 167.663 t 0 r /Helvetica findfont 25.6631 sf 0 0 m (0.1) show NC gr 
 gsave  710 567 779 12 C 855.367 252.916 t 0 r /Helvetica findfont 25.6631 sf 0 0 m (0.2) show NC gr 
 gsave  710 567 779 12 C 855.367 338.168 t 0 r /Helvetica findfont 25.6631 sf 0 0 m (0.3) show NC gr 
 gsave  710 567 779 12 C 855.367 423.421 t 0 r /Helvetica findfont 25.6631 sf 0 0 m (0.4) show NC gr 
 gsave  710 567 779 12 C 855.367 508.673 t 0 r /Helvetica findfont 25.6631 sf 0 0 m (0.5) show NC gr 
 gsave  710 567 779 12 C 801.374 446.155 t 90 r /Helvetica findfont 28.5146 sf 0 0 m (0.189 ) show NC gr 
 gsave  710 567 779 12 C 787.165 443.313 t 90 r /Helvetica findfont 19.9602 sf 0 0 m ( ) show NC gr 
 gsave  710 567 779 12 C 801.374 431.946 t 90 r /Helvetica findfont 28.5146 sf 0 0 m (/) show NC gr 
 gsave  710 567 779 12 C 809.899 429.104 t 90 r /Helvetica findfont 19.9602 sf 0 0 m ( ) show NC gr 
 gsave  710 567 779 12 C 801.374 323.96 t 90 r /Helvetica findfont 28.5146 sf 0 0 m (\(1/N\) dN) show NC gr  1447 94 m 429 Y s 1430 94 m 17 X s 1438 111 m 9 X s 1438 128 m 9 X s 1438 144 m 9 X s 1438 161 m 9 X s 1430 178 m 17 X s 1438 195 m 9 X s
 1438 212 m 9 X s 1438 229 m 9 X s 1438 246 m 9 X s 1430 263 m 17 X s 1438 280 m 9 X s 1438 297 m 9 X s 1438 314 m 9 X s 1438 331 m 9 X s 1430 348 m 17 X s 1438 365 m 9 X s 1438 382 m 9 X s 1438 399 m 9 X s 1438 416 m 9 X s 1430 433 m 17 X s 1438 450
 m 9 X s 1438 467 m 9 X s 1438 484 m 9 X s 1438 501 m 9 X s 1430 518 m 17 X s 1430 518 m 17 X s 0.490196 0.545098 0.615686 c 0.364706 0.419608 0.490196 c 366 37 786 539 bf 0.490196 0.545098 0.615686 c 786 539 m 366 X s 1152 539 m 37 Y s 1152 576 m
 -366 X s 786 576 m -37 Y s 1 1 1 c black 1 1 1 c
 gsave  710 567 779 12 C 790.007 551.299 t 0 r /Helvetica-Bold findfont 28.5146 sf 0 0 m (Input variable: yybb.H1_l2) show NC gr  1 0 0 c 6 lw black 3 lw 1 0 0 c 1432 94 m s 1419 95 m -2 -1 d s 1405 97 m -3 -3 d s 1389 96 m -2 -2 d s 1378 99 m -6 -5
 d s 1370 107 m -13 -13 d s 1352 104 m -10 -10 d s 1341 108 m -14 -14 d s 1327 108 m -15 -14 d s 1323 120 m -26 -26 d s 1298 110 m -16 -16 d s 1294 121 m -27 -27 d s 1272 115 m -20 -21 d s 1260 117 m -23 -23 d s 1255 127 m -34 -33 d s 1244 132 m -38
 -38 d s 1232 134 m -41 -40 d s 1216 133 m -40 -39 d s 1206 139 m -45 -45 d s 1200 148 m -54 -54 d s 1189 152 m -58 -58 d s 1184 162 m -68 -68 d s 1173 166 m -72 -72 d s 1173 181 m -87 -87 d s 1159 183 m -88 -89 d s 1148 187 m -92 -93 d s 1146 199 m
 -105 -105 d s 1146 214 m -120 -120 d s 1139 223 m -129 -129 d s 1132 231 m -137 -137 d s 1119 234 m -139 -140 d s 1118 248 m -153 -154 d s 1118 263 m -168 -169 d s 1109 269 m -174 -175 d s 1105 279 m -185 -185 d s 1105 295 m -200 -201 d s 1104 309 m
 -191 -192 d s 1091 311 m -178 -179 d s 1091 326 m -164 -165 d s 923 158 m -10 -11 d s 1078 329 m -151 -153 d s 1077 343 m -150 -152 d s 1077 358 m -123 -124 d s 943 223 m -3 -3 d s 1077 373 m -123 -124 d s 1070 381 m -102 -103 d s 960 270 m -6 -5 d
 s 1064 390 m -96 -97 d s 1061 403 m -80 -81 d s 976 316 m -8 -7 d s 1050 407 m -55 -56 d s 995 351 m -14 -13 d s 1050 422 m -41 -42 d s 1050 437 m -41 -41 d s 1046 448 m -37 -37 d s 1036 453 m -27 -27 d s 1024 457 m -15 -16 d s 1022 470 m -13 -14 d
 s 1021 484 m -12 -13 d s 6 lw 899 103 m 14 X 55 Y 14 X 48 Y 13 X 17 Y 14 X 47 Y 14 X 46 Y 13 X 35 Y 14 X 15 Y 14 X 118 Y 13 X -27 Y 14 X -9 Y 14 X -45 Y 14 X -22 Y 13 X -52 Y 14 X -20 Y 14 X -40 Y 13 X -35 Y 14 X -11 Y 14 X -36 Y 13 X -5 Y 14 X -20
 Y 14 X -10 Y 13 X -13 Y 14 X -6 Y 14 X 1 Y 13 X -2 Y 14 X -15 Y 14 X -2 Y 13 X 6 Y 14 X -11 Y 14 X 10 Y 13 X -12 Y 28 X -4 Y 13 X 3 Y 14 X -11 Y 14 X 1 Y 13 X -2 Y 14 X -1 Y 28 X s black 3 lw 899 94 m 548 X s 971 107 m -13 Y s 985 100 m -6 Y s 1000
 100 m -6 Y s 1014 100 m -6 Y s 1029 100 m -6 Y s 1043 107 m -13 Y s 1058 100 m -6 Y s 1072 100 m -6 Y s 1087 100 m -6 Y s 1101 100 m -6 Y s 1115 107 m -13 Y s 1130 100 m -6 Y s 1144 100 m -6 Y s 1159 100 m -6 Y s 1173 100 m -6 Y s 1188 107 m -13 Y s
 1202 100 m -6 Y s 1217 100 m -6 Y s 1231 100 m -6 Y s 1246 100 m -6 Y s 1260 107 m -13 Y s 1275 100 m -6 Y s 1289 100 m -6 Y s 1304 100 m -6 Y s 1318 100 m -6 Y s 1333 107 m -13 Y s 1347 100 m -6 Y s 1361 100 m -6 Y s 1376 100 m -6 Y s 1390 100 m -6
 Y s 1405 107 m -13 Y s 971 107 m -13 Y s 956 100 m -6 Y s 942 100 m -6 Y s 927 100 m -6 Y s 913 100 m -6 Y s 1405 107 m -13 Y s 1419 100 m -6 Y s 1434 100 m -6 Y s 899 523 m 548 X s 971 509 m 14 Y s 985 516 m 7 Y s 1000 516 m 7 Y s 1014 516 m 7 Y s
 1029 516 m 7 Y s 1043 509 m 14 Y s 1058 516 m 7 Y s 1072 516 m 7 Y s 1087 516 m 7 Y s 1101 516 m 7 Y s 1115 509 m 14 Y s 1130 516 m 7 Y s 1144 516 m 7 Y s 1159 516 m 7 Y s 1173 516 m 7 Y s 1188 509 m 14 Y s 1202 516 m 7 Y s 1217 516 m 7 Y s 1231 516
 m 7 Y s 1246 516 m 7 Y s 1260 509 m 14 Y s 1275 516 m 7 Y s 1289 516 m 7 Y s 1304 516 m 7 Y s 1318 516 m 7 Y s 1333 509 m 14 Y s 1347 516 m 7 Y s 1361 516 m 7 Y s 1376 516 m 7 Y s 1390 516 m 7 Y s 1405 509 m 14 Y s 971 509 m 14 Y s 956 516 m 7 Y s
 942 516 m 7 Y s 927 516 m 7 Y s 913 516 m 7 Y s 1405 509 m 14 Y s 1419 516 m 7 Y s 1434 516 m 7 Y s 899 94 m 429 Y s 915 94 m -16 X s 907 111 m -8 X s 907 128 m -8 X s 907 144 m -8 X s 907 161 m -8 X s 915 178 m -16 X s 907 195 m -8 X s 907 212 m -8
 X s 907 229 m -8 X s 907 246 m -8 X s 915 263 m -16 X s 907 280 m -8 X s 907 297 m -8 X s 907 314 m -8 X s 907 331 m -8 X s 915 348 m -16 X s 907 365 m -8 X s 907 382 m -8 X s 907 399 m -8 X s 907 416 m -8 X s 915 433 m -16 X s 907 450 m -8 X s 907
 467 m -8 X s 907 484 m -8 X s 907 501 m -8 X s 915 518 m -16 X s 915 518 m -16 X s 1447 94 m 429 Y s 1430 94 m 17 X s 1438 111 m 9 X s 1438 128 m 9 X s 1438 144 m 9 X s 1438 161 m 9 X s 1430 178 m 17 X s 1438 195 m 9 X s 1438 212 m 9 X s 1438 229 m
 9 X s 1438 246 m 9 X s 1430 263 m 17 X s 1438 280 m 9 X s 1438 297 m 9 X s 1438 314 m 9 X s 1438 331 m 9 X s 1430 348 m 17 X s 1438 365 m 9 X s 1438 382 m 9 X s 1438 399 m 9 X s 1438 416 m 9 X s 1430 433 m 17 X s 1438 450 m 9 X s 1438 467 m 9 X s
 1438 484 m 9 X s 1438 501 m 9 X s 1430 518 m 17 X s 1430 518 m 17 X s
 gsave  710 567 779 12 C 1474.92 91.2634 t 90 r /Helvetica-Bold findfont 19.9602 sf 0 0 m (U/O\255flow \(S,B\): \(0.0, 0.0\)% / \(0.0, 0.0\)%) show NC gr  0.490196 0.545098 0.615686 c 0.364706 0.419608 0.490196 c 366 37 786 539 bf 0.490196 0.545098
 0.615686 c 786 539 m 366 X s 1152 539 m 37 Y s 1152 576 m -366 X s 786 576 m -37 Y s 1 1 1 c black 1 1 1 c
 gsave  710 567 779 12 C 790.007 551.299 t 0 r /Helvetica-Bold findfont 28.5146 sf 0 0 m (Input variable: yybb.H1_l2) show NC gr  0.490196 0.545098 0.615686 c 0.941176 0.941176 0.941176 c 711 567 1534 12 bf black 1 1 0.992157 c 547 429 1655 94 bf
 black 547 429 1655 94 bl 0 0 0.933333 c 6 lw 0.49 0.6 0.82 c black 3 lw 0.49 0.6 0.82 c 1655 115 m 41 X 1 Y 14 X 4 Y 14 X 7 Y 13 X 17 Y 14 X 25 Y 14 X 73 Y 13 X 35 Y 14 X 68 Y 14 X 47 Y 13 X 18 Y 14 X 73 Y 14 X 2 Y 13 X -19 Y 14 X -40 Y 14 X -2 Y 13
 X -49 Y 14 X -33 Y 14 X -69 Y 14 X -21 Y 13 X -40 Y 14 X -26 Y 14 X -13 Y 13 X -22 Y 14 X -7 Y 14 X -14 Y 13 X 1 Y 14 X -11 Y 14 X -2 Y 13 X -4 Y 14 X 3 Y 14 X -1 Y 13 X -2 Y 14 X 1 Y 68 X f 6 lw 0 0 0.933333 c 0.49 0.6 0.82 c 0 0 0.933333 c 1655
 115 m 41 X 1 Y 14 X 4 Y 14 X 7 Y 13 X 17 Y 14 X 25 Y 14 X 73 Y 13 X 35 Y 14 X 68 Y 14 X 47 Y 13 X 18 Y 14 X 73 Y 14 X 2 Y 13 X -19 Y 14 X -40 Y 14 X -2 Y 13 X -49 Y 14 X -33 Y 14 X -69 Y 14 X -21 Y 13 X -40 Y 14 X -26 Y 14 X -13 Y 13 X -22 Y 14 X -7
 Y 14 X -14 Y 13 X 1 Y 14 X -11 Y 14 X -2 Y 13 X -4 Y 14 X 3 Y 14 X -1 Y 13 X -2 Y 14 X 1 Y 68 X s black 3 lw 1655 94 m 547 X s 1676 107 m -13 Y s 1697 100 m -6 Y s 1718 100 m -6 Y s 1738 100 m -6 Y s 1759 100 m -6 Y s 1780 107 m -13 Y s 1801 100 m
 -6 Y s 1822 100 m -6 Y s 1842 100 m -6 Y s 1863 100 m -6 Y s 1884 107 m -13 Y s 1905 100 m -6 Y s 1926 100 m -6 Y s 1947 100 m -6 Y s 1967 100 m -6 Y s 1988 107 m -13 Y s 2009 100 m -6 Y s 2030 100 m -6 Y s 2051 100 m -6 Y s 2071 100 m -6 Y s 2092
 107 m -13 Y s 2113 100 m -6 Y s 2134 100 m -6 Y s 2155 100 m -6 Y s 2175 100 m -6 Y s 2196 107 m -13 Y s 1676 107 m -13 Y s 2196 107 m -13 Y s
 gsave  711 567 1534 12 C 1662.42 65.3603 t 0 r /Helvetica findfont 25.6631 sf 0 0 m (0.2) show NC gr 
 gsave  711 567 1534 12 C 1648.21 65.3603 t 0 r /Symbol findfont 25.6631 sf 0 0 m (-) show NC gr 
 gsave  711 567 1534 12 C 1767.57 65.3603 t 0 r /Helvetica findfont 25.6631 sf 0 0 m (0.1) show NC gr 
 gsave  711 567 1534 12 C 1756.2 65.3603 t 0 r /Symbol findfont 25.6631 sf 0 0 m (-) show NC gr 
 gsave  711 567 1534 12 C 1872.71 65.3603 t 0 r /Helvetica findfont 25.6631 sf 0 0 m (0) show NC gr 
 gsave  711 567 1534 12 C 1969.33 65.3603 t 0 r /Helvetica findfont 25.6631 sf 0 0 m (0.1) show NC gr 
 gsave  711 567 1534 12 C 2074.48 65.3603 t 0 r /Helvetica findfont 25.6631 sf 0 0 m (0.2) show NC gr 
 gsave  711 567 1534 12 C 2176.78 65.3603 t 0 r /Helvetica findfont 25.6631 sf 0 0 m (0.3) show NC gr 
 gsave  711 567 1534 12 C 2060.27 25.5758 t 0 r /Helvetica findfont 28.5146 sf 0 0 m (yybb.HP_l3) show NC gr  1655 523 m 547 X s 1676 509 m 14 Y s 1697 516 m 7 Y s 1718 516 m 7 Y s 1738 516 m 7 Y s 1759 516 m 7 Y s 1780 509 m 14 Y s 1801 516 m 7 Y s
 1822 516 m 7 Y s 1842 516 m 7 Y s 1863 516 m 7 Y s 1884 509 m 14 Y s 1905 516 m 7 Y s 1926 516 m 7 Y s 1947 516 m 7 Y s 1967 516 m 7 Y s 1988 509 m 14 Y s 2009 516 m 7 Y s 2030 516 m 7 Y s 2051 516 m 7 Y s 2071 516 m 7 Y s 2092 509 m 14 Y s 2113 516
 m 7 Y s 2134 516 m 7 Y s 2155 516 m 7 Y s 2175 516 m 7 Y s 2196 509 m 14 Y s 1676 509 m 14 Y s 2196 509 m 14 Y s 1655 94 m 429 Y s 1671 115 m -16 X s 1663 125 m -8 X s 1663 136 m -8 X s 1663 146 m -8 X s 1663 157 m -8 X s 1671 168 m -16 X s 1663 178
 m -8 X s 1663 189 m -8 X s 1663 199 m -8 X s 1663 210 m -8 X s 1671 220 m -16 X s 1663 231 m -8 X s 1663 242 m -8 X s 1663 252 m -8 X s 1663 263 m -8 X s 1671 273 m -16 X s 1663 284 m -8 X s 1663 295 m -8 X s 1663 305 m -8 X s 1663 316 m -8 X s 1671
 326 m -16 X s 1663 337 m -8 X s 1663 347 m -8 X s 1663 358 m -8 X s 1663 369 m -8 X s 1671 379 m -16 X s 1663 390 m -8 X s 1663 400 m -8 X s 1663 411 m -8 X s 1663 422 m -8 X s 1671 432 m -16 X s 1663 443 m -8 X s 1663 453 m -8 X s 1663 464 m -8 X s
 1663 474 m -8 X s 1671 485 m -16 X s 1671 115 m -16 X s 1663 104 m -8 X s 1671 485 m -16 X s 1663 496 m -8 X s 1663 506 m -8 X s 1663 517 m -8 X s
 gsave  711 567 1534 12 C 1631.16 105.145 t 0 r /Helvetica findfont 25.6631 sf 0 0 m (0) show NC gr 
 gsave  711 567 1534 12 C 1634.01 156.296 t 0 r /Helvetica findfont 25.6631 sf 0 0 m (1) show NC gr 
 gsave  711 567 1534 12 C 1631.16 210.29 t 0 r /Helvetica findfont 25.6631 sf 0 0 m (2) show NC gr 
 gsave  711 567 1534 12 C 1631.16 264.283 t 0 r /Helvetica findfont 25.6631 sf 0 0 m (3) show NC gr 
 gsave  711 567 1534 12 C 1631.16 315.434 t 0 r /Helvetica findfont 25.6631 sf 0 0 m (4) show NC gr 
 gsave  711 567 1534 12 C 1631.16 369.428 t 0 r /Helvetica findfont 25.6631 sf 0 0 m (5) show NC gr 
 gsave  711 567 1534 12 C 1631.16 423.421 t 0 r /Helvetica findfont 25.6631 sf 0 0 m (6) show NC gr 
 gsave  711 567 1534 12 C 1631.16 474.572 t 0 r /Helvetica findfont 25.6631 sf 0 0 m (7) show NC gr 
 gsave  711 567 1534 12 C 1557.28 434.788 t 90 r /Helvetica findfont 28.5146 sf 0 0 m (0.0131 ) show NC gr 
 gsave  711 567 1534 12 C 1543.07 431.946 t 90 r /Helvetica findfont 19.9602 sf 0 0 m ( ) show NC gr 
 gsave  711 567 1534 12 C 1557.28 420.579 t 90 r /Helvetica findfont 28.5146 sf 0 0 m (/) show NC gr 
 gsave  711 567 1534 12 C 1565.8 417.737 t 90 r /Helvetica findfont 19.9602 sf 0 0 m ( ) show NC gr 
 gsave  711 567 1534 12 C 1557.28 312.592 t 90 r /Helvetica findfont 28.5146 sf 0 0 m (\(1/N\) dN) show NC gr  2202 94 m 429 Y s 2186 115 m 16 X s 2194 125 m 8 X s 2194 136 m 8 X s 2194 146 m 8 X s 2194 157 m 8 X s 2186 168 m 16 X s 2194 178 m 8 X s
 2194 189 m 8 X s 2194 199 m 8 X s 2194 210 m 8 X s 2186 220 m 16 X s 2194 231 m 8 X s 2194 242 m 8 X s 2194 252 m 8 X s 2194 263 m 8 X s 2186 273 m 16 X s 2194 284 m 8 X s 2194 295 m 8 X s 2194 305 m 8 X s 2194 316 m 8 X s 2186 326 m 16 X s 2194 337
 m 8 X s 2194 347 m 8 X s 2194 358 m 8 X s 2194 369 m 8 X s 2186 379 m 16 X s 2194 390 m 8 X s 2194 400 m 8 X s 2194 411 m 8 X s 2194 422 m 8 X s 2186 432 m 16 X s 2194 443 m 8 X s 2194 453 m 8 X s 2194 464 m 8 X s 2194 474 m 8 X s 2186 485 m 16 X s
 2186 115 m 16 X s 2194 104 m 8 X s 2186 485 m 16 X s 2194 496 m 8 X s 2194 506 m 8 X s 2194 517 m 8 X s 0.490196 0.545098 0.615686 c 0.364706 0.419608 0.490196 c 369 37 1542 539 bf 0.490196 0.545098 0.615686 c 1542 539 m 369 X s 1911 539 m 37 Y s
 1911 576 m -369 X s 1542 576 m -37 Y s 1 1 1 c black 1 1 1 c
 gsave  711 567 1534 12 C 1545.91 551.299 t 0 r /Helvetica-Bold findfont 28.5146 sf 0 0 m (Input variable: yybb.HP_l3) show NC gr  1 0 0 c 6 lw black 3 lw 1 0 0 c 2194 115 m s 2179 115 m s 2164 115 m s 2149 115 m s 2134 115 m s 2119 115 m s 2107 117
 m -3 -2 d s 2094 120 m -5 -5 d s 2082 123 m -8 -8 d s 2077 134 m -18 -19 d s 2056 127 m -12 -12 d s 2052 138 m -23 -23 d s 2049 150 m -36 -35 d s 2038 155 m -40 -40 d s 2025 156 m -42 -41 d s 2025 171 m -57 -56 d s 2021 183 m -68 -68 d s 2011 188 m
 -73 -73 d s 2002 194 m -79 -79 d s 1997 205 m -89 -90 d s 1997 220 m -104 -105 d s 1985 223 m -107 -108 d s 1984 236 m -121 -121 d s 1983 251 m -135 -136 d s 1970 253 m -137 -138 d s 1970 268 m -153 -153 d s 1970 283 m -168 -168 d s 1957 286 m -170
 -171 d s 1943 286 m -171 -171 d s 1943 301 m -186 -186 d s 1943 317 m -201 -202 d s 1943 332 m -178 -179 d s 1758 146 m -7 -7 d s 1739 127 m -2 -2 d s 1731 118 m -4 -3 d s 1936 340 m -171 -172 d s 1713 115 m -1 X s 1923 342 m -145 -145 d s 1773 192
 m -8 -9 d s 1698 116 m -1 -1 d s 1915 350 m -123 -124 d s 1784 218 m -6 -6 d s 1682 115 m s 1915 365 m -123 -124 d s 1667 115 m s 1901 366 m -109 -110 d s 1901 381 m -109 -110 d s 1901 397 m -95 -97 d s 1803 297 m -11 -11 d s 1895 405 m -89 -90 d s
 1888 413 m -69 -69 d s 1808 333 m -2 -2 d s 1888 428 m -69 -68 d s 1877 433 m -58 -58 d s 1863 434 m -3 -3 d s 1856 427 m -23 -23 d s 1824 394 m -5 -4 d s 1844 430 m -11 -11 d s 6 lw 1655 115 m 41 X 1 Y 14 X -1 Y 14 X 3 Y 13 X 9 Y 14 X 19 Y 14 X 46
 Y 13 X 26 Y 14 X 79 Y 14 X 36 Y 13 X 61 Y 14 X 36 Y 14 X -3 Y 13 X 7 Y 14 X -1 Y 14 X -28 Y 13 X -39 Y 14 X -24 Y 14 X -2 Y 14 X -54 Y 27 X -35 Y 14 X -28 Y 13 X -29 Y 14 X -11 Y 14 X -28 Y 13 X -5 Y 14 X -23 Y 14 X 7 Y 13 X -11 Y 14 X -3 Y 14 X -5
 Y 95 X s black 3 lw 1655 94 m 547 X s 1676 107 m -13 Y s 1697 100 m -6 Y s 1718 100 m -6 Y s 1738 100 m -6 Y s 1759 100 m -6 Y s 1780 107 m -13 Y s 1801 100 m -6 Y s 1822 100 m -6 Y s 1842 100 m -6 Y s 1863 100 m -6 Y s 1884 107 m -13 Y s 1905 100 m
 -6 Y s 1926 100 m -6 Y s 1947 100 m -6 Y s 1967 100 m -6 Y s 1988 107 m -13 Y s 2009 100 m -6 Y s 2030 100 m -6 Y s 2051 100 m -6 Y s 2071 100 m -6 Y s 2092 107 m -13 Y s 2113 100 m -6 Y s 2134 100 m -6 Y s 2155 100 m -6 Y s 2175 100 m -6 Y s 2196
 107 m -13 Y s 1676 107 m -13 Y s 2196 107 m -13 Y s 1655 523 m 547 X s 1676 509 m 14 Y s 1697 516 m 7 Y s 1718 516 m 7 Y s 1738 516 m 7 Y s 1759 516 m 7 Y s 1780 509 m 14 Y s 1801 516 m 7 Y s 1822 516 m 7 Y s 1842 516 m 7 Y s 1863 516 m 7 Y s 1884
 509 m 14 Y s 1905 516 m 7 Y s 1926 516 m 7 Y s 1947 516 m 7 Y s 1967 516 m 7 Y s 1988 509 m 14 Y s 2009 516 m 7 Y s 2030 516 m 7 Y s 2051 516 m 7 Y s 2071 516 m 7 Y s 2092 509 m 14 Y s 2113 516 m 7 Y s 2134 516 m 7 Y s 2155 516 m 7 Y s 2175 516 m 7
 Y s 2196 509 m 14 Y s 1676 509 m 14 Y s 2196 509 m 14 Y s 1655 94 m 429 Y s 1671 115 m -16 X s 1663 125 m -8 X s 1663 136 m -8 X s 1663 146 m -8 X s 1663 157 m -8 X s 1671 168 m -16 X s 1663 178 m -8 X s 1663 189 m -8 X s 1663 199 m -8 X s 1663 210
 m -8 X s 1671 220 m -16 X s 1663 231 m -8 X s 1663 242 m -8 X s 1663 252 m -8 X s 1663 263 m -8 X s 1671 273 m -16 X s 1663 284 m -8 X s 1663 295 m -8 X s 1663 305 m -8 X s 1663 316 m -8 X s 1671 326 m -16 X s 1663 337 m -8 X s 1663 347 m -8 X s
 1663 358 m -8 X s 1663 369 m -8 X s 1671 379 m -16 X s 1663 390 m -8 X s 1663 400 m -8 X s 1663 411 m -8 X s 1663 422 m -8 X s 1671 432 m -16 X s 1663 443 m -8 X s 1663 453 m -8 X s 1663 464 m -8 X s 1663 474 m -8 X s 1671 485 m -16 X s 1671 115 m
 -16 X s 1663 104 m -8 X s 1671 485 m -16 X s 1663 496 m -8 X s 1663 506 m -8 X s 1663 517 m -8 X s 2202 94 m 429 Y s 2186 115 m 16 X s 2194 125 m 8 X s 2194 136 m 8 X s 2194 146 m 8 X s 2194 157 m 8 X s 2186 168 m 16 X s 2194 178 m 8 X s 2194 189 m
 8 X s 2194 199 m 8 X s 2194 210 m 8 X s 2186 220 m 16 X s 2194 231 m 8 X s 2194 242 m 8 X s 2194 252 m 8 X s 2194 263 m 8 X s 2186 273 m 16 X s 2194 284 m 8 X s 2194 295 m 8 X s 2194 305 m 8 X s 2194 316 m 8 X s 2186 326 m 16 X s 2194 337 m 8 X s
 2194 347 m 8 X s 2194 358 m 8 X s 2194 369 m 8 X s 2186 379 m 16 X s 2194 390 m 8 X s 2194 400 m 8 X s 2194 411 m 8 X s 2194 422 m 8 X s 2186 432 m 16 X s 2194 443 m 8 X s 2194 453 m 8 X s 2194 464 m 8 X s 2194 474 m 8 X s 2186 485 m 16 X s 2186 115
 m 16 X s 2194 104 m 8 X s 2186 485 m 16 X s 2194 496 m 8 X s 2194 506 m 8 X s 2194 517 m 8 X s
 gsave  711 567 1534 12 C 2230.83 91.2634 t 90 r /Helvetica-Bold findfont 19.9602 sf 0 0 m (U/O\255flow \(S,B\): \(0.0, 0.0\)% / \(0.0, 0.0\)%) show NC gr  0.490196 0.545098 0.615686 c 0.364706 0.419608 0.490196 c 369 37 1542 539 bf 0.490196 0.545098
 0.615686 c 1542 539 m 369 X s 1911 539 m 37 Y s 1911 576 m -369 X s 1542 576 m -37 Y s 1 1 1 c black 1 1 1 c
 gsave  711 567 1534 12 C 1545.91 551.299 t 0 r /Helvetica-Bold findfont 28.5146 sf 0 0 m (Input variable: yybb.HP_l3) show NC gr 
 gr  gr showpage
end
%%EOF
