%!PS-Adobe-2.0 EPSF-2.0
%%BoundingBox:  0 0 567 296
%%Title: dataset_class_comb2/plots/variables_id_c2.eps: Input variables (training sample)
%%Creator: ROOT Version 6.18/00
%%CreationDate: Sat Sep 14 14:10:08 2019
%%DocumentNeededResources: ProcSet (FontSetInit)
%%EndComments
%%BeginProlog
80 dict begin
/s {stroke} def /l {lineto} def /m {moveto} def /t {translate} def
/r {rotate} def /rl {roll}  def /R {repeat} def
/d {rlineto} def /rm {rmoveto} def /gr {grestore} def /f {eofill} def
/c {setrgbcolor} def /black {0 setgray} def /sd {setdash} def
/cl {closepath} def /sf {scalefont setfont} def /lw {setlinewidth} def
/box {m dup 0 exch d exch 0 d 0 exch neg d cl} def
/NC{systemdict begin initclip end}def/C{NC box clip newpath}def
/bl {box s} def /bf {gsave box gsave f grestore 1 lw [] 0 sd s grestore} def /Y { 0 exch d} def /X { 0 d} def 
/K {{pop pop 0 moveto} exch kshow} bind def
/ita {/ang 15 def gsave [1 0 ang dup sin exch cos div 1 0 0] concat} def 
/mp {newpath /y exch def /x exch def} def
/side {[w .77 mul w .23 mul] .385 w mul sd w 0 l currentpoint t -144 r} def
/mr {mp x y w2 0 360 arc} def /m24 {mr s} def /m20 {mr f} def
/mb {mp x y w2 add m w2 neg 0 d 0 w neg d w 0 d 0 w d cl} def
/mt {mp x y w2 add m w2 neg w neg d w 0 d cl} def
/w4 {w 4 div} def
/w6 {w 6 div} def
/w8 {w 8 div} def
/m21 {mb f} def /m25 {mb s} def /m22 {mt f} def /m26{mt s} def
/m23 {mp x y w2 sub m w2 w d w neg 0 d cl f} def
/m27 {mp x y w2 add m w3 neg w2 neg d w3 w2 neg d w3 w2 d cl s} def
/m28 {mp x w2 sub y w2 sub w3 add m w3 0 d  0 w3 neg d w3 0 d 0 w3 d w3 0 d  0 w3 d w3 neg 0 d 0 w3 d w3 neg 0 d 0 w3 neg d w3 neg 0 d cl s } def
/m29 {mp gsave x w2 sub y w2 add w3 sub m currentpoint t 4 {side} repeat cl fill gr} def
/m30 {mp gsave x w2 sub y w2 add w3 sub m currentpoint t 4 {side} repeat cl s gr} def
/m31 {mp x y w2 sub m 0 w d x w2 sub y m w 0 d x w2 sub y w2 add m w w neg d x w2 sub y w2 sub m w w d s} def
/m32 {mp x y w2 sub m w2 w d w neg 0 d cl s} def
/m33 {mp x y w2 add m w3 neg w2 neg d w3 w2 neg d w3 w2 d cl f} def
/m34 {mp x w2 sub y w2 sub w3 add m w3 0 d  0 w3 neg d w3 0 d 0 w3 d w3 0 d  0 w3 d w3 neg 0 d 0 w3 d w3 neg 0 d 0 w3 neg d w3 neg 0 d cl f } def
/m35 {mp x y w2 add m w2 neg w2 neg d w2 w2 neg d w2 w2 d w2 neg w2 d x y w2 sub m 0 w d x w2 sub y m w 0 d s} def
/m36 {mb x w2 sub y w2 add m w w neg d x w2 sub y w2 sub m w w d s} def
/m37 {mp x y m w4 neg w2 d w4 neg w2 neg d w2 0 d  w4 neg w2 neg d w2 0 d w4 neg w2 d w2 0 d w4 neg w2 d w4 neg w2 neg d cl s} def
/m38 {mp x w4 sub y w2 add m w4 neg w4 neg d 0 w2 neg d w4 w4 neg d w2 0 d w4 w4 d 0 w2 d w4 neg w4 d w2 neg 0 d x y w2 sub m 0 w d x w2 sub y m w 0 d cl s} def
/m39 {mp x y m w4 neg w2 d w4 neg w2 neg d w2 0 d  w4 neg w2 neg d w2 0 d w4 neg w2 d w2 0 d w4 neg w2 d w4 neg w2 neg d cl f} def
/m40 {mp x y m w4 w2 d w4 w4 neg d w2 neg w4 neg d w2 w4 neg d w4 neg w4 neg d w4 neg w2 d w4 neg w2 neg d w4 neg w4 d w2 w4 d w2 neg w4 d w4 w4 d w4 w2 neg d cl s} def
/m41 {mp x y m w4 w2 d w4 w4 neg d w2 neg w4 neg d w2 w4 neg d w4 neg w4 neg d w4 neg w2 d w4 neg w2 neg d w4 neg w4 d w2 w4 d w2 neg w4 d w4 w4 d w4 w2 neg d cl f} def
/m42 {mp x y w2 add m w8 neg w2 -3 4 div mul d w2 -3 4 div mul w8 neg d w2 3 4 div mul w8 neg d w8 w2 -3 4 div mul d w8 w2 3 4 div mul d w2 3 4 div mul w8 d w2 -3 4 div mul w8 d w8 neg w2 3 4 div mul d cl s} def
/m43 {mp x y w2 add m w8 neg w2 -3 4 div mul d w2 -3 4 div mul w8 neg d w2 3 4 div mul w8 neg d w8 w2 -3 4 div mul d w8 w2 3 4 div mul d w2 3 4 div mul w8 d w2 -3 4 div mul w8 d w8 neg w2 3 4 div mul d cl f} def
/m44 {mp x y m w6 neg w2 d w2 2 3 div mul 0 d w6 neg w2 neg d w2 w6 d 0 w2 -2 3 div mul d w2 neg w6 d w6 w2 neg d w2 -2 3 div mul 0 d w6 w2 d w2 neg w6 neg d 0 w2 2 3 div mul d w2 w6 neg d cl s} def
/m45 {mp x y m w6 neg w2 d w2 2 3 div mul 0 d w6 neg w2 neg d w2 w6 d 0 w2 -2 3 div mul d w2 neg w6 d w6 w2 neg d w2 -2 3 div mul 0 d w6 w2 d w2 neg w6 neg d 0 w2 2 3 div mul d w2 w6 neg d cl f} def
/m46 {mp x y w4 add m w4 neg w4 d w4 neg w4 neg d  w4 w4 neg d w4 neg w4 neg d w4 w4 neg d w4 w4 d w4 w4 neg d w4 w4 d w4 neg w4 d w4 w4 d w4 neg w4 d w4 neg w4 neg d cl s} def
/m47 {mp x y w4 add m w4 neg w4 d w4 neg w4 neg d w4 w4 neg d w4 neg w4 neg d  w4 w4 neg d w4 w4 d w4 w4 neg d w4 w4 d w4 neg w4 d w4 w4 d w4 neg w4 d w4 neg w4 neg d cl f} def
/m48 {mp x y w4 add m w4 neg w4 d w4 neg w4 neg d w4 w4 neg d  w4 neg w4 neg d w4 w4 neg d w4 w4 d w4 w4 neg d w4 w4 d w4 neg w4 d w4 w4 d w4 neg w4 d w4 neg w4 neg d  w4 w4 neg d w4 neg w4 neg d w4 neg w4 d w4 w4 d cl f} def
/m49 {mp x w2 sub w3 add y w2 sub w3 add m  0 w3 neg d w3 0 d 0 w3 d w3 0 d 0 w3 d w3 neg 0 d 0 w3 d w3 neg 0 d 0 w3 neg d w3 neg 0 d 0 w3 neg d w3 0 d 0 w3 d w3 0 d 0 w3 neg d w3 neg 0 d cl f } def
/m2 {mp x y w2 sub m 0 w d x w2 sub y m w 0 d s} def
/m5 {mp x w2 sub y w2 sub m w w d x w2 sub y w2 add m w w neg d s} def
%%IncludeResource: ProcSet (FontSetInit)
%%IncludeResource: font Times-Roman
%%IncludeResource: font Times-Italic
%%IncludeResource: font Times-Bold
%%IncludeResource: font Times-BoldItalic
%%IncludeResource: font Helvetica
%%IncludeResource: font Helvetica-Oblique
%%IncludeResource: font Helvetica-Bold
%%IncludeResource: font Helvetica-BoldOblique
%%IncludeResource: font Courier
%%IncludeResource: font Courier-Oblique
%%IncludeResource: font Courier-Bold
%%IncludeResource: font Courier-BoldOblique
%%IncludeResource: font Symbol
%%IncludeResource: font ZapfDingbats
/reEncode {exch findfont dup length dict begin {1 index /FID eq  {pop pop} {def} ifelse } forall /Encoding exch def currentdict end dup /FontName get exch definefont pop } def [/Times-Bold /Times-Italic /Times-BoldItalic /Helvetica /Helvetica-Oblique
 /Helvetica-Bold /Helvetica-BoldOblique /Courier /Courier-Oblique /Courier-Bold /Courier-BoldOblique /Times-Roman /AvantGarde-Book /AvantGarde-BookOblique /AvantGarde-Demi /AvantGarde-DemiOblique /Bookman-Demi /Bookman-DemiItalic /Bookman-Light
 /Bookman-LightItalic /Helvetica-Narrow /Helvetica-Narrow-Bold /Helvetica-Narrow-BoldOblique /Helvetica-Narrow-Oblique /NewCenturySchlbk-Roman /NewCenturySchlbk-Bold /NewCenturySchlbk-BoldItalic /NewCenturySchlbk-Italic /Palatino-Bold
 /Palatino-BoldItalic /Palatino-Italic /Palatino-Roman ] {ISOLatin1Encoding reEncode } forall
%%EndProlog
%%BeginSetup
%%EndSetup
newpath  gsave  .25 .25 scale  gsave  0 0 t 0.490196 0.545098 0.615686 c[  ] 0 sd 3 lw 0.941176 0.941176 0.941176 c 2268 1182 0 0 bf 0.490196 0.545098 0.615686 c 0.941176 0.941176 0.941176 c 710 567 23 603 bf black 1 1 0.992157 c 548 429 143 685 bf
 black 548 429 143 685 bl 0 0 0.933333 c 6 lw 0.49 0.6 0.82 c black 3 lw 0.49 0.6 0.82 c 143 685 m 90 Y 14 X -14 Y 28 X -12 Y 13 X -12 Y 14 X 2 Y 14 X 15 Y 13 X -23 Y 14 X -8 Y 14 X 15 Y 13 X 194 Y 14 X 129 Y 14 X -139 Y 13 X -49 Y 14 X 6 Y 14 X 2 Y
 13 X -19 Y 14 X -25 Y 14 X 7 Y 13 X -3 Y 14 X -5 Y 14 X 22 Y 13 X -11 Y 14 X 21 Y 14 X 18 Y 13 X 9 Y 14 X 25 Y 14 X 155 Y 13 X -82 Y 14 X -299 Y 14 X -4 Y 27 X -5 Y 14 X 2 Y 27 X 1 Y 14 X -2 Y 27 X -1 Y 28 X f 6 lw 0 0 0.933333 c 0.49 0.6 0.82 c 0 0
 0.933333 c 143 775 m 14 X -14 Y 28 X -12 Y 13 X -12 Y 14 X 2 Y 14 X 15 Y 13 X -23 Y 14 X -8 Y 14 X 15 Y 13 X 194 Y 14 X 129 Y 14 X -139 Y 13 X -49 Y 14 X 6 Y 14 X 2 Y 13 X -19 Y 14 X -25 Y 14 X 7 Y 13 X -3 Y 14 X -5 Y 14 X 22 Y 13 X -11 Y 14 X 21 Y
 14 X 18 Y 13 X 9 Y 14 X 25 Y 14 X 155 Y 13 X -82 Y 14 X -299 Y 14 X -4 Y 27 X -5 Y 14 X 2 Y 27 X 1 Y 14 X -2 Y 27 X -1 Y 28 X s black 3 lw 143 685 m 548 X s 197 698 m -13 Y s 210 691 m -6 Y s 224 691 m -6 Y s 237 691 m -6 Y s 250 698 m -13 Y s 264
 691 m -6 Y s 277 691 m -6 Y s 290 691 m -6 Y s 304 698 m -13 Y s 317 691 m -6 Y s 330 691 m -6 Y s 344 691 m -6 Y s 357 698 m -13 Y s 370 691 m -6 Y s 384 691 m -6 Y s 397 691 m -6 Y s 410 698 m -13 Y s 424 691 m -6 Y s 437 691 m -6 Y s 450 691 m -6
 Y s 464 698 m -13 Y s 477 691 m -6 Y s 490 691 m -6 Y s 504 691 m -6 Y s 517 698 m -13 Y s 530 691 m -6 Y s 544 691 m -6 Y s 557 691 m -6 Y s 570 698 m -13 Y s 584 691 m -6 Y s 597 691 m -6 Y s 611 691 m -6 Y s 624 698 m -13 Y s 637 691 m -6 Y s 651
 691 m -6 Y s 664 691 m -6 Y s 677 698 m -13 Y s 197 698 m -13 Y s 184 691 m -6 Y s 170 691 m -6 Y s 157 691 m -6 Y s 677 698 m -13 Y s
 gsave  710 567 23 603 C 184.714 656.444 t 0 r /Helvetica findfont 25.6631 sf 0 0 m (0.8) show NC gr 
 gsave  710 567 23 603 C 170.505 656.444 t 0 r /Symbol findfont 25.6631 sf 0 0 m (-) show NC gr 
 gsave  710 567 23 603 C 238.707 656.444 t 0 r /Helvetica findfont 25.6631 sf 0 0 m (0.6) show NC gr 
 gsave  710 567 23 603 C 224.498 656.444 t 0 r /Symbol findfont 25.6631 sf 0 0 m (-) show NC gr 
 gsave  710 567 23 603 C 289.858 656.444 t 0 r /Helvetica findfont 25.6631 sf 0 0 m (0.4) show NC gr 
 gsave  710 567 23 603 C 275.65 656.444 t 0 r /Symbol findfont 25.6631 sf 0 0 m (-) show NC gr 
 gsave  710 567 23 603 C 343.852 656.444 t 0 r /Helvetica findfont 25.6631 sf 0 0 m (0.2) show NC gr 
 gsave  710 567 23 603 C 329.643 656.444 t 0 r /Symbol findfont 25.6631 sf 0 0 m (-) show NC gr 
 gsave  710 567 23 603 C 400.687 656.444 t 0 r /Helvetica findfont 25.6631 sf 0 0 m (0) show NC gr 
 gsave  710 567 23 603 C 446.155 656.444 t 0 r /Helvetica findfont 25.6631 sf 0 0 m (0.2) show NC gr 
 gsave  710 567 23 603 C 497.306 656.444 t 0 r /Helvetica findfont 25.6631 sf 0 0 m (0.4) show NC gr 
 gsave  710 567 23 603 C 551.299 656.444 t 0 r /Helvetica findfont 25.6631 sf 0 0 m (0.6) show NC gr 
 gsave  710 567 23 603 C 605.293 656.444 t 0 r /Helvetica findfont 25.6631 sf 0 0 m (0.8) show NC gr 
 gsave  710 567 23 603 C 670.653 656.444 t 0 r /Helvetica findfont 25.6631 sf 0 0 m (1) show NC gr 
 gsave  710 567 23 603 C 579.717 613.818 t 0 r /Helvetica findfont 28.5146 sf 0 0 m (hh.H1_l3) show NC gr  143 1114 m 548 X s 197 1100 m 14 Y s 210 1107 m 7 Y s 224 1107 m 7 Y s 237 1107 m 7 Y s 250 1100 m 14 Y s 264 1107 m 7 Y s 277 1107 m 7 Y s 290
 1107 m 7 Y s 304 1100 m 14 Y s 317 1107 m 7 Y s 330 1107 m 7 Y s 344 1107 m 7 Y s 357 1100 m 14 Y s 370 1107 m 7 Y s 384 1107 m 7 Y s 397 1107 m 7 Y s 410 1100 m 14 Y s 424 1107 m 7 Y s 437 1107 m 7 Y s 450 1107 m 7 Y s 464 1100 m 14 Y s 477 1107 m
 7 Y s 490 1107 m 7 Y s 504 1107 m 7 Y s 517 1100 m 14 Y s 530 1107 m 7 Y s 544 1107 m 7 Y s 557 1107 m 7 Y s 570 1100 m 14 Y s 584 1107 m 7 Y s 597 1107 m 7 Y s 611 1107 m 7 Y s 624 1100 m 14 Y s 637 1107 m 7 Y s 651 1107 m 7 Y s 664 1107 m 7 Y s
 677 1100 m 14 Y s 197 1100 m 14 Y s 184 1107 m 7 Y s 170 1107 m 7 Y s 157 1107 m 7 Y s 677 1100 m 14 Y s 143 685 m 429 Y s 160 685 m -17 X s 152 697 m -9 X s 152 709 m -9 X s 152 721 m -9 X s 160 733 m -17 X s 152 746 m -9 X s 152 758 m -9 X s 152
 770 m -9 X s 160 782 m -17 X s 152 794 m -9 X s 152 806 m -9 X s 152 819 m -9 X s 160 831 m -17 X s 152 843 m -9 X s 152 855 m -9 X s 152 867 m -9 X s 160 880 m -17 X s 152 892 m -9 X s 152 904 m -9 X s 152 916 m -9 X s 160 928 m -17 X s 152 940 m
 -9 X s 152 953 m -9 X s 152 965 m -9 X s 160 977 m -17 X s 152 989 m -9 X s 152 1001 m -9 X s 152 1014 m -9 X s 160 1026 m -17 X s 152 1038 m -9 X s 152 1050 m -9 X s 152 1062 m -9 X s 160 1075 m -17 X s 160 1075 m -17 X s 152 1087 m -9 X s 152 1099
 m -9 X s 152 1111 m -9 X s
 gsave  710 567 23 603 C 119.354 673.495 t 0 r /Helvetica findfont 25.6631 sf 0 0 m (0) show NC gr 
 gsave  710 567 23 603 C 99.4613 724.646 t 0 r /Helvetica findfont 25.6631 sf 0 0 m (0.2) show NC gr 
 gsave  710 567 23 603 C 99.4613 772.956 t 0 r /Helvetica findfont 25.6631 sf 0 0 m (0.4) show NC gr 
 gsave  710 567 23 603 C 99.4613 821.266 t 0 r /Helvetica findfont 25.6631 sf 0 0 m (0.6) show NC gr 
 gsave  710 567 23 603 C 99.4613 869.576 t 0 r /Helvetica findfont 25.6631 sf 0 0 m (0.8) show NC gr 
 gsave  710 567 23 603 C 122.195 917.885 t 0 r /Helvetica findfont 25.6631 sf 0 0 m (1) show NC gr 
 gsave  710 567 23 603 C 99.4613 966.195 t 0 r /Helvetica findfont 25.6631 sf 0 0 m (1.2) show NC gr 
 gsave  710 567 23 603 C 99.4613 1014.5 t 0 r /Helvetica findfont 25.6631 sf 0 0 m (1.4) show NC gr 
 gsave  710 567 23 603 C 99.4613 1065.66 t 0 r /Helvetica findfont 25.6631 sf 0 0 m (1.6) show NC gr 
 gsave  710 567 23 603 C 45.468 1023.03 t 90 r /Helvetica findfont 28.5146 sf 0 0 m (0.0512 ) show NC gr 
 gsave  710 567 23 603 C 31.2593 1020.19 t 90 r /Helvetica findfont 19.9602 sf 0 0 m ( ) show NC gr 
 gsave  710 567 23 603 C 45.468 1008.82 t 90 r /Helvetica findfont 28.5146 sf 0 0 m (/) show NC gr 
 gsave  710 567 23 603 C 53.9933 1005.98 t 90 r /Helvetica findfont 19.9602 sf 0 0 m ( ) show NC gr 
 gsave  710 567 23 603 C 45.468 900.835 t 90 r /Helvetica findfont 28.5146 sf 0 0 m (\(1/N\) dN) show NC gr  691 685 m 429 Y s 674 685 m 17 X s 683 697 m 8 X s 683 709 m 8 X s 683 721 m 8 X s 674 733 m 17 X s 683 746 m 8 X s 683 758 m 8 X s 683 770 m
 8 X s 674 782 m 17 X s 683 794 m 8 X s 683 806 m 8 X s 683 819 m 8 X s 674 831 m 17 X s 683 843 m 8 X s 683 855 m 8 X s 683 867 m 8 X s 674 880 m 17 X s 683 892 m 8 X s 683 904 m 8 X s 683 916 m 8 X s 674 928 m 17 X s 683 940 m 8 X s 683 953 m 8 X s
 683 965 m 8 X s 674 977 m 17 X s 683 989 m 8 X s 683 1001 m 8 X s 683 1014 m 8 X s 674 1026 m 17 X s 683 1038 m 8 X s 683 1050 m 8 X s 683 1062 m 8 X s 674 1075 m 17 X s 674 1075 m 17 X s 683 1087 m 8 X s 683 1099 m 8 X s 683 1111 m 8 X s 0.490196
 0.545098 0.615686 c 0.364706 0.419608 0.490196 c 335 38 30 1130 bf 0.490196 0.545098 0.615686 c 30 1130 m 335 X s 365 1130 m 38 Y s 365 1168 m -335 X s 30 1168 m -38 Y s 1 1 1 c black 1 1 1 c
 gsave  710 567 23 603 C 34.101 1142.38 t 0 r /Helvetica-Bold findfont 28.5146 sf 0 0 m (Input variable: hh.H1_l3) show NC gr  1 0 0 c 6 lw black 3 lw 1 0 0 c 678 686 m -1 -1 d s 677 700 m -15 -15 d s 677 715 m -31 -30 d s 677 731 m -46 -46 d s 677
 746 m -61 -61 d s 677 761 m -76 -76 d s 677 776 m -91 -91 d s 674 788 m -11 -11 d s 657 772 m -7 -8 d s 647 761 m -76 -76 d s 636 765 m -80 -80 d s 636 780 m -14 -14 d s 612 757 m -3 -4 d s 604 749 m -63 -64 d s 623 782 m -1 X s 593 753 m -67 -68 d
 s 581 756 m -70 -71 d s 571 761 m -75 -76 d s 557 761 m -3 -3 d s 549 753 m -68 -68 d s 540 760 m -74 -75 d s 540 775 m -90 -90 d s 540 790 m -105 -105 d s 540 805 m -120 -120 d s 540 820 m -135 -135 d s 540 836 m -150 -151 d s 540 851 m -165 -166 d
 s 540 866 m -180 -181 d s 540 881 m -195 -196 d s 540 896 m -55 -55 d s 475 831 m -145 -146 d s 540 912 m -55 -56 d s 468 839 m -153 -154 d s 533 920 m -34 -35 d s 490 877 m -5 -5 d s 452 838 m -8 -8 d s 440 825 m -140 -140 d s 526 928 m -13 -14 d s
 509 911 m -10 -10 d s 431 832 m -146 -147 d s 526 943 m -13 -13 d s 422 838 m -152 -153 d s 526 959 m -13 -14 d s 417 848 m -14 -13 d s 390 821 m -110 -110 d s 276 706 m -21 -21 d s 516 963 m -3 -3 d s 417 863 m -14 -13 d s 379 826 m -99 -100 d s
 267 712 m -28 -27 d s 415 877 m -12 -12 d s 363 824 m -83 -83 d s 256 717 m -32 -32 d s 362 839 m -82 -83 d s 249 724 m -10 -9 d s 232 708 m -23 -23 d s 351 842 m -2 -2 d s 339 831 m -59 -60 d s 226 716 m -32 -31 d s 335 842 m -55 -56 d s 212 718 m
 -33 -33 d s 335 857 m -55 -55 d s 203 724 m -5 -5 d s 196 717 m -32 -32 d s 330 867 m -50 -50 d s 185 720 m -36 -35 d s 321 873 m -41 -41 d s 171 722 m -28 -28 d s 321 889 m -41 -42 d s 165 731 m -22 -22 d s 321 904 m -41 -42 d s 157 738 m -14 -13 d
 s 321 919 m -41 -41 d s 145 741 m -2 -1 d s 308 920 m -28 -27 d s 308 935 m -14 -13 d s 285 912 m -5 -4 d s 308 951 m -14 -14 d s 308 966 m -14 -14 d s 308 981 m -14 -14 d s 308 996 m -14 -14 d s 308 1011 m -14 -13 d s 308 1027 m -14 -14 d s 308
 1042 m -14 -14 d s 303 1053 m -9 -10 d s 6 lw 143 741 m 14 X -10 Y 14 X -11 Y 14 X -3 Y 13 X 7 Y 14 X -7 Y 14 X -9 Y 13 X 16 Y 14 X -7 Y 14 X -11 Y 13 X 206 Y 14 X 141 Y 14 X -134 Y 13 X -52 Y 14 X -36 Y 14 X 11 Y 13 X -18 Y 14 X 2 Y 14 X -6 Y 13 X
 57 Y 14 X -39 Y 14 X -13 Y 13 X 13 Y 14 X 1 Y 14 X -8 Y 13 X 46 Y 14 X 34 Y 14 X 52 Y 13 X -43 Y 14 X -167 Y 14 X 8 Y 27 X -8 Y 14 X -4 Y 14 X 8 Y 13 X 25 Y 14 X -21 Y 14 X 11 Y 13 X 16 Y 14 X -102 Y 14 X -1 Y s black 3 lw 143 685 m 548 X s 197 698
 m -13 Y s 210 691 m -6 Y s 224 691 m -6 Y s 237 691 m -6 Y s 250 698 m -13 Y s 264 691 m -6 Y s 277 691 m -6 Y s 290 691 m -6 Y s 304 698 m -13 Y s 317 691 m -6 Y s 330 691 m -6 Y s 344 691 m -6 Y s 357 698 m -13 Y s 370 691 m -6 Y s 384 691 m -6 Y
 s 397 691 m -6 Y s 410 698 m -13 Y s 424 691 m -6 Y s 437 691 m -6 Y s 450 691 m -6 Y s 464 698 m -13 Y s 477 691 m -6 Y s 490 691 m -6 Y s 504 691 m -6 Y s 517 698 m -13 Y s 530 691 m -6 Y s 544 691 m -6 Y s 557 691 m -6 Y s 570 698 m -13 Y s 584
 691 m -6 Y s 597 691 m -6 Y s 611 691 m -6 Y s 624 698 m -13 Y s 637 691 m -6 Y s 651 691 m -6 Y s 664 691 m -6 Y s 677 698 m -13 Y s 197 698 m -13 Y s 184 691 m -6 Y s 170 691 m -6 Y s 157 691 m -6 Y s 677 698 m -13 Y s 143 1114 m 548 X s 197 1100
 m 14 Y s 210 1107 m 7 Y s 224 1107 m 7 Y s 237 1107 m 7 Y s 250 1100 m 14 Y s 264 1107 m 7 Y s 277 1107 m 7 Y s 290 1107 m 7 Y s 304 1100 m 14 Y s 317 1107 m 7 Y s 330 1107 m 7 Y s 344 1107 m 7 Y s 357 1100 m 14 Y s 370 1107 m 7 Y s 384 1107 m 7 Y s
 397 1107 m 7 Y s 410 1100 m 14 Y s 424 1107 m 7 Y s 437 1107 m 7 Y s 450 1107 m 7 Y s 464 1100 m 14 Y s 477 1107 m 7 Y s 490 1107 m 7 Y s 504 1107 m 7 Y s 517 1100 m 14 Y s 530 1107 m 7 Y s 544 1107 m 7 Y s 557 1107 m 7 Y s 570 1100 m 14 Y s 584
 1107 m 7 Y s 597 1107 m 7 Y s 611 1107 m 7 Y s 624 1100 m 14 Y s 637 1107 m 7 Y s 651 1107 m 7 Y s 664 1107 m 7 Y s 677 1100 m 14 Y s 197 1100 m 14 Y s 184 1107 m 7 Y s 170 1107 m 7 Y s 157 1107 m 7 Y s 677 1100 m 14 Y s 143 685 m 429 Y s 160 685 m
 -17 X s 152 697 m -9 X s 152 709 m -9 X s 152 721 m -9 X s 160 733 m -17 X s 152 746 m -9 X s 152 758 m -9 X s 152 770 m -9 X s 160 782 m -17 X s 152 794 m -9 X s 152 806 m -9 X s 152 819 m -9 X s 160 831 m -17 X s 152 843 m -9 X s 152 855 m -9 X s
 152 867 m -9 X s 160 880 m -17 X s 152 892 m -9 X s 152 904 m -9 X s 152 916 m -9 X s 160 928 m -17 X s 152 940 m -9 X s 152 953 m -9 X s 152 965 m -9 X s 160 977 m -17 X s 152 989 m -9 X s 152 1001 m -9 X s 152 1014 m -9 X s 160 1026 m -17 X s 152
 1038 m -9 X s 152 1050 m -9 X s 152 1062 m -9 X s 160 1075 m -17 X s 160 1075 m -17 X s 152 1087 m -9 X s 152 1099 m -9 X s 152 1111 m -9 X s 691 685 m 429 Y s 674 685 m 17 X s 683 697 m 8 X s 683 709 m 8 X s 683 721 m 8 X s 674 733 m 17 X s 683 746
 m 8 X s 683 758 m 8 X s 683 770 m 8 X s 674 782 m 17 X s 683 794 m 8 X s 683 806 m 8 X s 683 819 m 8 X s 674 831 m 17 X s 683 843 m 8 X s 683 855 m 8 X s 683 867 m 8 X s 674 880 m 17 X s 683 892 m 8 X s 683 904 m 8 X s 683 916 m 8 X s 674 928 m 17 X
 s 683 940 m 8 X s 683 953 m 8 X s 683 965 m 8 X s 674 977 m 17 X s 683 989 m 8 X s 683 1001 m 8 X s 683 1014 m 8 X s 674 1026 m 17 X s 683 1038 m 8 X s 683 1050 m 8 X s 683 1062 m 8 X s 674 1075 m 17 X s 674 1075 m 17 X s 683 1087 m 8 X s 683 1099 m
 8 X s 683 1111 m 8 X s
 gsave  710 567 23 603 C 719.017 682.347 t 90 r /Helvetica-Bold findfont 19.9602 sf 0 0 m (U/O\255flow \(S,B\): \(0.0, 0.0\)% / \(0.0, 0.0\)%) show NC gr  0.490196 0.545098 0.615686 c 0.364706 0.419608 0.490196 c 335 38 30 1130 bf 0.490196 0.545098
 0.615686 c 30 1130 m 335 X s 365 1130 m 38 Y s 365 1168 m -335 X s 30 1168 m -38 Y s 1 1 1 c black 1 1 1 c
 gsave  710 567 23 603 C 34.101 1142.38 t 0 r /Helvetica-Bold findfont 28.5146 sf 0 0 m (Input variable: hh.H1_l3) show NC gr  0.490196 0.545098 0.615686 c 0.941176 0.941176 0.941176 c 710 567 779 603 bf black 1 1 0.992157 c 548 429 899 685 bf black
 548 429 899 685 bl 0 0 0.933333 c 6 lw 0.49 0.6 0.82 c black 3 lw 0.49 0.6 0.82 c 899 685 m 390 Y 14 X -46 Y 14 X -111 Y 13 X 19 Y 14 X -40 Y 14 X 11 Y 13 X -12 Y 14 X -24 Y 14 X -10 Y 13 X -12 Y 14 X 16 Y 14 X -16 Y 14 X -26 Y 13 X 17 Y 14 X -33 Y
 14 X 30 Y 13 X 19 Y 14 X -34 Y 27 X 7 Y 14 X 1 Y 14 X 3 Y 13 X 3 Y 14 X -21 Y 14 X -1 Y 13 X 10 Y 14 X 7 Y 14 X -45 Y 13 X 24 Y 14 X 26 Y 14 X -22 Y 13 X 9 Y 14 X -3 Y 14 X -5 Y 13 X -15 Y 14 X -7 Y 14 X -56 Y 13 X -31 Y 14 X -20 Y 14 X -2 Y 14 X f
 6 lw 0 0 0.933333 c 0.49 0.6 0.82 c 0 0 0.933333 c 899 1075 m 14 X -46 Y 14 X -111 Y 13 X 19 Y 14 X -40 Y 14 X 11 Y 13 X -12 Y 14 X -24 Y 14 X -10 Y 13 X -12 Y 14 X 16 Y 14 X -16 Y 14 X -26 Y 13 X 17 Y 14 X -33 Y 14 X 30 Y 13 X 19 Y 14 X -34 Y 27 X
 7 Y 14 X 1 Y 14 X 3 Y 13 X 3 Y 14 X -21 Y 14 X -1 Y 13 X 10 Y 14 X 7 Y 14 X -45 Y 13 X 24 Y 14 X 26 Y 14 X -22 Y 13 X 9 Y 14 X -3 Y 14 X -5 Y 13 X -15 Y 14 X -7 Y 14 X -56 Y 13 X -31 Y 14 X -20 Y 14 X -2 Y 14 X s black 3 lw 899 685 m 548 X s 953 698
 m -13 Y s 974 691 m -6 Y s 995 691 m -6 Y s 1017 691 m -6 Y s 1038 691 m -6 Y s 1060 698 m -13 Y s 1081 691 m -6 Y s 1102 691 m -6 Y s 1124 691 m -6 Y s 1145 691 m -6 Y s 1166 698 m -13 Y s 1188 691 m -6 Y s 1209 691 m -6 Y s 1230 691 m -6 Y s 1252
 691 m -6 Y s 1273 698 m -13 Y s 1294 691 m -6 Y s 1316 691 m -6 Y s 1337 691 m -6 Y s 1358 691 m -6 Y s 1380 698 m -13 Y s 953 698 m -13 Y s 931 691 m -6 Y s 910 691 m -6 Y s 1380 698 m -13 Y s 1401 691 m -6 Y s 1423 691 m -6 Y s 1444 691 m -6 Y s
 gsave  710 567 779 603 C 940.619 656.444 t 0 r /Helvetica findfont 25.6631 sf 0 0 m (0.2) show NC gr 
 gsave  710 567 779 603 C 926.411 656.444 t 0 r /Symbol findfont 25.6631 sf 0 0 m (-) show NC gr 
 gsave  710 567 779 603 C 1045.76 656.444 t 0 r /Helvetica findfont 25.6631 sf 0 0 m (0.1) show NC gr 
 gsave  710 567 779 603 C 1034.4 656.444 t 0 r /Symbol findfont 25.6631 sf 0 0 m (-) show NC gr 
 gsave  710 567 779 603 C 1156.59 656.444 t 0 r /Helvetica findfont 25.6631 sf 0 0 m (0) show NC gr 
 gsave  710 567 779 603 C 1253.21 656.444 t 0 r /Helvetica findfont 25.6631 sf 0 0 m (0.1) show NC gr 
 gsave  710 567 779 603 C 1361.2 656.444 t 0 r /Helvetica findfont 25.6631 sf 0 0 m (0.2) show NC gr 
 gsave  710 567 779 603 C 1338.46 613.818 t 0 r /Helvetica findfont 28.5146 sf 0 0 m (hh.HT_l1) show NC gr  899 1114 m 548 X s 953 1100 m 14 Y s 974 1107 m 7 Y s 995 1107 m 7 Y s 1017 1107 m 7 Y s 1038 1107 m 7 Y s 1060 1100 m 14 Y s 1081 1107 m 7 Y
 s 1102 1107 m 7 Y s 1124 1107 m 7 Y s 1145 1107 m 7 Y s 1166 1100 m 14 Y s 1188 1107 m 7 Y s 1209 1107 m 7 Y s 1230 1107 m 7 Y s 1252 1107 m 7 Y s 1273 1100 m 14 Y s 1294 1107 m 7 Y s 1316 1107 m 7 Y s 1337 1107 m 7 Y s 1358 1107 m 7 Y s 1380 1100 m
 14 Y s 953 1100 m 14 Y s 931 1107 m 7 Y s 910 1107 m 7 Y s 1380 1100 m 14 Y s 1401 1107 m 7 Y s 1423 1107 m 7 Y s 1444 1107 m 7 Y s 899 685 m 429 Y s 915 685 m -16 X s 907 700 m -8 X s 907 716 m -8 X s 907 732 m -8 X s 907 747 m -8 X s 915 763 m -16
 X s 907 779 m -8 X s 907 795 m -8 X s 907 810 m -8 X s 907 826 m -8 X s 915 842 m -16 X s 907 857 m -8 X s 907 873 m -8 X s 907 889 m -8 X s 907 904 m -8 X s 915 920 m -16 X s 907 936 m -8 X s 907 952 m -8 X s 907 967 m -8 X s 907 983 m -8 X s 915
 999 m -16 X s 907 1014 m -8 X s 907 1030 m -8 X s 907 1046 m -8 X s 907 1062 m -8 X s 915 1077 m -16 X s 915 1077 m -16 X s 907 1093 m -8 X s 907 1109 m -8 X s
 gsave  710 567 779 603 C 875.259 673.495 t 0 r /Helvetica findfont 25.6631 sf 0 0 m (0) show NC gr 
 gsave  710 567 779 603 C 878.101 753.064 t 0 r /Helvetica findfont 25.6631 sf 0 0 m (1) show NC gr 
 gsave  710 567 779 603 C 875.259 832.633 t 0 r /Helvetica findfont 25.6631 sf 0 0 m (2) show NC gr 
 gsave  710 567 779 603 C 875.259 909.36 t 0 r /Helvetica findfont 25.6631 sf 0 0 m (3) show NC gr 
 gsave  710 567 779 603 C 875.259 988.929 t 0 r /Helvetica findfont 25.6631 sf 0 0 m (4) show NC gr 
 gsave  710 567 779 603 C 875.259 1068.5 t 0 r /Helvetica findfont 25.6631 sf 0 0 m (5) show NC gr 
 gsave  710 567 779 603 C 801.374 1023.03 t 90 r /Helvetica findfont 28.5146 sf 0 0 m (0.0128 ) show NC gr 
 gsave  710 567 779 603 C 787.165 1020.19 t 90 r /Helvetica findfont 19.9602 sf 0 0 m ( ) show NC gr 
 gsave  710 567 779 603 C 801.374 1008.82 t 90 r /Helvetica findfont 28.5146 sf 0 0 m (/) show NC gr 
 gsave  710 567 779 603 C 809.899 1005.98 t 90 r /Helvetica findfont 19.9602 sf 0 0 m ( ) show NC gr 
 gsave  710 567 779 603 C 801.374 900.835 t 90 r /Helvetica findfont 28.5146 sf 0 0 m (\(1/N\) dN) show NC gr  1447 685 m 429 Y s 1430 685 m 17 X s 1438 700 m 9 X s 1438 716 m 9 X s 1438 732 m 9 X s 1438 747 m 9 X s 1430 763 m 17 X s 1438 779 m 9 X s
 1438 795 m 9 X s 1438 810 m 9 X s 1438 826 m 9 X s 1430 842 m 17 X s 1438 857 m 9 X s 1438 873 m 9 X s 1438 889 m 9 X s 1438 904 m 9 X s 1430 920 m 17 X s 1438 936 m 9 X s 1438 952 m 9 X s 1438 967 m 9 X s 1438 983 m 9 X s 1430 999 m 17 X s 1438
 1014 m 9 X s 1438 1030 m 9 X s 1438 1046 m 9 X s 1438 1062 m 9 X s 1430 1077 m 17 X s 1430 1077 m 17 X s 1438 1093 m 9 X s 1438 1109 m 9 X s 0.490196 0.545098 0.615686 c 0.364706 0.419608 0.490196 c 332 38 786 1130 bf 0.490196 0.545098 0.615686 c
 786 1130 m 332 X s 1118 1130 m 38 Y s 1118 1168 m -332 X s 786 1168 m -38 Y s 1 1 1 c black 1 1 1 c
 gsave  710 567 779 603 C 790.007 1142.38 t 0 r /Helvetica-Bold findfont 28.5146 sf 0 0 m (Input variable: hh.HT_l1) show NC gr  1 0 0 c 6 lw black 3 lw 1 0 0 c 1433 685 m -1 X s 1433 700 m -16 -15 d s 1433 715 m -31 -30 d s 1433 731 m -46 -46 d s
 1433 746 m -61 -61 d s 1433 761 m -76 -76 d s 1433 776 m -91 -91 d s 1433 791 m -106 -106 d s 1433 806 m -121 -121 d s 1433 822 m -136 -137 d s 1433 837 m -151 -152 d s 1433 852 m -166 -167 d s 1433 867 m -181 -182 d s 1433 882 m -196 -197 d s 1421
 885 m -200 -200 d s 1419 899 m -213 -214 d s 1419 914 m -228 -229 d s 1419 929 m -243 -244 d s 1419 944 m -258 -259 d s 1415 956 m -269 -271 d s 1405 961 m -274 -276 d s 1405 976 m -54 -55 d s 1325 895 m -2 -1 d s 1314 884 m -18 -18 d s 1287 857 m
 -5 -5 d s 1271 841 m -2 -3 d s 1258 828 m -142 -143 d s 1392 978 m -41 -42 d s 1310 895 m -14 -14 d s 1255 840 m -14 -14 d s 1214 799 m -14 -14 d s 1197 781 m -96 -96 d s 1380 981 m -2 -2 d s 1369 969 m -5 -4 d s 1310 910 m -14 -14 d s 1252 852 m
 -11 -11 d s 1214 814 m -14 -14 d s 1187 786 m -101 -101 d s 1299 914 m -3 -2 d s 1210 825 m -10 -10 d s 1187 801 m -116 -116 d s 1177 807 m -121 -122 d s 1173 818 m -14 -14 d s 1147 792 m -15 -15 d s 1132 777 m -91 -92 d s 1173 833 m -14 -14 d s
 1146 806 m -14 -14 d s 1118 778 m -92 -93 d s 1173 848 m -14 -13 d s 1132 807 m s 1118 793 m -108 -108 d s 1162 852 m -3 -2 d s 1109 799 m -114 -114 d s 1100 806 m -9 -10 d s 1083 788 m -6 -6 d s 1064 768 m -84 -83 d s 1064 784 m -99 -99 d s 1064
 799 m -14 -14 d s 1047 783 m -97 -98 d s 1058 808 m -8 -8 d s 1036 786 m -101 -101 d s 1034 800 m -114 -115 d s 1017 798 m -112 -113 d s 1009 804 m -110 -110 d s 990 801 m -91 -92 d s 973 799 m -5 -6 d s 965 791 m -66 -66 d s 954 795 m -55 -55 d s
 954 810 m -55 -55 d s 954 825 m -55 -55 d s 945 831 m -46 -46 d s 928 829 m -29 -29 d s 927 843 m -14 -14 d s 912 829 m -13 -13 d s 915 847 m -2 -2 d s 6 lw 899 829 m 14 X 18 Y 14 X -18 Y 13 X 2 Y 14 X -40 Y 14 X 8 Y 13 X 2 Y 14 X 5 Y 14 X -8 Y 13 X
 2 Y 14 X -17 Y 14 X 25 Y 14 X -41 Y 13 X 21 Y 14 X 18 Y 14 X -7 Y 13 X -22 Y 14 X 30 Y 14 X -15 Y 13 X 60 Y 14 X -45 Y 14 X -26 Y 13 X 44 Y 14 X -26 Y 14 X 13 Y 13 X 40 Y 14 X -24 Y 14 X 13 Y 13 X 16 Y 14 X 57 Y 14 X -30 Y 13 X 11 Y 14 X 11 Y 14 X
 45 Y 13 X 18 Y 14 X 12 Y 14 X -5 Y 13 X -20 Y 14 X -71 Y 14 X -200 Y 14 X s black 3 lw 899 685 m 548 X s 953 698 m -13 Y s 974 691 m -6 Y s 995 691 m -6 Y s 1017 691 m -6 Y s 1038 691 m -6 Y s 1060 698 m -13 Y s 1081 691 m -6 Y s 1102 691 m -6 Y s
 1124 691 m -6 Y s 1145 691 m -6 Y s 1166 698 m -13 Y s 1188 691 m -6 Y s 1209 691 m -6 Y s 1230 691 m -6 Y s 1252 691 m -6 Y s 1273 698 m -13 Y s 1294 691 m -6 Y s 1316 691 m -6 Y s 1337 691 m -6 Y s 1358 691 m -6 Y s 1380 698 m -13 Y s 953 698 m
 -13 Y s 931 691 m -6 Y s 910 691 m -6 Y s 1380 698 m -13 Y s 1401 691 m -6 Y s 1423 691 m -6 Y s 1444 691 m -6 Y s 899 1114 m 548 X s 953 1100 m 14 Y s 974 1107 m 7 Y s 995 1107 m 7 Y s 1017 1107 m 7 Y s 1038 1107 m 7 Y s 1060 1100 m 14 Y s 1081
 1107 m 7 Y s 1102 1107 m 7 Y s 1124 1107 m 7 Y s 1145 1107 m 7 Y s 1166 1100 m 14 Y s 1188 1107 m 7 Y s 1209 1107 m 7 Y s 1230 1107 m 7 Y s 1252 1107 m 7 Y s 1273 1100 m 14 Y s 1294 1107 m 7 Y s 1316 1107 m 7 Y s 1337 1107 m 7 Y s 1358 1107 m 7 Y s
 1380 1100 m 14 Y s 953 1100 m 14 Y s 931 1107 m 7 Y s 910 1107 m 7 Y s 1380 1100 m 14 Y s 1401 1107 m 7 Y s 1423 1107 m 7 Y s 1444 1107 m 7 Y s 899 685 m 429 Y s 915 685 m -16 X s 907 700 m -8 X s 907 716 m -8 X s 907 732 m -8 X s 907 747 m -8 X s
 915 763 m -16 X s 907 779 m -8 X s 907 795 m -8 X s 907 810 m -8 X s 907 826 m -8 X s 915 842 m -16 X s 907 857 m -8 X s 907 873 m -8 X s 907 889 m -8 X s 907 904 m -8 X s 915 920 m -16 X s 907 936 m -8 X s 907 952 m -8 X s 907 967 m -8 X s 907 983
 m -8 X s 915 999 m -16 X s 907 1014 m -8 X s 907 1030 m -8 X s 907 1046 m -8 X s 907 1062 m -8 X s 915 1077 m -16 X s 915 1077 m -16 X s 907 1093 m -8 X s 907 1109 m -8 X s 1447 685 m 429 Y s 1430 685 m 17 X s 1438 700 m 9 X s 1438 716 m 9 X s 1438
 732 m 9 X s 1438 747 m 9 X s 1430 763 m 17 X s 1438 779 m 9 X s 1438 795 m 9 X s 1438 810 m 9 X s 1438 826 m 9 X s 1430 842 m 17 X s 1438 857 m 9 X s 1438 873 m 9 X s 1438 889 m 9 X s 1438 904 m 9 X s 1430 920 m 17 X s 1438 936 m 9 X s 1438 952 m 9
 X s 1438 967 m 9 X s 1438 983 m 9 X s 1430 999 m 17 X s 1438 1014 m 9 X s 1438 1030 m 9 X s 1438 1046 m 9 X s 1438 1062 m 9 X s 1430 1077 m 17 X s 1430 1077 m 17 X s 1438 1093 m 9 X s 1438 1109 m 9 X s
 gsave  710 567 779 603 C 1474.92 682.347 t 90 r /Helvetica-Bold findfont 19.9602 sf 0 0 m (U/O\255flow \(S,B\): \(0.0, 0.0\)% / \(0.0, 0.0\)%) show NC gr  0.490196 0.545098 0.615686 c 0.364706 0.419608 0.490196 c 332 38 786 1130 bf 0.490196 0.545098
 0.615686 c 786 1130 m 332 X s 1118 1130 m 38 Y s 1118 1168 m -332 X s 786 1168 m -38 Y s 1 1 1 c black 1 1 1 c
 gsave  710 567 779 603 C 790.007 1142.38 t 0 r /Helvetica-Bold findfont 28.5146 sf 0 0 m (Input variable: hh.HT_l1) show NC gr  0.490196 0.545098 0.615686 c 0.941176 0.941176 0.941176 c 711 567 1534 603 bf black 1 1 0.992157 c 547 429 1655 685 bf
 black 547 429 1655 685 bl 0 0 0.933333 c 6 lw 0.49 0.6 0.82 c black 3 lw 0.49 0.6 0.82 c 1655 685 m 390 Y 14 X -34 Y 14 X -43 Y 13 X -89 Y 14 X 30 Y 14 X -57 Y 13 X -9 Y 14 X -46 Y 14 X 17 Y 13 X -2 Y 14 X -12 Y 14 X -13 Y 13 X -6 Y 14 X 12 Y 14 X
 -12 Y 13 X -11 Y 14 X -1 Y 14 X 9 Y 13 X -4 Y 14 X -5 Y 14 X -18 Y 14 X 20 Y 13 X -25 Y 14 X 10 Y 14 X -7 Y 13 X 5 Y 14 X -15 Y 14 X 14 Y 27 X -20 Y 14 X 13 Y 13 X -22 Y 14 X 17 Y 27 X 16 Y 14 X -20 Y 14 X 11 Y 13 X 25 Y 14 X -7 Y 14 X -109 Y 13 X
 -2 Y f 6 lw 0 0 0.933333 c 0.49 0.6 0.82 c 0 0 0.933333 c 1655 1075 m 14 X -34 Y 14 X -43 Y 13 X -89 Y 14 X 30 Y 14 X -57 Y 13 X -9 Y 14 X -46 Y 14 X 17 Y 13 X -2 Y 14 X -12 Y 14 X -13 Y 13 X -6 Y 14 X 12 Y 14 X -12 Y 13 X -11 Y 14 X -1 Y 14 X 9 Y
 13 X -4 Y 14 X -5 Y 14 X -18 Y 14 X 20 Y 13 X -25 Y 14 X 10 Y 14 X -7 Y 13 X 5 Y 14 X -15 Y 14 X 14 Y 27 X -20 Y 14 X 13 Y 13 X -22 Y 14 X 17 Y 27 X 16 Y 14 X -20 Y 14 X 11 Y 13 X 25 Y 14 X -7 Y 14 X -109 Y 13 X -2 Y s black 3 lw 1655 685 m 547 X s
 1691 698 m -13 Y s 1705 691 m -6 Y s 1719 691 m -6 Y s 1734 691 m -6 Y s 1748 691 m -6 Y s 1762 698 m -13 Y s 1776 691 m -6 Y s 1791 691 m -6 Y s 1805 691 m -6 Y s 1819 691 m -6 Y s 1833 698 m -13 Y s 1847 691 m -6 Y s 1862 691 m -6 Y s 1876 691 m
 -6 Y s 1890 691 m -6 Y s 1904 698 m -13 Y s 1919 691 m -6 Y s 1933 691 m -6 Y s 1947 691 m -6 Y s 1961 691 m -6 Y s 1976 698 m -13 Y s 1990 691 m -6 Y s 2004 691 m -6 Y s 2018 691 m -6 Y s 2033 691 m -6 Y s 2047 698 m -13 Y s 2061 691 m -6 Y s 2075
 691 m -6 Y s 2089 691 m -6 Y s 2104 691 m -6 Y s 2118 698 m -13 Y s 2132 691 m -6 Y s 2146 691 m -6 Y s 2161 691 m -6 Y s 2175 691 m -6 Y s 2189 698 m -13 Y s 1691 698 m -13 Y s 1677 691 m -6 Y s 1662 691 m -6 Y s 2189 698 m -13 Y s
 gsave  711 567 1534 603 C 1679.47 656.444 t 0 r /Helvetica findfont 25.6631 sf 0 0 m (0.1) show NC gr 
 gsave  711 567 1534 603 C 1668.11 656.444 t 0 r /Symbol findfont 25.6631 sf 0 0 m (-) show NC gr 
 gsave  711 567 1534 603 C 1741.99 656.444 t 0 r /Helvetica findfont 25.6631 sf 0 0 m (0.05) show NC gr 
 gsave  711 567 1534 603 C 1730.63 656.444 t 0 r /Symbol findfont 25.6631 sf 0 0 m (-) show NC gr 
 gsave  711 567 1534 603 C 1824.4 656.444 t 0 r /Helvetica findfont 25.6631 sf 0 0 m (0) show NC gr 
 gsave  711 567 1534 603 C 1878.4 656.444 t 0 r /Helvetica findfont 25.6631 sf 0 0 m (0.05) show NC gr 
 gsave  711 567 1534 603 C 1957.97 656.444 t 0 r /Helvetica findfont 25.6631 sf 0 0 m (0.1) show NC gr 
 gsave  711 567 1534 603 C 2020.48 656.444 t 0 r /Helvetica findfont 25.6631 sf 0 0 m (0.15) show NC gr 
 gsave  711 567 1534 603 C 2100.05 656.444 t 0 r /Helvetica findfont 25.6631 sf 0 0 m (0.2) show NC gr 
 gsave  711 567 1534 603 C 2162.57 656.444 t 0 r /Helvetica findfont 25.6631 sf 0 0 m (0.25) show NC gr 
 gsave  711 567 1534 603 C 2088.69 613.818 t 0 r /Helvetica findfont 28.5146 sf 0 0 m (hh.HP_l2) show NC gr  1655 1114 m 547 X s 1691 1100 m 14 Y s 1705 1107 m 7 Y s 1719 1107 m 7 Y s 1734 1107 m 7 Y s 1748 1107 m 7 Y s 1762 1100 m 14 Y s 1776 1107 m
 7 Y s 1791 1107 m 7 Y s 1805 1107 m 7 Y s 1819 1107 m 7 Y s 1833 1100 m 14 Y s 1847 1107 m 7 Y s 1862 1107 m 7 Y s 1876 1107 m 7 Y s 1890 1107 m 7 Y s 1904 1100 m 14 Y s 1919 1107 m 7 Y s 1933 1107 m 7 Y s 1947 1107 m 7 Y s 1961 1107 m 7 Y s 1976
 1100 m 14 Y s 1990 1107 m 7 Y s 2004 1107 m 7 Y s 2018 1107 m 7 Y s 2033 1107 m 7 Y s 2047 1100 m 14 Y s 2061 1107 m 7 Y s 2075 1107 m 7 Y s 2089 1107 m 7 Y s 2104 1107 m 7 Y s 2118 1100 m 14 Y s 2132 1107 m 7 Y s 2146 1107 m 7 Y s 2161 1107 m 7 Y s
 2175 1107 m 7 Y s 2189 1100 m 14 Y s 1691 1100 m 14 Y s 1677 1107 m 7 Y s 1662 1107 m 7 Y s 2189 1100 m 14 Y s 1655 685 m 429 Y s 1671 685 m -16 X s 1663 695 m -8 X s 1663 706 m -8 X s 1663 716 m -8 X s 1663 726 m -8 X s 1671 737 m -16 X s 1663 747
 m -8 X s 1663 758 m -8 X s 1663 768 m -8 X s 1663 779 m -8 X s 1671 789 m -16 X s 1663 800 m -8 X s 1663 810 m -8 X s 1663 821 m -8 X s 1663 831 m -8 X s 1671 842 m -16 X s 1663 852 m -8 X s 1663 862 m -8 X s 1663 873 m -8 X s 1663 883 m -8 X s 1671
 894 m -16 X s 1663 904 m -8 X s 1663 915 m -8 X s 1663 925 m -8 X s 1663 936 m -8 X s 1671 946 m -16 X s 1663 957 m -8 X s 1663 967 m -8 X s 1663 978 m -8 X s 1663 988 m -8 X s 1671 999 m -16 X s 1663 1009 m -8 X s 1663 1019 m -8 X s 1663 1030 m -8
 X s 1663 1040 m -8 X s 1671 1051 m -16 X s 1663 1061 m -8 X s 1663 1072 m -8 X s 1663 1082 m -8 X s 1663 1093 m -8 X s 1671 1103 m -16 X s 1671 1103 m -16 X s
 gsave  711 567 1534 603 C 1631.16 673.495 t 0 r /Helvetica findfont 25.6631 sf 0 0 m (0) show NC gr 
 gsave  711 567 1534 603 C 1634.01 727.488 t 0 r /Helvetica findfont 25.6631 sf 0 0 m (1) show NC gr 
 gsave  711 567 1534 603 C 1631.16 778.64 t 0 r /Helvetica findfont 25.6631 sf 0 0 m (2) show NC gr 
 gsave  711 567 1534 603 C 1631.16 832.633 t 0 r /Helvetica findfont 25.6631 sf 0 0 m (3) show NC gr 
 gsave  711 567 1534 603 C 1631.16 883.784 t 0 r /Helvetica findfont 25.6631 sf 0 0 m (4) show NC gr 
 gsave  711 567 1534 603 C 1631.16 934.936 t 0 r /Helvetica findfont 25.6631 sf 0 0 m (5) show NC gr 
 gsave  711 567 1534 603 C 1631.16 988.929 t 0 r /Helvetica findfont 25.6631 sf 0 0 m (6) show NC gr 
 gsave  711 567 1534 603 C 1631.16 1040.08 t 0 r /Helvetica findfont 25.6631 sf 0 0 m (7) show NC gr 
 gsave  711 567 1534 603 C 1631.16 1094.07 t 0 r /Helvetica findfont 25.6631 sf 0 0 m (8) show NC gr 
 gsave  711 567 1534 603 C 1557.28 1011.66 t 90 r /Helvetica findfont 28.5146 sf 0 0 m (0.00961 ) show NC gr 
 gsave  711 567 1534 603 C 1543.07 1008.82 t 90 r /Helvetica findfont 19.9602 sf 0 0 m ( ) show NC gr 
 gsave  711 567 1534 603 C 1557.28 997.454 t 90 r /Helvetica findfont 28.5146 sf 0 0 m (/) show NC gr 
 gsave  711 567 1534 603 C 1565.8 994.613 t 90 r /Helvetica findfont 19.9602 sf 0 0 m ( ) show NC gr 
 gsave  711 567 1534 603 C 1557.28 889.468 t 90 r /Helvetica findfont 28.5146 sf 0 0 m (\(1/N\) dN) show NC gr  2202 685 m 429 Y s 2186 685 m 16 X s 2194 695 m 8 X s 2194 706 m 8 X s 2194 716 m 8 X s 2194 726 m 8 X s 2186 737 m 16 X s 2194 747 m 8 X
 s 2194 758 m 8 X s 2194 768 m 8 X s 2194 779 m 8 X s 2186 789 m 16 X s 2194 800 m 8 X s 2194 810 m 8 X s 2194 821 m 8 X s 2194 831 m 8 X s 2186 842 m 16 X s 2194 852 m 8 X s 2194 862 m 8 X s 2194 873 m 8 X s 2194 883 m 8 X s 2186 894 m 16 X s 2194
 904 m 8 X s 2194 915 m 8 X s 2194 925 m 8 X s 2194 936 m 8 X s 2186 946 m 16 X s 2194 957 m 8 X s 2194 967 m 8 X s 2194 978 m 8 X s 2194 988 m 8 X s 2186 999 m 16 X s 2194 1009 m 8 X s 2194 1019 m 8 X s 2194 1030 m 8 X s 2194 1040 m 8 X s 2186 1051
 m 16 X s 2194 1061 m 8 X s 2194 1072 m 8 X s 2194 1082 m 8 X s 2194 1093 m 8 X s 2186 1103 m 16 X s 2186 1103 m 16 X s 0.490196 0.545098 0.615686 c 0.364706 0.419608 0.490196 c 338 38 1542 1130 bf 0.490196 0.545098 0.615686 c 1542 1130 m 338 X s
 1880 1130 m 38 Y s 1880 1168 m -338 X s 1542 1168 m -38 Y s 1 1 1 c black 1 1 1 c
 gsave  711 567 1534 603 C 1545.91 1142.38 t 0 r /Helvetica-Bold findfont 28.5146 sf 0 0 m (Input variable: hh.HP_l2) show NC gr  1 0 0 c 6 lw black 3 lw 1 0 0 c 2189 685 m -1 X s 2189 700 m -16 -15 d s 2189 715 m -31 -30 d s 2189 731 m -46 -46 d s
 2189 746 m -61 -61 d s 2189 761 m -76 -76 d s 2189 776 m -91 -91 d s 2188 790 m -105 -105 d s 2175 793 m -107 -108 d s 2169 802 m -116 -117 d s 2161 809 m -123 -124 d s 2161 824 m -138 -139 d s 2155 834 m -7 -8 d s 2146 824 m -12 -12 d s 2131 809 m
 -123 -124 d s 2120 813 m -128 -128 d s 2114 822 m -137 -137 d s 2107 830 m -145 -145 d s 2093 832 m -1 Y s 2092 830 m -145 -145 d s 2079 833 m -13 -14 d s 2064 818 m -132 -133 d s 2071 839 m -5 -5 d s 2052 820 m -135 -135 d s 2052 836 m -14 -14 d s
 2038 822 m -136 -137 d s 2052 851 m -14 -14 d s 2021 820 m -10 -10 d s 2004 803 m -117 -118 d s 1996 809 m -124 -124 d s 1970 799 m -113 -114 d s 1966 810 m -124 -125 d s 1950 809 m -123 -124 d s 1935 809 m -123 -124 d s 1920 809 m -19 -19 d s 1888
 777 m -92 -92 d s 1908 812 m -7 -6 d s 1888 792 m -107 -107 d s 1885 804 m -11 -11 d s 1865 784 m -99 -99 d s 1860 795 m -109 -110 d s 1860 810 m -124 -125 d s 1860 825 m -13 -14 d s 1833 798 m -112 -113 d s 1847 827 m -1 Y s 1831 810 m -125 -125 d
 s 1819 814 m -128 -129 d s 1815 825 m -139 -140 d s 1806 831 m -145 -146 d s 1793 833 m -1 -1 d s 1779 819 m -124 -125 d s 1765 820 m -110 -111 d s 1765 835 m -110 -110 d s 1759 844 m -8 -8 d s 1751 836 m -96 -96 d s 1737 838 m -82 -83 d s 1737 853
 m -82 -83 d s 1734 865 m -10 -11 d s 1711 842 m -56 -57 d s 1710 856 m -55 -56 d s 1710 871 m -55 -55 d s 1707 883 m -11 -11 d s 1694 869 m -39 -38 d s 1683 874 m -28 -28 d s 1669 875 m -14 -14 d s 1662 883 m -7 -7 d s 6 lw 1655 883 m 14 X -8 Y 14 X
 -6 Y 13 X 14 Y 14 X -41 Y 14 X 23 Y 13 X -29 Y 14 X 8 Y 14 X -25 Y 27 X 14 Y 14 X -8 Y 13 X -15 Y 14 X -12 Y 14 X 29 Y 13 X -43 Y 14 X 20 Y 14 X -27 Y 13 X 35 Y 14 X -3 Y 41 X 1 Y 14 X -13 Y 14 X 12 Y 13 X -6 Y 14 X 17 Y 14 X 2 Y 13 X 29 Y 14 X -33
 Y 14 X 21 Y 13 X -9 Y 14 X 2 Y 14 X -10 Y 13 X -13 Y 14 X 15 Y 14 X 10 Y 13 X -32 Y 14 X -12 Y 14 X -105 Y 13 X s black 3 lw 1655 685 m 547 X s 1691 698 m -13 Y s 1705 691 m -6 Y s 1719 691 m -6 Y s 1734 691 m -6 Y s 1748 691 m -6 Y s 1762 698 m -13
 Y s 1776 691 m -6 Y s 1791 691 m -6 Y s 1805 691 m -6 Y s 1819 691 m -6 Y s 1833 698 m -13 Y s 1847 691 m -6 Y s 1862 691 m -6 Y s 1876 691 m -6 Y s 1890 691 m -6 Y s 1904 698 m -13 Y s 1919 691 m -6 Y s 1933 691 m -6 Y s 1947 691 m -6 Y s 1961 691
 m -6 Y s 1976 698 m -13 Y s 1990 691 m -6 Y s 2004 691 m -6 Y s 2018 691 m -6 Y s 2033 691 m -6 Y s 2047 698 m -13 Y s 2061 691 m -6 Y s 2075 691 m -6 Y s 2089 691 m -6 Y s 2104 691 m -6 Y s 2118 698 m -13 Y s 2132 691 m -6 Y s 2146 691 m -6 Y s
 2161 691 m -6 Y s 2175 691 m -6 Y s 2189 698 m -13 Y s 1691 698 m -13 Y s 1677 691 m -6 Y s 1662 691 m -6 Y s 2189 698 m -13 Y s 1655 1114 m 547 X s 1691 1100 m 14 Y s 1705 1107 m 7 Y s 1719 1107 m 7 Y s 1734 1107 m 7 Y s 1748 1107 m 7 Y s 1762 1100
 m 14 Y s 1776 1107 m 7 Y s 1791 1107 m 7 Y s 1805 1107 m 7 Y s 1819 1107 m 7 Y s 1833 1100 m 14 Y s 1847 1107 m 7 Y s 1862 1107 m 7 Y s 1876 1107 m 7 Y s 1890 1107 m 7 Y s 1904 1100 m 14 Y s 1919 1107 m 7 Y s 1933 1107 m 7 Y s 1947 1107 m 7 Y s 1961
 1107 m 7 Y s 1976 1100 m 14 Y s 1990 1107 m 7 Y s 2004 1107 m 7 Y s 2018 1107 m 7 Y s 2033 1107 m 7 Y s 2047 1100 m 14 Y s 2061 1107 m 7 Y s 2075 1107 m 7 Y s 2089 1107 m 7 Y s 2104 1107 m 7 Y s 2118 1100 m 14 Y s 2132 1107 m 7 Y s 2146 1107 m 7 Y s
 2161 1107 m 7 Y s 2175 1107 m 7 Y s 2189 1100 m 14 Y s 1691 1100 m 14 Y s 1677 1107 m 7 Y s 1662 1107 m 7 Y s 2189 1100 m 14 Y s 1655 685 m 429 Y s 1671 685 m -16 X s 1663 695 m -8 X s 1663 706 m -8 X s 1663 716 m -8 X s 1663 726 m -8 X s 1671 737 m
 -16 X s 1663 747 m -8 X s 1663 758 m -8 X s 1663 768 m -8 X s 1663 779 m -8 X s 1671 789 m -16 X s 1663 800 m -8 X s 1663 810 m -8 X s 1663 821 m -8 X s 1663 831 m -8 X s 1671 842 m -16 X s 1663 852 m -8 X s 1663 862 m -8 X s 1663 873 m -8 X s 1663
 883 m -8 X s 1671 894 m -16 X s 1663 904 m -8 X s 1663 915 m -8 X s 1663 925 m -8 X s 1663 936 m -8 X s 1671 946 m -16 X s 1663 957 m -8 X s 1663 967 m -8 X s 1663 978 m -8 X s 1663 988 m -8 X s 1671 999 m -16 X s 1663 1009 m -8 X s 1663 1019 m -8 X
 s 1663 1030 m -8 X s 1663 1040 m -8 X s 1671 1051 m -16 X s 1663 1061 m -8 X s 1663 1072 m -8 X s 1663 1082 m -8 X s 1663 1093 m -8 X s 1671 1103 m -16 X s 1671 1103 m -16 X s 2202 685 m 429 Y s 2186 685 m 16 X s 2194 695 m 8 X s 2194 706 m 8 X s
 2194 716 m 8 X s 2194 726 m 8 X s 2186 737 m 16 X s 2194 747 m 8 X s 2194 758 m 8 X s 2194 768 m 8 X s 2194 779 m 8 X s 2186 789 m 16 X s 2194 800 m 8 X s 2194 810 m 8 X s 2194 821 m 8 X s 2194 831 m 8 X s 2186 842 m 16 X s 2194 852 m 8 X s 2194 862
 m 8 X s 2194 873 m 8 X s 2194 883 m 8 X s 2186 894 m 16 X s 2194 904 m 8 X s 2194 915 m 8 X s 2194 925 m 8 X s 2194 936 m 8 X s 2186 946 m 16 X s 2194 957 m 8 X s 2194 967 m 8 X s 2194 978 m 8 X s 2194 988 m 8 X s 2186 999 m 16 X s 2194 1009 m 8 X s
 2194 1019 m 8 X s 2194 1030 m 8 X s 2194 1040 m 8 X s 2186 1051 m 16 X s 2194 1061 m 8 X s 2194 1072 m 8 X s 2194 1082 m 8 X s 2194 1093 m 8 X s 2186 1103 m 16 X s 2186 1103 m 16 X s
 gsave  711 567 1534 603 C 2230.83 682.347 t 90 r /Helvetica-Bold findfont 19.9602 sf 0 0 m (U/O\255flow \(S,B\): \(0.0, 0.0\)% / \(0.0, 0.0\)%) show NC gr  0.490196 0.545098 0.615686 c 0.364706 0.419608 0.490196 c 338 38 1542 1130 bf 0.490196
 0.545098 0.615686 c 1542 1130 m 338 X s 1880 1130 m 38 Y s 1880 1168 m -338 X s 1542 1168 m -38 Y s 1 1 1 c black 1 1 1 c
 gsave  711 567 1534 603 C 1545.91 1142.38 t 0 r /Helvetica-Bold findfont 28.5146 sf 0 0 m (Input variable: hh.HP_l2) show NC gr  0.490196 0.545098 0.615686 c 0.941176 0.941176 0.941176 c 710 567 23 12 bf 0.490196 0.545098 0.615686 c 0.941176
 0.941176 0.941176 c 710 567 779 12 bf 0.490196 0.545098 0.615686 c 0.941176 0.941176 0.941176 c 711 567 1534 12 bf
 gr  gr showpage
end
%%EOF
