%!PS-Adobe-2.0 EPSF-2.0
%%BoundingBox:  0 0 567 296
%%Title: dataset_class_l1/plots/variables_id_c3.eps: Input variables (training sample)
%%Creator: ROOT Version 6.18/00
%%CreationDate: Sat Sep 14 11:54:36 2019
%%DocumentNeededResources: ProcSet (FontSetInit)
%%EndComments
%%BeginProlog
80 dict begin
/s {stroke} def /l {lineto} def /m {moveto} def /t {translate} def
/r {rotate} def /rl {roll}  def /R {repeat} def
/d {rlineto} def /rm {rmoveto} def /gr {grestore} def /f {eofill} def
/c {setrgbcolor} def /black {0 setgray} def /sd {setdash} def
/cl {closepath} def /sf {scalefont setfont} def /lw {setlinewidth} def
/box {m dup 0 exch d exch 0 d 0 exch neg d cl} def
/NC{systemdict begin initclip end}def/C{NC box clip newpath}def
/bl {box s} def /bf {gsave box gsave f grestore 1 lw [] 0 sd s grestore} def /Y { 0 exch d} def /X { 0 d} def 
/K {{pop pop 0 moveto} exch kshow} bind def
/ita {/ang 15 def gsave [1 0 ang dup sin exch cos div 1 0 0] concat} def 
/mp {newpath /y exch def /x exch def} def
/side {[w .77 mul w .23 mul] .385 w mul sd w 0 l currentpoint t -144 r} def
/mr {mp x y w2 0 360 arc} def /m24 {mr s} def /m20 {mr f} def
/mb {mp x y w2 add m w2 neg 0 d 0 w neg d w 0 d 0 w d cl} def
/mt {mp x y w2 add m w2 neg w neg d w 0 d cl} def
/w4 {w 4 div} def
/w6 {w 6 div} def
/w8 {w 8 div} def
/m21 {mb f} def /m25 {mb s} def /m22 {mt f} def /m26{mt s} def
/m23 {mp x y w2 sub m w2 w d w neg 0 d cl f} def
/m27 {mp x y w2 add m w3 neg w2 neg d w3 w2 neg d w3 w2 d cl s} def
/m28 {mp x w2 sub y w2 sub w3 add m w3 0 d  0 w3 neg d w3 0 d 0 w3 d w3 0 d  0 w3 d w3 neg 0 d 0 w3 d w3 neg 0 d 0 w3 neg d w3 neg 0 d cl s } def
/m29 {mp gsave x w2 sub y w2 add w3 sub m currentpoint t 4 {side} repeat cl fill gr} def
/m30 {mp gsave x w2 sub y w2 add w3 sub m currentpoint t 4 {side} repeat cl s gr} def
/m31 {mp x y w2 sub m 0 w d x w2 sub y m w 0 d x w2 sub y w2 add m w w neg d x w2 sub y w2 sub m w w d s} def
/m32 {mp x y w2 sub m w2 w d w neg 0 d cl s} def
/m33 {mp x y w2 add m w3 neg w2 neg d w3 w2 neg d w3 w2 d cl f} def
/m34 {mp x w2 sub y w2 sub w3 add m w3 0 d  0 w3 neg d w3 0 d 0 w3 d w3 0 d  0 w3 d w3 neg 0 d 0 w3 d w3 neg 0 d 0 w3 neg d w3 neg 0 d cl f } def
/m35 {mp x y w2 add m w2 neg w2 neg d w2 w2 neg d w2 w2 d w2 neg w2 d x y w2 sub m 0 w d x w2 sub y m w 0 d s} def
/m36 {mb x w2 sub y w2 add m w w neg d x w2 sub y w2 sub m w w d s} def
/m37 {mp x y m w4 neg w2 d w4 neg w2 neg d w2 0 d  w4 neg w2 neg d w2 0 d w4 neg w2 d w2 0 d w4 neg w2 d w4 neg w2 neg d cl s} def
/m38 {mp x w4 sub y w2 add m w4 neg w4 neg d 0 w2 neg d w4 w4 neg d w2 0 d w4 w4 d 0 w2 d w4 neg w4 d w2 neg 0 d x y w2 sub m 0 w d x w2 sub y m w 0 d cl s} def
/m39 {mp x y m w4 neg w2 d w4 neg w2 neg d w2 0 d  w4 neg w2 neg d w2 0 d w4 neg w2 d w2 0 d w4 neg w2 d w4 neg w2 neg d cl f} def
/m40 {mp x y m w4 w2 d w4 w4 neg d w2 neg w4 neg d w2 w4 neg d w4 neg w4 neg d w4 neg w2 d w4 neg w2 neg d w4 neg w4 d w2 w4 d w2 neg w4 d w4 w4 d w4 w2 neg d cl s} def
/m41 {mp x y m w4 w2 d w4 w4 neg d w2 neg w4 neg d w2 w4 neg d w4 neg w4 neg d w4 neg w2 d w4 neg w2 neg d w4 neg w4 d w2 w4 d w2 neg w4 d w4 w4 d w4 w2 neg d cl f} def
/m42 {mp x y w2 add m w8 neg w2 -3 4 div mul d w2 -3 4 div mul w8 neg d w2 3 4 div mul w8 neg d w8 w2 -3 4 div mul d w8 w2 3 4 div mul d w2 3 4 div mul w8 d w2 -3 4 div mul w8 d w8 neg w2 3 4 div mul d cl s} def
/m43 {mp x y w2 add m w8 neg w2 -3 4 div mul d w2 -3 4 div mul w8 neg d w2 3 4 div mul w8 neg d w8 w2 -3 4 div mul d w8 w2 3 4 div mul d w2 3 4 div mul w8 d w2 -3 4 div mul w8 d w8 neg w2 3 4 div mul d cl f} def
/m44 {mp x y m w6 neg w2 d w2 2 3 div mul 0 d w6 neg w2 neg d w2 w6 d 0 w2 -2 3 div mul d w2 neg w6 d w6 w2 neg d w2 -2 3 div mul 0 d w6 w2 d w2 neg w6 neg d 0 w2 2 3 div mul d w2 w6 neg d cl s} def
/m45 {mp x y m w6 neg w2 d w2 2 3 div mul 0 d w6 neg w2 neg d w2 w6 d 0 w2 -2 3 div mul d w2 neg w6 d w6 w2 neg d w2 -2 3 div mul 0 d w6 w2 d w2 neg w6 neg d 0 w2 2 3 div mul d w2 w6 neg d cl f} def
/m46 {mp x y w4 add m w4 neg w4 d w4 neg w4 neg d  w4 w4 neg d w4 neg w4 neg d w4 w4 neg d w4 w4 d w4 w4 neg d w4 w4 d w4 neg w4 d w4 w4 d w4 neg w4 d w4 neg w4 neg d cl s} def
/m47 {mp x y w4 add m w4 neg w4 d w4 neg w4 neg d w4 w4 neg d w4 neg w4 neg d  w4 w4 neg d w4 w4 d w4 w4 neg d w4 w4 d w4 neg w4 d w4 w4 d w4 neg w4 d w4 neg w4 neg d cl f} def
/m48 {mp x y w4 add m w4 neg w4 d w4 neg w4 neg d w4 w4 neg d  w4 neg w4 neg d w4 w4 neg d w4 w4 d w4 w4 neg d w4 w4 d w4 neg w4 d w4 w4 d w4 neg w4 d w4 neg w4 neg d  w4 w4 neg d w4 neg w4 neg d w4 neg w4 d w4 w4 d cl f} def
/m49 {mp x w2 sub w3 add y w2 sub w3 add m  0 w3 neg d w3 0 d 0 w3 d w3 0 d 0 w3 d w3 neg 0 d 0 w3 d w3 neg 0 d 0 w3 neg d w3 neg 0 d 0 w3 neg d w3 0 d 0 w3 d w3 0 d 0 w3 neg d w3 neg 0 d cl f } def
/m2 {mp x y w2 sub m 0 w d x w2 sub y m w 0 d s} def
/m5 {mp x w2 sub y w2 sub m w w d x w2 sub y w2 add m w w neg d s} def
%%IncludeResource: ProcSet (FontSetInit)
%%IncludeResource: font Times-Roman
%%IncludeResource: font Times-Italic
%%IncludeResource: font Times-Bold
%%IncludeResource: font Times-BoldItalic
%%IncludeResource: font Helvetica
%%IncludeResource: font Helvetica-Oblique
%%IncludeResource: font Helvetica-Bold
%%IncludeResource: font Helvetica-BoldOblique
%%IncludeResource: font Courier
%%IncludeResource: font Courier-Oblique
%%IncludeResource: font Courier-Bold
%%IncludeResource: font Courier-BoldOblique
%%IncludeResource: font Symbol
%%IncludeResource: font ZapfDingbats
/reEncode {exch findfont dup length dict begin {1 index /FID eq  {pop pop} {def} ifelse } forall /Encoding exch def currentdict end dup /FontName get exch definefont pop } def [/Times-Bold /Times-Italic /Times-BoldItalic /Helvetica /Helvetica-Oblique
 /Helvetica-Bold /Helvetica-BoldOblique /Courier /Courier-Oblique /Courier-Bold /Courier-BoldOblique /Times-Roman /AvantGarde-Book /AvantGarde-BookOblique /AvantGarde-Demi /AvantGarde-DemiOblique /Bookman-Demi /Bookman-DemiItalic /Bookman-Light
 /Bookman-LightItalic /Helvetica-Narrow /Helvetica-Narrow-Bold /Helvetica-Narrow-BoldOblique /Helvetica-Narrow-Oblique /NewCenturySchlbk-Roman /NewCenturySchlbk-Bold /NewCenturySchlbk-BoldItalic /NewCenturySchlbk-Italic /Palatino-Bold
 /Palatino-BoldItalic /Palatino-Italic /Palatino-Roman ] {ISOLatin1Encoding reEncode } forall
%%EndProlog
%%BeginSetup
%%EndSetup
newpath  gsave  .25 .25 scale  gsave  0 0 t 0.490196 0.545098 0.615686 c[  ] 0 sd 3 lw 0.941176 0.941176 0.941176 c 2268 1182 0 0 bf 0.490196 0.545098 0.615686 c 0.941176 0.941176 0.941176 c 710 567 23 603 bf black 1 1 0.992157 c 548 429 143 685 bf
 black 548 429 143 685 bl 0 0 0.933333 c 6 lw 0.49 0.6 0.82 c black 3 lw 0.49 0.6 0.82 c 143 685 m 339 Y 14 X -119 Y 14 X -46 Y 14 X -26 Y 13 X -4 Y 14 X -4 Y 14 X -6 Y 13 X -7 Y 14 X -22 Y 14 X 9 Y 13 X 1 Y 14 X -17 Y 14 X 2 Y 27 X -16 Y 14 X 4 Y 13
 X 22 Y 14 X -22 Y 14 X -2 Y 13 X 8 Y 14 X -2 Y 14 X 1 Y 13 X 10 Y 14 X -20 Y 14 X -4 Y 13 X 13 Y 14 X -5 Y 14 X -18 Y 13 X 8 Y 14 X 13 Y 14 X 5 Y 13 X -12 Y 14 X 7 Y 14 X -2 Y 14 X -8 Y 13 X 1 Y 14 X -19 Y 14 X -38 Y 13 X -16 Y 14 X -8 Y 14 X f 6 lw
 0 0 0.933333 c 0.49 0.6 0.82 c 0 0 0.933333 c 143 1024 m 14 X -119 Y 14 X -46 Y 14 X -26 Y 13 X -4 Y 14 X -4 Y 14 X -6 Y 13 X -7 Y 14 X -22 Y 14 X 9 Y 13 X 1 Y 14 X -17 Y 14 X 2 Y 27 X -16 Y 14 X 4 Y 13 X 22 Y 14 X -22 Y 14 X -2 Y 13 X 8 Y 14 X -2 Y
 14 X 1 Y 13 X 10 Y 14 X -20 Y 14 X -4 Y 13 X 13 Y 14 X -5 Y 14 X -18 Y 13 X 8 Y 14 X 13 Y 14 X 5 Y 13 X -12 Y 14 X 7 Y 14 X -2 Y 14 X -8 Y 13 X 1 Y 14 X -19 Y 14 X -38 Y 13 X -16 Y 14 X -8 Y 14 X s black 3 lw 143 685 m 548 X s 143 698 m -13 Y s 157
 691 m -6 Y s 170 691 m -6 Y s 184 691 m -6 Y s 197 698 m -13 Y s 210 691 m -6 Y s 224 691 m -6 Y s 237 691 m -6 Y s 250 698 m -13 Y s 264 691 m -6 Y s 277 691 m -6 Y s 290 691 m -6 Y s 304 698 m -13 Y s 317 691 m -6 Y s 330 691 m -6 Y s 344 691 m -6
 Y s 357 698 m -13 Y s 370 691 m -6 Y s 384 691 m -6 Y s 397 691 m -6 Y s 410 698 m -13 Y s 424 691 m -6 Y s 437 691 m -6 Y s 450 691 m -6 Y s 464 698 m -13 Y s 477 691 m -6 Y s 490 691 m -6 Y s 504 691 m -6 Y s 517 698 m -13 Y s 530 691 m -6 Y s 544
 691 m -6 Y s 557 691 m -6 Y s 570 698 m -13 Y s 584 691 m -6 Y s 597 691 m -6 Y s 611 691 m -6 Y s 624 698 m -13 Y s 637 691 m -6 Y s 651 691 m -6 Y s 664 691 m -6 Y s 677 698 m -13 Y s 143 698 m -13 Y s 677 698 m -13 Y s
 gsave  710 567 23 603 C 142.088 656.444 t 0 r /Helvetica findfont 25.6631 sf 0 0 m (1) show NC gr 
 gsave  710 567 23 603 C 127.879 656.444 t 0 r /Symbol findfont 25.6631 sf 0 0 m (-) show NC gr 
 gsave  710 567 23 603 C 184.714 656.444 t 0 r /Helvetica findfont 25.6631 sf 0 0 m (0.8) show NC gr 
 gsave  710 567 23 603 C 170.505 656.444 t 0 r /Symbol findfont 25.6631 sf 0 0 m (-) show NC gr 
 gsave  710 567 23 603 C 238.707 656.444 t 0 r /Helvetica findfont 25.6631 sf 0 0 m (0.6) show NC gr 
 gsave  710 567 23 603 C 224.498 656.444 t 0 r /Symbol findfont 25.6631 sf 0 0 m (-) show NC gr 
 gsave  710 567 23 603 C 289.858 656.444 t 0 r /Helvetica findfont 25.6631 sf 0 0 m (0.4) show NC gr 
 gsave  710 567 23 603 C 275.65 656.444 t 0 r /Symbol findfont 25.6631 sf 0 0 m (-) show NC gr 
 gsave  710 567 23 603 C 343.852 656.444 t 0 r /Helvetica findfont 25.6631 sf 0 0 m (0.2) show NC gr 
 gsave  710 567 23 603 C 329.643 656.444 t 0 r /Symbol findfont 25.6631 sf 0 0 m (-) show NC gr 
 gsave  710 567 23 603 C 400.687 656.444 t 0 r /Helvetica findfont 25.6631 sf 0 0 m (0) show NC gr 
 gsave  710 567 23 603 C 446.155 656.444 t 0 r /Helvetica findfont 25.6631 sf 0 0 m (0.2) show NC gr 
 gsave  710 567 23 603 C 497.306 656.444 t 0 r /Helvetica findfont 25.6631 sf 0 0 m (0.4) show NC gr 
 gsave  710 567 23 603 C 551.299 656.444 t 0 r /Helvetica findfont 25.6631 sf 0 0 m (0.6) show NC gr 
 gsave  710 567 23 603 C 605.293 656.444 t 0 r /Helvetica findfont 25.6631 sf 0 0 m (0.8) show NC gr 
 gsave  710 567 23 603 C 670.653 656.444 t 0 r /Helvetica findfont 25.6631 sf 0 0 m (1) show NC gr 
 gsave  710 567 23 603 C 582.559 613.818 t 0 r /Helvetica findfont 28.5146 sf 0 0 m (hh.H1_l1) show NC gr  143 1114 m 548 X s 143 1100 m 14 Y s 157 1107 m 7 Y s 170 1107 m 7 Y s 184 1107 m 7 Y s 197 1100 m 14 Y s 210 1107 m 7 Y s 224 1107 m 7 Y s 237
 1107 m 7 Y s 250 1100 m 14 Y s 264 1107 m 7 Y s 277 1107 m 7 Y s 290 1107 m 7 Y s 304 1100 m 14 Y s 317 1107 m 7 Y s 330 1107 m 7 Y s 344 1107 m 7 Y s 357 1100 m 14 Y s 370 1107 m 7 Y s 384 1107 m 7 Y s 397 1107 m 7 Y s 410 1100 m 14 Y s 424 1107 m
 7 Y s 437 1107 m 7 Y s 450 1107 m 7 Y s 464 1100 m 14 Y s 477 1107 m 7 Y s 490 1107 m 7 Y s 504 1107 m 7 Y s 517 1100 m 14 Y s 530 1107 m 7 Y s 544 1107 m 7 Y s 557 1107 m 7 Y s 570 1100 m 14 Y s 584 1107 m 7 Y s 597 1107 m 7 Y s 611 1107 m 7 Y s
 624 1100 m 14 Y s 637 1107 m 7 Y s 651 1107 m 7 Y s 664 1107 m 7 Y s 677 1100 m 14 Y s 143 1100 m 14 Y s 677 1100 m 14 Y s 143 685 m 429 Y s 160 685 m -17 X s 152 695 m -9 X s 152 706 m -9 X s 152 716 m -9 X s 160 727 m -17 X s 152 737 m -9 X s 152
 748 m -9 X s 152 758 m -9 X s 160 769 m -17 X s 152 779 m -9 X s 152 790 m -9 X s 152 800 m -9 X s 160 811 m -17 X s 152 821 m -9 X s 152 832 m -9 X s 152 842 m -9 X s 160 853 m -17 X s 152 863 m -9 X s 152 874 m -9 X s 152 884 m -9 X s 160 895 m
 -17 X s 152 905 m -9 X s 152 916 m -9 X s 152 926 m -9 X s 160 937 m -17 X s 152 947 m -9 X s 152 958 m -9 X s 152 968 m -9 X s 160 979 m -17 X s 152 989 m -9 X s 152 1000 m -9 X s 152 1010 m -9 X s 160 1021 m -17 X s 152 1031 m -9 X s 152 1042 m -9
 X s 152 1052 m -9 X s 160 1063 m -17 X s 152 1073 m -9 X s 152 1084 m -9 X s 152 1094 m -9 X s 160 1105 m -17 X s 160 1105 m -17 X s
 gsave  710 567 23 603 C 119.354 673.495 t 0 r /Helvetica findfont 25.6631 sf 0 0 m (0) show NC gr 
 gsave  710 567 23 603 C 99.4613 716.121 t 0 r /Helvetica findfont 25.6631 sf 0 0 m (0.2) show NC gr 
 gsave  710 567 23 603 C 99.4613 758.747 t 0 r /Helvetica findfont 25.6631 sf 0 0 m (0.4) show NC gr 
 gsave  710 567 23 603 C 99.4613 801.374 t 0 r /Helvetica findfont 25.6631 sf 0 0 m (0.6) show NC gr 
 gsave  710 567 23 603 C 99.4613 844 t 0 r /Helvetica findfont 25.6631 sf 0 0 m (0.8) show NC gr 
 gsave  710 567 23 603 C 122.195 883.784 t 0 r /Helvetica findfont 25.6631 sf 0 0 m (1) show NC gr 
 gsave  710 567 23 603 C 99.4613 926.411 t 0 r /Helvetica findfont 25.6631 sf 0 0 m (1.2) show NC gr 
 gsave  710 567 23 603 C 99.4613 969.037 t 0 r /Helvetica findfont 25.6631 sf 0 0 m (1.4) show NC gr 
 gsave  710 567 23 603 C 99.4613 1011.66 t 0 r /Helvetica findfont 25.6631 sf 0 0 m (1.6) show NC gr 
 gsave  710 567 23 603 C 99.4613 1054.29 t 0 r /Helvetica findfont 25.6631 sf 0 0 m (1.8) show NC gr 
 gsave  710 567 23 603 C 119.354 1094.07 t 0 r /Helvetica findfont 25.6631 sf 0 0 m (2) show NC gr 
 gsave  710 567 23 603 C 45.468 1023.03 t 90 r /Helvetica findfont 28.5146 sf 0 0 m (0.0512 ) show NC gr 
 gsave  710 567 23 603 C 31.2593 1020.19 t 90 r /Helvetica findfont 19.9602 sf 0 0 m ( ) show NC gr 
 gsave  710 567 23 603 C 45.468 1008.82 t 90 r /Helvetica findfont 28.5146 sf 0 0 m (/) show NC gr 
 gsave  710 567 23 603 C 53.9933 1005.98 t 90 r /Helvetica findfont 19.9602 sf 0 0 m ( ) show NC gr 
 gsave  710 567 23 603 C 45.468 900.835 t 90 r /Helvetica findfont 28.5146 sf 0 0 m (\(1/N\) dN) show NC gr  691 685 m 429 Y s 674 685 m 17 X s 683 695 m 8 X s 683 706 m 8 X s 683 716 m 8 X s 674 727 m 17 X s 683 737 m 8 X s 683 748 m 8 X s 683 758 m
 8 X s 674 769 m 17 X s 683 779 m 8 X s 683 790 m 8 X s 683 800 m 8 X s 674 811 m 17 X s 683 821 m 8 X s 683 832 m 8 X s 683 842 m 8 X s 674 853 m 17 X s 683 863 m 8 X s 683 874 m 8 X s 683 884 m 8 X s 674 895 m 17 X s 683 905 m 8 X s 683 916 m 8 X s
 683 926 m 8 X s 674 937 m 17 X s 683 947 m 8 X s 683 958 m 8 X s 683 968 m 8 X s 674 979 m 17 X s 683 989 m 8 X s 683 1000 m 8 X s 683 1010 m 8 X s 674 1021 m 17 X s 683 1031 m 8 X s 683 1042 m 8 X s 683 1052 m 8 X s 674 1063 m 17 X s 683 1073 m 8 X
 s 683 1084 m 8 X s 683 1094 m 8 X s 674 1105 m 17 X s 674 1105 m 17 X s 0.490196 0.545098 0.615686 c 0.364706 0.419608 0.490196 c 329 38 30 1130 bf 0.490196 0.545098 0.615686 c 30 1130 m 329 X s 359 1130 m 38 Y s 359 1168 m -329 X s 30 1168 m -38 Y
 s 1 1 1 c black 1 1 1 c
 gsave  710 567 23 603 C 34.101 1142.38 t 0 r /Helvetica-Bold findfont 28.5146 sf 0 0 m (Input variable: hh.H1_l1) show NC gr  1 0 0 c 6 lw black 3 lw 1 0 0 c 691 699 m -14 -14 d s 686 710 m -24 -25 d s 677 715 m -31 -30 d s 677 731 m -46 -46 d s 677
 746 m -61 -61 d s 677 761 m -76 -76 d s 677 776 m -91 -91 d s 677 791 m -106 -106 d s 677 806 m -121 -121 d s 677 822 m -136 -137 d s 677 837 m -151 -152 d s 677 852 m -166 -167 d s 677 867 m -181 -182 d s 677 882 m -82 -82 d s 593 798 m -112 -113 d
 s 677 898 m -55 -56 d s 622 842 m -13 -13 d s 604 824 m -9 -9 d s 573 793 m -6 -6 d s 564 784 m -24 -24 d s 536 756 m -70 -71 d s 677 913 m -41 -42 d s 632 868 m -10 -10 d s 554 789 m -14 -14 d s 526 761 m -76 -76 d s 677 928 m -41 -41 d s 554 804 m
 -14 -14 d s 513 763 m s 512 761 m -77 -76 d s 677 943 m -41 -41 d s 540 805 m s 497 762 m -12 -12 d s 485 750 m -65 -65 d s 677 958 m -27 -27 d s 644 925 m -8 -8 d s 467 747 m -62 -62 d s 677 973 m -27 -27 d s 457 752 m -13 -13 d s 437 732 m -47 -47
 d s 677 989 m -27 -28 d s 431 741 m -56 -56 d s 677 1004 m -14 -14 d s 658 985 m -8 -9 d s 428 753 m -68 -68 d s 677 1019 m -14 -14 d s 417 757 m -72 -72 d s 677 1034 m -14 -14 d s 417 772 m -14 -13 d s 395 750 m -65 -65 d s 677 1049 m -14 -13 d s
 411 781 m -8 -7 d s 384 754 m -8 -8 d s 366 736 m -51 -51 d s 677 1065 m -14 -14 d s 358 743 m -58 -58 d s 672 1075 m -9 -9 d s 349 749 m -64 -64 d s 340 755 m -5 -5 d s 333 748 m -63 -63 d s 310 741 m -55 -56 d s 305 751 m -66 -66 d s 281 742 m -57
 -57 d s 278 754 m -69 -69 d s 253 744 m -59 -59 d s 251 757 m -72 -72 d s 239 760 m -75 -75 d s 219 755 m -70 -70 d s 212 763 m -69 -69 d s 198 765 m -55 -56 d s 192 774 m -49 -49 d s 185 781 m -42 -41 d s 185 796 m -42 -41 d s 171 798 m -28 -28 d s
 166 808 m -23 -23 d s 157 814 m -14 -14 d s 157 829 m -14 -13 d s 157 845 m -14 -14 d s 157 860 m -14 -14 d s 157 875 m -14 -14 d s 151 884 m -8 -8 d s 6 lw 143 884 m 14 X -76 Y 14 X -10 Y 14 X -24 Y 13 X -10 Y 14 X -9 Y 14 X 5 Y 13 X -3 Y 14 X -13
 Y 14 X 10 Y 13 X -12 Y 14 X 9 Y 14 X -10 Y 13 X 7 Y 14 X 7 Y 14 X -12 Y 13 X -7 Y 14 X 18 Y 14 X -4 Y 13 X 31 Y 14 X -28 Y 14 X -21 Y 13 X 20 Y 14 X -5 Y 14 X 3 Y 13 X 12 Y 14 X -1 Y 14 X 2 Y 13 X -7 Y 14 X 49 Y 14 X -21 Y 13 X 9 Y 14 X 5 Y 14 X 26
 Y 14 X 18 Y 13 X 26 Y 14 X 57 Y 14 X 60 Y 13 X 90 Y 14 X -365 Y 14 X s black 3 lw 143 685 m 548 X s 143 698 m -13 Y s 157 691 m -6 Y s 170 691 m -6 Y s 184 691 m -6 Y s 197 698 m -13 Y s 210 691 m -6 Y s 224 691 m -6 Y s 237 691 m -6 Y s 250 698 m
 -13 Y s 264 691 m -6 Y s 277 691 m -6 Y s 290 691 m -6 Y s 304 698 m -13 Y s 317 691 m -6 Y s 330 691 m -6 Y s 344 691 m -6 Y s 357 698 m -13 Y s 370 691 m -6 Y s 384 691 m -6 Y s 397 691 m -6 Y s 410 698 m -13 Y s 424 691 m -6 Y s 437 691 m -6 Y s
 450 691 m -6 Y s 464 698 m -13 Y s 477 691 m -6 Y s 490 691 m -6 Y s 504 691 m -6 Y s 517 698 m -13 Y s 530 691 m -6 Y s 544 691 m -6 Y s 557 691 m -6 Y s 570 698 m -13 Y s 584 691 m -6 Y s 597 691 m -6 Y s 611 691 m -6 Y s 624 698 m -13 Y s 637 691
 m -6 Y s 651 691 m -6 Y s 664 691 m -6 Y s 677 698 m -13 Y s 143 698 m -13 Y s 677 698 m -13 Y s 143 1114 m 548 X s 143 1100 m 14 Y s 157 1107 m 7 Y s 170 1107 m 7 Y s 184 1107 m 7 Y s 197 1100 m 14 Y s 210 1107 m 7 Y s 224 1107 m 7 Y s 237 1107 m 7
 Y s 250 1100 m 14 Y s 264 1107 m 7 Y s 277 1107 m 7 Y s 290 1107 m 7 Y s 304 1100 m 14 Y s 317 1107 m 7 Y s 330 1107 m 7 Y s 344 1107 m 7 Y s 357 1100 m 14 Y s 370 1107 m 7 Y s 384 1107 m 7 Y s 397 1107 m 7 Y s 410 1100 m 14 Y s 424 1107 m 7 Y s 437
 1107 m 7 Y s 450 1107 m 7 Y s 464 1100 m 14 Y s 477 1107 m 7 Y s 490 1107 m 7 Y s 504 1107 m 7 Y s 517 1100 m 14 Y s 530 1107 m 7 Y s 544 1107 m 7 Y s 557 1107 m 7 Y s 570 1100 m 14 Y s 584 1107 m 7 Y s 597 1107 m 7 Y s 611 1107 m 7 Y s 624 1100 m
 14 Y s 637 1107 m 7 Y s 651 1107 m 7 Y s 664 1107 m 7 Y s 677 1100 m 14 Y s 143 1100 m 14 Y s 677 1100 m 14 Y s 143 685 m 429 Y s 160 685 m -17 X s 152 695 m -9 X s 152 706 m -9 X s 152 716 m -9 X s 160 727 m -17 X s 152 737 m -9 X s 152 748 m -9 X
 s 152 758 m -9 X s 160 769 m -17 X s 152 779 m -9 X s 152 790 m -9 X s 152 800 m -9 X s 160 811 m -17 X s 152 821 m -9 X s 152 832 m -9 X s 152 842 m -9 X s 160 853 m -17 X s 152 863 m -9 X s 152 874 m -9 X s 152 884 m -9 X s 160 895 m -17 X s 152
 905 m -9 X s 152 916 m -9 X s 152 926 m -9 X s 160 937 m -17 X s 152 947 m -9 X s 152 958 m -9 X s 152 968 m -9 X s 160 979 m -17 X s 152 989 m -9 X s 152 1000 m -9 X s 152 1010 m -9 X s 160 1021 m -17 X s 152 1031 m -9 X s 152 1042 m -9 X s 152
 1052 m -9 X s 160 1063 m -17 X s 152 1073 m -9 X s 152 1084 m -9 X s 152 1094 m -9 X s 160 1105 m -17 X s 160 1105 m -17 X s 691 685 m 429 Y s 674 685 m 17 X s 683 695 m 8 X s 683 706 m 8 X s 683 716 m 8 X s 674 727 m 17 X s 683 737 m 8 X s 683 748
 m 8 X s 683 758 m 8 X s 674 769 m 17 X s 683 779 m 8 X s 683 790 m 8 X s 683 800 m 8 X s 674 811 m 17 X s 683 821 m 8 X s 683 832 m 8 X s 683 842 m 8 X s 674 853 m 17 X s 683 863 m 8 X s 683 874 m 8 X s 683 884 m 8 X s 674 895 m 17 X s 683 905 m 8 X
 s 683 916 m 8 X s 683 926 m 8 X s 674 937 m 17 X s 683 947 m 8 X s 683 958 m 8 X s 683 968 m 8 X s 674 979 m 17 X s 683 989 m 8 X s 683 1000 m 8 X s 683 1010 m 8 X s 674 1021 m 17 X s 683 1031 m 8 X s 683 1042 m 8 X s 683 1052 m 8 X s 674 1063 m 17
 X s 683 1073 m 8 X s 683 1084 m 8 X s 683 1094 m 8 X s 674 1105 m 17 X s 674 1105 m 17 X s
 gsave  710 567 23 603 C 719.017 682.347 t 90 r /Helvetica-Bold findfont 19.9602 sf 0 0 m (U/O\255flow \(S,B\): \(0.0, 0.0\)% / \(0.0, 0.0\)%) show NC gr  0.490196 0.545098 0.615686 c 0.364706 0.419608 0.490196 c 329 38 30 1130 bf 0.490196 0.545098
 0.615686 c 30 1130 m 329 X s 359 1130 m 38 Y s 359 1168 m -329 X s 30 1168 m -38 Y s 1 1 1 c black 1 1 1 c
 gsave  710 567 23 603 C 34.101 1142.38 t 0 r /Helvetica-Bold findfont 28.5146 sf 0 0 m (Input variable: hh.H1_l1) show NC gr  0.490196 0.545098 0.615686 c 0.941176 0.941176 0.941176 c 710 567 779 603 bf black 1 1 0.992157 c 548 429 899 685 bf black
 548 429 899 685 bl 0 0 0.933333 c 6 lw 0.49 0.6 0.82 c black 3 lw 0.49 0.6 0.82 c 899 685 m 390 Y 14 X -46 Y 14 X -111 Y 13 X 19 Y 14 X -40 Y 14 X 11 Y 13 X -12 Y 14 X -24 Y 14 X -10 Y 13 X -12 Y 14 X 16 Y 14 X -16 Y 14 X -26 Y 13 X 17 Y 14 X -33 Y
 14 X 30 Y 13 X 19 Y 14 X -34 Y 27 X 7 Y 14 X 1 Y 14 X 3 Y 13 X 3 Y 14 X -21 Y 14 X -1 Y 13 X 10 Y 14 X 7 Y 14 X -45 Y 13 X 24 Y 14 X 26 Y 14 X -22 Y 13 X 9 Y 14 X -3 Y 14 X -5 Y 13 X -15 Y 14 X -7 Y 14 X -56 Y 13 X -31 Y 14 X -20 Y 14 X -2 Y 14 X f
 6 lw 0 0 0.933333 c 0.49 0.6 0.82 c 0 0 0.933333 c 899 1075 m 14 X -46 Y 14 X -111 Y 13 X 19 Y 14 X -40 Y 14 X 11 Y 13 X -12 Y 14 X -24 Y 14 X -10 Y 13 X -12 Y 14 X 16 Y 14 X -16 Y 14 X -26 Y 13 X 17 Y 14 X -33 Y 14 X 30 Y 13 X 19 Y 14 X -34 Y 27 X
 7 Y 14 X 1 Y 14 X 3 Y 13 X 3 Y 14 X -21 Y 14 X -1 Y 13 X 10 Y 14 X 7 Y 14 X -45 Y 13 X 24 Y 14 X 26 Y 14 X -22 Y 13 X 9 Y 14 X -3 Y 14 X -5 Y 13 X -15 Y 14 X -7 Y 14 X -56 Y 13 X -31 Y 14 X -20 Y 14 X -2 Y 14 X s black 3 lw 899 685 m 548 X s 953 698
 m -13 Y s 974 691 m -6 Y s 995 691 m -6 Y s 1017 691 m -6 Y s 1038 691 m -6 Y s 1060 698 m -13 Y s 1081 691 m -6 Y s 1102 691 m -6 Y s 1124 691 m -6 Y s 1145 691 m -6 Y s 1166 698 m -13 Y s 1188 691 m -6 Y s 1209 691 m -6 Y s 1230 691 m -6 Y s 1252
 691 m -6 Y s 1273 698 m -13 Y s 1294 691 m -6 Y s 1316 691 m -6 Y s 1337 691 m -6 Y s 1358 691 m -6 Y s 1380 698 m -13 Y s 953 698 m -13 Y s 931 691 m -6 Y s 910 691 m -6 Y s 1380 698 m -13 Y s 1401 691 m -6 Y s 1423 691 m -6 Y s 1444 691 m -6 Y s
 gsave  710 567 779 603 C 940.619 656.444 t 0 r /Helvetica findfont 25.6631 sf 0 0 m (0.2) show NC gr 
 gsave  710 567 779 603 C 926.411 656.444 t 0 r /Symbol findfont 25.6631 sf 0 0 m (-) show NC gr 
 gsave  710 567 779 603 C 1045.76 656.444 t 0 r /Helvetica findfont 25.6631 sf 0 0 m (0.1) show NC gr 
 gsave  710 567 779 603 C 1034.4 656.444 t 0 r /Symbol findfont 25.6631 sf 0 0 m (-) show NC gr 
 gsave  710 567 779 603 C 1156.59 656.444 t 0 r /Helvetica findfont 25.6631 sf 0 0 m (0) show NC gr 
 gsave  710 567 779 603 C 1253.21 656.444 t 0 r /Helvetica findfont 25.6631 sf 0 0 m (0.1) show NC gr 
 gsave  710 567 779 603 C 1361.2 656.444 t 0 r /Helvetica findfont 25.6631 sf 0 0 m (0.2) show NC gr 
 gsave  710 567 779 603 C 1338.46 613.818 t 0 r /Helvetica findfont 28.5146 sf 0 0 m (hh.HT_l1) show NC gr  899 1114 m 548 X s 953 1100 m 14 Y s 974 1107 m 7 Y s 995 1107 m 7 Y s 1017 1107 m 7 Y s 1038 1107 m 7 Y s 1060 1100 m 14 Y s 1081 1107 m 7 Y
 s 1102 1107 m 7 Y s 1124 1107 m 7 Y s 1145 1107 m 7 Y s 1166 1100 m 14 Y s 1188 1107 m 7 Y s 1209 1107 m 7 Y s 1230 1107 m 7 Y s 1252 1107 m 7 Y s 1273 1100 m 14 Y s 1294 1107 m 7 Y s 1316 1107 m 7 Y s 1337 1107 m 7 Y s 1358 1107 m 7 Y s 1380 1100 m
 14 Y s 953 1100 m 14 Y s 931 1107 m 7 Y s 910 1107 m 7 Y s 1380 1100 m 14 Y s 1401 1107 m 7 Y s 1423 1107 m 7 Y s 1444 1107 m 7 Y s 899 685 m 429 Y s 915 685 m -16 X s 907 700 m -8 X s 907 716 m -8 X s 907 732 m -8 X s 907 747 m -8 X s 915 763 m -16
 X s 907 779 m -8 X s 907 795 m -8 X s 907 810 m -8 X s 907 826 m -8 X s 915 842 m -16 X s 907 857 m -8 X s 907 873 m -8 X s 907 889 m -8 X s 907 904 m -8 X s 915 920 m -16 X s 907 936 m -8 X s 907 952 m -8 X s 907 967 m -8 X s 907 983 m -8 X s 915
 999 m -16 X s 907 1014 m -8 X s 907 1030 m -8 X s 907 1046 m -8 X s 907 1062 m -8 X s 915 1077 m -16 X s 915 1077 m -16 X s 907 1093 m -8 X s 907 1109 m -8 X s
 gsave  710 567 779 603 C 875.259 673.495 t 0 r /Helvetica findfont 25.6631 sf 0 0 m (0) show NC gr 
 gsave  710 567 779 603 C 878.101 753.064 t 0 r /Helvetica findfont 25.6631 sf 0 0 m (1) show NC gr 
 gsave  710 567 779 603 C 875.259 832.633 t 0 r /Helvetica findfont 25.6631 sf 0 0 m (2) show NC gr 
 gsave  710 567 779 603 C 875.259 909.36 t 0 r /Helvetica findfont 25.6631 sf 0 0 m (3) show NC gr 
 gsave  710 567 779 603 C 875.259 988.929 t 0 r /Helvetica findfont 25.6631 sf 0 0 m (4) show NC gr 
 gsave  710 567 779 603 C 875.259 1068.5 t 0 r /Helvetica findfont 25.6631 sf 0 0 m (5) show NC gr 
 gsave  710 567 779 603 C 801.374 1023.03 t 90 r /Helvetica findfont 28.5146 sf 0 0 m (0.0128 ) show NC gr 
 gsave  710 567 779 603 C 787.165 1020.19 t 90 r /Helvetica findfont 19.9602 sf 0 0 m ( ) show NC gr 
 gsave  710 567 779 603 C 801.374 1008.82 t 90 r /Helvetica findfont 28.5146 sf 0 0 m (/) show NC gr 
 gsave  710 567 779 603 C 809.899 1005.98 t 90 r /Helvetica findfont 19.9602 sf 0 0 m ( ) show NC gr 
 gsave  710 567 779 603 C 801.374 900.835 t 90 r /Helvetica findfont 28.5146 sf 0 0 m (\(1/N\) dN) show NC gr  1447 685 m 429 Y s 1430 685 m 17 X s 1438 700 m 9 X s 1438 716 m 9 X s 1438 732 m 9 X s 1438 747 m 9 X s 1430 763 m 17 X s 1438 779 m 9 X s
 1438 795 m 9 X s 1438 810 m 9 X s 1438 826 m 9 X s 1430 842 m 17 X s 1438 857 m 9 X s 1438 873 m 9 X s 1438 889 m 9 X s 1438 904 m 9 X s 1430 920 m 17 X s 1438 936 m 9 X s 1438 952 m 9 X s 1438 967 m 9 X s 1438 983 m 9 X s 1430 999 m 17 X s 1438
 1014 m 9 X s 1438 1030 m 9 X s 1438 1046 m 9 X s 1438 1062 m 9 X s 1430 1077 m 17 X s 1430 1077 m 17 X s 1438 1093 m 9 X s 1438 1109 m 9 X s 0.490196 0.545098 0.615686 c 0.364706 0.419608 0.490196 c 332 38 786 1130 bf 0.490196 0.545098 0.615686 c
 786 1130 m 332 X s 1118 1130 m 38 Y s 1118 1168 m -332 X s 786 1168 m -38 Y s 1 1 1 c black 1 1 1 c
 gsave  710 567 779 603 C 790.007 1142.38 t 0 r /Helvetica-Bold findfont 28.5146 sf 0 0 m (Input variable: hh.HT_l1) show NC gr  1 0 0 c 6 lw black 3 lw 1 0 0 c 1433 685 m -1 X s 1433 700 m -16 -15 d s 1433 715 m -31 -30 d s 1433 731 m -46 -46 d s
 1433 746 m -61 -61 d s 1433 761 m -76 -76 d s 1433 776 m -91 -91 d s 1433 791 m -106 -106 d s 1433 806 m -121 -121 d s 1433 822 m -136 -137 d s 1433 837 m -151 -152 d s 1433 852 m -166 -167 d s 1433 867 m -181 -182 d s 1433 882 m -196 -197 d s 1421
 885 m -200 -200 d s 1419 899 m -213 -214 d s 1419 914 m -228 -229 d s 1419 929 m -243 -244 d s 1419 944 m -258 -259 d s 1415 956 m -269 -271 d s 1405 961 m -274 -276 d s 1405 976 m -54 -55 d s 1325 895 m -2 -1 d s 1314 884 m -18 -18 d s 1287 857 m
 -5 -5 d s 1271 841 m -2 -3 d s 1258 828 m -142 -143 d s 1392 978 m -41 -42 d s 1310 895 m -14 -14 d s 1255 840 m -14 -14 d s 1214 799 m -14 -14 d s 1197 781 m -96 -96 d s 1380 981 m -2 -2 d s 1369 969 m -5 -4 d s 1310 910 m -14 -14 d s 1252 852 m
 -11 -11 d s 1214 814 m -14 -14 d s 1187 786 m -101 -101 d s 1299 914 m -3 -2 d s 1210 825 m -10 -10 d s 1187 801 m -116 -116 d s 1177 807 m -121 -122 d s 1173 818 m -14 -14 d s 1147 792 m -15 -15 d s 1132 777 m -91 -92 d s 1173 833 m -14 -14 d s
 1146 806 m -14 -14 d s 1118 778 m -92 -93 d s 1173 848 m -14 -13 d s 1132 807 m s 1118 793 m -108 -108 d s 1162 852 m -3 -2 d s 1109 799 m -114 -114 d s 1100 806 m -9 -10 d s 1083 788 m -6 -6 d s 1064 768 m -84 -83 d s 1064 784 m -99 -99 d s 1064
 799 m -14 -14 d s 1047 783 m -97 -98 d s 1058 808 m -8 -8 d s 1036 786 m -101 -101 d s 1034 800 m -114 -115 d s 1017 798 m -112 -113 d s 1009 804 m -110 -110 d s 990 801 m -91 -92 d s 973 799 m -5 -6 d s 965 791 m -66 -66 d s 954 795 m -55 -55 d s
 954 810 m -55 -55 d s 954 825 m -55 -55 d s 945 831 m -46 -46 d s 928 829 m -29 -29 d s 927 843 m -14 -14 d s 912 829 m -13 -13 d s 915 847 m -2 -2 d s 6 lw 899 829 m 14 X 18 Y 14 X -18 Y 13 X 2 Y 14 X -40 Y 14 X 8 Y 13 X 2 Y 14 X 5 Y 14 X -8 Y 13 X
 2 Y 14 X -17 Y 14 X 25 Y 14 X -41 Y 13 X 21 Y 14 X 18 Y 14 X -7 Y 13 X -22 Y 14 X 30 Y 14 X -15 Y 13 X 60 Y 14 X -45 Y 14 X -26 Y 13 X 44 Y 14 X -26 Y 14 X 13 Y 13 X 40 Y 14 X -24 Y 14 X 13 Y 13 X 16 Y 14 X 57 Y 14 X -30 Y 13 X 11 Y 14 X 11 Y 14 X
 45 Y 13 X 18 Y 14 X 12 Y 14 X -5 Y 13 X -20 Y 14 X -71 Y 14 X -200 Y 14 X s black 3 lw 899 685 m 548 X s 953 698 m -13 Y s 974 691 m -6 Y s 995 691 m -6 Y s 1017 691 m -6 Y s 1038 691 m -6 Y s 1060 698 m -13 Y s 1081 691 m -6 Y s 1102 691 m -6 Y s
 1124 691 m -6 Y s 1145 691 m -6 Y s 1166 698 m -13 Y s 1188 691 m -6 Y s 1209 691 m -6 Y s 1230 691 m -6 Y s 1252 691 m -6 Y s 1273 698 m -13 Y s 1294 691 m -6 Y s 1316 691 m -6 Y s 1337 691 m -6 Y s 1358 691 m -6 Y s 1380 698 m -13 Y s 953 698 m
 -13 Y s 931 691 m -6 Y s 910 691 m -6 Y s 1380 698 m -13 Y s 1401 691 m -6 Y s 1423 691 m -6 Y s 1444 691 m -6 Y s 899 1114 m 548 X s 953 1100 m 14 Y s 974 1107 m 7 Y s 995 1107 m 7 Y s 1017 1107 m 7 Y s 1038 1107 m 7 Y s 1060 1100 m 14 Y s 1081
 1107 m 7 Y s 1102 1107 m 7 Y s 1124 1107 m 7 Y s 1145 1107 m 7 Y s 1166 1100 m 14 Y s 1188 1107 m 7 Y s 1209 1107 m 7 Y s 1230 1107 m 7 Y s 1252 1107 m 7 Y s 1273 1100 m 14 Y s 1294 1107 m 7 Y s 1316 1107 m 7 Y s 1337 1107 m 7 Y s 1358 1107 m 7 Y s
 1380 1100 m 14 Y s 953 1100 m 14 Y s 931 1107 m 7 Y s 910 1107 m 7 Y s 1380 1100 m 14 Y s 1401 1107 m 7 Y s 1423 1107 m 7 Y s 1444 1107 m 7 Y s 899 685 m 429 Y s 915 685 m -16 X s 907 700 m -8 X s 907 716 m -8 X s 907 732 m -8 X s 907 747 m -8 X s
 915 763 m -16 X s 907 779 m -8 X s 907 795 m -8 X s 907 810 m -8 X s 907 826 m -8 X s 915 842 m -16 X s 907 857 m -8 X s 907 873 m -8 X s 907 889 m -8 X s 907 904 m -8 X s 915 920 m -16 X s 907 936 m -8 X s 907 952 m -8 X s 907 967 m -8 X s 907 983
 m -8 X s 915 999 m -16 X s 907 1014 m -8 X s 907 1030 m -8 X s 907 1046 m -8 X s 907 1062 m -8 X s 915 1077 m -16 X s 915 1077 m -16 X s 907 1093 m -8 X s 907 1109 m -8 X s 1447 685 m 429 Y s 1430 685 m 17 X s 1438 700 m 9 X s 1438 716 m 9 X s 1438
 732 m 9 X s 1438 747 m 9 X s 1430 763 m 17 X s 1438 779 m 9 X s 1438 795 m 9 X s 1438 810 m 9 X s 1438 826 m 9 X s 1430 842 m 17 X s 1438 857 m 9 X s 1438 873 m 9 X s 1438 889 m 9 X s 1438 904 m 9 X s 1430 920 m 17 X s 1438 936 m 9 X s 1438 952 m 9
 X s 1438 967 m 9 X s 1438 983 m 9 X s 1430 999 m 17 X s 1438 1014 m 9 X s 1438 1030 m 9 X s 1438 1046 m 9 X s 1438 1062 m 9 X s 1430 1077 m 17 X s 1430 1077 m 17 X s 1438 1093 m 9 X s 1438 1109 m 9 X s
 gsave  710 567 779 603 C 1474.92 682.347 t 90 r /Helvetica-Bold findfont 19.9602 sf 0 0 m (U/O\255flow \(S,B\): \(0.0, 0.0\)% / \(0.0, 0.0\)%) show NC gr  0.490196 0.545098 0.615686 c 0.364706 0.419608 0.490196 c 332 38 786 1130 bf 0.490196 0.545098
 0.615686 c 786 1130 m 332 X s 1118 1130 m 38 Y s 1118 1168 m -332 X s 786 1168 m -38 Y s 1 1 1 c black 1 1 1 c
 gsave  710 567 779 603 C 790.007 1142.38 t 0 r /Helvetica-Bold findfont 28.5146 sf 0 0 m (Input variable: hh.HT_l1) show NC gr  0.490196 0.545098 0.615686 c 0.941176 0.941176 0.941176 c 711 567 1534 603 bf black 1 1 0.992157 c 547 429 1655 685 bf
 black 547 429 1655 685 bl 0 0 0.933333 c 6 lw 0.49 0.6 0.82 c black 3 lw 0.49 0.6 0.82 c 1655 685 m 390 Y 14 X -65 Y 14 X -70 Y 13 X -17 Y 14 X -26 Y 14 X 5 Y 13 X -18 Y 14 X -4 Y 14 X -17 Y 13 X -11 Y 14 X 9 Y 14 X 1 Y 13 X -28 Y 14 X 17 Y 14 X -19
 Y 13 X -2 Y 14 X 27 Y 14 X -20 Y 13 X -1 Y 14 X 3 Y 14 X -2 Y 14 X 7 Y 13 X 14 Y 14 X -26 Y 14 X 2 Y 13 X 1 Y 14 X -36 Y 14 X 27 Y 13 X 16 Y 14 X -8 Y 14 X -15 Y 13 X 11 Y 14 X -34 Y 14 X 3 Y 13 X -12 Y 14 X -30 Y 14 X -15 Y 13 X -42 Y 14 X -15 Y 27
 X f 6 lw 0 0 0.933333 c 0.49 0.6 0.82 c 0 0 0.933333 c 1655 1075 m 14 X -65 Y 14 X -70 Y 13 X -17 Y 14 X -26 Y 14 X 5 Y 13 X -18 Y 14 X -4 Y 14 X -17 Y 13 X -11 Y 14 X 9 Y 14 X 1 Y 13 X -28 Y 14 X 17 Y 14 X -19 Y 13 X -2 Y 14 X 27 Y 14 X -20 Y 13 X
 -1 Y 14 X 3 Y 14 X -2 Y 14 X 7 Y 13 X 14 Y 14 X -26 Y 14 X 2 Y 13 X 1 Y 14 X -36 Y 14 X 27 Y 13 X 16 Y 14 X -8 Y 14 X -15 Y 13 X 11 Y 14 X -34 Y 14 X 3 Y 13 X -12 Y 14 X -30 Y 14 X -15 Y 13 X -42 Y 14 X -15 Y 27 X s black 3 lw 1655 685 m 547 X s
 1709 698 m -13 Y s 1730 691 m -6 Y s 1751 691 m -6 Y s 1773 691 m -6 Y s 1794 691 m -6 Y s 1815 698 m -13 Y s 1837 691 m -6 Y s 1858 691 m -6 Y s 1879 691 m -6 Y s 1901 691 m -6 Y s 1922 698 m -13 Y s 1944 691 m -6 Y s 1965 691 m -6 Y s 1986 691 m
 -6 Y s 2008 691 m -6 Y s 2029 698 m -13 Y s 2050 691 m -6 Y s 2072 691 m -6 Y s 2093 691 m -6 Y s 2114 691 m -6 Y s 2136 698 m -13 Y s 1709 698 m -13 Y s 1687 691 m -6 Y s 1666 691 m -6 Y s 2136 698 m -13 Y s 2157 691 m -6 Y s 2178 691 m -6 Y s 2200
 691 m -6 Y s
 gsave  711 567 1534 603 C 1696.52 656.444 t 0 r /Helvetica findfont 25.6631 sf 0 0 m (0.2) show NC gr 
 gsave  711 567 1534 603 C 1682.32 656.444 t 0 r /Symbol findfont 25.6631 sf 0 0 m (-) show NC gr 
 gsave  711 567 1534 603 C 1801.67 656.444 t 0 r /Helvetica findfont 25.6631 sf 0 0 m (0.1) show NC gr 
 gsave  711 567 1534 603 C 1790.3 656.444 t 0 r /Symbol findfont 25.6631 sf 0 0 m (-) show NC gr 
 gsave  711 567 1534 603 C 1912.5 656.444 t 0 r /Helvetica findfont 25.6631 sf 0 0 m (0) show NC gr 
 gsave  711 567 1534 603 C 2009.12 656.444 t 0 r /Helvetica findfont 25.6631 sf 0 0 m (0.1) show NC gr 
 gsave  711 567 1534 603 C 2117.1 656.444 t 0 r /Helvetica findfont 25.6631 sf 0 0 m (0.2) show NC gr 
 gsave  711 567 1534 603 C 2091.53 613.818 t 0 r /Helvetica findfont 28.5146 sf 0 0 m (hh.HP_l1) show NC gr  1655 1114 m 547 X s 1709 1100 m 14 Y s 1730 1107 m 7 Y s 1751 1107 m 7 Y s 1773 1107 m 7 Y s 1794 1107 m 7 Y s 1815 1100 m 14 Y s 1837 1107 m
 7 Y s 1858 1107 m 7 Y s 1879 1107 m 7 Y s 1901 1107 m 7 Y s 1922 1100 m 14 Y s 1944 1107 m 7 Y s 1965 1107 m 7 Y s 1986 1107 m 7 Y s 2008 1107 m 7 Y s 2029 1100 m 14 Y s 2050 1107 m 7 Y s 2072 1107 m 7 Y s 2093 1107 m 7 Y s 2114 1107 m 7 Y s 2136
 1100 m 14 Y s 1709 1100 m 14 Y s 1687 1107 m 7 Y s 1666 1107 m 7 Y s 2136 1100 m 14 Y s 2157 1107 m 7 Y s 2178 1107 m 7 Y s 2200 1107 m 7 Y s 1655 685 m 429 Y s 1671 685 m -16 X s 1663 701 m -8 X s 1663 716 m -8 X s 1663 732 m -8 X s 1663 748 m -8 X
 s 1671 764 m -16 X s 1663 780 m -8 X s 1663 796 m -8 X s 1663 812 m -8 X s 1663 828 m -8 X s 1671 844 m -16 X s 1663 860 m -8 X s 1663 876 m -8 X s 1663 892 m -8 X s 1663 908 m -8 X s 1671 924 m -16 X s 1663 940 m -8 X s 1663 956 m -8 X s 1663 971 m
 -8 X s 1663 987 m -8 X s 1671 1003 m -16 X s 1663 1019 m -8 X s 1663 1035 m -8 X s 1663 1051 m -8 X s 1663 1067 m -8 X s 1671 1083 m -16 X s 1671 1083 m -16 X s 1663 1099 m -8 X s
 gsave  711 567 1534 603 C 1631.16 673.495 t 0 r /Helvetica findfont 25.6631 sf 0 0 m (0) show NC gr 
 gsave  711 567 1534 603 C 1634.01 753.064 t 0 r /Helvetica findfont 25.6631 sf 0 0 m (1) show NC gr 
 gsave  711 567 1534 603 C 1631.16 832.633 t 0 r /Helvetica findfont 25.6631 sf 0 0 m (2) show NC gr 
 gsave  711 567 1534 603 C 1631.16 915.044 t 0 r /Helvetica findfont 25.6631 sf 0 0 m (3) show NC gr 
 gsave  711 567 1534 603 C 1631.16 994.613 t 0 r /Helvetica findfont 25.6631 sf 0 0 m (4) show NC gr 
 gsave  711 567 1534 603 C 1631.16 1074.18 t 0 r /Helvetica findfont 25.6631 sf 0 0 m (5) show NC gr 
 gsave  711 567 1534 603 C 1557.28 1023.03 t 90 r /Helvetica findfont 28.5146 sf 0 0 m (0.0128 ) show NC gr 
 gsave  711 567 1534 603 C 1543.07 1020.19 t 90 r /Helvetica findfont 19.9602 sf 0 0 m ( ) show NC gr 
 gsave  711 567 1534 603 C 1557.28 1008.82 t 90 r /Helvetica findfont 28.5146 sf 0 0 m (/) show NC gr 
 gsave  711 567 1534 603 C 1565.8 1005.98 t 90 r /Helvetica findfont 19.9602 sf 0 0 m ( ) show NC gr 
 gsave  711 567 1534 603 C 1557.28 900.835 t 90 r /Helvetica findfont 28.5146 sf 0 0 m (\(1/N\) dN) show NC gr  2202 685 m 429 Y s 2186 685 m 16 X s 2194 701 m 8 X s 2194 716 m 8 X s 2194 732 m 8 X s 2194 748 m 8 X s 2186 764 m 16 X s 2194 780 m 8 X
 s 2194 796 m 8 X s 2194 812 m 8 X s 2194 828 m 8 X s 2186 844 m 16 X s 2194 860 m 8 X s 2194 876 m 8 X s 2194 892 m 8 X s 2194 908 m 8 X s 2186 924 m 16 X s 2194 940 m 8 X s 2194 956 m 8 X s 2194 971 m 8 X s 2194 987 m 8 X s 2186 1003 m 16 X s 2194
 1019 m 8 X s 2194 1035 m 8 X s 2194 1051 m 8 X s 2194 1067 m 8 X s 2186 1083 m 16 X s 2186 1083 m 16 X s 2194 1099 m 8 X s 0.490196 0.545098 0.615686 c 0.364706 0.419608 0.490196 c 335 38 1542 1130 bf 0.490196 0.545098 0.615686 c 1542 1130 m 335 X s
 1877 1130 m 38 Y s 1877 1168 m -335 X s 1542 1168 m -38 Y s 1 1 1 c black 1 1 1 c
 gsave  711 567 1534 603 C 1545.91 1142.38 t 0 r /Helvetica-Bold findfont 28.5146 sf 0 0 m (Input variable: hh.HP_l1) show NC gr  1 0 0 c 6 lw black 3 lw 1 0 0 c 2189 685 m -1 X s 2189 700 m -16 -15 d s 2189 715 m -31 -30 d s 2189 731 m -46 -46 d s
 2189 746 m -61 -61 d s 2189 761 m -76 -76 d s 2189 776 m -91 -91 d s 2189 791 m -106 -106 d s 2189 806 m -121 -121 d s 2189 822 m -136 -137 d s 2189 837 m -151 -152 d s 2189 852 m -166 -167 d s 2189 867 m -181 -182 d s 2189 882 m -197 -197 d s 2189
 898 m -212 -213 d s 2189 913 m -227 -228 d s 2179 919 m -232 -234 d s 2175 929 m -243 -244 d s 2175 944 m -258 -259 d s 2175 960 m -273 -275 d s 2175 975 m -68 -69 d s 2106 906 m -13 -14 d s 2079 878 m -54 -55 d s 2024 823 m -137 -138 d s 2161 976 m
 -13 -14 d s 2139 954 m -32 -33 d s 2079 894 m -41 -42 d s 2034 848 m -9 -10 d s 2011 825 m -14 -14 d s 1990 803 m -118 -118 d s 2152 982 m -4 -4 d s 2131 961 m -11 -11 d s 2115 945 m -8 -9 d s 2075 904 m -9 -9 d s 2065 894 m -13 -13 d s 2040 869 m
 -2 -2 d s 2011 840 m -14 -14 d s 1984 812 m -127 -127 d s 2003 847 m -6 -6 d s 1984 827 m -14 -13 d s 1959 803 m -117 -118 d s 1984 843 m -14 -14 d s 1943 801 m -116 -116 d s 1978 852 m -8 -8 d s 1935 809 m -123 -124 d s 1929 818 m -133 -133 d s
 1929 833 m -14 -14 d s 1909 813 m -8 -7 d s 1900 805 m -12 -13 d s 1879 783 m -98 -98 d s 1929 848 m -14 -13 d s 1874 793 m -108 -108 d s 1922 857 m -7 -7 d s 1874 808 m -123 -123 d s 1863 813 m -3 -3 d s 1857 806 m -10 -10 d s 1835 785 m -99 -100 d
 s 1833 797 m -112 -112 d s 1820 800 m -114 -115 d s 1816 811 m -24 -25 d s 1792 786 m -101 -101 d s 1792 802 m s 1778 788 m -102 -103 d s 1772 797 m -111 -112 d s 1758 798 m -103 -104 d s 1737 792 m -82 -83 d s 1734 804 m -79 -79 d s 1722 807 m -67
 -67 d s 1710 810 m -55 -55 d s 1710 825 m -14 -14 d s 1688 803 m -33 -33 d s 1683 813 m -28 -28 d s 1675 821 m -20 -21 d s 1669 829 m -14 -13 d s 1665 840 m -10 -9 d s 6 lw 1655 840 m 14 X -19 Y 14 X -18 Y 13 X 22 Y 14 X -18 Y 14 X -3 Y 13 X -12 Y
 14 X 6 Y 14 X -1 Y 13 X -11 Y 14 X 16 Y 14 X 9 Y 13 X -11 Y 14 X -15 Y 14 X 21 Y 13 X 7 Y 14 X -30 Y 14 X 22 Y 13 X 8 Y 14 X 44 Y 14 X -48 Y 14 X -8 Y 13 X 2 Y 14 X 49 Y 14 X -49 Y 13 X 44 Y 14 X -24 Y 14 X 25 Y 13 X 21 Y 14 X 25 Y 14 X 10 Y 13 X
 -27 Y 14 X 29 Y 14 X 39 Y 13 X 16 Y 14 X -7 Y 14 X 28 Y 13 X -6 Y 14 X -57 Y 14 X -234 Y 13 X s black 3 lw 1655 685 m 547 X s 1709 698 m -13 Y s 1730 691 m -6 Y s 1751 691 m -6 Y s 1773 691 m -6 Y s 1794 691 m -6 Y s 1815 698 m -13 Y s 1837 691 m -6
 Y s 1858 691 m -6 Y s 1879 691 m -6 Y s 1901 691 m -6 Y s 1922 698 m -13 Y s 1944 691 m -6 Y s 1965 691 m -6 Y s 1986 691 m -6 Y s 2008 691 m -6 Y s 2029 698 m -13 Y s 2050 691 m -6 Y s 2072 691 m -6 Y s 2093 691 m -6 Y s 2114 691 m -6 Y s 2136 698
 m -13 Y s 1709 698 m -13 Y s 1687 691 m -6 Y s 1666 691 m -6 Y s 2136 698 m -13 Y s 2157 691 m -6 Y s 2178 691 m -6 Y s 2200 691 m -6 Y s 1655 1114 m 547 X s 1709 1100 m 14 Y s 1730 1107 m 7 Y s 1751 1107 m 7 Y s 1773 1107 m 7 Y s 1794 1107 m 7 Y s
 1815 1100 m 14 Y s 1837 1107 m 7 Y s 1858 1107 m 7 Y s 1879 1107 m 7 Y s 1901 1107 m 7 Y s 1922 1100 m 14 Y s 1944 1107 m 7 Y s 1965 1107 m 7 Y s 1986 1107 m 7 Y s 2008 1107 m 7 Y s 2029 1100 m 14 Y s 2050 1107 m 7 Y s 2072 1107 m 7 Y s 2093 1107 m
 7 Y s 2114 1107 m 7 Y s 2136 1100 m 14 Y s 1709 1100 m 14 Y s 1687 1107 m 7 Y s 1666 1107 m 7 Y s 2136 1100 m 14 Y s 2157 1107 m 7 Y s 2178 1107 m 7 Y s 2200 1107 m 7 Y s 1655 685 m 429 Y s 1671 685 m -16 X s 1663 701 m -8 X s 1663 716 m -8 X s 1663
 732 m -8 X s 1663 748 m -8 X s 1671 764 m -16 X s 1663 780 m -8 X s 1663 796 m -8 X s 1663 812 m -8 X s 1663 828 m -8 X s 1671 844 m -16 X s 1663 860 m -8 X s 1663 876 m -8 X s 1663 892 m -8 X s 1663 908 m -8 X s 1671 924 m -16 X s 1663 940 m -8 X s
 1663 956 m -8 X s 1663 971 m -8 X s 1663 987 m -8 X s 1671 1003 m -16 X s 1663 1019 m -8 X s 1663 1035 m -8 X s 1663 1051 m -8 X s 1663 1067 m -8 X s 1671 1083 m -16 X s 1671 1083 m -16 X s 1663 1099 m -8 X s 2202 685 m 429 Y s 2186 685 m 16 X s
 2194 701 m 8 X s 2194 716 m 8 X s 2194 732 m 8 X s 2194 748 m 8 X s 2186 764 m 16 X s 2194 780 m 8 X s 2194 796 m 8 X s 2194 812 m 8 X s 2194 828 m 8 X s 2186 844 m 16 X s 2194 860 m 8 X s 2194 876 m 8 X s 2194 892 m 8 X s 2194 908 m 8 X s 2186 924
 m 16 X s 2194 940 m 8 X s 2194 956 m 8 X s 2194 971 m 8 X s 2194 987 m 8 X s 2186 1003 m 16 X s 2194 1019 m 8 X s 2194 1035 m 8 X s 2194 1051 m 8 X s 2194 1067 m 8 X s 2186 1083 m 16 X s 2186 1083 m 16 X s 2194 1099 m 8 X s
 gsave  711 567 1534 603 C 2230.83 682.347 t 90 r /Helvetica-Bold findfont 19.9602 sf 0 0 m (U/O\255flow \(S,B\): \(0.0, 0.0\)% / \(0.0, 0.0\)%) show NC gr  0.490196 0.545098 0.615686 c 0.364706 0.419608 0.490196 c 335 38 1542 1130 bf 0.490196
 0.545098 0.615686 c 1542 1130 m 335 X s 1877 1130 m 38 Y s 1877 1168 m -335 X s 1542 1168 m -38 Y s 1 1 1 c black 1 1 1 c
 gsave  711 567 1534 603 C 1545.91 1142.38 t 0 r /Helvetica-Bold findfont 28.5146 sf 0 0 m (Input variable: hh.HP_l1) show NC gr  0.490196 0.545098 0.615686 c 0.941176 0.941176 0.941176 c 710 567 23 12 bf black 1 1 0.992157 c 548 429 143 94 bf black
 548 429 143 94 bl 0 0 0.933333 c 6 lw 0.49 0.6 0.82 c black 3 lw 0.49 0.6 0.82 c 143 94 m 338 Y 14 X -118 Y 14 X -47 Y 14 X -25 Y 13 X -4 Y 14 X -4 Y 14 X -6 Y 13 X -7 Y 14 X -22 Y 14 X 9 Y 13 X 1 Y 14 X -17 Y 14 X 2 Y 13 X -1 Y 14 X -15 Y 14 X 4 Y
 13 X 22 Y 14 X -22 Y 14 X -2 Y 13 X 8 Y 14 X -2 Y 14 X 1 Y 13 X 10 Y 14 X -20 Y 14 X -4 Y 13 X 13 Y 14 X -5 Y 14 X -18 Y 13 X 8 Y 14 X 13 Y 14 X 5 Y 13 X -13 Y 14 X 8 Y 14 X -2 Y 14 X -8 Y 13 X 1 Y 14 X -19 Y 14 X -38 Y 13 X -16 Y 14 X -8 Y 14 X f 6
 lw 0 0 0.933333 c 0.49 0.6 0.82 c 0 0 0.933333 c 143 432 m 14 X -118 Y 14 X -47 Y 14 X -25 Y 13 X -4 Y 14 X -4 Y 14 X -6 Y 13 X -7 Y 14 X -22 Y 14 X 9 Y 13 X 1 Y 14 X -17 Y 14 X 2 Y 13 X -1 Y 14 X -15 Y 14 X 4 Y 13 X 22 Y 14 X -22 Y 14 X -2 Y 13 X 8
 Y 14 X -2 Y 14 X 1 Y 13 X 10 Y 14 X -20 Y 14 X -4 Y 13 X 13 Y 14 X -5 Y 14 X -18 Y 13 X 8 Y 14 X 13 Y 14 X 5 Y 13 X -13 Y 14 X 8 Y 14 X -2 Y 14 X -8 Y 13 X 1 Y 14 X -19 Y 14 X -38 Y 13 X -16 Y 14 X -8 Y 14 X s black 3 lw 143 94 m 548 X s 197 107 m
 -13 Y s 218 100 m -6 Y s 240 100 m -6 Y s 261 100 m -6 Y s 282 100 m -6 Y s 304 107 m -13 Y s 325 100 m -6 Y s 346 100 m -6 Y s 368 100 m -6 Y s 389 100 m -6 Y s 410 107 m -13 Y s 432 100 m -6 Y s 453 100 m -6 Y s 474 100 m -6 Y s 496 100 m -6 Y s
 517 107 m -13 Y s 538 100 m -6 Y s 560 100 m -6 Y s 581 100 m -6 Y s 603 100 m -6 Y s 624 107 m -13 Y s 197 107 m -13 Y s 175 100 m -6 Y s 154 100 m -6 Y s 624 107 m -13 Y s 645 100 m -6 Y s 667 100 m -6 Y s 688 100 m -6 Y s
 gsave  710 567 23 12 C 184.714 65.3603 t 0 r /Helvetica findfont 25.6631 sf 0 0 m (0.2) show NC gr 
 gsave  710 567 23 12 C 170.505 65.3603 t 0 r /Symbol findfont 25.6631 sf 0 0 m (-) show NC gr 
 gsave  710 567 23 12 C 289.858 65.3603 t 0 r /Helvetica findfont 25.6631 sf 0 0 m (0.1) show NC gr 
 gsave  710 567 23 12 C 278.492 65.3603 t 0 r /Symbol findfont 25.6631 sf 0 0 m (-) show NC gr 
 gsave  710 567 23 12 C 400.687 65.3603 t 0 r /Helvetica findfont 25.6631 sf 0 0 m (0) show NC gr 
 gsave  710 567 23 12 C 497.306 65.3603 t 0 r /Helvetica findfont 25.6631 sf 0 0 m (0.1) show NC gr 
 gsave  710 567 23 12 C 605.293 65.3603 t 0 r /Helvetica findfont 25.6631 sf 0 0 m (0.2) show NC gr 
 gsave  710 567 23 12 C 579.717 22.734 t 0 r /Helvetica findfont 28.5146 sf 0 0 m (hh.HY_l1) show NC gr  143 523 m 548 X s 197 509 m 14 Y s 218 516 m 7 Y s 240 516 m 7 Y s 261 516 m 7 Y s 282 516 m 7 Y s 304 509 m 14 Y s 325 516 m 7 Y s 346 516 m 7 Y
 s 368 516 m 7 Y s 389 516 m 7 Y s 410 509 m 14 Y s 432 516 m 7 Y s 453 516 m 7 Y s 474 516 m 7 Y s 496 516 m 7 Y s 517 509 m 14 Y s 538 516 m 7 Y s 560 516 m 7 Y s 581 516 m 7 Y s 603 516 m 7 Y s 624 509 m 14 Y s 197 509 m 14 Y s 175 516 m 7 Y s 154
 516 m 7 Y s 624 509 m 14 Y s 645 516 m 7 Y s 667 516 m 7 Y s 688 516 m 7 Y s 143 94 m 429 Y s 160 94 m -17 X s 152 104 m -9 X s 152 115 m -9 X s 152 125 m -9 X s 152 136 m -9 X s 160 146 m -17 X s 152 157 m -9 X s 152 167 m -9 X s 152 178 m -9 X s
 152 188 m -9 X s 160 199 m -17 X s 152 209 m -9 X s 152 220 m -9 X s 152 230 m -9 X s 152 241 m -9 X s 160 251 m -17 X s 152 262 m -9 X s 152 272 m -9 X s 152 283 m -9 X s 152 293 m -9 X s 160 304 m -17 X s 152 314 m -9 X s 152 325 m -9 X s 152 335
 m -9 X s 152 346 m -9 X s 160 356 m -17 X s 152 367 m -9 X s 152 377 m -9 X s 152 388 m -9 X s 152 398 m -9 X s 160 409 m -17 X s 152 419 m -9 X s 152 430 m -9 X s 152 440 m -9 X s 152 451 m -9 X s 160 461 m -17 X s 152 472 m -9 X s 152 482 m -9 X s
 152 493 m -9 X s 152 503 m -9 X s 160 514 m -17 X s 160 514 m -17 X s
 gsave  710 567 23 12 C 119.354 82.4108 t 0 r /Helvetica findfont 25.6631 sf 0 0 m (0) show NC gr 
 gsave  710 567 23 12 C 122.195 136.404 t 0 r /Helvetica findfont 25.6631 sf 0 0 m (1) show NC gr 
 gsave  710 567 23 12 C 119.354 187.556 t 0 r /Helvetica findfont 25.6631 sf 0 0 m (2) show NC gr 
 gsave  710 567 23 12 C 119.354 241.549 t 0 r /Helvetica findfont 25.6631 sf 0 0 m (3) show NC gr 
 gsave  710 567 23 12 C 119.354 292.7 t 0 r /Helvetica findfont 25.6631 sf 0 0 m (4) show NC gr 
 gsave  710 567 23 12 C 119.354 346.694 t 0 r /Helvetica findfont 25.6631 sf 0 0 m (5) show NC gr 
 gsave  710 567 23 12 C 119.354 397.845 t 0 r /Helvetica findfont 25.6631 sf 0 0 m (6) show NC gr 
 gsave  710 567 23 12 C 119.354 451.838 t 0 r /Helvetica findfont 25.6631 sf 0 0 m (7) show NC gr 
 gsave  710 567 23 12 C 119.354 502.99 t 0 r /Helvetica findfont 25.6631 sf 0 0 m (8) show NC gr 
 gsave  710 567 23 12 C 45.468 431.946 t 90 r /Helvetica findfont 28.5146 sf 0 0 m (0.0128 ) show NC gr 
 gsave  710 567 23 12 C 31.2593 429.104 t 90 r /Helvetica findfont 19.9602 sf 0 0 m ( ) show NC gr 
 gsave  710 567 23 12 C 45.468 417.737 t 90 r /Helvetica findfont 28.5146 sf 0 0 m (/) show NC gr 
 gsave  710 567 23 12 C 53.9933 414.896 t 90 r /Helvetica findfont 19.9602 sf 0 0 m ( ) show NC gr 
 gsave  710 567 23 12 C 45.468 309.751 t 90 r /Helvetica findfont 28.5146 sf 0 0 m (\(1/N\) dN) show NC gr  691 94 m 429 Y s 674 94 m 17 X s 683 104 m 8 X s 683 115 m 8 X s 683 125 m 8 X s 683 136 m 8 X s 674 146 m 17 X s 683 157 m 8 X s 683 167 m 8
 X s 683 178 m 8 X s 683 188 m 8 X s 674 199 m 17 X s 683 209 m 8 X s 683 220 m 8 X s 683 230 m 8 X s 683 241 m 8 X s 674 251 m 17 X s 683 262 m 8 X s 683 272 m 8 X s 683 283 m 8 X s 683 293 m 8 X s 674 304 m 17 X s 683 314 m 8 X s 683 325 m 8 X s
 683 335 m 8 X s 683 346 m 8 X s 674 356 m 17 X s 683 367 m 8 X s 683 377 m 8 X s 683 388 m 8 X s 683 398 m 8 X s 674 409 m 17 X s 683 419 m 8 X s 683 430 m 8 X s 683 440 m 8 X s 683 451 m 8 X s 674 461 m 17 X s 683 472 m 8 X s 683 482 m 8 X s 683
 493 m 8 X s 683 503 m 8 X s 674 514 m 17 X s 674 514 m 17 X s 0.490196 0.545098 0.615686 c 0.364706 0.419608 0.490196 c 332 37 30 539 bf 0.490196 0.545098 0.615686 c 30 539 m 332 X s 362 539 m 37 Y s 362 576 m -332 X s 30 576 m -37 Y s 1 1 1 c black
 1 1 1 c
 gsave  710 567 23 12 C 34.101 551.299 t 0 r /Helvetica-Bold findfont 28.5146 sf 0 0 m (Input variable: hh.HY_l1) show NC gr  1 0 0 c 6 lw black 3 lw 1 0 0 c 691 108 m -14 -14 d s 686 119 m -24 -25 d s 677 124 m -31 -30 d s 677 139 m -46 -45 d s 677
 155 m -61 -61 d s 677 170 m -76 -76 d s 677 185 m -91 -91 d s 677 200 m -106 -106 d s 677 215 m -121 -121 d s 677 231 m -136 -137 d s 677 246 m -151 -152 d s 677 261 m -166 -167 d s 677 276 m -181 -182 d s 677 291 m -82 -82 d s 593 207 m -112 -113 d
 s 677 306 m -55 -55 d s 622 251 m -13 -13 d s 604 233 m -9 -9 d s 573 202 m -6 -6 d s 564 193 m -24 -24 d s 536 165 m -70 -71 d s 677 322 m -41 -42 d s 632 277 m -10 -10 d s 554 198 m -14 -14 d s 526 170 m -76 -76 d s 677 337 m -41 -42 d s 554 213 m
 -14 -14 d s 513 172 m -1 Y s 512 170 m -77 -76 d s 677 352 m -41 -41 d s 540 214 m s 497 171 m -12 -12 d s 485 159 m -65 -65 d s 677 367 m -27 -27 d s 644 334 m -8 -8 d s 467 156 m -62 -62 d s 677 382 m -27 -27 d s 457 161 m -13 -13 d s 437 141 m
 -47 -47 d s 677 398 m -27 -28 d s 431 150 m -56 -56 d s 677 413 m -14 -14 d s 658 394 m -8 -9 d s 428 162 m -68 -68 d s 677 428 m -14 -14 d s 417 166 m -72 -72 d s 677 443 m -14 -14 d s 417 181 m -14 -13 d s 395 159 m -65 -65 d s 677 458 m -14 -14 d
 s 411 190 m -8 -7 d s 384 163 m -8 -8 d s 366 145 m -51 -51 d s 677 473 m -14 -13 d s 358 152 m -58 -58 d s 672 484 m -9 -9 d s 349 158 m -64 -64 d s 340 164 m -5 -5 d s 333 157 m -63 -63 d s 310 150 m -55 -56 d s 305 160 m -66 -66 d s 281 151 m -57
 -57 d s 278 163 m -69 -69 d s 253 153 m -59 -59 d s 251 166 m -72 -72 d s 239 169 m -75 -75 d s 219 164 m -70 -70 d s 212 172 m -69 -69 d s 198 173 m -55 -55 d s 192 183 m -49 -50 d s 185 190 m -42 -41 d s 185 205 m -42 -41 d s 171 207 m -28 -28 d s
 166 217 m -23 -23 d s 157 223 m -14 -14 d s 157 238 m -14 -13 d s 157 254 m -14 -14 d s 157 269 m -14 -14 d s 157 284 m -14 -14 d s 151 293 m -8 -8 d s 6 lw 143 293 m 14 X -76 Y 14 X -10 Y 14 X -24 Y 13 X -11 Y 14 X -8 Y 14 X 5 Y 13 X -3 Y 14 X -13
 Y 14 X 10 Y 13 X -12 Y 14 X 9 Y 14 X -10 Y 13 X 7 Y 14 X 7 Y 14 X -12 Y 13 X -7 Y 14 X 18 Y 14 X -4 Y 13 X 31 Y 14 X -28 Y 14 X -21 Y 13 X 20 Y 14 X -5 Y 14 X 3 Y 13 X 12 Y 14 X -1 Y 14 X 2 Y 13 X -7 Y 14 X 49 Y 14 X -21 Y 13 X 9 Y 14 X 5 Y 14 X 26
 Y 14 X 18 Y 13 X 26 Y 14 X 57 Y 14 X 60 Y 13 X 90 Y 14 X -365 Y 14 X s black 3 lw 143 94 m 548 X s 197 107 m -13 Y s 218 100 m -6 Y s 240 100 m -6 Y s 261 100 m -6 Y s 282 100 m -6 Y s 304 107 m -13 Y s 325 100 m -6 Y s 346 100 m -6 Y s 368 100 m -6
 Y s 389 100 m -6 Y s 410 107 m -13 Y s 432 100 m -6 Y s 453 100 m -6 Y s 474 100 m -6 Y s 496 100 m -6 Y s 517 107 m -13 Y s 538 100 m -6 Y s 560 100 m -6 Y s 581 100 m -6 Y s 603 100 m -6 Y s 624 107 m -13 Y s 197 107 m -13 Y s 175 100 m -6 Y s 154
 100 m -6 Y s 624 107 m -13 Y s 645 100 m -6 Y s 667 100 m -6 Y s 688 100 m -6 Y s 143 523 m 548 X s 197 509 m 14 Y s 218 516 m 7 Y s 240 516 m 7 Y s 261 516 m 7 Y s 282 516 m 7 Y s 304 509 m 14 Y s 325 516 m 7 Y s 346 516 m 7 Y s 368 516 m 7 Y s 389
 516 m 7 Y s 410 509 m 14 Y s 432 516 m 7 Y s 453 516 m 7 Y s 474 516 m 7 Y s 496 516 m 7 Y s 517 509 m 14 Y s 538 516 m 7 Y s 560 516 m 7 Y s 581 516 m 7 Y s 603 516 m 7 Y s 624 509 m 14 Y s 197 509 m 14 Y s 175 516 m 7 Y s 154 516 m 7 Y s 624 509 m
 14 Y s 645 516 m 7 Y s 667 516 m 7 Y s 688 516 m 7 Y s 143 94 m 429 Y s 160 94 m -17 X s 152 104 m -9 X s 152 115 m -9 X s 152 125 m -9 X s 152 136 m -9 X s 160 146 m -17 X s 152 157 m -9 X s 152 167 m -9 X s 152 178 m -9 X s 152 188 m -9 X s 160
 199 m -17 X s 152 209 m -9 X s 152 220 m -9 X s 152 230 m -9 X s 152 241 m -9 X s 160 251 m -17 X s 152 262 m -9 X s 152 272 m -9 X s 152 283 m -9 X s 152 293 m -9 X s 160 304 m -17 X s 152 314 m -9 X s 152 325 m -9 X s 152 335 m -9 X s 152 346 m -9
 X s 160 356 m -17 X s 152 367 m -9 X s 152 377 m -9 X s 152 388 m -9 X s 152 398 m -9 X s 160 409 m -17 X s 152 419 m -9 X s 152 430 m -9 X s 152 440 m -9 X s 152 451 m -9 X s 160 461 m -17 X s 152 472 m -9 X s 152 482 m -9 X s 152 493 m -9 X s 152
 503 m -9 X s 160 514 m -17 X s 160 514 m -17 X s 691 94 m 429 Y s 674 94 m 17 X s 683 104 m 8 X s 683 115 m 8 X s 683 125 m 8 X s 683 136 m 8 X s 674 146 m 17 X s 683 157 m 8 X s 683 167 m 8 X s 683 178 m 8 X s 683 188 m 8 X s 674 199 m 17 X s 683
 209 m 8 X s 683 220 m 8 X s 683 230 m 8 X s 683 241 m 8 X s 674 251 m 17 X s 683 262 m 8 X s 683 272 m 8 X s 683 283 m 8 X s 683 293 m 8 X s 674 304 m 17 X s 683 314 m 8 X s 683 325 m 8 X s 683 335 m 8 X s 683 346 m 8 X s 674 356 m 17 X s 683 367 m
 8 X s 683 377 m 8 X s 683 388 m 8 X s 683 398 m 8 X s 674 409 m 17 X s 683 419 m 8 X s 683 430 m 8 X s 683 440 m 8 X s 683 451 m 8 X s 674 461 m 17 X s 683 472 m 8 X s 683 482 m 8 X s 683 493 m 8 X s 683 503 m 8 X s 674 514 m 17 X s 674 514 m 17 X s
 gsave  710 567 23 12 C 719.017 91.2634 t 90 r /Helvetica-Bold findfont 19.9602 sf 0 0 m (U/O\255flow \(S,B\): \(0.0, 0.0\)% / \(0.0, 0.0\)%) show NC gr  0.490196 0.545098 0.615686 c 0.364706 0.419608 0.490196 c 332 37 30 539 bf 0.490196 0.545098
 0.615686 c 30 539 m 332 X s 362 539 m 37 Y s 362 576 m -332 X s 30 576 m -37 Y s 1 1 1 c black 1 1 1 c
 gsave  710 567 23 12 C 34.101 551.299 t 0 r /Helvetica-Bold findfont 28.5146 sf 0 0 m (Input variable: hh.HY_l1) show NC gr  0.490196 0.545098 0.615686 c 0.941176 0.941176 0.941176 c 710 567 779 12 bf 0.490196 0.545098 0.615686 c 0.941176 0.941176
 0.941176 c 711 567 1534 12 bf
 gr  gr showpage
end
%%EOF
