%!PS-Adobe-2.0 EPSF-2.0
%%BoundingBox:  0 0 567 296
%%Title: dataset_class_l1/plots/variables_id_c2.eps: Input variables (training sample)
%%Creator: ROOT Version 6.18/00
%%CreationDate: Sat Sep 14 11:53:45 2019
%%DocumentNeededResources: ProcSet (FontSetInit)
%%EndComments
%%BeginProlog
80 dict begin
/s {stroke} def /l {lineto} def /m {moveto} def /t {translate} def
/r {rotate} def /rl {roll}  def /R {repeat} def
/d {rlineto} def /rm {rmoveto} def /gr {grestore} def /f {eofill} def
/c {setrgbcolor} def /black {0 setgray} def /sd {setdash} def
/cl {closepath} def /sf {scalefont setfont} def /lw {setlinewidth} def
/box {m dup 0 exch d exch 0 d 0 exch neg d cl} def
/NC{systemdict begin initclip end}def/C{NC box clip newpath}def
/bl {box s} def /bf {gsave box gsave f grestore 1 lw [] 0 sd s grestore} def /Y { 0 exch d} def /X { 0 d} def 
/K {{pop pop 0 moveto} exch kshow} bind def
/ita {/ang 15 def gsave [1 0 ang dup sin exch cos div 1 0 0] concat} def 
/mp {newpath /y exch def /x exch def} def
/side {[w .77 mul w .23 mul] .385 w mul sd w 0 l currentpoint t -144 r} def
/mr {mp x y w2 0 360 arc} def /m24 {mr s} def /m20 {mr f} def
/mb {mp x y w2 add m w2 neg 0 d 0 w neg d w 0 d 0 w d cl} def
/mt {mp x y w2 add m w2 neg w neg d w 0 d cl} def
/w4 {w 4 div} def
/w6 {w 6 div} def
/w8 {w 8 div} def
/m21 {mb f} def /m25 {mb s} def /m22 {mt f} def /m26{mt s} def
/m23 {mp x y w2 sub m w2 w d w neg 0 d cl f} def
/m27 {mp x y w2 add m w3 neg w2 neg d w3 w2 neg d w3 w2 d cl s} def
/m28 {mp x w2 sub y w2 sub w3 add m w3 0 d  0 w3 neg d w3 0 d 0 w3 d w3 0 d  0 w3 d w3 neg 0 d 0 w3 d w3 neg 0 d 0 w3 neg d w3 neg 0 d cl s } def
/m29 {mp gsave x w2 sub y w2 add w3 sub m currentpoint t 4 {side} repeat cl fill gr} def
/m30 {mp gsave x w2 sub y w2 add w3 sub m currentpoint t 4 {side} repeat cl s gr} def
/m31 {mp x y w2 sub m 0 w d x w2 sub y m w 0 d x w2 sub y w2 add m w w neg d x w2 sub y w2 sub m w w d s} def
/m32 {mp x y w2 sub m w2 w d w neg 0 d cl s} def
/m33 {mp x y w2 add m w3 neg w2 neg d w3 w2 neg d w3 w2 d cl f} def
/m34 {mp x w2 sub y w2 sub w3 add m w3 0 d  0 w3 neg d w3 0 d 0 w3 d w3 0 d  0 w3 d w3 neg 0 d 0 w3 d w3 neg 0 d 0 w3 neg d w3 neg 0 d cl f } def
/m35 {mp x y w2 add m w2 neg w2 neg d w2 w2 neg d w2 w2 d w2 neg w2 d x y w2 sub m 0 w d x w2 sub y m w 0 d s} def
/m36 {mb x w2 sub y w2 add m w w neg d x w2 sub y w2 sub m w w d s} def
/m37 {mp x y m w4 neg w2 d w4 neg w2 neg d w2 0 d  w4 neg w2 neg d w2 0 d w4 neg w2 d w2 0 d w4 neg w2 d w4 neg w2 neg d cl s} def
/m38 {mp x w4 sub y w2 add m w4 neg w4 neg d 0 w2 neg d w4 w4 neg d w2 0 d w4 w4 d 0 w2 d w4 neg w4 d w2 neg 0 d x y w2 sub m 0 w d x w2 sub y m w 0 d cl s} def
/m39 {mp x y m w4 neg w2 d w4 neg w2 neg d w2 0 d  w4 neg w2 neg d w2 0 d w4 neg w2 d w2 0 d w4 neg w2 d w4 neg w2 neg d cl f} def
/m40 {mp x y m w4 w2 d w4 w4 neg d w2 neg w4 neg d w2 w4 neg d w4 neg w4 neg d w4 neg w2 d w4 neg w2 neg d w4 neg w4 d w2 w4 d w2 neg w4 d w4 w4 d w4 w2 neg d cl s} def
/m41 {mp x y m w4 w2 d w4 w4 neg d w2 neg w4 neg d w2 w4 neg d w4 neg w4 neg d w4 neg w2 d w4 neg w2 neg d w4 neg w4 d w2 w4 d w2 neg w4 d w4 w4 d w4 w2 neg d cl f} def
/m42 {mp x y w2 add m w8 neg w2 -3 4 div mul d w2 -3 4 div mul w8 neg d w2 3 4 div mul w8 neg d w8 w2 -3 4 div mul d w8 w2 3 4 div mul d w2 3 4 div mul w8 d w2 -3 4 div mul w8 d w8 neg w2 3 4 div mul d cl s} def
/m43 {mp x y w2 add m w8 neg w2 -3 4 div mul d w2 -3 4 div mul w8 neg d w2 3 4 div mul w8 neg d w8 w2 -3 4 div mul d w8 w2 3 4 div mul d w2 3 4 div mul w8 d w2 -3 4 div mul w8 d w8 neg w2 3 4 div mul d cl f} def
/m44 {mp x y m w6 neg w2 d w2 2 3 div mul 0 d w6 neg w2 neg d w2 w6 d 0 w2 -2 3 div mul d w2 neg w6 d w6 w2 neg d w2 -2 3 div mul 0 d w6 w2 d w2 neg w6 neg d 0 w2 2 3 div mul d w2 w6 neg d cl s} def
/m45 {mp x y m w6 neg w2 d w2 2 3 div mul 0 d w6 neg w2 neg d w2 w6 d 0 w2 -2 3 div mul d w2 neg w6 d w6 w2 neg d w2 -2 3 div mul 0 d w6 w2 d w2 neg w6 neg d 0 w2 2 3 div mul d w2 w6 neg d cl f} def
/m46 {mp x y w4 add m w4 neg w4 d w4 neg w4 neg d  w4 w4 neg d w4 neg w4 neg d w4 w4 neg d w4 w4 d w4 w4 neg d w4 w4 d w4 neg w4 d w4 w4 d w4 neg w4 d w4 neg w4 neg d cl s} def
/m47 {mp x y w4 add m w4 neg w4 d w4 neg w4 neg d w4 w4 neg d w4 neg w4 neg d  w4 w4 neg d w4 w4 d w4 w4 neg d w4 w4 d w4 neg w4 d w4 w4 d w4 neg w4 d w4 neg w4 neg d cl f} def
/m48 {mp x y w4 add m w4 neg w4 d w4 neg w4 neg d w4 w4 neg d  w4 neg w4 neg d w4 w4 neg d w4 w4 d w4 w4 neg d w4 w4 d w4 neg w4 d w4 w4 d w4 neg w4 d w4 neg w4 neg d  w4 w4 neg d w4 neg w4 neg d w4 neg w4 d w4 w4 d cl f} def
/m49 {mp x w2 sub w3 add y w2 sub w3 add m  0 w3 neg d w3 0 d 0 w3 d w3 0 d 0 w3 d w3 neg 0 d 0 w3 d w3 neg 0 d 0 w3 neg d w3 neg 0 d 0 w3 neg d w3 0 d 0 w3 d w3 0 d 0 w3 neg d w3 neg 0 d cl f } def
/m2 {mp x y w2 sub m 0 w d x w2 sub y m w 0 d s} def
/m5 {mp x w2 sub y w2 sub m w w d x w2 sub y w2 add m w w neg d s} def
%%IncludeResource: ProcSet (FontSetInit)
%%IncludeResource: font Times-Roman
%%IncludeResource: font Times-Italic
%%IncludeResource: font Times-Bold
%%IncludeResource: font Times-BoldItalic
%%IncludeResource: font Helvetica
%%IncludeResource: font Helvetica-Oblique
%%IncludeResource: font Helvetica-Bold
%%IncludeResource: font Helvetica-BoldOblique
%%IncludeResource: font Courier
%%IncludeResource: font Courier-Oblique
%%IncludeResource: font Courier-Bold
%%IncludeResource: font Courier-BoldOblique
%%IncludeResource: font Symbol
%%IncludeResource: font ZapfDingbats
/reEncode {exch findfont dup length dict begin {1 index /FID eq  {pop pop} {def} ifelse } forall /Encoding exch def currentdict end dup /FontName get exch definefont pop } def [/Times-Bold /Times-Italic /Times-BoldItalic /Helvetica /Helvetica-Oblique
 /Helvetica-Bold /Helvetica-BoldOblique /Courier /Courier-Oblique /Courier-Bold /Courier-BoldOblique /Times-Roman /AvantGarde-Book /AvantGarde-BookOblique /AvantGarde-Demi /AvantGarde-DemiOblique /Bookman-Demi /Bookman-DemiItalic /Bookman-Light
 /Bookman-LightItalic /Helvetica-Narrow /Helvetica-Narrow-Bold /Helvetica-Narrow-BoldOblique /Helvetica-Narrow-Oblique /NewCenturySchlbk-Roman /NewCenturySchlbk-Bold /NewCenturySchlbk-BoldItalic /NewCenturySchlbk-Italic /Palatino-Bold
 /Palatino-BoldItalic /Palatino-Italic /Palatino-Roman ] {ISOLatin1Encoding reEncode } forall
%%EndProlog
%%BeginSetup
%%EndSetup
newpath  gsave  .25 .25 scale  gsave  0 0 t 0.490196 0.545098 0.615686 c[  ] 0 sd 3 lw 0.941176 0.941176 0.941176 c 2268 1182 0 0 bf 0.490196 0.545098 0.615686 c 0.941176 0.941176 0.941176 c 710 567 23 603 bf black 1 1 0.992157 c 548 429 143 685 bf
 black 548 429 143 685 bl 0 0 0.933333 c 6 lw 0.49 0.6 0.82 c black 3 lw 0.49 0.6 0.82 c 143 685 m 1 Y 14 X 2 Y 14 X 2 Y 14 X 3 Y 13 X -2 Y 14 X 7 Y 14 X -1 Y 13 X 7 Y 14 X -1 Y 14 X 1 Y 13 X 1 Y 28 X 4 Y 13 X 16 Y 14 X -4 Y 14 X 7 Y 13 X 24 Y 14 X 9
 Y 14 X 6 Y 13 X 46 Y 14 X -5 Y 14 X 58 Y 13 X 82 Y 14 X 2 Y 14 X 32 Y 13 X 32 Y 14 X 1 Y 14 X 29 Y 13 X 1 Y 14 X -1 Y 14 X 31 Y 13 X -29 Y 14 X -5 Y 14 X -38 Y 14 X -1 Y 13 X -56 Y 14 X -41 Y 14 X -68 Y 13 X -112 Y 14 X -40 Y 14 X f 6 lw 0 0
 0.933333 c 0.49 0.6 0.82 c 0 0 0.933333 c 143 686 m 14 X 2 Y 14 X 2 Y 14 X 3 Y 13 X -2 Y 14 X 7 Y 14 X -1 Y 13 X 7 Y 14 X -1 Y 14 X 1 Y 13 X 1 Y 28 X 4 Y 13 X 16 Y 14 X -4 Y 14 X 7 Y 13 X 24 Y 14 X 9 Y 14 X 6 Y 13 X 46 Y 14 X -5 Y 14 X 58 Y 13 X 82
 Y 14 X 2 Y 14 X 32 Y 13 X 32 Y 14 X 1 Y 14 X 29 Y 13 X 1 Y 14 X -1 Y 14 X 31 Y 13 X -29 Y 14 X -5 Y 14 X -38 Y 14 X -1 Y 13 X -56 Y 14 X -41 Y 14 X -68 Y 13 X -112 Y 14 X -40 Y 14 X s black 3 lw 143 685 m 548 X s 197 698 m -13 Y s 218 691 m -6 Y s
 239 691 m -6 Y s 261 691 m -6 Y s 282 691 m -6 Y s 304 698 m -13 Y s 325 691 m -6 Y s 347 691 m -6 Y s 368 691 m -6 Y s 389 691 m -6 Y s 411 698 m -13 Y s 432 691 m -6 Y s 454 691 m -6 Y s 475 691 m -6 Y s 496 691 m -6 Y s 518 698 m -13 Y s 539 691
 m -6 Y s 561 691 m -6 Y s 582 691 m -6 Y s 603 691 m -6 Y s 625 698 m -13 Y s 197 698 m -13 Y s 175 691 m -6 Y s 154 691 m -6 Y s 625 698 m -13 Y s 646 691 m -6 Y s 668 691 m -6 Y s 689 691 m -6 Y s
 gsave  710 567 23 603 C 184.714 656.444 t 0 r /Helvetica findfont 25.6631 sf 0 0 m (0.2) show NC gr 
 gsave  710 567 23 603 C 170.505 656.444 t 0 r /Symbol findfont 25.6631 sf 0 0 m (-) show NC gr 
 gsave  710 567 23 603 C 289.858 656.444 t 0 r /Helvetica findfont 25.6631 sf 0 0 m (0.1) show NC gr 
 gsave  710 567 23 603 C 278.492 656.444 t 0 r /Symbol findfont 25.6631 sf 0 0 m (-) show NC gr 
 gsave  710 567 23 603 C 400.687 656.444 t 0 r /Helvetica findfont 25.6631 sf 0 0 m (0) show NC gr 
 gsave  710 567 23 603 C 500.148 656.444 t 0 r /Helvetica findfont 25.6631 sf 0 0 m (0.1) show NC gr 
 gsave  710 567 23 603 C 605.293 656.444 t 0 r /Helvetica findfont 25.6631 sf 0 0 m (0.2) show NC gr 
 gsave  710 567 23 603 C 579.717 613.818 t 0 r /Helvetica findfont 28.5146 sf 0 0 m (bb.HP_l1) show NC gr  143 1114 m 548 X s 197 1100 m 14 Y s 218 1107 m 7 Y s 239 1107 m 7 Y s 261 1107 m 7 Y s 282 1107 m 7 Y s 304 1100 m 14 Y s 325 1107 m 7 Y s 347
 1107 m 7 Y s 368 1107 m 7 Y s 389 1107 m 7 Y s 411 1100 m 14 Y s 432 1107 m 7 Y s 454 1107 m 7 Y s 475 1107 m 7 Y s 496 1107 m 7 Y s 518 1100 m 14 Y s 539 1107 m 7 Y s 561 1107 m 7 Y s 582 1107 m 7 Y s 603 1107 m 7 Y s 625 1100 m 14 Y s 197 1100 m
 14 Y s 175 1107 m 7 Y s 154 1107 m 7 Y s 625 1100 m 14 Y s 646 1107 m 7 Y s 668 1107 m 7 Y s 689 1107 m 7 Y s 143 685 m 429 Y s 160 685 m -17 X s 152 700 m -9 X s 152 715 m -9 X s 152 730 m -9 X s 152 745 m -9 X s 160 760 m -17 X s 152 776 m -9 X s
 152 791 m -9 X s 152 806 m -9 X s 152 821 m -9 X s 160 836 m -17 X s 152 852 m -9 X s 152 867 m -9 X s 152 882 m -9 X s 152 897 m -9 X s 160 912 m -17 X s 152 927 m -9 X s 152 943 m -9 X s 152 958 m -9 X s 152 973 m -9 X s 160 988 m -17 X s 152 1003
 m -9 X s 152 1018 m -9 X s 152 1034 m -9 X s 152 1049 m -9 X s 160 1064 m -17 X s 160 1064 m -17 X s 152 1079 m -9 X s 152 1094 m -9 X s 152 1110 m -9 X s
 gsave  710 567 23 603 C 119.354 673.495 t 0 r /Helvetica findfont 25.6631 sf 0 0 m (0) show NC gr 
 gsave  710 567 23 603 C 122.195 750.222 t 0 r /Helvetica findfont 25.6631 sf 0 0 m (1) show NC gr 
 gsave  710 567 23 603 C 119.354 826.949 t 0 r /Helvetica findfont 25.6631 sf 0 0 m (2) show NC gr 
 gsave  710 567 23 603 C 119.354 903.677 t 0 r /Helvetica findfont 25.6631 sf 0 0 m (3) show NC gr 
 gsave  710 567 23 603 C 119.354 977.562 t 0 r /Helvetica findfont 25.6631 sf 0 0 m (4) show NC gr 
 gsave  710 567 23 603 C 119.354 1054.29 t 0 r /Helvetica findfont 25.6631 sf 0 0 m (5) show NC gr 
 gsave  710 567 23 603 C 45.468 1023.03 t 90 r /Helvetica findfont 28.5146 sf 0 0 m (0.0128 ) show NC gr 
 gsave  710 567 23 603 C 31.2593 1020.19 t 90 r /Helvetica findfont 19.9602 sf 0 0 m ( ) show NC gr 
 gsave  710 567 23 603 C 45.468 1008.82 t 90 r /Helvetica findfont 28.5146 sf 0 0 m (/) show NC gr 
 gsave  710 567 23 603 C 53.9933 1005.98 t 90 r /Helvetica findfont 19.9602 sf 0 0 m ( ) show NC gr 
 gsave  710 567 23 603 C 45.468 900.835 t 90 r /Helvetica findfont 28.5146 sf 0 0 m (\(1/N\) dN) show NC gr  691 685 m 429 Y s 674 685 m 17 X s 683 700 m 8 X s 683 715 m 8 X s 683 730 m 8 X s 683 745 m 8 X s 674 760 m 17 X s 683 776 m 8 X s 683 791 m
 8 X s 683 806 m 8 X s 683 821 m 8 X s 674 836 m 17 X s 683 852 m 8 X s 683 867 m 8 X s 683 882 m 8 X s 683 897 m 8 X s 674 912 m 17 X s 683 927 m 8 X s 683 943 m 8 X s 683 958 m 8 X s 683 973 m 8 X s 674 988 m 17 X s 683 1003 m 8 X s 683 1018 m 8 X
 s 683 1034 m 8 X s 683 1049 m 8 X s 674 1064 m 17 X s 674 1064 m 17 X s 683 1079 m 8 X s 683 1094 m 8 X s 683 1110 m 8 X s 0.490196 0.545098 0.615686 c 0.364706 0.419608 0.490196 c 335 38 30 1130 bf 0.490196 0.545098 0.615686 c 30 1130 m 335 X s 365
 1130 m 38 Y s 365 1168 m -335 X s 30 1168 m -38 Y s 1 1 1 c black 1 1 1 c
 gsave  710 567 23 603 C 34.101 1142.38 t 0 r /Helvetica-Bold findfont 28.5146 sf 0 0 m (Input variable: bb.HP_l1) show NC gr  1 0 0 c 6 lw black 3 lw 1 0 0 c 677 685 m s 670 693 m -8 -8 d s 663 702 m -17 -17 d s 655 708 m -24 -23 d s 650 718 m -34
 -33 d s 644 728 m -43 -43 d s 636 735 m -50 -50 d s 633 747 m -62 -62 d s 622 751 m -66 -66 d s 622 766 m -81 -81 d s 613 773 m -87 -88 d s 601 775 m -90 -90 d s 587 777 m -91 -92 d s 581 786 m -100 -101 d s 577 797 m -10 -10 d s 560 780 m -94 -95 d
 s 554 789 m -104 -104 d s 554 804 m -119 -119 d s 548 814 m -128 -129 d s 540 820 m -135 -135 d s 540 836 m -14 -14 d s 521 817 m -131 -132 d s 540 851 m -14 -14 d s 513 823 m -138 -138 d s 534 860 m -8 -8 d s 513 838 m -153 -153 d s 500 841 m -1 -1
 d s 489 830 m -144 -145 d s 485 841 m -155 -156 d s 479 850 m -164 -165 d s 472 858 m -172 -173 d s 470 871 m -185 -186 d s 458 874 m -188 -189 d s 453 884 m -198 -199 d s 434 881 m -195 -196 d s 431 892 m -207 -207 d s 426 903 m -217 -218 d s 417
 909 m -14 -14 d s 393 885 m -199 -200 d s 409 916 m -6 -6 d s 390 897 m -211 -212 d s 390 912 m -226 -227 d s 380 917 m -4 -4 d s 366 904 m -4 -5 d s 352 889 m -203 -204 d s 344 896 m -9 -9 d s 330 883 m -187 -189 d s 321 889 m -27 -28 d s 286 853 m
 -143 -144 d s 318 900 m -24 -24 d s 280 862 m -137 -137 d s 297 895 m -3 -4 d s 277 874 m -120 -120 d s 156 753 m -13 -13 d s 267 879 m -110 -110 d s 253 881 m -1 Y s 242 869 m -3 -2 d s 228 855 m -43 -44 d s 171 798 m s 163 790 m -6 -6 d s 220 862
 m -22 -22 d s 190 832 m -5 -5 d s 202 860 m -4 -4 d s 6 lw 143 753 m 14 X 37 Y 14 X 8 Y 14 X 34 Y 13 X 28 Y 14 X 2 Y 14 X -7 Y 13 X 14 Y 14 X 12 Y 14 X -7 Y 13 X -21 Y 14 X 42 Y 14 X 5 Y 13 X -17 Y 14 X 13 Y 14 X -7 Y 13 X 15 Y 14 X 13 Y 14 X -32 Y
 13 X 31 Y 14 X -13 Y 14 X -22 Y 13 X 3 Y 14 X -13 Y 14 X -21 Y 13 X -20 Y 14 X 11 Y 14 X -24 Y 13 X 43 Y 14 X -46 Y 14 X -34 Y 13 X 17 Y 14 X -20 Y 14 X -2 Y 14 X -2 Y 13 X -26 Y 14 X -19 Y 14 X -20 Y 13 X -15 Y 14 X -8 Y 14 X s black 3 lw 143 685 m
 548 X s 197 698 m -13 Y s 218 691 m -6 Y s 239 691 m -6 Y s 261 691 m -6 Y s 282 691 m -6 Y s 304 698 m -13 Y s 325 691 m -6 Y s 347 691 m -6 Y s 368 691 m -6 Y s 389 691 m -6 Y s 411 698 m -13 Y s 432 691 m -6 Y s 454 691 m -6 Y s 475 691 m -6 Y s
 496 691 m -6 Y s 518 698 m -13 Y s 539 691 m -6 Y s 561 691 m -6 Y s 582 691 m -6 Y s 603 691 m -6 Y s 625 698 m -13 Y s 197 698 m -13 Y s 175 691 m -6 Y s 154 691 m -6 Y s 625 698 m -13 Y s 646 691 m -6 Y s 668 691 m -6 Y s 689 691 m -6 Y s 143
 1114 m 548 X s 197 1100 m 14 Y s 218 1107 m 7 Y s 239 1107 m 7 Y s 261 1107 m 7 Y s 282 1107 m 7 Y s 304 1100 m 14 Y s 325 1107 m 7 Y s 347 1107 m 7 Y s 368 1107 m 7 Y s 389 1107 m 7 Y s 411 1100 m 14 Y s 432 1107 m 7 Y s 454 1107 m 7 Y s 475 1107 m
 7 Y s 496 1107 m 7 Y s 518 1100 m 14 Y s 539 1107 m 7 Y s 561 1107 m 7 Y s 582 1107 m 7 Y s 603 1107 m 7 Y s 625 1100 m 14 Y s 197 1100 m 14 Y s 175 1107 m 7 Y s 154 1107 m 7 Y s 625 1100 m 14 Y s 646 1107 m 7 Y s 668 1107 m 7 Y s 689 1107 m 7 Y s
 143 685 m 429 Y s 160 685 m -17 X s 152 700 m -9 X s 152 715 m -9 X s 152 730 m -9 X s 152 745 m -9 X s 160 760 m -17 X s 152 776 m -9 X s 152 791 m -9 X s 152 806 m -9 X s 152 821 m -9 X s 160 836 m -17 X s 152 852 m -9 X s 152 867 m -9 X s 152 882
 m -9 X s 152 897 m -9 X s 160 912 m -17 X s 152 927 m -9 X s 152 943 m -9 X s 152 958 m -9 X s 152 973 m -9 X s 160 988 m -17 X s 152 1003 m -9 X s 152 1018 m -9 X s 152 1034 m -9 X s 152 1049 m -9 X s 160 1064 m -17 X s 160 1064 m -17 X s 152 1079
 m -9 X s 152 1094 m -9 X s 152 1110 m -9 X s 691 685 m 429 Y s 674 685 m 17 X s 683 700 m 8 X s 683 715 m 8 X s 683 730 m 8 X s 683 745 m 8 X s 674 760 m 17 X s 683 776 m 8 X s 683 791 m 8 X s 683 806 m 8 X s 683 821 m 8 X s 674 836 m 17 X s 683 852
 m 8 X s 683 867 m 8 X s 683 882 m 8 X s 683 897 m 8 X s 674 912 m 17 X s 683 927 m 8 X s 683 943 m 8 X s 683 958 m 8 X s 683 973 m 8 X s 674 988 m 17 X s 683 1003 m 8 X s 683 1018 m 8 X s 683 1034 m 8 X s 683 1049 m 8 X s 674 1064 m 17 X s 674 1064
 m 17 X s 683 1079 m 8 X s 683 1094 m 8 X s 683 1110 m 8 X s
 gsave  710 567 23 603 C 719.017 682.347 t 90 r /Helvetica-Bold findfont 19.9602 sf 0 0 m (U/O\255flow \(S,B\): \(0.0, 0.0\)% / \(0.0, 0.0\)%) show NC gr  0.490196 0.545098 0.615686 c 0.364706 0.419608 0.490196 c 335 38 30 1130 bf 0.490196 0.545098
 0.615686 c 30 1130 m 335 X s 365 1130 m 38 Y s 365 1168 m -335 X s 30 1168 m -38 Y s 1 1 1 c black 1 1 1 c
 gsave  710 567 23 603 C 34.101 1142.38 t 0 r /Helvetica-Bold findfont 28.5146 sf 0 0 m (Input variable: bb.HP_l1) show NC gr  0.490196 0.545098 0.615686 c 0.941176 0.941176 0.941176 c 710 567 779 603 bf black 1 1 0.992157 c 548 429 899 685 bf black
 548 429 899 685 bl 0 0 0.933333 c 6 lw 0.49 0.6 0.82 c black 3 lw 0.49 0.6 0.82 c 899 685 m 7 Y 14 X 6 Y 14 X -7 Y 13 X 5 Y 14 X -2 Y 14 X 2 Y 13 X 4 Y 41 X 6 Y 14 X -10 Y 14 X 18 Y 14 X -6 Y 13 X 7 Y 14 X 13 Y 14 X 2 Y 13 X 9 Y 14 X 7 Y 14 X 1 Y 13
 X 30 Y 14 X -23 Y 14 X 30 Y 13 X 47 Y 14 X 7 Y 14 X -3 Y 13 X 28 Y 14 X 42 Y 14 X 8 Y 13 X 43 Y 14 X 18 Y 14 X 25 Y 13 X 15 Y 14 X 24 Y 14 X 3 Y 13 X 33 Y 14 X -7 Y 14 X 8 Y 13 X -24 Y 14 X -192 Y 14 X -174 Y 14 X f 6 lw 0 0 0.933333 c 0.49 0.6 0.82
 c 0 0 0.933333 c 899 692 m 14 X 6 Y 14 X -7 Y 13 X 5 Y 14 X -2 Y 14 X 2 Y 13 X 4 Y 41 X 6 Y 14 X -10 Y 14 X 18 Y 14 X -6 Y 13 X 7 Y 14 X 13 Y 14 X 2 Y 13 X 9 Y 14 X 7 Y 14 X 1 Y 13 X 30 Y 14 X -23 Y 14 X 30 Y 13 X 47 Y 14 X 7 Y 14 X -3 Y 13 X 28 Y
 14 X 42 Y 14 X 8 Y 13 X 43 Y 14 X 18 Y 14 X 25 Y 13 X 15 Y 14 X 24 Y 14 X 3 Y 13 X 33 Y 14 X -7 Y 14 X 8 Y 13 X -24 Y 14 X -192 Y 14 X -174 Y 14 X s black 3 lw 899 685 m 548 X s 953 698 m -13 Y s 974 691 m -6 Y s 996 691 m -6 Y s 1017 691 m -6 Y s
 1038 691 m -6 Y s 1060 698 m -13 Y s 1081 691 m -6 Y s 1103 691 m -6 Y s 1124 691 m -6 Y s 1145 691 m -6 Y s 1167 698 m -13 Y s 1188 691 m -6 Y s 1209 691 m -6 Y s 1231 691 m -6 Y s 1252 691 m -6 Y s 1274 698 m -13 Y s 1295 691 m -6 Y s 1316 691 m
 -6 Y s 1338 691 m -6 Y s 1359 691 m -6 Y s 1381 698 m -13 Y s 953 698 m -13 Y s 931 691 m -6 Y s 910 691 m -6 Y s 1381 698 m -13 Y s 1402 691 m -6 Y s 1423 691 m -6 Y s 1445 691 m -6 Y s
 gsave  710 567 779 603 C 940.619 656.444 t 0 r /Helvetica findfont 25.6631 sf 0 0 m (0.2) show NC gr 
 gsave  710 567 779 603 C 926.411 656.444 t 0 r /Symbol findfont 25.6631 sf 0 0 m (-) show NC gr 
 gsave  710 567 779 603 C 1045.76 656.444 t 0 r /Helvetica findfont 25.6631 sf 0 0 m (0.1) show NC gr 
 gsave  710 567 779 603 C 1034.4 656.444 t 0 r /Symbol findfont 25.6631 sf 0 0 m (-) show NC gr 
 gsave  710 567 779 603 C 1156.59 656.444 t 0 r /Helvetica findfont 25.6631 sf 0 0 m (0) show NC gr 
 gsave  710 567 779 603 C 1256.05 656.444 t 0 r /Helvetica findfont 25.6631 sf 0 0 m (0.1) show NC gr 
 gsave  710 567 779 603 C 1361.2 656.444 t 0 r /Helvetica findfont 25.6631 sf 0 0 m (0.2) show NC gr 
 gsave  710 567 779 603 C 1335.62 613.818 t 0 r /Helvetica findfont 28.5146 sf 0 0 m (bb.HY_l1) show NC gr  899 1114 m 548 X s 953 1100 m 14 Y s 974 1107 m 7 Y s 996 1107 m 7 Y s 1017 1107 m 7 Y s 1038 1107 m 7 Y s 1060 1100 m 14 Y s 1081 1107 m 7 Y
 s 1103 1107 m 7 Y s 1124 1107 m 7 Y s 1145 1107 m 7 Y s 1167 1100 m 14 Y s 1188 1107 m 7 Y s 1209 1107 m 7 Y s 1231 1107 m 7 Y s 1252 1107 m 7 Y s 1274 1100 m 14 Y s 1295 1107 m 7 Y s 1316 1107 m 7 Y s 1338 1107 m 7 Y s 1359 1107 m 7 Y s 1381 1100 m
 14 Y s 953 1100 m 14 Y s 931 1107 m 7 Y s 910 1107 m 7 Y s 1381 1100 m 14 Y s 1402 1107 m 7 Y s 1423 1107 m 7 Y s 1445 1107 m 7 Y s 899 685 m 429 Y s 915 685 m -16 X s 907 699 m -8 X s 907 712 m -8 X s 907 726 m -8 X s 907 740 m -8 X s 915 754 m -16
 X s 907 768 m -8 X s 907 782 m -8 X s 907 796 m -8 X s 907 810 m -8 X s 915 824 m -16 X s 907 838 m -8 X s 907 852 m -8 X s 907 866 m -8 X s 907 880 m -8 X s 915 893 m -16 X s 907 907 m -8 X s 907 921 m -8 X s 907 935 m -8 X s 907 949 m -8 X s 915
 963 m -16 X s 907 977 m -8 X s 907 991 m -8 X s 907 1005 m -8 X s 907 1019 m -8 X s 915 1033 m -16 X s 907 1047 m -8 X s 907 1061 m -8 X s 907 1075 m -8 X s 907 1088 m -8 X s 915 1102 m -16 X s 915 1102 m -16 X s
 gsave  710 567 779 603 C 875.259 673.495 t 0 r /Helvetica findfont 25.6631 sf 0 0 m (0) show NC gr 
 gsave  710 567 779 603 C 878.101 744.539 t 0 r /Helvetica findfont 25.6631 sf 0 0 m (1) show NC gr 
 gsave  710 567 779 603 C 875.259 812.741 t 0 r /Helvetica findfont 25.6631 sf 0 0 m (2) show NC gr 
 gsave  710 567 779 603 C 875.259 883.784 t 0 r /Helvetica findfont 25.6631 sf 0 0 m (3) show NC gr 
 gsave  710 567 779 603 C 875.259 951.986 t 0 r /Helvetica findfont 25.6631 sf 0 0 m (4) show NC gr 
 gsave  710 567 779 603 C 875.259 1023.03 t 0 r /Helvetica findfont 25.6631 sf 0 0 m (5) show NC gr 
 gsave  710 567 779 603 C 875.259 1091.23 t 0 r /Helvetica findfont 25.6631 sf 0 0 m (6) show NC gr 
 gsave  710 567 779 603 C 801.374 1023.03 t 90 r /Helvetica findfont 28.5146 sf 0 0 m (0.0128 ) show NC gr 
 gsave  710 567 779 603 C 787.165 1020.19 t 90 r /Helvetica findfont 19.9602 sf 0 0 m ( ) show NC gr 
 gsave  710 567 779 603 C 801.374 1008.82 t 90 r /Helvetica findfont 28.5146 sf 0 0 m (/) show NC gr 
 gsave  710 567 779 603 C 809.899 1005.98 t 90 r /Helvetica findfont 19.9602 sf 0 0 m ( ) show NC gr 
 gsave  710 567 779 603 C 801.374 900.835 t 90 r /Helvetica findfont 28.5146 sf 0 0 m (\(1/N\) dN) show NC gr  1447 685 m 429 Y s 1430 685 m 17 X s 1438 699 m 9 X s 1438 712 m 9 X s 1438 726 m 9 X s 1438 740 m 9 X s 1430 754 m 17 X s 1438 768 m 9 X s
 1438 782 m 9 X s 1438 796 m 9 X s 1438 810 m 9 X s 1430 824 m 17 X s 1438 838 m 9 X s 1438 852 m 9 X s 1438 866 m 9 X s 1438 880 m 9 X s 1430 893 m 17 X s 1438 907 m 9 X s 1438 921 m 9 X s 1438 935 m 9 X s 1438 949 m 9 X s 1430 963 m 17 X s 1438 977
 m 9 X s 1438 991 m 9 X s 1438 1005 m 9 X s 1438 1019 m 9 X s 1430 1033 m 17 X s 1438 1047 m 9 X s 1438 1061 m 9 X s 1438 1075 m 9 X s 1438 1088 m 9 X s 1430 1102 m 17 X s 1430 1102 m 17 X s 0.490196 0.545098 0.615686 c 0.364706 0.419608 0.490196 c
 335 38 786 1130 bf 0.490196 0.545098 0.615686 c 786 1130 m 335 X s 1121 1130 m 38 Y s 1121 1168 m -335 X s 786 1168 m -38 Y s 1 1 1 c black 1 1 1 c
 gsave  710 567 779 603 C 790.007 1142.38 t 0 r /Helvetica-Bold findfont 28.5146 sf 0 0 m (Input variable: bb.HY_l1) show NC gr  1 0 0 c 6 lw black 3 lw 1 0 0 c 1433 685 m -1 X s 1433 700 m -16 -15 d s 1427 709 m -25 -24 d s 1419 717 m -32 -32 d s
 1419 732 m -47 -47 d s 1419 747 m -62 -62 d s 1412 755 m -70 -70 d s 1405 764 m -78 -79 d s 1405 778 m -93 -93 d s 1392 780 m -95 -95 d s 1382 785 m -100 -100 d s 1378 797 m -111 -112 d s 1375 808 m -11 -10 d s 1363 796 m -12 -12 d s 1346 779 m -94
 -94 d s 1337 786 m -100 -101 d s 1337 801 m -116 -116 d s 1332 811 m -9 -9 d s 1316 795 m -110 -110 d s 1310 804 m -119 -119 d s 1310 819 m -134 -134 d s 1301 825 m -5 -5 d s 1286 811 m -125 -126 d s 1275 814 m -6 -6 d s 1264 803 m -118 -118 d s
 1244 798 m -113 -113 d s 1237 806 m -121 -121 d s 1228 812 m -127 -127 d s 1226 826 m -12 -12 d s 1212 812 m -126 -127 d s 1200 815 m -129 -130 d s 1192 822 m -136 -137 d s 1186 832 m -145 -147 d s 1173 833 m -147 -148 d s 1160 835 m -1 X s 1156 831
 m -146 -146 d s 1139 829 m -144 -144 d s 1132 837 m -152 -152 d s 1132 853 m -167 -168 d s 1128 864 m -10 -10 d s 1111 846 m -161 -161 d s 1101 852 m -10 -10 d s 1090 841 m -155 -156 d s 1068 834 m -148 -149 d s 1064 844 m -159 -159 d s 1057 853 m
 -158 -159 d s 1050 861 m -28 -28 d s 1016 827 m -117 -118 d s 1037 864 m -15 -15 d s 1009 835 m -110 -110 d s 1036 878 m -14 -14 d s 1009 850 m -110 -110 d s 1035 892 m -13 -13 d s 1009 865 m -14 -14 d s 990 846 m -91 -91 d s 981 853 m -82 -83 d s
 981 868 m -13 -14 d s 959 845 m -60 -60 d s 979 881 m -11 -12 d s 949 851 m -9 -9 d s 938 840 m -39 -40 d s 914 830 m -15 -14 d s 913 845 m -14 -14 d s 905 852 m -6 -6 d s 6 lw 899 852 m 14 X -22 Y 14 X 10 Y 13 X 11 Y 14 X -6 Y 14 X 36 Y 13 X -35 Y
 14 X 19 Y 14 X -38 Y 13 X 65 Y 14 X -28 Y 14 X -11 Y 14 X -19 Y 13 X 7 Y 14 X 11 Y 14 X -6 Y 13 X 18 Y 14 X -35 Y 14 X 2 Y 13 X 4 Y 14 X -3 Y 14 X -10 Y 13 X -10 Y 14 X 14 Y 14 X -20 Y 13 X -8 Y 14 X 5 Y 14 X 11 Y 13 X -3 Y 14 X 14 Y 14 X -30 Y 13 X
 16 Y 14 X -32 Y 14 X 17 Y 13 X 12 Y 14 X -23 Y 14 X -7 Y 13 X -23 Y 14 X -46 Y 14 X -24 Y 14 X s black 3 lw 899 685 m 548 X s 953 698 m -13 Y s 974 691 m -6 Y s 996 691 m -6 Y s 1017 691 m -6 Y s 1038 691 m -6 Y s 1060 698 m -13 Y s 1081 691 m -6 Y
 s 1103 691 m -6 Y s 1124 691 m -6 Y s 1145 691 m -6 Y s 1167 698 m -13 Y s 1188 691 m -6 Y s 1209 691 m -6 Y s 1231 691 m -6 Y s 1252 691 m -6 Y s 1274 698 m -13 Y s 1295 691 m -6 Y s 1316 691 m -6 Y s 1338 691 m -6 Y s 1359 691 m -6 Y s 1381 698 m
 -13 Y s 953 698 m -13 Y s 931 691 m -6 Y s 910 691 m -6 Y s 1381 698 m -13 Y s 1402 691 m -6 Y s 1423 691 m -6 Y s 1445 691 m -6 Y s 899 1114 m 548 X s 953 1100 m 14 Y s 974 1107 m 7 Y s 996 1107 m 7 Y s 1017 1107 m 7 Y s 1038 1107 m 7 Y s 1060 1100
 m 14 Y s 1081 1107 m 7 Y s 1103 1107 m 7 Y s 1124 1107 m 7 Y s 1145 1107 m 7 Y s 1167 1100 m 14 Y s 1188 1107 m 7 Y s 1209 1107 m 7 Y s 1231 1107 m 7 Y s 1252 1107 m 7 Y s 1274 1100 m 14 Y s 1295 1107 m 7 Y s 1316 1107 m 7 Y s 1338 1107 m 7 Y s 1359
 1107 m 7 Y s 1381 1100 m 14 Y s 953 1100 m 14 Y s 931 1107 m 7 Y s 910 1107 m 7 Y s 1381 1100 m 14 Y s 1402 1107 m 7 Y s 1423 1107 m 7 Y s 1445 1107 m 7 Y s 899 685 m 429 Y s 915 685 m -16 X s 907 699 m -8 X s 907 712 m -8 X s 907 726 m -8 X s 907
 740 m -8 X s 915 754 m -16 X s 907 768 m -8 X s 907 782 m -8 X s 907 796 m -8 X s 907 810 m -8 X s 915 824 m -16 X s 907 838 m -8 X s 907 852 m -8 X s 907 866 m -8 X s 907 880 m -8 X s 915 893 m -16 X s 907 907 m -8 X s 907 921 m -8 X s 907 935 m -8
 X s 907 949 m -8 X s 915 963 m -16 X s 907 977 m -8 X s 907 991 m -8 X s 907 1005 m -8 X s 907 1019 m -8 X s 915 1033 m -16 X s 907 1047 m -8 X s 907 1061 m -8 X s 907 1075 m -8 X s 907 1088 m -8 X s 915 1102 m -16 X s 915 1102 m -16 X s 1447 685 m
 429 Y s 1430 685 m 17 X s 1438 699 m 9 X s 1438 712 m 9 X s 1438 726 m 9 X s 1438 740 m 9 X s 1430 754 m 17 X s 1438 768 m 9 X s 1438 782 m 9 X s 1438 796 m 9 X s 1438 810 m 9 X s 1430 824 m 17 X s 1438 838 m 9 X s 1438 852 m 9 X s 1438 866 m 9 X s
 1438 880 m 9 X s 1430 893 m 17 X s 1438 907 m 9 X s 1438 921 m 9 X s 1438 935 m 9 X s 1438 949 m 9 X s 1430 963 m 17 X s 1438 977 m 9 X s 1438 991 m 9 X s 1438 1005 m 9 X s 1438 1019 m 9 X s 1430 1033 m 17 X s 1438 1047 m 9 X s 1438 1061 m 9 X s
 1438 1075 m 9 X s 1438 1088 m 9 X s 1430 1102 m 17 X s 1430 1102 m 17 X s
 gsave  710 567 779 603 C 1474.92 682.347 t 90 r /Helvetica-Bold findfont 19.9602 sf 0 0 m (U/O\255flow \(S,B\): \(0.0, 0.0\)% / \(0.0, 0.0\)%) show NC gr  0.490196 0.545098 0.615686 c 0.364706 0.419608 0.490196 c 335 38 786 1130 bf 0.490196 0.545098
 0.615686 c 786 1130 m 335 X s 1121 1130 m 38 Y s 1121 1168 m -335 X s 786 1168 m -38 Y s 1 1 1 c black 1 1 1 c
 gsave  710 567 779 603 C 790.007 1142.38 t 0 r /Helvetica-Bold findfont 28.5146 sf 0 0 m (Input variable: bb.HY_l1) show NC gr  0.490196 0.545098 0.615686 c 0.941176 0.941176 0.941176 c 711 567 1534 603 bf black 1 1 0.992157 c 547 429 1655 685 bf
 black 547 429 1655 685 bl 0 0 0.933333 c 6 lw 0.49 0.6 0.82 c black 3 lw 0.49 0.6 0.82 c 1655 705 m 371 Y 14 X -64 Y 14 X -21 Y 13 X -29 Y 14 X 9 Y 14 X -59 Y 13 X -26 Y 14 X 6 Y 14 X -28 Y 13 X -3 Y 14 X 1 Y 14 X -31 Y 13 X -3 Y 14 X -2 Y 14 X -20
 Y 13 X 12 Y 14 X -8 Y 14 X 4 Y 13 X -12 Y 14 X -19 Y 14 X 22 Y 14 X -26 Y 13 X 9 Y 14 X -9 Y 14 X 2 Y 13 X -9 Y 14 X 8 Y 14 X 9 Y 13 X -4 Y 14 X -24 Y 14 X 8 Y 13 X -8 Y 14 X -5 Y 14 X -3 Y 13 X -9 Y 14 X -11 Y 14 X -10 Y 13 X -12 Y 14 X -6 Y 27 X f
 6 lw 0 0 0.933333 c 0.49 0.6 0.82 c 0 0 0.933333 c 1655 1076 m 14 X -64 Y 14 X -21 Y 13 X -29 Y 14 X 9 Y 14 X -59 Y 13 X -26 Y 14 X 6 Y 14 X -28 Y 13 X -3 Y 14 X 1 Y 14 X -31 Y 13 X -3 Y 14 X -2 Y 14 X -20 Y 13 X 12 Y 14 X -8 Y 14 X 4 Y 13 X -12 Y
 14 X -19 Y 14 X 22 Y 14 X -26 Y 13 X 9 Y 14 X -9 Y 14 X 2 Y 13 X -9 Y 14 X 8 Y 14 X 9 Y 13 X -4 Y 14 X -24 Y 14 X 8 Y 13 X -8 Y 14 X -5 Y 14 X -3 Y 13 X -9 Y 14 X -11 Y 14 X -10 Y 13 X -12 Y 14 X -6 Y 27 X s black 3 lw 1655 685 m 547 X s 1724 698 m
 -13 Y s 1738 691 m -6 Y s 1751 691 m -6 Y s 1765 691 m -6 Y s 1779 691 m -6 Y s 1793 698 m -13 Y s 1806 691 m -6 Y s 1820 691 m -6 Y s 1834 691 m -6 Y s 1848 691 m -6 Y s 1861 698 m -13 Y s 1875 691 m -6 Y s 1889 691 m -6 Y s 1903 691 m -6 Y s 1916
 691 m -6 Y s 1930 698 m -13 Y s 1944 691 m -6 Y s 1957 691 m -6 Y s 1971 691 m -6 Y s 1985 691 m -6 Y s 1999 698 m -13 Y s 2012 691 m -6 Y s 2026 691 m -6 Y s 2040 691 m -6 Y s 2054 691 m -6 Y s 2067 698 m -13 Y s 2081 691 m -6 Y s 2095 691 m -6 Y s
 2109 691 m -6 Y s 2122 691 m -6 Y s 2136 698 m -13 Y s 1724 698 m -13 Y s 1710 691 m -6 Y s 1696 691 m -6 Y s 1683 691 m -6 Y s 1669 691 m -6 Y s 2136 698 m -13 Y s 2150 691 m -6 Y s 2164 691 m -6 Y s 2177 691 m -6 Y s 2191 691 m -6 Y s
 gsave  711 567 1534 603 C 1722.1 656.444 t 0 r /Helvetica findfont 25.6631 sf 0 0 m (1) show NC gr 
 gsave  711 567 1534 603 C 1707.89 656.444 t 0 r /Symbol findfont 25.6631 sf 0 0 m (-) show NC gr 
 gsave  711 567 1534 603 C 1781.78 656.444 t 0 r /Helvetica findfont 25.6631 sf 0 0 m (0) show NC gr 
 gsave  711 567 1534 603 C 1852.82 656.444 t 0 r /Helvetica findfont 25.6631 sf 0 0 m (1) show NC gr 
 gsave  711 567 1534 603 C 1921.02 656.444 t 0 r /Helvetica findfont 25.6631 sf 0 0 m (2) show NC gr 
 gsave  711 567 1534 603 C 1989.22 656.444 t 0 r /Helvetica findfont 25.6631 sf 0 0 m (3) show NC gr 
 gsave  711 567 1534 603 C 2057.43 656.444 t 0 r /Helvetica findfont 25.6631 sf 0 0 m (4) show NC gr 
 gsave  711 567 1534 603 C 2125.63 656.444 t 0 r /Helvetica findfont 25.6631 sf 0 0 m (5) show NC gr 
 gsave  711 567 1534 603 C 2065.95 616.66 t 0 r /Helvetica findfont 28.5146 sf 0 0 m (yybb.H1_l1) show NC gr  1655 1114 m 547 X s 1724 1100 m 14 Y s 1738 1107 m 7 Y s 1751 1107 m 7 Y s 1765 1107 m 7 Y s 1779 1107 m 7 Y s 1793 1100 m 14 Y s 1806 1107
 m 7 Y s 1820 1107 m 7 Y s 1834 1107 m 7 Y s 1848 1107 m 7 Y s 1861 1100 m 14 Y s 1875 1107 m 7 Y s 1889 1107 m 7 Y s 1903 1107 m 7 Y s 1916 1107 m 7 Y s 1930 1100 m 14 Y s 1944 1107 m 7 Y s 1957 1107 m 7 Y s 1971 1107 m 7 Y s 1985 1107 m 7 Y s 1999
 1100 m 14 Y s 2012 1107 m 7 Y s 2026 1107 m 7 Y s 2040 1107 m 7 Y s 2054 1107 m 7 Y s 2067 1100 m 14 Y s 2081 1107 m 7 Y s 2095 1107 m 7 Y s 2109 1107 m 7 Y s 2122 1107 m 7 Y s 2136 1100 m 14 Y s 1724 1100 m 14 Y s 1710 1107 m 7 Y s 1696 1107 m 7 Y
 s 1683 1107 m 7 Y s 1669 1107 m 7 Y s 2136 1100 m 14 Y s 2150 1107 m 7 Y s 2164 1107 m 7 Y s 2177 1107 m 7 Y s 2191 1107 m 7 Y s 1655 685 m 429 Y s 1671 705 m -16 X s 1663 714 m -8 X s 1663 723 m -8 X s 1663 733 m -8 X s 1663 742 m -8 X s 1671 751 m
 -16 X s 1663 760 m -8 X s 1663 769 m -8 X s 1663 778 m -8 X s 1663 787 m -8 X s 1671 796 m -16 X s 1663 805 m -8 X s 1663 815 m -8 X s 1663 824 m -8 X s 1663 833 m -8 X s 1671 842 m -16 X s 1663 851 m -8 X s 1663 860 m -8 X s 1663 869 m -8 X s 1663
 878 m -8 X s 1671 888 m -16 X s 1663 897 m -8 X s 1663 906 m -8 X s 1663 915 m -8 X s 1663 924 m -8 X s 1671 933 m -16 X s 1663 942 m -8 X s 1663 951 m -8 X s 1663 960 m -8 X s 1663 970 m -8 X s 1671 979 m -16 X s 1663 988 m -8 X s 1663 997 m -8 X s
 1663 1006 m -8 X s 1663 1015 m -8 X s 1671 1024 m -16 X s 1663 1033 m -8 X s 1663 1043 m -8 X s 1663 1052 m -8 X s 1663 1061 m -8 X s 1671 1070 m -16 X s 1671 705 m -16 X s 1663 696 m -8 X s 1663 687 m -8 X s 1671 1070 m -16 X s 1663 1079 m -8 X s
 1663 1088 m -8 X s 1663 1097 m -8 X s 1663 1106 m -8 X s
 gsave  711 567 1534 603 C 1631.16 696.229 t 0 r /Helvetica findfont 25.6631 sf 0 0 m (0) show NC gr 
 gsave  711 567 1534 603 C 1597.06 741.697 t 0 r /Helvetica findfont 25.6631 sf 0 0 m (0.05) show NC gr 
 gsave  711 567 1534 603 C 1614.11 787.165 t 0 r /Helvetica findfont 25.6631 sf 0 0 m (0.1) show NC gr 
 gsave  711 567 1534 603 C 1597.06 832.633 t 0 r /Helvetica findfont 25.6631 sf 0 0 m (0.15) show NC gr 
 gsave  711 567 1534 603 C 1611.27 878.101 t 0 r /Helvetica findfont 25.6631 sf 0 0 m (0.2) show NC gr 
 gsave  711 567 1534 603 C 1597.06 923.569 t 0 r /Helvetica findfont 25.6631 sf 0 0 m (0.25) show NC gr 
 gsave  711 567 1534 603 C 1611.27 969.037 t 0 r /Helvetica findfont 25.6631 sf 0 0 m (0.3) show NC gr 
 gsave  711 567 1534 603 C 1597.06 1014.5 t 0 r /Helvetica findfont 25.6631 sf 0 0 m (0.35) show NC gr 
 gsave  711 567 1534 603 C 1611.27 1059.97 t 0 r /Helvetica findfont 25.6631 sf 0 0 m (0.4) show NC gr 
 gsave  711 567 1534 603 C 1557.28 1037.24 t 90 r /Helvetica findfont 28.5146 sf 0 0 m (0.199 ) show NC gr 
 gsave  711 567 1534 603 C 1543.07 1034.4 t 90 r /Helvetica findfont 19.9602 sf 0 0 m ( ) show NC gr 
 gsave  711 567 1534 603 C 1557.28 1023.03 t 90 r /Helvetica findfont 28.5146 sf 0 0 m (/) show NC gr 
 gsave  711 567 1534 603 C 1565.8 1020.19 t 90 r /Helvetica findfont 19.9602 sf 0 0 m ( ) show NC gr 
 gsave  711 567 1534 603 C 1557.28 915.044 t 90 r /Helvetica findfont 28.5146 sf 0 0 m (\(1/N\) dN) show NC gr  2202 685 m 429 Y s 2186 705 m 16 X s 2194 714 m 8 X s 2194 723 m 8 X s 2194 733 m 8 X s 2194 742 m 8 X s 2186 751 m 16 X s 2194 760 m 8 X
 s 2194 769 m 8 X s 2194 778 m 8 X s 2194 787 m 8 X s 2186 796 m 16 X s 2194 805 m 8 X s 2194 815 m 8 X s 2194 824 m 8 X s 2194 833 m 8 X s 2186 842 m 16 X s 2194 851 m 8 X s 2194 860 m 8 X s 2194 869 m 8 X s 2194 878 m 8 X s 2186 888 m 16 X s 2194
 897 m 8 X s 2194 906 m 8 X s 2194 915 m 8 X s 2194 924 m 8 X s 2186 933 m 16 X s 2194 942 m 8 X s 2194 951 m 8 X s 2194 960 m 8 X s 2194 970 m 8 X s 2186 979 m 16 X s 2194 988 m 8 X s 2194 997 m 8 X s 2194 1006 m 8 X s 2194 1015 m 8 X s 2186 1024 m
 16 X s 2194 1033 m 8 X s 2194 1043 m 8 X s 2194 1052 m 8 X s 2194 1061 m 8 X s 2186 1070 m 16 X s 2186 705 m 16 X s 2194 696 m 8 X s 2194 687 m 8 X s 2186 1070 m 16 X s 2194 1079 m 8 X s 2194 1088 m 8 X s 2194 1097 m 8 X s 2194 1106 m 8 X s 0.490196
 0.545098 0.615686 c 0.364706 0.419608 0.490196 c 363 38 1542 1130 bf 0.490196 0.545098 0.615686 c 1542 1130 m 363 X s 1905 1130 m 38 Y s 1905 1168 m -363 X s 1542 1168 m -38 Y s 1 1 1 c black 1 1 1 c
 gsave  711 567 1534 603 C 1545.91 1142.38 t 0 r /Helvetica-Bold findfont 28.5146 sf 0 0 m (Input variable: yybb.H1_l1) show NC gr  1 0 0 c 6 lw black 3 lw 1 0 0 c 2194 705 m s 2181 707 m -2 -2 d s 2175 717 m -11 -12 d s 2166 723 m -17 -18 d s 2158
 730 m -25 -25 d s 2142 729 m -24 -24 d s 2127 729 m -24 -24 d s 2119 736 m -31 -31 d s 2099 732 m -26 -27 d s 2093 740 m -35 -35 d s 2084 747 m -41 -42 d s 2078 756 m -50 -51 d s 2065 758 m -52 -53 d s 2052 760 m -54 -55 d s 2048 771 m -65 -66 d s
 2036 774 m -68 -69 d s 2015 768 m -62 -63 d s 2001 769 m -64 -64 d s 1993 776 m -9 -9 d s 1983 766 m -61 -61 d s 1970 768 m -63 -63 d s 1970 783 m -78 -78 d s 1963 791 m -86 -86 d s 1949 793 m -6 -7 d s 1933 776 m -71 -71 d s 1927 786 m -80 -81 d s
 1915 789 m -83 -84 d s 1904 793 m -3 -3 d s 1894 783 m -77 -78 d s 1888 792 m -86 -87 d s 1888 807 m -101 -102 d s 1888 822 m -14 -14 d s 1870 804 m -98 -99 d s 1882 832 m -8 -8 d s 1860 810 m -103 -105 d s 1860 825 m -118 -120 d s 1843 823 m -117
 -118 d s 1833 828 m -122 -123 d s 1823 832 m -127 -127 d s 1811 836 m -130 -131 d s 1806 846 m -140 -141 d s 1806 861 m -151 -152 d s 1799 869 m -7 -7 d s 1785 855 m -130 -130 d s 1778 864 m -123 -124 d s 1778 879 m -123 -124 d s 1778 894 m -123
 -124 d s 1766 897 m -1 -1 d s 1760 890 m -105 -105 d s 1751 897 m -96 -97 d s 1751 912 m -96 -96 d s 1751 927 m -96 -96 d s 1751 942 m -96 -96 d s 1751 958 m -14 -14 d s 1731 938 m -76 -77 d s 1741 963 m -4 -4 d s 1724 945 m -69 -69 d s 1724 960 m
 -69 -68 d s 1724 976 m -69 -69 d s 1712 979 m -57 -57 d s 1710 992 m -55 -55 d s 1710 1007 m -55 -55 d s 1702 1015 m -47 -48 d s 1696 1024 m -13 -14 d s 1681 1008 m -12 -12 d s 1657 985 m -2 -2 d s 1696 1039 m -13 -14 d s 6 lw 1655 985 m 14 X 23 Y
 14 X 31 Y 13 X -24 Y 14 X -36 Y 14 X -41 Y 13 X 25 Y 14 X -73 Y 14 X 7 Y 13 X -42 Y 14 X 14 Y 14 X -33 Y 13 X -4 Y 14 X -9 Y 14 X 3 Y 13 X -22 Y 14 X 28 Y 14 X -49 Y 13 X 10 Y 14 X -7 Y 14 X -10 Y 14 X 17 Y 13 X -2 Y 14 X -25 Y 14 X 10 Y 13 X -7 Y
 14 X -1 Y 14 X 6 Y 13 X -3 Y 14 X -13 Y 14 X -2 Y 13 X -9 Y 14 X -15 Y 14 X 4 Y 13 X -7 Y 28 X 1 Y 13 X -7 Y 14 X -16 Y 14 X -2 Y 13 X s black 3 lw 1655 685 m 547 X s 1724 698 m -13 Y s 1738 691 m -6 Y s 1751 691 m -6 Y s 1765 691 m -6 Y s 1779 691
 m -6 Y s 1793 698 m -13 Y s 1806 691 m -6 Y s 1820 691 m -6 Y s 1834 691 m -6 Y s 1848 691 m -6 Y s 1861 698 m -13 Y s 1875 691 m -6 Y s 1889 691 m -6 Y s 1903 691 m -6 Y s 1916 691 m -6 Y s 1930 698 m -13 Y s 1944 691 m -6 Y s 1957 691 m -6 Y s
 1971 691 m -6 Y s 1985 691 m -6 Y s 1999 698 m -13 Y s 2012 691 m -6 Y s 2026 691 m -6 Y s 2040 691 m -6 Y s 2054 691 m -6 Y s 2067 698 m -13 Y s 2081 691 m -6 Y s 2095 691 m -6 Y s 2109 691 m -6 Y s 2122 691 m -6 Y s 2136 698 m -13 Y s 1724 698 m
 -13 Y s 1710 691 m -6 Y s 1696 691 m -6 Y s 1683 691 m -6 Y s 1669 691 m -6 Y s 2136 698 m -13 Y s 2150 691 m -6 Y s 2164 691 m -6 Y s 2177 691 m -6 Y s 2191 691 m -6 Y s 1655 1114 m 547 X s 1724 1100 m 14 Y s 1738 1107 m 7 Y s 1751 1107 m 7 Y s
 1765 1107 m 7 Y s 1779 1107 m 7 Y s 1793 1100 m 14 Y s 1806 1107 m 7 Y s 1820 1107 m 7 Y s 1834 1107 m 7 Y s 1848 1107 m 7 Y s 1861 1100 m 14 Y s 1875 1107 m 7 Y s 1889 1107 m 7 Y s 1903 1107 m 7 Y s 1916 1107 m 7 Y s 1930 1100 m 14 Y s 1944 1107 m
 7 Y s 1957 1107 m 7 Y s 1971 1107 m 7 Y s 1985 1107 m 7 Y s 1999 1100 m 14 Y s 2012 1107 m 7 Y s 2026 1107 m 7 Y s 2040 1107 m 7 Y s 2054 1107 m 7 Y s 2067 1100 m 14 Y s 2081 1107 m 7 Y s 2095 1107 m 7 Y s 2109 1107 m 7 Y s 2122 1107 m 7 Y s 2136
 1100 m 14 Y s 1724 1100 m 14 Y s 1710 1107 m 7 Y s 1696 1107 m 7 Y s 1683 1107 m 7 Y s 1669 1107 m 7 Y s 2136 1100 m 14 Y s 2150 1107 m 7 Y s 2164 1107 m 7 Y s 2177 1107 m 7 Y s 2191 1107 m 7 Y s 1655 685 m 429 Y s 1671 705 m -16 X s 1663 714 m -8 X
 s 1663 723 m -8 X s 1663 733 m -8 X s 1663 742 m -8 X s 1671 751 m -16 X s 1663 760 m -8 X s 1663 769 m -8 X s 1663 778 m -8 X s 1663 787 m -8 X s 1671 796 m -16 X s 1663 805 m -8 X s 1663 815 m -8 X s 1663 824 m -8 X s 1663 833 m -8 X s 1671 842 m
 -16 X s 1663 851 m -8 X s 1663 860 m -8 X s 1663 869 m -8 X s 1663 878 m -8 X s 1671 888 m -16 X s 1663 897 m -8 X s 1663 906 m -8 X s 1663 915 m -8 X s 1663 924 m -8 X s 1671 933 m -16 X s 1663 942 m -8 X s 1663 951 m -8 X s 1663 960 m -8 X s 1663
 970 m -8 X s 1671 979 m -16 X s 1663 988 m -8 X s 1663 997 m -8 X s 1663 1006 m -8 X s 1663 1015 m -8 X s 1671 1024 m -16 X s 1663 1033 m -8 X s 1663 1043 m -8 X s 1663 1052 m -8 X s 1663 1061 m -8 X s 1671 1070 m -16 X s 1671 705 m -16 X s 1663 696
 m -8 X s 1663 687 m -8 X s 1671 1070 m -16 X s 1663 1079 m -8 X s 1663 1088 m -8 X s 1663 1097 m -8 X s 1663 1106 m -8 X s 2202 685 m 429 Y s 2186 705 m 16 X s 2194 714 m 8 X s 2194 723 m 8 X s 2194 733 m 8 X s 2194 742 m 8 X s 2186 751 m 16 X s
 2194 760 m 8 X s 2194 769 m 8 X s 2194 778 m 8 X s 2194 787 m 8 X s 2186 796 m 16 X s 2194 805 m 8 X s 2194 815 m 8 X s 2194 824 m 8 X s 2194 833 m 8 X s 2186 842 m 16 X s 2194 851 m 8 X s 2194 860 m 8 X s 2194 869 m 8 X s 2194 878 m 8 X s 2186 888
 m 16 X s 2194 897 m 8 X s 2194 906 m 8 X s 2194 915 m 8 X s 2194 924 m 8 X s 2186 933 m 16 X s 2194 942 m 8 X s 2194 951 m 8 X s 2194 960 m 8 X s 2194 970 m 8 X s 2186 979 m 16 X s 2194 988 m 8 X s 2194 997 m 8 X s 2194 1006 m 8 X s 2194 1015 m 8 X
 s 2186 1024 m 16 X s 2194 1033 m 8 X s 2194 1043 m 8 X s 2194 1052 m 8 X s 2194 1061 m 8 X s 2186 1070 m 16 X s 2186 705 m 16 X s 2194 696 m 8 X s 2194 687 m 8 X s 2186 1070 m 16 X s 2194 1079 m 8 X s 2194 1088 m 8 X s 2194 1097 m 8 X s 2194 1106 m
 8 X s
 gsave  711 567 1534 603 C 2230.83 682.347 t 90 r /Helvetica-Bold findfont 19.9602 sf 0 0 m (U/O\255flow \(S,B\): \(0.0, 0.0\)% / \(0.0, 0.0\)%) show NC gr  0.490196 0.545098 0.615686 c 0.364706 0.419608 0.490196 c 363 38 1542 1130 bf 0.490196
 0.545098 0.615686 c 1542 1130 m 363 X s 1905 1130 m 38 Y s 1905 1168 m -363 X s 1542 1168 m -38 Y s 1 1 1 c black 1 1 1 c
 gsave  711 567 1534 603 C 1545.91 1142.38 t 0 r /Helvetica-Bold findfont 28.5146 sf 0 0 m (Input variable: yybb.H1_l1) show NC gr  0.490196 0.545098 0.615686 c 0.941176 0.941176 0.941176 c 710 567 23 12 bf black 1 1 0.992157 c 548 429 143 94 bf
 black 548 429 143 94 bl 0 0 0.933333 c 6 lw 0.49 0.6 0.82 c black 3 lw 0.49 0.6 0.82 c 143 94 m 28 X 3 Y 14 X 12 Y 13 X 59 Y 14 X 112 Y 14 X 154 Y 13 X 1 Y 14 X -55 Y 14 X 1 Y 13 X -78 Y 14 X 6 Y 14 X -5 Y 13 X -17 Y 14 X -12 Y 14 X -11 Y 13 X -9 Y
 14 X -10 Y 14 X -7 Y 13 X -14 Y 14 X 4 Y 14 X -14 Y 13 X -12 Y 14 X 16 Y 14 X -30 Y 13 X 6 Y 28 X -6 Y 27 X -7 Y 14 X -16 Y 13 X 11 Y 14 X -17 Y 14 X -6 Y 14 X -14 Y 13 X -16 Y 14 X -13 Y 14 X -13 Y 13 X -2 Y 14 X -1 Y 14 X f 6 lw 0 0 0.933333 c
 0.49 0.6 0.82 c 0 0 0.933333 c 143 94 m 28 X 3 Y 14 X 12 Y 13 X 59 Y 14 X 112 Y 14 X 154 Y 13 X 1 Y 14 X -55 Y 14 X 1 Y 13 X -78 Y 14 X 6 Y 14 X -5 Y 13 X -17 Y 14 X -12 Y 14 X -11 Y 13 X -9 Y 14 X -10 Y 14 X -7 Y 13 X -14 Y 14 X 4 Y 14 X -14 Y 13 X
 -12 Y 14 X 16 Y 14 X -30 Y 13 X 6 Y 28 X -6 Y 27 X -7 Y 14 X -16 Y 13 X 11 Y 14 X -17 Y 14 X -6 Y 14 X -14 Y 13 X -16 Y 14 X -13 Y 14 X -13 Y 13 X -2 Y 14 X -1 Y 14 X s black 3 lw 143 94 m 548 X s 169 107 m -13 Y s 187 100 m -6 Y s 206 100 m -6 Y s
 224 100 m -6 Y s 242 100 m -6 Y s 261 107 m -13 Y s 279 100 m -6 Y s 297 100 m -6 Y s 316 100 m -6 Y s 334 100 m -6 Y s 353 107 m -13 Y s 371 100 m -6 Y s 389 100 m -6 Y s 408 100 m -6 Y s 426 100 m -6 Y s 445 107 m -13 Y s 463 100 m -6 Y s 481 100
 m -6 Y s 500 100 m -6 Y s 518 100 m -6 Y s 536 107 m -13 Y s 555 100 m -6 Y s 573 100 m -6 Y s 592 100 m -6 Y s 610 100 m -6 Y s 628 107 m -13 Y s 169 107 m -13 Y s 150 100 m -6 Y s 628 107 m -13 Y s 647 100 m -6 Y s 665 100 m -6 Y s 684 100 m -6 Y
 s
 gsave  710 567 23 12 C 156.296 65.3603 t 0 r /Helvetica findfont 25.6631 sf 0 0 m (0.2) show NC gr 
 gsave  710 567 23 12 C 142.088 65.3603 t 0 r /Symbol findfont 25.6631 sf 0 0 m (-) show NC gr 
 gsave  710 567 23 12 C 247.232 65.3603 t 0 r /Helvetica findfont 25.6631 sf 0 0 m (0.1) show NC gr 
 gsave  710 567 23 12 C 235.865 65.3603 t 0 r /Symbol findfont 25.6631 sf 0 0 m (-) show NC gr 
 gsave  710 567 23 12 C 343.852 65.3603 t 0 r /Helvetica findfont 25.6631 sf 0 0 m (0) show NC gr 
 gsave  710 567 23 12 C 426.263 65.3603 t 0 r /Helvetica findfont 25.6631 sf 0 0 m (0.1) show NC gr 
 gsave  710 567 23 12 C 517.198 65.3603 t 0 r /Helvetica findfont 25.6631 sf 0 0 m (0.2) show NC gr 
 gsave  710 567 23 12 C 610.976 65.3603 t 0 r /Helvetica findfont 25.6631 sf 0 0 m (0.3) show NC gr 
 gsave  710 567 23 12 C 554.141 25.5758 t 0 r /Helvetica findfont 28.5146 sf 0 0 m (yybb.HT_l1) show NC gr  143 523 m 548 X s 169 509 m 14 Y s 187 516 m 7 Y s 206 516 m 7 Y s 224 516 m 7 Y s 242 516 m 7 Y s 261 509 m 14 Y s 279 516 m 7 Y s 297 516 m
 7 Y s 316 516 m 7 Y s 334 516 m 7 Y s 353 509 m 14 Y s 371 516 m 7 Y s 389 516 m 7 Y s 408 516 m 7 Y s 426 516 m 7 Y s 445 509 m 14 Y s 463 516 m 7 Y s 481 516 m 7 Y s 500 516 m 7 Y s 518 516 m 7 Y s 536 509 m 14 Y s 555 516 m 7 Y s 573 516 m 7 Y s
 592 516 m 7 Y s 610 516 m 7 Y s 628 509 m 14 Y s 169 509 m 14 Y s 150 516 m 7 Y s 628 509 m 14 Y s 647 516 m 7 Y s 665 516 m 7 Y s 684 516 m 7 Y s 143 94 m 429 Y s 160 94 m -17 X s 152 108 m -9 X s 152 122 m -9 X s 152 136 m -9 X s 152 150 m -9 X s
 160 164 m -17 X s 152 178 m -9 X s 152 192 m -9 X s 152 206 m -9 X s 152 220 m -9 X s 160 235 m -17 X s 152 249 m -9 X s 152 263 m -9 X s 152 277 m -9 X s 152 291 m -9 X s 160 305 m -17 X s 152 319 m -9 X s 152 333 m -9 X s 152 347 m -9 X s 152 362
 m -9 X s 160 376 m -17 X s 152 390 m -9 X s 152 404 m -9 X s 152 418 m -9 X s 152 432 m -9 X s 160 446 m -17 X s 152 460 m -9 X s 152 474 m -9 X s 152 488 m -9 X s 152 503 m -9 X s 160 517 m -17 X s 160 517 m -17 X s
 gsave  710 567 23 12 C 119.354 82.4108 t 0 r /Helvetica findfont 25.6631 sf 0 0 m (0) show NC gr 
 gsave  710 567 23 12 C 122.195 153.455 t 0 r /Helvetica findfont 25.6631 sf 0 0 m (1) show NC gr 
 gsave  710 567 23 12 C 119.354 224.498 t 0 r /Helvetica findfont 25.6631 sf 0 0 m (2) show NC gr 
 gsave  710 567 23 12 C 119.354 295.542 t 0 r /Helvetica findfont 25.6631 sf 0 0 m (3) show NC gr 
 gsave  710 567 23 12 C 119.354 366.586 t 0 r /Helvetica findfont 25.6631 sf 0 0 m (4) show NC gr 
 gsave  710 567 23 12 C 119.354 437.63 t 0 r /Helvetica findfont 25.6631 sf 0 0 m (5) show NC gr 
 gsave  710 567 23 12 C 119.354 505.832 t 0 r /Helvetica findfont 25.6631 sf 0 0 m (6) show NC gr 
 gsave  710 567 23 12 C 45.468 431.946 t 90 r /Helvetica findfont 28.5146 sf 0 0 m (0.0149 ) show NC gr 
 gsave  710 567 23 12 C 31.2593 429.104 t 90 r /Helvetica findfont 19.9602 sf 0 0 m ( ) show NC gr 
 gsave  710 567 23 12 C 45.468 417.737 t 90 r /Helvetica findfont 28.5146 sf 0 0 m (/) show NC gr 
 gsave  710 567 23 12 C 53.9933 414.896 t 90 r /Helvetica findfont 19.9602 sf 0 0 m ( ) show NC gr 
 gsave  710 567 23 12 C 45.468 309.751 t 90 r /Helvetica findfont 28.5146 sf 0 0 m (\(1/N\) dN) show NC gr  691 94 m 429 Y s 674 94 m 17 X s 683 108 m 8 X s 683 122 m 8 X s 683 136 m 8 X s 683 150 m 8 X s 674 164 m 17 X s 683 178 m 8 X s 683 192 m 8
 X s 683 206 m 8 X s 683 220 m 8 X s 674 235 m 17 X s 683 249 m 8 X s 683 263 m 8 X s 683 277 m 8 X s 683 291 m 8 X s 674 305 m 17 X s 683 319 m 8 X s 683 333 m 8 X s 683 347 m 8 X s 683 362 m 8 X s 674 376 m 17 X s 683 390 m 8 X s 683 404 m 8 X s
 683 418 m 8 X s 683 432 m 8 X s 674 446 m 17 X s 683 460 m 8 X s 683 474 m 8 X s 683 488 m 8 X s 683 503 m 8 X s 674 517 m 17 X s 674 517 m 17 X s 0.490196 0.545098 0.615686 c 0.364706 0.419608 0.490196 c 366 37 30 539 bf 0.490196 0.545098 0.615686
 c 30 539 m 366 X s 396 539 m 37 Y s 396 576 m -366 X s 30 576 m -37 Y s 1 1 1 c black 1 1 1 c
 gsave  710 567 23 12 C 34.101 551.299 t 0 r /Helvetica-Bold findfont 28.5146 sf 0 0 m (Input variable: yybb.HT_l1) show NC gr  1 0 0 c 6 lw black 3 lw 1 0 0 c 677 94 m s 663 95 m -1 -1 d s 662 110 m -16 -16 d s 650 112 m -19 -18 d s 641 118 m -25
 -24 d s 626 118 m -25 -24 d s 622 130 m -36 -36 d s 611 134 m -2 -3 d s 606 129 m -35 -35 d s 595 133 m -39 -39 d s 595 148 m -54 -54 d s 585 153 m -59 -59 d s 578 162 m -67 -68 d s 559 158 m -63 -64 d s 554 167 m -73 -73 d s 543 171 m -77 -77 d s
 540 184 m -90 -90 d s 528 187 m -93 -93 d s 515 189 m -2 -2 d s 507 180 m -87 -86 d s 499 188 m -94 -94 d s 489 193 m -99 -99 d s 485 205 m -110 -111 d s 473 208 m -113 -114 d s 459 209 m -1 -2 d s 458 207 m -113 -113 d s 444 209 m -114 -115 d s 444
 224 m -13 -14 d s 427 207 m -112 -113 d s 432 227 m -1 -2 d s 417 212 m -117 -118 d s 417 227 m -132 -133 d s 414 239 m -144 -145 d s 391 231 m -136 -137 d s 390 245 m -151 -151 d s 376 246 m -152 -152 d s 376 261 m -167 -167 d s 372 272 m -174 -174
 d s 197 96 m -3 -2 d s 362 278 m -150 -152 d s 204 118 m -6 -5 d s 179 94 m s 362 293 m -150 -151 d s 164 94 m s 352 298 m -3 -3 d s 348 294 m -136 -137 d s 149 94 m s 335 296 m -109 -110 d s 220 180 m -8 -8 d s 332 308 m -106 -107 d s 321 313 m -95
 -97 d s 321 328 m -95 -97 d s 318 340 m -92 -93 d s 308 344 m -82 -82 d s 308 360 m -14 -14 d s 292 344 m -66 -67 d s 297 364 m -3 -3 d s 280 347 m -54 -55 d s 280 362 m -54 -55 d s 280 378 m -54 -56 d s 280 393 m -41 -42 d s 228 340 m -2 -2 d s 277
 405 m -38 -38 d s 253 396 m -14 -14 d s 253 411 m -14 -14 d s 253 426 m -14 -14 d s 253 441 m -14 -14 d s 253 456 m -14 -14 d s 253 471 m -14 -13 d s 250 484 m -11 -11 d s 6 lw 143 94 m 42 X 2 Y 13 X 22 Y 14 X 62 Y 14 X 160 Y 13 X 144 Y 14 X -89 Y
 14 X 10 Y 13 X -61 Y 14 X 20 Y 14 X -24 Y 13 X -32 Y 14 X -14 Y 14 X 4 Y 13 X -26 Y 14 X -26 Y 14 X -15 Y 13 X 8 Y 14 X -32 Y 14 X 20 Y 13 X -20 Y 14 X 2 Y 14 X -1 Y 13 X -15 Y 14 X -13 Y 14 X 9 Y 13 X -2 Y 14 X -16 Y 14 X -13 Y 13 X 4 Y 14 X -9 Y
 14 X -24 Y 14 X 5 Y 13 X -16 Y 28 X -8 Y 13 X -15 Y 14 X -1 Y 14 X s black 3 lw 143 94 m 548 X s 169 107 m -13 Y s 187 100 m -6 Y s 206 100 m -6 Y s 224 100 m -6 Y s 242 100 m -6 Y s 261 107 m -13 Y s 279 100 m -6 Y s 297 100 m -6 Y s 316 100 m -6 Y
 s 334 100 m -6 Y s 353 107 m -13 Y s 371 100 m -6 Y s 389 100 m -6 Y s 408 100 m -6 Y s 426 100 m -6 Y s 445 107 m -13 Y s 463 100 m -6 Y s 481 100 m -6 Y s 500 100 m -6 Y s 518 100 m -6 Y s 536 107 m -13 Y s 555 100 m -6 Y s 573 100 m -6 Y s 592
 100 m -6 Y s 610 100 m -6 Y s 628 107 m -13 Y s 169 107 m -13 Y s 150 100 m -6 Y s 628 107 m -13 Y s 647 100 m -6 Y s 665 100 m -6 Y s 684 100 m -6 Y s 143 523 m 548 X s 169 509 m 14 Y s 187 516 m 7 Y s 206 516 m 7 Y s 224 516 m 7 Y s 242 516 m 7 Y
 s 261 509 m 14 Y s 279 516 m 7 Y s 297 516 m 7 Y s 316 516 m 7 Y s 334 516 m 7 Y s 353 509 m 14 Y s 371 516 m 7 Y s 389 516 m 7 Y s 408 516 m 7 Y s 426 516 m 7 Y s 445 509 m 14 Y s 463 516 m 7 Y s 481 516 m 7 Y s 500 516 m 7 Y s 518 516 m 7 Y s 536
 509 m 14 Y s 555 516 m 7 Y s 573 516 m 7 Y s 592 516 m 7 Y s 610 516 m 7 Y s 628 509 m 14 Y s 169 509 m 14 Y s 150 516 m 7 Y s 628 509 m 14 Y s 647 516 m 7 Y s 665 516 m 7 Y s 684 516 m 7 Y s 143 94 m 429 Y s 160 94 m -17 X s 152 108 m -9 X s 152
 122 m -9 X s 152 136 m -9 X s 152 150 m -9 X s 160 164 m -17 X s 152 178 m -9 X s 152 192 m -9 X s 152 206 m -9 X s 152 220 m -9 X s 160 235 m -17 X s 152 249 m -9 X s 152 263 m -9 X s 152 277 m -9 X s 152 291 m -9 X s 160 305 m -17 X s 152 319 m -9
 X s 152 333 m -9 X s 152 347 m -9 X s 152 362 m -9 X s 160 376 m -17 X s 152 390 m -9 X s 152 404 m -9 X s 152 418 m -9 X s 152 432 m -9 X s 160 446 m -17 X s 152 460 m -9 X s 152 474 m -9 X s 152 488 m -9 X s 152 503 m -9 X s 160 517 m -17 X s 160
 517 m -17 X s 691 94 m 429 Y s 674 94 m 17 X s 683 108 m 8 X s 683 122 m 8 X s 683 136 m 8 X s 683 150 m 8 X s 674 164 m 17 X s 683 178 m 8 X s 683 192 m 8 X s 683 206 m 8 X s 683 220 m 8 X s 674 235 m 17 X s 683 249 m 8 X s 683 263 m 8 X s 683 277
 m 8 X s 683 291 m 8 X s 674 305 m 17 X s 683 319 m 8 X s 683 333 m 8 X s 683 347 m 8 X s 683 362 m 8 X s 674 376 m 17 X s 683 390 m 8 X s 683 404 m 8 X s 683 418 m 8 X s 683 432 m 8 X s 674 446 m 17 X s 683 460 m 8 X s 683 474 m 8 X s 683 488 m 8 X
 s 683 503 m 8 X s 674 517 m 17 X s 674 517 m 17 X s
 gsave  710 567 23 12 C 719.017 91.2634 t 90 r /Helvetica-Bold findfont 19.9602 sf 0 0 m (U/O\255flow \(S,B\): \(0.0, 0.0\)% / \(0.0, 0.0\)%) show NC gr  0.490196 0.545098 0.615686 c 0.364706 0.419608 0.490196 c 366 37 30 539 bf 0.490196 0.545098
 0.615686 c 30 539 m 366 X s 396 539 m 37 Y s 396 576 m -366 X s 30 576 m -37 Y s 1 1 1 c black 1 1 1 c
 gsave  710 567 23 12 C 34.101 551.299 t 0 r /Helvetica-Bold findfont 28.5146 sf 0 0 m (Input variable: yybb.HT_l1) show NC gr  0.490196 0.545098 0.615686 c 0.941176 0.941176 0.941176 c 710 567 779 12 bf black 1 1 0.992157 c 548 429 899 94 bf black
 548 429 899 94 bl 0 0 0.933333 c 6 lw 0.49 0.6 0.82 c black 3 lw 0.49 0.6 0.82 c 899 115 m 28 X 3 Y 13 X 13 Y 14 X 44 Y 14 X 125 Y 13 X 127 Y 14 X 58 Y 14 X -112 Y 13 X -23 Y 14 X -8 Y 14 X -13 Y 14 X -16 Y 13 X -21 Y 14 X -9 Y 14 X 19 Y 13 X -20 Y
 14 X 9 Y 14 X -35 Y 13 X 12 Y 14 X -13 Y 14 X 1 Y 13 X 5 Y 14 X -1 Y 14 X -35 Y 13 X 26 Y 14 X -23 Y 14 X 7 Y 13 X -13 Y 14 X 19 Y 14 X -19 Y 13 X -3 Y 14 X -15 Y 14 X -15 Y 13 X -19 Y 14 X -14 Y 14 X -28 Y 13 X -7 Y 14 X -7 Y 14 X 1 Y 14 X f 6 lw 0
 0 0.933333 c 0.49 0.6 0.82 c 0 0 0.933333 c 899 115 m 28 X 3 Y 13 X 13 Y 14 X 44 Y 14 X 125 Y 13 X 127 Y 14 X 58 Y 14 X -112 Y 13 X -23 Y 14 X -8 Y 14 X -13 Y 14 X -16 Y 13 X -21 Y 14 X -9 Y 14 X 19 Y 13 X -20 Y 14 X 9 Y 14 X -35 Y 13 X 12 Y 14 X
 -13 Y 14 X 1 Y 13 X 5 Y 14 X -1 Y 14 X -35 Y 13 X 26 Y 14 X -23 Y 14 X 7 Y 13 X -13 Y 14 X 19 Y 14 X -19 Y 13 X -3 Y 14 X -15 Y 14 X -15 Y 13 X -19 Y 14 X -14 Y 14 X -28 Y 13 X -7 Y 14 X -7 Y 14 X 1 Y 14 X -21 Y s black 3 lw 899 94 m 548 X s 923 107
 m -13 Y s 942 100 m -6 Y s 960 100 m -6 Y s 978 100 m -6 Y s 997 100 m -6 Y s 1015 107 m -13 Y s 1034 100 m -6 Y s 1052 100 m -6 Y s 1071 100 m -6 Y s 1089 100 m -6 Y s 1107 107 m -13 Y s 1126 100 m -6 Y s 1144 100 m -6 Y s 1163 100 m -6 Y s 1181
 100 m -6 Y s 1200 107 m -13 Y s 1218 100 m -6 Y s 1236 100 m -6 Y s 1255 100 m -6 Y s 1273 100 m -6 Y s 1292 107 m -13 Y s 1310 100 m -6 Y s 1329 100 m -6 Y s 1347 100 m -6 Y s 1365 100 m -6 Y s 1384 107 m -13 Y s 923 107 m -13 Y s 905 100 m -6 Y s
 1384 107 m -13 Y s 1402 100 m -6 Y s 1421 100 m -6 Y s 1439 100 m -6 Y s
 gsave  710 567 779 12 C 909.36 65.3603 t 0 r /Helvetica findfont 25.6631 sf 0 0 m (0.2) show NC gr 
 gsave  710 567 779 12 C 895.151 65.3603 t 0 r /Symbol findfont 25.6631 sf 0 0 m (-) show NC gr 
 gsave  710 567 779 12 C 1003.14 65.3603 t 0 r /Helvetica findfont 25.6631 sf 0 0 m (0.1) show NC gr 
 gsave  710 567 779 12 C 991.771 65.3603 t 0 r /Symbol findfont 25.6631 sf 0 0 m (-) show NC gr 
 gsave  710 567 779 12 C 1096.92 65.3603 t 0 r /Helvetica findfont 25.6631 sf 0 0 m (0) show NC gr 
 gsave  710 567 779 12 C 1182.17 65.3603 t 0 r /Helvetica findfont 25.6631 sf 0 0 m (0.1) show NC gr 
 gsave  710 567 779 12 C 1273.1 65.3603 t 0 r /Helvetica findfont 25.6631 sf 0 0 m (0.2) show NC gr 
 gsave  710 567 779 12 C 1364.04 65.3603 t 0 r /Helvetica findfont 25.6631 sf 0 0 m (0.3) show NC gr 
 gsave  710 567 779 12 C 1307.21 25.5758 t 0 r /Helvetica findfont 28.5146 sf 0 0 m (yybb.HP_l1) show NC gr  899 523 m 548 X s 923 509 m 14 Y s 942 516 m 7 Y s 960 516 m 7 Y s 978 516 m 7 Y s 997 516 m 7 Y s 1015 509 m 14 Y s 1034 516 m 7 Y s 1052
 516 m 7 Y s 1071 516 m 7 Y s 1089 516 m 7 Y s 1107 509 m 14 Y s 1126 516 m 7 Y s 1144 516 m 7 Y s 1163 516 m 7 Y s 1181 516 m 7 Y s 1200 509 m 14 Y s 1218 516 m 7 Y s 1236 516 m 7 Y s 1255 516 m 7 Y s 1273 516 m 7 Y s 1292 509 m 14 Y s 1310 516 m 7
 Y s 1329 516 m 7 Y s 1347 516 m 7 Y s 1365 516 m 7 Y s 1384 509 m 14 Y s 923 509 m 14 Y s 905 516 m 7 Y s 1384 509 m 14 Y s 1402 516 m 7 Y s 1421 516 m 7 Y s 1439 516 m 7 Y s 899 94 m 429 Y s 915 115 m -16 X s 907 129 m -8 X s 907 144 m -8 X s 907
 159 m -8 X s 907 174 m -8 X s 915 189 m -16 X s 907 204 m -8 X s 907 219 m -8 X s 907 234 m -8 X s 907 249 m -8 X s 915 264 m -16 X s 907 279 m -8 X s 907 294 m -8 X s 907 309 m -8 X s 907 324 m -8 X s 915 339 m -16 X s 907 354 m -8 X s 907 369 m -8
 X s 907 384 m -8 X s 907 399 m -8 X s 915 413 m -16 X s 907 428 m -8 X s 907 443 m -8 X s 907 458 m -8 X s 907 473 m -8 X s 915 488 m -16 X s 915 115 m -16 X s 907 100 m -8 X s 915 488 m -16 X s 907 503 m -8 X s 907 518 m -8 X s
 gsave  710 567 779 12 C 875.259 105.145 t 0 r /Helvetica findfont 25.6631 sf 0 0 m (0) show NC gr 
 gsave  710 567 779 12 C 878.101 179.03 t 0 r /Helvetica findfont 25.6631 sf 0 0 m (1) show NC gr 
 gsave  710 567 779 12 C 875.259 252.916 t 0 r /Helvetica findfont 25.6631 sf 0 0 m (2) show NC gr 
 gsave  710 567 779 12 C 875.259 329.643 t 0 r /Helvetica findfont 25.6631 sf 0 0 m (3) show NC gr 
 gsave  710 567 779 12 C 875.259 403.529 t 0 r /Helvetica findfont 25.6631 sf 0 0 m (4) show NC gr 
 gsave  710 567 779 12 C 875.259 477.414 t 0 r /Helvetica findfont 25.6631 sf 0 0 m (5) show NC gr 
 gsave  710 567 779 12 C 801.374 431.946 t 90 r /Helvetica findfont 28.5146 sf 0 0 m (0.0148 ) show NC gr 
 gsave  710 567 779 12 C 787.165 429.104 t 90 r /Helvetica findfont 19.9602 sf 0 0 m ( ) show NC gr 
 gsave  710 567 779 12 C 801.374 417.737 t 90 r /Helvetica findfont 28.5146 sf 0 0 m (/) show NC gr 
 gsave  710 567 779 12 C 809.899 414.896 t 90 r /Helvetica findfont 19.9602 sf 0 0 m ( ) show NC gr 
 gsave  710 567 779 12 C 801.374 309.751 t 90 r /Helvetica findfont 28.5146 sf 0 0 m (\(1/N\) dN) show NC gr  1447 94 m 429 Y s 1430 115 m 17 X s 1438 129 m 9 X s 1438 144 m 9 X s 1438 159 m 9 X s 1438 174 m 9 X s 1430 189 m 17 X s 1438 204 m 9 X s
 1438 219 m 9 X s 1438 234 m 9 X s 1438 249 m 9 X s 1430 264 m 17 X s 1438 279 m 9 X s 1438 294 m 9 X s 1438 309 m 9 X s 1438 324 m 9 X s 1430 339 m 17 X s 1438 354 m 9 X s 1438 369 m 9 X s 1438 384 m 9 X s 1438 399 m 9 X s 1430 413 m 17 X s 1438 428
 m 9 X s 1438 443 m 9 X s 1438 458 m 9 X s 1438 473 m 9 X s 1430 488 m 17 X s 1430 115 m 17 X s 1438 100 m 9 X s 1430 488 m 17 X s 1438 503 m 9 X s 1438 518 m 9 X s 0.490196 0.545098 0.615686 c 0.364706 0.419608 0.490196 c 366 37 786 539 bf 0.490196
 0.545098 0.615686 c 786 539 m 366 X s 1152 539 m 37 Y s 1152 576 m -366 X s 786 576 m -37 Y s 1 1 1 c black 1 1 1 c
 gsave  710 567 779 12 C 790.007 551.299 t 0 r /Helvetica-Bold findfont 28.5146 sf 0 0 m (Input variable: yybb.HP_l1) show NC gr  1 0 0 c 6 lw black 3 lw 1 0 0 c 1438 115 m s 1425 117 m -2 -2 d s 1416 123 m -8 -8 d s 1405 127 m -12 -12 d s 1405 142 m
 -27 -27 d s 1392 144 m -29 -29 d s 1386 153 m -38 -38 d s 1375 157 m -42 -42 d s 1364 162 m -46 -47 d s 1364 177 m -61 -62 d s 1358 185 m -70 -70 d s 1351 193 m -79 -78 d s 1344 202 m -87 -87 d s 1337 210 m -95 -95 d s 1337 225 m -110 -110 d s 1324
 227 m -1 X s 1322 225 m -110 -110 d s 1310 228 m -113 -113 d s 1310 243 m -128 -128 d s 1299 248 m -3 -3 d s 1288 236 m -121 -121 d s 1282 246 m -13 -14 d s 1261 225 m -109 -110 d s 1282 261 m -13 -14 d s 1255 234 m -118 -119 d s 1272 266 m -3 -3 d
 s 1253 246 m -131 -131 d s 1241 250 m -134 -135 d s 1241 265 m -13 -13 d s 1222 246 m -130 -131 d s 1239 278 m -11 -11 d s 1207 246 m -131 -131 d s 1192 246 m -131 -131 d s 1187 256 m -141 -141 d s 1187 271 m -156 -156 d s 1178 278 m -5 -6 d s 1163
 262 m -147 -147 d s 1159 274 m -158 -159 d s 1159 289 m -173 -174 d s 1159 304 m -13 -14 d s 1142 287 m -171 -172 d s 1147 307 m -1 -1 d s 1128 287 m -10 -9 d s 1116 275 m -160 -160 d s 1105 279 m -151 -151 d s 945 119 m -4 -4 d s 1105 295 m -137
 -138 d s 928 116 m -1 X s 926 115 m s 1105 310 m -28 -28 d s 1075 280 m -107 -108 d s 911 115 m s 1091 312 m -14 -15 d s 1064 284 m -96 -97 d s 1091 326 m -14 -13 d s 1064 299 m -96 -97 d s 1088 338 m -11 -10 d s 1064 314 m -83 -83 d s 974 224 m -6
 -6 d s 1058 324 m -77 -77 d s 1050 331 m -69 -69 d s 1050 346 m -69 -69 d s 1050 361 m -69 -69 d s 1042 368 m -61 -61 d s 1036 378 m -55 -56 d s 1027 383 m -46 -45 d s 1016 388 m -35 -35 d s 1009 396 m -14 -14 d s 993 379 m -12 -11 d s 1009 411 m
 -14 -14 d s 1009 426 m -14 -14 d s 1003 435 m -8 -8 d s 6 lw 899 115 m 28 X 1 Y 13 X 3 Y 14 X 23 Y 14 X 82 Y 13 X 155 Y 14 X 56 Y 14 X -47 Y 13 X -5 Y 14 X -15 Y 14 X -44 Y 14 X -44 Y 13 X 58 Y 14 X -26 Y 14 X -37 Y 13 X 12 Y 28 X 20 Y 13 X -45 Y 14
 X 16 Y 14 X -32 Y 41 X 32 Y 13 X -32 Y 14 X -21 Y 14 X 41 Y 13 X -30 Y 14 X 12 Y 14 X -23 Y 13 X 2 Y 14 X -25 Y 14 X -17 Y 13 X -28 Y 14 X -4 Y 14 X -11 Y 13 X -19 Y 14 X -6 Y 14 X -2 Y 14 X -21 Y s black 3 lw 899 94 m 548 X s 923 107 m -13 Y s 942
 100 m -6 Y s 960 100 m -6 Y s 978 100 m -6 Y s 997 100 m -6 Y s 1015 107 m -13 Y s 1034 100 m -6 Y s 1052 100 m -6 Y s 1071 100 m -6 Y s 1089 100 m -6 Y s 1107 107 m -13 Y s 1126 100 m -6 Y s 1144 100 m -6 Y s 1163 100 m -6 Y s 1181 100 m -6 Y s
 1200 107 m -13 Y s 1218 100 m -6 Y s 1236 100 m -6 Y s 1255 100 m -6 Y s 1273 100 m -6 Y s 1292 107 m -13 Y s 1310 100 m -6 Y s 1329 100 m -6 Y s 1347 100 m -6 Y s 1365 100 m -6 Y s 1384 107 m -13 Y s 923 107 m -13 Y s 905 100 m -6 Y s 1384 107 m
 -13 Y s 1402 100 m -6 Y s 1421 100 m -6 Y s 1439 100 m -6 Y s 899 523 m 548 X s 923 509 m 14 Y s 942 516 m 7 Y s 960 516 m 7 Y s 978 516 m 7 Y s 997 516 m 7 Y s 1015 509 m 14 Y s 1034 516 m 7 Y s 1052 516 m 7 Y s 1071 516 m 7 Y s 1089 516 m 7 Y s
 1107 509 m 14 Y s 1126 516 m 7 Y s 1144 516 m 7 Y s 1163 516 m 7 Y s 1181 516 m 7 Y s 1200 509 m 14 Y s 1218 516 m 7 Y s 1236 516 m 7 Y s 1255 516 m 7 Y s 1273 516 m 7 Y s 1292 509 m 14 Y s 1310 516 m 7 Y s 1329 516 m 7 Y s 1347 516 m 7 Y s 1365 516
 m 7 Y s 1384 509 m 14 Y s 923 509 m 14 Y s 905 516 m 7 Y s 1384 509 m 14 Y s 1402 516 m 7 Y s 1421 516 m 7 Y s 1439 516 m 7 Y s 899 94 m 429 Y s 915 115 m -16 X s 907 129 m -8 X s 907 144 m -8 X s 907 159 m -8 X s 907 174 m -8 X s 915 189 m -16 X s
 907 204 m -8 X s 907 219 m -8 X s 907 234 m -8 X s 907 249 m -8 X s 915 264 m -16 X s 907 279 m -8 X s 907 294 m -8 X s 907 309 m -8 X s 907 324 m -8 X s 915 339 m -16 X s 907 354 m -8 X s 907 369 m -8 X s 907 384 m -8 X s 907 399 m -8 X s 915 413 m
 -16 X s 907 428 m -8 X s 907 443 m -8 X s 907 458 m -8 X s 907 473 m -8 X s 915 488 m -16 X s 915 115 m -16 X s 907 100 m -8 X s 915 488 m -16 X s 907 503 m -8 X s 907 518 m -8 X s 1447 94 m 429 Y s 1430 115 m 17 X s 1438 129 m 9 X s 1438 144 m 9 X
 s 1438 159 m 9 X s 1438 174 m 9 X s 1430 189 m 17 X s 1438 204 m 9 X s 1438 219 m 9 X s 1438 234 m 9 X s 1438 249 m 9 X s 1430 264 m 17 X s 1438 279 m 9 X s 1438 294 m 9 X s 1438 309 m 9 X s 1438 324 m 9 X s 1430 339 m 17 X s 1438 354 m 9 X s 1438
 369 m 9 X s 1438 384 m 9 X s 1438 399 m 9 X s 1430 413 m 17 X s 1438 428 m 9 X s 1438 443 m 9 X s 1438 458 m 9 X s 1438 473 m 9 X s 1430 488 m 17 X s 1430 115 m 17 X s 1438 100 m 9 X s 1430 488 m 17 X s 1438 503 m 9 X s 1438 518 m 9 X s
 gsave  710 567 779 12 C 1474.92 91.2634 t 90 r /Helvetica-Bold findfont 19.9602 sf 0 0 m (U/O\255flow \(S,B\): \(0.0, 0.0\)% / \(0.0, 0.0\)%) show NC gr  0.490196 0.545098 0.615686 c 0.364706 0.419608 0.490196 c 366 37 786 539 bf 0.490196 0.545098
 0.615686 c 786 539 m 366 X s 1152 539 m 37 Y s 1152 576 m -366 X s 786 576 m -37 Y s 1 1 1 c black 1 1 1 c
 gsave  710 567 779 12 C 790.007 551.299 t 0 r /Helvetica-Bold findfont 28.5146 sf 0 0 m (Input variable: yybb.HP_l1) show NC gr  0.490196 0.545098 0.615686 c 0.941176 0.941176 0.941176 c 711 567 1534 12 bf black 1 1 0.992157 c 547 429 1655 94 bf
 black 547 429 1655 94 bl 0 0 0.933333 c 6 lw 0.49 0.6 0.82 c black 3 lw 0.49 0.6 0.82 c 1655 114 m 14 X 2 Y 14 X 4 Y 13 X 16 Y 14 X 24 Y 14 X 57 Y 13 X 38 Y 14 X 43 Y 14 X 22 Y 13 X 7 Y 14 X 51 Y 14 X 13 Y 13 X 16 Y 14 X -16 Y 14 X -10 Y 13 X 22 Y
 14 X -2 Y 14 X -7 Y 13 X 4 Y 14 X -26 Y 28 X -37 Y 13 X 2 Y 14 X -51 Y 14 X -21 Y 13 X 23 Y 14 X -14 Y 14 X 3 Y 13 X -44 Y 14 X -39 Y 14 X 11 Y 13 X -32 Y 14 X -27 Y 14 X -14 Y 13 X -11 Y 14 X -3 Y 14 X -2 Y 13 X -2 Y 41 X f 6 lw 0 0 0.933333 c 0.49
 0.6 0.82 c 0 0 0.933333 c 1655 114 m 14 X 2 Y 14 X 4 Y 13 X 16 Y 14 X 24 Y 14 X 57 Y 13 X 38 Y 14 X 43 Y 14 X 22 Y 13 X 7 Y 14 X 51 Y 14 X 13 Y 13 X 16 Y 14 X -16 Y 14 X -10 Y 13 X 22 Y 14 X -2 Y 14 X -7 Y 13 X 4 Y 14 X -26 Y 28 X -37 Y 13 X 2 Y 14
 X -51 Y 14 X -21 Y 13 X 23 Y 14 X -14 Y 14 X 3 Y 13 X -44 Y 14 X -39 Y 14 X 11 Y 13 X -32 Y 14 X -27 Y 14 X -14 Y 13 X -11 Y 14 X -3 Y 14 X -2 Y 13 X -2 Y 41 X s black 3 lw 1655 94 m 547 X s 1674 107 m -13 Y s 1697 100 m -6 Y s 1721 100 m -6 Y s
 1744 100 m -6 Y s 1767 107 m -13 Y s 1791 100 m -6 Y s 1814 100 m -6 Y s 1837 100 m -6 Y s 1861 107 m -13 Y s 1884 100 m -6 Y s 1907 100 m -6 Y s 1931 100 m -6 Y s 1954 107 m -13 Y s 1977 100 m -6 Y s 2001 100 m -6 Y s 2024 100 m -6 Y s 2047 107 m
 -13 Y s 2071 100 m -6 Y s 2094 100 m -6 Y s 2117 100 m -6 Y s 2141 107 m -13 Y s 1674 107 m -13 Y s 2141 107 m -13 Y s 2164 100 m -6 Y s 2188 100 m -6 Y s
 gsave  711 567 1534 12 C 1662.42 65.3603 t 0 r /Helvetica findfont 25.6631 sf 0 0 m (0.4) show NC gr 
 gsave  711 567 1534 12 C 1648.21 65.3603 t 0 r /Symbol findfont 25.6631 sf 0 0 m (-) show NC gr 
 gsave  711 567 1534 12 C 1753.36 65.3603 t 0 r /Helvetica findfont 25.6631 sf 0 0 m (0.2) show NC gr 
 gsave  711 567 1534 12 C 1739.15 65.3603 t 0 r /Symbol findfont 25.6631 sf 0 0 m (-) show NC gr 
 gsave  711 567 1534 12 C 1849.98 65.3603 t 0 r /Helvetica findfont 25.6631 sf 0 0 m (0) show NC gr 
 gsave  711 567 1534 12 C 1935.23 65.3603 t 0 r /Helvetica findfont 25.6631 sf 0 0 m (0.2) show NC gr 
 gsave  711 567 1534 12 C 2029.01 65.3603 t 0 r /Helvetica findfont 25.6631 sf 0 0 m (0.4) show NC gr 
 gsave  711 567 1534 12 C 2122.79 65.3603 t 0 r /Helvetica findfont 25.6631 sf 0 0 m (0.6) show NC gr 
 gsave  711 567 1534 12 C 2063.11 25.5758 t 0 r /Helvetica findfont 28.5146 sf 0 0 m (yybb.HY_l1) show NC gr  1655 523 m 547 X s 1674 509 m 14 Y s 1697 516 m 7 Y s 1721 516 m 7 Y s 1744 516 m 7 Y s 1767 509 m 14 Y s 1791 516 m 7 Y s 1814 516 m 7 Y s
 1837 516 m 7 Y s 1861 509 m 14 Y s 1884 516 m 7 Y s 1907 516 m 7 Y s 1931 516 m 7 Y s 1954 509 m 14 Y s 1977 516 m 7 Y s 2001 516 m 7 Y s 2024 516 m 7 Y s 2047 509 m 14 Y s 2071 516 m 7 Y s 2094 516 m 7 Y s 2117 516 m 7 Y s 2141 509 m 14 Y s 1674
 509 m 14 Y s 2141 509 m 14 Y s 2164 516 m 7 Y s 2188 516 m 7 Y s 1655 94 m 429 Y s 1671 114 m -16 X s 1663 130 m -8 X s 1663 147 m -8 X s 1663 163 m -8 X s 1663 180 m -8 X s 1671 196 m -16 X s 1663 213 m -8 X s 1663 229 m -8 X s 1663 246 m -8 X s
 1663 262 m -8 X s 1671 279 m -16 X s 1663 295 m -8 X s 1663 312 m -8 X s 1663 328 m -8 X s 1663 345 m -8 X s 1671 361 m -16 X s 1663 378 m -8 X s 1663 394 m -8 X s 1663 411 m -8 X s 1663 427 m -8 X s 1671 444 m -16 X s 1671 114 m -16 X s 1663 97 m
 -8 X s 1671 444 m -16 X s 1663 460 m -8 X s 1663 477 m -8 X s 1663 493 m -8 X s 1663 510 m -8 X s
 gsave  711 567 1534 12 C 1631.16 105.145 t 0 r /Helvetica findfont 25.6631 sf 0 0 m (0) show NC gr 
 gsave  711 567 1534 12 C 1611.27 187.556 t 0 r /Helvetica findfont 25.6631 sf 0 0 m (0.5) show NC gr 
 gsave  711 567 1534 12 C 1634.01 269.966 t 0 r /Helvetica findfont 25.6631 sf 0 0 m (1) show NC gr 
 gsave  711 567 1534 12 C 1611.27 352.377 t 0 r /Helvetica findfont 25.6631 sf 0 0 m (1.5) show NC gr 
 gsave  711 567 1534 12 C 1631.16 434.788 t 0 r /Helvetica findfont 25.6631 sf 0 0 m (2) show NC gr 
 gsave  711 567 1534 12 C 1557.28 431.946 t 90 r /Helvetica findfont 28.5146 sf 0 0 m (0.0293 ) show NC gr 
 gsave  711 567 1534 12 C 1543.07 429.104 t 90 r /Helvetica findfont 19.9602 sf 0 0 m ( ) show NC gr 
 gsave  711 567 1534 12 C 1557.28 417.737 t 90 r /Helvetica findfont 28.5146 sf 0 0 m (/) show NC gr 
 gsave  711 567 1534 12 C 1565.8 414.896 t 90 r /Helvetica findfont 19.9602 sf 0 0 m ( ) show NC gr 
 gsave  711 567 1534 12 C 1557.28 309.751 t 90 r /Helvetica findfont 28.5146 sf 0 0 m (\(1/N\) dN) show NC gr  2202 94 m 429 Y s 2186 114 m 16 X s 2194 130 m 8 X s 2194 147 m 8 X s 2194 163 m 8 X s 2194 180 m 8 X s 2186 196 m 16 X s 2194 213 m 8 X s
 2194 229 m 8 X s 2194 246 m 8 X s 2194 262 m 8 X s 2186 279 m 16 X s 2194 295 m 8 X s 2194 312 m 8 X s 2194 328 m 8 X s 2194 345 m 8 X s 2186 361 m 16 X s 2194 378 m 8 X s 2194 394 m 8 X s 2194 411 m 8 X s 2194 427 m 8 X s 2186 444 m 16 X s 2186 114
 m 16 X s 2194 97 m 8 X s 2186 444 m 16 X s 2194 460 m 8 X s 2194 477 m 8 X s 2194 493 m 8 X s 2194 510 m 8 X s 0.490196 0.545098 0.615686 c 0.364706 0.419608 0.490196 c 366 37 1542 539 bf 0.490196 0.545098 0.615686 c 1542 539 m 366 X s 1908 539 m 37
 Y s 1908 576 m -366 X s 1542 576 m -37 Y s 1 1 1 c black 1 1 1 c
 gsave  711 567 1534 12 C 1545.91 551.299 t 0 r /Helvetica-Bold findfont 28.5146 sf 0 0 m (Input variable: yybb.HY_l1) show NC gr  1 0 0 c 6 lw black 3 lw 1 0 0 c 2194 114 m s 2179 114 m s 2164 114 m -1 X s 2149 115 m -1 -1 d s 2135 116 m -2 -2 d s
 2131 127 m -13 -13 d s 2118 129 m -15 -15 d s 2107 133 m -19 -19 d s 2107 148 m -34 -34 d s 2107 163 m -49 -49 d s 2093 164 m -50 -50 d s 2086 173 m -58 -59 d s 2079 181 m -66 -67 d s 2068 184 m -70 -70 d s 2066 198 m -83 -84 d s 2066 213 m -99 -99
 d s 2066 228 m -114 -114 d s 2064 241 m -127 -127 d s 2045 237 m -123 -123 d s 2038 246 m -131 -132 d s 2025 247 m -133 -133 d s 2020 258 m -143 -144 d s 2011 264 m -149 -150 d s 2008 276 m -161 -162 d s 1997 281 m -165 -167 d s 1997 296 m -180 -182
 d s 1995 308 m -193 -194 d s 1984 312 m -197 -198 d s 1984 328 m -212 -214 d s 1970 329 m -214 -215 d s 1970 344 m -229 -230 d s 1956 346 m -230 -232 d s 1956 361 m -245 -247 d s 1947 366 m -223 -224 d s 1719 137 m -9 -9 d s 1700 118 m -4 -4 d s
 1943 377 m -206 -206 d s 1692 125 m -9 -9 d s 1681 114 m s 1943 392 m -178 -179 d s 1764 212 m -13 -12 d s 1748 197 m -11 -11 d s 1666 114 m s 1943 408 m -178 -179 d s 1935 415 m -157 -158 d s 1772 252 m -7 -8 d s 1929 424 m -151 -151 d s 1920 430 m
 -114 -115 d s 1796 306 m -4 -4 d s 1782 291 m -4 -3 d s 1913 439 m -94 -95 d s 1812 337 m -6 -6 d s 1901 442 m -82 -82 d s 1901 457 m -41 -41 d s 1854 409 m -7 -7 d s 1843 398 m -10 -9 d s 1826 382 m -7 -7 d s 1894 465 m -34 -34 d s 1888 474 m -14
 -14 d s 1868 454 m -8 -8 d s 1884 485 m -10 -10 d s 6 lw 1655 114 m 28 X 11 Y 13 X -7 Y 14 X 19 Y 14 X 19 Y 13 X 41 Y 14 X 15 Y 14 X 40 Y 13 X 39 Y 14 X 15 Y 14 X 31 Y 13 X 45 Y 14 X 16 Y 14 X 11 Y 13 X 45 Y 14 X 31 Y 14 X -20 Y 13 X -26 Y 14 X -9 Y
 14 X -15 Y 14 X -49 Y 13 X -22 Y 14 X -15 Y 14 X -21 Y 13 X -32 Y 14 X -18 Y 14 X -12 Y 13 X -9 Y 14 X 4 Y 14 X -57 Y 13 X -11 Y 14 X -9 Y 14 X -35 Y 13 X -2 Y 14 X -11 Y 14 X -1 Y 13 X -1 Y 41 X s black 3 lw 1655 94 m 547 X s 1674 107 m -13 Y s
 1697 100 m -6 Y s 1721 100 m -6 Y s 1744 100 m -6 Y s 1767 107 m -13 Y s 1791 100 m -6 Y s 1814 100 m -6 Y s 1837 100 m -6 Y s 1861 107 m -13 Y s 1884 100 m -6 Y s 1907 100 m -6 Y s 1931 100 m -6 Y s 1954 107 m -13 Y s 1977 100 m -6 Y s 2001 100 m
 -6 Y s 2024 100 m -6 Y s 2047 107 m -13 Y s 2071 100 m -6 Y s 2094 100 m -6 Y s 2117 100 m -6 Y s 2141 107 m -13 Y s 1674 107 m -13 Y s 2141 107 m -13 Y s 2164 100 m -6 Y s 2188 100 m -6 Y s 1655 523 m 547 X s 1674 509 m 14 Y s 1697 516 m 7 Y s 1721
 516 m 7 Y s 1744 516 m 7 Y s 1767 509 m 14 Y s 1791 516 m 7 Y s 1814 516 m 7 Y s 1837 516 m 7 Y s 1861 509 m 14 Y s 1884 516 m 7 Y s 1907 516 m 7 Y s 1931 516 m 7 Y s 1954 509 m 14 Y s 1977 516 m 7 Y s 2001 516 m 7 Y s 2024 516 m 7 Y s 2047 509 m 14
 Y s 2071 516 m 7 Y s 2094 516 m 7 Y s 2117 516 m 7 Y s 2141 509 m 14 Y s 1674 509 m 14 Y s 2141 509 m 14 Y s 2164 516 m 7 Y s 2188 516 m 7 Y s 1655 94 m 429 Y s 1671 114 m -16 X s 1663 130 m -8 X s 1663 147 m -8 X s 1663 163 m -8 X s 1663 180 m -8 X
 s 1671 196 m -16 X s 1663 213 m -8 X s 1663 229 m -8 X s 1663 246 m -8 X s 1663 262 m -8 X s 1671 279 m -16 X s 1663 295 m -8 X s 1663 312 m -8 X s 1663 328 m -8 X s 1663 345 m -8 X s 1671 361 m -16 X s 1663 378 m -8 X s 1663 394 m -8 X s 1663 411 m
 -8 X s 1663 427 m -8 X s 1671 444 m -16 X s 1671 114 m -16 X s 1663 97 m -8 X s 1671 444 m -16 X s 1663 460 m -8 X s 1663 477 m -8 X s 1663 493 m -8 X s 1663 510 m -8 X s 2202 94 m 429 Y s 2186 114 m 16 X s 2194 130 m 8 X s 2194 147 m 8 X s 2194 163
 m 8 X s 2194 180 m 8 X s 2186 196 m 16 X s 2194 213 m 8 X s 2194 229 m 8 X s 2194 246 m 8 X s 2194 262 m 8 X s 2186 279 m 16 X s 2194 295 m 8 X s 2194 312 m 8 X s 2194 328 m 8 X s 2194 345 m 8 X s 2186 361 m 16 X s 2194 378 m 8 X s 2194 394 m 8 X s
 2194 411 m 8 X s 2194 427 m 8 X s 2186 444 m 16 X s 2186 114 m 16 X s 2194 97 m 8 X s 2186 444 m 16 X s 2194 460 m 8 X s 2194 477 m 8 X s 2194 493 m 8 X s 2194 510 m 8 X s
 gsave  711 567 1534 12 C 2230.83 91.2634 t 90 r /Helvetica-Bold findfont 19.9602 sf 0 0 m (U/O\255flow \(S,B\): \(0.0, 0.0\)% / \(0.0, 0.0\)%) show NC gr  0.490196 0.545098 0.615686 c 0.364706 0.419608 0.490196 c 366 37 1542 539 bf 0.490196 0.545098
 0.615686 c 1542 539 m 366 X s 1908 539 m 37 Y s 1908 576 m -366 X s 1542 576 m -37 Y s 1 1 1 c black 1 1 1 c
 gsave  711 567 1534 12 C 1545.91 551.299 t 0 r /Helvetica-Bold findfont 28.5146 sf 0 0 m (Input variable: yybb.HY_l1) show NC gr 
 gr  gr showpage
end
%%EOF
