%!PS-Adobe-2.0 EPSF-2.0
%%BoundingBox:  0 0 567 296
%%Title: dataset_class_l1/plots/variables_id_c1.eps: Input variables (training sample)
%%Creator: ROOT Version 6.18/00
%%CreationDate: Sat Sep 14 11:52:53 2019
%%DocumentNeededResources: ProcSet (FontSetInit)
%%EndComments
%%BeginProlog
80 dict begin
/s {stroke} def /l {lineto} def /m {moveto} def /t {translate} def
/r {rotate} def /rl {roll}  def /R {repeat} def
/d {rlineto} def /rm {rmoveto} def /gr {grestore} def /f {eofill} def
/c {setrgbcolor} def /black {0 setgray} def /sd {setdash} def
/cl {closepath} def /sf {scalefont setfont} def /lw {setlinewidth} def
/box {m dup 0 exch d exch 0 d 0 exch neg d cl} def
/NC{systemdict begin initclip end}def/C{NC box clip newpath}def
/bl {box s} def /bf {gsave box gsave f grestore 1 lw [] 0 sd s grestore} def /Y { 0 exch d} def /X { 0 d} def 
/K {{pop pop 0 moveto} exch kshow} bind def
/ita {/ang 15 def gsave [1 0 ang dup sin exch cos div 1 0 0] concat} def 
/mp {newpath /y exch def /x exch def} def
/side {[w .77 mul w .23 mul] .385 w mul sd w 0 l currentpoint t -144 r} def
/mr {mp x y w2 0 360 arc} def /m24 {mr s} def /m20 {mr f} def
/mb {mp x y w2 add m w2 neg 0 d 0 w neg d w 0 d 0 w d cl} def
/mt {mp x y w2 add m w2 neg w neg d w 0 d cl} def
/w4 {w 4 div} def
/w6 {w 6 div} def
/w8 {w 8 div} def
/m21 {mb f} def /m25 {mb s} def /m22 {mt f} def /m26{mt s} def
/m23 {mp x y w2 sub m w2 w d w neg 0 d cl f} def
/m27 {mp x y w2 add m w3 neg w2 neg d w3 w2 neg d w3 w2 d cl s} def
/m28 {mp x w2 sub y w2 sub w3 add m w3 0 d  0 w3 neg d w3 0 d 0 w3 d w3 0 d  0 w3 d w3 neg 0 d 0 w3 d w3 neg 0 d 0 w3 neg d w3 neg 0 d cl s } def
/m29 {mp gsave x w2 sub y w2 add w3 sub m currentpoint t 4 {side} repeat cl fill gr} def
/m30 {mp gsave x w2 sub y w2 add w3 sub m currentpoint t 4 {side} repeat cl s gr} def
/m31 {mp x y w2 sub m 0 w d x w2 sub y m w 0 d x w2 sub y w2 add m w w neg d x w2 sub y w2 sub m w w d s} def
/m32 {mp x y w2 sub m w2 w d w neg 0 d cl s} def
/m33 {mp x y w2 add m w3 neg w2 neg d w3 w2 neg d w3 w2 d cl f} def
/m34 {mp x w2 sub y w2 sub w3 add m w3 0 d  0 w3 neg d w3 0 d 0 w3 d w3 0 d  0 w3 d w3 neg 0 d 0 w3 d w3 neg 0 d 0 w3 neg d w3 neg 0 d cl f } def
/m35 {mp x y w2 add m w2 neg w2 neg d w2 w2 neg d w2 w2 d w2 neg w2 d x y w2 sub m 0 w d x w2 sub y m w 0 d s} def
/m36 {mb x w2 sub y w2 add m w w neg d x w2 sub y w2 sub m w w d s} def
/m37 {mp x y m w4 neg w2 d w4 neg w2 neg d w2 0 d  w4 neg w2 neg d w2 0 d w4 neg w2 d w2 0 d w4 neg w2 d w4 neg w2 neg d cl s} def
/m38 {mp x w4 sub y w2 add m w4 neg w4 neg d 0 w2 neg d w4 w4 neg d w2 0 d w4 w4 d 0 w2 d w4 neg w4 d w2 neg 0 d x y w2 sub m 0 w d x w2 sub y m w 0 d cl s} def
/m39 {mp x y m w4 neg w2 d w4 neg w2 neg d w2 0 d  w4 neg w2 neg d w2 0 d w4 neg w2 d w2 0 d w4 neg w2 d w4 neg w2 neg d cl f} def
/m40 {mp x y m w4 w2 d w4 w4 neg d w2 neg w4 neg d w2 w4 neg d w4 neg w4 neg d w4 neg w2 d w4 neg w2 neg d w4 neg w4 d w2 w4 d w2 neg w4 d w4 w4 d w4 w2 neg d cl s} def
/m41 {mp x y m w4 w2 d w4 w4 neg d w2 neg w4 neg d w2 w4 neg d w4 neg w4 neg d w4 neg w2 d w4 neg w2 neg d w4 neg w4 d w2 w4 d w2 neg w4 d w4 w4 d w4 w2 neg d cl f} def
/m42 {mp x y w2 add m w8 neg w2 -3 4 div mul d w2 -3 4 div mul w8 neg d w2 3 4 div mul w8 neg d w8 w2 -3 4 div mul d w8 w2 3 4 div mul d w2 3 4 div mul w8 d w2 -3 4 div mul w8 d w8 neg w2 3 4 div mul d cl s} def
/m43 {mp x y w2 add m w8 neg w2 -3 4 div mul d w2 -3 4 div mul w8 neg d w2 3 4 div mul w8 neg d w8 w2 -3 4 div mul d w8 w2 3 4 div mul d w2 3 4 div mul w8 d w2 -3 4 div mul w8 d w8 neg w2 3 4 div mul d cl f} def
/m44 {mp x y m w6 neg w2 d w2 2 3 div mul 0 d w6 neg w2 neg d w2 w6 d 0 w2 -2 3 div mul d w2 neg w6 d w6 w2 neg d w2 -2 3 div mul 0 d w6 w2 d w2 neg w6 neg d 0 w2 2 3 div mul d w2 w6 neg d cl s} def
/m45 {mp x y m w6 neg w2 d w2 2 3 div mul 0 d w6 neg w2 neg d w2 w6 d 0 w2 -2 3 div mul d w2 neg w6 d w6 w2 neg d w2 -2 3 div mul 0 d w6 w2 d w2 neg w6 neg d 0 w2 2 3 div mul d w2 w6 neg d cl f} def
/m46 {mp x y w4 add m w4 neg w4 d w4 neg w4 neg d  w4 w4 neg d w4 neg w4 neg d w4 w4 neg d w4 w4 d w4 w4 neg d w4 w4 d w4 neg w4 d w4 w4 d w4 neg w4 d w4 neg w4 neg d cl s} def
/m47 {mp x y w4 add m w4 neg w4 d w4 neg w4 neg d w4 w4 neg d w4 neg w4 neg d  w4 w4 neg d w4 w4 d w4 w4 neg d w4 w4 d w4 neg w4 d w4 w4 d w4 neg w4 d w4 neg w4 neg d cl f} def
/m48 {mp x y w4 add m w4 neg w4 d w4 neg w4 neg d w4 w4 neg d  w4 neg w4 neg d w4 w4 neg d w4 w4 d w4 w4 neg d w4 w4 d w4 neg w4 d w4 w4 d w4 neg w4 d w4 neg w4 neg d  w4 w4 neg d w4 neg w4 neg d w4 neg w4 d w4 w4 d cl f} def
/m49 {mp x w2 sub w3 add y w2 sub w3 add m  0 w3 neg d w3 0 d 0 w3 d w3 0 d 0 w3 d w3 neg 0 d 0 w3 d w3 neg 0 d 0 w3 neg d w3 neg 0 d 0 w3 neg d w3 0 d 0 w3 d w3 0 d 0 w3 neg d w3 neg 0 d cl f } def
/m2 {mp x y w2 sub m 0 w d x w2 sub y m w 0 d s} def
/m5 {mp x w2 sub y w2 sub m w w d x w2 sub y w2 add m w w neg d s} def
%%IncludeResource: ProcSet (FontSetInit)
%%IncludeResource: font Times-Roman
%%IncludeResource: font Times-Italic
%%IncludeResource: font Times-Bold
%%IncludeResource: font Times-BoldItalic
%%IncludeResource: font Helvetica
%%IncludeResource: font Helvetica-Oblique
%%IncludeResource: font Helvetica-Bold
%%IncludeResource: font Helvetica-BoldOblique
%%IncludeResource: font Courier
%%IncludeResource: font Courier-Oblique
%%IncludeResource: font Courier-Bold
%%IncludeResource: font Courier-BoldOblique
%%IncludeResource: font Symbol
%%IncludeResource: font ZapfDingbats
/reEncode {exch findfont dup length dict begin {1 index /FID eq  {pop pop} {def} ifelse } forall /Encoding exch def currentdict end dup /FontName get exch definefont pop } def [/Times-Bold /Times-Italic /Times-BoldItalic /Helvetica /Helvetica-Oblique
 /Helvetica-Bold /Helvetica-BoldOblique /Courier /Courier-Oblique /Courier-Bold /Courier-BoldOblique /Times-Roman /AvantGarde-Book /AvantGarde-BookOblique /AvantGarde-Demi /AvantGarde-DemiOblique /Bookman-Demi /Bookman-DemiItalic /Bookman-Light
 /Bookman-LightItalic /Helvetica-Narrow /Helvetica-Narrow-Bold /Helvetica-Narrow-BoldOblique /Helvetica-Narrow-Oblique /NewCenturySchlbk-Roman /NewCenturySchlbk-Bold /NewCenturySchlbk-BoldItalic /NewCenturySchlbk-Italic /Palatino-Bold
 /Palatino-BoldItalic /Palatino-Italic /Palatino-Roman ] {ISOLatin1Encoding reEncode } forall
%%EndProlog
%%BeginSetup
%%EndSetup
newpath  gsave  .25 .25 scale  gsave  0 0 t 0.490196 0.545098 0.615686 c[  ] 0 sd 3 lw 0.941176 0.941176 0.941176 c 2268 1182 0 0 bf 0.490196 0.545098 0.615686 c 0.941176 0.941176 0.941176 c 710 567 23 603 bf black 1 1 0.992157 c 548 429 143 685 bf
 black 548 429 143 685 bl 0 0 0.933333 c 6 lw 0.49 0.6 0.82 c black 3 lw 0.49 0.6 0.82 c 143 705 m 55 X 4 Y 14 X 5 Y 14 X 1 Y 13 X 3 Y 14 X -6 Y 14 X 15 Y 13 X 10 Y 14 X 14 Y 14 X 30 Y 13 X 22 Y 14 X 47 Y 14 X 29 Y 13 X 49 Y 14 X 18 Y 14 X 42 Y 13 X
 31 Y 14 X -17 Y 14 X -97 Y 13 X -200 Y 247 X f 6 lw 0 0 0.933333 c 0.49 0.6 0.82 c 0 0 0.933333 c 143 705 m 55 X 4 Y 14 X 5 Y 14 X 1 Y 13 X 3 Y 14 X -6 Y 14 X 15 Y 13 X 10 Y 14 X 14 Y 14 X 30 Y 13 X 22 Y 14 X 47 Y 14 X 29 Y 13 X 49 Y 14 X 18 Y 14 X
 42 Y 13 X 31 Y 14 X -17 Y 14 X -97 Y 13 X -200 Y 247 X s black 3 lw 143 685 m 548 X s 200 698 m -13 Y s 213 691 m -6 Y s 225 691 m -6 Y s 237 691 m -6 Y s 249 691 m -6 Y s 262 698 m -13 Y s 274 691 m -6 Y s 286 691 m -6 Y s 298 691 m -6 Y s 311 691
 m -6 Y s 323 698 m -13 Y s 335 691 m -6 Y s 347 691 m -6 Y s 360 691 m -6 Y s 372 691 m -6 Y s 384 698 m -13 Y s 396 691 m -6 Y s 409 691 m -6 Y s 421 691 m -6 Y s 433 691 m -6 Y s 445 698 m -13 Y s 458 691 m -6 Y s 470 691 m -6 Y s 482 691 m -6 Y s
 494 691 m -6 Y s 507 698 m -13 Y s 519 691 m -6 Y s 531 691 m -6 Y s 543 691 m -6 Y s 556 691 m -6 Y s 568 698 m -13 Y s 580 691 m -6 Y s 592 691 m -6 Y s 605 691 m -6 Y s 617 691 m -6 Y s 629 698 m -13 Y s 641 691 m -6 Y s 654 691 m -6 Y s 666 691
 m -6 Y s 678 691 m -6 Y s 690 698 m -13 Y s 200 698 m -13 Y s 188 691 m -6 Y s 176 691 m -6 Y s 164 691 m -6 Y s 151 691 m -6 Y s 690 698 m -13 Y s
 gsave  710 567 23 603 C 198.923 656.444 t 0 r /Helvetica findfont 25.6631 sf 0 0 m (1) show NC gr 
 gsave  710 567 23 603 C 184.714 656.444 t 0 r /Symbol findfont 25.6631 sf 0 0 m (-) show NC gr 
 gsave  710 567 23 603 C 250.074 656.444 t 0 r /Helvetica findfont 25.6631 sf 0 0 m (0.5) show NC gr 
 gsave  710 567 23 603 C 235.865 656.444 t 0 r /Symbol findfont 25.6631 sf 0 0 m (-) show NC gr 
 gsave  710 567 23 603 C 312.592 656.444 t 0 r /Helvetica findfont 25.6631 sf 0 0 m (0) show NC gr 
 gsave  710 567 23 603 C 366.586 656.444 t 0 r /Helvetica findfont 25.6631 sf 0 0 m (0.5) show NC gr 
 gsave  710 567 23 603 C 437.63 656.444 t 0 r /Helvetica findfont 25.6631 sf 0 0 m (1) show NC gr 
 gsave  710 567 23 603 C 488.781 656.444 t 0 r /Helvetica findfont 25.6631 sf 0 0 m (1.5) show NC gr 
 gsave  710 567 23 603 C 556.983 656.444 t 0 r /Helvetica findfont 25.6631 sf 0 0 m (2) show NC gr 
 gsave  710 567 23 603 C 610.976 656.444 t 0 r /Helvetica findfont 25.6631 sf 0 0 m (2.5) show NC gr 
 gsave  710 567 23 603 C 679.178 656.444 t 0 r /Helvetica findfont 25.6631 sf 0 0 m (3) show NC gr 
 gsave  710 567 23 603 C 588.242 616.66 t 0 r /Helvetica findfont 28.5146 sf 0 0 m (yy.H1_l1) show NC gr  143 1114 m 548 X s 200 1100 m 14 Y s 213 1107 m 7 Y s 225 1107 m 7 Y s 237 1107 m 7 Y s 249 1107 m 7 Y s 262 1100 m 14 Y s 274 1107 m 7 Y s 286
 1107 m 7 Y s 298 1107 m 7 Y s 311 1107 m 7 Y s 323 1100 m 14 Y s 335 1107 m 7 Y s 347 1107 m 7 Y s 360 1107 m 7 Y s 372 1107 m 7 Y s 384 1100 m 14 Y s 396 1107 m 7 Y s 409 1107 m 7 Y s 421 1107 m 7 Y s 433 1107 m 7 Y s 445 1100 m 14 Y s 458 1107 m 7
 Y s 470 1107 m 7 Y s 482 1107 m 7 Y s 494 1107 m 7 Y s 507 1100 m 14 Y s 519 1107 m 7 Y s 531 1107 m 7 Y s 543 1107 m 7 Y s 556 1107 m 7 Y s 568 1100 m 14 Y s 580 1107 m 7 Y s 592 1107 m 7 Y s 605 1107 m 7 Y s 617 1107 m 7 Y s 629 1100 m 14 Y s 641
 1107 m 7 Y s 654 1107 m 7 Y s 666 1107 m 7 Y s 678 1107 m 7 Y s 690 1100 m 14 Y s 200 1100 m 14 Y s 188 1107 m 7 Y s 176 1107 m 7 Y s 164 1107 m 7 Y s 151 1107 m 7 Y s 690 1100 m 14 Y s 143 685 m 429 Y s 160 705 m -17 X s 152 717 m -9 X s 152 730 m
 -9 X s 152 742 m -9 X s 160 754 m -17 X s 152 766 m -9 X s 152 779 m -9 X s 152 791 m -9 X s 160 803 m -17 X s 152 815 m -9 X s 152 828 m -9 X s 152 840 m -9 X s 160 852 m -17 X s 152 864 m -9 X s 152 877 m -9 X s 152 889 m -9 X s 160 901 m -17 X s
 152 913 m -9 X s 152 926 m -9 X s 152 938 m -9 X s 160 950 m -17 X s 152 962 m -9 X s 152 975 m -9 X s 152 987 m -9 X s 160 999 m -17 X s 152 1011 m -9 X s 152 1024 m -9 X s 152 1036 m -9 X s 160 1048 m -17 X s 152 1060 m -9 X s 152 1073 m -9 X s
 152 1085 m -9 X s 160 1097 m -17 X s 160 705 m -17 X s 152 693 m -9 X s 160 1097 m -17 X s 152 1109 m -9 X s
 gsave  710 567 23 603 C 119.354 696.229 t 0 r /Helvetica findfont 25.6631 sf 0 0 m (0) show NC gr 
 gsave  710 567 23 603 C 99.4613 744.539 t 0 r /Helvetica findfont 25.6631 sf 0 0 m (0.2) show NC gr 
 gsave  710 567 23 603 C 99.4613 792.848 t 0 r /Helvetica findfont 25.6631 sf 0 0 m (0.4) show NC gr 
 gsave  710 567 23 603 C 99.4613 841.158 t 0 r /Helvetica findfont 25.6631 sf 0 0 m (0.6) show NC gr 
 gsave  710 567 23 603 C 99.4613 892.31 t 0 r /Helvetica findfont 25.6631 sf 0 0 m (0.8) show NC gr 
 gsave  710 567 23 603 C 122.195 940.619 t 0 r /Helvetica findfont 25.6631 sf 0 0 m (1) show NC gr 
 gsave  710 567 23 603 C 99.4613 988.929 t 0 r /Helvetica findfont 25.6631 sf 0 0 m (1.2) show NC gr 
 gsave  710 567 23 603 C 99.4613 1037.24 t 0 r /Helvetica findfont 25.6631 sf 0 0 m (1.4) show NC gr 
 gsave  710 567 23 603 C 99.4613 1088.39 t 0 r /Helvetica findfont 25.6631 sf 0 0 m (1.6) show NC gr 
 gsave  710 567 23 603 C 45.468 1037.24 t 90 r /Helvetica findfont 28.5146 sf 0 0 m (0.112 ) show NC gr 
 gsave  710 567 23 603 C 31.2593 1034.4 t 90 r /Helvetica findfont 19.9602 sf 0 0 m ( ) show NC gr 
 gsave  710 567 23 603 C 45.468 1023.03 t 90 r /Helvetica findfont 28.5146 sf 0 0 m (/) show NC gr 
 gsave  710 567 23 603 C 53.9933 1020.19 t 90 r /Helvetica findfont 19.9602 sf 0 0 m ( ) show NC gr 
 gsave  710 567 23 603 C 45.468 915.044 t 90 r /Helvetica findfont 28.5146 sf 0 0 m (\(1/N\) dN) show NC gr  691 685 m 429 Y s 674 705 m 17 X s 683 717 m 8 X s 683 730 m 8 X s 683 742 m 8 X s 674 754 m 17 X s 683 766 m 8 X s 683 779 m 8 X s 683 791 m
 8 X s 674 803 m 17 X s 683 815 m 8 X s 683 828 m 8 X s 683 840 m 8 X s 674 852 m 17 X s 683 864 m 8 X s 683 877 m 8 X s 683 889 m 8 X s 674 901 m 17 X s 683 913 m 8 X s 683 926 m 8 X s 683 938 m 8 X s 674 950 m 17 X s 683 962 m 8 X s 683 975 m 8 X s
 683 987 m 8 X s 674 999 m 17 X s 683 1011 m 8 X s 683 1024 m 8 X s 683 1036 m 8 X s 674 1048 m 17 X s 683 1060 m 8 X s 683 1073 m 8 X s 683 1085 m 8 X s 674 1097 m 17 X s 674 705 m 17 X s 683 693 m 8 X s 674 1097 m 17 X s 683 1109 m 8 X s 0.490196
 0.545098 0.615686 c 0.364706 0.419608 0.490196 c 327 38 30 1130 bf 0.490196 0.545098 0.615686 c 30 1130 m 327 X s 357 1130 m 38 Y s 357 1168 m -327 X s 30 1168 m -38 Y s 1 1 1 c black 1 1 1 c
 gsave  710 567 23 603 C 34.101 1142.38 t 0 r /Helvetica-Bold findfont 28.5146 sf 0 0 m (Input variable: yy.H1_l1) show NC gr  1 0 0 c 6 lw black 3 lw 1 0 0 c 682 705 m s 667 705 m s 652 705 m s 637 705 m s 621 705 m s 606 705 m s 591 705 m s 576 705
 m s 561 705 m s 546 705 m s 531 705 m s 516 705 m s 501 705 m s 486 705 m s 471 705 m s 456 705 m s 444 709 m -3 -4 d s 444 724 m -18 -19 d s 444 739 m -34 -34 d s 432 742 m -37 -37 d s 431 756 m -51 -51 d s 431 771 m -66 -66 d s 429 784 m -79 -79 d
 s 417 788 m -82 -83 d s 410 796 m -90 -91 d s 403 804 m -98 -99 d s 403 819 m -13 -13 d s 382 798 m -92 -93 d s 376 807 m -101 -102 d s 372 818 m -112 -113 d s 362 824 m -117 -119 d s 358 835 m -9 -10 d s 348 824 m -118 -119 d s 335 826 m -120 -121
 d s 330 836 m -131 -131 d s 321 843 m -123 -124 d s 184 705 m s 302 839 m -8 -8 d s 294 830 m -96 -96 d s 169 705 m s 275 827 m -77 -78 d s 154 705 m s 267 833 m -69 -68 d s 255 837 m -57 -57 d s 253 850 m -55 -55 d s 240 852 m -42 -42 d s 226 853 m
 -28 -28 d s 226 868 m -28 -28 d s 226 883 m -14 -14 d s 207 864 m -9 -8 d s 216 889 m -4 -4 d s 6 lw 143 705 m 55 X 159 Y 14 X 25 Y 14 X -36 Y 13 X -1 Y 14 X -15 Y 14 X -10 Y 13 X 3 Y 14 X 9 Y 14 X 4 Y 13 X -7 Y 14 X -12 Y 14 X 11 Y 13 X -17 Y 14 X
 -20 Y 14 X 21 Y 13 X -23 Y 14 X -12 Y 14 X -42 Y 13 X -37 Y 247 X s 0.490196 0.545098 0.615686 c 3 lw 1 1 1 c 0.490196 0.545098 0.615686 c 285 86 143 1028 bl 143 1028 m 285 X s 428 1028 m 86 Y s 428 1114 m -285 X s 143 1114 m -86 Y s black
 gsave  710 567 23 603 C 227.34 1085.55 t 0 r /Helvetica-Bold findfont 31.3661 sf 0 0 m (Signal) show NC gr  0.49 0.6 0.82 c 156 1077 m 60 X 30 Y -60 X f 0 0 0.933333 c 6 lw 156 1107 m 60 X s 156 1077 m 60 X s 216 1077 m 30 Y s 156 1077 m 30 Y s
 black
 gsave  710 567 23 603 C 227.34 1042.92 t 0 r /Helvetica-Bold findfont 31.3661 sf 0 0 m (Background) show NC gr  1 0 0 c 3 lw 216 1041 m -6 -6 d s 216 1056 m -21 -21 d s 210 1065 m -30 -30 d s 195 1065 m -30 -30 d s 180 1065 m -24 -24 d s 165 1065 m
 -9 -9 d s 6 lw 0 0 0.933333 c 1 0 0 c 156 1065 m 60 X s 156 1035 m 60 X s 216 1035 m 30 Y s 156 1035 m 30 Y s black 3 lw 143 685 m 548 X s 200 698 m -13 Y s 213 691 m -6 Y s 225 691 m -6 Y s 237 691 m -6 Y s 249 691 m -6 Y s 262 698 m -13 Y s 274
 691 m -6 Y s 286 691 m -6 Y s 298 691 m -6 Y s 311 691 m -6 Y s 323 698 m -13 Y s 335 691 m -6 Y s 347 691 m -6 Y s 360 691 m -6 Y s 372 691 m -6 Y s 384 698 m -13 Y s 396 691 m -6 Y s 409 691 m -6 Y s 421 691 m -6 Y s 433 691 m -6 Y s 445 698 m -13
 Y s 458 691 m -6 Y s 470 691 m -6 Y s 482 691 m -6 Y s 494 691 m -6 Y s 507 698 m -13 Y s 519 691 m -6 Y s 531 691 m -6 Y s 543 691 m -6 Y s 556 691 m -6 Y s 568 698 m -13 Y s 580 691 m -6 Y s 592 691 m -6 Y s 605 691 m -6 Y s 617 691 m -6 Y s 629
 698 m -13 Y s 641 691 m -6 Y s 654 691 m -6 Y s 666 691 m -6 Y s 678 691 m -6 Y s 690 698 m -13 Y s 200 698 m -13 Y s 188 691 m -6 Y s 176 691 m -6 Y s 164 691 m -6 Y s 151 691 m -6 Y s 690 698 m -13 Y s 143 1114 m 548 X s 200 1100 m 14 Y s 213 1107
 m 7 Y s 225 1107 m 7 Y s 237 1107 m 7 Y s 249 1107 m 7 Y s 262 1100 m 14 Y s 274 1107 m 7 Y s 286 1107 m 7 Y s 298 1107 m 7 Y s 311 1107 m 7 Y s 323 1100 m 14 Y s 335 1107 m 7 Y s 347 1107 m 7 Y s 360 1107 m 7 Y s 372 1107 m 7 Y s 384 1100 m 14 Y s
 396 1107 m 7 Y s 409 1107 m 7 Y s 421 1107 m 7 Y s 433 1107 m 7 Y s 445 1100 m 14 Y s 458 1107 m 7 Y s 470 1107 m 7 Y s 482 1107 m 7 Y s 494 1107 m 7 Y s 507 1100 m 14 Y s 519 1107 m 7 Y s 531 1107 m 7 Y s 543 1107 m 7 Y s 556 1107 m 7 Y s 568 1100
 m 14 Y s 580 1107 m 7 Y s 592 1107 m 7 Y s 605 1107 m 7 Y s 617 1107 m 7 Y s 629 1100 m 14 Y s 641 1107 m 7 Y s 654 1107 m 7 Y s 666 1107 m 7 Y s 678 1107 m 7 Y s 690 1100 m 14 Y s 200 1100 m 14 Y s 188 1107 m 7 Y s 176 1107 m 7 Y s 164 1107 m 7 Y s
 151 1107 m 7 Y s 690 1100 m 14 Y s 143 685 m 429 Y s 160 705 m -17 X s 152 717 m -9 X s 152 730 m -9 X s 152 742 m -9 X s 160 754 m -17 X s 152 766 m -9 X s 152 779 m -9 X s 152 791 m -9 X s 160 803 m -17 X s 152 815 m -9 X s 152 828 m -9 X s 152
 840 m -9 X s 160 852 m -17 X s 152 864 m -9 X s 152 877 m -9 X s 152 889 m -9 X s 160 901 m -17 X s 152 913 m -9 X s 152 926 m -9 X s 152 938 m -9 X s 160 950 m -17 X s 152 962 m -9 X s 152 975 m -9 X s 152 987 m -9 X s 160 999 m -17 X s 152 1011 m
 -9 X s 152 1024 m -9 X s 152 1036 m -9 X s 160 1048 m -17 X s 152 1060 m -9 X s 152 1073 m -9 X s 152 1085 m -9 X s 160 1097 m -17 X s 160 705 m -17 X s 152 693 m -9 X s 160 1097 m -17 X s 152 1109 m -9 X s 691 685 m 429 Y s 674 705 m 17 X s 683 717
 m 8 X s 683 730 m 8 X s 683 742 m 8 X s 674 754 m 17 X s 683 766 m 8 X s 683 779 m 8 X s 683 791 m 8 X s 674 803 m 17 X s 683 815 m 8 X s 683 828 m 8 X s 683 840 m 8 X s 674 852 m 17 X s 683 864 m 8 X s 683 877 m 8 X s 683 889 m 8 X s 674 901 m 17 X
 s 683 913 m 8 X s 683 926 m 8 X s 683 938 m 8 X s 674 950 m 17 X s 683 962 m 8 X s 683 975 m 8 X s 683 987 m 8 X s 674 999 m 17 X s 683 1011 m 8 X s 683 1024 m 8 X s 683 1036 m 8 X s 674 1048 m 17 X s 683 1060 m 8 X s 683 1073 m 8 X s 683 1085 m 8 X
 s 674 1097 m 17 X s 674 705 m 17 X s 683 693 m 8 X s 674 1097 m 17 X s 683 1109 m 8 X s
 gsave  710 567 23 603 C 719.017 682.347 t 90 r /Helvetica-Bold findfont 19.9602 sf 0 0 m (U/O\255flow \(S,B\): \(0.0, 0.0\)% / \(0.0, 0.0\)%) show NC gr  0.490196 0.545098 0.615686 c 0.364706 0.419608 0.490196 c 327 38 30 1130 bf 0.490196 0.545098
 0.615686 c 30 1130 m 327 X s 357 1130 m 38 Y s 357 1168 m -327 X s 30 1168 m -38 Y s 1 1 1 c black 1 1 1 c
 gsave  710 567 23 603 C 34.101 1142.38 t 0 r /Helvetica-Bold findfont 28.5146 sf 0 0 m (Input variable: yy.H1_l1) show NC gr  0.490196 0.545098 0.615686 c 0.941176 0.941176 0.941176 c 710 567 779 603 bf black 1 1 0.992157 c 548 429 899 685 bf black
 548 429 899 685 bl 0 0 0.933333 c 6 lw 0.49 0.6 0.82 c black 3 lw 0.49 0.6 0.82 c 899 685 m 14 X 3 Y 14 X 2 Y 27 X 11 Y 14 X -2 Y 13 X -3 Y 14 X 6 Y 14 X -12 Y 13 X 14 Y 14 X 2 Y 14 X 5 Y 14 X 8 Y 13 X 13 Y 14 X 23 Y 14 X 7 Y 13 X 18 Y 14 X 63 Y 14
 X 10 Y 13 X 64 Y 14 X 38 Y 14 X 31 Y 13 X 8 Y 14 X 37 Y 14 X 31 Y 13 X -35 Y 14 X 48 Y 14 X -22 Y 13 X -46 Y 14 X 29 Y 14 X -50 Y 13 X -45 Y 14 X -66 Y 14 X -56 Y 13 X -107 Y 14 X -27 Y 69 X f 6 lw 0 0 0.933333 c 0.49 0.6 0.82 c 0 0 0.933333 c 899
 685 m 14 X 3 Y 14 X 2 Y 27 X 11 Y 14 X -2 Y 13 X -3 Y 14 X 6 Y 14 X -12 Y 13 X 14 Y 14 X 2 Y 14 X 5 Y 14 X 8 Y 13 X 13 Y 14 X 23 Y 14 X 7 Y 13 X 18 Y 14 X 63 Y 14 X 10 Y 13 X 64 Y 14 X 38 Y 14 X 31 Y 13 X 8 Y 14 X 37 Y 14 X 31 Y 13 X -35 Y 14 X 48 Y
 14 X -22 Y 13 X -46 Y 14 X 29 Y 14 X -50 Y 13 X -45 Y 14 X -66 Y 14 X -56 Y 13 X -107 Y 14 X -27 Y 69 X s black 3 lw 899 685 m 548 X s 947 698 m -13 Y s 966 691 m -6 Y s 985 691 m -6 Y s 1005 691 m -6 Y s 1024 691 m -6 Y s 1043 698 m -13 Y s 1062
 691 m -6 Y s 1081 691 m -6 Y s 1100 691 m -6 Y s 1119 691 m -6 Y s 1139 698 m -13 Y s 1158 691 m -6 Y s 1177 691 m -6 Y s 1196 691 m -6 Y s 1215 691 m -6 Y s 1234 698 m -13 Y s 1253 691 m -6 Y s 1273 691 m -6 Y s 1292 691 m -6 Y s 1311 691 m -6 Y s
 1330 698 m -13 Y s 1349 691 m -6 Y s 1368 691 m -6 Y s 1387 691 m -6 Y s 1407 691 m -6 Y s 1426 698 m -13 Y s 947 698 m -13 Y s 928 691 m -6 Y s 909 691 m -6 Y s 1426 698 m -13 Y s 1445 691 m -6 Y s
 gsave  710 567 779 603 C 934.936 656.444 t 0 r /Helvetica findfont 25.6631 sf 0 0 m (0.2) show NC gr 
 gsave  710 567 779 603 C 920.727 656.444 t 0 r /Symbol findfont 25.6631 sf 0 0 m (-) show NC gr 
 gsave  710 567 779 603 C 1028.71 656.444 t 0 r /Helvetica findfont 25.6631 sf 0 0 m (0.1) show NC gr 
 gsave  710 567 779 603 C 1017.35 656.444 t 0 r /Symbol findfont 25.6631 sf 0 0 m (-) show NC gr 
 gsave  710 567 779 603 C 1128.17 656.444 t 0 r /Helvetica findfont 25.6631 sf 0 0 m (0) show NC gr 
 gsave  710 567 779 603 C 1216.27 656.444 t 0 r /Helvetica findfont 25.6631 sf 0 0 m (0.1) show NC gr 
 gsave  710 567 779 603 C 1312.89 656.444 t 0 r /Helvetica findfont 25.6631 sf 0 0 m (0.2) show NC gr 
 gsave  710 567 779 603 C 1406.67 656.444 t 0 r /Helvetica findfont 25.6631 sf 0 0 m (0.3) show NC gr 
 gsave  710 567 779 603 C 1341.31 616.66 t 0 r /Helvetica findfont 28.5146 sf 0 0 m (yy.HT_l1) show NC gr  899 1114 m 548 X s 947 1100 m 14 Y s 966 1107 m 7 Y s 985 1107 m 7 Y s 1005 1107 m 7 Y s 1024 1107 m 7 Y s 1043 1100 m 14 Y s 1062 1107 m 7 Y s
 1081 1107 m 7 Y s 1100 1107 m 7 Y s 1119 1107 m 7 Y s 1139 1100 m 14 Y s 1158 1107 m 7 Y s 1177 1107 m 7 Y s 1196 1107 m 7 Y s 1215 1107 m 7 Y s 1234 1100 m 14 Y s 1253 1107 m 7 Y s 1273 1107 m 7 Y s 1292 1107 m 7 Y s 1311 1107 m 7 Y s 1330 1100 m
 14 Y s 1349 1107 m 7 Y s 1368 1107 m 7 Y s 1387 1107 m 7 Y s 1407 1107 m 7 Y s 1426 1100 m 14 Y s 947 1100 m 14 Y s 928 1107 m 7 Y s 909 1107 m 7 Y s 1426 1100 m 14 Y s 1445 1107 m 7 Y s 899 685 m 429 Y s 915 685 m -16 X s 907 700 m -8 X s 907 715 m
 -8 X s 907 730 m -8 X s 907 745 m -8 X s 915 761 m -16 X s 907 776 m -8 X s 907 791 m -8 X s 907 806 m -8 X s 907 821 m -8 X s 915 837 m -16 X s 907 852 m -8 X s 907 867 m -8 X s 907 882 m -8 X s 907 898 m -8 X s 915 913 m -16 X s 907 928 m -8 X s
 907 943 m -8 X s 907 958 m -8 X s 907 974 m -8 X s 915 989 m -16 X s 907 1004 m -8 X s 907 1019 m -8 X s 907 1034 m -8 X s 907 1050 m -8 X s 915 1065 m -16 X s 915 1065 m -16 X s 907 1080 m -8 X s 907 1095 m -8 X s 907 1110 m -8 X s
 gsave  710 567 779 603 C 875.259 673.495 t 0 r /Helvetica findfont 25.6631 sf 0 0 m (0) show NC gr 
 gsave  710 567 779 603 C 878.101 750.222 t 0 r /Helvetica findfont 25.6631 sf 0 0 m (1) show NC gr 
 gsave  710 567 779 603 C 875.259 826.949 t 0 r /Helvetica findfont 25.6631 sf 0 0 m (2) show NC gr 
 gsave  710 567 779 603 C 875.259 903.677 t 0 r /Helvetica findfont 25.6631 sf 0 0 m (3) show NC gr 
 gsave  710 567 779 603 C 875.259 977.562 t 0 r /Helvetica findfont 25.6631 sf 0 0 m (4) show NC gr 
 gsave  710 567 779 603 C 875.259 1054.29 t 0 r /Helvetica findfont 25.6631 sf 0 0 m (5) show NC gr 
 gsave  710 567 779 603 C 801.374 1023.03 t 90 r /Helvetica findfont 28.5146 sf 0 0 m (0.0143 ) show NC gr 
 gsave  710 567 779 603 C 787.165 1020.19 t 90 r /Helvetica findfont 19.9602 sf 0 0 m ( ) show NC gr 
 gsave  710 567 779 603 C 801.374 1008.82 t 90 r /Helvetica findfont 28.5146 sf 0 0 m (/) show NC gr 
 gsave  710 567 779 603 C 809.899 1005.98 t 90 r /Helvetica findfont 19.9602 sf 0 0 m ( ) show NC gr 
 gsave  710 567 779 603 C 801.374 900.835 t 90 r /Helvetica findfont 28.5146 sf 0 0 m (\(1/N\) dN) show NC gr  1447 685 m 429 Y s 1430 685 m 17 X s 1438 700 m 9 X s 1438 715 m 9 X s 1438 730 m 9 X s 1438 745 m 9 X s 1430 761 m 17 X s 1438 776 m 9 X s
 1438 791 m 9 X s 1438 806 m 9 X s 1438 821 m 9 X s 1430 837 m 17 X s 1438 852 m 9 X s 1438 867 m 9 X s 1438 882 m 9 X s 1438 898 m 9 X s 1430 913 m 17 X s 1438 928 m 9 X s 1438 943 m 9 X s 1438 958 m 9 X s 1438 974 m 9 X s 1430 989 m 17 X s 1438
 1004 m 9 X s 1438 1019 m 9 X s 1438 1034 m 9 X s 1438 1050 m 9 X s 1430 1065 m 17 X s 1430 1065 m 17 X s 1438 1080 m 9 X s 1438 1095 m 9 X s 1438 1110 m 9 X s 0.490196 0.545098 0.615686 c 0.364706 0.419608 0.490196 c 329 38 786 1130 bf 0.490196
 0.545098 0.615686 c 786 1130 m 329 X s 1115 1130 m 38 Y s 1115 1168 m -329 X s 786 1168 m -38 Y s 1 1 1 c black 1 1 1 c
 gsave  710 567 779 603 C 790.007 1142.38 t 0 r /Helvetica-Bold findfont 28.5146 sf 0 0 m (Input variable: yy.HT_l1) show NC gr  1 0 0 c 6 lw black 3 lw 1 0 0 c 1432 685 m s 1417 685 m s 1402 685 m s 1387 685 m s 1373 686 m -1 -1 d s 1364 692 m -7 -7
 d s 1358 701 m -16 -16 d s 1351 709 m -24 -24 d s 1351 724 m -39 -39 d s 1351 739 m -54 -54 d s 1349 752 m -67 -67 d s 1333 751 m -66 -66 d s 1319 752 m -67 -67 d s 1310 758 m -73 -73 d s 1310 774 m -89 -89 d s 1310 789 m -104 -104 d s 1300 795 m
 -109 -110 d s 1291 800 m -115 -115 d s 1278 803 m -117 -118 d s 1269 808 m -123 -123 d s 1269 823 m -138 -138 d s 1269 838 m -153 -153 d s 1266 851 m -11 -11 d s 1242 827 m -141 -142 d s 1241 841 m -155 -156 d s 1231 846 m -160 -161 d s 1215 845 m
 -159 -160 d s 1207 852 m -166 -167 d s 1200 861 m -174 -176 d s 1188 863 m -15 -15 d s 1162 838 m -152 -153 d s 1185 876 m -12 -13 d s 1159 850 m -164 -165 d s 1159 865 m -179 -180 d s 1136 856 m -171 -171 d s 1132 868 m -182 -183 d s 1128 879 m -23
 -24 d s 1099 850 m -164 -165 d s 1115 881 m -10 -10 d s 1091 857 m -14 -14 d s 1076 842 m -156 -157 d s 1091 872 m -14 -14 d s 1064 844 m -159 -159 d s 1085 881 m -8 -8 d s 1056 852 m -157 -158 d s 1050 861 m -151 -152 d s 1046 872 m -10 -10 d s
 1029 855 m -130 -130 d s 1022 864 m -123 -124 d s 1022 879 m -109 -110 d s 908 764 m -9 -9 d s 1015 886 m -6 -6 d s 998 869 m -85 -85 d s 982 868 m -69 -69 d s 981 883 m -68 -69 d s 972 889 m -59 -60 d s 968 900 m -14 -14 d s 951 883 m -38 -38 d s
 962 909 m -8 -8 d s 932 879 m -5 -5 d s 916 862 m -3 -2 d s 6 lw 899 764 m 14 X 98 Y 14 X 17 Y 13 X 4 Y 14 X 26 Y 14 X -20 Y 13 X -21 Y 14 X 1 Y 14 X 17 Y 13 X -31 Y 14 X 17 Y 14 X -20 Y 14 X -10 Y 13 X 39 Y 14 X -31 Y 14 X 31 Y 13 X -2 Y 14 X -23 Y
 14 X 10 Y 13 X -28 Y 14 X 38 Y 14 X -13 Y 13 X -11 Y 14 X -7 Y 14 X 1 Y 13 X -19 Y 14 X 24 Y 14 X -48 Y 13 X -3 Y 14 X -5 Y 14 X -43 Y 13 X -1 Y 14 X 1 Y 14 X -51 Y 13 X -15 Y 14 X -1 Y 69 X s black 3 lw 899 685 m 548 X s 947 698 m -13 Y s 966 691 m
 -6 Y s 985 691 m -6 Y s 1005 691 m -6 Y s 1024 691 m -6 Y s 1043 698 m -13 Y s 1062 691 m -6 Y s 1081 691 m -6 Y s 1100 691 m -6 Y s 1119 691 m -6 Y s 1139 698 m -13 Y s 1158 691 m -6 Y s 1177 691 m -6 Y s 1196 691 m -6 Y s 1215 691 m -6 Y s 1234
 698 m -13 Y s 1253 691 m -6 Y s 1273 691 m -6 Y s 1292 691 m -6 Y s 1311 691 m -6 Y s 1330 698 m -13 Y s 1349 691 m -6 Y s 1368 691 m -6 Y s 1387 691 m -6 Y s 1407 691 m -6 Y s 1426 698 m -13 Y s 947 698 m -13 Y s 928 691 m -6 Y s 909 691 m -6 Y s
 1426 698 m -13 Y s 1445 691 m -6 Y s 899 1114 m 548 X s 947 1100 m 14 Y s 966 1107 m 7 Y s 985 1107 m 7 Y s 1005 1107 m 7 Y s 1024 1107 m 7 Y s 1043 1100 m 14 Y s 1062 1107 m 7 Y s 1081 1107 m 7 Y s 1100 1107 m 7 Y s 1119 1107 m 7 Y s 1139 1100 m 14
 Y s 1158 1107 m 7 Y s 1177 1107 m 7 Y s 1196 1107 m 7 Y s 1215 1107 m 7 Y s 1234 1100 m 14 Y s 1253 1107 m 7 Y s 1273 1107 m 7 Y s 1292 1107 m 7 Y s 1311 1107 m 7 Y s 1330 1100 m 14 Y s 1349 1107 m 7 Y s 1368 1107 m 7 Y s 1387 1107 m 7 Y s 1407 1107
 m 7 Y s 1426 1100 m 14 Y s 947 1100 m 14 Y s 928 1107 m 7 Y s 909 1107 m 7 Y s 1426 1100 m 14 Y s 1445 1107 m 7 Y s 899 685 m 429 Y s 915 685 m -16 X s 907 700 m -8 X s 907 715 m -8 X s 907 730 m -8 X s 907 745 m -8 X s 915 761 m -16 X s 907 776 m
 -8 X s 907 791 m -8 X s 907 806 m -8 X s 907 821 m -8 X s 915 837 m -16 X s 907 852 m -8 X s 907 867 m -8 X s 907 882 m -8 X s 907 898 m -8 X s 915 913 m -16 X s 907 928 m -8 X s 907 943 m -8 X s 907 958 m -8 X s 907 974 m -8 X s 915 989 m -16 X s
 907 1004 m -8 X s 907 1019 m -8 X s 907 1034 m -8 X s 907 1050 m -8 X s 915 1065 m -16 X s 915 1065 m -16 X s 907 1080 m -8 X s 907 1095 m -8 X s 907 1110 m -8 X s 1447 685 m 429 Y s 1430 685 m 17 X s 1438 700 m 9 X s 1438 715 m 9 X s 1438 730 m 9 X
 s 1438 745 m 9 X s 1430 761 m 17 X s 1438 776 m 9 X s 1438 791 m 9 X s 1438 806 m 9 X s 1438 821 m 9 X s 1430 837 m 17 X s 1438 852 m 9 X s 1438 867 m 9 X s 1438 882 m 9 X s 1438 898 m 9 X s 1430 913 m 17 X s 1438 928 m 9 X s 1438 943 m 9 X s 1438
 958 m 9 X s 1438 974 m 9 X s 1430 989 m 17 X s 1438 1004 m 9 X s 1438 1019 m 9 X s 1438 1034 m 9 X s 1438 1050 m 9 X s 1430 1065 m 17 X s 1430 1065 m 17 X s 1438 1080 m 9 X s 1438 1095 m 9 X s 1438 1110 m 9 X s
 gsave  710 567 779 603 C 1474.92 682.347 t 90 r /Helvetica-Bold findfont 19.9602 sf 0 0 m (U/O\255flow \(S,B\): \(0.0, 0.0\)% / \(0.0, 0.0\)%) show NC gr  0.490196 0.545098 0.615686 c 0.364706 0.419608 0.490196 c 329 38 786 1130 bf 0.490196 0.545098
 0.615686 c 786 1130 m 329 X s 1115 1130 m 38 Y s 1115 1168 m -329 X s 786 1168 m -38 Y s 1 1 1 c black 1 1 1 c
 gsave  710 567 779 603 C 790.007 1142.38 t 0 r /Helvetica-Bold findfont 28.5146 sf 0 0 m (Input variable: yy.HT_l1) show NC gr  0.490196 0.545098 0.615686 c 0.941176 0.941176 0.941176 c 711 567 1534 603 bf black 1 1 0.992157 c 547 429 1655 685 bf
 black 547 429 1655 685 bl 0 0 0.933333 c 6 lw 0.49 0.6 0.82 c black 3 lw 0.49 0.6 0.82 c 1655 685 m 14 X 3 Y 14 X 2 Y 13 X 3 Y 14 X 6 Y 14 X -1 Y 13 X -4 Y 14 X 7 Y 14 X -9 Y 13 X 14 Y 14 X -6 Y 14 X 12 Y 13 X 14 Y 14 X -3 Y 14 X 40 Y 27 X 16 Y 14 X
 72 Y 13 X 4 Y 14 X 88 Y 14 X 24 Y 14 X 62 Y 13 X -5 Y 14 X 11 Y 14 X 15 Y 13 X -43 Y 14 X 68 Y 14 X -41 Y 13 X -4 Y 14 X -15 Y 14 X -19 Y 13 X -47 Y 14 X -49 Y 14 X -72 Y 13 X -97 Y 14 X -46 Y 68 X f 6 lw 0 0 0.933333 c 0.49 0.6 0.82 c 0 0 0.933333
 c 1655 685 m 14 X 3 Y 14 X 2 Y 13 X 3 Y 14 X 6 Y 14 X -1 Y 13 X -4 Y 14 X 7 Y 14 X -9 Y 13 X 14 Y 14 X -6 Y 14 X 12 Y 13 X 14 Y 14 X -3 Y 14 X 40 Y 27 X 16 Y 14 X 72 Y 13 X 4 Y 14 X 88 Y 14 X 24 Y 14 X 62 Y 13 X -5 Y 14 X 11 Y 14 X 15 Y 13 X -43 Y
 14 X 68 Y 14 X -41 Y 13 X -4 Y 14 X -15 Y 14 X -19 Y 13 X -47 Y 14 X -49 Y 14 X -72 Y 13 X -97 Y 14 X -46 Y 68 X s black 3 lw 1655 685 m 547 X s 1703 698 m -13 Y s 1723 691 m -6 Y s 1742 691 m -6 Y s 1761 691 m -6 Y s 1780 691 m -6 Y s 1800 698 m
 -13 Y s 1819 691 m -6 Y s 1838 691 m -6 Y s 1857 691 m -6 Y s 1876 691 m -6 Y s 1896 698 m -13 Y s 1915 691 m -6 Y s 1934 691 m -6 Y s 1953 691 m -6 Y s 1973 691 m -6 Y s 1992 698 m -13 Y s 2011 691 m -6 Y s 2030 691 m -6 Y s 2050 691 m -6 Y s 2069
 691 m -6 Y s 2088 698 m -13 Y s 2107 691 m -6 Y s 2127 691 m -6 Y s 2146 691 m -6 Y s 2165 691 m -6 Y s 2184 698 m -13 Y s 1703 698 m -13 Y s 1684 691 m -6 Y s 1665 691 m -6 Y s 2184 698 m -13 Y s
 gsave  711 567 1534 603 C 1690.84 656.444 t 0 r /Helvetica findfont 25.6631 sf 0 0 m (0.2) show NC gr 
 gsave  711 567 1534 603 C 1676.63 656.444 t 0 r /Symbol findfont 25.6631 sf 0 0 m (-) show NC gr 
 gsave  711 567 1534 603 C 1787.46 656.444 t 0 r /Helvetica findfont 25.6631 sf 0 0 m (0.1) show NC gr 
 gsave  711 567 1534 603 C 1776.09 656.444 t 0 r /Symbol findfont 25.6631 sf 0 0 m (-) show NC gr 
 gsave  711 567 1534 603 C 1886.92 656.444 t 0 r /Helvetica findfont 25.6631 sf 0 0 m (0) show NC gr 
 gsave  711 567 1534 603 C 1972.17 656.444 t 0 r /Helvetica findfont 25.6631 sf 0 0 m (0.1) show NC gr 
 gsave  711 567 1534 603 C 2068.79 656.444 t 0 r /Helvetica findfont 25.6631 sf 0 0 m (0.2) show NC gr 
 gsave  711 567 1534 603 C 2165.41 656.444 t 0 r /Helvetica findfont 25.6631 sf 0 0 m (0.3) show NC gr 
 gsave  711 567 1534 603 C 2097.21 616.66 t 0 r /Helvetica findfont 28.5146 sf 0 0 m (yy.HP_l1) show NC gr  1655 1114 m 547 X s 1703 1100 m 14 Y s 1723 1107 m 7 Y s 1742 1107 m 7 Y s 1761 1107 m 7 Y s 1780 1107 m 7 Y s 1800 1100 m 14 Y s 1819 1107 m
 7 Y s 1838 1107 m 7 Y s 1857 1107 m 7 Y s 1876 1107 m 7 Y s 1896 1100 m 14 Y s 1915 1107 m 7 Y s 1934 1107 m 7 Y s 1953 1107 m 7 Y s 1973 1107 m 7 Y s 1992 1100 m 14 Y s 2011 1107 m 7 Y s 2030 1107 m 7 Y s 2050 1107 m 7 Y s 2069 1107 m 7 Y s 2088
 1100 m 14 Y s 2107 1107 m 7 Y s 2127 1107 m 7 Y s 2146 1107 m 7 Y s 2165 1107 m 7 Y s 2184 1100 m 14 Y s 1703 1100 m 14 Y s 1684 1107 m 7 Y s 1665 1107 m 7 Y s 2184 1100 m 14 Y s 1655 685 m 429 Y s 1671 685 m -16 X s 1663 700 m -8 X s 1663 716 m -8
 X s 1663 731 m -8 X s 1663 747 m -8 X s 1671 762 m -16 X s 1663 778 m -8 X s 1663 793 m -8 X s 1663 809 m -8 X s 1663 825 m -8 X s 1671 840 m -16 X s 1663 856 m -8 X s 1663 871 m -8 X s 1663 887 m -8 X s 1663 902 m -8 X s 1671 918 m -16 X s 1663 933
 m -8 X s 1663 949 m -8 X s 1663 964 m -8 X s 1663 980 m -8 X s 1671 996 m -16 X s 1663 1011 m -8 X s 1663 1027 m -8 X s 1663 1042 m -8 X s 1663 1058 m -8 X s 1671 1073 m -16 X s 1671 1073 m -16 X s 1663 1089 m -8 X s 1663 1104 m -8 X s
 gsave  711 567 1534 603 C 1631.16 673.495 t 0 r /Helvetica findfont 25.6631 sf 0 0 m (0) show NC gr 
 gsave  711 567 1534 603 C 1634.01 753.064 t 0 r /Helvetica findfont 25.6631 sf 0 0 m (1) show NC gr 
 gsave  711 567 1534 603 C 1631.16 829.791 t 0 r /Helvetica findfont 25.6631 sf 0 0 m (2) show NC gr 
 gsave  711 567 1534 603 C 1631.16 906.518 t 0 r /Helvetica findfont 25.6631 sf 0 0 m (3) show NC gr 
 gsave  711 567 1534 603 C 1631.16 986.087 t 0 r /Helvetica findfont 25.6631 sf 0 0 m (4) show NC gr 
 gsave  711 567 1534 603 C 1631.16 1062.81 t 0 r /Helvetica findfont 25.6631 sf 0 0 m (5) show NC gr 
 gsave  711 567 1534 603 C 1557.28 1023.03 t 90 r /Helvetica findfont 28.5146 sf 0 0 m (0.0142 ) show NC gr 
 gsave  711 567 1534 603 C 1543.07 1020.19 t 90 r /Helvetica findfont 19.9602 sf 0 0 m ( ) show NC gr 
 gsave  711 567 1534 603 C 1557.28 1008.82 t 90 r /Helvetica findfont 28.5146 sf 0 0 m (/) show NC gr 
 gsave  711 567 1534 603 C 1565.8 1005.98 t 90 r /Helvetica findfont 19.9602 sf 0 0 m ( ) show NC gr 
 gsave  711 567 1534 603 C 1557.28 900.835 t 90 r /Helvetica findfont 28.5146 sf 0 0 m (\(1/N\) dN) show NC gr  2202 685 m 429 Y s 2186 685 m 16 X s 2194 700 m 8 X s 2194 716 m 8 X s 2194 731 m 8 X s 2194 747 m 8 X s 2186 762 m 16 X s 2194 778 m 8 X
 s 2194 793 m 8 X s 2194 809 m 8 X s 2194 825 m 8 X s 2186 840 m 16 X s 2194 856 m 8 X s 2194 871 m 8 X s 2194 887 m 8 X s 2194 902 m 8 X s 2186 918 m 16 X s 2194 933 m 8 X s 2194 949 m 8 X s 2194 964 m 8 X s 2194 980 m 8 X s 2186 996 m 16 X s 2194
 1011 m 8 X s 2194 1027 m 8 X s 2194 1042 m 8 X s 2194 1058 m 8 X s 2186 1073 m 16 X s 2186 1073 m 16 X s 2194 1089 m 8 X s 2194 1104 m 8 X s 0.490196 0.545098 0.615686 c 0.364706 0.419608 0.490196 c 329 38 1542 1130 bf 0.490196 0.545098 0.615686 c
 1542 1130 m 329 X s 1871 1130 m 38 Y s 1871 1168 m -329 X s 1542 1168 m -38 Y s 1 1 1 c black 1 1 1 c
 gsave  711 567 1534 603 C 1545.91 1142.38 t 0 r /Helvetica-Bold findfont 28.5146 sf 0 0 m (Input variable: yy.HP_l1) show NC gr  1 0 0 c 6 lw black 3 lw 1 0 0 c 2188 685 m s 2173 685 m s 2158 685 m s 2143 685 m s 2131 688 m -3 -3 d s 2120 692 m -7
 -7 d s 2120 707 m -22 -22 d s 2114 716 m -31 -31 d s 2107 724 m -39 -39 d s 2103 735 m -50 -50 d s 2093 740 m -55 -55 d s 2091 754 m -68 -69 d s 2079 757 m -71 -72 d s 2070 763 m -78 -78 d s 2062 770 m -85 -85 d s 2046 769 m -84 -84 d s 2038 776 m
 -91 -91 d s 2038 792 m -106 -107 d s 2038 807 m -121 -122 d s 2025 808 m -123 -123 d s 2015 814 m -4 -4 d s 2004 803 m -117 -118 d s 1997 811 m -125 -126 d s 1997 826 m -140 -141 d s 1997 841 m -155 -156 d s 1984 843 m -157 -158 d s 1984 858 m -172
 -173 d s 1980 870 m -184 -185 d s 1970 874 m -189 -189 d s 1957 877 m -1 -1 d s 1953 872 m -187 -187 d s 1943 877 m -192 -192 d s 1943 892 m -207 -207 d s 1938 903 m -9 -9 d s 1924 889 m -203 -204 d s 1915 895 m -14 -14 d s 1894 874 m -188 -189 d s
 1905 900 m -4 -3 d s 1888 883 m -197 -198 d s 1888 898 m -41 -41 d s 1846 856 m -170 -171 d s 1888 913 m -14 -14 d s 1864 889 m -4 -3 d s 1850 875 m -3 -3 d s 1833 858 m -14 -14 d s 1815 840 m -154 -155 d s 1877 918 m -3 -3 d s 1833 873 m -14 -13 d
 s 1806 846 m -151 -152 d s 1825 881 m -6 -6 d s 1806 861 m -151 -152 d s 1806 876 m -14 -14 d s 1790 860 m -135 -135 d s 1794 880 m -2 -2 d s 1778 864 m -123 -124 d s 1775 876 m -10 -11 d s 1761 861 m -106 -106 d s 1751 867 m -82 -83 d s 1744 875 m
 -75 -76 d s 1737 883 m -68 -69 d s 1737 898 m -27 -27 d s 1706 867 m -37 -38 d s 1737 914 m -13 -14 d s 1712 888 m -2 -2 d s 1696 872 m -13 -14 d s 1670 846 m -1 -1 d s 1726 917 m -2 -2 d s 1696 887 m -13 -13 d s 6 lw 1655 769 m 14 X 77 Y 14 X 41 Y
 13 X -20 Y 14 X 21 Y 14 X 29 Y 13 X -42 Y 14 X -14 Y 14 X 15 Y 13 X -16 Y 14 X 20 Y 14 X -40 Y 13 X 41 Y 14 X -25 Y 14 X 19 Y 13 X 14 Y 14 X 29 Y 14 X -44 Y 13 X 26 Y 14 X -11 Y 14 X 14 Y 14 X -31 Y 13 X 5 Y 14 X -7 Y 14 X -28 Y 13 X -39 Y 14 X 11 Y
 14 X -6 Y 13 X -39 Y 14 X 1 Y 14 X -7 Y 13 X -9 Y 14 X -19 Y 14 X -19 Y 13 X -28 Y 14 X -3 Y 68 X s black 3 lw 1655 685 m 547 X s 1703 698 m -13 Y s 1723 691 m -6 Y s 1742 691 m -6 Y s 1761 691 m -6 Y s 1780 691 m -6 Y s 1800 698 m -13 Y s 1819 691
 m -6 Y s 1838 691 m -6 Y s 1857 691 m -6 Y s 1876 691 m -6 Y s 1896 698 m -13 Y s 1915 691 m -6 Y s 1934 691 m -6 Y s 1953 691 m -6 Y s 1973 691 m -6 Y s 1992 698 m -13 Y s 2011 691 m -6 Y s 2030 691 m -6 Y s 2050 691 m -6 Y s 2069 691 m -6 Y s 2088
 698 m -13 Y s 2107 691 m -6 Y s 2127 691 m -6 Y s 2146 691 m -6 Y s 2165 691 m -6 Y s 2184 698 m -13 Y s 1703 698 m -13 Y s 1684 691 m -6 Y s 1665 691 m -6 Y s 2184 698 m -13 Y s 1655 1114 m 547 X s 1703 1100 m 14 Y s 1723 1107 m 7 Y s 1742 1107 m 7
 Y s 1761 1107 m 7 Y s 1780 1107 m 7 Y s 1800 1100 m 14 Y s 1819 1107 m 7 Y s 1838 1107 m 7 Y s 1857 1107 m 7 Y s 1876 1107 m 7 Y s 1896 1100 m 14 Y s 1915 1107 m 7 Y s 1934 1107 m 7 Y s 1953 1107 m 7 Y s 1973 1107 m 7 Y s 1992 1100 m 14 Y s 2011
 1107 m 7 Y s 2030 1107 m 7 Y s 2050 1107 m 7 Y s 2069 1107 m 7 Y s 2088 1100 m 14 Y s 2107 1107 m 7 Y s 2127 1107 m 7 Y s 2146 1107 m 7 Y s 2165 1107 m 7 Y s 2184 1100 m 14 Y s 1703 1100 m 14 Y s 1684 1107 m 7 Y s 1665 1107 m 7 Y s 2184 1100 m 14 Y
 s 1655 685 m 429 Y s 1671 685 m -16 X s 1663 700 m -8 X s 1663 716 m -8 X s 1663 731 m -8 X s 1663 747 m -8 X s 1671 762 m -16 X s 1663 778 m -8 X s 1663 793 m -8 X s 1663 809 m -8 X s 1663 825 m -8 X s 1671 840 m -16 X s 1663 856 m -8 X s 1663 871
 m -8 X s 1663 887 m -8 X s 1663 902 m -8 X s 1671 918 m -16 X s 1663 933 m -8 X s 1663 949 m -8 X s 1663 964 m -8 X s 1663 980 m -8 X s 1671 996 m -16 X s 1663 1011 m -8 X s 1663 1027 m -8 X s 1663 1042 m -8 X s 1663 1058 m -8 X s 1671 1073 m -16 X
 s 1671 1073 m -16 X s 1663 1089 m -8 X s 1663 1104 m -8 X s 2202 685 m 429 Y s 2186 685 m 16 X s 2194 700 m 8 X s 2194 716 m 8 X s 2194 731 m 8 X s 2194 747 m 8 X s 2186 762 m 16 X s 2194 778 m 8 X s 2194 793 m 8 X s 2194 809 m 8 X s 2194 825 m 8 X
 s 2186 840 m 16 X s 2194 856 m 8 X s 2194 871 m 8 X s 2194 887 m 8 X s 2194 902 m 8 X s 2186 918 m 16 X s 2194 933 m 8 X s 2194 949 m 8 X s 2194 964 m 8 X s 2194 980 m 8 X s 2186 996 m 16 X s 2194 1011 m 8 X s 2194 1027 m 8 X s 2194 1042 m 8 X s
 2194 1058 m 8 X s 2186 1073 m 16 X s 2186 1073 m 16 X s 2194 1089 m 8 X s 2194 1104 m 8 X s
 gsave  711 567 1534 603 C 2230.83 682.347 t 90 r /Helvetica-Bold findfont 19.9602 sf 0 0 m (U/O\255flow \(S,B\): \(0.0, 0.0\)% / \(0.0, 0.0\)%) show NC gr  0.490196 0.545098 0.615686 c 0.364706 0.419608 0.490196 c 329 38 1542 1130 bf 0.490196
 0.545098 0.615686 c 1542 1130 m 329 X s 1871 1130 m 38 Y s 1871 1168 m -329 X s 1542 1168 m -38 Y s 1 1 1 c black 1 1 1 c
 gsave  711 567 1534 603 C 1545.91 1142.38 t 0 r /Helvetica-Bold findfont 28.5146 sf 0 0 m (Input variable: yy.HP_l1) show NC gr  0.490196 0.545098 0.615686 c 0.941176 0.941176 0.941176 c 710 567 23 12 bf black 1 1 0.992157 c 548 429 143 94 bf black
 548 429 143 94 bl 0 0 0.933333 c 6 lw 0.49 0.6 0.82 c black 3 lw 0.49 0.6 0.82 c 143 114 m 14 X 2 Y 14 X 5 Y 14 X 3 Y 13 X 5 Y 14 X -6 Y 14 X 8 Y 13 X -7 Y 14 X -3 Y 14 X 16 Y 13 X 12 Y 14 X -1 Y 14 X 10 Y 13 X 24 Y 14 X 11 Y 14 X 33 Y 13 X 17 Y 14
 X 33 Y 14 X 38 Y 13 X 1 Y 14 X 46 Y 14 X 30 Y 13 X 10 Y 14 X 39 Y 14 X 12 Y 13 X 33 Y 14 X -21 Y 14 X -18 Y 13 X -82 Y 14 X -233 Y 14 X -17 Y 137 X f 6 lw 0 0 0.933333 c 0.49 0.6 0.82 c 0 0 0.933333 c 143 114 m 14 X 2 Y 14 X 5 Y 14 X 3 Y 13 X 5 Y 14
 X -6 Y 14 X 8 Y 13 X -7 Y 14 X -3 Y 14 X 16 Y 13 X 12 Y 14 X -1 Y 14 X 10 Y 13 X 24 Y 14 X 11 Y 14 X 33 Y 13 X 17 Y 14 X 33 Y 14 X 38 Y 13 X 1 Y 14 X 46 Y 14 X 30 Y 13 X 10 Y 14 X 39 Y 14 X 12 Y 13 X 33 Y 14 X -21 Y 14 X -18 Y 13 X -82 Y 14 X -233 Y
 14 X -17 Y 137 X -20 Y s black 3 lw 143 94 m 548 X s 202 107 m -13 Y s 217 100 m -6 Y s 232 100 m -6 Y s 248 100 m -6 Y s 263 100 m -6 Y s 278 107 m -13 Y s 293 100 m -6 Y s 309 100 m -6 Y s 324 100 m -6 Y s 339 100 m -6 Y s 354 107 m -13 Y s 370
 100 m -6 Y s 385 100 m -6 Y s 400 100 m -6 Y s 415 100 m -6 Y s 431 107 m -13 Y s 446 100 m -6 Y s 461 100 m -6 Y s 477 100 m -6 Y s 492 100 m -6 Y s 507 107 m -13 Y s 522 100 m -6 Y s 538 100 m -6 Y s 553 100 m -6 Y s 568 100 m -6 Y s 583 107 m -13
 Y s 599 100 m -6 Y s 614 100 m -6 Y s 629 100 m -6 Y s 644 100 m -6 Y s 660 107 m -13 Y s 202 107 m -13 Y s 186 100 m -6 Y s 171 100 m -6 Y s 156 100 m -6 Y s 660 107 m -13 Y s 675 100 m -6 Y s 690 100 m -6 Y s
 gsave  710 567 23 12 C 187.555 65.3603 t 0 r /Helvetica findfont 25.6631 sf 0 0 m (0.2) show NC gr 
 gsave  710 567 23 12 C 173.347 65.3603 t 0 r /Symbol findfont 25.6631 sf 0 0 m (-) show NC gr 
 gsave  710 567 23 12 C 264.283 65.3603 t 0 r /Helvetica findfont 25.6631 sf 0 0 m (0.1) show NC gr 
 gsave  710 567 23 12 C 252.916 65.3603 t 0 r /Symbol findfont 25.6631 sf 0 0 m (-) show NC gr 
 gsave  710 567 23 12 C 343.852 65.3603 t 0 r /Helvetica findfont 25.6631 sf 0 0 m (0) show NC gr 
 gsave  710 567 23 12 C 412.054 65.3603 t 0 r /Helvetica findfont 25.6631 sf 0 0 m (0.1) show NC gr 
 gsave  710 567 23 12 C 488.781 65.3603 t 0 r /Helvetica findfont 25.6631 sf 0 0 m (0.2) show NC gr 
 gsave  710 567 23 12 C 565.508 65.3603 t 0 r /Helvetica findfont 25.6631 sf 0 0 m (0.3) show NC gr 
 gsave  710 567 23 12 C 642.236 65.3603 t 0 r /Helvetica findfont 25.6631 sf 0 0 m (0.4) show NC gr 
 gsave  710 567 23 12 C 582.559 25.5758 t 0 r /Helvetica findfont 28.5146 sf 0 0 m (yy.HY_l1) show NC gr  143 523 m 548 X s 202 509 m 14 Y s 217 516 m 7 Y s 232 516 m 7 Y s 248 516 m 7 Y s 263 516 m 7 Y s 278 509 m 14 Y s 293 516 m 7 Y s 309 516 m 7
 Y s 324 516 m 7 Y s 339 516 m 7 Y s 354 509 m 14 Y s 370 516 m 7 Y s 385 516 m 7 Y s 400 516 m 7 Y s 415 516 m 7 Y s 431 509 m 14 Y s 446 516 m 7 Y s 461 516 m 7 Y s 477 516 m 7 Y s 492 516 m 7 Y s 507 509 m 14 Y s 522 516 m 7 Y s 538 516 m 7 Y s
 553 516 m 7 Y s 568 516 m 7 Y s 583 509 m 14 Y s 599 516 m 7 Y s 614 516 m 7 Y s 629 516 m 7 Y s 644 516 m 7 Y s 660 509 m 14 Y s 202 509 m 14 Y s 186 516 m 7 Y s 171 516 m 7 Y s 156 516 m 7 Y s 660 509 m 14 Y s 675 516 m 7 Y s 690 516 m 7 Y s 143
 94 m 429 Y s 160 114 m -17 X s 152 128 m -9 X s 152 142 m -9 X s 152 157 m -9 X s 152 171 m -9 X s 160 185 m -17 X s 152 199 m -9 X s 152 213 m -9 X s 152 227 m -9 X s 152 242 m -9 X s 160 256 m -17 X s 152 270 m -9 X s 152 284 m -9 X s 152 298 m -9
 X s 152 313 m -9 X s 160 327 m -17 X s 152 341 m -9 X s 152 355 m -9 X s 152 369 m -9 X s 152 384 m -9 X s 160 398 m -17 X s 152 412 m -9 X s 152 426 m -9 X s 152 440 m -9 X s 152 454 m -9 X s 160 469 m -17 X s 160 114 m -17 X s 152 100 m -9 X s 160
 469 m -17 X s 152 483 m -9 X s 152 497 m -9 X s 152 511 m -9 X s
 gsave  710 567 23 12 C 119.354 105.145 t 0 r /Helvetica findfont 25.6631 sf 0 0 m (0) show NC gr 
 gsave  710 567 23 12 C 122.195 176.189 t 0 r /Helvetica findfont 25.6631 sf 0 0 m (1) show NC gr 
 gsave  710 567 23 12 C 119.354 247.232 t 0 r /Helvetica findfont 25.6631 sf 0 0 m (2) show NC gr 
 gsave  710 567 23 12 C 119.354 315.434 t 0 r /Helvetica findfont 25.6631 sf 0 0 m (3) show NC gr 
 gsave  710 567 23 12 C 119.354 386.478 t 0 r /Helvetica findfont 25.6631 sf 0 0 m (4) show NC gr 
 gsave  710 567 23 12 C 119.354 457.522 t 0 r /Helvetica findfont 25.6631 sf 0 0 m (5) show NC gr 
 gsave  710 567 23 12 C 45.468 431.946 t 90 r /Helvetica findfont 28.5146 sf 0 0 m (0.0179 ) show NC gr 
 gsave  710 567 23 12 C 31.2593 429.104 t 90 r /Helvetica findfont 19.9602 sf 0 0 m ( ) show NC gr 
 gsave  710 567 23 12 C 45.468 417.737 t 90 r /Helvetica findfont 28.5146 sf 0 0 m (/) show NC gr 
 gsave  710 567 23 12 C 53.9933 414.896 t 90 r /Helvetica findfont 19.9602 sf 0 0 m ( ) show NC gr 
 gsave  710 567 23 12 C 45.468 309.751 t 90 r /Helvetica findfont 28.5146 sf 0 0 m (\(1/N\) dN) show NC gr  691 94 m 429 Y s 674 114 m 17 X s 683 128 m 8 X s 683 142 m 8 X s 683 157 m 8 X s 683 171 m 8 X s 674 185 m 17 X s 683 199 m 8 X s 683 213 m 8
 X s 683 227 m 8 X s 683 242 m 8 X s 674 256 m 17 X s 683 270 m 8 X s 683 284 m 8 X s 683 298 m 8 X s 683 313 m 8 X s 674 327 m 17 X s 683 341 m 8 X s 683 355 m 8 X s 683 369 m 8 X s 683 384 m 8 X s 674 398 m 17 X s 683 412 m 8 X s 683 426 m 8 X s
 683 440 m 8 X s 683 454 m 8 X s 674 469 m 17 X s 674 114 m 17 X s 683 100 m 8 X s 674 469 m 17 X s 683 483 m 8 X s 683 497 m 8 X s 683 511 m 8 X s 0.490196 0.545098 0.615686 c 0.364706 0.419608 0.490196 c 329 37 30 539 bf 0.490196 0.545098 0.615686
 c 30 539 m 329 X s 359 539 m 37 Y s 359 576 m -329 X s 30 576 m -37 Y s 1 1 1 c black 1 1 1 c
 gsave  710 567 23 12 C 34.101 551.299 t 0 r /Helvetica-Bold findfont 28.5146 sf 0 0 m (Input variable: yy.HY_l1) show NC gr  1 0 0 c 6 lw black 3 lw 1 0 0 c 682 114 m s 667 114 m s 652 114 m s 637 114 m s 622 114 m s 606 114 m s 591 114 m s 576 114
 m s 561 114 m s 548 116 m -2 -2 d s 540 123 m -9 -9 d s 540 138 m -24 -24 d s 539 152 m -38 -38 d s 526 155 m -40 -41 d s 526 170 m -55 -56 d s 526 185 m -70 -71 d s 526 200 m -85 -86 d s 526 216 m -13 -14 d s 505 194 m -79 -80 d s 499 203 m -89 -89
 d s 497 216 m -102 -102 d s 485 220 m -105 -106 d s 485 235 m -120 -121 d s 472 236 m -122 -122 d s 466 246 m -8 -8 d s 450 229 m -6 -5 d s 444 224 m -109 -110 d s 431 225 m -111 -111 d s 431 241 m -126 -127 d s 420 245 m -130 -131 d s 417 257 m
 -142 -143 d s 403 259 m -143 -145 d s 398 268 m -8 -8 d s 376 247 m -131 -133 d s 376 261 m -146 -147 d s 373 274 m -11 -11 d s 352 252 m -137 -138 d s 349 264 m -150 -150 d s 349 279 m -14 -13 d s 330 260 m -146 -146 d s 340 286 m -5 -5 d s 321 267
 m -152 -153 d s 317 278 m -9 -10 d s 297 257 m -140 -140 d s 154 114 m s 278 254 m -121 -122 d s 267 257 m -110 -110 d s 259 265 m -102 -103 d s 253 274 m -96 -96 d s 246 282 m -89 -89 d s 232 283 m -6 -6 d s 220 272 m -49 -50 d s 169 220 m -12 -12
 d s 212 278 m -41 -41 d s 212 293 m -41 -41 d s 204 301 m -33 -34 d s 198 310 m -27 -27 d s 192 319 m -21 -21 d s 185 327 m -14 -14 d s 185 342 m -14 -14 d s 185 357 m -14 -14 d s 6 lw 143 114 m 14 X 106 Y 14 X 138 Y 14 X -39 Y 13 X -18 Y 14 X -29 Y
 14 X 11 Y 13 X -1 Y 14 X -17 Y 14 X -11 Y 13 X 1 Y 14 X 2 Y 14 X 21 Y 13 X -18 Y 14 X 26 Y 14 X -34 Y 13 X 22 Y 14 X -27 Y 14 X 21 Y 13 X -10 Y 14 X -13 Y 14 X -21 Y 13 X 5 Y 14 X 17 Y 14 X -10 Y 13 X -20 Y 14 X -22 Y 14 X 23 Y 13 X -65 Y 14 X -36 Y
 14 X -2 Y 137 X -20 Y s black 3 lw 143 94 m 548 X s 202 107 m -13 Y s 217 100 m -6 Y s 232 100 m -6 Y s 248 100 m -6 Y s 263 100 m -6 Y s 278 107 m -13 Y s 293 100 m -6 Y s 309 100 m -6 Y s 324 100 m -6 Y s 339 100 m -6 Y s 354 107 m -13 Y s 370 100
 m -6 Y s 385 100 m -6 Y s 400 100 m -6 Y s 415 100 m -6 Y s 431 107 m -13 Y s 446 100 m -6 Y s 461 100 m -6 Y s 477 100 m -6 Y s 492 100 m -6 Y s 507 107 m -13 Y s 522 100 m -6 Y s 538 100 m -6 Y s 553 100 m -6 Y s 568 100 m -6 Y s 583 107 m -13 Y s
 599 100 m -6 Y s 614 100 m -6 Y s 629 100 m -6 Y s 644 100 m -6 Y s 660 107 m -13 Y s 202 107 m -13 Y s 186 100 m -6 Y s 171 100 m -6 Y s 156 100 m -6 Y s 660 107 m -13 Y s 675 100 m -6 Y s 690 100 m -6 Y s 143 523 m 548 X s 202 509 m 14 Y s 217 516
 m 7 Y s 232 516 m 7 Y s 248 516 m 7 Y s 263 516 m 7 Y s 278 509 m 14 Y s 293 516 m 7 Y s 309 516 m 7 Y s 324 516 m 7 Y s 339 516 m 7 Y s 354 509 m 14 Y s 370 516 m 7 Y s 385 516 m 7 Y s 400 516 m 7 Y s 415 516 m 7 Y s 431 509 m 14 Y s 446 516 m 7 Y
 s 461 516 m 7 Y s 477 516 m 7 Y s 492 516 m 7 Y s 507 509 m 14 Y s 522 516 m 7 Y s 538 516 m 7 Y s 553 516 m 7 Y s 568 516 m 7 Y s 583 509 m 14 Y s 599 516 m 7 Y s 614 516 m 7 Y s 629 516 m 7 Y s 644 516 m 7 Y s 660 509 m 14 Y s 202 509 m 14 Y s 186
 516 m 7 Y s 171 516 m 7 Y s 156 516 m 7 Y s 660 509 m 14 Y s 675 516 m 7 Y s 690 516 m 7 Y s 143 94 m 429 Y s 160 114 m -17 X s 152 128 m -9 X s 152 142 m -9 X s 152 157 m -9 X s 152 171 m -9 X s 160 185 m -17 X s 152 199 m -9 X s 152 213 m -9 X s
 152 227 m -9 X s 152 242 m -9 X s 160 256 m -17 X s 152 270 m -9 X s 152 284 m -9 X s 152 298 m -9 X s 152 313 m -9 X s 160 327 m -17 X s 152 341 m -9 X s 152 355 m -9 X s 152 369 m -9 X s 152 384 m -9 X s 160 398 m -17 X s 152 412 m -9 X s 152 426
 m -9 X s 152 440 m -9 X s 152 454 m -9 X s 160 469 m -17 X s 160 114 m -17 X s 152 100 m -9 X s 160 469 m -17 X s 152 483 m -9 X s 152 497 m -9 X s 152 511 m -9 X s 691 94 m 429 Y s 674 114 m 17 X s 683 128 m 8 X s 683 142 m 8 X s 683 157 m 8 X s
 683 171 m 8 X s 674 185 m 17 X s 683 199 m 8 X s 683 213 m 8 X s 683 227 m 8 X s 683 242 m 8 X s 674 256 m 17 X s 683 270 m 8 X s 683 284 m 8 X s 683 298 m 8 X s 683 313 m 8 X s 674 327 m 17 X s 683 341 m 8 X s 683 355 m 8 X s 683 369 m 8 X s 683
 384 m 8 X s 674 398 m 17 X s 683 412 m 8 X s 683 426 m 8 X s 683 440 m 8 X s 683 454 m 8 X s 674 469 m 17 X s 674 114 m 17 X s 683 100 m 8 X s 674 469 m 17 X s 683 483 m 8 X s 683 497 m 8 X s 683 511 m 8 X s
 gsave  710 567 23 12 C 719.017 91.2634 t 90 r /Helvetica-Bold findfont 19.9602 sf 0 0 m (U/O\255flow \(S,B\): \(0.0, 0.0\)% / \(0.0, 0.0\)%) show NC gr  0.490196 0.545098 0.615686 c 0.364706 0.419608 0.490196 c 329 37 30 539 bf 0.490196 0.545098
 0.615686 c 30 539 m 329 X s 359 539 m 37 Y s 359 576 m -329 X s 30 576 m -37 Y s 1 1 1 c black 1 1 1 c
 gsave  710 567 23 12 C 34.101 551.299 t 0 r /Helvetica-Bold findfont 28.5146 sf 0 0 m (Input variable: yy.HY_l1) show NC gr  0.490196 0.545098 0.615686 c 0.941176 0.941176 0.941176 c 710 567 779 12 bf black 1 1 0.992157 c 548 429 899 94 bf black 548
 429 899 94 bl 0 0 0.933333 c 6 lw 0.49 0.6 0.82 c black 3 lw 0.49 0.6 0.82 c 899 94 m 7 Y 14 X 6 Y 14 X -7 Y 13 X 5 Y 14 X -2 Y 14 X 1 Y 13 X 5 Y 41 X 6 Y 14 X -10 Y 14 X 18 Y 14 X -7 Y 13 X 8 Y 14 X 12 Y 14 X 3 Y 13 X 9 Y 14 X 7 Y 14 X 1 Y 13 X 30
 Y 14 X -23 Y 14 X 30 Y 13 X 46 Y 14 X 8 Y 14 X -3 Y 13 X 28 Y 14 X 42 Y 14 X 7 Y 13 X 44 Y 14 X 18 Y 14 X 25 Y 13 X 15 Y 14 X 24 Y 14 X 3 Y 13 X 33 Y 14 X -7 Y 14 X 8 Y 13 X -24 Y 14 X -192 Y 14 X -174 Y 14 X f 6 lw 0 0 0.933333 c 0.49 0.6 0.82 c 0
 0 0.933333 c 899 101 m 14 X 6 Y 14 X -7 Y 13 X 5 Y 14 X -2 Y 14 X 1 Y 13 X 5 Y 41 X 6 Y 14 X -10 Y 14 X 18 Y 14 X -7 Y 13 X 8 Y 14 X 12 Y 14 X 3 Y 13 X 9 Y 14 X 7 Y 14 X 1 Y 13 X 30 Y 14 X -23 Y 14 X 30 Y 13 X 46 Y 14 X 8 Y 14 X -3 Y 13 X 28 Y 14 X
 42 Y 14 X 7 Y 13 X 44 Y 14 X 18 Y 14 X 25 Y 13 X 15 Y 14 X 24 Y 14 X 3 Y 13 X 33 Y 14 X -7 Y 14 X 8 Y 13 X -24 Y 14 X -192 Y 14 X -174 Y 14 X s black 3 lw 899 94 m 548 X s 953 107 m -13 Y s 966 100 m -6 Y s 980 100 m -6 Y s 993 100 m -6 Y s 1006 107
 m -13 Y s 1020 100 m -6 Y s 1033 100 m -6 Y s 1046 100 m -6 Y s 1060 107 m -13 Y s 1073 100 m -6 Y s 1087 100 m -6 Y s 1100 100 m -6 Y s 1113 107 m -13 Y s 1127 100 m -6 Y s 1140 100 m -6 Y s 1153 100 m -6 Y s 1167 107 m -13 Y s 1180 100 m -6 Y s
 1193 100 m -6 Y s 1207 100 m -6 Y s 1220 107 m -13 Y s 1234 100 m -6 Y s 1247 100 m -6 Y s 1260 100 m -6 Y s 1274 107 m -13 Y s 1287 100 m -6 Y s 1300 100 m -6 Y s 1314 100 m -6 Y s 1327 107 m -13 Y s 1340 100 m -6 Y s 1354 100 m -6 Y s 1367 100 m
 -6 Y s 1381 107 m -13 Y s 1394 100 m -6 Y s 1407 100 m -6 Y s 1421 100 m -6 Y s 1434 107 m -13 Y s 953 107 m -13 Y s 939 100 m -6 Y s 926 100 m -6 Y s 913 100 m -6 Y s 1434 107 m -13 Y s
 gsave  710 567 779 12 C 940.619 65.3603 t 0 r /Helvetica findfont 25.6631 sf 0 0 m (0.8) show NC gr 
 gsave  710 567 779 12 C 926.411 65.3603 t 0 r /Symbol findfont 25.6631 sf 0 0 m (-) show NC gr 
 gsave  710 567 779 12 C 994.612 65.3603 t 0 r /Helvetica findfont 25.6631 sf 0 0 m (0.6) show NC gr 
 gsave  710 567 779 12 C 980.404 65.3603 t 0 r /Symbol findfont 25.6631 sf 0 0 m (-) show NC gr 
 gsave  710 567 779 12 C 1045.76 65.3603 t 0 r /Helvetica findfont 25.6631 sf 0 0 m (0.4) show NC gr 
 gsave  710 567 779 12 C 1031.56 65.3603 t 0 r /Symbol findfont 25.6631 sf 0 0 m (-) show NC gr 
 gsave  710 567 779 12 C 1099.76 65.3603 t 0 r /Helvetica findfont 25.6631 sf 0 0 m (0.2) show NC gr 
 gsave  710 567 779 12 C 1085.55 65.3603 t 0 r /Symbol findfont 25.6631 sf 0 0 m (-) show NC gr 
 gsave  710 567 779 12 C 1156.59 65.3603 t 0 r /Helvetica findfont 25.6631 sf 0 0 m (0) show NC gr 
 gsave  710 567 779 12 C 1202.06 65.3603 t 0 r /Helvetica findfont 25.6631 sf 0 0 m (0.2) show NC gr 
 gsave  710 567 779 12 C 1256.05 65.3603 t 0 r /Helvetica findfont 25.6631 sf 0 0 m (0.4) show NC gr 
 gsave  710 567 779 12 C 1310.05 65.3603 t 0 r /Helvetica findfont 25.6631 sf 0 0 m (0.6) show NC gr 
 gsave  710 567 779 12 C 1361.2 65.3603 t 0 r /Helvetica findfont 25.6631 sf 0 0 m (0.8) show NC gr 
 gsave  710 567 779 12 C 1426.56 65.3603 t 0 r /Helvetica findfont 25.6631 sf 0 0 m (1) show NC gr 
 gsave  710 567 779 12 C 1338.46 22.734 t 0 r /Helvetica findfont 28.5146 sf 0 0 m (bb.H1_l1) show NC gr  899 523 m 548 X s 953 509 m 14 Y s 966 516 m 7 Y s 980 516 m 7 Y s 993 516 m 7 Y s 1006 509 m 14 Y s 1020 516 m 7 Y s 1033 516 m 7 Y s 1046 516
 m 7 Y s 1060 509 m 14 Y s 1073 516 m 7 Y s 1087 516 m 7 Y s 1100 516 m 7 Y s 1113 509 m 14 Y s 1127 516 m 7 Y s 1140 516 m 7 Y s 1153 516 m 7 Y s 1167 509 m 14 Y s 1180 516 m 7 Y s 1193 516 m 7 Y s 1207 516 m 7 Y s 1220 509 m 14 Y s 1234 516 m 7 Y s
 1247 516 m 7 Y s 1260 516 m 7 Y s 1274 509 m 14 Y s 1287 516 m 7 Y s 1300 516 m 7 Y s 1314 516 m 7 Y s 1327 509 m 14 Y s 1340 516 m 7 Y s 1354 516 m 7 Y s 1367 516 m 7 Y s 1381 509 m 14 Y s 1394 516 m 7 Y s 1407 516 m 7 Y s 1421 516 m 7 Y s 1434 509
 m 14 Y s 953 509 m 14 Y s 939 516 m 7 Y s 926 516 m 7 Y s 913 516 m 7 Y s 1434 509 m 14 Y s 899 94 m 429 Y s 915 94 m -16 X s 907 107 m -8 X s 907 121 m -8 X s 907 135 m -8 X s 915 149 m -16 X s 907 163 m -8 X s 907 177 m -8 X s 907 191 m -8 X s 915
 205 m -16 X s 907 219 m -8 X s 907 233 m -8 X s 907 247 m -8 X s 915 261 m -16 X s 907 275 m -8 X s 907 288 m -8 X s 907 302 m -8 X s 915 316 m -16 X s 907 330 m -8 X s 907 344 m -8 X s 907 358 m -8 X s 915 372 m -16 X s 907 386 m -8 X s 907 400 m
 -8 X s 907 414 m -8 X s 915 428 m -16 X s 907 442 m -8 X s 907 456 m -8 X s 907 470 m -8 X s 915 483 m -16 X s 915 483 m -16 X s 907 497 m -8 X s 907 511 m -8 X s
 gsave  710 567 779 12 C 875.259 82.4108 t 0 r /Helvetica findfont 25.6631 sf 0 0 m (0) show NC gr 
 gsave  710 567 779 12 C 855.367 139.246 t 0 r /Helvetica findfont 25.6631 sf 0 0 m (0.2) show NC gr 
 gsave  710 567 779 12 C 855.367 196.081 t 0 r /Helvetica findfont 25.6631 sf 0 0 m (0.4) show NC gr 
 gsave  710 567 779 12 C 855.367 250.074 t 0 r /Helvetica findfont 25.6631 sf 0 0 m (0.6) show NC gr 
 gsave  710 567 779 12 C 855.367 306.909 t 0 r /Helvetica findfont 25.6631 sf 0 0 m (0.8) show NC gr 
 gsave  710 567 779 12 C 878.101 360.902 t 0 r /Helvetica findfont 25.6631 sf 0 0 m (1) show NC gr 
 gsave  710 567 779 12 C 855.367 417.737 t 0 r /Helvetica findfont 25.6631 sf 0 0 m (1.2) show NC gr 
 gsave  710 567 779 12 C 855.367 474.572 t 0 r /Helvetica findfont 25.6631 sf 0 0 m (1.4) show NC gr 
 gsave  710 567 779 12 C 801.374 431.946 t 90 r /Helvetica findfont 28.5146 sf 0 0 m (0.0512 ) show NC gr 
 gsave  710 567 779 12 C 787.165 429.104 t 90 r /Helvetica findfont 19.9602 sf 0 0 m ( ) show NC gr 
 gsave  710 567 779 12 C 801.374 417.737 t 90 r /Helvetica findfont 28.5146 sf 0 0 m (/) show NC gr 
 gsave  710 567 779 12 C 809.899 414.896 t 90 r /Helvetica findfont 19.9602 sf 0 0 m ( ) show NC gr 
 gsave  710 567 779 12 C 801.374 309.751 t 90 r /Helvetica findfont 28.5146 sf 0 0 m (\(1/N\) dN) show NC gr  1447 94 m 429 Y s 1430 94 m 17 X s 1438 107 m 9 X s 1438 121 m 9 X s 1438 135 m 9 X s 1430 149 m 17 X s 1438 163 m 9 X s 1438 177 m 9 X s
 1438 191 m 9 X s 1430 205 m 17 X s 1438 219 m 9 X s 1438 233 m 9 X s 1438 247 m 9 X s 1430 261 m 17 X s 1438 275 m 9 X s 1438 288 m 9 X s 1438 302 m 9 X s 1430 316 m 17 X s 1438 330 m 9 X s 1438 344 m 9 X s 1438 358 m 9 X s 1430 372 m 17 X s 1438
 386 m 9 X s 1438 400 m 9 X s 1438 414 m 9 X s 1430 428 m 17 X s 1438 442 m 9 X s 1438 456 m 9 X s 1438 470 m 9 X s 1430 483 m 17 X s 1430 483 m 17 X s 1438 497 m 9 X s 1438 511 m 9 X s 0.490196 0.545098 0.615686 c 0.364706 0.419608 0.490196 c 332 37
 786 539 bf 0.490196 0.545098 0.615686 c 786 539 m 332 X s 1118 539 m 37 Y s 1118 576 m -332 X s 786 576 m -37 Y s 1 1 1 c black 1 1 1 c
 gsave  710 567 779 12 C 790.007 551.299 t 0 r /Helvetica-Bold findfont 28.5146 sf 0 0 m (Input variable: bb.H1_l1) show NC gr  1 0 0 c 6 lw black 3 lw 1 0 0 c 1433 94 m -1 X s 1433 109 m -16 -15 d s 1427 118 m -25 -24 d s 1419 126 m -32 -32 d s 1419
 141 m -47 -47 d s 1419 156 m -62 -62 d s 1412 164 m -70 -70 d s 1405 173 m -78 -79 d s 1405 187 m -93 -93 d s 1392 189 m -95 -95 d s 1382 194 m -100 -100 d s 1378 206 m -111 -112 d s 1375 217 m -11 -10 d s 1363 205 m -12 -12 d s 1346 188 m -94 -94 d
 s 1337 195 m -100 -101 d s 1337 210 m -116 -116 d s 1332 220 m -9 -9 d s 1316 204 m -110 -110 d s 1310 213 m -119 -119 d s 1310 228 m -134 -134 d s 1301 234 m -5 -5 d s 1286 220 m -125 -126 d s 1275 223 m -6 -6 d s 1264 212 m -118 -118 d s 1244 207
 m -113 -113 d s 1237 215 m -121 -121 d s 1228 221 m -127 -127 d s 1226 235 m -12 -12 d s 1212 221 m -126 -127 d s 1200 224 m -129 -130 d s 1192 231 m -136 -137 d s 1186 240 m -145 -146 d s 1173 242 m -147 -148 d s 1160 244 m -1 -1 d s 1156 240 m
 -146 -146 d s 1139 238 m -144 -144 d s 1132 246 m -152 -152 d s 1132 261 m -167 -167 d s 1128 273 m -10 -10 d s 1111 255 m -161 -161 d s 1101 261 m -10 -11 d s 1090 250 m -155 -156 d s 1068 243 m -148 -149 d s 1064 253 m -159 -159 d s 1057 262 m
 -158 -159 d s 1050 270 m -28 -28 d s 1016 236 m -117 -118 d s 1037 273 m -15 -16 d s 1009 244 m -110 -111 d s 1036 286 m -14 -13 d s 1009 259 m -110 -110 d s 1035 301 m -13 -13 d s 1009 274 m -14 -14 d s 990 255 m -91 -91 d s 981 262 m -82 -83 d s
 981 277 m -13 -14 d s 959 254 m -60 -60 d s 979 290 m -11 -12 d s 949 260 m -9 -9 d s 938 248 m -39 -39 d s 914 239 m -15 -14 d s 913 254 m -14 -14 d s 905 261 m -6 -6 d s 6 lw 899 261 m 14 X -22 Y 14 X 9 Y 13 X 12 Y 14 X -6 Y 14 X 36 Y 13 X -35 Y
 14 X 19 Y 14 X -38 Y 13 X 65 Y 14 X -28 Y 14 X -11 Y 14 X -19 Y 13 X 7 Y 14 X 11 Y 14 X -6 Y 13 X 18 Y 14 X -35 Y 14 X 2 Y 13 X 4 Y 14 X -4 Y 14 X -9 Y 13 X -10 Y 14 X 14 Y 14 X -20 Y 13 X -8 Y 14 X 5 Y 14 X 11 Y 13 X -3 Y 14 X 14 Y 14 X -30 Y 13 X
 16 Y 14 X -32 Y 14 X 17 Y 13 X 12 Y 14 X -23 Y 14 X -7 Y 13 X -23 Y 14 X -46 Y 14 X -24 Y 14 X s black 3 lw 899 94 m 548 X s 953 107 m -13 Y s 966 100 m -6 Y s 980 100 m -6 Y s 993 100 m -6 Y s 1006 107 m -13 Y s 1020 100 m -6 Y s 1033 100 m -6 Y s
 1046 100 m -6 Y s 1060 107 m -13 Y s 1073 100 m -6 Y s 1087 100 m -6 Y s 1100 100 m -6 Y s 1113 107 m -13 Y s 1127 100 m -6 Y s 1140 100 m -6 Y s 1153 100 m -6 Y s 1167 107 m -13 Y s 1180 100 m -6 Y s 1193 100 m -6 Y s 1207 100 m -6 Y s 1220 107 m
 -13 Y s 1234 100 m -6 Y s 1247 100 m -6 Y s 1260 100 m -6 Y s 1274 107 m -13 Y s 1287 100 m -6 Y s 1300 100 m -6 Y s 1314 100 m -6 Y s 1327 107 m -13 Y s 1340 100 m -6 Y s 1354 100 m -6 Y s 1367 100 m -6 Y s 1381 107 m -13 Y s 1394 100 m -6 Y s 1407
 100 m -6 Y s 1421 100 m -6 Y s 1434 107 m -13 Y s 953 107 m -13 Y s 939 100 m -6 Y s 926 100 m -6 Y s 913 100 m -6 Y s 1434 107 m -13 Y s 899 523 m 548 X s 953 509 m 14 Y s 966 516 m 7 Y s 980 516 m 7 Y s 993 516 m 7 Y s 1006 509 m 14 Y s 1020 516 m
 7 Y s 1033 516 m 7 Y s 1046 516 m 7 Y s 1060 509 m 14 Y s 1073 516 m 7 Y s 1087 516 m 7 Y s 1100 516 m 7 Y s 1113 509 m 14 Y s 1127 516 m 7 Y s 1140 516 m 7 Y s 1153 516 m 7 Y s 1167 509 m 14 Y s 1180 516 m 7 Y s 1193 516 m 7 Y s 1207 516 m 7 Y s
 1220 509 m 14 Y s 1234 516 m 7 Y s 1247 516 m 7 Y s 1260 516 m 7 Y s 1274 509 m 14 Y s 1287 516 m 7 Y s 1300 516 m 7 Y s 1314 516 m 7 Y s 1327 509 m 14 Y s 1340 516 m 7 Y s 1354 516 m 7 Y s 1367 516 m 7 Y s 1381 509 m 14 Y s 1394 516 m 7 Y s 1407
 516 m 7 Y s 1421 516 m 7 Y s 1434 509 m 14 Y s 953 509 m 14 Y s 939 516 m 7 Y s 926 516 m 7 Y s 913 516 m 7 Y s 1434 509 m 14 Y s 899 94 m 429 Y s 915 94 m -16 X s 907 107 m -8 X s 907 121 m -8 X s 907 135 m -8 X s 915 149 m -16 X s 907 163 m -8 X s
 907 177 m -8 X s 907 191 m -8 X s 915 205 m -16 X s 907 219 m -8 X s 907 233 m -8 X s 907 247 m -8 X s 915 261 m -16 X s 907 275 m -8 X s 907 288 m -8 X s 907 302 m -8 X s 915 316 m -16 X s 907 330 m -8 X s 907 344 m -8 X s 907 358 m -8 X s 915 372
 m -16 X s 907 386 m -8 X s 907 400 m -8 X s 907 414 m -8 X s 915 428 m -16 X s 907 442 m -8 X s 907 456 m -8 X s 907 470 m -8 X s 915 483 m -16 X s 915 483 m -16 X s 907 497 m -8 X s 907 511 m -8 X s 1447 94 m 429 Y s 1430 94 m 17 X s 1438 107 m 9 X
 s 1438 121 m 9 X s 1438 135 m 9 X s 1430 149 m 17 X s 1438 163 m 9 X s 1438 177 m 9 X s 1438 191 m 9 X s 1430 205 m 17 X s 1438 219 m 9 X s 1438 233 m 9 X s 1438 247 m 9 X s 1430 261 m 17 X s 1438 275 m 9 X s 1438 288 m 9 X s 1438 302 m 9 X s 1430
 316 m 17 X s 1438 330 m 9 X s 1438 344 m 9 X s 1438 358 m 9 X s 1430 372 m 17 X s 1438 386 m 9 X s 1438 400 m 9 X s 1438 414 m 9 X s 1430 428 m 17 X s 1438 442 m 9 X s 1438 456 m 9 X s 1438 470 m 9 X s 1430 483 m 17 X s 1430 483 m 17 X s 1438 497 m
 9 X s 1438 511 m 9 X s
 gsave  710 567 779 12 C 1474.92 91.2634 t 90 r /Helvetica-Bold findfont 19.9602 sf 0 0 m (U/O\255flow \(S,B\): \(0.0, 0.0\)% / \(0.0, 0.0\)%) show NC gr  0.490196 0.545098 0.615686 c 0.364706 0.419608 0.490196 c 332 37 786 539 bf 0.490196 0.545098
 0.615686 c 786 539 m 332 X s 1118 539 m 37 Y s 1118 576 m -332 X s 786 576 m -37 Y s 1 1 1 c black 1 1 1 c
 gsave  710 567 779 12 C 790.007 551.299 t 0 r /Helvetica-Bold findfont 28.5146 sf 0 0 m (Input variable: bb.H1_l1) show NC gr  0.490196 0.545098 0.615686 c 0.941176 0.941176 0.941176 c 711 567 1534 12 bf black 1 1 0.992157 c 547 429 1655 94 bf black
 547 429 1655 94 bl 0 0 0.933333 c 6 lw 0.49 0.6 0.82 c black 3 lw 0.49 0.6 0.82 c 1655 94 m 1 Y 14 X 1 Y 27 X 6 Y 14 X 2 Y 14 X 2 Y 27 X 1 Y 14 X 7 Y 13 X 5 Y 14 X -6 Y 14 X -2 Y 13 X 5 Y 14 X 18 Y 14 X -7 Y 13 X 9 Y 14 X 25 Y 14 X 5 Y 13 X 6 Y 14 X
 39 Y 14 X -10 Y 14 X 65 Y 13 X 45 Y 14 X 31 Y 14 X -20 Y 13 X 95 Y 14 X -2 Y 14 X 25 Y 13 X 8 Y 14 X 36 Y 14 X -13 Y 13 X -39 Y 14 X 33 Y 14 X -44 Y 13 X -35 Y 14 X -15 Y 14 X -72 Y 13 X -56 Y 14 X -110 Y 14 X -39 Y 13 X f 6 lw 0 0 0.933333 c 0.49
 0.6 0.82 c 0 0 0.933333 c 1655 95 m 14 X 1 Y 27 X 6 Y 14 X 2 Y 14 X 2 Y 27 X 1 Y 14 X 7 Y 13 X 5 Y 14 X -6 Y 14 X -2 Y 13 X 5 Y 14 X 18 Y 14 X -7 Y 13 X 9 Y 14 X 25 Y 14 X 5 Y 13 X 6 Y 14 X 39 Y 14 X -10 Y 14 X 65 Y 13 X 45 Y 14 X 31 Y 14 X -20 Y 13
 X 95 Y 14 X -2 Y 14 X 25 Y 13 X 8 Y 14 X 36 Y 14 X -13 Y 13 X -39 Y 14 X 33 Y 14 X -44 Y 13 X -35 Y 14 X -15 Y 14 X -72 Y 13 X -56 Y 14 X -110 Y 14 X -39 Y 13 X s black 3 lw 1655 94 m 547 X s 1709 107 m -13 Y s 1730 100 m -6 Y s 1751 100 m -6 Y s
 1773 100 m -6 Y s 1794 100 m -6 Y s 1816 107 m -13 Y s 1837 100 m -6 Y s 1858 100 m -6 Y s 1880 100 m -6 Y s 1901 100 m -6 Y s 1923 107 m -13 Y s 1944 100 m -6 Y s 1966 100 m -6 Y s 1987 100 m -6 Y s 2008 100 m -6 Y s 2030 107 m -13 Y s 2051 100 m
 -6 Y s 2073 100 m -6 Y s 2094 100 m -6 Y s 2115 100 m -6 Y s 2137 107 m -13 Y s 1709 107 m -13 Y s 1687 100 m -6 Y s 1666 100 m -6 Y s 2137 107 m -13 Y s 2158 100 m -6 Y s 2180 100 m -6 Y s 2201 100 m -6 Y s
 gsave  711 567 1534 12 C 1696.52 65.3603 t 0 r /Helvetica findfont 25.6631 sf 0 0 m (0.2) show NC gr 
 gsave  711 567 1534 12 C 1682.32 65.3603 t 0 r /Symbol findfont 25.6631 sf 0 0 m (-) show NC gr 
 gsave  711 567 1534 12 C 1801.67 65.3603 t 0 r /Helvetica findfont 25.6631 sf 0 0 m (0.1) show NC gr 
 gsave  711 567 1534 12 C 1790.3 65.3603 t 0 r /Symbol findfont 25.6631 sf 0 0 m (-) show NC gr 
 gsave  711 567 1534 12 C 1912.5 65.3603 t 0 r /Helvetica findfont 25.6631 sf 0 0 m (0) show NC gr 
 gsave  711 567 1534 12 C 2011.96 65.3603 t 0 r /Helvetica findfont 25.6631 sf 0 0 m (0.1) show NC gr 
 gsave  711 567 1534 12 C 2117.1 65.3603 t 0 r /Helvetica findfont 25.6631 sf 0 0 m (0.2) show NC gr 
 gsave  711 567 1534 12 C 2091.53 22.734 t 0 r /Helvetica findfont 28.5146 sf 0 0 m (bb.HT_l1) show NC gr  1655 523 m 547 X s 1709 509 m 14 Y s 1730 516 m 7 Y s 1751 516 m 7 Y s 1773 516 m 7 Y s 1794 516 m 7 Y s 1816 509 m 14 Y s 1837 516 m 7 Y s
 1858 516 m 7 Y s 1880 516 m 7 Y s 1901 516 m 7 Y s 1923 509 m 14 Y s 1944 516 m 7 Y s 1966 516 m 7 Y s 1987 516 m 7 Y s 2008 516 m 7 Y s 2030 509 m 14 Y s 2051 516 m 7 Y s 2073 516 m 7 Y s 2094 516 m 7 Y s 2115 516 m 7 Y s 2137 509 m 14 Y s 1709 509
 m 14 Y s 1687 516 m 7 Y s 1666 516 m 7 Y s 2137 509 m 14 Y s 2158 516 m 7 Y s 2180 516 m 7 Y s 2201 516 m 7 Y s 1655 94 m 429 Y s 1671 94 m -16 X s 1663 108 m -8 X s 1663 123 m -8 X s 1663 137 m -8 X s 1663 152 m -8 X s 1671 166 m -16 X s 1663 181 m
 -8 X s 1663 196 m -8 X s 1663 210 m -8 X s 1663 225 m -8 X s 1671 239 m -16 X s 1663 254 m -8 X s 1663 269 m -8 X s 1663 283 m -8 X s 1663 298 m -8 X s 1671 312 m -16 X s 1663 327 m -8 X s 1663 342 m -8 X s 1663 356 m -8 X s 1663 371 m -8 X s 1671
 385 m -16 X s 1663 400 m -8 X s 1663 415 m -8 X s 1663 429 m -8 X s 1663 444 m -8 X s 1671 458 m -16 X s 1671 458 m -16 X s 1663 473 m -8 X s 1663 487 m -8 X s 1663 502 m -8 X s 1663 517 m -8 X s
 gsave  711 567 1534 12 C 1631.16 82.4108 t 0 r /Helvetica findfont 25.6631 sf 0 0 m (0) show NC gr 
 gsave  711 567 1534 12 C 1634.01 156.296 t 0 r /Helvetica findfont 25.6631 sf 0 0 m (1) show NC gr 
 gsave  711 567 1534 12 C 1631.16 230.182 t 0 r /Helvetica findfont 25.6631 sf 0 0 m (2) show NC gr 
 gsave  711 567 1534 12 C 1631.16 301.226 t 0 r /Helvetica findfont 25.6631 sf 0 0 m (3) show NC gr 
 gsave  711 567 1534 12 C 1631.16 375.111 t 0 r /Helvetica findfont 25.6631 sf 0 0 m (4) show NC gr 
 gsave  711 567 1534 12 C 1631.16 448.997 t 0 r /Helvetica findfont 25.6631 sf 0 0 m (5) show NC gr 
 gsave  711 567 1534 12 C 1557.28 431.946 t 90 r /Helvetica findfont 28.5146 sf 0 0 m (0.0128 ) show NC gr 
 gsave  711 567 1534 12 C 1543.07 429.104 t 90 r /Helvetica findfont 19.9602 sf 0 0 m ( ) show NC gr 
 gsave  711 567 1534 12 C 1557.28 417.737 t 90 r /Helvetica findfont 28.5146 sf 0 0 m (/) show NC gr 
 gsave  711 567 1534 12 C 1565.8 414.896 t 90 r /Helvetica findfont 19.9602 sf 0 0 m ( ) show NC gr 
 gsave  711 567 1534 12 C 1557.28 309.751 t 90 r /Helvetica findfont 28.5146 sf 0 0 m (\(1/N\) dN) show NC gr  2202 94 m 429 Y s 2186 94 m 16 X s 2194 108 m 8 X s 2194 123 m 8 X s 2194 137 m 8 X s 2194 152 m 8 X s 2186 166 m 16 X s 2194 181 m 8 X s
 2194 196 m 8 X s 2194 210 m 8 X s 2194 225 m 8 X s 2186 239 m 16 X s 2194 254 m 8 X s 2194 269 m 8 X s 2194 283 m 8 X s 2194 298 m 8 X s 2186 312 m 16 X s 2194 327 m 8 X s 2194 342 m 8 X s 2194 356 m 8 X s 2194 371 m 8 X s 2186 385 m 16 X s 2194 400
 m 8 X s 2194 415 m 8 X s 2194 429 m 8 X s 2194 444 m 8 X s 2186 458 m 16 X s 2186 458 m 16 X s 2194 473 m 8 X s 2194 487 m 8 X s 2194 502 m 8 X s 2194 517 m 8 X s 0.490196 0.545098 0.615686 c 0.364706 0.419608 0.490196 c 335 37 1542 539 bf 0.490196
 0.545098 0.615686 c 1542 539 m 335 X s 1877 539 m 37 Y s 1877 576 m -335 X s 1542 576 m -37 Y s 1 1 1 c black 1 1 1 c
 gsave  711 567 1534 12 C 1545.91 551.299 t 0 r /Helvetica-Bold findfont 28.5146 sf 0 0 m (Input variable: bb.HT_l1) show NC gr  1 0 0 c 6 lw black 3 lw 1 0 0 c 2189 94 m -1 X s 2179 99 m -6 -5 d s 2175 110 m -17 -16 d s 2161 112 m -18 -18 d s 2161
 127 m -33 -33 d s 2161 142 m -48 -48 d s 2149 145 m -51 -51 d s 2148 159 m -65 -65 d s 2134 160 m -66 -66 d s 2134 175 m -81 -81 d s 2129 186 m -91 -92 d s 2112 184 m -89 -90 d s 2107 193 m -99 -99 d s 2094 195 m -102 -101 d s 2093 210 m -116 -116 d
 s 2089 222 m -127 -128 d s 2069 217 m -122 -123 d s 2066 228 m -134 -134 d s 2065 243 m -148 -149 d s 2052 245 m -150 -151 d s 2050 258 m -12 -12 d s 2029 236 m -142 -142 d s 2025 247 m -153 -153 d s 2016 254 m -159 -160 d s 2004 257 m -7 -7 d s
 1991 244 m -149 -150 d s 1972 240 m -145 -146 d s 1970 253 m -158 -159 d s 1961 259 m -5 -5 d s 1955 254 m -159 -160 d s 1943 256 m -162 -162 d s 1943 271 m -177 -177 d s 1930 273 m -1 -1 d s 1923 267 m -172 -173 d s 1912 271 m -176 -177 d s 1897
 270 m -176 -176 d s 1888 277 m -182 -183 d s 1877 281 m -186 -187 d s 1864 283 m -17 -17 d s 1845 263 m -169 -169 d s 1847 281 m s 1833 267 m -172 -173 d s 1833 282 m -178 -179 d s 1824 289 m -18 -19 d s 1805 269 m -150 -151 d s 1819 299 m -13 -14 d
 s 1792 271 m -137 -138 d s 1819 314 m -13 -14 d s 1792 286 m -14 -13 d s 1765 260 m -96 -98 d s 1668 162 m -13 -13 d s 1792 302 m -14 -14 d s 1765 274 m -96 -96 d s 1790 315 m -12 -12 d s 1765 289 m -82 -82 d s 1680 204 m -11 -11 d s 1754 293 m -3
 -2 d s 1742 282 m -18 -19 d s 1719 258 m -9 -9 d s 1700 239 m -4 -3 d s 1684 224 m -1 -2 d s 1737 292 m -13 -14 d s 1729 299 m -5 -6 d s 6 lw 1655 162 m 14 X 42 Y 14 X 20 Y 13 X 15 Y 14 X 19 Y 14 X 41 Y 13 X -17 Y 14 X 11 Y 14 X -33 Y 13 X 55 Y 14 X
 -46 Y 14 X 45 Y 13 X -25 Y 14 X -26 Y 14 X 18 Y 13 X 2 Y 14 X -2 Y 14 X -11 Y 13 X 1 Y 14 X -4 Y 14 X 6 Y 14 X -19 Y 13 X 5 Y 14 X -19 Y 14 X 4 Y 13 X 13 Y 14 X -3 Y 14 X -18 Y 13 X 22 Y 14 X -15 Y 14 X -26 Y 13 X 5 Y 14 X -27 Y 14 X -11 Y 13 X 2 Y
 14 X -26 Y 14 X -15 Y 13 X -35 Y 14 X -11 Y 14 X -5 Y 13 X s black 3 lw 1655 94 m 547 X s 1709 107 m -13 Y s 1730 100 m -6 Y s 1751 100 m -6 Y s 1773 100 m -6 Y s 1794 100 m -6 Y s 1816 107 m -13 Y s 1837 100 m -6 Y s 1858 100 m -6 Y s 1880 100 m -6
 Y s 1901 100 m -6 Y s 1923 107 m -13 Y s 1944 100 m -6 Y s 1966 100 m -6 Y s 1987 100 m -6 Y s 2008 100 m -6 Y s 2030 107 m -13 Y s 2051 100 m -6 Y s 2073 100 m -6 Y s 2094 100 m -6 Y s 2115 100 m -6 Y s 2137 107 m -13 Y s 1709 107 m -13 Y s 1687
 100 m -6 Y s 1666 100 m -6 Y s 2137 107 m -13 Y s 2158 100 m -6 Y s 2180 100 m -6 Y s 2201 100 m -6 Y s 1655 523 m 547 X s 1709 509 m 14 Y s 1730 516 m 7 Y s 1751 516 m 7 Y s 1773 516 m 7 Y s 1794 516 m 7 Y s 1816 509 m 14 Y s 1837 516 m 7 Y s 1858
 516 m 7 Y s 1880 516 m 7 Y s 1901 516 m 7 Y s 1923 509 m 14 Y s 1944 516 m 7 Y s 1966 516 m 7 Y s 1987 516 m 7 Y s 2008 516 m 7 Y s 2030 509 m 14 Y s 2051 516 m 7 Y s 2073 516 m 7 Y s 2094 516 m 7 Y s 2115 516 m 7 Y s 2137 509 m 14 Y s 1709 509 m 14
 Y s 1687 516 m 7 Y s 1666 516 m 7 Y s 2137 509 m 14 Y s 2158 516 m 7 Y s 2180 516 m 7 Y s 2201 516 m 7 Y s 1655 94 m 429 Y s 1671 94 m -16 X s 1663 108 m -8 X s 1663 123 m -8 X s 1663 137 m -8 X s 1663 152 m -8 X s 1671 166 m -16 X s 1663 181 m -8 X
 s 1663 196 m -8 X s 1663 210 m -8 X s 1663 225 m -8 X s 1671 239 m -16 X s 1663 254 m -8 X s 1663 269 m -8 X s 1663 283 m -8 X s 1663 298 m -8 X s 1671 312 m -16 X s 1663 327 m -8 X s 1663 342 m -8 X s 1663 356 m -8 X s 1663 371 m -8 X s 1671 385 m
 -16 X s 1663 400 m -8 X s 1663 415 m -8 X s 1663 429 m -8 X s 1663 444 m -8 X s 1671 458 m -16 X s 1671 458 m -16 X s 1663 473 m -8 X s 1663 487 m -8 X s 1663 502 m -8 X s 1663 517 m -8 X s 2202 94 m 429 Y s 2186 94 m 16 X s 2194 108 m 8 X s 2194
 123 m 8 X s 2194 137 m 8 X s 2194 152 m 8 X s 2186 166 m 16 X s 2194 181 m 8 X s 2194 196 m 8 X s 2194 210 m 8 X s 2194 225 m 8 X s 2186 239 m 16 X s 2194 254 m 8 X s 2194 269 m 8 X s 2194 283 m 8 X s 2194 298 m 8 X s 2186 312 m 16 X s 2194 327 m 8
 X s 2194 342 m 8 X s 2194 356 m 8 X s 2194 371 m 8 X s 2186 385 m 16 X s 2194 400 m 8 X s 2194 415 m 8 X s 2194 429 m 8 X s 2194 444 m 8 X s 2186 458 m 16 X s 2186 458 m 16 X s 2194 473 m 8 X s 2194 487 m 8 X s 2194 502 m 8 X s 2194 517 m 8 X s
 gsave  711 567 1534 12 C 2230.83 91.2634 t 90 r /Helvetica-Bold findfont 19.9602 sf 0 0 m (U/O\255flow \(S,B\): \(0.0, 0.0\)% / \(0.0, 0.0\)%) show NC gr  0.490196 0.545098 0.615686 c 0.364706 0.419608 0.490196 c 335 37 1542 539 bf 0.490196 0.545098
 0.615686 c 1542 539 m 335 X s 1877 539 m 37 Y s 1877 576 m -335 X s 1542 576 m -37 Y s 1 1 1 c black 1 1 1 c
 gsave  711 567 1534 12 C 1545.91 551.299 t 0 r /Helvetica-Bold findfont 28.5146 sf 0 0 m (Input variable: bb.HT_l1) show NC gr 
 gr  gr showpage
end
%%EOF
